#
#                              ======================
#                              | THE SUSYHIT OUTPUT |
#                              ======================
#
#
#              ------------------------------------------------------
#              |     This is the output of the SUSY-HIT package     |
#              |  created by A.Djouadi, M.Muehlleitner and M.Spira. |
#              |  In case of problems with SUSY-HIT email to        |
#              |           margarete.muehlleitner@cern.ch           |
#              |           michael.spira@psi.ch                     |
#              |           abdelhak.djouadi@cern.ch                 |
#              ------------------------------------------------------
#
#              ------------------------------------------------------
#              |  SUSY Les Houches Accord - MSSM Spectrum + Decays  |
#              |              based on the decay programs           |
#              |                                                    |
#              |                     SDECAY 1.3b                    |
#              |                                                    |
#              |  Authors: M.Muhlleitner, A.Djouadi and Y.Mambrini  |
#              |  Ref.:    Comput.Phys.Commun.168(2005)46           |
#              |           [hep-ph/0311167]                         |
#              |                                                    |
#              |                     HDECAY 3.4                     |
#              |                                                    |
#              |  By: A.Djouadi,J.Kalinowski,M.Muhlleitner,M.Spira  |
#              |  Ref.:    Comput.Phys.Commun.108(1998)56           |
#              |           [hep-ph/9704448]                         |
#              |                                                    |
#              |                                                    |
#              |  If not stated otherwise all DRbar couplings and   |
#              |  soft SUSY breaking masses are given at the scale  |
#              |  Q=  0.50007233E+04
#              |                                                    |
#              ------------------------------------------------------
#
#
BLOCK DCINFO  # Decay Program information
     1   SDECAY/HDECAY # decay calculator
     2   1.3b  /3.4    # version number
#
BLOCK SPINFO  # Spectrum calculator information
     1    SOFTSUSY    # spectrum calculator                
     2    3.4.0       # version number                     
#
BLOCK MODSEL  # Model selection
     1     0   #  nonUniversal                                     
#
BLOCK SMINPUTS  # Standard Model inputs
         1     1.25778332E+02   # alpha_em^-1(M_Z)^MSbar
         2     1.16570000E-05   # G_F [GeV^-2]
         3     1.17200002E-01   # alpha_S(M_Z)^MSbar
         4     9.11876000E+01   # M_Z pole mass
         5     4.25000000E+00   # mb(mb)^MSbar
         6     1.72500000E+02   # mt pole mass
         7     1.77682000E+00   # mtau pole mass
#
BLOCK MINPAR  # Input parameters - minimal models
         3     1.00000000E+01   # tanb                
#
BLOCK EXTPAR  # Input parameters - non-minimal models
         0    -1.00000000E+00   # Set                 
         1     6.00000000E+01   # M_1(MX)             
         2     3.00000000E+03   # M_2(MX)             
         3     7.73143000E+02   # M_3(MX)             
        11     5.00000000E+03   # At(MX)              
        12     5.00000000E+03   # Ab(MX)              
        13     0.00000000E+00   # Atau(MX)            
        23    -1.05678500E+03   # mu(MX)              
        26     3.00000000E+03   # mA(pole)            
        31     5.00000000E+03   # meL(MX)             
        32     5.00000000E+03   # mmuL(MX)            
        33     5.00000000E+03   # mtauL(MX)           
        34     5.00000000E+03   # meR(MX)             
        35     5.00000000E+03   # mmuR(MX)            
        36     5.00000000E+03   # mtauR(MX)           
        41     5.00000000E+03   # mqL1(MX)            
        42     5.00000000E+03   # mqL2(MX)            
        43     5.00000000E+03   # mqL3(MX)            
        44     5.00000000E+03   # muR(MX)             
        45     5.00000000E+03   # mcR(MX)             
        46     5.00000000E+03   # mtR(MX)             
        47     5.00000000E+03   # mdR(MX)             
        48     5.00000000E+03   # msR(MX)             
        49     5.00000000E+03   # mbR(MX)             
#
BLOCK MASS  # Mass Spectrum
# PDG code           mass       particle
        24     8.00926664E+01   # W+
        25     1.24312563E+02   # h
        35     3.00008404E+03   # H
        36     2.99999585E+03   # A
        37     3.00097775E+03   # H+
         5     4.87878001E+00   # b-quark pole mass calculated from mb(mb)_Msbar
   1000001     5.06378493E+03   # ~d_L
   2000001     5.04595665E+03   # ~d_R
   1000002     5.06330788E+03   # ~u_L
   2000002     5.04567266E+03   # ~u_R
   1000003     5.06378493E+03   # ~s_L
   2000003     5.04595665E+03   # ~s_R
   1000004     5.06330788E+03   # ~c_L
   2000004     5.04567266E+03   # ~c_R
   1000005     5.01019066E+03   # ~b_1
   2000005     5.04460428E+03   # ~b_2
   1000006     4.90071737E+03   # ~t_1
   2000006     5.05635579E+03   # ~t_2
   1000011     5.01906858E+03   # ~e_L
   2000011     5.00592123E+03   # ~e_R
   1000012     5.01811946E+03   # ~nu_eL
   1000013     5.01906858E+03   # ~mu_L
   2000013     5.00592123E+03   # ~mu_R
   1000014     5.01811946E+03   # ~nu_muL
   1000015     5.00456976E+03   # ~tau_1
   2000015     5.01880821E+03   # ~tau_2
   1000016     5.01757446E+03   # ~nu_tauL
   1000021     1.00000041E+03   # ~g
   1000022     6.03006843E+01   # ~chi_10
   1000023     1.09958871E+03   # ~chi_20
   1000025    -1.10186613E+03   # ~chi_30
   1000035     3.07427835E+03   # ~chi_40
   1000024     1.10000033E+03   # ~chi_1+
   1000037     3.07444587E+03   # ~chi_2+
#
BLOCK NMIX  # Neutralino Mixing Matrix
  1  1     9.99178050E-01   # N_11
  1  2     1.73922282E-04   # N_12
  1  3    -4.04866363E-02   # N_13
  1  4     2.00642907E-03   # N_14
  2  1     2.72159461E-02   # N_21
  2  2     2.46776363E-02   # N_22
  2  3     7.06785244E-01   # N_23
  2  4     7.06473585E-01   # N_24
  3  1    -3.00391284E-02   # N_31
  3  2     1.45542552E-02   # N_32
  3  3    -7.06232398E-01   # N_33
  3  4     7.07192777E-01   # N_34
  4  1    -4.08375048E-04   # N_41
  4  2     9.99589495E-01   # N_42
  4  3    -7.15899994E-03   # N_43
  4  4    -2.77384981E-02   # N_44
#
BLOCK UMIX  # Chargino Mixing Matrix U
  1  1     1.01389273E-02   # U_11
  1  2     9.99948600E-01   # U_12
  2  1    -9.99948600E-01   # U_21
  2  2     1.01389273E-02   # U_22
#
BLOCK VMIX  # Chargino Mixing Matrix V
  1  1     3.92577828E-02   # V_11
  1  2    -9.99229116E-01   # V_12
  2  1    -9.99229116E-01   # V_21
  2  2    -3.92577828E-02   # V_22
#
BLOCK STOPMIX  # Stop Mixing Matrix
  1  1    -5.11006790E-01   # cos(theta_t)
  1  2     8.59576675E-01   # sin(theta_t)
  2  1    -8.59576675E-01   # -sin(theta_t)
  2  2    -5.11006790E-01   # cos(theta_t)
#
BLOCK SBOTMIX  # Sbottom Mixing Matrix
  1  1     9.96569109E-01   # cos(theta_b)
  1  2    -8.27647932E-02   # sin(theta_b)
  2  1     8.27647932E-02   # -sin(theta_b)
  2  2     9.96569109E-01   # cos(theta_b)
#
BLOCK STAUMIX  # Stau Mixing Matrix
  1  1    -1.25052803E-01   # cos(theta_tau)
  1  2     9.92150088E-01   # sin(theta_tau)
  2  1    -9.92150088E-01   # -sin(theta_tau)
  2  2    -1.25052803E-01   # cos(theta_tau)
#
BLOCK ALPHA  # Higgs mixing
          -1.05421720E-01   # Mixing angle in the neutral Higgs boson sector
#
BLOCK HMIX Q=  5.00072327E+03  # DRbar Higgs Parameters
         1    -1.07558252E+03   # mu(Q)MSSM           
         2     9.47436793E+00   # tan                 
         3     2.41946508E+02   # higgs               
         4     8.48253855E+06   # mA^2(Q)MSSM         
#
BLOCK GAUGE Q=  5.00072327E+03  # The gauge couplings
     1     3.70794488E-01   # gprime(Q) DRbar
     2     6.32491956E-01   # g(Q) DRbar
     3     1.00864200E+00   # g3(Q) DRbar
#
BLOCK AU Q=  5.00072327E+03  # The trilinear couplings
  1  1     5.00000001E+03   # A_u(Q) DRbar
  2  2     5.00000001E+03   # A_c(Q) DRbar
  3  3     5.00000001E+03   # A_t(Q) DRbar
#
BLOCK AD Q=  5.00072327E+03  # The trilinear couplings
  1  1     5.00000000E+03   # A_d(Q) DRbar
  2  2     5.00000000E+03   # A_s(Q) DRbar
  3  3     5.00000001E+03   # A_b(Q) DRbar
#
BLOCK AE Q=  5.00072327E+03  # The trilinear couplings
  1  1     0.00000000E+00   # A_e(Q) DRbar
  2  2     1.67243163E-08   # A_mu(Q) DRbar
  3  3     1.57486624E-08   # A_tau(Q) DRbar
#
BLOCK Yu Q=  5.00072327E+03  # The Yukawa couplings
  1  1     0.00000000E+00   # y_u(Q) DRbar
  2  2     0.00000000E+00   # y_c(Q) DRbar
  3  3     8.14094693E-01   # y_t(Q) DRbar
#
BLOCK Yd Q=  5.00072327E+03  # The Yukawa couplings
  1  1     0.00000000E+00   # y_d(Q) DRbar
  2  2     0.00000000E+00   # y_s(Q) DRbar
  3  3     1.29430439E-01   # y_b(Q) DRbar
#
BLOCK Ye Q=  5.00072327E+03  # The Yukawa couplings
  1  1     0.00000000E+00   # y_e(Q) DRbar
  2  2     0.00000000E+00   # y_mu(Q) DRbar
  3  3     9.68215317E-02   # y_tau(Q) DRbar
#
BLOCK MSOFT Q=  5.00072327E+03  # The soft SUSY breaking masses at the scale Q
         1     6.00000000E+01   # M_1(Q)              
         2     3.00000000E+03   # M_2(Q)              
         3     7.73143000E+02   # M_3(Q)              
        21     7.53339245E+06   # mH1^2(Q)            
        22    -6.00624275E+05   # mH2^2(Q)            
        31     5.00000000E+03   # meL(Q)              
        32     5.00000000E+03   # mmuL(Q)             
        33     5.00000000E+03   # mtauL(Q)            
        34     5.00000000E+03   # meR(Q)              
        35     5.00000000E+03   # mmuR(Q)             
        36     5.00000000E+03   # mtauR(Q)            
        41     5.00000000E+03   # mqL1(Q)             
        42     5.00000000E+03   # mqL2(Q)             
        43     5.00000000E+03   # mqL3(Q)             
        44     5.00000000E+03   # muR(Q)              
        45     5.00000000E+03   # mcR(Q)              
        46     5.00000000E+03   # mtR(Q)              
        47     5.00000000E+03   # mdR(Q)              
        48     5.00000000E+03   # msR(Q)              
        49     5.00000000E+03   # mbR(Q)              
#
#
#
#                             =================
#                             |The decay table|
#                             =================
#
# - The QCD corrections to the decays gluino -> squark  + quark
#                                     squark -> gaugino + quark_prime
#                                     squark -> squark_prime + Higgs
#                                     squark -> gluino  + quark
#   are included.
#
# - The multi-body decays for the inos, stops and sbottoms are included.
#
# - The loop induced decays for the gluino, neutralinos and stops
#   are included.
#
# - The SUSY decays of the top quark are included.
#
#
#         PDG            Width
DECAY         6     1.40199916E+00   # top decays
#          BR         NDA      ID1       ID2
     1.00000000E+00    2           5        24   # BR(t ->  b    W+)
#
#         PDG            Width
DECAY   1000021     8.40791126E-06   # gluino decays
#          BR         NDA      ID1       ID2
     2.08467126E-05    2     1000022        21   # BR(~g -> ~chi_10 g)
#           BR         NDA      ID1       ID2       ID3
     8.30819485E-02    3     1000022         1        -1   # BR(~g -> ~chi_10 d  db)
     2.83243889E-01    3     1000022         2        -2   # BR(~g -> ~chi_10 u  ub)
     8.30819485E-02    3     1000022         3        -3   # BR(~g -> ~chi_10 s  sb)
     2.83243889E-01    3     1000022         4        -4   # BR(~g -> ~chi_10 c  cb)
     8.42225909E-02    3     1000022         5        -5   # BR(~g -> ~chi_10 b  bb)
     1.83104886E-01    3     1000022         6        -6   # BR(~g -> ~chi_10 t  tb)
#
#         PDG            Width
DECAY   1000006     4.13776489E+02   # stop1 decays
#          BR         NDA      ID1       ID2
     2.12242948E-02    2     1000022         6   # BR(~t_1 -> ~chi_10 t )
     7.14967616E-02    2     1000023         6   # BR(~t_1 -> ~chi_20 t )
     6.86942941E-02    2     1000025         6   # BR(~t_1 -> ~chi_30 t )
     5.15048696E-03    2     1000035         6   # BR(~t_1 -> ~chi_40 t )
     1.02819508E-01    2     1000024         5   # BR(~t_1 -> ~chi_1+ b )
     1.02591278E-02    2     1000037         5   # BR(~t_1 -> ~chi_2+ b )
     7.20355527E-01    2     1000021         6   # BR(~t_1 -> ~g      t )
#
#         PDG            Width
DECAY   2000006     4.15545928E+02   # stop2 decays
#          BR         NDA      ID1       ID2
     8.63092180E-03    2     1000022         6   # BR(~t_2 -> ~chi_10 t )
     7.29774234E-02    2     1000023         6   # BR(~t_2 -> ~chi_20 t )
     7.60212196E-02    2     1000025         6   # BR(~t_2 -> ~chi_30 t )
     1.31098559E-02    2     1000035         6   # BR(~t_2 -> ~chi_40 t )
     4.46301030E-02    2     1000024         5   # BR(~t_2 -> ~chi_1+ b )
     2.60765115E-02    2     1000037         5   # BR(~t_2 -> ~chi_2+ b )
     7.55413617E-01    2     1000021         6   # BR(~t_2 -> ~g      t )
     6.96954148E-04    2     1000006        25   # BR(~t_2 -> ~t_1    h )
     2.44339336E-03    2     1000006        23   # BR(~t_2 -> ~t_1    Z )
#
#         PDG            Width
DECAY   1000005     3.93922445E+02   # sbottom1 decays
#          BR         NDA      ID1       ID2
     1.97185762E-03    2     1000022         5   # BR(~b_1 -> ~chi_10 b )
     1.96993697E-03    2     1000023         5   # BR(~b_1 -> ~chi_20 b )
     1.90589726E-03    2     1000025         5   # BR(~b_1 -> ~chi_30 b )
     1.89912530E-02    2     1000035         5   # BR(~b_1 -> ~chi_40 b )
     1.52175088E-01    2    -1000024         6   # BR(~b_1 -> ~chi_1- t )
     3.81666240E-02    2    -1000037         6   # BR(~b_1 -> ~chi_2- t )
     7.83375524E-01    2     1000021         5   # BR(~b_1 -> ~g      b )
     1.44381901E-03    2     1000006       -24   # BR(~b_1 -> ~t_1    W-)
#
#         PDG            Width
DECAY   2000005     3.17425661E+02   # sbottom2 decays
#          BR         NDA      ID1       ID2
     9.26084067E-03    2     1000022         5   # BR(~b_2 -> ~chi_10 b )
     2.41721867E-03    2     1000023         5   # BR(~b_2 -> ~chi_20 b )
     2.49152805E-03    2     1000025         5   # BR(~b_2 -> ~chi_30 b )
     1.70565252E-04    2     1000035         5   # BR(~b_2 -> ~chi_40 b )
     6.12729556E-03    2    -1000024         6   # BR(~b_2 -> ~chi_1- t )
     3.42714722E-04    2    -1000037         6   # BR(~b_2 -> ~chi_2- t )
     9.79139561E-01    2     1000021         5   # BR(~b_2 -> ~g      b )
     5.02764340E-05    2     1000006       -24   # BR(~b_2 -> ~t_1    W-)
#
#         PDG            Width
DECAY   1000002     3.36270368E+02   # sup_L decays
#          BR         NDA      ID1       ID2
     2.22318638E-03    2     1000022         2   # BR(~u_L -> ~chi_10 u)
     4.75683460E-05    2     1000023         2   # BR(~u_L -> ~chi_20 u)
     3.98536739E-06    2     1000025         2   # BR(~u_L -> ~chi_30 u)
     2.32055549E-02    2     1000035         2   # BR(~u_L -> ~chi_40 u)
     1.62944512E-04    2     1000024         1   # BR(~u_L -> ~chi_1+ d)
     4.63791834E-02    2     1000037         1   # BR(~u_L -> ~chi_2+ d)
     9.27977577E-01    2     1000021         2   # BR(~u_L -> ~g      u)
#
#         PDG            Width
DECAY   2000002     3.22704007E+02   # sup_R decays
#          BR         NDA      ID1       ID2
     3.68711760E-02    2     1000022         2   # BR(~u_R -> ~chi_10 u)
     2.48277099E-05    2     1000023         2   # BR(~u_R -> ~chi_20 u)
     3.02332101E-05    2     1000025         2   # BR(~u_R -> ~chi_30 u)
     2.43781729E-09    2     1000035         2   # BR(~u_R -> ~chi_40 u)
     9.63073761E-01    2     1000021         2   # BR(~u_R -> ~g      u)
#
#         PDG            Width
DECAY   1000001     3.36279849E+02   # sdown_L decays
#          BR         NDA      ID1       ID2
     2.21542614E-03    2     1000022         1   # BR(~d_L -> ~chi_10 d)
     1.98154570E-05    2     1000023         1   # BR(~d_L -> ~chi_20 d)
     2.20467488E-05    2     1000025         1   # BR(~d_L -> ~chi_30 d)
     2.32195778E-02    2     1000035         1   # BR(~d_L -> ~chi_40 d)
     1.08694875E-05    2    -1000024         2   # BR(~d_L -> ~chi_1- u)
     4.64592271E-02    2    -1000037         2   # BR(~d_L -> ~chi_2- u)
     9.28053037E-01    2     1000021         1   # BR(~d_L -> ~g      d)
#
#         PDG            Width
DECAY   2000001     3.13787344E+02   # sdown_R decays
#          BR         NDA      ID1       ID2
     9.48026439E-03    2     1000022         1   # BR(~d_R -> ~chi_10 d)
     6.38373668E-06    2     1000023         1   # BR(~d_R -> ~chi_20 d)
     7.77360711E-06    2     1000025         1   # BR(~d_R -> ~chi_30 d)
     6.26890840E-10    2     1000035         1   # BR(~d_R -> ~chi_40 d)
     9.90505578E-01    2     1000021         1   # BR(~d_R -> ~g      d)
#
#         PDG            Width
DECAY   1000004     3.36270368E+02   # scharm_L decays
#          BR         NDA      ID1       ID2
     2.22318638E-03    2     1000022         4   # BR(~c_L -> ~chi_10 c)
     4.75683460E-05    2     1000023         4   # BR(~c_L -> ~chi_20 c)
     3.98536739E-06    2     1000025         4   # BR(~c_L -> ~chi_30 c)
     2.32055549E-02    2     1000035         4   # BR(~c_L -> ~chi_40 c)
     1.62944512E-04    2     1000024         3   # BR(~c_L -> ~chi_1+ s)
     4.63791834E-02    2     1000037         3   # BR(~c_L -> ~chi_2+ s)
     9.27977577E-01    2     1000021         4   # BR(~c_L -> ~g      c)
#
#         PDG            Width
DECAY   2000004     3.22704007E+02   # scharm_R decays
#          BR         NDA      ID1       ID2
     3.68711760E-02    2     1000022         4   # BR(~c_R -> ~chi_10 c)
     2.48277099E-05    2     1000023         4   # BR(~c_R -> ~chi_20 c)
     3.02332101E-05    2     1000025         4   # BR(~c_R -> ~chi_30 c)
     2.43781729E-09    2     1000035         4   # BR(~c_R -> ~chi_40 c)
     9.63073761E-01    2     1000021         4   # BR(~c_R -> ~g      c)
#
#         PDG            Width
DECAY   1000003     3.36279849E+02   # sstrange_L decays
#          BR         NDA      ID1       ID2
     2.21542614E-03    2     1000022         3   # BR(~s_L -> ~chi_10 s)
     1.98154570E-05    2     1000023         3   # BR(~s_L -> ~chi_20 s)
     2.20467488E-05    2     1000025         3   # BR(~s_L -> ~chi_30 s)
     2.32195778E-02    2     1000035         3   # BR(~s_L -> ~chi_40 s)
     1.08694875E-05    2    -1000024         4   # BR(~s_L -> ~chi_1- c)
     4.64592271E-02    2    -1000037         4   # BR(~s_L -> ~chi_2- c)
     9.28053037E-01    2     1000021         3   # BR(~s_L -> ~g      s)
#
#         PDG            Width
DECAY   2000003     3.13787344E+02   # sstrange_R decays
#          BR         NDA      ID1       ID2
     9.48026439E-03    2     1000022         3   # BR(~s_R -> ~chi_10 s)
     6.38373668E-06    2     1000023         3   # BR(~s_R -> ~chi_20 s)
     7.77360711E-06    2     1000025         3   # BR(~s_R -> ~chi_30 s)
     6.26890840E-10    2     1000035         3   # BR(~s_R -> ~chi_40 s)
     9.90505578E-01    2     1000021         3   # BR(~s_R -> ~g      s)
#
#         PDG            Width
DECAY   1000011     3.02668221E+01   # selectron_L decays
#          BR         NDA      ID1       ID2
     2.26485936E-01    2     1000022        11   # BR(~e_L -> ~chi_10 e-)
     9.87408643E-04    2     1000023        11   # BR(~e_L -> ~chi_20 e-)
     5.58299826E-06    2     1000025        11   # BR(~e_L -> ~chi_30 e-)
     2.57283005E-01    2     1000035        11   # BR(~e_L -> ~chi_40 e-)
     1.22948802E-04    2    -1000024        12   # BR(~e_L -> ~chi_1- nu_e)
     5.15115118E-01    2    -1000037        12   # BR(~e_L -> ~chi_2- nu_e)
#
#         PDG            Width
DECAY   2000011     2.73726874E+01   # selectron_R decays
#          BR         NDA      ID1       ID2
     9.98511288E-01    2     1000022        11   # BR(~e_R -> ~chi_10 e-)
     6.71253221E-04    2     1000023        11   # BR(~e_R -> ~chi_20 e-)
     8.17394208E-04    2     1000025        11   # BR(~e_R -> ~chi_30 e-)
     6.47252080E-08    2     1000035        11   # BR(~e_R -> ~chi_40 e-)
#
#         PDG            Width
DECAY   1000013     3.02668221E+01   # smuon_L decays
#          BR         NDA      ID1       ID2
     2.26485936E-01    2     1000022        13   # BR(~mu_L -> ~chi_10 mu-)
     9.87408643E-04    2     1000023        13   # BR(~mu_L -> ~chi_20 mu-)
     5.58299826E-06    2     1000025        13   # BR(~mu_L -> ~chi_30 mu-)
     2.57283005E-01    2     1000035        13   # BR(~mu_L -> ~chi_40 mu-)
     1.22948802E-04    2    -1000024        14   # BR(~mu_L -> ~chi_1- nu_mu)
     5.15115118E-01    2    -1000037        14   # BR(~mu_L -> ~chi_2- nu_mu)
#
#         PDG            Width
DECAY   2000013     2.73726874E+01   # smuon_R decays
#          BR         NDA      ID1       ID2
     9.98511288E-01    2     1000022        13   # BR(~mu_R -> ~chi_10 mu-)
     6.71253221E-04    2     1000023        13   # BR(~mu_R -> ~chi_20 mu-)
     8.17394208E-04    2     1000025        13   # BR(~mu_R -> ~chi_30 mu-)
     6.47252080E-08    2     1000035        13   # BR(~mu_R -> ~chi_40 mu-)
#
#         PDG            Width
DECAY   1000015     2.90984506E+01   # stau_1 decays
#          BR         NDA      ID1       ID2
     9.28949489E-01    2     1000022        15   # BR(~tau_1 -> ~chi_10  tau-)
     1.53556405E-02    2     1000023        15   # BR(~tau_1 -> ~chi_20  tau-)
     1.44856608E-02    2     1000025        15   # BR(~tau_1 -> ~chi_30  tau-)
     4.04256220E-03    2     1000035        15   # BR(~tau_1 -> ~chi_40  tau-)
     2.90731375E-02    2    -1000024        16   # BR(~tau_1 -> ~chi_1-  nu_tau)
     8.09351040E-03    2    -1000037        16   # BR(~tau_1 -> ~chi_2-  nu_tau)
#
#         PDG            Width
DECAY   2000015     3.10655063E+01   # stau_2 decays
#          BR         NDA      ID1       ID2
     2.30226839E-01    2     1000022        15   # BR(~tau_2 -> ~chi_10  tau-)
     1.44047679E-02    2     1000023        15   # BR(~tau_2 -> ~chi_20  tau-)
     1.43416958E-02    2     1000025        15   # BR(~tau_2 -> ~chi_30  tau-)
     2.46801182E-01    2     1000035        15   # BR(~tau_2 -> ~chi_40  tau-)
     9.61238259E-05    2    -1000024        16   # BR(~tau_2 -> ~chi_1-  nu_tau)
     4.94129391E-01    2    -1000037        16   # BR(~tau_2 -> ~chi_2-  nu_tau)
#
#         PDG            Width
DECAY   1000012     3.02694887E+01   # snu_eL decays
#          BR         NDA      ID1       ID2
     2.26154378E-01    2     1000022        12   # BR(~nu_eL -> ~chi_10 nu_e)
     4.54866295E-05    2     1000023        12   # BR(~nu_eL -> ~chi_20 nu_e)
     6.18270134E-04    2     1000025        12   # BR(~nu_eL -> ~chi_30 nu_e)
     2.57341268E-01    2     1000035        12   # BR(~nu_eL -> ~chi_40 nu_e)
     1.84270089E-03    2     1000024        11   # BR(~nu_eL -> ~chi_1+ e-)
     5.13997896E-01    2     1000037        11   # BR(~nu_eL -> ~chi_2+ e-)
#
#         PDG            Width
DECAY   1000014     3.02694887E+01   # snu_muL decays
#          BR         NDA      ID1       ID2
     2.26154378E-01    2     1000022        14   # BR(~nu_muL -> ~chi_10 nu_mu)
     4.54866295E-05    2     1000023        14   # BR(~nu_muL -> ~chi_20 nu_mu)
     6.18270134E-04    2     1000025        14   # BR(~nu_muL -> ~chi_30 nu_mu)
     2.57341268E-01    2     1000035        14   # BR(~nu_muL -> ~chi_40 nu_mu)
     1.84270089E-03    2     1000024        13   # BR(~nu_muL -> ~chi_1+ mu-)
     5.13997896E-01    2     1000037        13   # BR(~nu_muL -> ~chi_2+ mu-)
#
#         PDG            Width
DECAY   1000016     3.11080618E+01   # snu_tauL decays
#          BR         NDA      ID1       ID2
     2.20034072E-01    2     1000022        16   # BR(~nu_tauL -> ~chi_10 nu_tau)
     4.42546798E-05    2     1000023        16   # BR(~nu_tauL -> ~chi_20 nu_tau)
     6.01524987E-04    2     1000025        16   # BR(~nu_tauL -> ~chi_30 nu_tau)
     2.50311623E-01    2     1000035        16   # BR(~nu_tauL -> ~chi_40 nu_tau)
     2.90514340E-02    2     1000024        15   # BR(~nu_tauL -> ~chi_1+ tau-)
     4.99957091E-01    2     1000037        15   # BR(~nu_tauL -> ~chi_2+ tau-)
#
#         PDG            Width
DECAY   1000024     6.72186259E-01   # chargino1+ decays
#          BR         NDA      ID1       ID2
     1.00000000E+00    2     1000022        24   # BR(~chi_1+ -> ~chi_10  W+)
#
#         PDG            Width
DECAY   1000037     2.00634246E+01   # chargino2+ decays
#          BR         NDA      ID1       ID2
     2.53128459E-01    2     1000024        23   # BR(~chi_2+ -> ~chi_1+  Z )
     2.05873901E-04    2     1000022        24   # BR(~chi_2+ -> ~chi_10  W+)
     2.44102280E-01    2     1000023        24   # BR(~chi_2+ -> ~chi_20  W+)
     2.44076167E-01    2     1000025        24   # BR(~chi_2+ -> ~chi_30  W+)
     2.58486287E-01    2     1000024        25   # BR(~chi_2+ -> ~chi_1+  h )
     9.33116601E-07    2     1000022        37   # BR(~chi_2+ -> ~chi_10  H+)
#
#         PDG            Width
DECAY   1000022     0.00000000E+00   # neutralino1 decays
#
#         PDG            Width
DECAY   1000023     7.03260814E-01   # neutralino2 decays
#          BR         NDA      ID1       ID2
     5.44461333E-01    2     1000022        23   # BR(~chi_20 -> ~chi_10   Z )
     4.55538667E-01    2     1000022        25   # BR(~chi_20 -> ~chi_10   h )
#
#         PDG            Width
DECAY   1000025     7.07719946E-01   # neutralino3 decays
#          BR         NDA      ID1       ID2
     4.43702754E-01    2     1000022        23   # BR(~chi_30 -> ~chi_10   Z )
     5.56297246E-01    2     1000022        25   # BR(~chi_30 -> ~chi_10   h )
#
#         PDG            Width
DECAY   1000035     2.00770702E+01   # neutralino4 decays
#          BR         NDA      ID1       ID2
     5.54843911E-05    2     1000022        23   # BR(~chi_40 -> ~chi_10   Z )
     6.53716323E-02    2     1000023        23   # BR(~chi_40 -> ~chi_20   Z )
     1.87039553E-01    2     1000025        23   # BR(~chi_40 -> ~chi_30   Z )
     2.44739235E-01    2     1000024       -24   # BR(~chi_40 -> ~chi_1+   W-)
     2.44739235E-01    2    -1000024        24   # BR(~chi_40 -> ~chi_1-   W+)
     1.52284237E-04    2     1000022        25   # BR(~chi_40 -> ~chi_10   h )
     8.62517634E-07    2     1000022        35   # BR(~chi_40 -> ~chi_10   H )
     1.09131883E-07    2     1000022        36   # BR(~chi_40 -> ~chi_10   A )
     1.92406101E-01    2     1000023        25   # BR(~chi_40 -> ~chi_20   h )
     6.54955040E-02    2     1000025        25   # BR(~chi_40 -> ~chi_30   h )
#
#         PDG            Width
DECAY        25     4.01490466E-03   # h decays
#          BR         NDA      ID1       ID2
     6.16960630E-01    2           5        -5   # BR(h -> b       bb     )
     6.43603928E-02    2         -15        15   # BR(h -> tau+    tau-   )
     2.27861245E-04    2         -13        13   # BR(h -> mu+     mu-    )
     4.83401118E-04    2           3        -3   # BR(h -> s       sb     )
     2.09475783E-02    2           4        -4   # BR(h -> c       cb     )
     6.72267566E-02    2          21        21   # BR(h -> g       g      )
     2.30085682E-03    2          22        22   # BR(h -> gam     gam    )
     1.44486799E-03    2          22        23   # BR(h -> Z       gam    )
     2.02114690E-01    2          24       -24   # BR(h -> W+      W-     )
     2.38899766E-02    2          23        23   # BR(h -> Z       Z      )
     4.29882445E-05    2     1000022   1000022   # BR(h -> ~chi_10 ~chi_10)
#
#         PDG            Width
DECAY        35     7.94960806E+00   # H decays
#          BR         NDA      ID1       ID2
     4.06681484E-01    2           5        -5   # BR(H -> b       bb     )
     7.01474569E-02    2         -15        15   # BR(H -> tau+    tau-   )
     2.48046979E-04    2         -13        13   # BR(H -> mu+     mu-    )
     3.04067634E-04    2           3        -3   # BR(H -> s       sb     )
     1.69753880E-06    2           4        -4   # BR(H -> c       cb     )
     1.69597574E-01    2           6        -6   # BR(H -> t       tb     )
     5.63143338E-05    2          21        21   # BR(H -> g       g      )
     3.01068172E-07    2          22        22   # BR(H -> gam     gam    )
     1.00029171E-07    2          23        22   # BR(H -> Z       gam    )
     7.68017218E-05    2          24       -24   # BR(H -> W+      W-     )
     3.83522448E-05    2          23        23   # BR(H -> Z       Z      )
     2.89123801E-04    2          25        25   # BR(H -> h       h      )
    -1.11969602E-23    2          36        36   # BR(H -> A       A      )
     1.23689424E-18    2          23        36   # BR(H -> Z       A      )
     1.60530061E-03    2     1000024  -1000024   # BR(H -> ~chi_1+ ~chi_1-)
     1.50205918E-03    2     1000022   1000022   # BR(H -> ~chi_10 ~chi_10)
     5.87446284E-05    2     1000023   1000023   # BR(H -> ~chi_20 ~chi_20)
     3.73602556E-04    2     1000025   1000025   # BR(H -> ~chi_30 ~chi_30)
     2.08996589E-01    2     1000022   1000023   # BR(H -> ~chi_10 ~chi_20)
     1.39679627E-01    2     1000022   1000025   # BR(H -> ~chi_10 ~chi_30)
     3.42756372E-04    2     1000023   1000025   # BR(H -> ~chi_20 ~chi_30)
#
#         PDG            Width
DECAY        36     7.96812971E+00   # A decays
#          BR         NDA      ID1       ID2
     4.05872962E-01    2           5        -5   # BR(A -> b       bb     )
     6.99863346E-02    2         -15        15   # BR(A -> tau+    tau-   )
     2.47476892E-04    2         -13        13   # BR(A -> mu+     mu-    )
     3.03590370E-04    2           3        -3   # BR(A -> s       sb     )
     1.70059824E-06    2           4        -4   # BR(A -> c       cb     )
     1.69809490E-01    2           6        -6   # BR(A -> t       tb     )
     1.68109267E-04    2          21        21   # BR(A -> g       g      )
     5.55074923E-07    2          22        22   # BR(A -> gam     gam    )
     2.03449344E-07    2          23        22   # BR(A -> Z       gam    )
     7.63360274E-05    2          23        25   # BR(A -> Z       h      )
     3.10651396E-03    2     1000024  -1000024   # BR(A -> ~chi_1+ ~chi_1-)
     1.53281030E-03    2     1000022   1000022   # BR(A -> ~chi_10 ~chi_10)
     8.28951557E-05    2     1000023   1000023   # BR(A -> ~chi_20 ~chi_20)
     1.23819057E-03    2     1000025   1000025   # BR(A -> ~chi_30 ~chi_30)
     1.41240220E-01    2     1000022   1000023   # BR(A -> ~chi_10 ~chi_20)
     2.06263809E-01    2     1000022   1000025   # BR(A -> ~chi_10 ~chi_30)
     6.88043465E-05    2     1000023   1000025   # BR(A -> ~chi_20 ~chi_30)
#
#         PDG            Width
DECAY        37     7.90919856E+00   # H+ decays
#          BR         NDA      ID1       ID2
     6.50915384E-04    2           4        -5   # BR(H+ -> c       bb     )
     7.05308776E-02    2         -15        16   # BR(H+ -> tau+    nu_tau )
     2.49402437E-04    2         -13        14   # BR(H+ -> mu+     nu_mu  )
     4.16583683E-06    2           2        -5   # BR(H+ -> u       bb     )
     1.46343494E-05    2           2        -3   # BR(H+ -> u       sb     )
     3.02636103E-04    2           4        -3   # BR(H+ -> c       sb     )
     5.74330066E-01    2           6        -5   # BR(H+ -> t       bb     )
     7.70297824E-05    2          24        25   # BR(H+ -> W+      h      )
     1.51659297E-13    2          24        36   # BR(H+ -> W+      A      )
     3.53115475E-01    2     1000024   1000022   # BR(H+ -> ~chi_1+ ~chi_10)
     6.76506470E-04    2     1000024   1000023   # BR(H+ -> ~chi_1+ ~chi_20)
     4.82906074E-05    2     1000024   1000025   # BR(H+ -> ~chi_1+ ~chi_30)
