#
#                              ======================
#                              | THE SUSYHIT OUTPUT |
#                              ======================
#
#
#              ------------------------------------------------------
#              |     This is the output of the SUSY-HIT package     |
#              |  created by A.Djouadi, M.Muehlleitner and M.Spira. |
#              |  In case of problems with SUSY-HIT email to        |
#              |           margarete.muehlleitner@cern.ch           |
#              |           michael.spira@psi.ch                     |
#              |           abdelhak.djouadi@cern.ch                 |
#              ------------------------------------------------------
#
#              ------------------------------------------------------
#              |  SUSY Les Houches Accord - MSSM Spectrum + Decays  |
#              |              based on the decay programs           |
#              |                                                    |
#              |                     SDECAY 1.3b                    |
#              |                                                    |
#              |  Authors: M.Muhlleitner, A.Djouadi and Y.Mambrini  |
#              |  Ref.:    Comput.Phys.Commun.168(2005)46           |
#              |           [hep-ph/0311167]                         |
#              |                                                    |
#              |                     HDECAY 3.4                     |
#              |                                                    |
#              |  By: A.Djouadi,J.Kalinowski,M.Muhlleitner,M.Spira  |
#              |  Ref.:    Comput.Phys.Commun.108(1998)56           |
#              |           [hep-ph/9704448]                         |
#              |                                                    |
#              |                                                    |
#              |  If not stated otherwise all DRbar couplings and   |
#              |  soft SUSY breaking masses are given at the scale  |
#              |  Q=  0.50007004E+04
#              |                                                    |
#              ------------------------------------------------------
#
#
BLOCK DCINFO  # Decay Program information
     1   SDECAY/HDECAY # decay calculator
     2   1.3b  /3.4    # version number
#
BLOCK SPINFO  # Spectrum calculator information
     1    SOFTSUSY    # spectrum calculator                
     2    3.4.0       # version number                     
#
BLOCK MODSEL  # Model selection
     1     0   #  nonUniversal                                     
#
BLOCK SMINPUTS  # Standard Model inputs
         1     1.25778332E+02   # alpha_em^-1(M_Z)^MSbar
         2     1.16570000E-05   # G_F [GeV^-2]
         3     1.17200002E-01   # alpha_S(M_Z)^MSbar
         4     9.11876000E+01   # M_Z pole mass
         5     4.25000000E+00   # mb(mb)^MSbar
         6     1.72500000E+02   # mt pole mass
         7     1.77682000E+00   # mtau pole mass
#
BLOCK MINPAR  # Input parameters - minimal models
         3     1.00000000E+01   # tanb                
#
BLOCK EXTPAR  # Input parameters - non-minimal models
         0    -1.00000000E+00   # Set                 
         1     6.00000000E+01   # M_1(MX)             
         2     3.00000000E+03   # M_2(MX)             
         3     8.59147000E+02   # M_3(MX)             
        11     5.00000000E+03   # At(MX)              
        12     5.00000000E+03   # Ab(MX)              
        13     0.00000000E+00   # Atau(MX)            
        23    -1.64313700E+03   # mu(MX)              
        26     3.00000000E+03   # mA(pole)            
        31     5.00000000E+03   # meL(MX)             
        32     5.00000000E+03   # mmuL(MX)            
        33     5.00000000E+03   # mtauL(MX)           
        34     5.00000000E+03   # meR(MX)             
        35     5.00000000E+03   # mmuR(MX)            
        36     5.00000000E+03   # mtauR(MX)           
        41     5.00000000E+03   # mqL1(MX)            
        42     5.00000000E+03   # mqL2(MX)            
        43     5.00000000E+03   # mqL3(MX)            
        44     5.00000000E+03   # muR(MX)             
        45     5.00000000E+03   # mcR(MX)             
        46     5.00000000E+03   # mtR(MX)             
        47     5.00000000E+03   # mdR(MX)             
        48     5.00000000E+03   # msR(MX)             
        49     5.00000000E+03   # mbR(MX)             
#
BLOCK MASS  # Mass Spectrum
# PDG code           mass       particle
        24     8.00945010E+01   # W+
        25     1.24392937E+02   # h
        35     3.00007984E+03   # H
        36     2.99999996E+03   # A
        37     3.00087421E+03   # H+
         5     4.87878001E+00   # b-quark pole mass calculated from mb(mb)_Msbar
   1000001     5.06416363E+03   # ~d_L
   2000001     5.04636314E+03   # ~d_R
   1000002     5.06368684E+03   # ~u_L
   2000002     5.04609064E+03   # ~u_R
   1000003     5.06416363E+03   # ~s_L
   2000003     5.04636314E+03   # ~s_R
   1000004     5.06368684E+03   # ~c_L
   2000004     5.04609064E+03   # ~c_R
   1000005     5.01093937E+03   # ~b_1
   2000005     5.04544491E+03   # ~b_2
   1000006     4.90203316E+03   # ~t_1
   2000006     5.05842312E+03   # ~t_2
   1000011     5.01904505E+03   # ~e_L
   2000011     5.00590655E+03   # ~e_R
   1000012     5.01809661E+03   # ~nu_eL
   1000013     5.01904505E+03   # ~mu_L
   2000013     5.00590655E+03   # ~mu_R
   1000014     5.01809661E+03   # ~nu_muL
   1000015     5.00425294E+03   # ~tau_1
   2000015     5.01912757E+03   # ~tau_2
   1000016     5.01756134E+03   # ~nu_tauL
   1000021     1.10000007E+03   # ~g
   1000022     6.03015934E+01   # ~chi_10
   1000023     1.69941180E+03   # ~chi_20
   1000025    -1.70202584E+03   # ~chi_30
   1000035     3.07436401E+03   # ~chi_40
   1000024     1.70000075E+03   # ~chi_1+
   1000037     3.07453166E+03   # ~chi_2+
#
BLOCK NMIX  # Neutralino Mixing Matrix
  1  1     9.99653797E-01   # N_11
  1  2     1.27067168E-04   # N_12
  1  3    -2.62479299E-02   # N_13
  1  4     1.82121489E-03   # N_14
  2  1     1.72690277E-02   # N_21
  2  2     3.53940511E-02   # N_22
  2  3     7.06866389E-01   # N_23
  2  4     7.06249921E-01   # N_24
  3  1    -1.98451716E-02   # N_31
  3  2     1.27049686E-02   # N_32
  3  3    -7.06677719E-01   # N_33
  3  4     7.07143093E-01   # N_34
  4  1    -4.86455831E-04   # N_41
  4  2     9.99292664E-01   # N_42
  4  3    -1.60485633E-02   # N_43
  4  4    -3.40055613E-02   # N_44
#
BLOCK UMIX  # Chargino Mixing Matrix U
  1  1     2.26912842E-02   # U_11
  1  2     9.99742520E-01   # U_12
  2  1    -9.99742520E-01   # U_21
  2  2     2.26912842E-02   # U_22
#
BLOCK VMIX  # Chargino Mixing Matrix V
  1  1     4.80925876E-02   # V_11
  1  2    -9.98842882E-01   # V_12
  2  1    -9.98842882E-01   # V_21
  2  2    -4.80925876E-02   # V_22
#
BLOCK STOPMIX  # Stop Mixing Matrix
  1  1    -5.15980513E-01   # cos(theta_t)
  1  2     8.56600321E-01   # sin(theta_t)
  2  1    -8.56600321E-01   # -sin(theta_t)
  2  2    -5.15980513E-01   # cos(theta_t)
#
BLOCK SBOTMIX  # Sbottom Mixing Matrix
  1  1     9.93063985E-01   # cos(theta_b)
  1  2    -1.17575175E-01   # sin(theta_b)
  2  1     1.17575175E-01   # -sin(theta_b)
  2  2     9.93063985E-01   # cos(theta_b)
#
BLOCK STAUMIX  # Stau Mixing Matrix
  1  1    -1.88903135E-01   # cos(theta_tau)
  1  2     9.81995726E-01   # sin(theta_tau)
  2  1    -9.81995726E-01   # -sin(theta_tau)
  2  2    -1.88903135E-01   # cos(theta_tau)
#
BLOCK ALPHA  # Higgs mixing
          -1.05418776E-01   # Mixing angle in the neutral Higgs boson sector
#
BLOCK HMIX Q=  5.00070041E+03  # DRbar Higgs Parameters
         1    -1.67251779E+03   # mu(Q)MSSM           
         2     9.47420627E+00   # tan                 
         3     2.42056117E+02   # higgs               
         4     8.35832198E+06   # mA^2(Q)MSSM         
#
BLOCK GAUGE Q=  5.00070041E+03  # The gauge couplings
     1     3.70690185E-01   # gprime(Q) DRbar
     2     6.31992600E-01   # g(Q) DRbar
     3     1.00723632E+00   # g3(Q) DRbar
#
BLOCK AU Q=  5.00070041E+03  # The trilinear couplings
  1  1     5.00000001E+03   # A_u(Q) DRbar
  2  2     5.00000001E+03   # A_c(Q) DRbar
  3  3     5.00000001E+03   # A_t(Q) DRbar
#
BLOCK AD Q=  5.00070041E+03  # The trilinear couplings
  1  1     5.00000000E+03   # A_d(Q) DRbar
  2  2     5.00000000E+03   # A_s(Q) DRbar
  3  3     5.00000001E+03   # A_b(Q) DRbar
#
BLOCK AE Q=  5.00070041E+03  # The trilinear couplings
  1  1     0.00000000E+00   # A_e(Q) DRbar
  2  2     3.38653576E-08   # A_mu(Q) DRbar
  3  3     3.29574570E-08   # A_tau(Q) DRbar
#
BLOCK Yu Q=  5.00070041E+03  # The Yukawa couplings
  1  1     0.00000000E+00   # y_u(Q) DRbar
  2  2     0.00000000E+00   # y_c(Q) DRbar
  3  3     8.14603136E-01   # y_t(Q) DRbar
#
BLOCK Yd Q=  5.00070041E+03  # The Yukawa couplings
  1  1     0.00000000E+00   # y_d(Q) DRbar
  2  2     0.00000000E+00   # y_s(Q) DRbar
  3  3     1.30084167E-01   # y_b(Q) DRbar
#
BLOCK Ye Q=  5.00070041E+03  # The Yukawa couplings
  1  1     0.00000000E+00   # y_e(Q) DRbar
  2  2     0.00000000E+00   # y_mu(Q) DRbar
  3  3     9.65690712E-02   # y_tau(Q) DRbar
#
BLOCK MSOFT Q=  5.00070041E+03  # The soft SUSY breaking masses at the scale Q
         1     6.00000000E+01   # M_1(Q)              
         2     3.00000000E+03   # M_2(Q)              
         3     8.59147000E+02   # M_3(Q)              
        21     5.86134747E+06   # mH1^2(Q)            
        22    -2.26021828E+06   # mH2^2(Q)            
        31     5.00000000E+03   # meL(Q)              
        32     5.00000000E+03   # mmuL(Q)             
        33     5.00000000E+03   # mtauL(Q)            
        34     5.00000000E+03   # meR(Q)              
        35     5.00000000E+03   # mmuR(Q)             
        36     5.00000000E+03   # mtauR(Q)            
        41     5.00000000E+03   # mqL1(Q)             
        42     5.00000000E+03   # mqL2(Q)             
        43     5.00000000E+03   # mqL3(Q)             
        44     5.00000000E+03   # muR(Q)              
        45     5.00000000E+03   # mcR(Q)              
        46     5.00000000E+03   # mtR(Q)              
        47     5.00000000E+03   # mdR(Q)              
        48     5.00000000E+03   # msR(Q)              
        49     5.00000000E+03   # mbR(Q)              
#
#
#
#                             =================
#                             |The decay table|
#                             =================
#
# - The QCD corrections to the decays gluino -> squark  + quark
#                                     squark -> gaugino + quark_prime
#                                     squark -> squark_prime + Higgs
#                                     squark -> gluino  + quark
#   are included.
#
# - The multi-body decays for the inos, stops and sbottoms are included.
#
# - The loop induced decays for the gluino, neutralinos and stops
#   are included.
#
# - The SUSY decays of the top quark are included.
#
#
#         PDG            Width
DECAY         6     1.39970621E+00   # top decays
#          BR         NDA      ID1       ID2
     1.00000000E+00    2           5        24   # BR(t ->  b    W+)
#
#         PDG            Width
DECAY   1000021     1.37925247E-05   # gluino decays
#          BR         NDA      ID1       ID2
     1.77163728E-05    2     1000022        21   # BR(~g -> ~chi_10 g)
#           BR         NDA      ID1       ID2       ID3
     8.16045144E-02    3     1000022         1        -1   # BR(~g -> ~chi_10 d  db)
     2.78171513E-01    3     1000022         2        -2   # BR(~g -> ~chi_10 u  ub)
     8.16045144E-02    3     1000022         3        -3   # BR(~g -> ~chi_10 s  sb)
     2.78171513E-01    3     1000022         4        -4   # BR(~g -> ~chi_10 c  cb)
     8.25542902E-02    3     1000022         5        -5   # BR(~g -> ~chi_10 b  bb)
     1.97875939E-01    3     1000022         6        -6   # BR(~g -> ~chi_10 t  tb)
#
#         PDG            Width
DECAY   1000006     3.92919186E+02   # stop1 decays
#          BR         NDA      ID1       ID2
     2.22203475E-02    2     1000022         6   # BR(~t_1 -> ~chi_10 t )
     6.44562829E-02    2     1000023         6   # BR(~t_1 -> ~chi_20 t )
     6.18579877E-02    2     1000025         6   # BR(~t_1 -> ~chi_30 t )
     5.72238552E-03    2     1000035         6   # BR(~t_1 -> ~chi_40 t )
     9.15832015E-02    2     1000024         5   # BR(~t_1 -> ~chi_1+ b )
     1.13692029E-02    2     1000037         5   # BR(~t_1 -> ~chi_2+ b )
     7.42790592E-01    2     1000021         6   # BR(~t_1 -> ~g      t )
#
#         PDG            Width
DECAY   2000006     3.99972242E+02   # stop2 decays
#          BR         NDA      ID1       ID2
     9.11418110E-03    2     1000022         6   # BR(~t_2 -> ~chi_10 t )
     6.59401089E-02    2     1000023         6   # BR(~t_2 -> ~chi_20 t )
     6.87086037E-02    2     1000025         6   # BR(~t_2 -> ~chi_30 t )
     1.33574577E-02    2     1000035         6   # BR(~t_2 -> ~chi_40 t )
     4.17108136E-02    2     1000024         5   # BR(~t_2 -> ~chi_1+ b )
     2.64880964E-02    2     1000037         5   # BR(~t_2 -> ~chi_2+ b )
     7.71336610E-01    2     1000021         6   # BR(~t_2 -> ~g      t )
     7.18982635E-04    2     1000006        25   # BR(~t_2 -> ~t_1    h )
     2.62514587E-03    2     1000006        23   # BR(~t_2 -> ~t_1    Z )
#
#         PDG            Width
DECAY   1000005     3.79233951E+02   # sbottom1 decays
#          BR         NDA      ID1       ID2
     2.08153745E-03    2     1000022         5   # BR(~b_1 -> ~chi_10 b )
     1.84923964E-03    2     1000023         5   # BR(~b_1 -> ~chi_20 b )
     1.72066134E-03    2     1000025         5   # BR(~b_1 -> ~chi_30 b )
     1.95465750E-02    2     1000035         5   # BR(~b_1 -> ~chi_40 b )
     1.35627165E-01    2    -1000024         6   # BR(~b_1 -> ~chi_1- t )
     3.93963750E-02    2    -1000037         6   # BR(~b_1 -> ~chi_2- t )
     7.98311021E-01    2     1000021         5   # BR(~b_1 -> ~g      b )
     1.46742520E-03    2     1000006       -24   # BR(~b_1 -> ~t_1    W-)
#
#         PDG            Width
DECAY   2000005     3.11704813E+02   # sbottom2 decays
#          BR         NDA      ID1       ID2
     9.38526184E-03    2     1000022         5   # BR(~b_2 -> ~chi_10 b )
     2.10547568E-03    2     1000023         5   # BR(~b_2 -> ~chi_20 b )
     2.22156160E-03    2     1000025         5   # BR(~b_2 -> ~chi_30 b )
     3.62489963E-04    2     1000035         5   # BR(~b_2 -> ~chi_40 b )
     6.58489339E-03    2    -1000024         6   # BR(~b_2 -> ~chi_1- t )
     7.30112866E-04    2    -1000037         6   # BR(~b_2 -> ~chi_2- t )
     9.78506401E-01    2     1000021         5   # BR(~b_2 -> ~g      b )
     1.03803600E-04    2     1000006       -24   # BR(~b_2 -> ~t_1    W-)
#
#         PDG            Width
DECAY   1000002     3.30428814E+02   # sup_L decays
#          BR         NDA      ID1       ID2
     2.26204869E-03    2     1000022         2   # BR(~u_L -> ~chi_10 u)
     7.00100252E-05    2     1000023         2   # BR(~u_L -> ~chi_20 u)
     3.62447715E-06    2     1000025         2   # BR(~u_L -> ~chi_30 u)
     2.35735039E-02    2     1000035         2   # BR(~u_L -> ~chi_40 u)
     2.15411891E-04    2     1000024         1   # BR(~u_L -> ~chi_1+ d)
     4.71075751E-02    2     1000037         1   # BR(~u_L -> ~chi_2+ d)
     9.26767826E-01    2     1000021         2   # BR(~u_L -> ~g      u)
#
#         PDG            Width
DECAY   2000002     3.16863930E+02   # sup_R decays
#          BR         NDA      ID1       ID2
     3.75617115E-02    2     1000022         2   # BR(~u_R -> ~chi_10 u)
     8.81235607E-06    2     1000023         2   # BR(~u_R -> ~chi_20 u)
     1.16284880E-05    2     1000025         2   # BR(~u_R -> ~chi_30 u)
     3.52247821E-09    2     1000035         2   # BR(~u_R -> ~chi_40 u)
     9.62417844E-01    2     1000021         2   # BR(~u_R -> ~g      u)
#
#         PDG            Width
DECAY   1000001     3.30440171E+02   # sdown_L decays
#          BR         NDA      ID1       ID2
     2.25630940E-03    2     1000022         1   # BR(~d_L -> ~chi_10 d)
     4.77515404E-05    2     1000023         1   # BR(~d_L -> ~chi_20 d)
     1.28025505E-05    2     1000025         1   # BR(~d_L -> ~chi_30 d)
     2.35890448E-02    2     1000035         1   # BR(~d_L -> ~chi_40 d)
     4.79599067E-05    2    -1000024         2   # BR(~d_L -> ~chi_1- u)
     4.72056097E-02    2    -1000037         2   # BR(~d_L -> ~chi_2- u)
     9.26840522E-01    2     1000021         1   # BR(~d_L -> ~g      d)
#
#         PDG            Width
DECAY   2000001     3.07952524E+02   # sdown_R decays
#          BR         NDA      ID1       ID2
     9.66268794E-03    2     1000022         1   # BR(~d_R -> ~chi_10 d)
     2.26702634E-06    2     1000023         1   # BR(~d_R -> ~chi_20 d)
     2.99149183E-06    2     1000025         1   # BR(~d_R -> ~chi_30 d)
     9.06266345E-10    2     1000035         1   # BR(~d_R -> ~chi_40 d)
     9.90332053E-01    2     1000021         1   # BR(~d_R -> ~g      d)
#
#         PDG            Width
DECAY   1000004     3.30428814E+02   # scharm_L decays
#          BR         NDA      ID1       ID2
     2.26204869E-03    2     1000022         4   # BR(~c_L -> ~chi_10 c)
     7.00100252E-05    2     1000023         4   # BR(~c_L -> ~chi_20 c)
     3.62447715E-06    2     1000025         4   # BR(~c_L -> ~chi_30 c)
     2.35735039E-02    2     1000035         4   # BR(~c_L -> ~chi_40 c)
     2.15411891E-04    2     1000024         3   # BR(~c_L -> ~chi_1+ s)
     4.71075751E-02    2     1000037         3   # BR(~c_L -> ~chi_2+ s)
     9.26767826E-01    2     1000021         4   # BR(~c_L -> ~g      c)
#
#         PDG            Width
DECAY   2000004     3.16863930E+02   # scharm_R decays
#          BR         NDA      ID1       ID2
     3.75617115E-02    2     1000022         4   # BR(~c_R -> ~chi_10 c)
     8.81235607E-06    2     1000023         4   # BR(~c_R -> ~chi_20 c)
     1.16284880E-05    2     1000025         4   # BR(~c_R -> ~chi_30 c)
     3.52247821E-09    2     1000035         4   # BR(~c_R -> ~chi_40 c)
     9.62417844E-01    2     1000021         4   # BR(~c_R -> ~g      c)
#
#         PDG            Width
DECAY   1000003     3.30440171E+02   # sstrange_L decays
#          BR         NDA      ID1       ID2
     2.25630940E-03    2     1000022         3   # BR(~s_L -> ~chi_10 s)
     4.77515404E-05    2     1000023         3   # BR(~s_L -> ~chi_20 s)
     1.28025505E-05    2     1000025         3   # BR(~s_L -> ~chi_30 s)
     2.35890448E-02    2     1000035         3   # BR(~s_L -> ~chi_40 s)
     4.79599067E-05    2    -1000024         4   # BR(~s_L -> ~chi_1- c)
     4.72056097E-02    2    -1000037         4   # BR(~s_L -> ~chi_2- c)
     9.26840522E-01    2     1000021         3   # BR(~s_L -> ~g      s)
#
#         PDG            Width
DECAY   2000003     3.07952524E+02   # sstrange_R decays
#          BR         NDA      ID1       ID2
     9.66268794E-03    2     1000022         3   # BR(~s_R -> ~chi_10 s)
     2.26702634E-06    2     1000023         3   # BR(~s_R -> ~chi_20 s)
     2.99149183E-06    2     1000025         3   # BR(~s_R -> ~chi_30 s)
     9.06266345E-10    2     1000035         3   # BR(~s_R -> ~chi_40 s)
     9.90332053E-01    2     1000021         3   # BR(~s_R -> ~g      s)
#
#         PDG            Width
DECAY   1000011     3.02325052E+01   # selectron_L decays
#          BR         NDA      ID1       ID2
     2.26793887E-01    2     1000022        11   # BR(~e_L -> ~chi_10 e-)
     1.07144258E-03    2     1000023        11   # BR(~e_L -> ~chi_20 e-)
     5.85884484E-07    2     1000025        11   # BR(~e_L -> ~chi_30 e-)
     2.56970823E-01    2     1000035        11   # BR(~e_L -> ~chi_40 e-)
     5.32324144E-04    2    -1000024        12   # BR(~e_L -> ~chi_1- nu_e)
     5.14630937E-01    2    -1000037        12   # BR(~e_L -> ~chi_2- nu_e)
#
#         PDG            Width
DECAY   2000011     2.73573239E+01   # selectron_R decays
#          BR         NDA      ID1       ID2
     9.99458189E-01    2     1000022        11   # BR(~e_R -> ~chi_10 e-)
     2.33545088E-04    2     1000023        11   # BR(~e_R -> ~chi_20 e-)
     3.08174198E-04    2     1000025        11   # BR(~e_R -> ~chi_30 e-)
     9.18348826E-08    2     1000035        11   # BR(~e_R -> ~chi_40 e-)
#
#         PDG            Width
DECAY   1000013     3.02325052E+01   # smuon_L decays
#          BR         NDA      ID1       ID2
     2.26793887E-01    2     1000022        13   # BR(~mu_L -> ~chi_10 mu-)
     1.07144258E-03    2     1000023        13   # BR(~mu_L -> ~chi_20 mu-)
     5.85884484E-07    2     1000025        13   # BR(~mu_L -> ~chi_30 mu-)
     2.56970823E-01    2     1000035        13   # BR(~mu_L -> ~chi_40 mu-)
     5.32324144E-04    2    -1000024        14   # BR(~mu_L -> ~chi_1- nu_mu)
     5.14630937E-01    2    -1000037        14   # BR(~mu_L -> ~chi_2- nu_mu)
#
#         PDG            Width
DECAY   2000013     2.73573239E+01   # smuon_R decays
#          BR         NDA      ID1       ID2
     9.99458189E-01    2     1000022        13   # BR(~mu_R -> ~chi_10 mu-)
     2.33545088E-04    2     1000023        13   # BR(~mu_R -> ~chi_20 mu-)
     3.08174198E-04    2     1000025        13   # BR(~mu_R -> ~chi_30 mu-)
     9.18348826E-08    2     1000035        13   # BR(~mu_R -> ~chi_40 mu-)
#
#         PDG            Width
DECAY   1000015     2.89045006E+01   # stau_1 decays
#          BR         NDA      ID1       ID2
     9.21211103E-01    2     1000022        15   # BR(~tau_1 -> ~chi_10  tau-)
     1.35850546E-02    2     1000023        15   # BR(~tau_1 -> ~chi_20  tau-)
     1.20831409E-02    2     1000025        15   # BR(~tau_1 -> ~chi_30  tau-)
     9.15539603E-03    2     1000035        15   # BR(~tau_1 -> ~chi_40  tau-)
     2.56293192E-02    2    -1000024        16   # BR(~tau_1 -> ~chi_1-  nu_tau)
     1.83359860E-02    2    -1000037        16   # BR(~tau_1 -> ~chi_2-  nu_tau)
#
#         PDG            Width
DECAY   2000015     3.08540228E+01   # stau_2 decays
#          BR         NDA      ID1       ID2
     2.45230680E-01    2     1000022        15   # BR(~tau_2 -> ~chi_10  tau-)
     1.21156437E-02    2     1000023        15   # BR(~tau_2 -> ~chi_20  tau-)
     1.25145891E-02    2     1000025        15   # BR(~tau_2 -> ~chi_30  tau-)
     2.43149067E-01    2     1000035        15   # BR(~tau_2 -> ~chi_40  tau-)
     4.37868610E-05    2    -1000024        16   # BR(~tau_2 -> ~chi_1-  nu_tau)
     4.86946233E-01    2    -1000037        16   # BR(~tau_2 -> ~chi_2-  nu_tau)
#
#         PDG            Width
DECAY   1000012     3.02341684E+01   # snu_eL decays
#          BR         NDA      ID1       ID2
     2.26542069E-01    2     1000022        12   # BR(~nu_eL -> ~chi_10 nu_e)
     3.29911565E-04    2     1000023        12   # BR(~nu_eL -> ~chi_20 nu_e)
     3.06076774E-04    2     1000025        12   # BR(~nu_eL -> ~chi_30 nu_e)
     2.57084948E-01    2     1000035        12   # BR(~nu_eL -> ~chi_40 nu_e)
     2.39037359E-03    2     1000024        11   # BR(~nu_eL -> ~chi_1+ e-)
     5.13346621E-01    2     1000037        11   # BR(~nu_eL -> ~chi_2+ e-)
#
#         PDG            Width
DECAY   1000014     3.02341684E+01   # snu_muL decays
#          BR         NDA      ID1       ID2
     2.26542069E-01    2     1000022        14   # BR(~nu_muL -> ~chi_10 nu_mu)
     3.29911565E-04    2     1000023        14   # BR(~nu_muL -> ~chi_20 nu_mu)
     3.06076774E-04    2     1000025        14   # BR(~nu_muL -> ~chi_30 nu_mu)
     2.57084948E-01    2     1000035        14   # BR(~nu_muL -> ~chi_40 nu_mu)
     2.39037359E-03    2     1000024        13   # BR(~nu_muL -> ~chi_1+ mu-)
     5.13346621E-01    2     1000037        13   # BR(~nu_muL -> ~chi_2+ mu-)
#
#         PDG            Width
DECAY   1000016     3.09542555E+01   # snu_tauL decays
#          BR         NDA      ID1       ID2
     2.21248417E-01    2     1000022        16   # BR(~nu_tauL -> ~chi_10 nu_tau)
     3.22184667E-04    2     1000023        16   # BR(~nu_tauL -> ~chi_20 nu_tau)
     2.98908055E-04    2     1000025        16   # BR(~nu_tauL -> ~chi_30 nu_tau)
     2.51013233E-01    2     1000035        16   # BR(~nu_tauL -> ~chi_40 nu_tau)
     2.58913468E-02    2     1000024        15   # BR(~nu_tauL -> ~chi_1+ tau-)
     5.01225911E-01    2     1000037        15   # BR(~nu_tauL -> ~chi_2+ tau-)
#
#         PDG            Width
DECAY   1000024     1.04845957E+00   # chargino1+ decays
#          BR         NDA      ID1       ID2
     1.00000000E+00    2     1000022        24   # BR(~chi_1+ -> ~chi_10  W+)
#
#         PDG            Width
DECAY   1000037     1.73731311E+01   # chargino2+ decays
#          BR         NDA      ID1       ID2
     2.52459655E-01    2     1000024        23   # BR(~chi_2+ -> ~chi_1+  Z )
     3.15344707E-04    2     1000022        24   # BR(~chi_2+ -> ~chi_10  W+)
     2.44315079E-01    2     1000023        24   # BR(~chi_2+ -> ~chi_20  W+)
     2.43440782E-01    2     1000025        24   # BR(~chi_2+ -> ~chi_30  W+)
     2.59468936E-01    2     1000024        25   # BR(~chi_2+ -> ~chi_1+  h )
     2.02995059E-07    2     1000022        37   # BR(~chi_2+ -> ~chi_10  H+)
#
#         PDG            Width
DECAY   1000022     0.00000000E+00   # neutralino1 decays
#
#         PDG            Width
DECAY   1000023     1.10284595E+00   # neutralino2 decays
#          BR         NDA      ID1       ID2
     5.60674285E-01    2     1000022        23   # BR(~chi_20 -> ~chi_10   Z )
     4.39325715E-01    2     1000022        25   # BR(~chi_20 -> ~chi_10   h )
#
#         PDG            Width
DECAY   1000025     1.11487661E+00   # neutralino3 decays
#          BR         NDA      ID1       ID2
     4.21232360E-01    2     1000022        23   # BR(~chi_30 -> ~chi_10   Z )
     5.78767640E-01    2     1000022        25   # BR(~chi_30 -> ~chi_10   h )
#
#         PDG            Width
DECAY   1000035     1.73600706E+01   # neutralino4 decays
#          BR         NDA      ID1       ID2
     1.25341331E-04    2     1000022        23   # BR(~chi_40 -> ~chi_10   Z )
     2.90789503E-02    2     1000023        23   # BR(~chi_40 -> ~chi_20   Z )
     2.23132661E-01    2     1000025        23   # BR(~chi_40 -> ~chi_30   Z )
     2.44114980E-01    2     1000024       -24   # BR(~chi_40 -> ~chi_1+   W-)
     2.44114980E-01    2    -1000024        24   # BR(~chi_40 -> ~chi_1-   W+)
     1.99627860E-04    2     1000022        25   # BR(~chi_40 -> ~chi_10   h )
     1.78802020E-07    2     1000022        35   # BR(~chi_40 -> ~chi_10   H )
     3.18453188E-08    2     1000022        36   # BR(~chi_40 -> ~chi_10   A )
     2.30294254E-01    2     1000023        25   # BR(~chi_40 -> ~chi_20   h )
     2.89389961E-02    2     1000025        25   # BR(~chi_40 -> ~chi_30   h )
#
#         PDG            Width
DECAY        25     4.01263418E-03   # h decays
#          BR         NDA      ID1       ID2
     6.14586141E-01    2           5        -5   # BR(h -> b       bb     )
     6.44327876E-02    2         -15        15   # BR(h -> tau+    tau-   )
     2.28117191E-04    2         -13        13   # BR(h -> mu+     mu-    )
     4.83883693E-04    2           3        -3   # BR(h -> s       sb     )
     2.09703545E-02    2           4        -4   # BR(h -> c       cb     )
     6.73921427E-02    2          21        21   # BR(h -> g       g      )
     2.30859131E-03    2          22        22   # BR(h -> gam     gam    )
     1.45641040E-03    2          22        23   # BR(h -> Z       gam    )
     2.03969672E-01    2          24       -24   # BR(h -> W+      W-     )
     2.41481762E-02    2          23        23   # BR(h -> Z       Z      )
     2.37241448E-05    2     1000022   1000022   # BR(h -> ~chi_10 ~chi_10)
#
#         PDG            Width
DECAY        35     6.89078092E+00   # H decays
#          BR         NDA      ID1       ID2
     4.74207797E-01    2           5        -5   # BR(H -> b       bb     )
     8.09234167E-02    2         -15        15   # BR(H -> tau+    tau-   )
     2.86151629E-04    2         -13        13   # BR(H -> mu+     mu-    )
     3.50778170E-04    2           3        -3   # BR(H -> s       sb     )
     1.95826947E-06    2           4        -4   # BR(H -> c       cb     )
     1.95646627E-01    2           6        -6   # BR(H -> t       tb     )
     6.48947259E-05    2          21        21   # BR(H -> g       g      )
     3.83451512E-07    2          22        22   # BR(H -> gam     gam    )
     1.15446656E-07    2          23        22   # BR(H -> Z       gam    )
     8.54489951E-05    2          24       -24   # BR(H -> W+      W-     )
     4.26704159E-05    2          23        23   # BR(H -> Z       Z      )
     3.28616055E-04    2          25        25   # BR(H -> h       h      )
    -7.30434723E-24    2          36        36   # BR(H -> A       A      )
     1.26663093E-18    2          23        36   # BR(H -> Z       A      )
     7.25969279E-04    2     1000022   1000022   # BR(H -> ~chi_10 ~chi_10)
     1.46157191E-01    2     1000022   1000023   # BR(H -> ~chi_10 ~chi_20)
     1.01177982E-01    2     1000022   1000025   # BR(H -> ~chi_10 ~chi_30)
#
#         PDG            Width
DECAY        36     6.89375098E+00   # A decays
#          BR         NDA      ID1       ID2
     4.74162672E-01    2           5        -5   # BR(A -> b       bb     )
     8.08909297E-02    2         -15        15   # BR(A -> tau+    tau-   )
     2.86036353E-04    2         -13        13   # BR(A -> mu+     mu-    )
     3.50892832E-04    2           3        -3   # BR(A -> s       sb     )
     1.96570285E-06    2           4        -4   # BR(A -> c       cb     )
     1.96280927E-01    2           6        -6   # BR(A -> t       tb     )
     1.94312613E-04    2          21        21   # BR(A -> g       g      )
     3.50392313E-07    2          22        22   # BR(A -> gam     gam    )
     2.35264037E-07    2          23        22   # BR(A -> Z       gam    )
     8.50922267E-05    2          23        25   # BR(A -> Z       h      )
     7.48486694E-04    2     1000022   1000022   # BR(A -> ~chi_10 ~chi_10)
     1.02338874E-01    2     1000022   1000023   # BR(A -> ~chi_10 ~chi_20)
     1.44659225E-01    2     1000022   1000025   # BR(A -> ~chi_10 ~chi_30)
#
#         PDG            Width
DECAY        37     6.87394160E+00   # H+ decays
#          BR         NDA      ID1       ID2
     7.60542028E-04    2           4        -5   # BR(H+ -> c       bb     )
     8.11476828E-02    2         -15        16   # BR(H+ -> tau+    nu_tau )
     2.86944251E-04    2         -13        14   # BR(H+ -> mu+     nu_mu  )
     4.86744400E-06    2           2        -5   # BR(H+ -> u       bb     )
     1.68372902E-05    2           2        -3   # BR(H+ -> u       sb     )
     3.48192710E-04    2           4        -3   # BR(H+ -> c       sb     )
     6.68064415E-01    2           6        -5   # BR(H+ -> t       bb     )
     8.54668771E-05    2          24        25   # BR(H+ -> W+      h      )
     9.76500708E-14    2          24        36   # BR(H+ -> W+      A      )
     2.49285051E-01    2     1000024   1000022   # BR(H+ -> ~chi_1+ ~chi_10)
