#
#                              ======================
#                              | THE SUSYHIT OUTPUT |
#                              ======================
#
#
#              ------------------------------------------------------
#              |     This is the output of the SUSY-HIT package     |
#              |  created by A.Djouadi, M.Muehlleitner and M.Spira. |
#              |  In case of problems with SUSY-HIT email to        |
#              |           margarete.muehlleitner@kit.edu           |
#              |           michael.spira@psi.ch                     |
#              |           abdelhak.djouadi@cern.ch                 |
#              ------------------------------------------------------
#
#              ------------------------------------------------------
#              |  SUSY Les Houches Accord - MSSM Spectrum + Decays  |
#              |              based on the decay programs           |
#              |                                                    |
#              |                     SDECAY 1.5                     |
#              |                                                    |
#              |  Authors: M.Muhlleitner, A.Djouadi and Y.Mambrini  |
#              |  Ref.:    Comput.Phys.Commun.168(2005)46           |
#              |           [hep-ph/0311167]                         |
#              |                                                    |
#              |                     HDECAY 3.4                     |
#              |                                                    |
#              |  By: A.Djouadi,J.Kalinowski,M.Muhlleitner,M.Spira  |
#              |  Ref.:    Comput.Phys.Commun.108(1998)56           |
#              |           [hep-ph/9704448]                         |
#              |                                                    |
#              |                                                    |
#              |  If not stated otherwise all DRbar couplings and   |
#              |  soft SUSY breaking masses are given at the scale  |
#              |  Q=  0.91187600E+02
#              |                                                    |
#              ------------------------------------------------------
#
#
BLOCK DCINFO  # Decay Program information
     1   SDECAY/HDECAY # decay calculator
     2   1.5  /3.4    # version number
#
BLOCK SPINFO  # Spectrum calculator information
     1   SuSpect     # RGE +Spectrum calculator            
     2   2.43         # version number                     
#
BLOCK MODSEL  # Model selection
     1     2   # GMSB                                              
#
BLOCK SMINPUTS  # Standard Model inputs
         1     1.27932904E+02   # alpha_em^-1(M_Z)^MSbar
         2     1.16639000E-05   # G_F [GeV^-2]
         3     1.17200000E-01   # alpha_S(M_Z)^MSbar
         4     9.11870000E+01   # M_Z pole mass
         5     4.25000000E+00   # mb(mb)^MSbar
         6     1.72900000E+02   # mt pole mass
         7     1.77700000E+00   # mtau pole mass
#
BLOCK MINPAR  # Input parameters - minimal models
#
BLOCK EXTPAR  # Input parameters - non-minimal models
         0     9.11876000E+01   # EWSB                
         1     1.05200000E+03   # M_1                 
         2     3.00000000E+03   # M_2                 
         3     1.90000000E+03   # M_3                 
        11     0.00000000E+00   # A_t                 
        12     0.00000000E+00   # A_b                 
        13     0.00000000E+00   # A_tau               
        14     0.00000000E+00   # A_u                 
        15     0.00000000E+00   # A_d                 
        16     0.00000000E+00   # A_e                 
        23     1.05000000E+03   # mu(EWSB)            
        25     1.50000000E+00   # tanbeta(in)         
        26     2.00000000E+03   # MA_pole             
        31     5.00000000E+03   # M_eL                
        32     5.00000000E+03   # M_muL               
        33     5.00000000E+03   # M_tauL              
        34     5.00000000E+03   # M_eR                
        35     5.00000000E+03   # M_muR               
        36     5.00000000E+03   # M_tauR              
        41     5.00000000E+03   # M_q1L               
        42     5.00000000E+03   # M_q2L               
        43     5.00000000E+03   # M_q3L               
        44     5.00000000E+03   # M_uR                
        45     5.00000000E+03   # M_cR                
        46     5.00000000E+03   # M_tR                
        47     5.00000000E+03   # M_dR                
        48     5.00000000E+03   # M_sR                
        49     5.00000000E+03   # M_bR                
#
BLOCK MASS  # Mass Spectrum
# PDG code           mass       particle
        24     8.05405931E+01   # W+
        25     1.26000000E+02   # h
        35     2.00408752E+03   # H
        36     2.00000000E+03   # A
        37     2.00156285E+03   # H+
         5     4.87877839E+00   # b-quark pole mass calculated from mb(mb)_Msbar
   1000001     4.95285066E+03   # ~d_L
   2000001     4.95274063E+03   # ~d_R
   1000002     4.95260466E+03   # ~u_L
   2000002     4.95266283E+03   # ~u_R
   1000003     4.95285066E+03   # ~s_L
   2000003     4.95274063E+03   # ~s_R
   1000004     4.95260466E+03   # ~c_L
   2000004     4.95266283E+03   # ~c_R
   1000005     4.95235991E+03   # ~b_1
   2000005     4.95323282E+03   # ~b_2
   1000006     5.07719297E+03   # ~t_1
   2000006     5.37526243E+03   # ~t_2
   1000011     5.00008223E+03   # ~e_L
   2000011     5.00007607E+03   # ~e_R
   1000012     4.99984170E+03   # ~nu_eL
   1000013     5.00008223E+03   # ~mu_L
   2000013     5.00007607E+03   # ~mu_R
   1000014     4.99984170E+03   # ~nu_muL
   1000015     4.99979938E+03   # ~tau_1
   2000015     5.00035953E+03   # ~tau_2
   1000016     4.99984170E+03   # ~nu_tauL
   1000021     1.97444168E+03   # ~g
   1000022     1.07294689E+03   # ~chi_10
   1000023    -1.12047303E+03   # ~chi_20
   1000025     1.16011080E+03   # ~chi_30
   1000035     3.12881497E+03   # ~chi_40
   1000024     1.11744487E+03   # ~chi_1+
   1000037     3.12881363E+03   # ~chi_2+
   1000039     1.00000000E-09   # ~gravitino
#
BLOCK NMIX  # Neutralino Mixing Matrix
  1  1     7.14039785E-01   # N_11
  1  2    -2.64044291E-02   # N_12
  1  3     4.96831997E-01   # N_13
  1  4    -4.92552492E-01   # N_14
  2  1     3.90429323E-03   # N_21
  2  2    -3.65604545E-03   # N_22
  2  3    -7.06953464E-01   # N_23
  2  4    -7.07239839E-01   # N_24
  3  1     7.00093719E-01   # N_31
  3  2     2.81667587E-02   # N_32
  3  3    -5.02756410E-01   # N_33
  3  4     5.06272071E-01   # N_34
  4  1     8.51924562E-04   # N_41
  4  2    -9.99247754E-01   # N_42
  4  3    -2.47135204E-02   # N_43
  4  4     2.98737841E-02   # N_44
#
BLOCK UMIX  # Chargino Mixing Matrix U
  1  1    -3.49320235E-02   # U_11
  1  2     9.99389691E-01   # U_12
  2  1     9.99389691E-01   # U_21
  2  2     3.49320235E-02   # U_22
#
BLOCK VMIX  # Chargino Mixing Matrix V
  1  1    -4.22313941E-02   # V_11
  1  2     9.99107857E-01   # V_12
  2  1     9.99107857E-01   # V_21
  2  2     4.22313941E-02   # V_22
#
BLOCK STOPMIX  # Stop Mixing Matrix
  1  1     9.99995534E-01   # cos(theta_t)
  1  2    -2.98864184E-03   # sin(theta_t)
  2  1     2.98864184E-03   # -sin(theta_t)
  2  2     9.99995534E-01   # cos(theta_t)
#
BLOCK SBOTMIX  # Sbottom Mixing Matrix
  1  1     6.61040156E-01   # cos(theta_b)
  1  2     7.50350526E-01   # sin(theta_b)
  2  1    -7.50350526E-01   # -sin(theta_b)
  2  2     6.61040156E-01   # cos(theta_b)
#
BLOCK STAUMIX  # Stau Mixing Matrix
  1  1     7.03207305E-01   # cos(theta_tau)
  1  2     7.10984871E-01   # sin(theta_tau)
  2  1    -7.10984871E-01   # -sin(theta_tau)
  2  2     7.03207305E-01   # cos(theta_tau)
#
BLOCK ALPHA  # Higgs mixing
          -5.90206988E-01   # Mixing angle in the neutral Higgs boson sector
#
BLOCK HMIX Q=  9.11876000E+01  # DRbar Higgs Parameters
         1     1.05000000E+03   # mu(Q)               
         2     1.49999979E+00   # tanbeta(Q)          
         3     2.52100171E+02   # vev(Q)              
         4     3.49816800E+06   # MA^2(Q)             
#
BLOCK GAUGE Q=  9.11876000E+01  # The gauge couplings
     1     3.52814094E-01   # gprime(Q) DRbar
     2     6.27373394E-01   # g(Q) DRbar
     3     1.08126682E+00   # g3(Q) DRbar
#
BLOCK AU Q=  9.11876000E+01  # The trilinear couplings
  1  1     0.00000000E+00   # A_u(Q) DRbar
  2  2     0.00000000E+00   # A_c(Q) DRbar
  3  3     0.00000000E+00   # A_t(Q) DRbar
#
BLOCK AD Q=  9.11876000E+01  # The trilinear couplings
  1  1     0.00000000E+00   # A_d(Q) DRbar
  2  2     0.00000000E+00   # A_s(Q) DRbar
  3  3     0.00000000E+00   # A_b(Q) DRbar
#
BLOCK AE Q=  9.11876000E+01  # The trilinear couplings
  1  1     0.00000000E+00   # A_e(Q) DRbar
  2  2     0.00000000E+00   # A_mu(Q) DRbar
  3  3     0.00000000E+00   # A_tau(Q) DRbar
#
BLOCK Yu Q=  9.11876000E+01  # The Yukawa couplings
  1  1     0.00000000E+00   # y_u(Q) DRbar
  2  2     0.00000000E+00   # y_c(Q) DRbar
  3  3     1.02582630E+00   # y_t(Q) DRbar
#
BLOCK Yd Q=  9.11876000E+01  # The Yukawa couplings
  1  1     0.00000000E+00   # y_d(Q) DRbar
  2  2     0.00000000E+00   # y_s(Q) DRbar
  3  3     2.71832033E-02   # y_b(Q) DRbar
#
BLOCK Ye Q=  9.11876000E+01  # The Yukawa couplings
  1  1     0.00000000E+00   # y_e(Q) DRbar
  2  2     0.00000000E+00   # y_mu(Q) DRbar
  3  3     1.79826851E-02   # y_tau(Q) DRbar
#
BLOCK MSOFT Q=  9.11876000E+01  # The soft SUSY breaking masses at the scale Q
         1     1.05200000E+03   # M_1                 
         2     3.00000000E+03   # M_2                 
         3     1.90000000E+03   # M_3                 
        14     0.00000000E+00   # A_u                 
        15     0.00000000E+00   # A_d                 
        16     0.00000000E+00   # A_e                 
        21     1.81558659E+06   # M^2_Hd              
        22    -6.44419646E+06   # M^2_Hu              
        31     5.00000000E+03   # M_eL                
        32     5.00000000E+03   # M_muL               
        33     5.00000000E+03   # M_tauL              
        34     5.00000000E+03   # M_eR                
        35     5.00000000E+03   # M_muR               
        36     5.00000000E+03   # M_tauR              
        41     5.00000000E+03   # M_q1L               
        42     5.00000000E+03   # M_q2L               
        43     5.00000000E+03   # M_q3L               
        44     5.00000000E+03   # M_uR                
        45     5.00000000E+03   # M_cR                
        46     5.00000000E+03   # M_tR                
        47     5.00000000E+03   # M_dR                
        48     5.00000000E+03   # M_sR                
        49     5.00000000E+03   # M_bR                
#
#
#
#                             =================
#                             |The decay table|
#                             =================
#
# - The QCD corrections to the decays gluino -> squark  + quark
#                                     squark -> gaugino + quark_prime
#                                     squark -> squark_prime + Higgs
#                                     squark -> gluino  + quark
#   are included.
#
# - The multi-body decays for the inos, stops and sbottoms are included.
#
# - The loop induced decays for the gluino, neutralinos and stops
#   are included.
#
# - The SUSY decays of the top quark are included.
#
# - Possible decays of the NLSP in GMSB models are included.
#
#
#         PDG            Width
DECAY         6     1.37137241E+00   # top decays
#          BR         NDA      ID1       ID2
     1.00000000E+00    2           5        24   # BR(t ->  b    W+)
#
#         PDG            Width
DECAY   1000021     3.49778556E-04   # gluino decays
#          BR         NDA      ID1       ID2
     1.37916942E-02    2     1000022        21   # BR(~g -> ~chi_10 g)
     2.51038605E-02    2     1000023        21   # BR(~g -> ~chi_20 g)
     1.13342538E-02    2     1000025        21   # BR(~g -> ~chi_30 g)
#          BR         NDA      ID1       ID2
0.0E+00    2     1000039    21 # BR(~g -> ~G      g)
#           BR         NDA      ID1       ID2       ID3
     6.76080881E-03    3     1000022         1        -1   # BR(~g -> ~chi_10 d  db)
     4.43277952E-07    3     1000023         1        -1   # BR(~g -> ~chi_20 d  db)
     3.70922933E-03    3     1000025         1        -1   # BR(~g -> ~chi_30 d  db)
     2.07125238E-02    3     1000022         2        -2   # BR(~g -> ~chi_10 u  ub)
     3.54770046E-07    3     1000023         2        -2   # BR(~g -> ~chi_20 u  ub)
     1.40412113E-02    3     1000025         2        -2   # BR(~g -> ~chi_30 u  ub)
     6.76080881E-03    3     1000022         3        -3   # BR(~g -> ~chi_10 s  sb)
     4.43277952E-07    3     1000023         3        -3   # BR(~g -> ~chi_20 s  sb)
     3.70922933E-03    3     1000025         3        -3   # BR(~g -> ~chi_30 s  sb)
     2.07125238E-02    3     1000022         4        -4   # BR(~g -> ~chi_10 c  cb)
     3.54770046E-07    3     1000023         4        -4   # BR(~g -> ~chi_20 c  cb)
     1.40412113E-02    3     1000025         4        -4   # BR(~g -> ~chi_30 c  cb)
     6.85236805E-03    3     1000022         5        -5   # BR(~g -> ~chi_10 b  bb)
     2.17363124E-04    3     1000023         5        -5   # BR(~g -> ~chi_20 b  bb)
     3.82333384E-03    3     1000025         5        -5   # BR(~g -> ~chi_30 b  bb)
     9.58316699E-02    3     1000022         6        -6   # BR(~g -> ~chi_10 t  tb)
     1.39946609E-01    3     1000023         6        -6   # BR(~g -> ~chi_20 t  tb)
     8.99418894E-02    3     1000025         6        -6   # BR(~g -> ~chi_30 t  tb)
     1.70507424E-04    3     1000024         1        -2   # BR(~g -> ~chi_1+ d  ub)
     1.70507424E-04    3    -1000024         2        -1   # BR(~g -> ~chi_1- u  db)
     1.70507424E-04    3     1000024         3        -4   # BR(~g -> ~chi_1+ s  cb)
     1.70507424E-04    3    -1000024         4        -3   # BR(~g -> ~chi_1- c  sb)
     2.11629061E-01    3     1000024         5        -6   # BR(~g -> ~chi_1+ b  tb)
     2.11629061E-01    3    -1000024         6        -5   # BR(~g -> ~chi_1- t  bb)
#
#         PDG            Width
DECAY   1000006     2.84694306E+02   # stop1 decays
#          BR         NDA      ID1       ID2
     5.60338933E-02    2     1000022         6   # BR(~t_1 -> ~chi_10 t )
     1.15807720E-01    2     1000023         6   # BR(~t_1 -> ~chi_20 t )
     6.17342170E-02    2     1000025         6   # BR(~t_1 -> ~chi_30 t )
     2.62400052E-02    2     1000035         6   # BR(~t_1 -> ~chi_40 t )
    -2.11510836E-05    2     1000024         5   # BR(~t_1 -> ~chi_1+ b )
     5.21622173E-02    2     1000037         5   # BR(~t_1 -> ~chi_2+ b )
     6.72559835E-01    2     1000021         6   # BR(~t_1 -> ~g      t )
     6.90284773E-03    2     1000005        24   # BR(~t_1 -> ~b_1    W+)
     8.58041564E-03    2     2000005        24   # BR(~t_1 -> ~b_2    W+)
#
#         PDG            Width
DECAY   2000006     3.60325297E+02   # stop2 decays
#          BR         NDA      ID1       ID2
     6.37613790E-02    2     1000022         6   # BR(~t_2 -> ~chi_10 t )
     9.85740176E-02    2     1000023         6   # BR(~t_2 -> ~chi_20 t )
     6.35725799E-02    2     1000025         6   # BR(~t_2 -> ~chi_30 t )
    -6.81921216E-06    2     1000035         6   # BR(~t_2 -> ~chi_40 t )
     1.97464527E-01    2     1000024         5   # BR(~t_2 -> ~chi_1+ b )
    -1.30756725E-05    2     1000037         5   # BR(~t_2 -> ~chi_2+ b )
     5.76740706E-01    2     1000021         6   # BR(~t_2 -> ~g      t )
    -9.92532855E-05    2     1000006        25   # BR(~t_2 -> ~t_1    h )
     1.16142361E-06    2     1000006        23   # BR(~t_2 -> ~t_1    Z )
     2.08521789E-06    2     1000005        24   # BR(~t_2 -> ~b_1    W+)
     2.69158615E-06    2     2000005        24   # BR(~t_2 -> ~b_2    W+)
#
#         PDG            Width
DECAY   1000005     2.19475769E+02   # sbottom1 decays
#          BR         NDA      ID1       ID2
     5.03982649E-03    2     1000022         5   # BR(~b_1 -> ~chi_10 b )
     8.76414142E-05    2     1000023         5   # BR(~b_1 -> ~chi_20 b )
     2.82252593E-03    2     1000025         5   # BR(~b_1 -> ~chi_30 b )
     1.21805189E-02    2     1000035         5   # BR(~b_1 -> ~chi_40 b )
     1.10532104E-01    2    -1000024         6   # BR(~b_1 -> ~chi_1- t )
     2.45065245E-02    2    -1000037         6   # BR(~b_1 -> ~chi_2- t )
     8.44830859E-01    2     1000021         5   # BR(~b_1 -> ~g      b )
#
#         PDG            Width
DECAY   2000005     2.38793330E+02   # sbottom2 decays
#          BR         NDA      ID1       ID2
     2.38898736E-03    2     1000022         5   # BR(~b_2 -> ~chi_10 b )
     1.10716309E-04    2     1000023         5   # BR(~b_2 -> ~chi_20 b )
     3.06646777E-03    2     1000025         5   # BR(~b_2 -> ~chi_30 b )
     1.72193988E-02    2     1000035         5   # BR(~b_2 -> ~chi_40 b )
     1.66550475E-01    2    -1000024         6   # BR(~b_2 -> ~chi_1- t )
     3.46541806E-02    2    -1000037         6   # BR(~b_2 -> ~chi_2- t )
     7.76009774E-01    2     1000021         5   # BR(~b_2 -> ~g      b )
#
#         PDG            Width
DECAY   1000002     2.06371300E+02   # sup_L decays
#          BR         NDA      ID1       ID2
     9.50542990E-04    2     1000022         2   # BR(~u_L -> ~chi_10 u)
     6.97805131E-07    2     1000023         2   # BR(~u_L -> ~chi_20 u)
     2.05761917E-03    2     1000025         2   # BR(~u_L -> ~chi_30 u)
     3.28506413E-02    2     1000035         2   # BR(~u_L -> ~chi_40 u)
     2.91261453E-04    2     1000024         1   # BR(~u_L -> ~chi_1+ d)
     6.57039611E-02    2     1000037         1   # BR(~u_L -> ~chi_2+ d)
     8.98145276E-01    2     1000021         2   # BR(~u_L -> ~g      u)
#
#         PDG            Width
DECAY   2000002     1.94831512E+02   # sup_R decays
#          BR         NDA      ID1       ID2
     2.50003695E-02    2     1000022         2   # BR(~u_R -> ~chi_10 u)
     7.40848091E-07    2     1000023         2   # BR(~u_R -> ~chi_20 u)
     2.36372166E-02    2     1000025         2   # BR(~u_R -> ~chi_30 u)
     1.42253958E-08    2     1000035         2   # BR(~u_R -> ~chi_40 u)
     9.51361659E-01    2     1000021         2   # BR(~u_R -> ~g      u)
#
#         PDG            Width
DECAY   1000001     2.06377474E+02   # sdown_L decays
#          BR         NDA      ID1       ID2
     2.11458760E-03    2     1000022         1   # BR(~d_L -> ~chi_10 d)
     1.57131446E-06    2     1000023         1   # BR(~d_L -> ~chi_20 d)
     8.60293909E-04    2     1000025         1   # BR(~d_L -> ~chi_30 d)
     3.28765968E-02    2     1000035         1   # BR(~d_L -> ~chi_40 d)
     1.99284284E-04    2    -1000024         2   # BR(~d_L -> ~chi_1- u)
     6.57509307E-02    2    -1000037         2   # BR(~d_L -> ~chi_2- u)
     8.98196735E-01    2     1000021         1   # BR(~d_L -> ~g      d)
#
#         PDG            Width
DECAY   2000001     1.87729459E+02   # sdown_R decays
#          BR         NDA      ID1       ID2
     6.48666446E-03    2     1000022         1   # BR(~d_R -> ~chi_10 d)
     1.92222534E-07    2     1000023         1   # BR(~d_R -> ~chi_20 d)
     6.13298044E-03    2     1000025         1   # BR(~d_R -> ~chi_30 d)
     3.69110095E-09    2     1000035         1   # BR(~d_R -> ~chi_40 d)
     9.87380159E-01    2     1000021         1   # BR(~d_R -> ~g      d)
#
#         PDG            Width
DECAY   1000004     2.06371300E+02   # scharm_L decays
#          BR         NDA      ID1       ID2
     9.50542990E-04    2     1000022         4   # BR(~c_L -> ~chi_10 c)
     6.97805131E-07    2     1000023         4   # BR(~c_L -> ~chi_20 c)
     2.05761917E-03    2     1000025         4   # BR(~c_L -> ~chi_30 c)
     3.28506413E-02    2     1000035         4   # BR(~c_L -> ~chi_40 c)
     2.91261453E-04    2     1000024         3   # BR(~c_L -> ~chi_1+ s)
     6.57039611E-02    2     1000037         3   # BR(~c_L -> ~chi_2+ s)
     8.98145276E-01    2     1000021         4   # BR(~c_L -> ~g      c)
#
#         PDG            Width
DECAY   2000004     1.94831512E+02   # scharm_R decays
#          BR         NDA      ID1       ID2
     2.50003695E-02    2     1000022         4   # BR(~c_R -> ~chi_10 c)
     7.40848091E-07    2     1000023         4   # BR(~c_R -> ~chi_20 c)
     2.36372166E-02    2     1000025         4   # BR(~c_R -> ~chi_30 c)
     1.42253958E-08    2     1000035         4   # BR(~c_R -> ~chi_40 c)
     9.51361659E-01    2     1000021         4   # BR(~c_R -> ~g      c)
#
#         PDG            Width
DECAY   1000003     2.06377474E+02   # sstrange_L decays
#          BR         NDA      ID1       ID2
     2.11458760E-03    2     1000022         3   # BR(~s_L -> ~chi_10 s)
     1.57131446E-06    2     1000023         3   # BR(~s_L -> ~chi_20 s)
     8.60293909E-04    2     1000025         3   # BR(~s_L -> ~chi_30 s)
     3.28765968E-02    2     1000035         3   # BR(~s_L -> ~chi_40 s)
     1.99284284E-04    2    -1000024         4   # BR(~s_L -> ~chi_1- c)
     6.57509307E-02    2    -1000037         4   # BR(~s_L -> ~chi_2- c)
     8.98196735E-01    2     1000021         3   # BR(~s_L -> ~g      s)
#
#         PDG            Width
DECAY   2000003     1.87729459E+02   # sstrange_R decays
#          BR         NDA      ID1       ID2
     6.48666446E-03    2     1000022         3   # BR(~s_R -> ~chi_10 s)
     1.92222534E-07    2     1000023         3   # BR(~s_R -> ~chi_20 s)
     6.13298044E-03    2     1000025         3   # BR(~s_R -> ~chi_30 s)
     3.69110095E-09    2     1000035         3   # BR(~s_R -> ~chi_40 s)
     9.87380159E-01    2     1000021         3   # BR(~s_R -> ~g      s)
#
#         PDG            Width
DECAY   1000011     2.73748764E+01   # selectron_L decays
#          BR         NDA      ID1       ID2
     9.15875482E-02    2     1000022        11   # BR(~e_L -> ~chi_10 e-)
     1.37584611E-06    2     1000023        11   # BR(~e_L -> ~chi_20 e-)
     1.13941978E-01    2     1000025        11   # BR(~e_L -> ~chi_30 e-)
     2.64078747E-01    2     1000035        11   # BR(~e_L -> ~chi_40 e-)
     1.57525796E-03    2    -1000024        12   # BR(~e_L -> ~chi_1- nu_e)
     5.28815094E-01    2    -1000037        12   # BR(~e_L -> ~chi_2- nu_e)
#
#         PDG            Width
DECAY   2000011     2.23567167E+01   # selectron_R decays
#          BR         NDA      ID1       ID2
     5.13947995E-01    2     1000022        11   # BR(~e_R -> ~chi_10 e-)
     1.52319093E-05    2     1000023        11   # BR(~e_R -> ~chi_20 e-)
     4.86036476E-01    2     1000025        11   # BR(~e_R -> ~chi_30 e-)
     2.97610190E-07    2     1000035        11   # BR(~e_R -> ~chi_40 e-)
#
#         PDG            Width
DECAY   1000013     2.73748764E+01   # smuon_L decays
#          BR         NDA      ID1       ID2
     9.15875482E-02    2     1000022        13   # BR(~mu_L -> ~chi_10 mu-)
     1.37584611E-06    2     1000023        13   # BR(~mu_L -> ~chi_20 mu-)
     1.13941978E-01    2     1000025        13   # BR(~mu_L -> ~chi_30 mu-)
     2.64078747E-01    2     1000035        13   # BR(~mu_L -> ~chi_40 mu-)
     1.57525796E-03    2    -1000024        14   # BR(~mu_L -> ~chi_1- nu_mu)
     5.28815094E-01    2    -1000037        14   # BR(~mu_L -> ~chi_2- nu_mu)
#
#         PDG            Width
DECAY   2000013     2.23567167E+01   # smuon_R decays
#          BR         NDA      ID1       ID2
     5.13947995E-01    2     1000022        13   # BR(~mu_R -> ~chi_10 mu-)
     1.52319093E-05    2     1000023        13   # BR(~mu_R -> ~chi_20 mu-)
     4.86036476E-01    2     1000025        13   # BR(~mu_R -> ~chi_30 mu-)
     2.97610190E-07    2     1000035        13   # BR(~mu_R -> ~chi_40 mu-)
#
#         PDG            Width
DECAY   1000015     2.49178451E+01   # stau_1 decays
#          BR         NDA      ID1       ID2
     2.89319124E-01    2     1000022        15   # BR(~tau_1 -> ~chi_10  tau-)
     4.70881329E-04    2     1000023        15   # BR(~tau_1 -> ~chi_20  tau-)
     2.77414044E-01    2     1000025        15   # BR(~tau_1 -> ~chi_30  tau-)
     1.43143781E-01    2     1000035        15   # BR(~tau_1 -> ~chi_40  tau-)
     2.86295164E-03    2    -1000024        16   # BR(~tau_1 -> ~chi_1-  nu_tau)
     2.86644861E-01    2    -1000037        16   # BR(~tau_1 -> ~chi_2-  nu_tau)
     1.44357322E-04    2     1000039        15   # BR(~tau_1 -> ~G       tau-)
#
#         PDG            Width
DECAY   2000015     2.49043899E+01   # stau_2 decays
#          BR         NDA      ID1       ID2
     2.73146932E-01    2     1000022        15   # BR(~tau_2 -> ~chi_10  tau-)
     7.08690752E-04    2     1000023        15   # BR(~tau_2 -> ~chi_20  tau-)
     2.84583790E-01    2     1000025        15   # BR(~tau_2 -> ~chi_30  tau-)
     1.47055192E-01    2     1000035        15   # BR(~tau_2 -> ~chi_40  tau-)
     3.12423181E-05    2    -1000024        16   # BR(~tau_2 -> ~chi_1-  nu_tau)
     2.94474152E-01    2    -1000037        16   # BR(~tau_2 -> ~chi_2-  nu_tau)
#
#         PDG            Width
DECAY   1000012     2.73751591E+01   # snu_eL decays
#          BR         NDA      ID1       ID2
     1.19179549E-01    2     1000022        12   # BR(~nu_eL -> ~chi_10 nu_e)
     2.20881497E-05    2     1000023        12   # BR(~nu_eL -> ~chi_20 nu_e)
     8.55381416E-02    2     1000025        12   # BR(~nu_eL -> ~chi_30 nu_e)
     2.64537463E-01    2     1000035        12   # BR(~nu_eL -> ~chi_40 nu_e)
     2.30221171E-03    2     1000024        11   # BR(~nu_eL -> ~chi_1+ e-)
     5.28420547E-01    2     1000037        11   # BR(~nu_eL -> ~chi_2+ e-)
#
#         PDG            Width
DECAY   1000014     2.73751591E+01   # snu_muL decays
#          BR         NDA      ID1       ID2
     1.19179549E-01    2     1000022        14   # BR(~nu_muL -> ~chi_10 nu_mu)
     2.20881497E-05    2     1000023        14   # BR(~nu_muL -> ~chi_20 nu_mu)
     8.55381416E-02    2     1000025        14   # BR(~nu_muL -> ~chi_30 nu_mu)
     2.64537463E-01    2     1000035        14   # BR(~nu_muL -> ~chi_40 nu_mu)
     2.30221171E-03    2     1000024        13   # BR(~nu_muL -> ~chi_1+ mu-)
     5.28420547E-01    2     1000037        13   # BR(~nu_muL -> ~chi_2+ mu-)
#
#         PDG            Width
DECAY   1000016     2.74041679E+01   # snu_tauL decays
#          BR         NDA      ID1       ID2
     1.19053390E-01    2     1000022        16   # BR(~nu_tauL -> ~chi_10 nu_tau)
     2.20647681E-05    2     1000023        16   # BR(~nu_tauL -> ~chi_20 nu_tau)
     8.54475947E-02    2     1000025        16   # BR(~nu_tauL -> ~chi_30 nu_tau)
     2.64257435E-01    2     1000035        16   # BR(~nu_tauL -> ~chi_40 nu_tau)
     3.35738702E-03    2     1000024        15   # BR(~nu_tauL -> ~chi_1+ tau-)
     5.27862128E-01    2     1000037        15   # BR(~nu_tauL -> ~chi_2+ tau-)
#
#         PDG            Width
DECAY   1000024     1.10588081E-04   # chargino1+ decays
#          BR         NDA      ID1       ID2
     8.90146161E-03    2     1000039        24   # BR(~chi_1+ -> ~G       W+)
#           BR         NDA      ID1       ID2       ID3
     3.30654969E-01    3     1000022         2        -1   # BR(~chi_1+ -> ~chi_10 u    db)
     3.30654969E-01    3     1000022         4        -3   # BR(~chi_1+ -> ~chi_10 c    sb)
     1.10218452E-01    3     1000022       -11        12   # BR(~chi_1+ -> ~chi_10 e+   nu_e)
     1.10218452E-01    3     1000022       -13        14   # BR(~chi_1+ -> ~chi_10 mu+  nu_mu)
     1.09351697E-01    3     1000022       -15        16   # BR(~chi_1+ -> ~chi_10 tau+ nu_tau)
#
#         PDG            Width
DECAY   1000037     3.73842818E+01   # chargino2+ decays
#          BR         NDA      ID1       ID2
     2.52228297E-01    2     1000024        23   # BR(~chi_2+ -> ~chi_1+  Z )
     1.13795545E-01    2     1000022        24   # BR(~chi_2+ -> ~chi_10  W+)
     2.45571808E-01    2     1000023        24   # BR(~chi_2+ -> ~chi_20  W+)
     1.32082042E-01    2     1000025        24   # BR(~chi_2+ -> ~chi_30  W+)
     2.53241189E-01    2     1000024        25   # BR(~chi_2+ -> ~chi_1+  h )
     6.04282448E-04    2     1000024        35   # BR(~chi_2+ -> ~chi_1+  H )
     7.97540570E-04    2     1000024        36   # BR(~chi_2+ -> ~chi_1+  A )
     1.07318007E-03    2     1000022        37   # BR(~chi_2+ -> ~chi_10  H+)
     5.96910787E-04    2     1000023        37   # BR(~chi_2+ -> ~chi_20  H+)
     9.20405129E-06    2     1000039        24   # BR(~chi_2+ -> ~G       W+)
     7.83658177E-10    2     1000039        37   # BR(~chi_2+ -> ~G       H+)
#
#         PDG            Width
DECAY   1000022    1.0E-05    # neutralino1 decays
#          BR         NDA      ID1       ID2
     4.99813366E-01    2     1000039        22   # BR(~chi_10 -> ~G        gam)
     4.88974512E-01    2     1000039        23   # BR(~chi_10 -> ~G        Z)
     1.12121217E-02    2     1000039        25   # BR(~chi_10 -> ~G        h)
#
#         PDG            Width
DECAY   1000023     1.24352495E-04   # neutralino2 decays
#          BR         NDA      ID1       ID2
     1.23831907E-03    2     1000022        22   # BR(~chi_20 -> ~chi_10 gam)
#          BR         NDA      ID1       ID2
     4.24347488E-08    2     1000039        22   # BR(~chi_20 -> ~G        gam)
     3.07216117E-04    2     1000039        23   # BR(~chi_20 -> ~G        Z)
     7.47775115E-03    2     1000039        25   # BR(~chi_20 -> ~G        h)
#           BR         NDA      ID1       ID2       ID3
     1.17670161E-01    3     1000022        -2         2   # BR(~chi_20 -> ~chi_10 ub      u)
     1.52356549E-01    3     1000022        -1         1   # BR(~chi_20 -> ~chi_10 db      d)
     1.17670161E-01    3     1000022        -4         4   # BR(~chi_20 -> ~chi_10 cb      c)
     1.52356549E-01    3     1000022        -3         3   # BR(~chi_20 -> ~chi_10 sb      s)
     1.38464782E-01    3     1000022        -5         5   # BR(~chi_20 -> ~chi_10 bb      b)
     3.47917087E-02    3     1000022       -11        11   # BR(~chi_20 -> ~chi_10 e+      e-)
     3.47917087E-02    3     1000022       -13        13   # BR(~chi_20 -> ~chi_10 mu+     mu-)
     3.44356557E-02    3     1000022       -15        15   # BR(~chi_20 -> ~chi_10 tau+    tau-)
     6.94784251E-02    3     1000022       -12        12   # BR(~chi_20 -> ~chi_10 nu_eb   nu_e)
     6.94784251E-02    3     1000022       -14        14   # BR(~chi_20 -> ~chi_10 nu_mub  nu_mu)
     6.94784251E-02    3     1000022       -16        16   # BR(~chi_20 -> ~chi_10 nu_taub nu_tau)
     7.56193254E-07    3     1000024        -2         1   # BR(~chi_20 -> ~chi_1+ ub      d)
     7.56193254E-07    3    -1000024        -1         2   # BR(~chi_20 -> ~chi_1- db      u)
     7.56193254E-07    3     1000024        -4         3   # BR(~chi_20 -> ~chi_1+ cb      s)
     7.56193254E-07    3    -1000024        -3         4   # BR(~chi_20 -> ~chi_1- sb      c)
     2.52064434E-07    3     1000024       -12        11   # BR(~chi_20 -> ~chi_1+ nu_eb   e-)
     2.52064434E-07    3    -1000024        12       -11   # BR(~chi_20 -> ~chi_1- nu_e    e+)
     2.52064434E-07    3     1000024       -14        13   # BR(~chi_20 -> ~chi_1+ nu_mub  mu-)
     2.52064434E-07    3    -1000024        14       -13   # BR(~chi_20 -> ~chi_1- nu_mu   mu+)
     4.34731007E-08    3     1000024       -16        15   # BR(~chi_20 -> ~chi_1+ nu_taub tau-)
     4.34731007E-08    3    -1000024        16       -15   # BR(~chi_20 -> ~chi_1- nu_tau  tau+)
#
#         PDG            Width
DECAY   1000025     2.33361441E-04   # neutralino3 decays
#          BR         NDA      ID1       ID2
     3.59389766E-04    2     1000022        22   # BR(~chi_30 -> ~chi_10 gam)
     7.94659904E-06    2     1000023        22   # BR(~chi_30 -> ~chi_20 gam)
#          BR         NDA      ID1       ID2
     4.03700962E-03    2     1000039        22   # BR(~chi_30 -> ~G        gam)
     3.50525950E-03    2     1000039        23   # BR(~chi_30 -> ~G        Z)
     9.80300505E-05    2     1000039        25   # BR(~chi_30 -> ~G        h)
#           BR         NDA      ID1       ID2       ID3
     9.46233557E-06    3     1000022        -2         2   # BR(~chi_30 -> ~chi_10 ub      u)
     1.12348990E-05    3     1000022        -1         1   # BR(~chi_30 -> ~chi_10 db      d)
     9.46233557E-06    3     1000022        -4         4   # BR(~chi_30 -> ~chi_10 cb      c)
     1.12348990E-05    3     1000022        -3         3   # BR(~chi_30 -> ~chi_10 sb      s)
     1.75525791E-05    3     1000022        -5         5   # BR(~chi_30 -> ~chi_10 bb      b)
     1.95872666E-06    3     1000022       -11        11   # BR(~chi_30 -> ~chi_10 e+      e-)
     1.95872666E-06    3     1000022       -13        13   # BR(~chi_30 -> ~chi_10 mu+     mu-)
     2.93754521E-06    3     1000022       -15        15   # BR(~chi_30 -> ~chi_10 tau+    tau-)
     5.50143818E-06    3     1000022       -12        12   # BR(~chi_30 -> ~chi_10 nu_eb   nu_e)
     5.50143818E-06    3     1000022       -14        14   # BR(~chi_30 -> ~chi_10 nu_mub  nu_mu)
     5.50143818E-06    3     1000022       -16        16   # BR(~chi_30 -> ~chi_10 nu_taub nu_tau)
     2.51585977E-02    3     1000023        -2         2   # BR(~chi_30 -> ~chi_20 ub      u)
     3.25748129E-02    3     1000023        -1         1   # BR(~chi_30 -> ~chi_20 db      d)
     2.51585977E-02    3     1000023        -4         4   # BR(~chi_30 -> ~chi_20 cb      c)
     3.25748129E-02    3     1000023        -3         3   # BR(~chi_30 -> ~chi_20 sb      s)
     2.84576706E-02    3     1000023        -5         5   # BR(~chi_30 -> ~chi_20 bb      b)
     7.43871234E-03    3     1000023       -11        11   # BR(~chi_30 -> ~chi_20 e+      e-)
     7.43871234E-03    3     1000023       -13        13   # BR(~chi_30 -> ~chi_20 mu+     mu-)
     7.33898834E-03    3     1000023       -15        15   # BR(~chi_30 -> ~chi_20 tau+    tau-)
     1.48548714E-02    3     1000023       -12        12   # BR(~chi_30 -> ~chi_20 nu_eb   nu_e)
     1.48548714E-02    3     1000023       -14        14   # BR(~chi_30 -> ~chi_20 nu_mub  nu_mu)
     1.48548714E-02    3     1000023       -16        16   # BR(~chi_30 -> ~chi_20 nu_taub nu_tau)
     1.30324820E-01    3     1000024        -2         1   # BR(~chi_30 -> ~chi_1+ ub      d)
     1.30324820E-01    3    -1000024        -1         2   # BR(~chi_30 -> ~chi_1- db      u)
     1.30324820E-01    3     1000024        -4         3   # BR(~chi_30 -> ~chi_1+ cb      s)
     1.30324820E-01    3    -1000024        -3         4   # BR(~chi_30 -> ~chi_1- sb      c)
     4.34415404E-02    3     1000024       -12        11   # BR(~chi_30 -> ~chi_1+ nu_eb   e-)
     4.34415404E-02    3    -1000024        12       -11   # BR(~chi_30 -> ~chi_1- nu_e    e+)
     4.34415404E-02    3     1000024       -14        13   # BR(~chi_30 -> ~chi_1+ nu_mub  mu-)
     4.34415404E-02    3    -1000024        14       -13   # BR(~chi_30 -> ~chi_1- nu_mu   mu+)
     4.30695494E-02    3     1000024       -16        15   # BR(~chi_30 -> ~chi_1+ nu_taub tau-)
     4.30695494E-02    3    -1000024        16       -15   # BR(~chi_30 -> ~chi_1- nu_tau  tau+)
#
#         PDG            Width
DECAY   1000035     3.73878052E+01   # neutralino4 decays
#          BR         NDA      ID1       ID2
     1.03730693E-03    2     1000022        23   # BR(~chi_40 -> ~chi_10   Z )
     2.49975731E-01    2     1000023        23   # BR(~chi_40 -> ~chi_20   Z )
     1.18997438E-03    2     1000025        23   # BR(~chi_40 -> ~chi_30   Z )
     2.45546129E-01    2     1000024       -24   # BR(~chi_40 -> ~chi_1+   W-)
     2.45546129E-01    2    -1000024        24   # BR(~chi_40 -> ~chi_1-   W+)
     1.16313617E-01    2     1000022        25   # BR(~chi_40 -> ~chi_10   h )
     7.40385874E-04    2     1000022        35   # BR(~chi_40 -> ~chi_10   H )
     3.06335865E-04    2     1000022        36   # BR(~chi_40 -> ~chi_10   A )
     2.19757791E-03    2     1000023        25   # BR(~chi_40 -> ~chi_20   h )
     1.37400515E-05    2     1000023        35   # BR(~chi_40 -> ~chi_20   H )
     6.33341453E-04    2     1000023        36   # BR(~chi_40 -> ~chi_20   A )
     1.35027690E-01    2     1000025        25   # BR(~chi_40 -> ~chi_30   h )
     7.31418829E-04    2     1000024       -37   # BR(~chi_40 -> ~chi_1+   H-)
     7.31418829E-04    2    -1000024        37   # BR(~chi_40 -> ~chi_1-   H+)
     2.20840885E-06    2     1000039        22   # BR(~chi_40 -> ~G        gam)
     6.99395653E-06    2     1000039        23   # BR(~chi_40 -> ~G        Z)
     5.61674323E-10    2     1000039        25   # BR(~chi_40 -> ~G        h)
     7.70969753E-10    2     1000039        35   # BR(~chi_40 -> ~G        H)
     8.99912534E-12    2     1000039        36   # BR(~chi_40 -> ~G        A)
#
#         PDG            Width
DECAY        25     4.21926789E-03   # h decays
#          BR         NDA      ID1       ID2
     6.01947009E-01    2           5        -5   # BR(h -> b       bb     )
     6.22262833E-02    2         -15        15   # BR(h -> tau+    tau-   )
     2.20253914E-04    2         -13        13   # BR(h -> mu+     mu-    )
     4.66014574E-04    2           3        -3   # BR(h -> s       sb     )
     2.01043743E-02    2           4        -4   # BR(h -> c       cb     )
     6.63946045E-02    2          21        21   # BR(h -> g       g      )
     2.30730420E-03    2          22        22   # BR(h -> gam     gam    )
     1.62625831E-03    2          22        23   # BR(h -> Z       gam    )
     2.16632998E-01    2          24       -24   # BR(h -> W+      W-     )
     2.80748998E-02    2          23        23   # BR(h -> Z       Z      )
#
#         PDG            Width
DECAY        35     3.78121456E+01   # H decays
#          BR         NDA      ID1       ID2
     1.47065693E-03    2           5        -5   # BR(H -> b       bb     )
     2.46422301E-04    2         -15        15   # BR(H -> tau+    tau-   )
     8.71194576E-07    2         -13        13   # BR(H -> mu+     mu-    )
     1.11544123E-06    2           3        -3   # BR(H -> s       sb     )
     1.00667614E-05    2           4        -4   # BR(H -> c       cb     )
     9.96061616E-01    2           6        -6   # BR(H -> t       tb     )
     7.97733612E-04    2          21        21   # BR(H -> g       g      )
     2.70803361E-06    2          22        22   # BR(H -> gam     gam    )
     1.15983523E-06    2          23        22   # BR(H -> Z       gam    )
     3.36161257E-04    2          24       -24   # BR(H -> W+      W-     )
     1.67622198E-04    2          23        23   # BR(H -> Z       Z      )
     9.03866487E-04    2          25        25   # BR(H -> h       h      )
     8.12577376E-24    2          36        36   # BR(H -> A       A      )
     3.25608864E-11    2          23        36   # BR(H -> Z       A      )
     7.13184384E-12    2          24       -37   # BR(H -> W+      H-     )
     7.13184384E-12    2         -24        37   # BR(H -> W-      H+     )
#
#         PDG            Width
DECAY        36     3.82382751E+01   # A decays
#          BR         NDA      ID1       ID2
     1.47359558E-03    2           5        -5   # BR(A -> b       bb     )
     2.43897414E-04    2         -15        15   # BR(A -> tau+    tau-   )
     8.62265464E-07    2         -13        13   # BR(A -> mu+     mu-    )
     1.13677253E-06    2           3        -3   # BR(A -> s       sb     )
     9.96175230E-06    2           4        -4   # BR(A -> c       cb     )
     9.96994738E-01    2           6        -6   # BR(A -> t       tb     )
     9.43674461E-04    2          21        21   # BR(A -> g       g      )
     3.21131181E-06    2          22        22   # BR(A -> gam     gam    )
     1.35242964E-06    2          23        22   # BR(A -> Z       gam    )
     3.27569847E-04    2          23        25   # BR(A -> Z       h      )
#
#         PDG            Width
DECAY        37     3.74481987E+01   # H+ decays
#          BR         NDA      ID1       ID2
     2.36340471E-06    2           4        -5   # BR(H+ -> c       bb     )
     2.49237733E-04    2         -15        16   # BR(H+ -> tau+    nu_tau )
     8.81145419E-07    2         -13        14   # BR(H+ -> mu+     nu_mu  )
     1.50259042E-08    2           2        -5   # BR(H+ -> u       bb     )
     5.45692644E-08    2           2        -3   # BR(H+ -> u       sb     )
     1.08731328E-05    2           4        -3   # BR(H+ -> c       sb     )
     9.99400834E-01    2           6        -5   # BR(H+ -> t       bb     )
     3.35740915E-04    2          24        25   # BR(H+ -> W+      h      )
     3.27415612E-13    2          24        36   # BR(H+ -> W+      A      )
