#
#                              ======================
#                              | THE SUSYHIT OUTPUT |
#                              ======================
#
#
#              ------------------------------------------------------
#              |     This is the output of the SUSY-HIT package     |
#              |  created by A.Djouadi, M.Muehlleitner and M.Spira. |
#              |  In case of problems with SUSY-HIT email to        |
#              |           margarete.muehlleitner@cern.ch           |
#              |           michael.spira@psi.ch                     |
#              |           abdelhak.djouadi@cern.ch                 |
#              ------------------------------------------------------
#
#              ------------------------------------------------------
#              |  SUSY Les Houches Accord - MSSM Spectrum + Decays  |
#              |              based on the decay programs           |
#              |                                                    |
#              |                     SDECAY 1.3b                    |
#              |                                                    |
#              |  Authors: M.Muhlleitner, A.Djouadi and Y.Mambrini  |
#              |  Ref.:    Comput.Phys.Commun.168(2005)46           |
#              |           [hep-ph/0311167]                         |
#              |                                                    |
#              |                     HDECAY 3.4                     |
#              |                                                    |
#              |  By: A.Djouadi,J.Kalinowski,M.Muhlleitner,M.Spira  |
#              |  Ref.:    Comput.Phys.Commun.108(1998)56           |
#              |           [hep-ph/9704448]                         |
#              |                                                    |
#              |                                                    |
#              |  If not stated otherwise all DRbar couplings and   |
#              |  soft SUSY breaking masses are given at the scale  |
#              |  Q=  0.50007388E+04
#              |                                                    |
#              ------------------------------------------------------
#
#
BLOCK DCINFO  # Decay Program information
     1   SDECAY/HDECAY # decay calculator
     2   1.3b  /3.4    # version number
#
BLOCK SPINFO  # Spectrum calculator information
     1    SOFTSUSY    # spectrum calculator                
     2    3.4.0       # version number                     
#
BLOCK MODSEL  # Model selection
     1     0   #  nonUniversal                                     
#
BLOCK SMINPUTS  # Standard Model inputs
         1     1.25778332E+02   # alpha_em^-1(M_Z)^MSbar
         2     1.16570000E-05   # G_F [GeV^-2]
         3     1.17200002E-01   # alpha_S(M_Z)^MSbar
         4     9.11876000E+01   # M_Z pole mass
         5     4.25000000E+00   # mb(mb)^MSbar
         6     1.72500000E+02   # mt pole mass
         7     1.77682000E+00   # mtau pole mass
#
BLOCK MINPAR  # Input parameters - minimal models
         3     1.00000000E+01   # tanb                
#
BLOCK EXTPAR  # Input parameters - non-minimal models
         0    -1.00000000E+00   # Set                 
         1     6.00000000E+01   # M_1(MX)             
         2     3.00000000E+03   # M_2(MX)             
         3     2.23497400E+03   # M_3(MX)             
        11     5.00000000E+03   # At(MX)              
        12     5.00000000E+03   # Ab(MX)              
        13     0.00000000E+00   # Atau(MX)            
        23    -1.05620200E+03   # mu(MX)              
        26     3.00000000E+03   # mA(pole)            
        31     5.00000000E+03   # meL(MX)             
        32     5.00000000E+03   # mmuL(MX)            
        33     5.00000000E+03   # mtauL(MX)           
        34     5.00000000E+03   # meR(MX)             
        35     5.00000000E+03   # mmuR(MX)            
        36     5.00000000E+03   # mtauR(MX)           
        41     5.00000000E+03   # mqL1(MX)            
        42     5.00000000E+03   # mqL2(MX)            
        43     5.00000000E+03   # mqL3(MX)            
        44     5.00000000E+03   # muR(MX)             
        45     5.00000000E+03   # mcR(MX)             
        46     5.00000000E+03   # mtR(MX)             
        47     5.00000000E+03   # mdR(MX)             
        48     5.00000000E+03   # msR(MX)             
        49     5.00000000E+03   # mbR(MX)             
#
BLOCK MASS  # Mass Spectrum
# PDG code           mass       particle
        24     8.00958371E+01   # W+
        25     1.24823851E+02   # h
        35     3.00008316E+03   # H
        36     2.99999757E+03   # A
        37     3.00103303E+03   # H+
         5     4.87878001E+00   # b-quark pole mass calculated from mb(mb)_Msbar
   1000001     5.08190920E+03   # ~d_L
   2000001     5.06415133E+03   # ~d_R
   1000002     5.08143866E+03   # ~u_L
   2000002     5.06386926E+03   # ~u_R
   1000003     5.08190920E+03   # ~s_L
   2000003     5.06415133E+03   # ~s_R
   1000004     5.08143866E+03   # ~c_L
   2000004     5.06386926E+03   # ~c_R
   1000005     5.02761950E+03   # ~b_1
   2000005     5.06269800E+03   # ~b_2
   1000006     4.91966126E+03   # ~t_1
   2000006     5.07179260E+03   # ~t_2
   1000011     5.01906335E+03   # ~e_L
   2000011     5.00592093E+03   # ~e_R
   1000012     5.01811504E+03   # ~nu_eL
   1000013     5.01906335E+03   # ~mu_L
   2000013     5.00592093E+03   # ~mu_R
   1000014     5.01811504E+03   # ~nu_muL
   1000015     5.00457002E+03   # ~tau_1
   2000015     5.01880302E+03   # ~tau_2
   1000016     5.01757024E+03   # ~nu_tauL
   1000021     2.60000060E+03   # ~g
   1000022     6.03010655E+01   # ~chi_10
   1000023     1.09959078E+03   # ~chi_20
   1000025    -1.10186364E+03   # ~chi_30
   1000035     3.07426554E+03   # ~chi_40
   1000024     1.10000039E+03   # ~chi_1+
   1000037     3.07443296E+03   # ~chi_2+
#
BLOCK NMIX  # Neutralino Mixing Matrix
  1  1     9.99178420E-01   # N_11
  1  2     1.73975721E-04   # N_12
  1  3    -4.04774226E-02   # N_13
  1  4     2.00812079E-03   # N_14
  2  1     2.72082058E-02   # N_21
  2  2     2.46687168E-02   # N_22
  2  3     7.06784877E-01   # N_23
  2  4     7.06474562E-01   # N_24
  3  1    -3.00338389E-02   # N_31
  3  2     1.45504823E-02   # N_32
  3  3    -7.06233331E-01   # N_33
  3  4     7.07192148E-01   # N_34
  4  1    -4.08184919E-04   # N_41
  4  2     9.99589770E-01   # N_42
  4  3    -7.15533361E-03   # N_43
  4  4    -2.77295326E-02   # N_44
#
BLOCK UMIX  # Chargino Mixing Matrix U
  1  1     1.01337292E-02   # U_11
  1  2     9.99948652E-01   # U_12
  2  1    -9.99948652E-01   # U_21
  2  2     1.01337292E-02   # U_22
#
BLOCK VMIX  # Chargino Mixing Matrix V
  1  1     3.92451390E-02   # V_11
  1  2    -9.99229613E-01   # V_12
  2  1    -9.99229613E-01   # V_21
  2  2    -3.92451390E-02   # V_22
#
BLOCK STOPMIX  # Stop Mixing Matrix
  1  1    -5.05243032E-01   # cos(theta_t)
  1  2     8.62977102E-01   # sin(theta_t)
  2  1    -8.62977102E-01   # -sin(theta_t)
  2  2    -5.05243032E-01   # cos(theta_t)
#
BLOCK SBOTMIX  # Sbottom Mixing Matrix
  1  1     9.96682083E-01   # cos(theta_b)
  1  2    -8.13930306E-02   # sin(theta_b)
  2  1     8.13930306E-02   # -sin(theta_b)
  2  2     9.96682083E-01   # cos(theta_b)
#
BLOCK STAUMIX  # Stau Mixing Matrix
  1  1    -1.25040425E-01   # cos(theta_tau)
  1  2     9.92151648E-01   # sin(theta_tau)
  2  1    -9.92151648E-01   # -sin(theta_tau)
  2  2    -1.25040425E-01   # cos(theta_tau)
#
BLOCK ALPHA  # Higgs mixing
          -1.05480455E-01   # Mixing angle in the neutral Higgs boson sector
#
BLOCK HMIX Q=  5.00073879E+03  # DRbar Higgs Parameters
         1    -1.07564943E+03   # mu(Q)MSSM           
         2     9.46921150E+00   # tan                 
         3     2.41874446E+02   # higgs               
         4     8.49156788E+06   # mA^2(Q)MSSM         
#
BLOCK GAUGE Q=  5.00073879E+03  # The gauge couplings
     1     3.70763408E-01   # gprime(Q) DRbar
     2     6.32407756E-01   # g(Q) DRbar
     3     9.94627392E-01   # g3(Q) DRbar
#
BLOCK AU Q=  5.00073879E+03  # The trilinear couplings
  1  1     5.00000002E+03   # A_u(Q) DRbar
  2  2     5.00000002E+03   # A_c(Q) DRbar
  3  3     5.00000002E+03   # A_t(Q) DRbar
#
BLOCK AD Q=  5.00073879E+03  # The trilinear couplings
  1  1     5.00000001E+03   # A_d(Q) DRbar
  2  2     5.00000001E+03   # A_s(Q) DRbar
  3  3     5.00000001E+03   # A_b(Q) DRbar
#
BLOCK AE Q=  5.00073879E+03  # The trilinear couplings
  1  1     0.00000000E+00   # A_e(Q) DRbar
  2  2     2.65480552E-07   # A_mu(Q) DRbar
  3  3     2.65473423E-07   # A_tau(Q) DRbar
#
BLOCK Yu Q=  5.00073879E+03  # The Yukawa couplings
  1  1     0.00000000E+00   # y_u(Q) DRbar
  2  2     0.00000000E+00   # y_c(Q) DRbar
  3  3     8.21148597E-01   # y_t(Q) DRbar
#
BLOCK Yd Q=  5.00073879E+03  # The Yukawa couplings
  1  1     0.00000000E+00   # y_d(Q) DRbar
  2  2     0.00000000E+00   # y_s(Q) DRbar
  3  3     1.31183451E-01   # y_b(Q) DRbar
#
BLOCK Ye Q=  5.00073879E+03  # The Yukawa couplings
  1  1     0.00000000E+00   # y_e(Q) DRbar
  2  2     0.00000000E+00   # y_mu(Q) DRbar
  3  3     9.67986603E-02   # y_tau(Q) DRbar
#
BLOCK MSOFT Q=  5.00073879E+03  # The soft SUSY breaking masses at the scale Q
         1     6.00000000E+01   # M_1(Q)              
         2     3.00000000E+03   # M_2(Q)              
         3     2.23497400E+03   # M_3(Q)              
        21     7.53444389E+06   # mH1^2(Q)            
        22    -5.93454450E+05   # mH2^2(Q)            
        31     5.00000000E+03   # meL(Q)              
        32     5.00000000E+03   # mmuL(Q)             
        33     5.00000000E+03   # mtauL(Q)            
        34     5.00000000E+03   # meR(Q)              
        35     5.00000000E+03   # mmuR(Q)             
        36     5.00000000E+03   # mtauR(Q)            
        41     4.99999999E+03   # mqL1(Q)             
        42     4.99999999E+03   # mqL2(Q)             
        43     4.99999999E+03   # mqL3(Q)             
        44     4.99999999E+03   # muR(Q)              
        45     4.99999999E+03   # mcR(Q)              
        46     4.99999999E+03   # mtR(Q)              
        47     4.99999999E+03   # mdR(Q)              
        48     4.99999999E+03   # msR(Q)              
        49     4.99999999E+03   # mbR(Q)              
#
#
#
#                             =================
#                             |The decay table|
#                             =================
#
# - The QCD corrections to the decays gluino -> squark  + quark
#                                     squark -> gaugino + quark_prime
#                                     squark -> squark_prime + Higgs
#                                     squark -> gluino  + quark
#   are included.
#
# - The multi-body decays for the inos, stops and sbottoms are included.
#
# - The loop induced decays for the gluino, neutralinos and stops
#   are included.
#
# - The SUSY decays of the top quark are included.
#
#
#         PDG            Width
DECAY         6     1.40148738E+00   # top decays
#          BR         NDA      ID1       ID2
     1.00000000E+00    2           5        24   # BR(t ->  b    W+)
#
#         PDG            Width
DECAY   1000021     4.11455374E-03   # gluino decays
#          BR         NDA      ID1       ID2
     2.03269106E-06    2     1000022        21   # BR(~g -> ~chi_10 g)
     5.34191897E-03    2     1000023        21   # BR(~g -> ~chi_20 g)
     5.27487952E-03    2     1000025        21   # BR(~g -> ~chi_30 g)
#           BR         NDA      ID1       ID2       ID3
     2.27108228E-02    3     1000022         1        -1   # BR(~g -> ~chi_10 d  db)
     2.33762352E-05    3     1000023         1        -1   # BR(~g -> ~chi_20 d  db)
     1.09952860E-05    3     1000025         1        -1   # BR(~g -> ~chi_30 d  db)
     7.74435437E-02    3     1000022         2        -2   # BR(~g -> ~chi_10 u  ub)
     6.49305217E-05    3     1000023         2        -2   # BR(~g -> ~chi_20 u  ub)
     1.25528893E-05    3     1000025         2        -2   # BR(~g -> ~chi_30 u  ub)
     2.27108228E-02    3     1000022         3        -3   # BR(~g -> ~chi_10 s  sb)
     2.33762352E-05    3     1000023         3        -3   # BR(~g -> ~chi_20 s  sb)
     1.09952860E-05    3     1000025         3        -3   # BR(~g -> ~chi_30 s  sb)
     7.74435437E-02    3     1000022         4        -4   # BR(~g -> ~chi_10 c  cb)
     6.49305217E-05    3     1000023         4        -4   # BR(~g -> ~chi_20 c  cb)
     1.25528893E-05    3     1000025         4        -4   # BR(~g -> ~chi_30 c  cb)
     2.30324626E-02    3     1000022         5        -5   # BR(~g -> ~chi_10 b  bb)
     4.53208824E-03    3     1000023         5        -5   # BR(~g -> ~chi_20 b  bb)
     4.47934022E-03    3     1000025         5        -5   # BR(~g -> ~chi_30 b  bb)
     7.94914303E-02    3     1000022         6        -6   # BR(~g -> ~chi_10 t  tb)
     1.69490512E-01    3     1000023         6        -6   # BR(~g -> ~chi_20 t  tb)
     1.55054412E-01    3     1000025         6        -6   # BR(~g -> ~chi_30 t  tb)
     6.66043348E-05    3     1000024         1        -2   # BR(~g -> ~chi_1+ d  ub)
     6.66043348E-05    3    -1000024         2        -1   # BR(~g -> ~chi_1- u  db)
     6.66043348E-05    3     1000024         3        -4   # BR(~g -> ~chi_1+ s  cb)
     6.66043348E-05    3    -1000024         4        -3   # BR(~g -> ~chi_1- c  sb)
     1.76251032E-01    3     1000024         5        -6   # BR(~g -> ~chi_1+ b  tb)
     1.76251032E-01    3    -1000024         6        -5   # BR(~g -> ~chi_1- t  bb)
#
#         PDG            Width
DECAY   1000006     2.82464535E+02   # stop1 decays
#          BR         NDA      ID1       ID2
     3.14652360E-02    2     1000022         6   # BR(~t_1 -> ~chi_10 t )
     1.05613105E-01    2     1000023         6   # BR(~t_1 -> ~chi_20 t )
     1.01575007E-01    2     1000025         6   # BR(~t_1 -> ~chi_30 t )
     7.28579063E-03    2     1000035         6   # BR(~t_1 -> ~chi_40 t )
     1.54829749E-01    2     1000024         5   # BR(~t_1 -> ~chi_1+ b )
     1.45119535E-02    2     1000037         5   # BR(~t_1 -> ~chi_2+ b )
     5.84719158E-01    2     1000021         6   # BR(~t_1 -> ~g      t )
#
#         PDG            Width
DECAY   2000006     2.92611936E+02   # stop2 decays
#          BR         NDA      ID1       ID2
     1.17004498E-02    2     1000022         6   # BR(~t_2 -> ~chi_10 t )
     1.04753091E-01    2     1000023         6   # BR(~t_2 -> ~chi_20 t )
     1.09029529E-01    2     1000025         6   # BR(~t_2 -> ~chi_30 t )
     1.92040435E-02    2     1000035         6   # BR(~t_2 -> ~chi_40 t )
     6.12699267E-02    2     1000024         5   # BR(~t_2 -> ~chi_1+ b )
     3.81976344E-02    2     1000037         5   # BR(~t_2 -> ~chi_2+ b )
     6.51680095E-01    2     1000021         6   # BR(~t_2 -> ~g      t )
     9.46737789E-04    2     1000006        25   # BR(~t_2 -> ~t_1    h )
     3.21849201E-03    2     1000006        23   # BR(~t_2 -> ~t_1    Z )
#
#         PDG            Width
DECAY   1000005     2.67342561E+02   # sbottom1 decays
#          BR         NDA      ID1       ID2
     2.88645283E-03    2     1000022         5   # BR(~b_1 -> ~chi_10 b )
     2.95800115E-03    2     1000023         5   # BR(~b_1 -> ~chi_20 b )
     2.86662036E-03    2     1000025         5   # BR(~b_1 -> ~chi_30 b )
     2.83404273E-02    2     1000035         5   # BR(~b_1 -> ~chi_40 b )
     2.26575309E-01    2    -1000024         6   # BR(~b_1 -> ~chi_1- t )
     5.69580352E-02    2    -1000037         6   # BR(~b_1 -> ~chi_2- t )
     6.77399003E-01    2     1000021         5   # BR(~b_1 -> ~g      b )
     2.01615068E-03    2     1000006       -24   # BR(~b_1 -> ~t_1    W-)
#
#         PDG            Width
DECAY   2000005     1.90639656E+02   # sbottom2 decays
#          BR         NDA      ID1       ID2
     1.53697792E-02    2     1000022         5   # BR(~b_2 -> ~chi_10 b )
     4.10654460E-03    2     1000023         5   # BR(~b_2 -> ~chi_20 b )
     4.22560304E-03    2     1000025         5   # BR(~b_2 -> ~chi_30 b )
     2.64345161E-04    2     1000035         5   # BR(~b_2 -> ~chi_40 b )
     1.02112436E-02    2    -1000024         6   # BR(~b_2 -> ~chi_1- t )
     5.31191630E-04    2    -1000037         6   # BR(~b_2 -> ~chi_2- t )
     9.65209496E-01    2     1000021         5   # BR(~b_2 -> ~g      b )
     8.17963042E-05    2     1000006       -24   # BR(~b_2 -> ~t_1    W-)
#
#         PDG            Width
DECAY   1000002     2.10065310E+02   # sup_L decays
#          BR         NDA      ID1       ID2
     3.54510189E-03    2     1000022         2   # BR(~u_L -> ~chi_10 u)
     7.60449196E-05    2     1000023         2   # BR(~u_L -> ~chi_20 u)
     6.37112735E-06    2     1000025         2   # BR(~u_L -> ~chi_30 u)
     3.76021554E-02    2     1000035         2   # BR(~u_L -> ~chi_40 u)
     2.60499857E-04    2     1000024         1   # BR(~u_L -> ~chi_1+ d)
     7.51527528E-02    2     1000037         1   # BR(~u_L -> ~chi_2+ d)
     8.83357074E-01    2     1000021         2   # BR(~u_L -> ~g      u)
#
#         PDG            Width
DECAY   2000002     1.95880281E+02   # sup_R decays
#          BR         NDA      ID1       ID2
     6.05067072E-02    2     1000022         2   # BR(~u_R -> ~chi_10 u)
     4.08560139E-05    2     1000023         2   # BR(~u_R -> ~chi_20 u)
     4.97624724E-05    2     1000025         2   # BR(~u_R -> ~chi_30 u)
     4.06272133E-09    2     1000035         2   # BR(~u_R -> ~chi_40 u)
     9.39402670E-01    2     1000021         2   # BR(~u_R -> ~g      u)
#
#         PDG            Width
DECAY   1000001     2.10082450E+02   # sdown_L decays
#          BR         NDA      ID1       ID2
     3.53253554E-03    2     1000022         1   # BR(~d_L -> ~chi_10 d)
     3.16725490E-05    2     1000023         1   # BR(~d_L -> ~chi_20 d)
     3.52516719E-05    2     1000025         1   # BR(~d_L -> ~chi_30 d)
     3.76225687E-02    2     1000035         1   # BR(~d_L -> ~chi_40 d)
     1.73695102E-05    2    -1000024         2   # BR(~d_L -> ~chi_1- u)
     7.52777774E-02    2    -1000037         2   # BR(~d_L -> ~chi_2- u)
     8.83482825E-01    2     1000021         1   # BR(~d_L -> ~g      d)
#
#         PDG            Width
DECAY   2000001     1.87003011E+02   # sdown_R decays
#          BR         NDA      ID1       ID2
     1.58456602E-02    2     1000022         1   # BR(~d_R -> ~chi_10 d)
     1.06995973E-05    2     1000023         1   # BR(~d_R -> ~chi_20 d)
     1.30320702E-05    2     1000025         1   # BR(~d_R -> ~chi_30 d)
     1.06409274E-09    2     1000035         1   # BR(~d_R -> ~chi_40 d)
     9.84130607E-01    2     1000021         1   # BR(~d_R -> ~g      d)
#
#         PDG            Width
DECAY   1000004     2.10065310E+02   # scharm_L decays
#          BR         NDA      ID1       ID2
     3.54510189E-03    2     1000022         4   # BR(~c_L -> ~chi_10 c)
     7.60449196E-05    2     1000023         4   # BR(~c_L -> ~chi_20 c)
     6.37112735E-06    2     1000025         4   # BR(~c_L -> ~chi_30 c)
     3.76021554E-02    2     1000035         4   # BR(~c_L -> ~chi_40 c)
     2.60499857E-04    2     1000024         3   # BR(~c_L -> ~chi_1+ s)
     7.51527528E-02    2     1000037         3   # BR(~c_L -> ~chi_2+ s)
     8.83357074E-01    2     1000021         4   # BR(~c_L -> ~g      c)
#
#         PDG            Width
DECAY   2000004     1.95880281E+02   # scharm_R decays
#          BR         NDA      ID1       ID2
     6.05067072E-02    2     1000022         4   # BR(~c_R -> ~chi_10 c)
     4.08560139E-05    2     1000023         4   # BR(~c_R -> ~chi_20 c)
     4.97624724E-05    2     1000025         4   # BR(~c_R -> ~chi_30 c)
     4.06272133E-09    2     1000035         4   # BR(~c_R -> ~chi_40 c)
     9.39402670E-01    2     1000021         4   # BR(~c_R -> ~g      c)
#
#         PDG            Width
DECAY   1000003     2.10082450E+02   # sstrange_L decays
#          BR         NDA      ID1       ID2
     3.53253554E-03    2     1000022         3   # BR(~s_L -> ~chi_10 s)
     3.16725490E-05    2     1000023         3   # BR(~s_L -> ~chi_20 s)
     3.52516719E-05    2     1000025         3   # BR(~s_L -> ~chi_30 s)
     3.76225687E-02    2     1000035         3   # BR(~s_L -> ~chi_40 s)
     1.73695102E-05    2    -1000024         4   # BR(~s_L -> ~chi_1- c)
     7.52777774E-02    2    -1000037         4   # BR(~s_L -> ~chi_2- c)
     8.83482825E-01    2     1000021         3   # BR(~s_L -> ~g      s)
#
#         PDG            Width
DECAY   2000003     1.87003011E+02   # sstrange_R decays
#          BR         NDA      ID1       ID2
     1.58456602E-02    2     1000022         3   # BR(~s_R -> ~chi_10 s)
     1.06995973E-05    2     1000023         3   # BR(~s_R -> ~chi_20 s)
     1.30320702E-05    2     1000025         3   # BR(~s_R -> ~chi_30 s)
     1.06409274E-09    2     1000035         3   # BR(~s_R -> ~chi_40 s)
     9.84130607E-01    2     1000021         3   # BR(~s_R -> ~g      s)
#
#         PDG            Width
DECAY   1000011     3.02595764E+01   # selectron_L decays
#          BR         NDA      ID1       ID2
     2.26502158E-01    2     1000022        11   # BR(~e_L -> ~chi_10 e-)
     9.86764827E-04    2     1000023        11   # BR(~e_L -> ~chi_20 e-)
     5.58847275E-06    2     1000025        11   # BR(~e_L -> ~chi_30 e-)
     2.57277955E-01    2     1000035        11   # BR(~e_L -> ~chi_40 e-)
     1.22819314E-04    2    -1000024        12   # BR(~e_L -> ~chi_1- nu_e)
     5.15104714E-01    2    -1000037        12   # BR(~e_L -> ~chi_2- nu_e)
#
#         PDG            Width
DECAY   2000011     2.73680990E+01   # selectron_R decays
#          BR         NDA      ID1       ID2
     9.98511958E-01    2     1000022        11   # BR(~e_R -> ~chi_10 e-)
     6.70871154E-04    2     1000023        11   # BR(~e_R -> ~chi_20 e-)
     8.17106680E-04    2     1000025        11   # BR(~e_R -> ~chi_30 e-)
     6.46655922E-08    2     1000035        11   # BR(~e_R -> ~chi_40 e-)
#
#         PDG            Width
DECAY   1000013     3.02595764E+01   # smuon_L decays
#          BR         NDA      ID1       ID2
     2.26502158E-01    2     1000022        13   # BR(~mu_L -> ~chi_10 mu-)
     9.86764827E-04    2     1000023        13   # BR(~mu_L -> ~chi_20 mu-)
     5.58847275E-06    2     1000025        13   # BR(~mu_L -> ~chi_30 mu-)
     2.57277955E-01    2     1000035        13   # BR(~mu_L -> ~chi_40 mu-)
     1.22819314E-04    2    -1000024        14   # BR(~mu_L -> ~chi_1- nu_mu)
     5.15104714E-01    2    -1000037        14   # BR(~mu_L -> ~chi_2- nu_mu)
#
#         PDG            Width
DECAY   2000013     2.73680990E+01   # smuon_R decays
#          BR         NDA      ID1       ID2
     9.98511958E-01    2     1000022        13   # BR(~mu_R -> ~chi_10 mu-)
     6.70871154E-04    2     1000023        13   # BR(~mu_R -> ~chi_20 mu-)
     8.17106680E-04    2     1000025        13   # BR(~mu_R -> ~chi_30 mu-)
     6.46655922E-08    2     1000035        13   # BR(~mu_R -> ~chi_40 mu-)
#
#         PDG            Width
DECAY   1000015     2.90930163E+01   # stau_1 decays
#          BR         NDA      ID1       ID2
     9.28969715E-01    2     1000022        15   # BR(~tau_1 -> ~chi_10  tau-)
     1.53509413E-02    2     1000023        15   # BR(~tau_1 -> ~chi_20  tau-)
     1.44816709E-02    2     1000025        15   # BR(~tau_1 -> ~chi_30  tau-)
     4.04153711E-03    2     1000035        15   # BR(~tau_1 -> ~chi_40  tau-)
     2.90646822E-02    2    -1000024        16   # BR(~tau_1 -> ~chi_1-  nu_tau)
     8.09145368E-03    2    -1000037        16   # BR(~tau_1 -> ~chi_2-  nu_tau)
#
#         PDG            Width
DECAY   2000015     3.10579147E+01   # stau_2 decays
#          BR         NDA      ID1       ID2
     2.30242782E-01    2     1000022        15   # BR(~tau_2 -> ~chi_10  tau-)
     1.44011617E-02    2     1000023        15   # BR(~tau_2 -> ~chi_20  tau-)
     1.43383255E-02    2     1000025        15   # BR(~tau_2 -> ~chi_30  tau-)
     2.46798280E-01    2     1000035        15   # BR(~tau_2 -> ~chi_40  tau-)
     9.61485752E-05    2    -1000024        16   # BR(~tau_2 -> ~chi_1-  nu_tau)
     4.94123302E-01    2    -1000037        16   # BR(~tau_2 -> ~chi_2-  nu_tau)
#
#         PDG            Width
DECAY   1000012     3.02622416E+01   # snu_eL decays
#          BR         NDA      ID1       ID2
     2.26170550E-01    2     1000022        12   # BR(~nu_eL -> ~chi_10 nu_e)
     4.54314572E-05    2     1000023        12   # BR(~nu_eL -> ~chi_20 nu_e)
     6.18022329E-04    2     1000025        12   # BR(~nu_eL -> ~chi_30 nu_e)
     2.57336263E-01    2     1000035        12   # BR(~nu_eL -> ~chi_40 nu_e)
     1.84146277E-03    2     1000024        11   # BR(~nu_eL -> ~chi_1+ e-)
     5.13988271E-01    2     1000037        11   # BR(~nu_eL -> ~chi_2+ e-)
#
#         PDG            Width
DECAY   1000014     3.02622416E+01   # snu_muL decays
#          BR         NDA      ID1       ID2
     2.26170550E-01    2     1000022        14   # BR(~nu_muL -> ~chi_10 nu_mu)
     4.54314572E-05    2     1000023        14   # BR(~nu_muL -> ~chi_20 nu_mu)
     6.18022329E-04    2     1000025        14   # BR(~nu_muL -> ~chi_30 nu_mu)
     2.57336263E-01    2     1000035        14   # BR(~nu_muL -> ~chi_40 nu_mu)
     1.84146277E-03    2     1000024        13   # BR(~nu_muL -> ~chi_1+ mu-)
     5.13988271E-01    2     1000037        13   # BR(~nu_muL -> ~chi_2+ mu-)
#
#         PDG            Width
DECAY   1000016     3.11004191E+01   # snu_tauL decays
#          BR         NDA      ID1       ID2
     2.20051193E-01    2     1000022        16   # BR(~nu_tauL -> ~chi_10 nu_tau)
     4.42012807E-05    2     1000023        16   # BR(~nu_tauL -> ~chi_20 nu_tau)
     6.01287687E-04    2     1000025        16   # BR(~nu_tauL -> ~chi_30 nu_tau)
     2.50308357E-01    2     1000035        16   # BR(~nu_tauL -> ~chi_40 nu_tau)
     2.90440339E-02    2     1000024        15   # BR(~nu_tauL -> ~chi_1+ tau-)
     4.99950928E-01    2     1000037        15   # BR(~nu_tauL -> ~chi_2+ tau-)
#
#         PDG            Width
DECAY   1000024     6.71652065E-01   # chargino1+ decays
#          BR         NDA      ID1       ID2
     1.00000000E+00    2     1000022        24   # BR(~chi_1+ -> ~chi_10  W+)
#
#         PDG            Width
DECAY   1000037     2.00466176E+01   # chargino2+ decays
#          BR         NDA      ID1       ID2
     2.53106605E-01    2     1000024        23   # BR(~chi_2+ -> ~chi_1+  Z )
     2.05843427E-04    2     1000022        24   # BR(~chi_2+ -> ~chi_10  W+)
     2.44054939E-01    2     1000023        24   # BR(~chi_2+ -> ~chi_20  W+)
     2.44028998E-01    2     1000025        24   # BR(~chi_2+ -> ~chi_30  W+)
     2.58602686E-01    2     1000024        25   # BR(~chi_2+ -> ~chi_1+  h )
     9.29632829E-07    2     1000022        37   # BR(~chi_2+ -> ~chi_10  H+)
#
#         PDG            Width
DECAY   1000022     0.00000000E+00   # neutralino1 decays
#
#         PDG            Width
DECAY   1000023     7.02871378E-01   # neutralino2 decays
#          BR         NDA      ID1       ID2
     5.44441446E-01    2     1000022        23   # BR(~chi_20 -> ~chi_10   Z )
     4.55558554E-01    2     1000022        25   # BR(~chi_20 -> ~chi_10   h )
#
#         PDG            Width
DECAY   1000025     7.07345510E-01   # neutralino3 decays
#          BR         NDA      ID1       ID2
     4.43577219E-01    2     1000022        23   # BR(~chi_30 -> ~chi_10   Z )
     5.56422781E-01    2     1000022        25   # BR(~chi_30 -> ~chi_10   h )
#
#         PDG            Width
DECAY   1000035     2.00602933E+01   # neutralino4 decays
#          BR         NDA      ID1       ID2
     5.54571355E-05    2     1000022        23   # BR(~chi_40 -> ~chi_10   Z )
     6.53759641E-02    2     1000023        23   # BR(~chi_40 -> ~chi_20   Z )
     1.87012595E-01    2     1000025        23   # BR(~chi_40 -> ~chi_30   Z )
     2.44692379E-01    2     1000024       -24   # BR(~chi_40 -> ~chi_1+   W-)
     2.44692379E-01    2    -1000024        24   # BR(~chi_40 -> ~chi_1-   W+)
     1.52345653E-04    2     1000022        25   # BR(~chi_40 -> ~chi_10   h )
     8.62107294E-07    2     1000022        35   # BR(~chi_40 -> ~chi_10   H )
     1.08976232E-07    2     1000022        36   # BR(~chi_40 -> ~chi_10   A )
     1.92482773E-01    2     1000023        25   # BR(~chi_40 -> ~chi_20   h )
     6.55351368E-02    2     1000025        25   # BR(~chi_40 -> ~chi_30   h )
#
#         PDG            Width
DECAY        25     4.05466573E-03   # h decays
#          BR         NDA      ID1       ID2
     6.06467681E-01    2           5        -5   # BR(h -> b       bb     )
     6.39941289E-02    2         -15        15   # BR(h -> tau+    tau-   )
     2.26562262E-04    2         -13        13   # BR(h -> mu+     mu-    )
     4.80260832E-04    2           3        -3   # BR(h -> s       sb     )
     2.08107697E-02    2           4        -4   # BR(h -> c       cb     )
     6.73762351E-02    2          21        21   # BR(h -> g       g      )
     2.31770939E-03    2          22        22   # BR(h -> gam     gam    )
     1.49873466E-03    2          22        23   # BR(h -> Z       gam    )
     2.11544221E-01    2          24       -24   # BR(h -> W+      W-     )
     2.52322771E-02    2          23        23   # BR(h -> Z       Z      )
     5.14207551E-05    2     1000022   1000022   # BR(h -> ~chi_10 ~chi_10)
#
#         PDG            Width
DECAY        35     7.95613270E+00   # H decays
#          BR         NDA      ID1       ID2
     4.07148393E-01    2           5        -5   # BR(H -> b       bb     )
     7.00136076E-02    2         -15        15   # BR(H -> tau+    tau-   )
     2.47573678E-04    2         -13        13   # BR(H -> mu+     mu-    )
     3.03487354E-04    2           3        -3   # BR(H -> s       sb     )
     1.69805014E-06    2           4        -4   # BR(H -> c       cb     )
     1.69648660E-01    2           6        -6   # BR(H -> t       tb     )
     5.63666686E-05    2          21        21   # BR(H -> g       g      )
     3.01269296E-07    2          22        22   # BR(H -> gam     gam    )
     1.00187572E-07    2          23        22   # BR(H -> Z       gam    )
     7.78466283E-05    2          24       -24   # BR(H -> W+      W-     )
     3.88740498E-05    2          23        23   # BR(H -> Z       Z      )
     2.89174502E-04    2          25        25   # BR(H -> h       h      )
     3.89515388E-23    2          36        36   # BR(H -> A       A      )
     9.34588508E-19    2          23        36   # BR(H -> Z       A      )
     1.60308746E-03    2     1000024  -1000024   # BR(H -> ~chi_1+ ~chi_1-)
     1.49969911E-03    2     1000022   1000022   # BR(H -> ~chi_10 ~chi_10)
     5.86806880E-05    2     1000023   1000023   # BR(H -> ~chi_20 ~chi_20)
     3.73046014E-04    2     1000025   1000025   # BR(H -> ~chi_30 ~chi_30)
     2.08788643E-01    2     1000022   1000023   # BR(H -> ~chi_10 ~chi_20)
     1.39508430E-01    2     1000022   1000025   # BR(H -> ~chi_10 ~chi_30)
     3.42331125E-04    2     1000023   1000025   # BR(H -> ~chi_20 ~chi_30)
#
#         PDG            Width
DECAY        36     7.97460492E+00   # A decays
#          BR         NDA      ID1       ID2
     4.06341853E-01    2           5        -5   # BR(A -> b       bb     )
     6.98534497E-02    2         -15        15   # BR(A -> tau+    tau-   )
     2.47007001E-04    2         -13        13   # BR(A -> mu+     mu-    )
     3.03014055E-04    2           3        -3   # BR(A -> s       sb     )
     1.70106935E-06    2           4        -4   # BR(A -> c       cb     )
     1.69856532E-01    2           6        -6   # BR(A -> t       tb     )
     1.68079606E-04    2          21        21   # BR(A -> g       g      )
     5.54992913E-07    2          22        22   # BR(A -> gam     gam    )
     2.03593909E-07    2          23        22   # BR(A -> Z       gam    )
     7.73721533E-05    2          23        25   # BR(A -> Z       h      )
     3.10214325E-03    2     1000024  -1000024   # BR(A -> ~chi_1+ ~chi_1-)
     1.53046842E-03    2     1000022   1000022   # BR(A -> ~chi_10 ~chi_10)
     8.27866160E-05    2     1000023   1000023   # BR(A -> ~chi_20 ~chi_20)
     1.23664533E-03    2     1000025   1000025   # BR(A -> ~chi_30 ~chi_30)
     1.41067769E-01    2     1000022   1000023   # BR(A -> ~chi_10 ~chi_20)
     2.06061737E-01    2     1000022   1000025   # BR(A -> ~chi_10 ~chi_30)
     6.86836035E-05    2     1000023   1000025   # BR(A -> ~chi_20 ~chi_30)
#
#         PDG            Width
DECAY        37     7.95006795E+00   # H+ decays
#          BR         NDA      ID1       ID2
     6.55751805E-04    2           4        -5   # BR(H+ -> c       bb     )
     7.00932289E-02    2         -15        16   # BR(H+ -> tau+    nu_tau )
     2.47854878E-04    2         -13        14   # BR(H+ -> mu+     nu_mu  )
     4.19678995E-06    2           2        -5   # BR(H+ -> u       bb     )
     1.45435076E-05    2           2        -3   # BR(H+ -> u       sb     )
     3.00761069E-04    2           4        -3   # BR(H+ -> c       sb     )
     5.76669136E-01    2           6        -5   # BR(H+ -> t       bb     )
     7.77412528E-05    2          24        25   # BR(H+ -> W+      h      )
     1.96769013E-13    2          24        36   # BR(H+ -> W+      A      )
     3.51216136E-01    2     1000024   1000022   # BR(H+ -> ~chi_1+ ~chi_10)
     6.72632537E-04    2     1000024   1000023   # BR(H+ -> ~chi_1+ ~chi_20)
     4.80169298E-05    2     1000024   1000025   # BR(H+ -> ~chi_1+ ~chi_30)
