#
#                              ======================
#                              | THE SUSYHIT OUTPUT |
#                              ======================
#
#
#              ------------------------------------------------------
#              |     This is the output of the SUSY-HIT package     |
#              |  created by A.Djouadi, M.Muehlleitner and M.Spira. |
#              |  In case of problems with SUSY-HIT email to        |
#              |           margarete.muehlleitner@cern.ch           |
#              |           michael.spira@psi.ch                     |
#              |           abdelhak.djouadi@cern.ch                 |
#              ------------------------------------------------------
#
#              ------------------------------------------------------
#              |  SUSY Les Houches Accord - MSSM Spectrum + Decays  |
#              |              based on the decay programs           |
#              |                                                    |
#              |                     SDECAY 1.3b                    |
#              |                                                    |
#              |  Authors: M.Muhlleitner, A.Djouadi and Y.Mambrini  |
#              |  Ref.:    Comput.Phys.Commun.168(2005)46           |
#              |           [hep-ph/0311167]                         |
#              |                                                    |
#              |                     HDECAY 3.4                     |
#              |                                                    |
#              |  By: A.Djouadi,J.Kalinowski,M.Muhlleitner,M.Spira  |
#              |  Ref.:    Comput.Phys.Commun.108(1998)56           |
#              |           [hep-ph/9704448]                         |
#              |                                                    |
#              |                                                    |
#              |  If not stated otherwise all DRbar couplings and   |
#              |  soft SUSY breaking masses are given at the scale  |
#              |  Q=  0.50007671E+04
#              |                                                    |
#              ------------------------------------------------------
#
#
BLOCK DCINFO  # Decay Program information
     1   SDECAY/HDECAY # decay calculator
     2   1.3b  /3.4    # version number
#
BLOCK SPINFO  # Spectrum calculator information
     1    SOFTSUSY    # spectrum calculator                
     2    3.4.0       # version number                     
#
BLOCK MODSEL  # Model selection
     1     0   #  nonUniversal                                     
#
BLOCK SMINPUTS  # Standard Model inputs
         1     1.25778332E+02   # alpha_em^-1(M_Z)^MSbar
         2     1.16570000E-05   # G_F [GeV^-2]
         3     1.17200002E-01   # alpha_S(M_Z)^MSbar
         4     9.11876000E+01   # M_Z pole mass
         5     4.25000000E+00   # mb(mb)^MSbar
         6     1.72500000E+02   # mt pole mass
         7     1.77682000E+00   # mtau pole mass
#
BLOCK MINPAR  # Input parameters - minimal models
         3     1.00000000E+01   # tanb                
#
BLOCK EXTPAR  # Input parameters - non-minimal models
         0    -1.00000000E+00   # Set                 
         1     6.00000000E+01   # M_1(MX)             
         2     3.00000000E+03   # M_2(MX)             
         3     2.23496900E+03   # M_3(MX)             
        11     5.00000000E+03   # At(MX)              
        12     5.00000000E+03   # Ab(MX)              
        13     0.00000000E+00   # Atau(MX)            
        23    -3.78670000E+02   # mu(MX)              
        26     3.00000000E+03   # mA(pole)            
        31     5.00000000E+03   # meL(MX)             
        32     5.00000000E+03   # mmuL(MX)            
        33     5.00000000E+03   # mtauL(MX)           
        34     5.00000000E+03   # meR(MX)             
        35     5.00000000E+03   # mmuR(MX)            
        36     5.00000000E+03   # mtauR(MX)           
        41     5.00000000E+03   # mqL1(MX)            
        42     5.00000000E+03   # mqL2(MX)            
        43     5.00000000E+03   # mqL3(MX)            
        44     5.00000000E+03   # muR(MX)             
        45     5.00000000E+03   # mcR(MX)             
        46     5.00000000E+03   # mtR(MX)             
        47     5.00000000E+03   # mdR(MX)             
        48     5.00000000E+03   # msR(MX)             
        49     5.00000000E+03   # mbR(MX)             
#
BLOCK MASS  # Mass Spectrum
# PDG code           mass       particle
        24     8.00926878E+01   # W+
        25     1.24802153E+02   # h
        35     3.00008739E+03   # H
        36     2.99999960E+03   # A
        37     3.00145197E+03   # H+
         5     4.87878001E+00   # b-quark pole mass calculated from mb(mb)_Msbar
   1000001     5.08197829E+03   # ~d_L
   2000001     5.06415993E+03   # ~d_R
   1000002     5.08150674E+03   # ~u_L
   2000002     5.06385769E+03   # ~u_R
   1000003     5.08197829E+03   # ~s_L
   2000003     5.06415993E+03   # ~s_R
   1000004     5.08150674E+03   # ~c_L
   2000004     5.06385769E+03   # ~c_R
   1000005     5.02784160E+03   # ~b_1
   2000005     5.06232472E+03   # ~b_2
   1000006     4.91990460E+03   # ~t_1
   2000006     5.07064533E+03   # ~t_2
   1000011     5.01911970E+03   # ~e_L
   2000011     5.00594840E+03   # ~e_R
   1000012     5.01816903E+03   # ~nu_eL
   1000013     5.01911970E+03   # ~mu_L
   2000013     5.00594840E+03   # ~mu_R
   1000014     5.01816903E+03   # ~nu_muL
   1000015     5.00479683E+03   # ~tau_1
   2000015     5.01862081E+03   # ~tau_2
   1000016     5.01761636E+03   # ~nu_tauL
   1000021     2.60000055E+03   # ~g
   1000022     6.00913808E+01   # ~chi_10
   1000023     4.01021795E+02   # ~chi_20
   1000025    -4.03141350E+02   # ~chi_30
   1000035     3.07418560E+03   # ~chi_40
   1000024     4.00000123E+02   # ~chi_1+
   1000037     3.07435339E+03   # ~chi_2+
#
BLOCK NMIX  # Neutralino Mixing Matrix
  1  1     9.93745804E-01   # N_11
  1  2     1.92587562E-04   # N_12
  1  3    -1.11539325E-01   # N_13
  1  4    -5.31223915E-03   # N_14
  2  1     8.26703963E-02   # N_21
  2  2     1.83214979E-02   # N_22
  2  3     7.02939823E-01   # N_23
  2  4     7.06190862E-01   # N_24
  3  1    -7.50648371E-02   # N_31
  3  2     1.75059433E-02   # N_32
  3  3    -7.02448767E-01   # N_33
  3  4     7.07548261E-01   # N_34
  4  1    -3.92073702E-04   # N_41
  4  2     9.99678862E-01   # N_42
  4  3    -5.60581163E-04   # N_43
  4  4    -2.53318861E-02   # N_44
#
BLOCK UMIX  # Chargino Mixing Matrix U
  1  1     7.96355240E-04   # U_11
  1  2     9.99999683E-01   # U_12
  2  1    -9.99999683E-01   # U_21
  2  2     7.96355240E-04   # U_22
#
BLOCK VMIX  # Chargino Mixing Matrix V
  1  1     3.58399297E-02   # V_11
  1  2    -9.99357543E-01   # V_12
  2  1    -9.99357543E-01   # V_21
  2  2    -3.58399297E-02   # V_22
#
BLOCK STOPMIX  # Stop Mixing Matrix
  1  1    -5.00925856E-01   # cos(theta_t)
  1  2     8.65490200E-01   # sin(theta_t)
  2  1    -8.65490200E-01   # -sin(theta_t)
  2  2    -5.00925856E-01   # cos(theta_t)
#
BLOCK SBOTMIX  # Sbottom Mixing Matrix
  1  1     9.99016979E-01   # cos(theta_b)
  1  2    -4.43291740E-02   # sin(theta_b)
  2  1     4.43291740E-02   # -sin(theta_b)
  2  2     9.99016979E-01   # cos(theta_b)
#
BLOCK STAUMIX  # Stau Mixing Matrix
  1  1    -4.53461403E-02   # cos(theta_tau)
  1  2     9.98971335E-01   # sin(theta_tau)
  2  1    -9.98971335E-01   # -sin(theta_tau)
  2  2    -4.53461403E-02   # cos(theta_tau)
#
BLOCK ALPHA  # Higgs mixing
          -1.05495724E-01   # Mixing angle in the neutral Higgs boson sector
#
BLOCK HMIX Q=  5.00076715E+03  # DRbar Higgs Parameters
         1    -3.85615478E+02   # mu(Q)MSSM           
         2     9.46843784E+00   # tan                 
         3     2.41724688E+02   # higgs               
         4     8.71475834E+06   # mA^2(Q)MSSM         
#
BLOCK GAUGE Q=  5.00076715E+03  # The gauge couplings
     1     3.70994136E-01   # gprime(Q) DRbar
     2     6.33541560E-01   # g(Q) DRbar
     3     9.94632413E-01   # g3(Q) DRbar
#
BLOCK AU Q=  5.00076715E+03  # The trilinear couplings
  1  1     5.00000002E+03   # A_u(Q) DRbar
  2  2     5.00000002E+03   # A_c(Q) DRbar
  3  3     5.00000002E+03   # A_t(Q) DRbar
#
BLOCK AD Q=  5.00076715E+03  # The trilinear couplings
  1  1     5.00000001E+03   # A_d(Q) DRbar
  2  2     5.00000001E+03   # A_s(Q) DRbar
  3  3     5.00000001E+03   # A_b(Q) DRbar
#
BLOCK AE Q=  5.00076715E+03  # The trilinear couplings
  1  1     0.00000000E+00   # A_e(Q) DRbar
  2  2     2.60974938E-07   # A_mu(Q) DRbar
  3  3     2.60957053E-07   # A_tau(Q) DRbar
#
BLOCK Yu Q=  5.00076715E+03  # The Yukawa couplings
  1  1     0.00000000E+00   # y_u(Q) DRbar
  2  2     0.00000000E+00   # y_c(Q) DRbar
  3  3     8.21591138E-01   # y_t(Q) DRbar
#
BLOCK Yd Q=  5.00076715E+03  # The Yukawa couplings
  1  1     0.00000000E+00   # y_d(Q) DRbar
  2  2     0.00000000E+00   # y_s(Q) DRbar
  3  3     1.30229705E-01   # y_b(Q) DRbar
#
BLOCK Ye Q=  5.00076715E+03  # The Yukawa couplings
  1  1     0.00000000E+00   # y_e(Q) DRbar
  2  2     0.00000000E+00   # y_mu(Q) DRbar
  3  3     9.72002352E-02   # y_tau(Q) DRbar
#
BLOCK MSOFT Q=  5.00076715E+03  # The soft SUSY breaking masses at the scale Q
         1     6.00000000E+01   # M_1(Q)              
         2     3.00000000E+03   # M_2(Q)              
         3     2.23496900E+03   # M_3(Q)              
        21     8.57932493E+06   # mH1^2(Q)            
        22     4.30857585E+05   # mH2^2(Q)            
        31     5.00000000E+03   # meL(Q)              
        32     5.00000000E+03   # mmuL(Q)             
        33     5.00000000E+03   # mtauL(Q)            
        34     5.00000000E+03   # meR(Q)              
        35     5.00000000E+03   # mmuR(Q)             
        36     5.00000000E+03   # mtauR(Q)            
        41     4.99999999E+03   # mqL1(Q)             
        42     4.99999999E+03   # mqL2(Q)             
        43     4.99999999E+03   # mqL3(Q)             
        44     4.99999999E+03   # muR(Q)              
        45     4.99999999E+03   # mcR(Q)              
        46     4.99999999E+03   # mtR(Q)              
        47     4.99999999E+03   # mdR(Q)              
        48     4.99999999E+03   # msR(Q)              
        49     4.99999999E+03   # mbR(Q)              
#
#
#
#                             =================
#                             |The decay table|
#                             =================
#
# - The QCD corrections to the decays gluino -> squark  + quark
#                                     squark -> gaugino + quark_prime
#                                     squark -> squark_prime + Higgs
#                                     squark -> gluino  + quark
#   are included.
#
# - The multi-body decays for the inos, stops and sbottoms are included.
#
# - The loop induced decays for the gluino, neutralinos and stops
#   are included.
#
# - The SUSY decays of the top quark are included.
#
#
#         PDG            Width
DECAY         6     1.40665525E+00   # top decays
#          BR         NDA      ID1       ID2
     1.00000000E+00    2           5        24   # BR(t ->  b    W+)
#
#         PDG            Width
DECAY   1000021     9.71068869E-03   # gluino decays
#          BR         NDA      ID1       ID2
     4.59381522E-08    2     1000022        21   # BR(~g -> ~chi_10 g)
     3.71676029E-03    2     1000023        21   # BR(~g -> ~chi_20 g)
     3.60716782E-03    2     1000025        21   # BR(~g -> ~chi_30 g)
#           BR         NDA      ID1       ID2       ID3
     9.52889027E-03    3     1000022         1        -1   # BR(~g -> ~chi_10 d  db)
     5.33041911E-05    3     1000023         1        -1   # BR(~g -> ~chi_20 d  db)
     5.98917236E-05    3     1000025         1        -1   # BR(~g -> ~chi_30 d  db)
     3.24958492E-02    3     1000022         2        -2   # BR(~g -> ~chi_10 u  ub)
     2.71881480E-04    3     1000023         2        -2   # BR(~g -> ~chi_20 u  ub)
     1.09930466E-04    3     1000025         2        -2   # BR(~g -> ~chi_30 u  ub)
     9.52889027E-03    3     1000022         3        -3   # BR(~g -> ~chi_10 s  sb)
     5.33041911E-05    3     1000023         3        -3   # BR(~g -> ~chi_20 s  sb)
     5.98917236E-05    3     1000025         3        -3   # BR(~g -> ~chi_30 s  sb)
     3.24958492E-02    3     1000022         4        -4   # BR(~g -> ~chi_10 c  cb)
     2.71881480E-04    3     1000023         4        -4   # BR(~g -> ~chi_20 c  cb)
     1.09930466E-04    3     1000025         4        -4   # BR(~g -> ~chi_30 c  cb)
     9.81598202E-03    3     1000022         5        -5   # BR(~g -> ~chi_10 b  bb)
     5.32137119E-03    3     1000023         5        -5   # BR(~g -> ~chi_20 b  bb)
     5.30814049E-03    3     1000025         5        -5   # BR(~g -> ~chi_30 b  bb)
     3.30248273E-02    3     1000022         6        -6   # BR(~g -> ~chi_10 t  tb)
     2.12435687E-01    3     1000023         6        -6   # BR(~g -> ~chi_20 t  tb)
     2.03294066E-01    3     1000025         6        -6   # BR(~g -> ~chi_30 t  tb)
     5.30576881E-05    3     1000024         1        -2   # BR(~g -> ~chi_1+ d  ub)
     5.30576881E-05    3    -1000024         2        -1   # BR(~g -> ~chi_1- u  db)
     5.30576881E-05    3     1000024         3        -4   # BR(~g -> ~chi_1+ s  cb)
     5.30576881E-05    3    -1000024         4        -3   # BR(~g -> ~chi_1- c  sb)
     2.19112113E-01    3     1000024         5        -6   # BR(~g -> ~chi_1+ b  tb)
     2.19112113E-01    3    -1000024         6        -5   # BR(~g -> ~chi_1- t  bb)
#
#         PDG            Width
DECAY   1000006     2.92669407E+02   # stop1 decays
#          BR         NDA      ID1       ID2
     2.98112816E-02    2     1000022         6   # BR(~t_1 -> ~chi_10 t )
     1.13605340E-01    2     1000023         6   # BR(~t_1 -> ~chi_20 t )
     1.06428095E-01    2     1000025         6   # BR(~t_1 -> ~chi_30 t )
     6.83347092E-03    2     1000035         6   # BR(~t_1 -> ~chi_40 t )
     1.65151318E-01    2     1000024         5   # BR(~t_1 -> ~chi_1+ b )
     1.36226971E-02    2     1000037         5   # BR(~t_1 -> ~chi_2+ b )
     5.64547797E-01    2     1000021         6   # BR(~t_1 -> ~g      t )
#
#         PDG            Width
DECAY   2000006     2.99231523E+02   # stop2 decays
#          BR         NDA      ID1       ID2
     1.16091042E-02    2     1000022         6   # BR(~t_2 -> ~chi_10 t )
     1.09573034E-01    2     1000023         6   # BR(~t_2 -> ~chi_20 t )
     1.17505020E-01    2     1000025         6   # BR(~t_2 -> ~chi_30 t )
     1.90452451E-02    2     1000035         6   # BR(~t_2 -> ~chi_40 t )
     6.36172984E-02    2     1000024         5   # BR(~t_2 -> ~chi_1+ b )
     3.79253060E-02    2     1000037         5   # BR(~t_2 -> ~chi_2+ b )
     6.36828302E-01    2     1000021         6   # BR(~t_2 -> ~g      t )
     9.06326516E-04    2     1000006        25   # BR(~t_2 -> ~t_1    h )
     2.99036346E-03    2     1000006        23   # BR(~t_2 -> ~t_1    Z )
#
#         PDG            Width
DECAY   1000005     2.73474829E+02   # sbottom1 decays
#          BR         NDA      ID1       ID2
     2.86023896E-03    2     1000022         5   # BR(~b_1 -> ~chi_10 b )
     2.98992605E-03    2     1000023         5   # BR(~b_1 -> ~chi_20 b )
     3.01962459E-03    2     1000025         5   # BR(~b_1 -> ~chi_30 b )
     2.79482060E-02    2     1000035         5   # BR(~b_1 -> ~chi_40 b )
     2.42788324E-01    2    -1000024         6   # BR(~b_1 -> ~chi_1- t )
     5.61097590E-02    2    -1000037         6   # BR(~b_1 -> ~chi_2- t )
     6.62332489E-01    2     1000021         5   # BR(~b_1 -> ~g      b )
     1.95143272E-03    2     1000006       -24   # BR(~b_1 -> ~t_1    W-)
#
#         PDG            Width
DECAY   2000005     1.90461532E+02   # sbottom2 decays
#          BR         NDA      ID1       ID2
     1.53331950E-02    2     1000022         5   # BR(~b_2 -> ~chi_10 b )
     4.53343384E-03    2     1000023         5   # BR(~b_2 -> ~chi_20 b )
     4.56259878E-03    2     1000025         5   # BR(~b_2 -> ~chi_30 b )
     6.97550853E-05    2     1000035         5   # BR(~b_2 -> ~chi_40 b )
     9.44063161E-03    2    -1000024         6   # BR(~b_2 -> ~chi_1- t )
     1.40069455E-04    2    -1000037         6   # BR(~b_2 -> ~chi_2- t )
     9.65896813E-01    2     1000021         5   # BR(~b_2 -> ~g      b )
     2.35034049E-05    2     1000006       -24   # BR(~b_2 -> ~t_1    W-)
#
#         PDG            Width
DECAY   1000002     2.10160121E+02   # sup_L decays
#          BR         NDA      ID1       ID2
     3.51020394E-03    2     1000022         2   # BR(~u_L -> ~chi_10 u)
     1.09325564E-04    2     1000023         2   # BR(~u_L -> ~chi_20 u)
     7.49653563E-07    2     1000025         2   # BR(~u_L -> ~chi_30 u)
     3.77309509E-02    2     1000035         2   # BR(~u_L -> ~chi_40 u)
     2.36549355E-04    2     1000024         1   # BR(~u_L -> ~chi_1+ d)
     7.54155241E-02    2     1000037         1   # BR(~u_L -> ~chi_2+ d)
     8.82996697E-01    2     1000021         2   # BR(~u_L -> ~g      u)
#
#         PDG            Width
DECAY   2000002     1.95896089E+02   # sup_R decays
#          BR         NDA      ID1       ID2
     5.99201270E-02    2     1000022         2   # BR(~u_R -> ~chi_10 u)
     4.10054064E-04    2     1000023         2   # BR(~u_R -> ~chi_20 u)
     3.38032652E-04    2     1000025         2   # BR(~u_R -> ~chi_30 u)
     3.75289647E-09    2     1000035         2   # BR(~u_R -> ~chi_40 u)
     9.39331783E-01    2     1000021         2   # BR(~u_R -> ~g      u)
#
#         PDG            Width
DECAY   1000001     2.10176278E+02   # sdown_L decays
#          BR         NDA      ID1       ID2
     3.49635353E-03    2     1000022         1   # BR(~d_L -> ~chi_10 d)
     4.39414024E-07    2     1000023         1   # BR(~d_L -> ~chi_20 d)
     9.52073441E-05    2     1000025         1   # BR(~d_L -> ~chi_30 d)
     3.77511455E-02    2     1000035         1   # BR(~d_L -> ~chi_40 d)
     1.16791110E-07    2    -1000024         2   # BR(~d_L -> ~chi_1- u)
     7.55297586E-02    2    -1000037         2   # BR(~d_L -> ~chi_2- u)
     8.83126979E-01    2     1000021         1   # BR(~d_L -> ~g      d)
#
#         PDG            Width
DECAY   2000001     1.87009480E+02   # sdown_R decays
#          BR         NDA      ID1       ID2
     1.56928323E-02    2     1000022         1   # BR(~d_R -> ~chi_10 d)
     1.07391599E-04    2     1000023         1   # BR(~d_R -> ~chi_20 d)
     8.85294663E-05    2     1000025         1   # BR(~d_R -> ~chi_30 d)
     9.83002885E-10    2     1000035         1   # BR(~d_R -> ~chi_40 d)
     9.84111246E-01    2     1000021         1   # BR(~d_R -> ~g      d)
#
#         PDG            Width
DECAY   1000004     2.10160121E+02   # scharm_L decays
#          BR         NDA      ID1       ID2
     3.51020394E-03    2     1000022         4   # BR(~c_L -> ~chi_10 c)
     1.09325564E-04    2     1000023         4   # BR(~c_L -> ~chi_20 c)
     7.49653563E-07    2     1000025         4   # BR(~c_L -> ~chi_30 c)
     3.77309509E-02    2     1000035         4   # BR(~c_L -> ~chi_40 c)
     2.36549355E-04    2     1000024         3   # BR(~c_L -> ~chi_1+ s)
     7.54155241E-02    2     1000037         3   # BR(~c_L -> ~chi_2+ s)
     8.82996697E-01    2     1000021         4   # BR(~c_L -> ~g      c)
#
#         PDG            Width
DECAY   2000004     1.95896089E+02   # scharm_R decays
#          BR         NDA      ID1       ID2
     5.99201270E-02    2     1000022         4   # BR(~c_R -> ~chi_10 c)
     4.10054064E-04    2     1000023         4   # BR(~c_R -> ~chi_20 c)
     3.38032652E-04    2     1000025         4   # BR(~c_R -> ~chi_30 c)
     3.75289647E-09    2     1000035         4   # BR(~c_R -> ~chi_40 c)
     9.39331783E-01    2     1000021         4   # BR(~c_R -> ~g      c)
#
#         PDG            Width
DECAY   1000003     2.10176278E+02   # sstrange_L decays
#          BR         NDA      ID1       ID2
     3.49635353E-03    2     1000022         3   # BR(~s_L -> ~chi_10 s)
     4.39414024E-07    2     1000023         3   # BR(~s_L -> ~chi_20 s)
     9.52073441E-05    2     1000025         3   # BR(~s_L -> ~chi_30 s)
     3.77511455E-02    2     1000035         3   # BR(~s_L -> ~chi_40 s)
     1.16791110E-07    2    -1000024         4   # BR(~s_L -> ~chi_1- c)
     7.55297586E-02    2    -1000037         4   # BR(~s_L -> ~chi_2- c)
     8.83126979E-01    2     1000021         3   # BR(~s_L -> ~g      s)
#
#         PDG            Width
DECAY   2000003     1.87009480E+02   # sstrange_R decays
#          BR         NDA      ID1       ID2
     1.56928323E-02    2     1000022         3   # BR(~s_R -> ~chi_10 s)
     1.07391599E-04    2     1000023         3   # BR(~s_R -> ~chi_20 s)
     8.85294663E-05    2     1000025         3   # BR(~s_R -> ~chi_30 s)
     9.83002885E-10    2     1000035         3   # BR(~s_R -> ~chi_40 s)
     9.84111246E-01    2     1000021         3   # BR(~s_R -> ~g      s)
#
#         PDG            Width
DECAY   1000011     3.03518410E+01   # selectron_L decays
#          BR         NDA      ID1       ID2
     2.23661002E-01    2     1000022        11   # BR(~e_L -> ~chi_10 e-)
     2.90269836E-03    2     1000023        11   # BR(~e_L -> ~chi_20 e-)
     4.55993389E-04    2     1000025        11   # BR(~e_L -> ~chi_30 e-)
     2.57493225E-01    2     1000035        11   # BR(~e_L -> ~chi_40 e-)
     8.26803426E-07    2    -1000024        12   # BR(~e_L -> ~chi_1- nu_e)
     5.15486254E-01    2    -1000037        12   # BR(~e_L -> ~chi_2- nu_e)
#
#         PDG            Width
DECAY   2000011     2.74023187E+01   # selectron_R decays
#          BR         NDA      ID1       ID2
     9.87685625E-01    2     1000022        11   # BR(~e_R -> ~chi_10 e-)
     6.74996043E-03    2     1000023        11   # BR(~e_R -> ~chi_20 e-)
     5.56435486E-03    2     1000025        11   # BR(~e_R -> ~chi_30 e-)
     5.96661426E-08    2     1000035        11   # BR(~e_R -> ~chi_40 e-)
#
#         PDG            Width
DECAY   1000013     3.03518410E+01   # smuon_L decays
#          BR         NDA      ID1       ID2
     2.23661002E-01    2     1000022        13   # BR(~mu_L -> ~chi_10 mu-)
     2.90269836E-03    2     1000023        13   # BR(~mu_L -> ~chi_20 mu-)
     4.55993389E-04    2     1000025        13   # BR(~mu_L -> ~chi_30 mu-)
     2.57493225E-01    2     1000035        13   # BR(~mu_L -> ~chi_40 mu-)
     8.26803426E-07    2    -1000024        14   # BR(~mu_L -> ~chi_1- nu_mu)
     5.15486254E-01    2    -1000037        14   # BR(~mu_L -> ~chi_2- nu_mu)
#
#         PDG            Width
DECAY   2000013     2.74023187E+01   # smuon_R decays
#          BR         NDA      ID1       ID2
     9.87685625E-01    2     1000022        13   # BR(~mu_R -> ~chi_10 mu-)
     6.74996043E-03    2     1000023        13   # BR(~mu_R -> ~chi_20 mu-)
     5.56435486E-03    2     1000025        13   # BR(~mu_R -> ~chi_30 mu-)
     5.96661426E-08    2     1000035        13   # BR(~mu_R -> ~chi_40 mu-)
#
#         PDG            Width
DECAY   1000015     2.92578397E+01   # stau_1 decays
#          BR         NDA      ID1       ID2
     9.24678584E-01    2     1000022        15   # BR(~tau_1 -> ~chi_10  tau-)
     2.17159334E-02    2     1000023        15   # BR(~tau_1 -> ~chi_20  tau-)
     2.02890385E-02    2     1000025        15   # BR(~tau_1 -> ~chi_30  tau-)
     5.41092558E-04    2     1000035        15   # BR(~tau_1 -> ~chi_40  tau-)
     3.16922636E-02    2    -1000024        16   # BR(~tau_1 -> ~chi_1-  nu_tau)
     1.08308766E-03    2    -1000037        16   # BR(~tau_1 -> ~chi_2-  nu_tau)
#
#         PDG            Width
DECAY   2000015     3.12699016E+01   # stau_2 decays
#          BR         NDA      ID1       ID2
     2.17969033E-01    2     1000022        15   # BR(~tau_2 -> ~chi_10  tau-)
     1.78034733E-02    2     1000023        15   # BR(~tau_2 -> ~chi_20  tau-)
     1.56819439E-02    2     1000025        15   # BR(~tau_2 -> ~chi_30  tau-)
     2.49337709E-01    2     1000035        15   # BR(~tau_2 -> ~chi_40  tau-)
     4.80390184E-05    2    -1000024        16   # BR(~tau_2 -> ~chi_1-  nu_tau)
     4.99159802E-01    2    -1000037        16   # BR(~tau_2 -> ~chi_2-  nu_tau)
#
#         PDG            Width
DECAY   1000012     3.03550356E+01   # snu_eL decays
#          BR         NDA      ID1       ID2
     2.23299282E-01    2     1000022        12   # BR(~nu_eL -> ~chi_10 nu_e)
     5.89961062E-04    2     1000023        12   # BR(~nu_eL -> ~chi_20 nu_e)
     2.46132102E-03    2     1000025        12   # BR(~nu_eL -> ~chi_30 nu_e)
     2.57536729E-01    2     1000035        12   # BR(~nu_eL -> ~chi_40 nu_e)
     1.67414397E-03    2     1000024        11   # BR(~nu_eL -> ~chi_1+ e-)
     5.14438562E-01    2     1000037        11   # BR(~nu_eL -> ~chi_2+ e-)
#
#         PDG            Width
DECAY   1000014     3.03550356E+01   # snu_muL decays
#          BR         NDA      ID1       ID2
     2.23299282E-01    2     1000022        14   # BR(~nu_muL -> ~chi_10 nu_mu)
     5.89961062E-04    2     1000023        14   # BR(~nu_muL -> ~chi_20 nu_mu)
     2.46132102E-03    2     1000025        14   # BR(~nu_muL -> ~chi_30 nu_mu)
     2.57536729E-01    2     1000035        14   # BR(~nu_muL -> ~chi_40 nu_mu)
     1.67414397E-03    2     1000024        13   # BR(~nu_muL -> ~chi_1+ mu-)
     5.14438562E-01    2     1000037        13   # BR(~nu_muL -> ~chi_2+ mu-)
#
#         PDG            Width
DECAY   1000016     3.12766614E+01   # snu_tauL decays
#          BR         NDA      ID1       ID2
     2.16695466E-01    2     1000022        16   # BR(~nu_tauL -> ~chi_10 nu_tau)
     5.72512066E-04    2     1000023        16   # BR(~nu_tauL -> ~chi_20 nu_tau)
     2.38852363E-03    2     1000025        16   # BR(~nu_tauL -> ~chi_30 nu_tau)
     2.49854248E-01    2     1000035        16   # BR(~nu_tauL -> ~chi_40 nu_tau)
     3.13971321E-02    2     1000024        15   # BR(~nu_tauL -> ~chi_1+ tau-)
     4.99092118E-01    2     1000037        15   # BR(~nu_tauL -> ~chi_2+ tau-)
#
#         PDG            Width
DECAY   1000024     2.29913575E-01   # chargino1+ decays
#          BR         NDA      ID1       ID2
     1.00000000E+00    2     1000022        24   # BR(~chi_1+ -> ~chi_10  W+)
#
#         PDG            Width
DECAY   1000037     2.25216036E+01   # chargino2+ decays
#          BR         NDA      ID1       ID2
     2.53606440E-01    2     1000024        23   # BR(~chi_2+ -> ~chi_1+  Z )
     1.38123011E-04    2     1000022        24   # BR(~chi_2+ -> ~chi_10  W+)
     2.45209171E-01    2     1000023        24   # BR(~chi_2+ -> ~chi_20  W+)
     2.44428994E-01    2     1000025        24   # BR(~chi_2+ -> ~chi_30  W+)
     2.56609038E-01    2     1000024        25   # BR(~chi_2+ -> ~chi_1+  h )
     8.23286946E-06    2     1000022        37   # BR(~chi_2+ -> ~chi_10  H+)
#
#         PDG            Width
DECAY   1000022     0.00000000E+00   # neutralino1 decays
#
#         PDG            Width
DECAY   1000023     2.27162989E-01   # neutralino2 decays
#          BR         NDA      ID1       ID2
     4.94368494E-01    2     1000022        23   # BR(~chi_20 -> ~chi_10   Z )
     5.05631506E-01    2     1000022        25   # BR(~chi_20 -> ~chi_10   h )
#
#         PDG            Width
DECAY   1000025     2.16585989E-01   # neutralino3 decays
#          BR         NDA      ID1       ID2
     5.81766229E-01    2     1000022        23   # BR(~chi_30 -> ~chi_10   Z )
     4.18233771E-01    2     1000022        25   # BR(~chi_30 -> ~chi_10   h )
#
#         PDG            Width
DECAY   1000035     2.25284762E+01   # neutralino4 decays
#          BR         NDA      ID1       ID2
     2.15563300E-06    2     1000022        23   # BR(~chi_40 -> ~chi_10   Z )
     1.20957828E-01    2     1000023        23   # BR(~chi_40 -> ~chi_20   Z )
     1.32332252E-01    2     1000025        23   # BR(~chi_40 -> ~chi_30   Z )
     2.45202074E-01    2     1000024       -24   # BR(~chi_40 -> ~chi_1+   W-)
     2.45202074E-01    2    -1000024        24   # BR(~chi_40 -> ~chi_1-   W+)
     1.25395432E-04    2     1000022        25   # BR(~chi_40 -> ~chi_10   h )
     7.94053215E-06    2     1000022        35   # BR(~chi_40 -> ~chi_10   H )
     8.50496349E-07    2     1000022        36   # BR(~chi_40 -> ~chi_10   A )
     1.34950726E-01    2     1000023        25   # BR(~chi_40 -> ~chi_20   h )
     1.21218705E-01    2     1000025        25   # BR(~chi_40 -> ~chi_30   h )
#
#         PDG            Width
DECAY        25     4.07410033E-03   # h decays
#          BR         NDA      ID1       ID2
     6.08848704E-01    2           5        -5   # BR(h -> b       bb     )
     6.36858364E-02    2         -15        15   # BR(h -> tau+    tau-   )
     2.25470891E-04    2         -13        13   # BR(h -> mu+     mu-    )
     4.77962762E-04    2           3        -3   # BR(h -> s       sb     )
     2.07085696E-02    2           4        -4   # BR(h -> c       cb     )
     6.70210464E-02    2          21        21   # BR(h -> g       g      )
     2.30380079E-03    2          22        22   # BR(h -> gam     gam    )
     1.48850506E-03    2          22        23   # BR(h -> Z       gam    )
     2.10134895E-01    2          24       -24   # BR(h -> W+      W-     )
     2.50435692E-02    2          23        23   # BR(h -> Z       Z      )
     6.16400078E-05    2     1000022   1000022   # BR(h -> ~chi_10 ~chi_10)
#
#         PDG            Width
DECAY        35     8.72728180E+00   # H decays
#          BR         NDA      ID1       ID2
     3.64483866E-01    2           5        -5   # BR(H -> b       bb     )
     6.38167227E-02    2         -15        15   # BR(H -> tau+    tau-   )
     2.25661000E-04    2         -13        13   # BR(H -> mu+     mu-    )
     2.76625704E-04    2           3        -3   # BR(H -> s       sb     )
     1.54846039E-06    2           4        -4   # BR(H -> c       cb     )
     1.54703464E-01    2           6        -6   # BR(H -> t       tb     )
     5.14668523E-05    2          21        21   # BR(H -> g       g      )
     1.40003542E-07    2          22        22   # BR(H -> gam     gam    )
     9.12926739E-08    2          23        22   # BR(H -> Z       gam    )
     7.46213475E-05    2          24       -24   # BR(H -> W+      W-     )
     3.72634380E-05    2          23        23   # BR(H -> Z       Z      )
     2.68517391E-04    2          25        25   # BR(H -> h       h      )
    -1.07318613E-24    2          36        36   # BR(H -> A       A      )
     5.42827699E-19    2          23        36   # BR(H -> Z       A      )
     3.30531341E-03    2     1000024  -1000024   # BR(H -> ~chi_1+ ~chi_1-)
     1.04847028E-02    2     1000022   1000022   # BR(H -> ~chi_10 ~chi_10)
     1.10158042E-03    2     1000023   1000023   # BR(H -> ~chi_20 ~chi_20)
     3.42911061E-03    2     1000025   1000025   # BR(H -> ~chi_30 ~chi_30)
     2.38998603E-01    2     1000022   1000023   # BR(H -> ~chi_10 ~chi_20)
     1.53421486E-01    2     1000022   1000025   # BR(H -> ~chi_10 ~chi_30)
     5.31921611E-03    2     1000023   1000025   # BR(H -> ~chi_20 ~chi_30)
#
#         PDG            Width
DECAY        36     8.73329272E+00   # A decays
#          BR         NDA      ID1       ID2
     3.64357506E-01    2           5        -5   # BR(A -> b       bb     )
     6.37746880E-02    2         -15        15   # BR(A -> tau+    tau-   )
     2.25512047E-04    2         -13        13   # BR(A -> mu+     mu-    )
     2.76645271E-04    2           3        -3   # BR(A -> s       sb     )
     1.55354702E-06    2           4        -4   # BR(A -> c       cb     )
     1.55126015E-01    2           6        -6   # BR(A -> t       tb     )
     1.53492652E-04    2          21        21   # BR(A -> g       g      )
     5.82758228E-07    2          22        22   # BR(A -> gam     gam    )
     1.85790719E-07    2          23        22   # BR(A -> Z       gam    )
     7.42875079E-05    2          23        25   # BR(A -> Z       h      )
     3.52273420E-03    2     1000024  -1000024   # BR(A -> ~chi_1+ ~chi_1-)
     1.02853102E-02    2     1000022   1000022   # BR(A -> ~chi_10 ~chi_10)
     7.73928428E-04    2     1000023   1000023   # BR(A -> ~chi_20 ~chi_20)
     5.66533851E-03    2     1000025   1000025   # BR(A -> ~chi_30 ~chi_30)
     1.57112504E-01    2     1000022   1000023   # BR(A -> ~chi_10 ~chi_20)
     2.34437922E-01    2     1000022   1000025   # BR(A -> ~chi_10 ~chi_30)
     4.21179438E-03    2     1000023   1000025   # BR(A -> ~chi_20 ~chi_30)
#
#         PDG            Width
DECAY        37     8.68092322E+00   # H+ decays
#          BR         NDA      ID1       ID2
     5.84846980E-04    2           4        -5   # BR(H+ -> c       bb     )
     6.41904833E-02    2         -15        16   # BR(H+ -> tau+    nu_tau )
     2.26982330E-04    2         -13        14   # BR(H+ -> mu+     nu_mu  )
     3.74300100E-06    2           2        -5   # BR(H+ -> u       bb     )
     1.33185176E-05    2           2        -3   # BR(H+ -> u       sb     )
     2.75428653E-04    2           4        -3   # BR(H+ -> c       sb     )
     5.18367045E-01    2           6        -5   # BR(H+ -> t       bb     )
     7.48925043E-05    2          24        25   # BR(H+ -> W+      h      )
     9.78209897E-13    2          24        36   # BR(H+ -> W+      A      )
     4.10295587E-01    2     1000024   1000022   # BR(H+ -> ~chi_1+ ~chi_10)
     5.22115615E-03    2     1000024   1000023   # BR(H+ -> ~chi_1+ ~chi_20)
     7.46516203E-04    2     1000024   1000025   # BR(H+ -> ~chi_1+ ~chi_30)
