#
#                              ======================
#                              | THE SUSYHIT OUTPUT |
#                              ======================
#
#
#              ------------------------------------------------------
#              |     This is the output of the SUSY-HIT package     |
#              |  created by A.Djouadi, M.Muehlleitner and M.Spira. |
#              |  In case of problems with SUSY-HIT email to        |
#              |           margarete.muehlleitner@cern.ch           |
#              |           michael.spira@psi.ch                     |
#              |           abdelhak.djouadi@cern.ch                 |
#              ------------------------------------------------------
#
#              ------------------------------------------------------
#              |  SUSY Les Houches Accord - MSSM Spectrum + Decays  |
#              |              based on the decay programs           |
#              |                                                    |
#              |                     SDECAY 1.3b                    |
#              |                                                    |
#              |  Authors: M.Muhlleitner, A.Djouadi and Y.Mambrini  |
#              |  Ref.:    Comput.Phys.Commun.168(2005)46           |
#              |           [hep-ph/0311167]                         |
#              |                                                    |
#              |                     HDECAY 3.4                     |
#              |                                                    |
#              |  By: A.Djouadi,J.Kalinowski,M.Muhlleitner,M.Spira  |
#              |  Ref.:    Comput.Phys.Commun.108(1998)56           |
#              |           [hep-ph/9704448]                         |
#              |                                                    |
#              |                                                    |
#              |  If not stated otherwise all DRbar couplings and   |
#              |  soft SUSY breaking masses are given at the scale  |
#              |  Q=  0.50006994E+04
#              |                                                    |
#              ------------------------------------------------------
#
#
BLOCK DCINFO  # Decay Program information
     1   SDECAY/HDECAY # decay calculator
     2   1.3b  /3.4    # version number
#
BLOCK SPINFO  # Spectrum calculator information
     1    SOFTSUSY    # spectrum calculator                
     2    3.4.0       # version number                     
#
BLOCK MODSEL  # Model selection
     1     0   #  nonUniversal                                     
#
BLOCK SMINPUTS  # Standard Model inputs
         1     1.25778332E+02   # alpha_em^-1(M_Z)^MSbar
         2     1.16570000E-05   # G_F [GeV^-2]
         3     1.17200002E-01   # alpha_S(M_Z)^MSbar
         4     9.11876000E+01   # M_Z pole mass
         5     4.25000000E+00   # mb(mb)^MSbar
         6     1.72500000E+02   # mt pole mass
         7     1.77682000E+00   # mtau pole mass
#
BLOCK MINPAR  # Input parameters - minimal models
         3     1.00000000E+01   # tanb                
#
BLOCK EXTPAR  # Input parameters - non-minimal models
         0    -1.00000000E+00   # Set                 
         1     6.00000000E+01   # M_1(MX)             
         2     3.00000000E+03   # M_2(MX)             
         3     1.03377900E+03   # M_3(MX)             
        11     5.00000000E+03   # At(MX)              
        12     5.00000000E+03   # Ab(MX)              
        13     0.00000000E+00   # Atau(MX)            
        23    -1.74104000E+03   # mu(MX)              
        26     3.00000000E+03   # mA(pole)            
        31     5.00000000E+03   # meL(MX)             
        32     5.00000000E+03   # mmuL(MX)            
        33     5.00000000E+03   # mtauL(MX)           
        34     5.00000000E+03   # meR(MX)             
        35     5.00000000E+03   # mmuR(MX)            
        36     5.00000000E+03   # mtauR(MX)           
        41     5.00000000E+03   # mqL1(MX)            
        42     5.00000000E+03   # mqL2(MX)            
        43     5.00000000E+03   # mqL3(MX)            
        44     5.00000000E+03   # muR(MX)             
        45     5.00000000E+03   # mcR(MX)             
        46     5.00000000E+03   # mtR(MX)             
        47     5.00000000E+03   # mdR(MX)             
        48     5.00000000E+03   # msR(MX)             
        49     5.00000000E+03   # mbR(MX)             
#
BLOCK MASS  # Mass Spectrum
# PDG code           mass       particle
        24     8.00954424E+01   # W+
        25     1.24522829E+02   # h
        35     3.00007831E+03   # H
        36     2.99999995E+03   # A
        37     3.00087370E+03   # H+
         5     4.87878001E+00   # b-quark pole mass calculated from mb(mb)_Msbar
   1000001     5.06522673E+03   # ~d_L
   2000001     5.04743407E+03   # ~d_R
   1000002     5.06475046E+03   # ~u_L
   2000002     5.04716296E+03   # ~u_R
   1000003     5.06522673E+03   # ~s_L
   2000003     5.04743407E+03   # ~s_R
   1000004     5.06475046E+03   # ~c_L
   2000004     5.04716296E+03   # ~c_R
   1000005     5.01197284E+03   # ~b_1
   2000005     5.04658045E+03   # ~b_2
   1000006     4.90325127E+03   # ~t_1
   2000006     5.05953873E+03   # ~t_2
   1000011     5.01904135E+03   # ~e_L
   2000011     5.00590480E+03   # ~e_R
   1000012     5.01809313E+03   # ~nu_eL
   1000013     5.01904135E+03   # ~mu_L
   2000013     5.00590480E+03   # ~mu_R
   1000014     5.01809313E+03   # ~nu_muL
   1000015     5.00419042E+03   # ~tau_1
   2000015     5.01919283E+03   # ~tau_2
   1000016     5.01756002E+03   # ~nu_tauL
   1000021     1.30000077E+03   # ~g
   1000022     6.03008976E+01   # ~chi_10
   1000023     1.79939951E+03   # ~chi_20
   1000025    -1.80212133E+03   # ~chi_30
   1000035     3.07439038E+03   # ~chi_40
   1000024     1.80000063E+03   # ~chi_1+
   1000037     3.07455809E+03   # ~chi_2+
#
BLOCK NMIX  # Neutralino Mixing Matrix
  1  1     9.99691000E-01   # N_11
  1  2     1.21478144E-04   # N_12
  1  3    -2.47942079E-02   # N_13
  1  4     1.77143686E-03   # N_14
  2  1     1.62747154E-02   # N_21
  2  2     3.81687189E-02   # N_22
  2  3     7.06828523E-01   # N_23
  2  4     7.06166922E-01   # N_24
  3  1    -1.87824295E-02   # N_31
  3  2     1.24401194E-02   # N_32
  3  3    -7.06715991E-01   # N_33
  3  4     7.07138581E-01   # N_34
  4  1    -5.09380611E-04   # N_41
  4  2     9.99193864E-01   # N_42
  4  3    -1.81987666E-02   # N_43
  4  4    -3.57794334E-02   # N_44
#
BLOCK UMIX  # Chargino Mixing Matrix U
  1  1     2.57186631E-02   # U_11
  1  2     9.99669220E-01   # U_12
  2  1    -9.99669220E-01   # U_21
  2  2     2.57186631E-02   # U_22
#
BLOCK VMIX  # Chargino Mixing Matrix V
  1  1     5.05860751E-02   # V_11
  1  2    -9.98719705E-01   # V_12
  2  1    -9.98719705E-01   # V_21
  2  2    -5.05860751E-02   # V_22
#
BLOCK STOPMIX  # Stop Mixing Matrix
  1  1    -5.16445204E-01   # cos(theta_t)
  1  2     8.56320239E-01   # sin(theta_t)
  2  1    -8.56320239E-01   # -sin(theta_t)
  2  2    -5.16445204E-01   # cos(theta_t)
#
BLOCK SBOTMIX  # Sbottom Mixing Matrix
  1  1     9.92333275E-01   # cos(theta_b)
  1  2    -1.23590741E-01   # sin(theta_b)
  2  1     1.23590741E-01   # -sin(theta_b)
  2  2     9.92333275E-01   # cos(theta_b)
#
BLOCK STAUMIX  # Stau Mixing Matrix
  1  1    -1.98988843E-01   # cos(theta_tau)
  1  2     9.80001755E-01   # sin(theta_tau)
  2  1    -9.80001755E-01   # -sin(theta_tau)
  2  2    -1.98988843E-01   # cos(theta_tau)
#
BLOCK ALPHA  # Higgs mixing
          -1.05430583E-01   # Mixing angle in the neutral Higgs boson sector
#
BLOCK HMIX Q=  5.00069939E+03  # DRbar Higgs Parameters
         1    -1.77242471E+03   # mu(Q)MSSM           
         2     9.47310422E+00   # tan                 
         3     2.42055401E+02   # higgs               
         4     8.34565206E+06   # mA^2(Q)MSSM         
#
BLOCK GAUGE Q=  5.00069939E+03  # The gauge couplings
     1     3.70672682E-01   # gprime(Q) DRbar
     2     6.31918967E-01   # g(Q) DRbar
     3     1.00479005E+00   # g3(Q) DRbar
#
BLOCK AU Q=  5.00069939E+03  # The trilinear couplings
  1  1     5.00000001E+03   # A_u(Q) DRbar
  2  2     5.00000001E+03   # A_c(Q) DRbar
  3  3     5.00000001E+03   # A_t(Q) DRbar
#
BLOCK AD Q=  5.00069939E+03  # The trilinear couplings
  1  1     5.00000000E+03   # A_d(Q) DRbar
  2  2     5.00000000E+03   # A_s(Q) DRbar
  3  3     5.00000001E+03   # A_b(Q) DRbar
#
BLOCK AE Q=  5.00069939E+03  # The trilinear couplings
  1  1     0.00000000E+00   # A_e(Q) DRbar
  2  2     6.67520521E-08   # A_mu(Q) DRbar
  3  3     6.59696240E-08   # A_tau(Q) DRbar
#
BLOCK Yu Q=  5.00069939E+03  # The Yukawa couplings
  1  1     0.00000000E+00   # y_u(Q) DRbar
  2  2     0.00000000E+00   # y_c(Q) DRbar
  3  3     8.16050834E-01   # y_t(Q) DRbar
#
BLOCK Yd Q=  5.00069939E+03  # The Yukawa couplings
  1  1     0.00000000E+00   # y_d(Q) DRbar
  2  2     0.00000000E+00   # y_s(Q) DRbar
  3  3     1.30583306E-01   # y_b(Q) DRbar
#
BLOCK Ye Q=  5.00069939E+03  # The Yukawa couplings
  1  1     0.00000000E+00   # y_e(Q) DRbar
  2  2     0.00000000E+00   # y_mu(Q) DRbar
  3  3     9.65306540E-02   # y_tau(Q) DRbar
#
BLOCK MSOFT Q=  5.00069939E+03  # The soft SUSY breaking masses at the scale Q
         1     6.00000000E+01   # M_1(Q)              
         2     3.00000000E+03   # M_2(Q)              
         3     1.03377900E+03   # M_3(Q)              
        21     5.51188171E+06   # mH1^2(Q)            
        22    -2.60666227E+06   # mH2^2(Q)            
        31     5.00000000E+03   # meL(Q)              
        32     5.00000000E+03   # mmuL(Q)             
        33     5.00000000E+03   # mtauL(Q)            
        34     5.00000000E+03   # meR(Q)              
        35     5.00000000E+03   # mmuR(Q)             
        36     5.00000000E+03   # mtauR(Q)            
        41     5.00000000E+03   # mqL1(Q)             
        42     5.00000000E+03   # mqL2(Q)             
        43     5.00000000E+03   # mqL3(Q)             
        44     5.00000000E+03   # muR(Q)              
        45     5.00000000E+03   # mcR(Q)              
        46     5.00000000E+03   # mtR(Q)              
        47     5.00000000E+03   # mdR(Q)              
        48     5.00000000E+03   # msR(Q)              
        49     5.00000000E+03   # mbR(Q)              
#
#
#
#                             =================
#                             |The decay table|
#                             =================
#
# - The QCD corrections to the decays gluino -> squark  + quark
#                                     squark -> gaugino + quark_prime
#                                     squark -> squark_prime + Higgs
#                                     squark -> gluino  + quark
#   are included.
#
# - The multi-body decays for the inos, stops and sbottoms are included.
#
# - The loop induced decays for the gluino, neutralinos and stops
#   are included.
#
# - The SUSY decays of the top quark are included.
#
#
#         PDG            Width
DECAY         6     1.39933901E+00   # top decays
#          BR         NDA      ID1       ID2
     1.00000000E+00    2           5        24   # BR(t ->  b    W+)
#
#         PDG            Width
DECAY   1000021     3.27463128E-05   # gluino decays
#          BR         NDA      ID1       ID2
     1.37038528E-05    2     1000022        21   # BR(~g -> ~chi_10 g)
#           BR         NDA      ID1       ID2       ID3
     7.94641640E-02    3     1000022         1        -1   # BR(~g -> ~chi_10 d  db)
     2.70875638E-01    3     1000022         2        -2   # BR(~g -> ~chi_10 u  ub)
     7.94641640E-02    3     1000022         3        -3   # BR(~g -> ~chi_10 s  sb)
     2.70875638E-01    3     1000022         4        -4   # BR(~g -> ~chi_10 c  cb)
     8.03749152E-02    3     1000022         5        -5   # BR(~g -> ~chi_10 b  bb)
     2.18931778E-01    3     1000022         6        -6   # BR(~g -> ~chi_10 t  tb)
#
#         PDG            Width
DECAY   1000006     3.76967534E+02   # stop1 decays
#          BR         NDA      ID1       ID2
     2.31595279E-02    2     1000022         6   # BR(~t_1 -> ~chi_10 t )
     6.51164329E-02    2     1000023         6   # BR(~t_1 -> ~chi_20 t )
     6.24682050E-02    2     1000025         6   # BR(~t_1 -> ~chi_30 t )
     6.02812245E-03    2     1000035         6   # BR(~t_1 -> ~chi_40 t )
     9.24187525E-02    2     1000024         5   # BR(~t_1 -> ~chi_1+ b )
     1.19673441E-02    2     1000037         5   # BR(~t_1 -> ~chi_2+ b )
     7.38841615E-01    2     1000021         6   # BR(~t_1 -> ~g      t )
#
#         PDG            Width
DECAY   2000006     3.86235114E+02   # stop2 decays
#          BR         NDA      ID1       ID2
     9.42983893E-03    2     1000022         6   # BR(~t_2 -> ~chi_10 t )
     6.64348348E-02    2     1000023         6   # BR(~t_2 -> ~chi_20 t )
     6.92499950E-02    2     1000025         6   # BR(~t_2 -> ~chi_30 t )
     1.38036157E-02    2     1000035         6   # BR(~t_2 -> ~chi_40 t )
     4.22036991E-02    2     1000024         5   # BR(~t_2 -> ~chi_1+ b )
     2.73474358E-02    2     1000037         5   # BR(~t_2 -> ~chi_2+ b )
     7.68070029E-01    2     1000021         6   # BR(~t_2 -> ~g      t )
     7.42168045E-04    2     1000006        25   # BR(~t_2 -> ~t_1    h )
     2.71838362E-03    2     1000006        23   # BR(~t_2 -> ~t_1    Z )
#
#         PDG            Width
DECAY   1000005     3.65108326E+02   # sbottom1 decays
#          BR         NDA      ID1       ID2
     2.16929118E-03    2     1000022         5   # BR(~b_1 -> ~chi_10 b )
     1.89081090E-03    2     1000023         5   # BR(~b_1 -> ~chi_20 b )
     1.74291294E-03    2     1000025         5   # BR(~b_1 -> ~chi_30 b )
     2.02833238E-02    2     1000035         5   # BR(~b_1 -> ~chi_40 b )
     1.36654773E-01    2    -1000024         6   # BR(~b_1 -> ~chi_1- t )
     4.09173160E-02    2    -1000037         6   # BR(~b_1 -> ~chi_2- t )
     7.94829447E-01    2     1000021         5   # BR(~b_1 -> ~g      b )
     1.51212519E-03    2     1000006       -24   # BR(~b_1 -> ~t_1    W-)
#
#         PDG            Width
DECAY   2000005     2.99253150E+02   # sbottom2 decays
#          BR         NDA      ID1       ID2
     9.76283004E-03    2     1000022         5   # BR(~b_2 -> ~chi_10 b )
     2.12950866E-03    2     1000023         5   # BR(~b_2 -> ~chi_20 b )
     2.25928312E-03    2     1000025         5   # BR(~b_2 -> ~chi_30 b )
     4.19073183E-04    2     1000035         5   # BR(~b_2 -> ~chi_40 b )
     6.91353037E-03    2    -1000024         6   # BR(~b_2 -> ~chi_1- t )
     8.44690467E-04    2    -1000037         6   # BR(~b_2 -> ~chi_2- t )
     9.77551370E-01    2     1000021         5   # BR(~b_2 -> ~g      b )
     1.19714125E-04    2     1000006       -24   # BR(~b_2 -> ~t_1    W-)
#
#         PDG            Width
DECAY   1000002     3.18003516E+02   # sup_L decays
#          BR         NDA      ID1       ID2
     2.34964067E-03    2     1000022         2   # BR(~u_L -> ~chi_10 u)
     8.02326556E-05    2     1000023         2   # BR(~u_L -> ~chi_20 u)
     3.60385076E-06    2     1000025         2   # BR(~u_L -> ~chi_30 u)
     2.45099624E-02    2     1000035         2   # BR(~u_L -> ~chi_40 u)
     2.40098728E-04    2     1000024         1   # BR(~u_L -> ~chi_1+ d)
     4.89769753E-02    2     1000037         1   # BR(~u_L -> ~chi_2+ d)
     9.23839486E-01    2     1000021         2   # BR(~u_L -> ~g      u)
#
#         PDG            Width
DECAY   2000002     3.04379988E+02   # sup_R decays
#          BR         NDA      ID1       ID2
     3.90912416E-02    2     1000022         2   # BR(~u_R -> ~chi_10 u)
     7.89898240E-06    2     1000023         2   # BR(~u_R -> ~chi_20 u)
     1.05115008E-05    2     1000025         2   # BR(~u_R -> ~chi_30 u)
     4.02468956E-09    2     1000035         2   # BR(~u_R -> ~chi_40 u)
     9.60890344E-01    2     1000021         2   # BR(~u_R -> ~g      u)
#
#         PDG            Width
DECAY   1000001     3.18016059E+02   # sdown_L decays
#          BR         NDA      ID1       ID2
     2.34393598E-03    2     1000022         1   # BR(~d_L -> ~chi_10 d)
     5.74422866E-05    2     1000023         1   # BR(~d_L -> ~chi_20 d)
     1.21725183E-05    2     1000025         1   # BR(~d_L -> ~chi_30 d)
     2.45264229E-02    2     1000035         1   # BR(~d_L -> ~chi_40 d)
     6.20686133E-05    2    -1000024         2   # BR(~d_L -> ~chi_1- u)
     4.90835301E-02    2    -1000037         2   # BR(~d_L -> ~chi_2- u)
     9.23914428E-01    2     1000021         1   # BR(~d_L -> ~g      d)
#
#         PDG            Width
DECAY   2000001     2.95472176E+02   # sdown_R decays
#          BR         NDA      ID1       ID2
     1.00679818E-02    2     1000022         1   # BR(~d_R -> ~chi_10 d)
     2.03445273E-06    2     1000023         1   # BR(~d_R -> ~chi_20 d)
     2.70733022E-06    2     1000025         1   # BR(~d_R -> ~chi_30 d)
     1.03669242E-09    2     1000035         1   # BR(~d_R -> ~chi_40 d)
     9.89927275E-01    2     1000021         1   # BR(~d_R -> ~g      d)
#
#         PDG            Width
DECAY   1000004     3.18003516E+02   # scharm_L decays
#          BR         NDA      ID1       ID2
     2.34964067E-03    2     1000022         4   # BR(~c_L -> ~chi_10 c)
     8.02326556E-05    2     1000023         4   # BR(~c_L -> ~chi_20 c)
     3.60385076E-06    2     1000025         4   # BR(~c_L -> ~chi_30 c)
     2.45099624E-02    2     1000035         4   # BR(~c_L -> ~chi_40 c)
     2.40098728E-04    2     1000024         3   # BR(~c_L -> ~chi_1+ s)
     4.89769753E-02    2     1000037         3   # BR(~c_L -> ~chi_2+ s)
     9.23839486E-01    2     1000021         4   # BR(~c_L -> ~g      c)
#
#         PDG            Width
DECAY   2000004     3.04379988E+02   # scharm_R decays
#          BR         NDA      ID1       ID2
     3.90912416E-02    2     1000022         4   # BR(~c_R -> ~chi_10 c)
     7.89898240E-06    2     1000023         4   # BR(~c_R -> ~chi_20 c)
     1.05115008E-05    2     1000025         4   # BR(~c_R -> ~chi_30 c)
     4.02468956E-09    2     1000035         4   # BR(~c_R -> ~chi_40 c)
     9.60890344E-01    2     1000021         4   # BR(~c_R -> ~g      c)
#
#         PDG            Width
DECAY   1000003     3.18016059E+02   # sstrange_L decays
#          BR         NDA      ID1       ID2
     2.34393598E-03    2     1000022         3   # BR(~s_L -> ~chi_10 s)
     5.74422866E-05    2     1000023         3   # BR(~s_L -> ~chi_20 s)
     1.21725183E-05    2     1000025         3   # BR(~s_L -> ~chi_30 s)
     2.45264229E-02    2     1000035         3   # BR(~s_L -> ~chi_40 s)
     6.20686133E-05    2    -1000024         4   # BR(~s_L -> ~chi_1- c)
     4.90835301E-02    2    -1000037         4   # BR(~s_L -> ~chi_2- c)
     9.23914428E-01    2     1000021         3   # BR(~s_L -> ~g      s)
#
#         PDG            Width
DECAY   2000003     2.95472176E+02   # sstrange_R decays
#          BR         NDA      ID1       ID2
     1.00679818E-02    2     1000022         3   # BR(~s_R -> ~chi_10 s)
     2.03445273E-06    2     1000023         3   # BR(~s_R -> ~chi_20 s)
     2.70733022E-06    2     1000025         3   # BR(~s_R -> ~chi_30 s)
     1.03669242E-09    2     1000035         3   # BR(~s_R -> ~chi_40 s)
     9.89927275E-01    2     1000021         3   # BR(~s_R -> ~g      s)
#
#         PDG            Width
DECAY   1000011     3.02282546E+01   # selectron_L decays
#          BR         NDA      ID1       ID2
     2.26816742E-01    2     1000022        11   # BR(~e_L -> ~chi_10 e-)
     1.14037064E-03    2     1000023        11   # BR(~e_L -> ~chi_20 e-)
     1.01287277E-06    2     1000025        11   # BR(~e_L -> ~chi_30 e-)
     2.56883389E-01    2     1000035        11   # BR(~e_L -> ~chi_40 e-)
     6.62481846E-04    2    -1000024        12   # BR(~e_L -> ~chi_1- nu_e)
     5.14496004E-01    2    -1000037        12   # BR(~e_L -> ~chi_2- nu_e)
#
#         PDG            Width
DECAY   2000011     2.73547584E+01   # selectron_R decays
#          BR         NDA      ID1       ID2
     9.99531586E-01    2     1000022        11   # BR(~e_R -> ~chi_10 e-)
     2.00930788E-04    2     1000023        11   # BR(~e_R -> ~chi_20 e-)
     2.67382472E-04    2     1000025        11   # BR(~e_R -> ~chi_30 e-)
     1.00692203E-07    2     1000035        11   # BR(~e_R -> ~chi_40 e-)
#
#         PDG            Width
DECAY   1000013     3.02282546E+01   # smuon_L decays
#          BR         NDA      ID1       ID2
     2.26816742E-01    2     1000022        13   # BR(~mu_L -> ~chi_10 mu-)
     1.14037064E-03    2     1000023        13   # BR(~mu_L -> ~chi_20 mu-)
     1.01287277E-06    2     1000025        13   # BR(~mu_L -> ~chi_30 mu-)
     2.56883389E-01    2     1000035        13   # BR(~mu_L -> ~chi_40 mu-)
     6.62481846E-04    2    -1000024        14   # BR(~mu_L -> ~chi_1- nu_mu)
     5.14496004E-01    2    -1000037        14   # BR(~mu_L -> ~chi_2- nu_mu)
#
#         PDG            Width
DECAY   2000013     2.73547584E+01   # smuon_R decays
#          BR         NDA      ID1       ID2
     9.99531586E-01    2     1000022        13   # BR(~mu_R -> ~chi_10 mu-)
     2.00930788E-04    2     1000023        13   # BR(~mu_R -> ~chi_20 mu-)
     2.67382472E-04    2     1000025        13   # BR(~mu_R -> ~chi_30 mu-)
     1.00692203E-07    2     1000035        13   # BR(~mu_R -> ~chi_40 mu-)
#
#         PDG            Width
DECAY   1000015     2.88672164E+01   # stau_1 decays
#          BR         NDA      ID1       ID2
     9.19584300E-01    2     1000022        15   # BR(~tau_1 -> ~chi_10  tau-)
     1.32921258E-02    2     1000023        15   # BR(~tau_1 -> ~chi_20  tau-)
     1.16714129E-02    2     1000025        15   # BR(~tau_1 -> ~chi_30  tau-)
     1.01392579E-02    2     1000035        15   # BR(~tau_1 -> ~chi_40  tau-)
     2.50044178E-02    2    -1000024        16   # BR(~tau_1 -> ~chi_1-  nu_tau)
     2.03084858E-02    2    -1000037        16   # BR(~tau_1 -> ~chi_2-  nu_tau)
#
#         PDG            Width
DECAY   2000015     3.08145398E+01   # stau_2 decays
#          BR         NDA      ID1       ID2
     2.48152783E-01    2     1000022        15   # BR(~tau_2 -> ~chi_10  tau-)
     1.17018017E-02    2     1000023        15   # BR(~tau_2 -> ~chi_20  tau-)
     1.21408086E-02    2     1000025        15   # BR(~tau_2 -> ~chi_30  tau-)
     2.42432031E-01    2     1000035        15   # BR(~tau_2 -> ~chi_40  tau-)
     2.63921253E-05    2    -1000024        16   # BR(~tau_2 -> ~chi_1-  nu_tau)
     4.85546183E-01    2    -1000037        16   # BR(~tau_2 -> ~chi_2-  nu_tau)
#
#         PDG            Width
DECAY   1000012     3.02297126E+01   # snu_eL decays
#          BR         NDA      ID1       ID2
     2.26575102E-01    2     1000022        12   # BR(~nu_eL -> ~chi_10 nu_e)
     4.10193760E-04    2     1000023        12   # BR(~nu_eL -> ~chi_20 nu_e)
     2.75270190E-04    2     1000025        12   # BR(~nu_eL -> ~chi_30 nu_e)
     2.57013137E-01    2     1000035        12   # BR(~nu_eL -> ~chi_40 nu_e)
     2.56205064E-03    2     1000024        11   # BR(~nu_eL -> ~chi_1+ e-)
     5.13164247E-01    2     1000037        11   # BR(~nu_eL -> ~chi_2+ e-)
#
#         PDG            Width
DECAY   1000014     3.02297126E+01   # snu_muL decays
#          BR         NDA      ID1       ID2
     2.26575102E-01    2     1000022        14   # BR(~nu_muL -> ~chi_10 nu_mu)
     4.10193760E-04    2     1000023        14   # BR(~nu_muL -> ~chi_20 nu_mu)
     2.75270190E-04    2     1000025        14   # BR(~nu_muL -> ~chi_30 nu_mu)
     2.57013137E-01    2     1000035        14   # BR(~nu_muL -> ~chi_40 nu_mu)
     2.56205064E-03    2     1000024        13   # BR(~nu_muL -> ~chi_1+ mu-)
     5.13164247E-01    2     1000037        13   # BR(~nu_muL -> ~chi_2+ mu-)
#
#         PDG            Width
DECAY   1000016     3.09265082E+01   # snu_tauL decays
#          BR         NDA      ID1       ID2
     2.21446667E-01    2     1000022        16   # BR(~nu_tauL -> ~chi_10 nu_tau)
     4.00884074E-04    2     1000023        16   # BR(~nu_tauL -> ~chi_20 nu_tau)
     2.69022648E-04    2     1000025        16   # BR(~nu_tauL -> ~chi_30 nu_tau)
     2.51131614E-01    2     1000035        16   # BR(~nu_tauL -> ~chi_40 nu_tau)
     2.53262108E-02    2     1000024        15   # BR(~nu_tauL -> ~chi_1+ tau-)
     5.01425602E-01    2     1000037        15   # BR(~nu_tauL -> ~chi_2+ tau-)
#
#         PDG            Width
DECAY   1000024     1.11080950E+00   # chargino1+ decays
#          BR         NDA      ID1       ID2
     1.00000000E+00    2     1000022        24   # BR(~chi_1+ -> ~chi_10  W+)
#
#         PDG            Width
DECAY   1000037     1.67721866E+01   # chargino2+ decays
#          BR         NDA      ID1       ID2
     2.52296690E-01    2     1000024        23   # BR(~chi_2+ -> ~chi_1+  Z )
     3.54648642E-04    2     1000022        24   # BR(~chi_2+ -> ~chi_10  W+)
     2.44553678E-01    2     1000023        24   # BR(~chi_2+ -> ~chi_20  W+)
     2.43258896E-01    2     1000025        24   # BR(~chi_2+ -> ~chi_30  W+)
     2.59535947E-01    2     1000024        25   # BR(~chi_2+ -> ~chi_1+  h )
     1.39795692E-07    2     1000022        37   # BR(~chi_2+ -> ~chi_10  H+)
#
#         PDG            Width
DECAY   1000022     0.00000000E+00   # neutralino1 decays
#
#         PDG            Width
DECAY   1000023     1.16902033E+00   # neutralino2 decays
#          BR         NDA      ID1       ID2
     5.62435979E-01    2     1000022        23   # BR(~chi_20 -> ~chi_10   Z )
     4.37564021E-01    2     1000022        25   # BR(~chi_20 -> ~chi_10   h )
#
#         PDG            Width
DECAY   1000025     1.18237135E+00   # neutralino3 decays
#          BR         NDA      ID1       ID2
     4.19003915E-01    2     1000022        23   # BR(~chi_30 -> ~chi_10   Z )
     5.80996085E-01    2     1000022        25   # BR(~chi_30 -> ~chi_10   h )
#
#         PDG            Width
DECAY   1000035     1.67500528E+01   # neutralino4 decays
#          BR         NDA      ID1       ID2
     1.47332213E-04    2     1000022        23   # BR(~chi_40 -> ~chi_10   Z )
     2.45186173E-02    2     1000023        23   # BR(~chi_40 -> ~chi_20   Z )
     2.27751418E-01    2     1000025        23   # BR(~chi_40 -> ~chi_30   Z )
     2.43961590E-01    2     1000024       -24   # BR(~chi_40 -> ~chi_1+   W-)
     2.43961590E-01    2    -1000024        24   # BR(~chi_40 -> ~chi_1-   W+)
     2.19428803E-04    2     1000022        25   # BR(~chi_40 -> ~chi_10   h )
     1.20434055E-07    2     1000022        35   # BR(~chi_40 -> ~chi_10   H )
     2.46729492E-08    2     1000022        36   # BR(~chi_40 -> ~chi_10   A )
     2.35100803E-01    2     1000023        25   # BR(~chi_40 -> ~chi_20   h )
     2.43390756E-02    2     1000025        25   # BR(~chi_40 -> ~chi_30   h )
#
#         PDG            Width
DECAY        25     4.02194793E-03   # h decays
#          BR         NDA      ID1       ID2
     6.11869918E-01    2           5        -5   # BR(h -> b       bb     )
     6.43504222E-02    2         -15        15   # BR(h -> tau+    tau-   )
     2.27825006E-04    2         -13        13   # BR(h -> mu+     mu-    )
     4.83165650E-04    2           3        -3   # BR(h -> s       sb     )
     2.09393704E-02    2           4        -4   # BR(h -> c       cb     )
     6.74425838E-02    2          21        21   # BR(h -> g       g      )
     2.31332592E-03    2          22        22   # BR(h -> gam     gam    )
     1.47034424E-03    2          22        23   # BR(h -> Z       gam    )
     2.06389055E-01    2          24       -24   # BR(h -> W+      W-     )
     2.44912637E-02    2          23        23   # BR(h -> Z       Z      )
     2.27265919E-05    2     1000022   1000022   # BR(h -> ~chi_10 ~chi_10)
#
#         PDG            Width
DECAY        35     6.70793079E+00   # H decays
#          BR         NDA      ID1       ID2
     4.88421815E-01    2           5        -5   # BR(H -> b       bb     )
     8.31099165E-02    2         -15        15   # BR(H -> tau+    tau-   )
     2.93883266E-04    2         -13        13   # BR(H -> mu+     mu-    )
     3.60255975E-04    2           3        -3   # BR(H -> s       sb     )
     2.01210278E-06    2           4        -4   # BR(H -> c       cb     )
     2.01024999E-01    2           6        -6   # BR(H -> t       tb     )
     6.66751423E-05    2          21        21   # BR(H -> g       g      )
     3.86952045E-07    2          22        22   # BR(H -> gam     gam    )
     1.18660438E-07    2          23        22   # BR(H -> Z       gam    )
     8.75494331E-05    2          24       -24   # BR(H -> W+      W-     )
     4.37193098E-05    2          23        23   # BR(H -> Z       Z      )
     3.36711309E-04    2          25        25   # BR(H -> h       h      )
    -4.88495042E-23    2          36        36   # BR(H -> A       A      )
     6.34410418E-19    2          23        36   # BR(H -> Z       A      )
     6.65154335E-04    2     1000022   1000022   # BR(H -> ~chi_10 ~chi_10)
     1.32863185E-01    2     1000022   1000023   # BR(H -> ~chi_10 ~chi_20)
     9.27236179E-02    2     1000022   1000025   # BR(H -> ~chi_10 ~chi_30)
#
#         PDG            Width
DECAY        36     6.71104720E+00   # A decays
#          BR         NDA      ID1       ID2
     4.88358671E-01    2           5        -5   # BR(A -> b       bb     )
     8.30738012E-02    2         -15        15   # BR(A -> tau+    tau-   )
     2.93755149E-04    2         -13        13   # BR(A -> mu+     mu-    )
     3.60361841E-04    2           3        -3   # BR(A -> s       sb     )
     2.01968763E-06    2           4        -4   # BR(A -> c       cb     )
     2.01671458E-01    2           6        -6   # BR(A -> t       tb     )
     1.99629765E-04    2          21        21   # BR(A -> g       g      )
     3.72713503E-07    2          22        22   # BR(A -> gam     gam    )
     2.41762611E-07    2          23        22   # BR(A -> Z       gam    )
     8.71801677E-05    2          23        25   # BR(A -> Z       h      )
     6.86362714E-04    2     1000022   1000022   # BR(A -> ~chi_10 ~chi_10)
     9.38025524E-02    2     1000022   1000023   # BR(A -> ~chi_10 ~chi_20)
     1.31463594E-01    2     1000022   1000025   # BR(A -> ~chi_10 ~chi_30)
#
#         PDG            Width
DECAY        37     6.70005991E+00   # H+ decays
#          BR         NDA      ID1       ID2
     7.84593302E-04    2           4        -5   # BR(H+ -> c       bb     )
     8.32342672E-02    2         -15        16   # BR(H+ -> tau+    nu_tau )
     2.94322569E-04    2         -13        14   # BR(H+ -> mu+     nu_mu  )
     5.02137147E-06    2           2        -5   # BR(H+ -> u       bb     )
     1.72702349E-05    2           2        -3   # BR(H+ -> u       sb     )
     3.57146845E-04    2           4        -3   # BR(H+ -> c       sb     )
     6.88140306E-01    2           6        -5   # BR(H+ -> t       bb     )
     8.74555281E-05    2          24        25   # BR(H+ -> W+      h      )
     9.98971653E-14    2          24        36   # BR(H+ -> W+      A      )
     2.27079617E-01    2     1000024   1000022   # BR(H+ -> ~chi_1+ ~chi_10)
