#
#                              ======================
#                              | THE SUSYHIT OUTPUT |
#                              ======================
#
#
#              ------------------------------------------------------
#              |     This is the output of the SUSY-HIT package     |
#              |  created by A.Djouadi, M.Muehlleitner and M.Spira. |
#              |  In case of problems with SUSY-HIT email to        |
#              |           margarete.muehlleitner@cern.ch           |
#              |           michael.spira@psi.ch                     |
#              |           abdelhak.djouadi@cern.ch                 |
#              ------------------------------------------------------
#
#              ------------------------------------------------------
#              |  SUSY Les Houches Accord - MSSM Spectrum + Decays  |
#              |              based on the decay programs           |
#              |                                                    |
#              |                     SDECAY 1.3b                    |
#              |                                                    |
#              |  Authors: M.Muhlleitner, A.Djouadi and Y.Mambrini  |
#              |  Ref.:    Comput.Phys.Commun.168(2005)46           |
#              |           [hep-ph/0311167]                         |
#              |                                                    |
#              |                     HDECAY 3.4                     |
#              |                                                    |
#              |  By: A.Djouadi,J.Kalinowski,M.Muhlleitner,M.Spira  |
#              |  Ref.:    Comput.Phys.Commun.108(1998)56           |
#              |           [hep-ph/9704448]                         |
#              |                                                    |
#              |                                                    |
#              |  If not stated otherwise all DRbar couplings and   |
#              |  soft SUSY breaking masses are given at the scale  |
#              |  Q=  0.50007031E+04
#              |                                                    |
#              ------------------------------------------------------
#
#
BLOCK DCINFO  # Decay Program information
     1   SDECAY/HDECAY # decay calculator
     2   1.3b  /3.4    # version number
#
BLOCK SPINFO  # Spectrum calculator information
     1    SOFTSUSY    # spectrum calculator                
     2    3.4.0       # version number                     
#
BLOCK MODSEL  # Model selection
     1     0   #  nonUniversal                                     
#
BLOCK SMINPUTS  # Standard Model inputs
         1     1.25778332E+02   # alpha_em^-1(M_Z)^MSbar
         2     1.16570000E-05   # G_F [GeV^-2]
         3     1.17200002E-01   # alpha_S(M_Z)^MSbar
         4     9.11876000E+01   # M_Z pole mass
         5     4.25000000E+00   # mb(mb)^MSbar
         6     1.72500000E+02   # mt pole mass
         7     1.77682000E+00   # mtau pole mass
#
BLOCK MINPAR  # Input parameters - minimal models
         3     1.00000000E+01   # tanb                
#
BLOCK EXTPAR  # Input parameters - non-minimal models
         0    -1.00000000E+00   # Set                 
         1     6.00000000E+01   # M_1(MX)             
         2     3.00000000E+03   # M_2(MX)             
         3     1.30154700E+03   # M_3(MX)             
        11     5.00000000E+03   # At(MX)              
        12     5.00000000E+03   # Ab(MX)              
        13     0.00000000E+00   # Atau(MX)            
        23    -1.74078400E+03   # mu(MX)              
        26     3.00000000E+03   # mA(pole)            
        31     5.00000000E+03   # meL(MX)             
        32     5.00000000E+03   # mmuL(MX)            
        33     5.00000000E+03   # mtauL(MX)           
        34     5.00000000E+03   # meR(MX)             
        35     5.00000000E+03   # mmuR(MX)            
        36     5.00000000E+03   # mtauR(MX)           
        41     5.00000000E+03   # mqL1(MX)            
        42     5.00000000E+03   # mqL2(MX)            
        43     5.00000000E+03   # mqL3(MX)            
        44     5.00000000E+03   # muR(MX)             
        45     5.00000000E+03   # mcR(MX)             
        46     5.00000000E+03   # mtR(MX)             
        47     5.00000000E+03   # mdR(MX)             
        48     5.00000000E+03   # msR(MX)             
        49     5.00000000E+03   # mbR(MX)             
#
BLOCK MASS  # Mass Spectrum
# PDG code           mass       particle
        24     8.00962956E+01   # W+
        25     1.24662385E+02   # h
        35     3.00007844E+03   # H
        36     2.99999995E+03   # A
        37     3.00087318E+03   # H+
         5     4.87878001E+00   # b-quark pole mass calculated from mb(mb)_Msbar
   1000001     5.06748657E+03   # ~d_L
   2000001     5.04970290E+03   # ~d_R
   1000002     5.06701125E+03   # ~u_L
   2000002     5.04943187E+03   # ~u_R
   1000003     5.06748657E+03   # ~s_L
   2000003     5.04970290E+03   # ~s_R
   1000004     5.06701125E+03   # ~c_L
   2000004     5.04943187E+03   # ~c_R
   1000005     5.01403639E+03   # ~b_1
   2000005     5.04882261E+03   # ~b_2
   1000006     4.90546594E+03   # ~t_1
   2000006     5.06129736E+03   # ~t_2
   1000011     5.01904045E+03   # ~e_L
   2000011     5.00590490E+03   # ~e_R
   1000012     5.01809243E+03   # ~nu_eL
   1000013     5.01904045E+03   # ~mu_L
   2000013     5.00590490E+03   # ~mu_R
   1000014     5.01809243E+03   # ~nu_muL
   1000015     5.00419068E+03   # ~tau_1
   2000015     5.01919184E+03   # ~tau_2
   1000016     5.01755935E+03   # ~nu_tauL
   1000021     1.60000047E+03   # ~g
   1000022     6.03010377E+01   # ~chi_10
   1000023     1.79940027E+03   # ~chi_20
   1000025    -1.80212078E+03   # ~chi_30
   1000035     3.07438940E+03   # ~chi_40
   1000024     1.80000084E+03   # ~chi_1+
   1000037     3.07455708E+03   # ~chi_2+
#
BLOCK NMIX  # Neutralino Mixing Matrix
  1  1     9.99691041E-01   # N_11
  1  2     1.21489682E-04   # N_12
  1  3    -2.47925293E-02   # N_13
  1  4     1.77170850E-03   # N_14
  2  1     1.62733351E-02   # N_21
  2  2     3.81650747E-02   # N_22
  2  3     7.06828500E-01   # N_23
  2  4     7.06167174E-01   # N_24
  3  1    -1.87814375E-02   # N_31
  3  2     1.24392930E-02   # N_32
  3  3    -7.06716124E-01   # N_33
  3  4     7.07138489E-01   # N_34
  4  1    -5.09307888E-04   # N_41
  4  2     9.99194013E-01   # N_42
  4  3    -1.81967679E-02   # N_43
  4  4    -3.57762762E-02   # N_44
#
BLOCK UMIX  # Chargino Mixing Matrix U
  1  1     2.57158025E-02   # U_11
  1  2     9.99669294E-01   # U_12
  2  1    -9.99669294E-01   # U_21
  2  2     2.57158025E-02   # U_22
#
BLOCK VMIX  # Chargino Mixing Matrix V
  1  1     5.05816235E-02   # V_11
  1  2    -9.98719930E-01   # V_12
  2  1    -9.98719930E-01   # V_21
  2  2    -5.05816235E-02   # V_22
#
BLOCK STOPMIX  # Stop Mixing Matrix
  1  1    -5.15476596E-01   # cos(theta_t)
  1  2     8.56903658E-01   # sin(theta_t)
  2  1    -8.56903658E-01   # -sin(theta_t)
  2  2    -5.15476596E-01   # cos(theta_t)
#
BLOCK SBOTMIX  # Sbottom Mixing Matrix
  1  1     9.92368791E-01   # cos(theta_b)
  1  2    -1.23305242E-01   # sin(theta_b)
  2  1     1.23305242E-01   # -sin(theta_b)
  2  2     9.92368791E-01   # cos(theta_b)
#
BLOCK STAUMIX  # Stau Mixing Matrix
  1  1    -1.98980195E-01   # cos(theta_tau)
  1  2     9.80003511E-01   # sin(theta_tau)
  2  1    -9.80003511E-01   # -sin(theta_tau)
  2  2    -1.98980195E-01   # cos(theta_tau)
#
BLOCK ALPHA  # Higgs mixing
          -1.05445806E-01   # Mixing angle in the neutral Higgs boson sector
#
BLOCK HMIX Q=  5.00070308E+03  # DRbar Higgs Parameters
         1    -1.77245230E+03   # mu(Q)MSSM           
         2     9.47176998E+00   # tan                 
         3     2.42033683E+02   # higgs               
         4     8.34899342E+06   # mA^2(Q)MSSM         
#
BLOCK GAUGE Q=  5.00070308E+03  # The gauge couplings
     1     3.70667057E-01   # gprime(Q) DRbar
     2     6.31905683E-01   # g(Q) DRbar
     3     1.00175813E+00   # g3(Q) DRbar
#
BLOCK AU Q=  5.00070308E+03  # The trilinear couplings
  1  1     5.00000001E+03   # A_u(Q) DRbar
  2  2     5.00000001E+03   # A_c(Q) DRbar
  3  3     5.00000001E+03   # A_t(Q) DRbar
#
BLOCK AD Q=  5.00070308E+03  # The trilinear couplings
  1  1     5.00000000E+03   # A_d(Q) DRbar
  2  2     5.00000000E+03   # A_s(Q) DRbar
  3  3     5.00000001E+03   # A_b(Q) DRbar
#
BLOCK AE Q=  5.00070308E+03  # The trilinear couplings
  1  1     0.00000000E+00   # A_e(Q) DRbar
  2  2     1.14928171E-07   # A_mu(Q) DRbar
  3  3     1.14330018E-07   # A_tau(Q) DRbar
#
BLOCK Yu Q=  5.00070308E+03  # The Yukawa couplings
  1  1     0.00000000E+00   # y_u(Q) DRbar
  2  2     0.00000000E+00   # y_c(Q) DRbar
  3  3     8.17797421E-01   # y_t(Q) DRbar
#
BLOCK Yd Q=  5.00070308E+03  # The Yukawa couplings
  1  1     0.00000000E+00   # y_d(Q) DRbar
  2  2     0.00000000E+00   # y_s(Q) DRbar
  3  3     1.31113780E-01   # y_b(Q) DRbar
#
BLOCK Ye Q=  5.00070308E+03  # The Yukawa couplings
  1  1     0.00000000E+00   # y_e(Q) DRbar
  2  2     0.00000000E+00   # y_mu(Q) DRbar
  3  3     9.65260157E-02   # y_tau(Q) DRbar
#
BLOCK MSOFT Q=  5.00070308E+03  # The soft SUSY breaking masses at the scale Q
         1     6.00000000E+01   # M_1(Q)              
         2     3.00000000E+03   # M_2(Q)              
         3     1.30154700E+03   # M_3(Q)              
        21     5.51200619E+06   # mH1^2(Q)            
        22    -2.60522540E+06   # mH2^2(Q)            
        31     5.00000000E+03   # meL(Q)              
        32     5.00000000E+03   # mmuL(Q)             
        33     5.00000000E+03   # mtauL(Q)            
        34     5.00000000E+03   # meR(Q)              
        35     5.00000000E+03   # mmuR(Q)             
        36     5.00000000E+03   # mtauR(Q)            
        41     5.00000000E+03   # mqL1(Q)             
        42     5.00000000E+03   # mqL2(Q)             
        43     5.00000000E+03   # mqL3(Q)             
        44     5.00000000E+03   # muR(Q)              
        45     5.00000000E+03   # mcR(Q)              
        46     5.00000000E+03   # mtR(Q)              
        47     5.00000000E+03   # mdR(Q)              
        48     5.00000000E+03   # msR(Q)              
        49     5.00000000E+03   # mbR(Q)              
#
#
#
#                             =================
#                             |The decay table|
#                             =================
#
# - The QCD corrections to the decays gluino -> squark  + quark
#                                     squark -> gaugino + quark_prime
#                                     squark -> squark_prime + Higgs
#                                     squark -> gluino  + quark
#   are included.
#
# - The multi-body decays for the inos, stops and sbottoms are included.
#
# - The loop induced decays for the gluino, neutralinos and stops
#   are included.
#
# - The SUSY decays of the top quark are included.
#
#
#         PDG            Width
DECAY         6     1.39924296E+00   # top decays
#          BR         NDA      ID1       ID2
     1.00000000E+00    2           5        24   # BR(t ->  b    W+)
#
#         PDG            Width
DECAY   1000021     9.58942971E-05   # gluino decays
#          BR         NDA      ID1       ID2
     1.04256736E-05    2     1000022        21   # BR(~g -> ~chi_10 g)
#           BR         NDA      ID1       ID2       ID3
     7.75450743E-02    3     1000022         1        -1   # BR(~g -> ~chi_10 d  db)
     2.64342042E-01    3     1000022         2        -2   # BR(~g -> ~chi_10 u  ub)
     7.75450743E-02    3     1000022         3        -3   # BR(~g -> ~chi_10 s  sb)
     2.64342042E-01    3     1000022         4        -4   # BR(~g -> ~chi_10 c  cb)
     7.84394767E-02    3     1000022         5        -5   # BR(~g -> ~chi_10 b  bb)
     2.37775864E-01    3     1000022         6        -6   # BR(~g -> ~chi_10 t  tb)
#
#         PDG            Width
DECAY   1000006     3.55037786E+02   # stop1 decays
#          BR         NDA      ID1       ID2
     2.46420329E-02    2     1000022         6   # BR(~t_1 -> ~chi_10 t )
     6.93600217E-02    2     1000023         6   # BR(~t_1 -> ~chi_20 t )
     6.65485988E-02    2     1000025         6   # BR(~t_1 -> ~chi_30 t )
     6.36461371E-03    2     1000035         6   # BR(~t_1 -> ~chi_40 t )
     9.87753803E-02    2     1000024         5   # BR(~t_1 -> ~chi_1+ b )
     1.26352776E-02    2     1000037         5   # BR(~t_1 -> ~chi_2+ b )
     7.21674075E-01    2     1000021         6   # BR(~t_1 -> ~g      t )
#
#         PDG            Width
DECAY   2000006     3.66265669E+02   # stop2 decays
#          BR         NDA      ID1       ID2
     9.86899240E-03    2     1000022         6   # BR(~t_2 -> ~chi_10 t )
     7.03023644E-02    2     1000023         6   # BR(~t_2 -> ~chi_20 t )
     7.32741605E-02    2     1000025         6   # BR(~t_2 -> ~chi_30 t )
     1.46311200E-02    2     1000035         6   # BR(~t_2 -> ~chi_40 t )
     4.43449918E-02    2     1000024         5   # BR(~t_2 -> ~chi_1+ b )
     2.89864790E-02    2     1000037         5   # BR(~t_2 -> ~chi_2+ b )
     7.54976188E-01    2     1000021         6   # BR(~t_2 -> ~g      t )
     7.80585648E-04    2     1000006        25   # BR(~t_2 -> ~t_1    h )
     2.83511768E-03    2     1000006        23   # BR(~t_2 -> ~t_1    Z )
#
#         PDG            Width
DECAY   1000005     3.44232596E+02   # sbottom1 decays
#          BR         NDA      ID1       ID2
     2.29830443E-03    2     1000022         5   # BR(~b_1 -> ~chi_10 b )
     2.01912492E-03    2     1000023         5   # BR(~b_1 -> ~chi_20 b )
     1.86241536E-03    2     1000025         5   # BR(~b_1 -> ~chi_30 b )
     2.15552777E-02    2     1000035         5   # BR(~b_1 -> ~chi_40 b )
     1.45460862E-01    2    -1000024         6   # BR(~b_1 -> ~chi_1- t )
     4.34839428E-02    2    -1000037         6   # BR(~b_1 -> ~chi_2- t )
     7.81726122E-01    2     1000021         5   # BR(~b_1 -> ~g      b )
     1.59395086E-03    2     1000006       -24   # BR(~b_1 -> ~t_1    W-)
#
#         PDG            Width
DECAY   2000005     2.78296671E+02   # sbottom2 decays
#          BR         NDA      ID1       ID2
     1.04933121E-02    2     1000022         5   # BR(~b_2 -> ~chi_10 b )
     2.30733771E-03    2     1000023         5   # BR(~b_2 -> ~chi_20 b )
     2.44663036E-03    2     1000025         5   # BR(~b_2 -> ~chi_30 b )
     4.47028954E-04    2     1000035         5   # BR(~b_2 -> ~chi_40 b )
     7.45018500E-03    2    -1000024         6   # BR(~b_2 -> ~chi_1- t )
     9.01051658E-04    2    -1000037         6   # BR(~b_2 -> ~chi_2- t )
     9.75825862E-01    2     1000021         5   # BR(~b_2 -> ~g      b )
     1.28591951E-04    2     1000006       -24   # BR(~b_2 -> ~t_1    W-)
#
#         PDG            Width
DECAY   1000002     2.97135776E+02   # sup_L decays
#          BR         NDA      ID1       ID2
     2.51322182E-03    2     1000022         2   # BR(~u_L -> ~chi_10 u)
     8.58921576E-05    2     1000023         2   # BR(~u_L -> ~chi_20 u)
     3.85822291E-06    2     1000025         2   # BR(~u_L -> ~chi_30 u)
     2.62799639E-02    2     1000035         2   # BR(~u_L -> ~chi_40 u)
     2.57038323E-04    2     1000024         1   # BR(~u_L -> ~chi_1+ d)
     5.25138977E-02    2     1000037         1   # BR(~u_L -> ~chi_2+ d)
     9.18346128E-01    2     1000021         2   # BR(~u_L -> ~g      u)
#
#         PDG            Width
DECAY   2000002     2.83404166E+02   # sup_R decays
#          BR         NDA      ID1       ID2
     4.19603465E-02    2     1000022         2   # BR(~u_R -> ~chi_10 u)
     8.48636368E-06    2     1000023         2   # BR(~u_R -> ~chi_20 u)
     1.12939056E-05    2     1000025         2   # BR(~u_R -> ~chi_30 u)
     4.32951333E-09    2     1000035         2   # BR(~u_R -> ~chi_40 u)
     9.58019869E-01    2     1000021         2   # BR(~u_R -> ~g      u)
#
#         PDG            Width
DECAY   1000001     2.97149859E+02   # sdown_L decays
#          BR         NDA      ID1       ID2
     2.50709951E-03    2     1000022         1   # BR(~d_L -> ~chi_10 d)
     6.14933352E-05    2     1000023         1   # BR(~d_L -> ~chi_20 d)
     1.30319162E-05    2     1000025         1   # BR(~d_L -> ~chi_30 d)
     2.62973724E-02    2     1000035         1   # BR(~d_L -> ~chi_40 d)
     6.64440779E-05    2    -1000024         2   # BR(~d_L -> ~chi_1- u)
     5.26276527E-02    2    -1000037         2   # BR(~d_L -> ~chi_2- u)
     9.18426906E-01    2     1000021         1   # BR(~d_L -> ~g      d)
#
#         PDG            Width
DECAY   2000001     2.74502398E+02   # sdown_R decays
#          BR         NDA      ID1       ID2
     1.08308527E-02    2     1000022         1   # BR(~d_R -> ~chi_10 d)
     2.19057766E-06    2     1000023         1   # BR(~d_R -> ~chi_20 d)
     2.91528632E-06    2     1000025         1   # BR(~d_R -> ~chi_30 d)
     1.11767888E-09    2     1000035         1   # BR(~d_R -> ~chi_40 d)
     9.89164040E-01    2     1000021         1   # BR(~d_R -> ~g      d)
#
#         PDG            Width
DECAY   1000004     2.97135776E+02   # scharm_L decays
#          BR         NDA      ID1       ID2
     2.51322182E-03    2     1000022         4   # BR(~c_L -> ~chi_10 c)
     8.58921576E-05    2     1000023         4   # BR(~c_L -> ~chi_20 c)
     3.85822291E-06    2     1000025         4   # BR(~c_L -> ~chi_30 c)
     2.62799639E-02    2     1000035         4   # BR(~c_L -> ~chi_40 c)
     2.57038323E-04    2     1000024         3   # BR(~c_L -> ~chi_1+ s)
     5.25138977E-02    2     1000037         3   # BR(~c_L -> ~chi_2+ s)
     9.18346128E-01    2     1000021         4   # BR(~c_L -> ~g      c)
#
#         PDG            Width
DECAY   2000004     2.83404166E+02   # scharm_R decays
#          BR         NDA      ID1       ID2
     4.19603465E-02    2     1000022         4   # BR(~c_R -> ~chi_10 c)
     8.48636368E-06    2     1000023         4   # BR(~c_R -> ~chi_20 c)
     1.12939056E-05    2     1000025         4   # BR(~c_R -> ~chi_30 c)
     4.32951333E-09    2     1000035         4   # BR(~c_R -> ~chi_40 c)
     9.58019869E-01    2     1000021         4   # BR(~c_R -> ~g      c)
#
#         PDG            Width
DECAY   1000003     2.97149859E+02   # sstrange_L decays
#          BR         NDA      ID1       ID2
     2.50709951E-03    2     1000022         3   # BR(~s_L -> ~chi_10 s)
     6.14933352E-05    2     1000023         3   # BR(~s_L -> ~chi_20 s)
     1.30319162E-05    2     1000025         3   # BR(~s_L -> ~chi_30 s)
     2.62973724E-02    2     1000035         3   # BR(~s_L -> ~chi_40 s)
     6.64440779E-05    2    -1000024         4   # BR(~s_L -> ~chi_1- c)
     5.26276527E-02    2    -1000037         4   # BR(~s_L -> ~chi_2- c)
     9.18426906E-01    2     1000021         3   # BR(~s_L -> ~g      s)
#
#         PDG            Width
DECAY   2000003     2.74502398E+02   # sstrange_R decays
#          BR         NDA      ID1       ID2
     1.08308527E-02    2     1000022         3   # BR(~s_R -> ~chi_10 s)
     2.19057766E-06    2     1000023         3   # BR(~s_R -> ~chi_20 s)
     2.91528632E-06    2     1000025         3   # BR(~s_R -> ~chi_30 s)
     1.11767888E-09    2     1000035         3   # BR(~s_R -> ~chi_40 s)
     9.89164040E-01    2     1000021         3   # BR(~s_R -> ~g      s)
#
#         PDG            Width
DECAY   1000011     3.02270619E+01   # selectron_L decays
#          BR         NDA      ID1       ID2
     2.26818793E-01    2     1000022        11   # BR(~e_L -> ~chi_10 e-)
     1.14015687E-03    2     1000023        11   # BR(~e_L -> ~chi_20 e-)
     1.01243022E-06    2     1000025        11   # BR(~e_L -> ~chi_30 e-)
     2.56882863E-01    2     1000035        11   # BR(~e_L -> ~chi_40 e-)
     6.62332537E-04    2    -1000024        12   # BR(~e_L -> ~chi_1- nu_e)
     5.14494842E-01    2    -1000037        12   # BR(~e_L -> ~chi_2- nu_e)
#
#         PDG            Width
DECAY   2000011     2.73539292E+01   # selectron_R decays
#          BR         NDA      ID1       ID2
     9.99531648E-01    2     1000022        11   # BR(~e_R -> ~chi_10 e-)
     2.00896654E-04    2     1000023        11   # BR(~e_R -> ~chi_20 e-)
     2.67354276E-04    2     1000025        11   # BR(~e_R -> ~chi_30 e-)
     1.00663534E-07    2     1000035        11   # BR(~e_R -> ~chi_40 e-)
#
#         PDG            Width
DECAY   1000013     3.02270619E+01   # smuon_L decays
#          BR         NDA      ID1       ID2
     2.26818793E-01    2     1000022        13   # BR(~mu_L -> ~chi_10 mu-)
     1.14015687E-03    2     1000023        13   # BR(~mu_L -> ~chi_20 mu-)
     1.01243022E-06    2     1000025        13   # BR(~mu_L -> ~chi_30 mu-)
     2.56882863E-01    2     1000035        13   # BR(~mu_L -> ~chi_40 mu-)
     6.62332537E-04    2    -1000024        14   # BR(~mu_L -> ~chi_1- nu_mu)
     5.14494842E-01    2    -1000037        14   # BR(~mu_L -> ~chi_2- nu_mu)
#
#         PDG            Width
DECAY   2000013     2.73539292E+01   # smuon_R decays
#          BR         NDA      ID1       ID2
     9.99531648E-01    2     1000022        13   # BR(~mu_R -> ~chi_10 mu-)
     2.00896654E-04    2     1000023        13   # BR(~mu_R -> ~chi_20 mu-)
     2.67354276E-04    2     1000025        13   # BR(~mu_R -> ~chi_30 mu-)
     1.00663534E-07    2     1000035        13   # BR(~mu_R -> ~chi_40 mu-)
#
#         PDG            Width
DECAY   1000015     2.88662277E+01   # stau_1 decays
#          BR         NDA      ID1       ID2
     9.19590330E-01    2     1000022        15   # BR(~tau_1 -> ~chi_10  tau-)
     1.32911692E-02    2     1000023        15   # BR(~tau_1 -> ~chi_20  tau-)
     1.16707421E-02    2     1000025        15   # BR(~tau_1 -> ~chi_30  tau-)
     1.01383479E-02    2     1000035        15   # BR(~tau_1 -> ~chi_40  tau-)
     2.50027508E-02    2    -1000024        16   # BR(~tau_1 -> ~chi_1-  nu_tau)
     2.03066599E-02    2    -1000037        16   # BR(~tau_1 -> ~chi_2-  nu_tau)
#
#         PDG            Width
DECAY   2000015     3.08133045E+01   # stau_2 decays
#          BR         NDA      ID1       ID2
     2.48152992E-01    2     1000022        15   # BR(~tau_2 -> ~chi_10  tau-)
     1.17010982E-02    2     1000023        15   # BR(~tau_2 -> ~chi_20  tau-)
     1.21400805E-02    2     1000025        15   # BR(~tau_2 -> ~chi_30  tau-)
     2.42432470E-01    2     1000035        15   # BR(~tau_2 -> ~chi_40  tau-)
     2.63983640E-05    2    -1000024        16   # BR(~tau_2 -> ~chi_1-  nu_tau)
     4.85546961E-01    2    -1000037        16   # BR(~tau_2 -> ~chi_2-  nu_tau)
#
#         PDG            Width
DECAY   1000012     3.02285198E+01   # snu_eL decays
#          BR         NDA      ID1       ID2
     2.26577144E-01    2     1000022        12   # BR(~nu_eL -> ~chi_10 nu_e)
     4.10109666E-04    2     1000023        12   # BR(~nu_eL -> ~chi_20 nu_e)
     2.75237928E-04    2     1000025        12   # BR(~nu_eL -> ~chi_30 nu_e)
     2.57012603E-01    2     1000035        12   # BR(~nu_eL -> ~chi_40 nu_e)
     2.56159237E-03    2     1000024        11   # BR(~nu_eL -> ~chi_1+ e-)
     5.13163313E-01    2     1000037        11   # BR(~nu_eL -> ~chi_2+ e-)
#
#         PDG            Width
DECAY   1000014     3.02285198E+01   # snu_muL decays
#          BR         NDA      ID1       ID2
     2.26577144E-01    2     1000022        14   # BR(~nu_muL -> ~chi_10 nu_mu)
     4.10109666E-04    2     1000023        14   # BR(~nu_muL -> ~chi_20 nu_mu)
     2.75237928E-04    2     1000025        14   # BR(~nu_muL -> ~chi_30 nu_mu)
     2.57012603E-01    2     1000035        14   # BR(~nu_muL -> ~chi_40 nu_mu)
     2.56159237E-03    2     1000024        13   # BR(~nu_muL -> ~chi_1+ mu-)
     5.13163313E-01    2     1000037        13   # BR(~nu_muL -> ~chi_2+ mu-)
#
#         PDG            Width
DECAY   1000016     3.09252483E+01   # snu_tauL decays
#          BR         NDA      ID1       ID2
     2.21448948E-01    2     1000022        16   # BR(~nu_tauL -> ~chi_10 nu_tau)
     4.00802406E-04    2     1000023        16   # BR(~nu_tauL -> ~chi_20 nu_tau)
     2.68991465E-04    2     1000025        16   # BR(~nu_tauL -> ~chi_30 nu_tau)
     2.51131419E-01    2     1000035        16   # BR(~nu_tauL -> ~chi_40 nu_tau)
     2.53244994E-02    2     1000024        15   # BR(~nu_tauL -> ~chi_1+ tau-)
     5.01425340E-01    2     1000037        15   # BR(~nu_tauL -> ~chi_2+ tau-)
#
#         PDG            Width
DECAY   1000024     1.11059179E+00   # chargino1+ decays
#          BR         NDA      ID1       ID2
     1.00000000E+00    2     1000022        24   # BR(~chi_1+ -> ~chi_10  W+)
#
#         PDG            Width
DECAY   1000037     1.67687896E+01   # chargino2+ decays
#          BR         NDA      ID1       ID2
     2.52290640E-01    2     1000024        23   # BR(~chi_2+ -> ~chi_1+  Z )
     3.54613771E-04    2     1000022        24   # BR(~chi_2+ -> ~chi_10  W+)
     2.44541878E-01    2     1000023        24   # BR(~chi_2+ -> ~chi_20  W+)
     2.43247133E-01    2     1000025        24   # BR(~chi_2+ -> ~chi_30  W+)
     2.59565595E-01    2     1000024        25   # BR(~chi_2+ -> ~chi_1+  h )
     1.39797163E-07    2     1000022        37   # BR(~chi_2+ -> ~chi_10  H+)
#
#         PDG            Width
DECAY   1000022     0.00000000E+00   # neutralino1 decays
#
#         PDG            Width
DECAY   1000023     1.16888102E+00   # neutralino2 decays
#          BR         NDA      ID1       ID2
     5.62422153E-01    2     1000022        23   # BR(~chi_20 -> ~chi_10   Z )
     4.37577847E-01    2     1000022        25   # BR(~chi_20 -> ~chi_10   h )
#
#         PDG            Width
DECAY   1000025     1.18224808E+00   # neutralino3 decays
#          BR         NDA      ID1       ID2
     4.18960030E-01    2     1000022        23   # BR(~chi_30 -> ~chi_10   Z )
     5.81039970E-01    2     1000022        25   # BR(~chi_30 -> ~chi_10   h )
#
#         PDG            Width
DECAY   1000035     1.67466642E+01   # neutralino4 decays
#          BR         NDA      ID1       ID2
     1.47312621E-04    2     1000022        23   # BR(~chi_40 -> ~chi_10   Z )
     2.45193488E-02    2     1000023        23   # BR(~chi_40 -> ~chi_20   Z )
     2.27744856E-01    2     1000025        23   # BR(~chi_40 -> ~chi_30   Z )
     2.43949662E-01    2     1000024       -24   # BR(~chi_40 -> ~chi_1+   W-)
     2.43949662E-01    2    -1000024        24   # BR(~chi_40 -> ~chi_1-   W+)
     2.19438115E-04    2     1000022        25   # BR(~chi_40 -> ~chi_10   h )
     1.20430701E-07    2     1000022        35   # BR(~chi_40 -> ~chi_10   H )
     2.46726833E-08    2     1000022        36   # BR(~chi_40 -> ~chi_10   A )
     2.35126810E-01    2     1000023        25   # BR(~chi_40 -> ~chi_20   h )
     2.43427655E-02    2     1000025        25   # BR(~chi_40 -> ~chi_30   h )
#
#         PDG            Width
DECAY        25     4.03223501E-03   # h decays
#          BR         NDA      ID1       ID2
     6.08944024E-01    2           5        -5   # BR(h -> b       bb     )
     6.42589452E-02    2         -15        15   # BR(h -> tau+    tau-   )
     2.27500522E-04    2         -13        13   # BR(h -> mu+     mu-    )
     4.82372129E-04    2           3        -3   # BR(h -> s       sb     )
     2.09047800E-02    2           4        -4   # BR(h -> c       cb     )
     6.74924799E-02    2          21        21   # BR(h -> g       g      )
     2.31825369E-03    2          22        22   # BR(h -> gam     gam    )
     1.48529607E-03    2          22        23   # BR(h -> Z       gam    )
     2.08999897E-01    2          24       -24   # BR(h -> W+      W-     )
     2.48625933E-02    2          23        23   # BR(h -> Z       Z      )
     2.38573796E-05    2     1000022   1000022   # BR(h -> ~chi_10 ~chi_10)
#
#         PDG            Width
DECAY        35     6.71273821E+00   # H decays
#          BR         NDA      ID1       ID2
     4.88769421E-01    2           5        -5   # BR(H -> b       bb     )
     8.30269972E-02    2         -15        15   # BR(H -> tau+    tau-   )
     2.93590057E-04    2         -13        13   # BR(H -> mu+     mu-    )
     3.59896516E-04    2           3        -3   # BR(H -> s       sb     )
     2.01124663E-06    2           4        -4   # BR(H -> c       cb     )
     2.00939463E-01    2           6        -6   # BR(H -> t       tb     )
     6.66575382E-05    2          21        21   # BR(H -> g       g      )
     3.86815721E-07    2          22        22   # BR(H -> gam     gam    )
     1.18650437E-07    2          23        22   # BR(H -> Z       gam    )
     8.78375618E-05    2          24       -24   # BR(H -> W+      W-     )
     4.38631959E-05    2          23        23   # BR(H -> Z       Z      )
     3.36444437E-04    2          25        25   # BR(H -> h       h      )
    -4.72595216E-24    2          36        36   # BR(H -> A       A      )
     7.34763603E-19    2          23        36   # BR(H -> Z       A      )
     6.64534352E-04    2     1000022   1000022   # BR(H -> ~chi_10 ~chi_10)
     1.32761571E-01    2     1000022   1000023   # BR(H -> ~chi_10 ~chi_20)
     9.26472079E-02    2     1000022   1000025   # BR(H -> ~chi_10 ~chi_30)
#
#         PDG            Width
DECAY        36     6.71584227E+00   # A decays
#          BR         NDA      ID1       ID2
     4.88706957E-01    2           5        -5   # BR(A -> b       bb     )
     8.29911043E-02    2         -15        15   # BR(A -> tau+    tau-   )
     2.93462727E-04    2         -13        13   # BR(A -> mu+     mu-    )
     3.60003159E-04    2           3        -3   # BR(A -> s       sb     )
     2.01881423E-06    2           4        -4   # BR(A -> c       cb     )
     2.01584246E-01    2           6        -6   # BR(A -> t       tb     )
     1.99520056E-04    2          21        21   # BR(A -> g       g      )
     3.72557302E-07    2          22        22   # BR(A -> gam     gam    )
     2.41687048E-07    2          23        22   # BR(A -> Z       gam    )
     8.74662493E-05    2          23        25   # BR(A -> Z       h      )
     6.85732053E-04    2     1000022   1000022   # BR(A -> ~chi_10 ~chi_10)
     9.37253042E-02    2     1000022   1000023   # BR(A -> ~chi_10 ~chi_20)
     1.31363571E-01    2     1000022   1000025   # BR(A -> ~chi_10 ~chi_30)
#
#         PDG            Width
DECAY        37     6.71499532E+00   # H+ decays
#          BR         NDA      ID1       ID2
     7.86381226E-04    2           4        -5   # BR(H+ -> c       bb     )
     8.30257316E-02    2         -15        16   # BR(H+ -> tau+    nu_tau )
     2.93585171E-04    2         -13        14   # BR(H+ -> mu+     nu_mu  )
     5.03281421E-06    2           2        -5   # BR(H+ -> u       bb     )
     1.72269663E-05    2           2        -3   # BR(H+ -> u       sb     )
     3.56253147E-04    2           4        -3   # BR(H+ -> c       sb     )
     6.88870407E-01    2           6        -5   # BR(H+ -> t       bb     )
     8.76098617E-05    2          24        25   # BR(H+ -> W+      h      )
     9.93789775E-14    2          24        36   # BR(H+ -> W+      A      )
     2.26557772E-01    2     1000024   1000022   # BR(H+ -> ~chi_1+ ~chi_10)
