#
#                              ======================
#                              | THE SUSYHIT OUTPUT |
#                              ======================
#
#
#              ------------------------------------------------------
#              |     This is the output of the SUSY-HIT package     |
#              |  created by A.Djouadi, M.Muehlleitner and M.Spira. |
#              |  In case of problems with SUSY-HIT email to        |
#              |           margarete.muehlleitner@kit.edu           |
#              |           michael.spira@psi.ch                     |
#              |           abdelhak.djouadi@cern.ch                 |
#              ------------------------------------------------------
#
#              ------------------------------------------------------
#              |  SUSY Les Houches Accord - MSSM Spectrum + Decays  |
#              |              based on the decay programs           |
#              |                                                    |
#              |                     SDECAY 1.5                     |
#              |                                                    |
#              |  Authors: M.Muhlleitner, A.Djouadi and Y.Mambrini  |
#              |  Ref.:    Comput.Phys.Commun.168(2005)46           |
#              |           [hep-ph/0311167]                         |
#              |                                                    |
#              |                     HDECAY 3.4                     |
#              |                                                    |
#              |  By: A.Djouadi,J.Kalinowski,M.Muhlleitner,M.Spira  |
#              |  Ref.:    Comput.Phys.Commun.108(1998)56           |
#              |           [hep-ph/9704448]                         |
#              |                                                    |
#              |                                                    |
#              |  If not stated otherwise all DRbar couplings and   |
#              |  soft SUSY breaking masses are given at the scale  |
#              |  Q=  0.91187600E+02
#              |                                                    |
#              ------------------------------------------------------
#
#
BLOCK DCINFO  # Decay Program information
     1   SDECAY/HDECAY # decay calculator
     2   1.5  /3.4    # version number
#
BLOCK SPINFO  # Spectrum calculator information
     1   SuSpect     # RGE +Spectrum calculator            
     2   2.43         # version number                     
#
BLOCK MODSEL  # Model selection
     1     2   # GMSB                                              
#
BLOCK SMINPUTS  # Standard Model inputs
         1     1.27932904E+02   # alpha_em^-1(M_Z)^MSbar
         2     1.16639000E-05   # G_F [GeV^-2]
         3     1.17200000E-01   # alpha_S(M_Z)^MSbar
         4     9.11870000E+01   # M_Z pole mass
         5     4.25000000E+00   # mb(mb)^MSbar
         6     1.72900000E+02   # mt pole mass
         7     1.77700000E+00   # mtau pole mass
#
BLOCK MINPAR  # Input parameters - minimal models
#
BLOCK EXTPAR  # Input parameters - non-minimal models
         0     9.11876000E+01   # EWSB                
         1     1.24900000E+03   # M_1                 
         2     3.00000000E+03   # M_2                 
         3     2.20000000E+03   # M_3                 
        11     0.00000000E+00   # A_t                 
        12     0.00000000E+00   # A_b                 
        13     0.00000000E+00   # A_tau               
        14     0.00000000E+00   # A_u                 
        15     0.00000000E+00   # A_d                 
        16     0.00000000E+00   # A_e                 
        23     1.25000000E+03   # mu(EWSB)            
        25     1.50000000E+00   # tanbeta(in)         
        26     2.00000000E+03   # MA_pole             
        31     5.00000000E+03   # M_eL                
        32     5.00000000E+03   # M_muL               
        33     5.00000000E+03   # M_tauL              
        34     5.00000000E+03   # M_eR                
        35     5.00000000E+03   # M_muR               
        36     5.00000000E+03   # M_tauR              
        41     5.00000000E+03   # M_q1L               
        42     5.00000000E+03   # M_q2L               
        43     5.00000000E+03   # M_q3L               
        44     5.00000000E+03   # M_uR                
        45     5.00000000E+03   # M_cR                
        46     5.00000000E+03   # M_tR                
        47     5.00000000E+03   # M_dR                
        48     5.00000000E+03   # M_sR                
        49     5.00000000E+03   # M_bR                
#
BLOCK MASS  # Mass Spectrum
# PDG code           mass       particle
        24     8.05410144E+01   # W+
        25     1.26000000E+02   # h
        35     2.00402494E+03   # H
        36     2.00000000E+03   # A
        37     2.00151181E+03   # H+
         5     4.87877839E+00   # b-quark pole mass calculated from mb(mb)_Msbar
   1000001     4.92095270E+03   # ~d_L
   2000001     4.92084225E+03   # ~d_R
   1000002     4.92070576E+03   # ~u_L
   2000002     4.92076412E+03   # ~u_R
   1000003     4.92095270E+03   # ~s_L
   2000003     4.92084225E+03   # ~s_R
   1000004     4.92070576E+03   # ~c_L
   2000004     4.92076412E+03   # ~c_R
   1000005     4.92037793E+03   # ~b_1
   2000005     4.92141846E+03   # ~b_2
   1000006     5.04336296E+03   # ~t_1
   2000006     5.34148643E+03   # ~t_2
   1000011     5.00008220E+03   # ~e_L
   2000011     5.00007609E+03   # ~e_R
   1000012     4.99984171E+03   # ~nu_eL
   1000013     5.00008220E+03   # ~mu_L
   2000013     5.00007609E+03   # ~mu_R
   1000014     4.99984171E+03   # ~nu_muL
   1000015     4.99974600E+03   # ~tau_1
   2000015     5.00041290E+03   # ~tau_2
   1000016     4.99984171E+03   # ~nu_tauL
   1000021     2.23871471E+03   # ~g
   1000022     1.28284715E+03   # ~chi_10
   1000023    -1.33144813E+03   # ~chi_20
   1000025     1.37004749E+03   # ~chi_30
   1000035     3.12827866E+03   # ~chi_40
   1000024     1.32807342E+03   # ~chi_1+
   1000037     3.12827678E+03   # ~chi_2+
   1000039     1.00000000E-09   # ~gravitino
#
BLOCK NMIX  # Neutralino Mixing Matrix
  1  1     7.19739262E-01   # N_11
  1  2    -2.91760570E-02   # N_12
  1  3     4.92288462E-01   # N_13
  1  4    -4.88647340E-01   # N_14
  2  1     3.28639131E-03   # N_21
  2  2    -3.48261243E-03   # N_22
  2  3    -7.06988895E-01   # N_23
  2  4    -7.07208437E-01   # N_24
  3  1     6.94235890E-01   # N_31
  3  2     3.17898397E-02   # N_32
  3  3    -5.06983532E-01   # N_33
  3  4     5.09895708E-01   # N_34
  4  1     1.06004243E-03   # N_41
  4  2    -9.99062578E-01   # N_42
  4  3    -2.80440822E-02   # N_43
  4  4     3.29601359E-02   # N_44
#
BLOCK UMIX  # Chargino Mixing Matrix U
  1  1    -3.96354589E-02   # U_11
  1  2     9.99214206E-01   # U_12
  2  1     9.99214206E-01   # U_21
  2  2     3.96354589E-02   # U_22
#
BLOCK VMIX  # Chargino Mixing Matrix V
  1  1    -4.65888929E-02   # V_11
  1  2     9.98914148E-01   # V_12
  2  1     9.98914148E-01   # V_21
  2  2     4.65888929E-02   # V_22
#
BLOCK STOPMIX  # Stop Mixing Matrix
  1  1     9.99999776E-01   # cos(theta_t)
  1  2    -6.69327984E-04   # sin(theta_t)
  2  1     6.69327984E-04   # -sin(theta_t)
  2  2     9.99999776E-01   # cos(theta_t)
#
BLOCK SBOTMIX  # Sbottom Mixing Matrix
  1  1     6.68525540E-01   # cos(theta_b)
  1  2     7.43689184E-01   # sin(theta_b)
  2  1    -7.43689184E-01   # -sin(theta_b)
  2  2     6.68525540E-01   # cos(theta_b)
#
BLOCK STAUMIX  # Stau Mixing Matrix
  1  1     7.03859718E-01   # cos(theta_tau)
  1  2     7.10339002E-01   # sin(theta_tau)
  2  1    -7.10339002E-01   # -sin(theta_tau)
  2  2     7.03859718E-01   # cos(theta_tau)
#
BLOCK ALPHA  # Higgs mixing
          -5.90206212E-01   # Mixing angle in the neutral Higgs boson sector
#
BLOCK HMIX Q=  9.11876000E+01  # DRbar Higgs Parameters
         1     1.25000000E+03   # mu(Q)               
         2     1.49999979E+00   # tanbeta(Q)          
         3     2.52157177E+02   # vev(Q)              
         4     3.39064373E+06   # MA^2(Q)             
#
BLOCK GAUGE Q=  9.11876000E+01  # The gauge couplings
     1     3.52784349E-01   # gprime(Q) DRbar
     2     6.27184739E-01   # g(Q) DRbar
     3     1.07892704E+00   # g3(Q) DRbar
#
BLOCK AU Q=  9.11876000E+01  # The trilinear couplings
  1  1     0.00000000E+00   # A_u(Q) DRbar
  2  2     0.00000000E+00   # A_c(Q) DRbar
  3  3     0.00000000E+00   # A_t(Q) DRbar
#
BLOCK AD Q=  9.11876000E+01  # The trilinear couplings
  1  1     0.00000000E+00   # A_d(Q) DRbar
  2  2     0.00000000E+00   # A_s(Q) DRbar
  3  3     0.00000000E+00   # A_b(Q) DRbar
#
BLOCK AE Q=  9.11876000E+01  # The trilinear couplings
  1  1     0.00000000E+00   # A_e(Q) DRbar
  2  2     0.00000000E+00   # A_mu(Q) DRbar
  3  3     0.00000000E+00   # A_tau(Q) DRbar
#
BLOCK Yu Q=  9.11876000E+01  # The Yukawa couplings
  1  1     0.00000000E+00   # y_u(Q) DRbar
  2  2     0.00000000E+00   # y_c(Q) DRbar
  3  3     1.02563078E+00   # y_t(Q) DRbar
#
BLOCK Yd Q=  9.11876000E+01  # The Yukawa couplings
  1  1     0.00000000E+00   # y_d(Q) DRbar
  2  2     0.00000000E+00   # y_s(Q) DRbar
  3  3     2.71676911E-02   # y_b(Q) DRbar
#
BLOCK Ye Q=  9.11876000E+01  # The Yukawa couplings
  1  1     0.00000000E+00   # y_e(Q) DRbar
  2  2     0.00000000E+00   # y_mu(Q) DRbar
  3  3     1.79803069E-02   # y_tau(Q) DRbar
#
BLOCK MSOFT Q=  9.11876000E+01  # The soft SUSY breaking masses at the scale Q
         1     1.24900000E+03   # M_1                 
         2     3.00000000E+03   # M_2                 
         3     2.20000000E+03   # M_3                 
        14     0.00000000E+00   # A_u                 
        15     0.00000000E+00   # A_d                 
        16     0.00000000E+00   # A_e                 
        21     1.29792844E+06   # M^2_Hd              
        22    -6.82554947E+06   # M^2_Hu              
        31     5.00000000E+03   # M_eL                
        32     5.00000000E+03   # M_muL               
        33     5.00000000E+03   # M_tauL              
        34     5.00000000E+03   # M_eR                
        35     5.00000000E+03   # M_muR               
        36     5.00000000E+03   # M_tauR              
        41     5.00000000E+03   # M_q1L               
        42     5.00000000E+03   # M_q2L               
        43     5.00000000E+03   # M_q3L               
        44     5.00000000E+03   # M_uR                
        45     5.00000000E+03   # M_cR                
        46     5.00000000E+03   # M_tR                
        47     5.00000000E+03   # M_dR                
        48     5.00000000E+03   # M_sR                
        49     5.00000000E+03   # M_bR                
#
#
#
#                             =================
#                             |The decay table|
#                             =================
#
# - The QCD corrections to the decays gluino -> squark  + quark
#                                     squark -> gaugino + quark_prime
#                                     squark -> squark_prime + Higgs
#                                     squark -> gluino  + quark
#   are included.
#
# - The multi-body decays for the inos, stops and sbottoms are included.
#
# - The loop induced decays for the gluino, neutralinos and stops
#   are included.
#
# - The SUSY decays of the top quark are included.
#
# - Possible decays of the NLSP in GMSB models are included.
#
#
#         PDG            Width
DECAY         6     1.37052982E+00   # top decays
#          BR         NDA      ID1       ID2
     1.00000000E+00    2           5        24   # BR(t ->  b    W+)
#
#         PDG            Width
DECAY   1000021     5.73024736E-04   # gluino decays
#          BR         NDA      ID1       ID2
     1.11870954E-02    2     1000022        21   # BR(~g -> ~chi_10 g)
     2.06524190E-02    2     1000023        21   # BR(~g -> ~chi_20 g)
     9.50663466E-03    2     1000025        21   # BR(~g -> ~chi_30 g)
#          BR         NDA      ID1       ID2
0.0E+00    2     1000039    21 # BR(~g -> ~G      g)
#           BR         NDA      ID1       ID2       ID3
     6.68601350E-03    3     1000022         1        -1   # BR(~g -> ~chi_10 d  db)
     3.64119666E-07    3     1000023         1        -1   # BR(~g -> ~chi_20 d  db)
     3.54955437E-03    3     1000025         1        -1   # BR(~g -> ~chi_30 d  db)
     2.02759986E-02    3     1000022         2        -2   # BR(~g -> ~chi_10 u  ub)
     2.84123007E-07    3     1000023         2        -2   # BR(~g -> ~chi_20 u  ub)
     1.36274188E-02    3     1000025         2        -2   # BR(~g -> ~chi_30 u  ub)
     6.68601350E-03    3     1000022         3        -3   # BR(~g -> ~chi_10 s  sb)
     3.64119666E-07    3     1000023         3        -3   # BR(~g -> ~chi_20 s  sb)
     3.54955437E-03    3     1000025         3        -3   # BR(~g -> ~chi_30 s  sb)
     2.02759986E-02    3     1000022         4        -4   # BR(~g -> ~chi_10 c  cb)
     2.84123007E-07    3     1000023         4        -4   # BR(~g -> ~chi_20 c  cb)
     1.36274188E-02    3     1000025         4        -4   # BR(~g -> ~chi_30 c  cb)
     6.77397730E-03    3     1000022         5        -5   # BR(~g -> ~chi_10 b  bb)
     2.09821035E-04    3     1000023         5        -5   # BR(~g -> ~chi_20 b  bb)
     3.66112831E-03    3     1000025         5        -5   # BR(~g -> ~chi_30 b  bb)
     9.43323396E-02    3     1000022         6        -6   # BR(~g -> ~chi_10 t  tb)
     1.43352552E-01    3     1000023         6        -6   # BR(~g -> ~chi_20 t  tb)
     9.23278117E-02    3     1000025         6        -6   # BR(~g -> ~chi_30 t  tb)
     2.06295903E-04    3     1000024         1        -2   # BR(~g -> ~chi_1+ d  ub)
     2.06295903E-04    3    -1000024         2        -1   # BR(~g -> ~chi_1- u  db)
     2.06295903E-04    3     1000024         3        -4   # BR(~g -> ~chi_1+ s  cb)
     2.06295903E-04    3    -1000024         4        -3   # BR(~g -> ~chi_1- c  sb)
     2.07955205E-01    3     1000024         5        -6   # BR(~g -> ~chi_1+ b  tb)
     2.07955205E-01    3    -1000024         6        -5   # BR(~g -> ~chi_1- t  bb)
#
#         PDG            Width
DECAY   1000006     2.60737420E+02   # stop1 decays
#          BR         NDA      ID1       ID2
     5.71333038E-02    2     1000022         6   # BR(~t_1 -> ~chi_10 t )
     1.19822558E-01    2     1000023         6   # BR(~t_1 -> ~chi_20 t )
     6.47488837E-02    2     1000025         6   # BR(~t_1 -> ~chi_30 t )
     2.80374570E-02    2     1000035         6   # BR(~t_1 -> ~chi_40 t )
    -8.54721959E-05    2     1000024         5   # BR(~t_1 -> ~chi_1+ b )
     5.56621418E-02    2     1000037         5   # BR(~t_1 -> ~chi_2+ b )
     6.58919151E-01    2     1000021         6   # BR(~t_1 -> ~g      t )
     7.21824989E-03    2     1000005        24   # BR(~t_1 -> ~b_1    W+)
     8.54372695E-03    2     2000005        24   # BR(~t_1 -> ~b_2    W+)
#
#         PDG            Width
DECAY   2000006     3.34800168E+02   # stop2 decays
#          BR         NDA      ID1       ID2
     6.49960807E-02    2     1000022         6   # BR(~t_2 -> ~chi_10 t )
     1.01242714E-01    2     1000023         6   # BR(~t_2 -> ~chi_20 t )
     6.57705852E-02    2     1000025         6   # BR(~t_2 -> ~chi_30 t )
    -7.39037794E-06    2     1000035         6   # BR(~t_2 -> ~chi_40 t )
     2.02840244E-01    2     1000024         5   # BR(~t_2 -> ~chi_1+ b )
    -1.39136666E-05    2     1000037         5   # BR(~t_2 -> ~chi_2+ b )
     5.65303128E-01    2     1000021         6   # BR(~t_2 -> ~g      t )
    -1.30848126E-04    2     1000006        25   # BR(~t_2 -> ~t_1    h )
     2.70469952E-09    2     1000006        23   # BR(~t_2 -> ~t_1    Z )
    -2.72774711E-07    2     1000005        24   # BR(~t_2 -> ~b_1    W+)
    -3.29845243E-07    2     2000005        24   # BR(~t_2 -> ~b_2    W+)
#
#         PDG            Width
DECAY   1000005     1.99568733E+02   # sbottom1 decays
#          BR         NDA      ID1       ID2
     5.29656898E-03    2     1000022         5   # BR(~b_1 -> ~chi_10 b )
     9.24569525E-05    2     1000023         5   # BR(~b_1 -> ~chi_20 b )
     2.77120572E-03    2     1000025         5   # BR(~b_1 -> ~chi_30 b )
     1.36692018E-02    2     1000035         5   # BR(~b_1 -> ~chi_40 b )
     1.21392913E-01    2    -1000024         6   # BR(~b_1 -> ~chi_1- t )
     2.75394030E-02    2    -1000037         6   # BR(~b_1 -> ~chi_2- t )
     8.29238251E-01    2     1000021         5   # BR(~b_1 -> ~g      b )
#
#         PDG            Width
DECAY   2000005     2.14707839E+02   # sbottom2 decays
#          BR         NDA      ID1       ID2
     2.66538566E-03    2     1000022         5   # BR(~b_2 -> ~chi_10 b )
     1.14930348E-04    2     1000023         5   # BR(~b_2 -> ~chi_20 b )
     3.22353591E-03    2     1000025         5   # BR(~b_2 -> ~chi_30 b )
     1.81421448E-02    2     1000035         5   # BR(~b_2 -> ~chi_40 b )
     1.69120769E-01    2    -1000024         6   # BR(~b_2 -> ~chi_1- t )
     3.65615882E-02    2    -1000037         6   # BR(~b_2 -> ~chi_2- t )
     7.70171646E-01    2     1000021         5   # BR(~b_2 -> ~g      b )
#
#         PDG            Width
DECAY   1000002     1.85928318E+02   # sup_L decays
#          BR         NDA      ID1       ID2
     9.69930119E-04    2     1000022         2   # BR(~u_L -> ~chi_10 u)
     7.04383901E-07    2     1000023         2   # BR(~u_L -> ~chi_20 u)
     2.22795881E-03    2     1000025         2   # BR(~u_L -> ~chi_30 u)
     3.55862203E-02    2     1000035         2   # BR(~u_L -> ~chi_40 u)
     3.72449550E-04    2     1000024         1   # BR(~u_L -> ~chi_1+ d)
     7.11797271E-02    2     1000037         1   # BR(~u_L -> ~chi_2+ d)
     8.89663010E-01    2     1000021         2   # BR(~u_L -> ~g      u)
#
#         PDG            Width
DECAY   2000002     1.74395844E+02   # sup_R decays
#          BR         NDA      ID1       ID2
     2.69319477E-02    2     1000022         2   # BR(~u_R -> ~chi_10 u)
     5.55248953E-07    2     1000023         2   # BR(~u_R -> ~chi_20 u)
     2.45497003E-02    2     1000025         2   # BR(~u_R -> ~chi_30 u)
     2.40352879E-08    2     1000035         2   # BR(~u_R -> ~chi_40 u)
     9.48517773E-01    2     1000021         2   # BR(~u_R -> ~g      u)
#
#         PDG            Width
DECAY   1000001     1.85935695E+02   # sdown_L decays
#          BR         NDA      ID1       ID2
     2.33536051E-03    2     1000022         1   # BR(~d_L -> ~chi_10 d)
     1.44029893E-06    2     1000023         1   # BR(~d_L -> ~chi_20 d)
     8.22068367E-04    2     1000025         1   # BR(~d_L -> ~chi_30 d)
     3.56197292E-02    2     1000035         1   # BR(~d_L -> ~chi_40 d)
     2.69576540E-04    2    -1000024         2   # BR(~d_L -> ~chi_1- u)
     7.12328542E-02    2    -1000037         2   # BR(~d_L -> ~chi_2- u)
     8.89718971E-01    2     1000021         1   # BR(~d_L -> ~g      d)
#
#         PDG            Width
DECAY   2000001     1.67667544E+02   # sdown_R decays
#          BR         NDA      ID1       ID2
     7.00331851E-03    2     1000022         1   # BR(~d_R -> ~chi_10 d)
     1.44385649E-07    2     1000023         1   # BR(~d_R -> ~chi_20 d)
     6.38384911E-03    2     1000025         1   # BR(~d_R -> ~chi_30 d)
     6.25031490E-09    2     1000035         1   # BR(~d_R -> ~chi_40 d)
     9.86612682E-01    2     1000021         1   # BR(~d_R -> ~g      d)
#
#         PDG            Width
DECAY   1000004     1.85928318E+02   # scharm_L decays
#          BR         NDA      ID1       ID2
     9.69930119E-04    2     1000022         4   # BR(~c_L -> ~chi_10 c)
     7.04383901E-07    2     1000023         4   # BR(~c_L -> ~chi_20 c)
     2.22795881E-03    2     1000025         4   # BR(~c_L -> ~chi_30 c)
     3.55862203E-02    2     1000035         4   # BR(~c_L -> ~chi_40 c)
     3.72449550E-04    2     1000024         3   # BR(~c_L -> ~chi_1+ s)
     7.11797271E-02    2     1000037         3   # BR(~c_L -> ~chi_2+ s)
     8.89663010E-01    2     1000021         4   # BR(~c_L -> ~g      c)
#
#         PDG            Width
DECAY   2000004     1.74395844E+02   # scharm_R decays
#          BR         NDA      ID1       ID2
     2.69319477E-02    2     1000022         4   # BR(~c_R -> ~chi_10 c)
     5.55248953E-07    2     1000023         4   # BR(~c_R -> ~chi_20 c)
     2.45497003E-02    2     1000025         4   # BR(~c_R -> ~chi_30 c)
     2.40352879E-08    2     1000035         4   # BR(~c_R -> ~chi_40 c)
     9.48517773E-01    2     1000021         4   # BR(~c_R -> ~g      c)
#
#         PDG            Width
DECAY   1000003     1.85935695E+02   # sstrange_L decays
#          BR         NDA      ID1       ID2
     2.33536051E-03    2     1000022         3   # BR(~s_L -> ~chi_10 s)
     1.44029893E-06    2     1000023         3   # BR(~s_L -> ~chi_20 s)
     8.22068367E-04    2     1000025         3   # BR(~s_L -> ~chi_30 s)
     3.56197292E-02    2     1000035         3   # BR(~s_L -> ~chi_40 s)
     2.69576540E-04    2    -1000024         4   # BR(~s_L -> ~chi_1- c)
     7.12328542E-02    2    -1000037         4   # BR(~s_L -> ~chi_2- c)
     8.89718971E-01    2     1000021         3   # BR(~s_L -> ~g      s)
#
#         PDG            Width
DECAY   2000003     1.67667544E+02   # sstrange_R decays
#          BR         NDA      ID1       ID2
     7.00331851E-03    2     1000022         3   # BR(~s_R -> ~chi_10 s)
     1.44385649E-07    2     1000023         3   # BR(~s_R -> ~chi_20 s)
     6.38384911E-03    2     1000025         3   # BR(~s_R -> ~chi_30 s)
     6.25031490E-09    2     1000035         3   # BR(~s_R -> ~chi_40 s)
     9.86612682E-01    2     1000021         3   # BR(~s_R -> ~g      s)
#
#         PDG            Width
DECAY   1000011     2.71398198E+01   # selectron_L decays
#          BR         NDA      ID1       ID2
     8.87826754E-02    2     1000022        11   # BR(~e_L -> ~chi_10 e-)
     1.66154416E-06    2     1000023        11   # BR(~e_L -> ~chi_20 e-)
     1.09974454E-01    2     1000025        11   # BR(~e_L -> ~chi_30 e-)
     2.66161992E-01    2     1000035        11   # BR(~e_L -> ~chi_40 e-)
     1.95664583E-03    2    -1000024        12   # BR(~e_L -> ~chi_1- nu_e)
     5.33122571E-01    2    -1000037        12   # BR(~e_L -> ~chi_2- nu_e)
#
#         PDG            Width
DECAY   2000011     2.14025237E+01   # selectron_R decays
#          BR         NDA      ID1       ID2
     5.22993690E-01    2     1000022        11   # BR(~e_R -> ~chi_10 e-)
     1.07856511E-05    2     1000023        11   # BR(~e_R -> ~chi_20 e-)
     4.76995043E-01    2     1000025        11   # BR(~e_R -> ~chi_30 e-)
     4.81452475E-07    2     1000035        11   # BR(~e_R -> ~chi_40 e-)
#
#         PDG            Width
DECAY   1000013     2.71398198E+01   # smuon_L decays
#          BR         NDA      ID1       ID2
     8.87826754E-02    2     1000022        13   # BR(~mu_L -> ~chi_10 mu-)
     1.66154416E-06    2     1000023        13   # BR(~mu_L -> ~chi_20 mu-)
     1.09974454E-01    2     1000025        13   # BR(~mu_L -> ~chi_30 mu-)
     2.66161992E-01    2     1000035        13   # BR(~mu_L -> ~chi_40 mu-)
     1.95664583E-03    2    -1000024        14   # BR(~mu_L -> ~chi_1- nu_mu)
     5.33122571E-01    2    -1000037        14   # BR(~mu_L -> ~chi_2- nu_mu)
#
#         PDG            Width
DECAY   2000013     2.14025237E+01   # smuon_R decays
#          BR         NDA      ID1       ID2
     5.22993690E-01    2     1000022        13   # BR(~mu_R -> ~chi_10 mu-)
     1.07856511E-05    2     1000023        13   # BR(~mu_R -> ~chi_20 mu-)
     4.76995043E-01    2     1000025        13   # BR(~mu_R -> ~chi_30 mu-)
     4.81452475E-07    2     1000035        13   # BR(~mu_R -> ~chi_40 mu-)
#
#         PDG            Width
DECAY   1000015     2.43242666E+01   # stau_1 decays
#          BR         NDA      ID1       ID2
     2.87646552E-01    2     1000022        15   # BR(~tau_1 -> ~chi_10  tau-)
     4.70102532E-04    2     1000023        15   # BR(~tau_1 -> ~chi_20  tau-)
     2.67805634E-01    2     1000025        15   # BR(~tau_1 -> ~chi_30  tau-)
     1.46751318E-01    2     1000035        15   # BR(~tau_1 -> ~chi_40  tau-)
     3.23441806E-03    2    -1000024        16   # BR(~tau_1 -> ~chi_1-  nu_tau)
     2.93944103E-01    2    -1000037        16   # BR(~tau_1 -> ~chi_2-  nu_tau)
     1.47872141E-04    2     1000039        15   # BR(~tau_1 -> ~G       tau-)
#
#         PDG            Width
DECAY   2000015     2.43049466E+01   # stau_2 decays
#          BR         NDA      ID1       ID2
     2.72358392E-01    2     1000022        15   # BR(~tau_2 -> ~chi_10  tau-)
     6.82623412E-04    2     1000023        15   # BR(~tau_2 -> ~chi_20  tau-)
     2.75401657E-01    2     1000025        15   # BR(~tau_2 -> ~chi_30  tau-)
     1.50340260E-01    2     1000035        15   # BR(~tau_2 -> ~chi_40  tau-)
     8.88397845E-05    2    -1000024        16   # BR(~tau_2 -> ~chi_1-  nu_tau)
     3.01128228E-01    2    -1000037        16   # BR(~tau_2 -> ~chi_2-  nu_tau)
#
#         PDG            Width
DECAY   1000012     2.71406179E+01   # snu_eL decays
#          BR         NDA      ID1       ID2
     1.18494891E-01    2     1000022        12   # BR(~nu_eL -> ~chi_10 nu_e)
     1.76841424E-05    2     1000023        12   # BR(~nu_eL -> ~chi_20 nu_e)
     7.93446072E-02    2     1000025        12   # BR(~nu_eL -> ~chi_30 nu_e)
     2.66744465E-01    2     1000035        12   # BR(~nu_eL -> ~chi_40 nu_e)
     2.70314423E-03    2     1000024        11   # BR(~nu_eL -> ~chi_1+ e-)
     5.32695209E-01    2     1000037        11   # BR(~nu_eL -> ~chi_2+ e-)
#
#         PDG            Width
DECAY   1000014     2.71406179E+01   # snu_muL decays
#          BR         NDA      ID1       ID2
     1.18494891E-01    2     1000022        14   # BR(~nu_muL -> ~chi_10 nu_mu)
     1.76841424E-05    2     1000023        14   # BR(~nu_muL -> ~chi_20 nu_mu)
     7.93446072E-02    2     1000025        14   # BR(~nu_muL -> ~chi_30 nu_mu)
     2.66744465E-01    2     1000035        14   # BR(~nu_muL -> ~chi_40 nu_mu)
     2.70314423E-03    2     1000024        13   # BR(~nu_muL -> ~chi_1+ mu-)
     5.32695209E-01    2     1000037        13   # BR(~nu_muL -> ~chi_2+ mu-)
#
#         PDG            Width
DECAY   1000016     2.71683685E+01   # snu_tauL decays
#          BR         NDA      ID1       ID2
     1.18373857E-01    2     1000022        16   # BR(~nu_tauL -> ~chi_10 nu_tau)
     1.76660793E-05    2     1000023        16   # BR(~nu_tauL -> ~chi_20 nu_tau)
     7.92635622E-02    2     1000025        16   # BR(~nu_tauL -> ~chi_30 nu_tau)
     2.66472004E-01    2     1000035        16   # BR(~nu_tauL -> ~chi_40 nu_tau)
     3.72060241E-03    2     1000024        15   # BR(~nu_tauL -> ~chi_1+ tau-)
     5.32152308E-01    2     1000037        15   # BR(~nu_tauL -> ~chi_2+ tau-)
#
#         PDG            Width
DECAY   1000024     1.21108180E-04   # chargino1+ decays
#          BR         NDA      ID1       ID2
     1.93948152E-02    2     1000039        24   # BR(~chi_1+ -> ~G       W+)
#           BR         NDA      ID1       ID2       ID3
     3.27144820E-01    3     1000022         2        -1   # BR(~chi_1+ -> ~chi_10 u    db)
     3.27144820E-01    3     1000022         4        -3   # BR(~chi_1+ -> ~chi_10 c    sb)
     1.09048397E-01    3     1000022       -11        12   # BR(~chi_1+ -> ~chi_10 e+   nu_e)
     1.09048397E-01    3     1000022       -13        14   # BR(~chi_1+ -> ~chi_10 mu+  nu_mu)
     1.08218751E-01    3     1000022       -15        16   # BR(~chi_1+ -> ~chi_10 tau+ nu_tau)
#
#         PDG            Width
DECAY   1000037     3.84119715E+01   # chargino2+ decays
#          BR         NDA      ID1       ID2
     2.53102057E-01    2     1000024        23   # BR(~chi_2+ -> ~chi_1+  Z )
     1.12085889E-01    2     1000022        24   # BR(~chi_2+ -> ~chi_10  W+)
     2.46283999E-01    2     1000023        24   # BR(~chi_2+ -> ~chi_20  W+)
     1.34638120E-01    2     1000025        24   # BR(~chi_2+ -> ~chi_30  W+)
     2.53880987E-01    2     1000024        25   # BR(~chi_2+ -> ~chi_1+  h )
     8.94849714E-06    2     1000039        24   # BR(~chi_2+ -> ~G       W+)
     9.59156886E-10    2     1000039        37   # BR(~chi_2+ -> ~G       H+)
#
#         PDG            Width
DECAY   1000022    1.0E-05    # neutralino1 decays
#          BR         NDA      ID1       ID2
     5.00556956E-01    2     1000039        22   # BR(~chi_10 -> ~G        gam)
     4.88278433E-01    2     1000039        23   # BR(~chi_10 -> ~G        Z)
     1.11646116E-02    2     1000039        25   # BR(~chi_10 -> ~G        h)
#
#         PDG            Width
DECAY   1000023     1.40310774E-04   # neutralino2 decays
#          BR         NDA      ID1       ID2
     8.36326681E-04    2     1000022        22   # BR(~chi_20 -> ~chi_10 gam)
#          BR         NDA      ID1       ID2
     4.59594128E-08    2     1000039        22   # BR(~chi_20 -> ~G        gam)
     6.49675056E-04    2     1000039        23   # BR(~chi_20 -> ~G        Z)
     1.59376079E-02    2     1000039        25   # BR(~chi_20 -> ~G        h)
#           BR         NDA      ID1       ID2       ID3
     1.16600014E-01    3     1000022        -2         2   # BR(~chi_20 -> ~chi_10 ub      u)
     1.50976415E-01    3     1000022        -1         1   # BR(~chi_20 -> ~chi_10 db      d)
     1.16600014E-01    3     1000022        -4         4   # BR(~chi_20 -> ~chi_10 cb      c)
     1.50976415E-01    3     1000022        -3         3   # BR(~chi_20 -> ~chi_10 sb      s)
     1.37754218E-01    3     1000022        -5         5   # BR(~chi_20 -> ~chi_10 bb      b)
     3.44790913E-02    3     1000022       -11        11   # BR(~chi_20 -> ~chi_10 e+      e-)
     3.44790913E-02    3     1000022       -13        13   # BR(~chi_20 -> ~chi_10 mu+     mu-)
     3.41373930E-02    3     1000022       -15        15   # BR(~chi_20 -> ~chi_10 tau+    tau-)
     6.88557873E-02    3     1000022       -12        12   # BR(~chi_20 -> ~chi_10 nu_eb   nu_e)
     6.88557873E-02    3     1000022       -14        14   # BR(~chi_20 -> ~chi_10 nu_mub  nu_mu)
     6.88557873E-02    3     1000022       -16        16   # BR(~chi_20 -> ~chi_10 nu_taub nu_tau)
     1.15076665E-06    3     1000024        -2         1   # BR(~chi_20 -> ~chi_1+ ub      d)
     1.15076665E-06    3    -1000024        -1         2   # BR(~chi_20 -> ~chi_1- db      u)
     1.15076665E-06    3     1000024        -4         3   # BR(~chi_20 -> ~chi_1+ cb      s)
     1.15076665E-06    3    -1000024        -3         4   # BR(~chi_20 -> ~chi_1- sb      c)
     3.83588907E-07    3     1000024       -12        11   # BR(~chi_20 -> ~chi_1+ nu_eb   e-)
     3.83588907E-07    3    -1000024        12       -11   # BR(~chi_20 -> ~chi_1- nu_e    e+)
     3.83588907E-07    3     1000024       -14        13   # BR(~chi_20 -> ~chi_1+ nu_mub  mu-)
     3.83588907E-07    3    -1000024        14       -13   # BR(~chi_20 -> ~chi_1- nu_mu   mu+)
     9.68545363E-08    3     1000024       -16        15   # BR(~chi_20 -> ~chi_1+ nu_taub tau-)
     9.68545363E-08    3    -1000024        16       -15   # BR(~chi_20 -> ~chi_1- nu_tau  tau+)
#
#         PDG            Width
DECAY   1000025     2.19015390E-04   # neutralino3 decays
#          BR         NDA      ID1       ID2
     3.82665996E-04    2     1000022        22   # BR(~chi_30 -> ~chi_10 gam)
     8.78291081E-06    2     1000023        22   # BR(~chi_30 -> ~chi_20 gam)
#          BR         NDA      ID1       ID2
     9.77478512E-03    2     1000039        22   # BR(~chi_30 -> ~G        gam)
     8.63982883E-03    2     1000039        23   # BR(~chi_30 -> ~G        Z)
     2.45474079E-04    2     1000039        25   # BR(~chi_30 -> ~G        h)
#           BR         NDA      ID1       ID2       ID3
     1.05176542E-05    3     1000022        -2         2   # BR(~chi_30 -> ~chi_10 ub      u)
     1.24620947E-05    3     1000022        -1         1   # BR(~chi_30 -> ~chi_10 db      d)
     1.05176542E-05    3     1000022        -4         4   # BR(~chi_30 -> ~chi_10 cb      c)
     1.24620947E-05    3     1000022        -3         3   # BR(~chi_30 -> ~chi_10 sb      s)
     2.37023190E-05    3     1000022        -5         5   # BR(~chi_30 -> ~chi_10 bb      b)
     2.16711327E-06    3     1000022       -11        11   # BR(~chi_30 -> ~chi_10 e+      e-)
     2.16711327E-06    3     1000022       -13        13   # BR(~chi_30 -> ~chi_10 mu+     mu-)
     3.89246000E-06    3     1000022       -15        15   # BR(~chi_30 -> ~chi_10 tau+    tau-)
     6.10563950E-06    3     1000022       -12        12   # BR(~chi_30 -> ~chi_10 nu_eb   nu_e)
     6.10563950E-06    3     1000022       -14        14   # BR(~chi_30 -> ~chi_10 nu_mub  nu_mu)
     6.10563950E-06    3     1000022       -16        16   # BR(~chi_30 -> ~chi_10 nu_taub nu_tau)
     2.38758301E-02    3     1000023        -2         2   # BR(~chi_30 -> ~chi_20 ub      u)
     3.09150252E-02    3     1000023        -1         1   # BR(~chi_30 -> ~chi_20 db      d)
     2.38758301E-02    3     1000023        -4         4   # BR(~chi_30 -> ~chi_20 cb      c)
     3.09150252E-02    3     1000023        -3         3   # BR(~chi_30 -> ~chi_20 sb      s)
     2.68164862E-02    3     1000023        -5         5   # BR(~chi_30 -> ~chi_20 bb      b)
     7.06020314E-03    3     1000023       -11        11   # BR(~chi_30 -> ~chi_20 e+      e-)
     7.06020314E-03    3     1000023       -13        13   # BR(~chi_30 -> ~chi_20 mu+     mu-)
     6.96158388E-03    3     1000023       -15        15   # BR(~chi_30 -> ~chi_20 tau+    tau-)
     1.40993533E-02    3     1000023       -12        12   # BR(~chi_30 -> ~chi_20 nu_eb   nu_e)
     1.40993533E-02    3     1000023       -14        14   # BR(~chi_30 -> ~chi_20 nu_mub  nu_mu)
     1.40993533E-02    3     1000023       -16        16   # BR(~chi_30 -> ~chi_20 nu_taub nu_tau)
     1.30307199E-01    3     1000024        -2         1   # BR(~chi_30 -> ~chi_1+ ub      d)
     1.30307199E-01    3    -1000024        -1         2   # BR(~chi_30 -> ~chi_1- db      u)
     1.30307199E-01    3     1000024        -4         3   # BR(~chi_30 -> ~chi_1+ cb      s)
     1.30307199E-01    3    -1000024        -3         4   # BR(~chi_30 -> ~chi_1- sb      c)
     4.34356684E-02    3     1000024       -12        11   # BR(~chi_30 -> ~chi_1+ nu_eb   e-)
     4.34356684E-02    3    -1000024        12       -11   # BR(~chi_30 -> ~chi_1- nu_e    e+)
     4.34356684E-02    3     1000024       -14        13   # BR(~chi_30 -> ~chi_1+ nu_mub  mu-)
     4.34356684E-02    3    -1000024        14       -13   # BR(~chi_30 -> ~chi_1- nu_mu   mu+)
     4.30512715E-02    3     1000024       -16        15   # BR(~chi_30 -> ~chi_1+ nu_taub tau-)
     4.30512715E-02    3    -1000024        16       -15   # BR(~chi_30 -> ~chi_1- nu_tau  tau+)
#
#         PDG            Width
DECAY   1000035     3.84122267E+01   # neutralino4 decays
#          BR         NDA      ID1       ID2
     7.53936828E-04    2     1000022        23   # BR(~chi_40 -> ~chi_10   Z )
     2.51374003E-01    2     1000023        23   # BR(~chi_40 -> ~chi_20   Z )
     8.75978621E-04    2     1000025        23   # BR(~chi_40 -> ~chi_30   Z )
     2.46375424E-01    2     1000024       -24   # BR(~chi_40 -> ~chi_1+   W-)
     2.46375424E-01    2    -1000024        24   # BR(~chi_40 -> ~chi_1-   W+)
     1.14751533E-01    2     1000022        25   # BR(~chi_40 -> ~chi_10   h )
     1.60422957E-03    2     1000023        25   # BR(~chi_40 -> ~chi_20   h )
     1.37880521E-01    2     1000025        25   # BR(~chi_40 -> ~chi_30   h )
     2.14598901E-06    2     1000039        22   # BR(~chi_40 -> ~G        gam)
     6.80157503E-06    2     1000039        23   # BR(~chi_40 -> ~G        Z)
     6.18638084E-10    2     1000039        25   # BR(~chi_40 -> ~G        h)
     9.40936306E-10    2     1000039        35   # BR(~chi_40 -> ~G        H)
     1.39987403E-11    2     1000039        36   # BR(~chi_40 -> ~G        A)
#
#         PDG            Width
DECAY        25     4.22025219E-03   # h decays
#          BR         NDA      ID1       ID2
     6.02052603E-01    2           5        -5   # BR(h -> b       bb     )
     6.22116260E-02    2         -15        15   # BR(h -> tau+    tau-   )
     2.20202034E-04    2         -13        13   # BR(h -> mu+     mu-    )
     4.65904825E-04    2           3        -3   # BR(h -> s       sb     )
     2.00997062E-02    2           4        -4   # BR(h -> c       cb     )
     6.63801778E-02    2          21        21   # BR(h -> g       g      )
     2.30624482E-03    2          22        22   # BR(h -> gam     gam    )
     1.62590308E-03    2          22        23   # BR(h -> Z       gam    )
     2.16569281E-01    2          24       -24   # BR(h -> W+      W-     )
     2.80683519E-02    2          23        23   # BR(h -> Z       Z      )
#
#         PDG            Width
DECAY        35     3.78108834E+01   # H decays
#          BR         NDA      ID1       ID2
     1.46904013E-03    2           5        -5   # BR(H -> b       bb     )
     2.46423088E-04    2         -15        15   # BR(H -> tau+    tau-   )
     8.71197359E-07    2         -13        13   # BR(H -> mu+     mu-    )
     1.11544966E-06    2           3        -3   # BR(H -> s       sb     )
     1.00668033E-05    2           4        -4   # BR(H -> c       cb     )
     9.96064035E-01    2           6        -6   # BR(H -> t       tb     )
     7.97746358E-04    2          21        21   # BR(H -> g       g      )
     2.71234627E-06    2          22        22   # BR(H -> gam     gam    )
     1.15998617E-06    2          23        22   # BR(H -> Z       gam    )
     3.35904125E-04    2          24       -24   # BR(H -> W+      W-     )
     1.67493971E-04    2          23        23   # BR(H -> Z       Z      )
     9.03431370E-04    2          25        25   # BR(H -> h       h      )
     7.60218999E-24    2          36        36   # BR(H -> A       A      )
     3.01451499E-11    2          23        36   # BR(H -> Z       A      )
     6.97058890E-12    2          24       -37   # BR(H -> W+      H-     )
     6.97058890E-12    2         -24        37   # BR(H -> W-      H+     )
#
#         PDG            Width
DECAY        36     3.82382030E+01   # A decays
#          BR         NDA      ID1       ID2
     1.47198383E-03    2           5        -5   # BR(A -> b       bb     )
     2.43897873E-04    2         -15        15   # BR(A -> tau+    tau-   )
     8.62267089E-07    2         -13        13   # BR(A -> mu+     mu-    )
     1.13677467E-06    2           3        -3   # BR(A -> s       sb     )
     9.96177108E-06    2           4        -4   # BR(A -> c       cb     )
     9.96996618E-01    2           6        -6   # BR(A -> t       tb     )
     9.43676240E-04    2          21        21   # BR(A -> g       g      )
     3.17091458E-06    2          22        22   # BR(A -> gam     gam    )
     1.35257415E-06    2          23        22   # BR(A -> Z       gam    )
     3.27339872E-04    2          23        25   # BR(A -> Z       h      )
#
#         PDG            Width
DECAY        37     3.74472639E+01   # H+ decays
#          BR         NDA      ID1       ID2
     2.35986126E-06    2           4        -5   # BR(H+ -> c       bb     )
     2.49237599E-04    2         -15        16   # BR(H+ -> tau+    nu_tau )
     8.81144946E-07    2         -13        14   # BR(H+ -> mu+     nu_mu  )
     1.50032258E-08    2           2        -5   # BR(H+ -> u       bb     )
     5.45694235E-08    2           2        -3   # BR(H+ -> u       sb     )
     1.08731646E-05    2           4        -3   # BR(H+ -> c       sb     )
     9.99401092E-01    2           6        -5   # BR(H+ -> t       bb     )
     3.35486973E-04    2          24        25   # BR(H+ -> W+      h      )
     2.77345526E-13    2          24        36   # BR(H+ -> W+      A      )
