#
#                              ======================
#                              | THE SUSYHIT OUTPUT |
#                              ======================
#
#
#              ------------------------------------------------------
#              |     This is the output of the SUSY-HIT package     |
#              |  created by A.Djouadi, M.Muehlleitner and M.Spira. |
#              |  In case of problems with SUSY-HIT email to        |
#              |           margarete.muehlleitner@cern.ch           |
#              |           michael.spira@psi.ch                     |
#              |           abdelhak.djouadi@cern.ch                 |
#              ------------------------------------------------------
#
#              ------------------------------------------------------
#              |  SUSY Les Houches Accord - MSSM Spectrum + Decays  |
#              |              based on the decay programs           |
#              |                                                    |
#              |                     SDECAY 1.3b                    |
#              |                                                    |
#              |  Authors: M.Muhlleitner, A.Djouadi and Y.Mambrini  |
#              |  Ref.:    Comput.Phys.Commun.168(2005)46           |
#              |           [hep-ph/0311167]                         |
#              |                                                    |
#              |                     HDECAY 3.4                     |
#              |                                                    |
#              |  By: A.Djouadi,J.Kalinowski,M.Muhlleitner,M.Spira  |
#              |  Ref.:    Comput.Phys.Commun.108(1998)56           |
#              |           [hep-ph/9704448]                         |
#              |                                                    |
#              |                                                    |
#              |  If not stated otherwise all DRbar couplings and   |
#              |  soft SUSY breaking masses are given at the scale  |
#              |  Q=  0.91187600E+02
#              |                                                    |
#              ------------------------------------------------------
#
#
BLOCK DCINFO  # Decay Program information
     1   SDECAY/HDECAY # decay calculator
     2   1.3b  /3.4    # version number
#
BLOCK SPINFO  # Spectrum calculator information
     1   SuSpect     # RGE +Spectrum calculator            
     2   2.41         # version number                     
#
BLOCK MODSEL  # Model selection
     1     0   # #general MSSM low scale                           
#
BLOCK SMINPUTS  # Standard Model inputs
         1     1.27934000E+02   # alpha_em^-1(M_Z)^MSbar
         2     1.16639000E-05   # G_F [GeV^-2]
         3     1.17200000E-01   # alpha_S(M_Z)^MSbar
         4     9.11870000E+01   # M_Z pole mass
         5     4.25000000E+00   # mb(mb)^MSbar
         6     1.72500000E+02   # mt pole mass
         7     1.77700000E+00   # mtau pole mass
#
BLOCK MINPAR  # Input parameters - minimal models
#
BLOCK EXTPAR  # Input parameters - non-minimal models
         0     9.11876000E+01   # EWSB                
         1     5.00000000E+03   # M_1                 
         2     6.45716000E+02   # M_2                 
         3     5.68366000E+03   # M_3                 
        11     0.00000000E+00   # A_t                 
        12     0.00000000E+00   # A_b                 
        13     0.00000000E+00   # A_tau               
        14     0.00000000E+00   # A_u                 
        15     0.00000000E+00   # A_d                 
        16     0.00000000E+00   # A_e                 
        23     5.00000000E+03   # mu(EWSB)            
        25     1.50000000E+00   # tanbeta(in)         
        26     2.00000000E+03   # MA_pole             
        31     5.00000000E+03   # M_eL                
        32     5.00000000E+03   # M_muL               
        33     5.00000000E+03   # M_tauL              
        34     5.00000000E+03   # M_eR                
        35     5.00000000E+03   # M_muR               
        36     5.00000000E+03   # M_tauR              
        41     5.00000000E+03   # M_q1L               
        42     5.00000000E+03   # M_q2L               
        43     5.00000000E+03   # M_q3L               
        44     5.00000000E+03   # M_uR                
        45     5.00000000E+03   # M_cR                
        46     5.00000000E+03   # M_tR                
        47     5.00000000E+03   # M_dR                
        48     5.00000000E+03   # M_sR                
        49     5.00000000E+03   # M_bR                
#
BLOCK MASS  # Mass Spectrum
# PDG code           mass       particle
        24     8.05295189E+01   # W+
        25     1.25000000E+02   # h
        35     2.00389183E+03   # H
        36     2.00000000E+03   # A
        37     1.99316899E+03   # H+
         5     4.87877839E+00   # b-quark pole mass calculated from mb(mb)_Msbar
   1000001     4.14521196E+03   # ~d_L
   2000001     4.14507866E+03   # ~d_R
   1000002     4.14491417E+03   # ~u_L
   2000002     4.14498511E+03   # ~u_R
   1000003     4.14521196E+03   # ~s_L
   2000003     4.14507866E+03   # ~s_R
   1000004     4.14491417E+03   # ~c_L
   2000004     4.14498511E+03   # ~c_R
   1000005     4.14269669E+03   # ~b_1
   2000005     4.14759412E+03   # ~b_2
   1000006     4.18141241E+03   # ~t_1
   2000006     4.37015423E+03   # ~t_2
   1000011     5.00008313E+03   # ~e_L
   2000011     5.00007615E+03   # ~e_R
   1000012     4.99984071E+03   # ~nu_eL
   1000013     5.00008313E+03   # ~mu_L
   2000013     5.00007615E+03   # ~mu_R
   1000014     4.99984071E+03   # ~nu_muL
   1000015     4.99874653E+03   # ~tau_1
   2000015     5.00141303E+03   # ~tau_2
   1000016     4.99984071E+03   # ~nu_tauL
   1000021     4.99999177E+03   # ~g
   1000022     6.99999882E+02   # ~chi_10
   1000023     5.19845813E+03   # ~chi_20
   1000025    -5.21672628E+03   # ~chi_30
   1000035     5.31519570E+03   # ~chi_40
   1000024     7.00000000E+02   # ~chi_1+
   1000037     5.21805908E+03   # ~chi_2+
 1000039     1.E-09   # ~gravitino              
#
BLOCK NMIX  # Neutralino Mixing Matrix
  1  1     1.58431425E-04   # N_11
  1  2    -9.99848192E-01   # N_12
  1  3     1.40383573E-02   # N_13
  1  4    -1.03194952E-02   # N_14
  2  1     4.09335570E-01   # N_21
  2  2     1.57802728E-02   # N_22
  2  3     6.45281994E-01   # N_23
  2  4    -6.44830615E-01   # N_24
  3  1     8.29675966E-04   # N_31
  3  2    -2.62949292E-03   # N_32
  3  3    -7.07087777E-01   # N_33
  3  4    -7.07120409E-01   # N_34
  4  1     9.12383515E-01   # N_41
  4  2    -6.90371740E-03   # N_42
  4  3    -2.88861470E-01   # N_43
  4  4     2.89944326E-01   # N_44
#
BLOCK UMIX  # Chargino Mixing Matrix U
  1  1    -9.99802955E-01   # U_11
  1  2     1.98507221E-02   # U_12
  2  1     1.98507221E-02   # U_21
  2  2     9.99802955E-01   # U_22
#
BLOCK VMIX  # Chargino Mixing Matrix V
  1  1    -9.99893515E-01   # V_11
  1  2     1.45931146E-02   # V_12
  2  1     1.45931146E-02   # V_21
  2  2     9.99893515E-01   # V_22
#
BLOCK STOPMIX  # Stop Mixing Matrix
  1  1     9.92387584E-01   # cos(theta_t)
  1  2     1.23153900E-01   # sin(theta_t)
  2  1    -1.23153900E-01   # -sin(theta_t)
  2  2     9.92387584E-01   # cos(theta_t)
#
BLOCK SBOTMIX  # Sbottom Mixing Matrix
  1  1     6.97417380E-01   # cos(theta_b)
  1  2     7.16665192E-01   # sin(theta_b)
  2  1    -7.16665192E-01   # -sin(theta_b)
  2  2     6.97417380E-01   # cos(theta_b)
#
BLOCK STAUMIX  # Stau Mixing Matrix
  1  1     7.06180681E-01   # cos(theta_tau)
  1  2     7.08031670E-01   # sin(theta_tau)
  2  1    -7.08031670E-01   # -sin(theta_tau)
  2  2     7.06180681E-01   # cos(theta_tau)
#
BLOCK ALPHA  # Higgs mixing
          -5.90292837E-01   # Mixing angle in the neutral Higgs boson sector
#
BLOCK HMIX Q=  9.11876000E+01  # DRbar Higgs Parameters
         1     5.00000000E+03   # mu(Q)               
         2     1.49999981E+00   # tanbeta(Q)          
         3     2.52281853E+02   # vev(Q)              
         4     3.15834759E+06   # MA^2(Q)             
#
BLOCK GAUGE Q=  9.11876000E+01  # The gauge couplings
     1     3.52525749E-01   # gprime(Q) DRbar
     2     6.28971787E-01   # g(Q) DRbar
     3     1.06418871E+00   # g3(Q) DRbar
#
BLOCK AU Q=  9.11876000E+01  # The trilinear couplings
  1  1     0.00000000E+00   # A_u(Q) DRbar
  2  2     0.00000000E+00   # A_c(Q) DRbar
  3  3     0.00000000E+00   # A_t(Q) DRbar
#
BLOCK AD Q=  9.11876000E+01  # The trilinear couplings
  1  1     0.00000000E+00   # A_d(Q) DRbar
  2  2     0.00000000E+00   # A_s(Q) DRbar
  3  3     0.00000000E+00   # A_b(Q) DRbar
#
BLOCK AE Q=  9.11876000E+01  # The trilinear couplings
  1  1     0.00000000E+00   # A_e(Q) DRbar
  2  2     0.00000000E+00   # A_mu(Q) DRbar
  3  3     0.00000000E+00   # A_tau(Q) DRbar
#
BLOCK Yu Q=  9.11876000E+01  # The Yukawa couplings
  1  1     0.00000000E+00   # y_u(Q) DRbar
  2  2     0.00000000E+00   # y_c(Q) DRbar
  3  3     1.01443860E+00   # y_t(Q) DRbar
#
BLOCK Yd Q=  9.11876000E+01  # The Yukawa couplings
  1  1     0.00000000E+00   # y_d(Q) DRbar
  2  2     0.00000000E+00   # y_s(Q) DRbar
  3  3     2.68334646E-02   # y_b(Q) DRbar
#
BLOCK Ye Q=  9.11876000E+01  # The Yukawa couplings
  1  1     0.00000000E+00   # y_e(Q) DRbar
  2  2     0.00000000E+00   # y_mu(Q) DRbar
  3  3     1.79533919E-02   # y_tau(Q) DRbar
#
BLOCK MSOFT Q=  9.11876000E+01  # The soft SUSY breaking masses at the scale Q
         1     5.00000000E+03   # M_1                 
         2     6.45716000E+02   # M_2                 
         3     5.68366000E+03   # M_3                 
        14     0.00000000E+00   # A_u                 
        15     0.00000000E+00   # A_d                 
        16     0.00000000E+00   # A_e                 
        21    -2.44111664E+07   # M^2_Hd              
        22    -2.88508534E+07   # M^2_Hu              
        31     5.00000000E+03   # M_eL                
        32     5.00000000E+03   # M_muL               
        33     5.00000000E+03   # M_tauL              
        34     5.00000000E+03   # M_eR                
        35     5.00000000E+03   # M_muR               
        36     5.00000000E+03   # M_tauR              
        41     5.00000000E+03   # M_q1L               
        42     5.00000000E+03   # M_q2L               
        43     5.00000000E+03   # M_q3L               
        44     5.00000000E+03   # M_uR                
        45     5.00000000E+03   # M_cR                
        46     5.00000000E+03   # M_tR                
        47     5.00000000E+03   # M_dR                
        48     5.00000000E+03   # M_sR                
        49     5.00000000E+03   # M_bR                
#
#
#
#                             =================
#                             |The decay table|
#                             =================
#
# - The QCD corrections to the decays gluino -> squark  + quark
#                                     squark -> gaugino + quark_prime
#                                     squark -> squark_prime + Higgs
#                                     squark -> gluino  + quark
#   are included.
#
# - The multi-body decays for the inos, stops and sbottoms are included.
#
# - The loop induced decays for the gluino, neutralinos and stops
#   are included.
#
# - The SUSY decays of the top quark are included.
#
# - Possible decays of the NLSP in GMSB models are included.
#
#
#         PDG            Width
DECAY         6     1.36769456E+00   # top decays
#          BR         NDA      ID1       ID2
     1.00000000E+00    2           5        24   # BR(t ->  b    W+)
#
#         PDG            Width
DECAY   1000021     6.15582281E+01   # gluino decays
#          BR         NDA      ID1       ID2
     4.34720998E-02    2     1000001        -1   # BR(~g -> ~d_L  db)
     4.34720998E-02    2    -1000001         1   # BR(~g -> ~d_L* d )
     4.34843918E-02    2     2000001        -1   # BR(~g -> ~d_R  db)
     4.34843918E-02    2    -2000001         1   # BR(~g -> ~d_R* d )
     4.34995619E-02    2     1000002        -2   # BR(~g -> ~u_L  ub)
     4.34995619E-02    2    -1000002         2   # BR(~g -> ~u_L* u )
     4.34930192E-02    2     2000002        -2   # BR(~g -> ~u_R  ub)
     4.34930192E-02    2    -2000002         2   # BR(~g -> ~u_R* u )
     4.34720998E-02    2     1000003        -3   # BR(~g -> ~s_L  sb)
     4.34720998E-02    2    -1000003         3   # BR(~g -> ~s_L* s )
     4.34843918E-02    2     2000003        -3   # BR(~g -> ~s_R  sb)
     4.34843918E-02    2    -2000003         3   # BR(~g -> ~s_R* s )
     4.34995619E-02    2     1000004        -4   # BR(~g -> ~c_L  cb)
     4.34995619E-02    2    -1000004         4   # BR(~g -> ~c_L* c )
     4.34930192E-02    2     2000004        -4   # BR(~g -> ~c_R  cb)
     4.34930192E-02    2    -2000004         4   # BR(~g -> ~c_R* c )
     4.35900839E-02    2     1000005        -5   # BR(~g -> ~b_1  bb)
     4.35900839E-02    2    -1000005         5   # BR(~g -> ~b_1* b )
     4.33670757E-02    2     2000005        -5   # BR(~g -> ~b_2  bb)
     4.33670757E-02    2    -2000005         5   # BR(~g -> ~b_2* b )
     4.31585075E-02    2     1000006        -6   # BR(~g -> ~t_1  tb)
     4.31585075E-02    2    -1000006         6   # BR(~g -> ~t_1* t )
     2.19569667E-02    2     2000006        -6   # BR(~g -> ~t_2  tb)
     2.19569667E-02    2    -2000006         6   # BR(~g -> ~t_2* t )
     5.84415010E-05    2     1000039        21   # BR(~g -> ~G g)
#
#         PDG            Width
DECAY   1000006     4.66439632E+01   # stop1 decays
#          BR         NDA      ID1       ID2
     3.32731036E-01    2     1000022         6   # BR(~t_1 -> ~chi_10 t )
     6.67268964E-01    2     1000024         5   # BR(~t_1 -> ~chi_1+ b )
#
#         PDG            Width
DECAY   2000006    -3.60580185E-01   # stop2 decays
#          BR         NDA      ID1       ID2
     8.36497667E-01    2     1000022         6   # BR(~t_2 -> ~chi_10 t )
     1.67985818E+00    2     1000024         5   # BR(~t_2 -> ~chi_1+ b )
    -3.99365847E-01    2     1000006        25   # BR(~t_2 -> ~t_1    h )
    -2.58311219E-01    2     1000006        23   # BR(~t_2 -> ~t_1    Z )
    -4.33804593E-01    2     1000005        24   # BR(~t_2 -> ~b_1    W+)
    -4.24874184E-01    2     2000005        24   # BR(~t_2 -> ~b_2    W+)
#
#         PDG            Width
DECAY   1000005     2.17770285E+01   # sbottom1 decays
#          BR         NDA      ID1       ID2
     3.33939401E-01    2     1000022         5   # BR(~b_1 -> ~chi_10 b )
     6.66060599E-01    2    -1000024         6   # BR(~b_1 -> ~chi_1- t )
#
#         PDG            Width
DECAY   2000005     2.35333729E+01   # sbottom2 decays
#          BR         NDA      ID1       ID2
     3.33944093E-01    2     1000022         5   # BR(~b_2 -> ~chi_10 b )
     6.66055907E-01    2    -1000024         6   # BR(~b_2 -> ~chi_1- t )
#
#         PDG            Width
DECAY   1000002     4.57682488E+01   # sup_L decays
#          BR         NDA      ID1       ID2
     3.33300034E-01    2     1000022         2   # BR(~u_L -> ~chi_10 u)
     6.66699966E-01    2     1000024         1   # BR(~u_L -> ~chi_1+ d)
#
#         PDG            Width
DECAY   2000002     2.13916504E-07   # sup_R decays
#          BR         NDA      ID1       ID2
     1.00000000E+00    2     1000022         2   # BR(~u_R -> ~chi_10 u)
#
#         PDG            Width
DECAY   1000001     4.57678764E+01   # sdown_L decays
#          BR         NDA      ID1       ID2
     3.33366604E-01    2     1000022         1   # BR(~d_L -> ~chi_10 d)
     6.66633396E-01    2    -1000024         2   # BR(~d_L -> ~chi_1- u)
#
#         PDG            Width
DECAY   2000001     5.34803552E-08   # sdown_R decays
#          BR         NDA      ID1       ID2
     1.00000000E+00    2     1000022         1   # BR(~d_R -> ~chi_10 d)
#
#         PDG            Width
DECAY   1000004     4.57682488E+01   # scharm_L decays
#          BR         NDA      ID1       ID2
     3.33300034E-01    2     1000022         4   # BR(~c_L -> ~chi_10 c)
     6.66699966E-01    2     1000024         3   # BR(~c_L -> ~chi_1+ s)
#
#         PDG            Width
DECAY   2000004     2.13916504E-07   # scharm_R decays
#          BR         NDA      ID1       ID2
     1.00000000E+00    2     1000022         4   # BR(~c_R -> ~chi_10 c)
#
#         PDG            Width
DECAY   1000003     4.57678764E+01   # sstrange_L decays
#          BR         NDA      ID1       ID2
     3.33366604E-01    2     1000022         3   # BR(~s_L -> ~chi_10 s)
     6.66633396E-01    2    -1000024         4   # BR(~s_L -> ~chi_1- c)
#
#         PDG            Width
DECAY   2000003     5.34803552E-08   # sstrange_R decays
#          BR         NDA      ID1       ID2
     1.00000000E+00    2     1000022         3   # BR(~s_R -> ~chi_10 s)
#
#         PDG            Width
DECAY   1000011     5.67132272E+01   # selectron_L decays
#          BR         NDA      ID1       ID2
     3.33313972E-01    2     1000022        11   # BR(~e_L -> ~chi_10 e-)
     6.66686028E-01    2    -1000024        12   # BR(~e_L -> ~chi_1- nu_e)
#
#         PDG            Width
DECAY   2000011     5.96496972E-07   # selectron_R decays
#          BR         NDA      ID1       ID2
     1.00000000E+00    2     1000022        11   # BR(~e_R -> ~chi_10 e-)
#
#         PDG            Width
DECAY   1000013     5.67132272E+01   # smuon_L decays
#          BR         NDA      ID1       ID2
     3.33313972E-01    2     1000022        13   # BR(~mu_L -> ~chi_10 mu-)
     6.66686028E-01    2    -1000024        14   # BR(~mu_L -> ~chi_1- nu_mu)
#
#         PDG            Width
DECAY   2000013     5.96496972E-07   # smuon_R decays
#          BR         NDA      ID1       ID2
     1.00000000E+00    2     1000022        13   # BR(~mu_R -> ~chi_10 mu-)
#
#         PDG            Width
DECAY   1000015     2.83099571E+01   # stau_1 decays
#          BR         NDA      ID1       ID2
     3.33271740E-01    2     1000022        15   # BR(~tau_1 -> ~chi_10  tau-)
     6.66601334E-01    2    -1000024        16   # BR(~tau_1 -> ~chi_1-  nu_tau)
     1.26926637E-04    2     1000039        15   # BR(~tau_1 -> ~G       tau-)
#
#         PDG            Width
DECAY   2000015     2.84068642E+01   # stau_2 decays
#          BR         NDA      ID1       ID2
     3.33313887E-01    2     1000022        15   # BR(~tau_2 -> ~chi_10  tau-)
     6.66686113E-01    2    -1000024        16   # BR(~tau_2 -> ~chi_1-  nu_tau)
#
#         PDG            Width
DECAY   1000012     5.67238233E+01   # snu_eL decays
#          BR         NDA      ID1       ID2
     3.33352660E-01    2     1000022        12   # BR(~nu_eL -> ~chi_10 nu_e)
     6.66647340E-01    2     1000024        11   # BR(~nu_eL -> ~chi_1+ e-)
#
#         PDG            Width
DECAY   1000014     5.67238233E+01   # snu_muL decays
#          BR         NDA      ID1       ID2
     3.33352660E-01    2     1000022        14   # BR(~nu_muL -> ~chi_10 nu_mu)
     6.66647340E-01    2     1000024        13   # BR(~nu_muL -> ~chi_1+ mu-)
#
#         PDG            Width
DECAY   1000016     5.67238211E+01   # snu_tauL decays
#          BR         NDA      ID1       ID2
     3.33352673E-01    2     1000022        16   # BR(~nu_tauL -> ~chi_10 nu_tau)
     6.66647327E-01    2     1000024        15   # BR(~nu_tauL -> ~chi_1+ tau-)
#
#         PDG            Width
DECAY   1000024     2.06673957E-8   # chargino1+ decays               
#          BR         NDA      ID1       ID2
     1.00000000E+00    2     1000039        24   # BR(~chi_1+ -> ~G       W+)
#           BR         NDA      ID1       ID2       ID3
     1.84939798E-25    3     1000022         2        -1   # BR(~chi_1+ -> ~chi_10 u    db)
     1.84939798E-25    3     1000022         4        -3   # BR(~chi_1+ -> ~chi_10 c    sb)
     6.16389623E-26    3     1000022       -11        12   # BR(~chi_1+ -> ~chi_10 e+   nu_e)
     6.16389623E-26    3     1000022       -13        14   # BR(~chi_1+ -> ~chi_10 mu+  nu_mu)
#
#         PDG            Width
DECAY   1000037     8.95370033E+01   # chargino2+ decays
#          BR         NDA      ID1       ID2
     2.28093036E-05    2     1000002        -1   # BR(~chi_2+ -> ~u_L     db)
     4.21870075E-05    2    -1000001         2   # BR(~chi_2+ -> ~d_L*    u )
     2.28093036E-05    2     1000004        -3   # BR(~chi_2+ -> ~c_L     sb)
     4.21870075E-05    2    -1000003         4   # BR(~chi_2+ -> ~s_L*    c )
    -4.51560141E-03    2     1000006        -5   # BR(~chi_2+ -> ~t_1     bb)
     1.64978881E-01    2     2000006        -5   # BR(~chi_2+ -> ~t_2     bb)
     1.16374521E-01    2    -1000005         6   # BR(~chi_2+ -> ~b_1*    t )
     1.23057326E-01    2    -2000005         6   # BR(~chi_2+ -> ~b_2*    t )
     3.27505266E-07    2     1000012       -11   # BR(~chi_2+ -> ~nu_eL   e+  )
     3.27505266E-07    2     1000014       -13   # BR(~chi_2+ -> ~nu_muL  mu+ )
     1.56931347E-06    2     1000016       -15   # BR(~chi_2+ -> ~nu_tau1 tau+)
     6.04686218E-07    2    -1000011        12   # BR(~chi_2+ -> ~e_L+    nu_e)
     6.04686218E-07    2    -1000013        14   # BR(~chi_2+ -> ~mu_L+   nu_mu)
     5.94648556E-08    2    -1000015        16   # BR(~chi_2+ -> ~tau_1+  nu_tau)
     1.77433518E-06    2    -2000015        16   # BR(~chi_2+ -> ~tau_2+  nu_tau)
     1.41733169E-01    2     1000024        23   # BR(~chi_2+ -> ~chi_1+  Z )
     1.38275071E-01    2     1000022        24   # BR(~chi_2+ -> ~chi_10  W+)
     1.42248777E-01    2     1000024        25   # BR(~chi_2+ -> ~chi_1+  h )
     5.90934583E-02    2     1000024        35   # BR(~chi_2+ -> ~chi_1+  H )
     5.91763414E-02    2     1000024        36   # BR(~chi_2+ -> ~chi_1+  A )
     5.94047112E-02    2     1000022        37   # BR(~chi_2+ -> ~chi_10  H+)
     2.48557878E-05    2     1000039        24   # BR(~chi_2+ -> ~G       W+)
     1.32300040E-05    2     1000039        37   # BR(~chi_2+ -> ~G       H+)
#
#         PDG            Width
DECAY   1000022     2.06657872E-8   # neutralino1 decays              
#          BR         NDA      ID1       ID2
     2.51545892E-01    2     1000039        22   # BR(~chi_10 -> ~G        gam)
     7.48453841E-01    2     1000039        23   # BR(~chi_10 -> ~G        Z)
     2.66763114E-07    2     1000039        25   # BR(~chi_10 -> ~G        h)
#
#         PDG            Width
DECAY   1000023     7.67803829E+01   # neutralino2 decays
#          BR         NDA      ID1       ID2
     3.11412146E-03    2     1000022        23   # BR(~chi_20 -> ~chi_10   Z )
     1.34923925E-01    2     1000024       -24   # BR(~chi_20 -> ~chi_1+   W-)
     1.34923925E-01    2    -1000024        24   # BR(~chi_20 -> ~chi_1-   W+)
     1.35744384E-01    2     1000022        25   # BR(~chi_20 -> ~chi_10   h )
     3.99300484E-03    2     1000022        35   # BR(~chi_20 -> ~chi_10   H )
     5.34294886E-02    2     1000022        36   # BR(~chi_20 -> ~chi_10   A )
     5.77484738E-02    2     1000024       -37   # BR(~chi_20 -> ~chi_1+   H-)
     5.77484738E-02    2    -1000024        37   # BR(~chi_20 -> ~chi_1-   H+)
     5.83736875E-04    2     1000002        -2   # BR(~chi_20 -> ~u_L      ub)
     5.83736875E-04    2    -1000002         2   # BR(~chi_20 -> ~u_L*     u )
     6.41728699E-03    2     2000002        -2   # BR(~chi_20 -> ~u_R      ub)
     6.41728699E-03    2    -2000002         2   # BR(~chi_20 -> ~u_R*     u )
     2.52557512E-04    2     1000001        -1   # BR(~chi_20 -> ~d_L      db)
     2.52557512E-04    2    -1000001         1   # BR(~chi_20 -> ~d_L*     d )
     1.60411867E-03    2     2000001        -1   # BR(~chi_20 -> ~d_R      db)
     1.60411867E-03    2    -2000001         1   # BR(~chi_20 -> ~d_R*     d )
     5.83736875E-04    2     1000004        -4   # BR(~chi_20 -> ~c_L      cb)
     5.83736875E-04    2    -1000004         4   # BR(~chi_20 -> ~c_L*     c )
     6.41728699E-03    2     2000004        -4   # BR(~chi_20 -> ~c_R      cb)
     6.41728699E-03    2    -2000004         4   # BR(~chi_20 -> ~c_R*     c )
     2.52557512E-04    2     1000003        -3   # BR(~chi_20 -> ~s_L      sb)
     2.52557512E-04    2    -1000003         3   # BR(~chi_20 -> ~s_L*     s )
     1.60411867E-03    2     2000003        -3   # BR(~chi_20 -> ~s_R      sb)
     1.60411867E-03    2    -2000003         3   # BR(~chi_20 -> ~s_R*     s )
     1.03095067E-01    2     1000006        -6   # BR(~chi_20 -> ~t_1      tb)
     1.03095067E-01    2    -1000006         6   # BR(~chi_20 -> ~t_1*     t )
     8.76211326E-02    2     2000006        -6   # BR(~chi_20 -> ~t_2      tb)
     8.76211326E-02    2    -2000006         6   # BR(~chi_20 -> ~t_2*     t )
     1.55330090E-03    2     1000005        -5   # BR(~chi_20 -> ~b_1      bb)
     1.55330090E-03    2    -1000005         5   # BR(~chi_20 -> ~b_1*     b )
     4.79462892E-04    2     2000005        -5   # BR(~chi_20 -> ~b_2      bb)
     4.79462892E-04    2    -2000005         5   # BR(~chi_20 -> ~b_2*     b )
     4.48895644E-05    2     1000011       -11   # BR(~chi_20 -> ~e_L-     e+)
     4.48895644E-05    2    -1000011        11   # BR(~chi_20 -> ~e_L+     e-)
     1.57201620E-04    2     2000011       -11   # BR(~chi_20 -> ~e_R-     e+)
     1.57201620E-04    2    -2000011        11   # BR(~chi_20 -> ~e_R+     e-)
     4.48895644E-05    2     1000013       -13   # BR(~chi_20 -> ~mu_L-    mu+)
     4.48895644E-05    2    -1000013        13   # BR(~chi_20 -> ~mu_L+    mu-)
     1.57201620E-04    2     2000013       -13   # BR(~chi_20 -> ~mu_R-    mu+)
     1.57201620E-04    2    -2000013        13   # BR(~chi_20 -> ~mu_R+    mu-)
     1.06518615E-04    2     1000015       -15   # BR(~chi_20 -> ~tau_1-   tau+)
     1.06518615E-04    2    -1000015        15   # BR(~chi_20 -> ~tau_1+   tau-)
     9.67614768E-05    2     2000015       -15   # BR(~chi_20 -> ~tau_2-   tau+)
     9.67614768E-05    2    -2000015        15   # BR(~chi_20 -> ~tau_2+   tau-)
     3.41593698E-05    2     1000012       -12   # BR(~chi_20 -> ~nu_eL    nu_eb)
     3.41593698E-05    2    -1000012        12   # BR(~chi_20 -> ~nu_eL*   nu_e )
     3.41593698E-05    2     1000014       -14   # BR(~chi_20 -> ~nu_muL   nu_mub)
     3.41593698E-05    2    -1000014        14   # BR(~chi_20 -> ~nu_muL*  nu_mu )
     3.41593698E-05    2     1000016       -16   # BR(~chi_20 -> ~nu_tau1  nu_taub)
     3.41593698E-05    2    -1000016        16   # BR(~chi_20 -> ~nu_tau1* nu_tau )
     7.57486778E-06    2     1000039        22   # BR(~chi_20 -> ~G        gam)
     2.47180820E-05    2     1000039        23   # BR(~chi_20 -> ~G        Z)
     8.85036239E-07    2     1000039        25   # BR(~chi_20 -> ~G        h)
     1.19799391E-05    2     1000039        35   # BR(~chi_20 -> ~G        H)
     4.81673863E-07    2     1000039        36   # BR(~chi_20 -> ~G        A)
#
#         PDG            Width
DECAY   1000025     8.80483635E+01   # neutralino3 decays
#          BR         NDA      ID1       ID2
     1.40806155E-01    2     1000022        23   # BR(~chi_30 -> ~chi_10   Z )
     1.40573098E-01    2     1000024       -24   # BR(~chi_30 -> ~chi_1+   W-)
     1.40573098E-01    2    -1000024        24   # BR(~chi_30 -> ~chi_1-   W+)
     3.22291001E-03    2     1000022        25   # BR(~chi_30 -> ~chi_10   h )
     5.59227466E-02    2     1000022        35   # BR(~chi_30 -> ~chi_10   H )
     4.22927390E-03    2     1000022        36   # BR(~chi_30 -> ~chi_10   A )
     6.03622241E-02    2     1000024       -37   # BR(~chi_30 -> ~chi_1+   H-)
     6.03622241E-02    2    -1000024        37   # BR(~chi_30 -> ~chi_1-   H+)
     3.74618149E-07    2     1000002        -2   # BR(~chi_30 -> ~u_L      ub)
     3.74618149E-07    2    -1000002         2   # BR(~chi_30 -> ~u_L*     u )
     2.35175023E-08    2     2000002        -2   # BR(~chi_30 -> ~u_R      ub)
     2.35175023E-08    2    -2000002         2   # BR(~chi_30 -> ~u_R*     u )
     4.74176827E-07    2     1000001        -1   # BR(~chi_30 -> ~d_L      db)
     4.74176827E-07    2    -1000001         1   # BR(~chi_30 -> ~d_L*     d )
     5.87864460E-09    2     2000001        -1   # BR(~chi_30 -> ~d_R      db)
     5.87864460E-09    2    -2000001         1   # BR(~chi_30 -> ~d_R*     d )
     3.74618149E-07    2     1000004        -4   # BR(~chi_30 -> ~c_L      cb)
     3.74618149E-07    2    -1000004         4   # BR(~chi_30 -> ~c_L*     c )
     2.35175023E-08    2     2000004        -4   # BR(~chi_30 -> ~c_R      cb)
     2.35175023E-08    2    -2000004         4   # BR(~chi_30 -> ~c_R*     c )
     4.74176827E-07    2     1000003        -3   # BR(~chi_30 -> ~s_L      sb)
     4.74176827E-07    2    -1000003         3   # BR(~chi_30 -> ~s_L*     s )
     5.87864460E-09    2     2000003        -3   # BR(~chi_30 -> ~s_R      sb)
     5.87864460E-09    2    -2000003         3   # BR(~chi_30 -> ~s_R*     s )
     1.16530238E-01    2     1000006        -6   # BR(~chi_30 -> ~t_1      tb)
     1.16530238E-01    2    -1000006         6   # BR(~chi_30 -> ~t_1*     t )
     8.02495469E-02    2     2000006        -6   # BR(~chi_30 -> ~t_2      tb)
     8.02495469E-02    2    -2000006         6   # BR(~chi_30 -> ~t_2*     t )
     7.92266999E-05    2     1000005        -5   # BR(~chi_30 -> ~b_1      bb)
     7.92266999E-05    2    -1000005         5   # BR(~chi_30 -> ~b_1*     b )
     9.29796732E-05    2     2000005        -5   # BR(~chi_30 -> ~b_2      bb)
     9.29796732E-05    2    -2000005         5   # BR(~chi_30 -> ~b_2*     b )
     3.61265582E-09    2     1000011       -11   # BR(~chi_30 -> ~e_L-     e+)
     3.61265582E-09    2    -1000011        11   # BR(~chi_30 -> ~e_L+     e-)
     6.67028752E-10    2     2000011       -11   # BR(~chi_30 -> ~e_R-     e+)
     6.67028752E-10    2    -2000011        11   # BR(~chi_30 -> ~e_R+     e-)
     3.61265582E-09    2     1000013       -13   # BR(~chi_30 -> ~mu_L-    mu+)
     3.61265582E-09    2    -1000013        13   # BR(~chi_30 -> ~mu_L+    mu-)
     6.67028752E-10    2     2000013       -13   # BR(~chi_30 -> ~mu_R-    mu+)
     6.67028752E-10    2    -2000013        13   # BR(~chi_30 -> ~mu_R+    mu-)
     5.64327655E-07    2     1000015       -15   # BR(~chi_30 -> ~tau_1-   tau+)
     5.64327655E-07    2    -1000015        15   # BR(~chi_30 -> ~tau_1+   tau-)
     6.95916885E-07    2     2000015       -15   # BR(~chi_30 -> ~tau_2-   tau+)
     6.95916885E-07    2    -2000015        15   # BR(~chi_30 -> ~tau_2+   tau-)
     7.40039914E-09    2     1000012       -12   # BR(~chi_30 -> ~nu_eL    nu_eb)
     7.40039914E-09    2    -1000012        12   # BR(~chi_30 -> ~nu_eL*   nu_e )
     7.40039914E-09    2     1000014       -14   # BR(~chi_30 -> ~nu_muL   nu_mub)
     7.40039914E-09    2    -1000014        14   # BR(~chi_30 -> ~nu_muL*  nu_mu )
     7.40039914E-09    2     1000016       -16   # BR(~chi_30 -> ~nu_tau1  nu_taub)
     7.40039914E-09    2    -1000016        16   # BR(~chi_30 -> ~nu_tau1* nu_tau )
     1.59479727E-11    2     1000039        22   # BR(~chi_30 -> ~G        gam)
     9.70879990E-07    2     1000039        23   # BR(~chi_30 -> ~G        Z)
     2.42534618E-05    2     1000039        25   # BR(~chi_30 -> ~G        h)
     5.01176845E-07    2     1000039        35   # BR(~chi_30 -> ~G        H)
     1.28588147E-05    2     1000039        36   # BR(~chi_30 -> ~G        A)
#
#         PDG            Width
DECAY   1000035     3.61547723E+01   # neutralino4 decays
#          BR         NDA      ID1       ID2
     1.38505927E-03    2     1000022        23   # BR(~chi_40 -> ~chi_10   Z )
     4.73295147E-08    2     1000023        23   # BR(~chi_40 -> ~chi_20   Z )
     5.75303015E-04    2     1000025        23   # BR(~chi_40 -> ~chi_30   Z )
     5.59555913E-02    2     1000024       -24   # BR(~chi_40 -> ~chi_1+   W-)
     5.59555913E-02    2    -1000024        24   # BR(~chi_40 -> ~chi_1-   W+)
     1.75483231E-03    2     1000037       -24   # BR(~chi_40 -> ~chi_2+   W-)
     1.75483231E-03    2    -1000037        24   # BR(~chi_40 -> ~chi_2-   W+)
     5.62019509E-02    2     1000022        25   # BR(~chi_40 -> ~chi_10   h )
     1.56766354E-03    2     1000022        35   # BR(~chi_40 -> ~chi_10   H )
     2.27458263E-02    2     1000022        36   # BR(~chi_40 -> ~chi_10   A )
     2.44456978E-02    2     1000024       -37   # BR(~chi_40 -> ~chi_1+   H-)
     2.44456978E-02    2    -1000024        37   # BR(~chi_40 -> ~chi_1-   H+)
     4.47433192E-03    2     1000002        -2   # BR(~chi_40 -> ~u_L      ub)
     4.47433192E-03    2    -1000002         2   # BR(~chi_40 -> ~u_L*     u )
     7.77538524E-02    2     2000002        -2   # BR(~chi_40 -> ~u_R      ub)
     7.77538524E-02    2    -2000002         2   # BR(~chi_40 -> ~u_R*     u )
     5.25978092E-03    2     1000001        -1   # BR(~chi_40 -> ~d_L      db)
     5.25978092E-03    2    -1000001         1   # BR(~chi_40 -> ~d_L*     d )
     1.94362597E-02    2     2000001        -1   # BR(~chi_40 -> ~d_R      db)
     1.94362597E-02    2    -2000001         1   # BR(~chi_40 -> ~d_R*     d )
     4.47433192E-03    2     1000004        -4   # BR(~chi_40 -> ~c_L      cb)
     4.47433192E-03    2    -1000004         4   # BR(~chi_40 -> ~c_L*     c )
     7.77538524E-02    2     2000004        -4   # BR(~chi_40 -> ~c_R      cb)
     7.77538524E-02    2    -2000004         4   # BR(~chi_40 -> ~c_R*     c )
     5.25978092E-03    2     1000003        -3   # BR(~chi_40 -> ~s_L      sb)
     5.25978092E-03    2    -1000003         3   # BR(~chi_40 -> ~s_L*     s )
     1.94362597E-02    2     2000003        -3   # BR(~chi_40 -> ~s_R      sb)
     1.94362597E-02    2    -2000003         3   # BR(~chi_40 -> ~s_R*     s )
     6.23540767E-02    2     1000006        -6   # BR(~chi_40 -> ~t_1      tb)
     6.23540767E-02    2    -1000006         6   # BR(~chi_40 -> ~t_1*     t )
     7.86017045E-02    2     2000006        -6   # BR(~chi_40 -> ~t_2      tb)
     7.86017045E-02    2    -2000006         6   # BR(~chi_40 -> ~t_2*     t )
     1.17090143E-02    2     1000005        -5   # BR(~chi_40 -> ~b_1      bb)
     1.17090143E-02    2    -1000005         5   # BR(~chi_40 -> ~b_1*     b )
     1.37505947E-02    2     2000005        -5   # BR(~chi_40 -> ~b_2      bb)
     1.37505947E-02    2    -2000005         5   # BR(~chi_40 -> ~b_2*     b )
     9.74348106E-04    2     1000011       -11   # BR(~chi_40 -> ~e_L-     e+)
     9.74348106E-04    2    -1000011        11   # BR(~chi_40 -> ~e_L+     e-)
     4.00496699E-03    2     2000011       -11   # BR(~chi_40 -> ~e_R-     e+)
     4.00496699E-03    2    -2000011        11   # BR(~chi_40 -> ~e_R+     e-)
     9.74348106E-04    2     1000013       -13   # BR(~chi_40 -> ~mu_L-    mu+)
     9.74348106E-04    2    -1000013        13   # BR(~chi_40 -> ~mu_L+    mu-)
     4.00496699E-03    2     2000013       -13   # BR(~chi_40 -> ~mu_R-    mu+)
     4.00496699E-03    2    -2000013        13   # BR(~chi_40 -> ~mu_R+    mu-)
     2.47958406E-03    2     1000015       -15   # BR(~chi_40 -> ~tau_1-   tau+)
     2.47958406E-03    2    -1000015        15   # BR(~chi_40 -> ~tau_1+   tau-)
     2.50002912E-03    2     2000015       -15   # BR(~chi_40 -> ~tau_2-   tau+)
     2.50002912E-03    2    -2000015        15   # BR(~chi_40 -> ~tau_2+   tau-)
     1.02994889E-03    2     1000012       -12   # BR(~chi_40 -> ~nu_eL    nu_eb)
     1.02994889E-03    2    -1000012        12   # BR(~chi_40 -> ~nu_eL*   nu_e )
     1.02994889E-03    2     1000014       -14   # BR(~chi_40 -> ~nu_muL   nu_mub)
     1.02994889E-03    2    -1000014        14   # BR(~chi_40 -> ~nu_muL*  nu_mu )
     1.02994889E-03    2     1000016       -16   # BR(~chi_40 -> ~nu_tau1  nu_taub)
     1.02994889E-03    2    -1000016        16   # BR(~chi_40 -> ~nu_tau1* nu_tau )
     8.48366165E-05    2     1000039        22   # BR(~chi_40 -> ~G        gam)
     3.84488925E-05    2     1000039        23   # BR(~chi_40 -> ~G        Z)
     4.32324825E-07    2     1000039        25   # BR(~chi_40 -> ~G        h)
     5.89219652E-06    2     1000039        35   # BR(~chi_40 -> ~G        H)
     2.31854758E-07    2     1000039        36   # BR(~chi_40 -> ~G        A)
#
#         PDG            Width
DECAY        25     4.11668603E-03   # h decays
#          BR         NDA      ID1       ID2
     6.20257754E-01    2           5        -5   # BR(h -> b       bb     )
     6.32857118E-02    2         -15        15   # BR(h -> tau+    tau-   )
     2.24008112E-04    2         -13        13   # BR(h -> mu+     mu-    )
     4.74689535E-04    2           3        -3   # BR(h -> s       sb     )
     2.04711907E-02    2           4        -4   # BR(h -> c       cb     )
     6.65107465E-02    2          21        21   # BR(h -> g       g      )
     2.28686134E-03    2          22        22   # BR(h -> gam     gam    )
     1.52524922E-03    2          22        23   # BR(h -> Z       gam    )
     1.99539550E-01    2          24       -24   # BR(h -> W+      W-     )
     2.54242387E-02    2          23        23   # BR(h -> Z       Z      )
#
#         PDG            Width
DECAY        35     3.76320226E+01   # H decays
#          BR         NDA      ID1       ID2
     1.42989798E-03    2           5        -5   # BR(H -> b       bb     )
     2.47549135E-04    2         -15        15   # BR(H -> tau+    tau-   )
     8.75178355E-07    2         -13        13   # BR(H -> mu+     mu-    )
     1.12051505E-06    2           3        -3   # BR(H -> s       sb     )
     1.01163050E-05    2           4        -4   # BR(H -> c       cb     )
     9.96072813E-01    2           6        -6   # BR(H -> t       tb     )
     7.95955153E-04    2          21        21   # BR(H -> g       g      )
     2.72741488E-06    2          22        22   # BR(H -> gam     gam    )
     1.15473029E-06    2          23        22   # BR(H -> Z       gam    )
     3.64487459E-04    2          24       -24   # BR(H -> W+      W-     )
     1.81746088E-04    2          23        23   # BR(H -> Z       Z      )
     8.74094903E-04    2          25        25   # BR(H -> h       h      )
     5.62442447E-24    2          36        36   # BR(H -> A       A      )
     2.55948349E-11    2          23        36   # BR(H -> Z       A      )
     9.93840421E-09    2          24       -37   # BR(H -> W+      H-     )
     9.93840421E-09    2         -24        37   # BR(H -> W-      H+     )
     1.16273529E-05    2     1000024  -1000024   # BR(H -> ~chi_1+ ~chi_1-)
     5.81534813E-06    2     1000022   1000022   # BR(H -> ~chi_10 ~chi_10)
#
#         PDG            Width
DECAY        36     3.80567862E+01   # A decays
#          BR         NDA      ID1       ID2
     1.43349725E-03    2           5        -5   # BR(A -> b       bb     )
     2.45060541E-04    2         -15        15   # BR(A -> tau+    tau-   )
     8.66377541E-07    2         -13        13   # BR(A -> mu+     mu-    )
     1.14215124E-06    2           3        -3   # BR(A -> s       sb     )
     1.00088729E-05    2           4        -4   # BR(A -> c       cb     )
     9.96717489E-01    2           6        -6   # BR(A -> t       tb     )
     9.42043209E-04    2          21        21   # BR(A -> g       g      )
     2.97715095E-06    2          22        22   # BR(A -> gam     gam    )
     1.34638967E-06    2          23        22   # BR(A -> Z       gam    )
     3.55337268E-04    2          23        25   # BR(A -> Z       h      )
     1.93465498E-04    2     1000024  -1000024   # BR(A -> ~chi_1+ ~chi_1-)
     9.67662152E-05    2     1000022   1000022   # BR(A -> ~chi_10 ~chi_10)
#
#         PDG            Width
DECAY        37     3.71216007E+01   # H+ decays
#          BR         NDA      ID1       ID2
     2.27335160E-06    2           4        -5   # BR(H+ -> c       bb     )
     2.50376132E-04    2         -15        16   # BR(H+ -> tau+    nu_tau )
     8.85170083E-07    2         -13        14   # BR(H+ -> mu+     nu_mu  )
     1.44490557E-08    2           2        -5   # BR(H+ -> u       bb     )
     5.48477331E-08    2           2        -3   # BR(H+ -> u       sb     )
     1.09286368E-05    2           4        -3   # BR(H+ -> c       sb     )
     9.99374438E-01    2           6        -5   # BR(H+ -> t       bb     )
     3.61029648E-04    2          24        25   # BR(H+ -> W+      h      )
     1.53382220E-12    2     1000024   1000022   # BR(H+ -> ~chi_1+ ~chi_10)
