#
#                              ======================
#                              | THE SUSYHIT OUTPUT |
#                              ======================
#
#
#              ------------------------------------------------------
#              |     This is the output of the SUSY-HIT package     |
#              |  created by A.Djouadi, M.Muehlleitner and M.Spira. |
#              |  In case of problems with SUSY-HIT email to        |
#              |           margarete.muehlleitner@kit.edu           |
#              |           michael.spira@psi.ch                     |
#              |           abdelhak.djouadi@cern.ch                 |
#              ------------------------------------------------------
#
#              ------------------------------------------------------
#              |  SUSY Les Houches Accord - MSSM Spectrum + Decays  |
#              |              based on the decay programs           |
#              |                                                    |
#              |                     SDECAY 1.5                     |
#              |                                                    |
#              |  Authors: M.Muhlleitner, A.Djouadi and Y.Mambrini  |
#              |  Ref.:    Comput.Phys.Commun.168(2005)46           |
#              |           [hep-ph/0311167]                         |
#              |                                                    |
#              |                     HDECAY 3.4                     |
#              |                                                    |
#              |  By: A.Djouadi,J.Kalinowski,M.Muhlleitner,M.Spira  |
#              |  Ref.:    Comput.Phys.Commun.108(1998)56           |
#              |           [hep-ph/9704448]                         |
#              |                                                    |
#              |                                                    |
#              |  If not stated otherwise all DRbar couplings and   |
#              |  soft SUSY breaking masses are given at the scale  |
#              |  Q=  0.91187600E+02
#              |                                                    |
#              ------------------------------------------------------
#
#
BLOCK DCINFO  # Decay Program information
     1   SDECAY/HDECAY # decay calculator
     2   1.5  /3.4    # version number
#
BLOCK SPINFO  # Spectrum calculator information
     1   SuSpect     # RGE +Spectrum calculator            
     2   2.43         # version number                     
#
BLOCK MODSEL  # Model selection
     1     2   # GMSB                                              
#
BLOCK SMINPUTS  # Standard Model inputs
         1     1.27932904E+02   # alpha_em^-1(M_Z)^MSbar
         2     1.16639000E-05   # G_F [GeV^-2]
         3     1.17200000E-01   # alpha_S(M_Z)^MSbar
         4     9.11870000E+01   # M_Z pole mass
         5     4.25000000E+00   # mb(mb)^MSbar
         6     1.72900000E+02   # mt pole mass
         7     1.77700000E+00   # mtau pole mass
#
BLOCK MINPAR  # Input parameters - minimal models
#
BLOCK EXTPAR  # Input parameters - non-minimal models
         0     9.11876000E+01   # EWSB                
         1     6.57000000E+02   # M_1                 
         2     3.00000000E+03   # M_2                 
         3     2.10000000E+03   # M_3                 
        11     0.00000000E+00   # A_t                 
        12     0.00000000E+00   # A_b                 
        13     0.00000000E+00   # A_tau               
        14     0.00000000E+00   # A_u                 
        15     0.00000000E+00   # A_d                 
        16     0.00000000E+00   # A_e                 
        23     6.50000000E+02   # mu(EWSB)            
        25     1.50000000E+00   # tanbeta(in)         
        26     2.00000000E+03   # MA_pole             
        31     5.00000000E+03   # M_eL                
        32     5.00000000E+03   # M_muL               
        33     5.00000000E+03   # M_tauL              
        34     5.00000000E+03   # M_eR                
        35     5.00000000E+03   # M_muR               
        36     5.00000000E+03   # M_tauR              
        41     5.00000000E+03   # M_q1L               
        42     5.00000000E+03   # M_q2L               
        43     5.00000000E+03   # M_q3L               
        44     5.00000000E+03   # M_uR                
        45     5.00000000E+03   # M_cR                
        46     5.00000000E+03   # M_tR                
        47     5.00000000E+03   # M_dR                
        48     5.00000000E+03   # M_sR                
        49     5.00000000E+03   # M_bR                
#
BLOCK MASS  # Mass Spectrum
# PDG code           mass       particle
        24     8.05394395E+01   # W+
        25     1.26000000E+02   # h
        35     2.00427283E+03   # H
        36     2.00000000E+03   # A
        37     2.00174291E+03   # H+
         5     4.87877839E+00   # b-quark pole mass calculated from mb(mb)_Msbar
   1000001     4.93206245E+03   # ~d_L
   2000001     4.93195204E+03   # ~d_R
   1000002     4.93181565E+03   # ~u_L
   2000002     4.93187408E+03   # ~u_R
   1000003     4.93206245E+03   # ~s_L
   2000003     4.93195204E+03   # ~s_R
   1000004     4.93181565E+03   # ~c_L
   2000004     4.93187408E+03   # ~c_R
   1000005     4.93173357E+03   # ~b_1
   2000005     4.93228238E+03   # ~b_2
   1000006     5.06138185E+03   # ~t_1
   2000006     5.36268807E+03   # ~t_2
   1000011     5.00008233E+03   # ~e_L
   2000011     5.00007603E+03   # ~e_R
   1000012     4.99984164E+03   # ~nu_eL
   1000013     5.00008233E+03   # ~mu_L
   2000013     5.00007603E+03   # ~mu_R
   1000014     4.99984164E+03   # ~nu_muL
   1000015     4.99990613E+03   # ~tau_1
   2000015     5.00025285E+03   # ~tau_2
   1000016     4.99984164E+03   # ~nu_tauL
   1000021     2.15115777E+03   # ~g
   1000022     6.51783913E+02   # ~chi_10
   1000023    -6.96976316E+02   # ~chi_20
   1000025     7.38946826E+02   # ~chi_30
   1000035     3.12900903E+03   # ~chi_40
   1000024     6.94447449E+02   # ~chi_1+
   1000037     3.12900830E+03   # ~chi_2+
   1000039     1.00000000E-09   # ~gravitino
#
BLOCK NMIX  # Neutralino Mixing Matrix
  1  1     6.99091343E-01   # N_11
  1  2    -2.23715458E-02   # N_12
  1  3     5.08723373E-01   # N_13
  1  4    -5.01967467E-01   # N_14
  2  1     6.27120911E-03   # N_21
  2  2    -4.06605176E-03   # N_22
  2  3    -7.06788260E-01   # N_23
  2  4    -7.07385676E-01   # N_24
  3  1     7.15004632E-01   # N_31
  3  2     2.27284360E-02   # N_32
  3  3    -4.91185848E-01   # N_33
  3  4     4.96979132E-01   # N_34
  4  1     5.85986918E-04   # N_41
  4  2    -9.99483066E-01   # N_42
  4  3    -1.96811505E-02   # N_43
  4  4     2.54147511E-02   # N_44
#
BLOCK UMIX  # Chargino Mixing Matrix U
  1  1    -2.78224059E-02   # U_11
  1  2     9.99612882E-01   # U_12
  2  1     9.99612882E-01   # U_21
  2  2     2.78224059E-02   # U_22
#
BLOCK VMIX  # Chargino Mixing Matrix V
  1  1    -3.59335211E-02   # V_11
  1  2     9.99354182E-01   # V_12
  2  1     9.99354182E-01   # V_21
  2  2     3.59335211E-02   # V_22
#
BLOCK STOPMIX  # Stop Mixing Matrix
  1  1     9.99892067E-01   # cos(theta_t)
  1  2    -1.46919825E-02   # sin(theta_t)
  2  1     1.46919825E-02   # -sin(theta_t)
  2  2     9.99892067E-01   # cos(theta_t)
#
BLOCK SBOTMIX  # Sbottom Mixing Matrix
  1  1     6.31991951E-01   # cos(theta_b)
  1  2     7.74974950E-01   # sin(theta_b)
  2  1    -7.74974950E-01   # -sin(theta_b)
  2  2     6.31991951E-01   # cos(theta_b)
#
BLOCK STAUMIX  # Stau Mixing Matrix
  1  1     7.00650426E-01   # cos(theta_tau)
  1  2     7.13504717E-01   # sin(theta_tau)
  2  1    -7.13504717E-01   # -sin(theta_tau)
  2  2     7.00650426E-01   # cos(theta_tau)
#
BLOCK ALPHA  # Higgs mixing
          -5.90210074E-01   # Mixing angle in the neutral Higgs boson sector
#
BLOCK HMIX Q=  9.11876000E+01  # DRbar Higgs Parameters
         1     6.50000000E+02   # mu(Q)               
         2     1.49999979E+00   # tanbeta(Q)          
         3     2.51971204E+02   # vev(Q)              
         4     3.66594765E+06   # MA^2(Q)             
#
BLOCK GAUGE Q=  9.11876000E+01  # The gauge couplings
     1     3.52896856E-01   # gprime(Q) DRbar
     2     6.27898934E-01   # g(Q) DRbar
     3     1.07966745E+00   # g3(Q) DRbar
#
BLOCK AU Q=  9.11876000E+01  # The trilinear couplings
  1  1     0.00000000E+00   # A_u(Q) DRbar
  2  2     0.00000000E+00   # A_c(Q) DRbar
  3  3     0.00000000E+00   # A_t(Q) DRbar
#
BLOCK AD Q=  9.11876000E+01  # The trilinear couplings
  1  1     0.00000000E+00   # A_d(Q) DRbar
  2  2     0.00000000E+00   # A_s(Q) DRbar
  3  3     0.00000000E+00   # A_b(Q) DRbar
#
BLOCK AE Q=  9.11876000E+01  # The trilinear couplings
  1  1     0.00000000E+00   # A_e(Q) DRbar
  2  2     0.00000000E+00   # A_mu(Q) DRbar
  3  3     0.00000000E+00   # A_tau(Q) DRbar
#
BLOCK Yu Q=  9.11876000E+01  # The Yukawa couplings
  1  1     0.00000000E+00   # y_u(Q) DRbar
  2  2     0.00000000E+00   # y_c(Q) DRbar
  3  3     1.02644167E+00   # y_t(Q) DRbar
#
BLOCK Yd Q=  9.11876000E+01  # The Yukawa couplings
  1  1     0.00000000E+00   # y_d(Q) DRbar
  2  2     0.00000000E+00   # y_s(Q) DRbar
  3  3     2.72039099E-02   # y_b(Q) DRbar
#
BLOCK Ye Q=  9.11876000E+01  # The Yukawa couplings
  1  1     0.00000000E+00   # y_e(Q) DRbar
  2  2     0.00000000E+00   # y_mu(Q) DRbar
  3  3     1.79879228E-02   # y_tau(Q) DRbar
#
BLOCK MSOFT Q=  9.11876000E+01  # The soft SUSY breaking masses at the scale Q
         1     6.57000000E+02   # M_1                 
         2     3.00000000E+03   # M_2                 
         3     2.10000000E+03   # M_3                 
        14     0.00000000E+00   # A_u                 
        15     0.00000000E+00   # A_d                 
        16     0.00000000E+00   # A_e                 
        21     2.58273041E+06   # M^2_Hd              
        22    -5.78795941E+06   # M^2_Hu              
        31     5.00000000E+03   # M_eL                
        32     5.00000000E+03   # M_muL               
        33     5.00000000E+03   # M_tauL              
        34     5.00000000E+03   # M_eR                
        35     5.00000000E+03   # M_muR               
        36     5.00000000E+03   # M_tauR              
        41     5.00000000E+03   # M_q1L               
        42     5.00000000E+03   # M_q2L               
        43     5.00000000E+03   # M_q3L               
        44     5.00000000E+03   # M_uR                
        45     5.00000000E+03   # M_cR                
        46     5.00000000E+03   # M_tR                
        47     5.00000000E+03   # M_dR                
        48     5.00000000E+03   # M_sR                
        49     5.00000000E+03   # M_bR                
#
#
#
#                             =================
#                             |The decay table|
#                             =================
#
# - The QCD corrections to the decays gluino -> squark  + quark
#                                     squark -> gaugino + quark_prime
#                                     squark -> squark_prime + Higgs
#                                     squark -> gluino  + quark
#   are included.
#
# - The multi-body decays for the inos, stops and sbottoms are included.
#
# - The loop induced decays for the gluino, neutralinos and stops
#   are included.
#
# - The SUSY decays of the top quark are included.
#
# - Possible decays of the NLSP in GMSB models are included.
#
#
#         PDG            Width
DECAY         6     1.37372017E+00   # top decays
#          BR         NDA      ID1       ID2
     1.00000000E+00    2           5        24   # BR(t ->  b    W+)
#
#         PDG            Width
DECAY   1000021     2.89254128E-03   # gluino decays
#          BR         NDA      ID1       ID2
     4.89119112E-03    2     1000022        21   # BR(~g -> ~chi_10 g)
     9.10793577E-03    2     1000023        21   # BR(~g -> ~chi_20 g)
     4.14332036E-03    2     1000025        21   # BR(~g -> ~chi_30 g)
#          BR         NDA      ID1       ID2
0.0E+00    2     1000039    21 # BR(~g -> ~G      g)
#           BR         NDA      ID1       ID2       ID3
     5.07406323E-03    3     1000022         1        -1   # BR(~g -> ~chi_10 d  db)
     7.69788292E-07    3     1000023         1        -1   # BR(~g -> ~chi_20 d  db)
     3.94401592E-03    3     1000025         1        -1   # BR(~g -> ~chi_30 d  db)
     1.57670675E-02    3     1000022         2        -2   # BR(~g -> ~chi_10 u  ub)
     7.10530790E-07    3     1000023         2        -2   # BR(~g -> ~chi_20 u  ub)
     1.46086460E-02    3     1000025         2        -2   # BR(~g -> ~chi_30 u  ub)
     5.07406323E-03    3     1000022         3        -3   # BR(~g -> ~chi_10 s  sb)
     7.69788292E-07    3     1000023         3        -3   # BR(~g -> ~chi_20 s  sb)
     3.94401592E-03    3     1000025         3        -3   # BR(~g -> ~chi_30 s  sb)
     1.57670675E-02    3     1000022         4        -4   # BR(~g -> ~chi_10 c  cb)
     7.10530790E-07    3     1000023         4        -4   # BR(~g -> ~chi_20 c  cb)
     1.46086460E-02    3     1000025         4        -4   # BR(~g -> ~chi_30 c  cb)
     5.17124310E-03    3     1000022         5        -5   # BR(~g -> ~chi_10 b  bb)
     2.09487170E-04    3     1000023         5        -5   # BR(~g -> ~chi_20 b  bb)
     4.05154524E-03    3     1000025         5        -5   # BR(~g -> ~chi_30 b  bb)
     1.08155504E-01    3     1000022         6        -6   # BR(~g -> ~chi_10 t  tb)
     1.92943226E-01    3     1000023         6        -6   # BR(~g -> ~chi_20 t  tb)
     1.13343299E-01    3     1000025         6        -6   # BR(~g -> ~chi_30 t  tb)
     1.04562890E-04    3     1000024         1        -2   # BR(~g -> ~chi_1+ d  ub)
     1.04562890E-04    3    -1000024         2        -1   # BR(~g -> ~chi_1- u  db)
     1.04562890E-04    3     1000024         3        -4   # BR(~g -> ~chi_1+ s  cb)
     1.04562890E-04    3    -1000024         4        -3   # BR(~g -> ~chi_1- c  sb)
     2.30219995E-01    3     1000024         5        -6   # BR(~g -> ~chi_1+ b  tb)
     2.30219995E-01    3    -1000024         6        -5   # BR(~g -> ~chi_1- t  bb)
#
#         PDG            Width
DECAY   1000006     2.76909908E+02   # stop1 decays
#          BR         NDA      ID1       ID2
     6.26044446E-02    2     1000022         6   # BR(~t_1 -> ~chi_10 t )
     1.26361361E-01    2     1000023         6   # BR(~t_1 -> ~chi_20 t )
     6.58012217E-02    2     1000025         6   # BR(~t_1 -> ~chi_30 t )
     2.66877057E-02    2     1000035         6   # BR(~t_1 -> ~chi_40 t )
     8.39602602E-05    2     1000024         5   # BR(~t_1 -> ~chi_1+ b )
     5.31535996E-02    2     1000037         5   # BR(~t_1 -> ~chi_2+ b )
     6.45768530E-01    2     1000021         6   # BR(~t_1 -> ~g      t )
     7.90058278E-03    2     1000005        24   # BR(~t_1 -> ~b_1    W+)
     1.16385942E-02    2     2000005        24   # BR(~t_1 -> ~b_2    W+)
#
#         PDG            Width
DECAY   2000006     3.57135202E+02   # stop2 decays
#          BR         NDA      ID1       ID2
     6.96992053E-02    2     1000022         6   # BR(~t_2 -> ~chi_10 t )
     1.04959319E-01    2     1000023         6   # BR(~t_2 -> ~chi_20 t )
     6.57494615E-02    2     1000025         6   # BR(~t_2 -> ~chi_30 t )
    -2.49650637E-05    2     1000035         6   # BR(~t_2 -> ~chi_40 t )
     2.10084247E-01    2     1000024         5   # BR(~t_2 -> ~chi_1+ b )
    -4.98071483E-05    2     1000037         5   # BR(~t_2 -> ~chi_2+ b )
     5.49455218E-01    2     1000021         6   # BR(~t_2 -> ~g      t )
    -1.05165644E-04    2     1000006        25   # BR(~t_2 -> ~t_1    h )
     3.45845518E-05    2     1000006        23   # BR(~t_2 -> ~t_1    Z )
     7.91718305E-05    2     1000005        24   # BR(~t_2 -> ~b_1    W+)
     1.18731592E-04    2     2000005        24   # BR(~t_2 -> ~b_2    W+)
#
#         PDG            Width
DECAY   1000005     1.97900370E+02   # sbottom1 decays
#          BR         NDA      ID1       ID2
     6.01724934E-03    2     1000022         5   # BR(~b_1 -> ~chi_10 b )
     9.90891357E-05    2     1000023         5   # BR(~b_1 -> ~chi_20 b )
     4.10256313E-03    2     1000025         5   # BR(~b_1 -> ~chi_30 b )
     1.00656785E-02    2     1000035         5   # BR(~b_1 -> ~chi_40 b )
     8.87025193E-02    2    -1000024         6   # BR(~b_1 -> ~chi_1- t )
     2.02069282E-02    2    -1000037         6   # BR(~b_1 -> ~chi_2- t )
     8.70805972E-01    2     1000021         5   # BR(~b_1 -> ~g      b )
#
#         PDG            Width
DECAY   2000005     2.38103527E+02   # sbottom2 decays
#          BR         NDA      ID1       ID2
     2.06196358E-03    2     1000022         5   # BR(~b_2 -> ~chi_10 b )
     1.22380550E-04    2     1000023         5   # BR(~b_2 -> ~chi_20 b )
     2.97955090E-03    2     1000025         5   # BR(~b_2 -> ~chi_30 b )
     1.97490629E-02    2     1000035         5   # BR(~b_2 -> ~chi_40 b )
     2.12200883E-01    2    -1000024         6   # BR(~b_2 -> ~chi_1- t )
     3.96672476E-02    2    -1000037         6   # BR(~b_2 -> ~chi_2- t )
     7.23218912E-01    2     1000021         5   # BR(~b_2 -> ~g      b )
#
#         PDG            Width
DECAY   1000002     1.93019135E+02   # sup_L decays
#          BR         NDA      ID1       ID2
     1.09877941E-03    2     1000022         2   # BR(~u_L -> ~chi_10 u)
     7.74891310E-07    2     1000023         2   # BR(~u_L -> ~chi_20 u)
     2.26438342E-03    2     1000025         2   # BR(~u_L -> ~chi_30 u)
     3.46589747E-02    2     1000035         2   # BR(~u_L -> ~chi_40 u)
     2.39466125E-04    2     1000024         1   # BR(~u_L -> ~chi_1+ d)
     6.93153425E-02    2     1000037         1   # BR(~u_L -> ~chi_2+ d)
     8.92422279E-01    2     1000021         2   # BR(~u_L -> ~g      u)
#
#         PDG            Width
DECAY   2000002     1.82305902E+02   # sup_R decays
#          BR         NDA      ID1       ID2
     2.70727603E-02    2     1000022         2   # BR(~u_R -> ~chi_10 u)
     2.16765406E-06    2     1000023         2   # BR(~u_R -> ~chi_20 u)
     2.80377460E-02    2     1000025         2   # BR(~u_R -> ~chi_30 u)
     7.08513552E-09    2     1000035         2   # BR(~u_R -> ~chi_40 u)
     9.44887319E-01    2     1000021         2   # BR(~u_R -> ~g      u)
#
#         PDG            Width
DECAY   1000001     1.93025220E+02   # sdown_L decays
#          BR         NDA      ID1       ID2
     2.19075371E-03    2     1000022         1   # BR(~d_L -> ~chi_10 d)
     2.54632155E-06    2     1000023         1   # BR(~d_L -> ~chi_20 d)
     1.14109516E-03    2     1000025         1   # BR(~d_L -> ~chi_30 d)
     3.46794813E-02    2     1000035         1   # BR(~d_L -> ~chi_40 d)
     1.43563481E-04    2    -1000024         2   # BR(~d_L -> ~chi_1- u)
     6.93617862E-02    2    -1000037         2   # BR(~d_L -> ~chi_2- u)
     8.92480774E-01    2     1000021         1   # BR(~d_L -> ~g      d)
#
#         PDG            Width
DECAY   2000001     1.74775702E+02   # sdown_R decays
#          BR         NDA      ID1       ID2
     7.05991809E-03    2     1000022         1   # BR(~d_R -> ~chi_10 d)
     5.65271603E-07    2     1000023         1   # BR(~d_R -> ~chi_20 d)
     7.31156528E-03    2     1000025         1   # BR(~d_R -> ~chi_30 d)
     1.84770673E-09    2     1000035         1   # BR(~d_R -> ~chi_40 d)
     9.85627950E-01    2     1000021         1   # BR(~d_R -> ~g      d)
#
#         PDG            Width
DECAY   1000004     1.93019135E+02   # scharm_L decays
#          BR         NDA      ID1       ID2
     1.09877941E-03    2     1000022         4   # BR(~c_L -> ~chi_10 c)
     7.74891310E-07    2     1000023         4   # BR(~c_L -> ~chi_20 c)
     2.26438342E-03    2     1000025         4   # BR(~c_L -> ~chi_30 c)
     3.46589747E-02    2     1000035         4   # BR(~c_L -> ~chi_40 c)
     2.39466125E-04    2     1000024         3   # BR(~c_L -> ~chi_1+ s)
     6.93153425E-02    2     1000037         3   # BR(~c_L -> ~chi_2+ s)
     8.92422279E-01    2     1000021         4   # BR(~c_L -> ~g      c)
#
#         PDG            Width
DECAY   2000004     1.82305902E+02   # scharm_R decays
#          BR         NDA      ID1       ID2
     2.70727603E-02    2     1000022         4   # BR(~c_R -> ~chi_10 c)
     2.16765406E-06    2     1000023         4   # BR(~c_R -> ~chi_20 c)
     2.80377460E-02    2     1000025         4   # BR(~c_R -> ~chi_30 c)
     7.08513552E-09    2     1000035         4   # BR(~c_R -> ~chi_40 c)
     9.44887319E-01    2     1000021         4   # BR(~c_R -> ~g      c)
#
#         PDG            Width
DECAY   1000003     1.93025220E+02   # sstrange_L decays
#          BR         NDA      ID1       ID2
     2.19075371E-03    2     1000022         3   # BR(~s_L -> ~chi_10 s)
     2.54632155E-06    2     1000023         3   # BR(~s_L -> ~chi_20 s)
     1.14109516E-03    2     1000025         3   # BR(~s_L -> ~chi_30 s)
     3.46794813E-02    2     1000035         3   # BR(~s_L -> ~chi_40 s)
     1.43563481E-04    2    -1000024         4   # BR(~s_L -> ~chi_1- c)
     6.93617862E-02    2    -1000037         4   # BR(~s_L -> ~chi_2- c)
     8.92480774E-01    2     1000021         3   # BR(~s_L -> ~g      s)
#
#         PDG            Width
DECAY   2000003     1.74775702E+02   # sstrange_R decays
#          BR         NDA      ID1       ID2
     7.05991809E-03    2     1000022         3   # BR(~s_R -> ~chi_10 s)
     5.65271603E-07    2     1000023         3   # BR(~s_R -> ~chi_20 s)
     7.31156528E-03    2     1000025         3   # BR(~s_R -> ~chi_30 s)
     1.84770673E-09    2     1000035         3   # BR(~s_R -> ~chi_40 s)
     9.85627950E-01    2     1000021         3   # BR(~s_R -> ~g      s)
#
#         PDG            Width
DECAY   1000011     2.77632865E+01   # selectron_L decays
#          BR         NDA      ID1       ID2
     9.37052536E-02    2     1000022        11   # BR(~e_L -> ~chi_10 e-)
     1.99098948E-07    2     1000023        11   # BR(~e_L -> ~chi_20 e-)
     1.21822149E-01    2     1000025        11   # BR(~e_L -> ~chi_30 e-)
     2.60980186E-01    2     1000035        11   # BR(~e_L -> ~chi_40 e-)
     1.05168770E-03    2    -1000024        12   # BR(~e_L -> ~chi_1- nu_e)
     5.22440525E-01    2    -1000037        12   # BR(~e_L -> ~chi_2- nu_e)
#
#         PDG            Width
DECAY   2000011     2.38207563E+01   # selectron_R decays
#          BR         NDA      ID1       ID2
     4.91200051E-01    2     1000022        11   # BR(~e_R -> ~chi_10 e-)
     3.93311054E-05    2     1000023        11   # BR(~e_R -> ~chi_20 e-)
     5.08760486E-01    2     1000025        11   # BR(~e_R -> ~chi_30 e-)
     1.32192922E-07    2     1000035        11   # BR(~e_R -> ~chi_40 e-)
#
#         PDG            Width
DECAY   1000013     2.77632865E+01   # smuon_L decays
#          BR         NDA      ID1       ID2
     9.37052536E-02    2     1000022        13   # BR(~mu_L -> ~chi_10 mu-)
     1.99098948E-07    2     1000023        13   # BR(~mu_L -> ~chi_20 mu-)
     1.21822149E-01    2     1000025        13   # BR(~mu_L -> ~chi_30 mu-)
     2.60980186E-01    2     1000035        13   # BR(~mu_L -> ~chi_40 mu-)
     1.05168770E-03    2    -1000024        14   # BR(~mu_L -> ~chi_1- nu_mu)
     5.22440525E-01    2    -1000037        14   # BR(~mu_L -> ~chi_2- nu_mu)
#
#         PDG            Width
DECAY   2000013     2.38207563E+01   # smuon_R decays
#          BR         NDA      ID1       ID2
     4.91200051E-01    2     1000022        13   # BR(~mu_R -> ~chi_10 mu-)
     3.93311054E-05    2     1000023        13   # BR(~mu_R -> ~chi_20 mu-)
     5.08760486E-01    2     1000025        13   # BR(~mu_R -> ~chi_30 mu-)
     1.32192922E-07    2     1000035        13   # BR(~mu_R -> ~chi_40 mu-)
#
#         PDG            Width
DECAY   1000015     2.58350081E+01   # stau_1 decays
#          BR         NDA      ID1       ID2
     2.86599379E-01    2     1000022        15   # BR(~tau_1 -> ~chi_10  tau-)
     4.58398637E-04    2     1000023        15   # BR(~tau_1 -> ~chi_20  tau-)
     2.97903829E-01    2     1000025        15   # BR(~tau_1 -> ~chi_30  tau-)
     1.37439477E-01    2     1000035        15   # BR(~tau_1 -> ~chi_40  tau-)
     2.32733725E-03    2    -1000024        16   # BR(~tau_1 -> ~chi_1-  nu_tau)
     2.75132331E-01    2    -1000037        16   # BR(~tau_1 -> ~chi_2-  nu_tau)
     1.39247389E-04    2     1000039        15   # BR(~tau_1 -> ~G       tau-)
#
#         PDG            Width
DECAY   2000015     2.58454632E+01   # stau_2 decays
#          BR         NDA      ID1       ID2
     2.67516121E-01    2     1000022        15   # BR(~tau_2 -> ~chi_10  tau-)
     7.74558058E-04    2     1000023        15   # BR(~tau_2 -> ~chi_20  tau-)
     3.02559589E-01    2     1000025        15   # BR(~tau_2 -> ~chi_30  tau-)
     1.42962677E-01    2     1000035        15   # BR(~tau_2 -> ~chi_40  tau-)
     6.61562827E-08    2    -1000024        16   # BR(~tau_2 -> ~chi_1-  nu_tau)
     2.86186989E-01    2    -1000037        16   # BR(~tau_2 -> ~chi_2-  nu_tau)
#
#         PDG            Width
DECAY   1000012     2.77626449E+01   # snu_eL decays
#          BR         NDA      ID1       ID2
     1.17698404E-01    2     1000022        12   # BR(~nu_eL -> ~chi_10 nu_e)
     3.91280230E-05    2     1000023        12   # BR(~nu_eL -> ~chi_20 nu_e)
     9.71304258E-02    2     1000025        12   # BR(~nu_eL -> ~chi_30 nu_e)
     2.61285466E-01    2     1000035        12   # BR(~nu_eL -> ~chi_40 nu_e)
     1.75422165E-03    2     1000024        11   # BR(~nu_eL -> ~chi_1+ e-)
     5.22092355E-01    2     1000037        11   # BR(~nu_eL -> ~chi_2+ e-)
#
#         PDG            Width
DECAY   1000014     2.77626449E+01   # snu_muL decays
#          BR         NDA      ID1       ID2
     1.17698404E-01    2     1000022        14   # BR(~nu_muL -> ~chi_10 nu_mu)
     3.91280230E-05    2     1000023        14   # BR(~nu_muL -> ~chi_20 nu_mu)
     9.71304258E-02    2     1000025        14   # BR(~nu_muL -> ~chi_30 nu_mu)
     2.61285466E-01    2     1000035        14   # BR(~nu_muL -> ~chi_40 nu_mu)
     1.75422165E-03    2     1000024        13   # BR(~nu_muL -> ~chi_1+ mu-)
     5.22092355E-01    2     1000037        13   # BR(~nu_muL -> ~chi_2+ mu-)
#
#         PDG            Width
DECAY   1000016     2.77935841E+01   # snu_tauL decays
#          BR         NDA      ID1       ID2
     1.17567384E-01    2     1000022        16   # BR(~nu_tauL -> ~chi_10 nu_tau)
     3.90844665E-05    2     1000023        16   # BR(~nu_tauL -> ~chi_20 nu_tau)
     9.70223022E-02    2     1000025        16   # BR(~nu_tauL -> ~chi_30 nu_tau)
     2.60994608E-01    2     1000035        16   # BR(~nu_tauL -> ~chi_40 nu_tau)
     2.86486463E-03    2     1000024        15   # BR(~nu_tauL -> ~chi_1+ tau-)
     5.21511756E-01    2     1000037        15   # BR(~nu_tauL -> ~chi_2+ tau-)
#
#         PDG            Width
DECAY   1000024     8.83045064E-05   # chargino1+ decays
#          BR         NDA      ID1       ID2
     1.00019881E-03    2     1000039        24   # BR(~chi_1+ -> ~G       W+)
#           BR         NDA      ID1       ID2       ID3
     3.33317085E-01    3     1000022         2        -1   # BR(~chi_1+ -> ~chi_10 u    db)
     3.33317085E-01    3     1000022         4        -3   # BR(~chi_1+ -> ~chi_10 c    sb)
     1.11105827E-01    3     1000022       -11        12   # BR(~chi_1+ -> ~chi_10 e+   nu_e)
     1.11105827E-01    3     1000022       -13        14   # BR(~chi_1+ -> ~chi_10 mu+  nu_mu)
     1.10153977E-01    3     1000022       -15        16   # BR(~chi_1+ -> ~chi_10 tau+ nu_tau)
#
#         PDG            Width
DECAY   1000037     3.58750486E+01   # chargino2+ decays
#          BR         NDA      ID1       ID2
     2.34618392E-01    2     1000024        23   # BR(~chi_2+ -> ~chi_1+  Z )
     1.10561302E-01    2     1000022        24   # BR(~chi_2+ -> ~chi_10  W+)
     2.28642170E-01    2     1000023        24   # BR(~chi_2+ -> ~chi_20  W+)
     1.18183751E-01    2     1000025        24   # BR(~chi_2+ -> ~chi_30  W+)
     2.35698657E-01    2     1000024        25   # BR(~chi_2+ -> ~chi_1+  h )
     1.79452628E-02    2     1000024        35   # BR(~chi_2+ -> ~chi_1+  H )
     1.81904324E-02    2     1000024        36   # BR(~chi_2+ -> ~chi_1+  A )
     1.02515328E-02    2     1000022        37   # BR(~chi_2+ -> ~chi_10  H+)
     1.79937174E-02    2     1000023        37   # BR(~chi_2+ -> ~chi_20  H+)
     7.90518556E-03    2     1000025        37   # BR(~chi_2+ -> ~chi_30  H+)
     9.59643533E-06    2     1000039        24   # BR(~chi_2+ -> ~G       W+)
     5.46946171E-10    2     1000039        37   # BR(~chi_2+ -> ~G       H+)
#
#         PDG            Width
DECAY   1000022    1.0E-05    # neutralino1 decays
#          BR         NDA      ID1       ID2
     5.02169911E-01    2     1000039        22   # BR(~chi_10 -> ~G        gam)
     4.87033574E-01    2     1000039        23   # BR(~chi_10 -> ~G        Z)
     1.07965151E-02    2     1000039        25   # BR(~chi_10 -> ~G        h)
#
#         PDG            Width
DECAY   1000023     9.51024541E-05   # neutralino2 decays
#          BR         NDA      ID1       ID2
     4.63724400E-04    2     1000022        22   # BR(~chi_20 -> ~chi_10 gam)
#          BR         NDA      ID1       ID2
     2.40402404E-08    2     1000039        22   # BR(~chi_20 -> ~G        gam)
     3.59650220E-05    2     1000039        23   # BR(~chi_20 -> ~G        Z)
     8.38935343E-04    2     1000039        25   # BR(~chi_20 -> ~G        h)
#           BR         NDA      ID1       ID2       ID3
     1.18763763E-01    3     1000022        -2         2   # BR(~chi_20 -> ~chi_10 ub      u)
     1.53756950E-01    3     1000022        -1         1   # BR(~chi_20 -> ~chi_10 db      d)
     1.18763763E-01    3     1000022        -4         4   # BR(~chi_20 -> ~chi_10 cb      c)
     1.53756950E-01    3     1000022        -3         3   # BR(~chi_20 -> ~chi_10 sb      s)
     1.38398034E-01    3     1000022        -5         5   # BR(~chi_20 -> ~chi_10 bb      b)
     3.51043051E-02    3     1000022       -11        11   # BR(~chi_20 -> ~chi_10 e+      e-)
     3.51043051E-02    3     1000022       -13        13   # BR(~chi_20 -> ~chi_10 mu+     mu-)
     3.47172622E-02    3     1000022       -15        15   # BR(~chi_20 -> ~chi_10 tau+    tau-)
     7.00979522E-02    3     1000022       -12        12   # BR(~chi_20 -> ~chi_10 nu_eb   nu_e)
     7.00979522E-02    3     1000022       -14        14   # BR(~chi_20 -> ~chi_10 nu_mub  nu_mu)
     7.00979522E-02    3     1000022       -16        16   # BR(~chi_20 -> ~chi_10 nu_taub nu_tau)
     4.02530442E-07    3     1000024        -2         1   # BR(~chi_20 -> ~chi_1+ ub      d)
     4.02530442E-07    3    -1000024        -1         2   # BR(~chi_20 -> ~chi_1- db      u)
     4.02530442E-07    3     1000024        -4         3   # BR(~chi_20 -> ~chi_1+ cb      s)
     4.02530442E-07    3    -1000024        -3         4   # BR(~chi_20 -> ~chi_1- sb      c)
     1.34176825E-07    3     1000024       -12        11   # BR(~chi_20 -> ~chi_1+ nu_eb   e-)
     1.34176825E-07    3    -1000024        12       -11   # BR(~chi_20 -> ~chi_1- nu_e    e+)
     1.34176825E-07    3     1000024       -14        13   # BR(~chi_20 -> ~chi_1+ nu_mub  mu-)
     1.34176825E-07    3    -1000024        14       -13   # BR(~chi_20 -> ~chi_1- nu_mu   mu+)
     8.65346947E-09    3     1000024       -16        15   # BR(~chi_20 -> ~chi_1+ nu_taub tau-)
     8.65346947E-09    3    -1000024        16       -15   # BR(~chi_20 -> ~chi_1- nu_tau  tau+)
#
#         PDG            Width
DECAY   1000025     2.74791311E-04   # neutralino3 decays
#          BR         NDA      ID1       ID2
     3.02903757E-04    2     1000022        22   # BR(~chi_30 -> ~chi_10 gam)
     4.79889640E-04    2     1000023        22   # BR(~chi_30 -> ~chi_20 gam)
#          BR         NDA      ID1       ID2
     3.71563581E-04    2     1000039        22   # BR(~chi_30 -> ~G        gam)
     2.99085340E-04    2     1000039        23   # BR(~chi_30 -> ~G        Z)
     7.98653097E-06    2     1000039        25   # BR(~chi_30 -> ~G        h)
#           BR         NDA      ID1       ID2       ID3
     7.17349012E-06    3     1000022        -2         2   # BR(~chi_30 -> ~chi_10 ub      u)
     8.51616591E-06    3     1000022        -1         1   # BR(~chi_30 -> ~chi_10 db      d)
     7.17349012E-06    3     1000022        -4         4   # BR(~chi_30 -> ~chi_10 cb      c)
     8.51616591E-06    3     1000022        -3         3   # BR(~chi_30 -> ~chi_10 sb      s)
     9.17438427E-06    3     1000022        -5         5   # BR(~chi_30 -> ~chi_10 bb      b)
     1.48920680E-06    3     1000022       -11        11   # BR(~chi_30 -> ~chi_10 e+      e-)
     1.48920680E-06    3     1000022       -13        13   # BR(~chi_30 -> ~chi_10 mu+     mu-)
     1.60813972E-06    3     1000022       -15        15   # BR(~chi_30 -> ~chi_10 tau+    tau-)
     4.16964163E-06    3     1000022       -12        12   # BR(~chi_30 -> ~chi_10 nu_eb   nu_e)
     4.16964163E-06    3     1000022       -14        14   # BR(~chi_30 -> ~chi_10 nu_mub  nu_mu)
     4.16964163E-06    3     1000022       -16        16   # BR(~chi_30 -> ~chi_10 nu_taub nu_tau)
     2.68439462E-02    3     1000023        -2         2   # BR(~chi_30 -> ~chi_20 ub      u)
     3.47534804E-02    3     1000023        -1         1   # BR(~chi_30 -> ~chi_20 db      d)
     2.68439462E-02    3     1000023        -4         4   # BR(~chi_30 -> ~chi_20 cb      c)
     3.47534804E-02    3     1000023        -3         3   # BR(~chi_30 -> ~chi_20 sb      s)
     3.07885693E-02    3     1000023        -5         5   # BR(~chi_30 -> ~chi_20 bb      b)
     7.93462486E-03    3     1000023       -11        11   # BR(~chi_30 -> ~chi_20 e+      e-)
     7.93462486E-03    3     1000023       -13        13   # BR(~chi_30 -> ~chi_20 mu+     mu-)
     7.83702055E-03    3     1000023       -15        15   # BR(~chi_30 -> ~chi_20 tau+    tau-)
     1.58440624E-02    3     1000023       -12        12   # BR(~chi_30 -> ~chi_20 nu_eb   nu_e)
     1.58440624E-02    3     1000023       -14        14   # BR(~chi_30 -> ~chi_20 nu_mub  nu_mu)
     1.58440624E-02    3     1000023       -16        16   # BR(~chi_30 -> ~chi_20 nu_taub nu_tau)
     1.28989319E-01    3     1000024        -2         1   # BR(~chi_30 -> ~chi_1+ ub      d)
     1.28989319E-01    3    -1000024        -1         2   # BR(~chi_30 -> ~chi_1- db      u)
     1.28989319E-01    3     1000024        -4         3   # BR(~chi_30 -> ~chi_1+ cb      s)
     1.28989319E-01    3    -1000024        -3         4   # BR(~chi_30 -> ~chi_1- sb      c)
     4.29963651E-02    3     1000024       -12        11   # BR(~chi_30 -> ~chi_1+ nu_eb   e-)
     4.29963651E-02    3    -1000024        12       -11   # BR(~chi_30 -> ~chi_1- nu_e    e+)
     4.29963651E-02    3     1000024       -14        13   # BR(~chi_30 -> ~chi_1+ nu_mub  mu-)
     4.29963651E-02    3    -1000024        14       -13   # BR(~chi_30 -> ~chi_1- nu_mu   mu+)
     4.26581528E-02    3     1000024       -16        15   # BR(~chi_30 -> ~chi_1+ nu_taub tau-)
     4.26581528E-02    3    -1000024        16       -15   # BR(~chi_30 -> ~chi_1- nu_tau  tau+)
#
#         PDG            Width
DECAY   1000035     3.58754532E+01   # neutralino4 decays
#          BR         NDA      ID1       ID2
     1.75002911E-03    2     1000022        23   # BR(~chi_40 -> ~chi_10   Z )
     2.31011980E-01    2     1000023        23   # BR(~chi_40 -> ~chi_20   Z )
     1.96174319E-03    2     1000025        23   # BR(~chi_40 -> ~chi_30   Z )
     2.28511697E-01    2     1000024       -24   # BR(~chi_40 -> ~chi_1+   W-)
     2.28511697E-01    2    -1000024        24   # BR(~chi_40 -> ~chi_1-   W+)
     1.12309186E-01    2     1000022        25   # BR(~chi_40 -> ~chi_10   h )
     1.73420269E-03    2     1000022        35   # BR(~chi_40 -> ~chi_10   H )
     8.48568766E-03    2     1000022        36   # BR(~chi_40 -> ~chi_10   A )
     3.68175512E-03    2     1000023        25   # BR(~chi_40 -> ~chi_20   h )
     1.46199752E-02    2     1000023        35   # BR(~chi_40 -> ~chi_20   H )
     3.28712453E-03    2     1000023        36   # BR(~chi_40 -> ~chi_20   A )
     1.19966939E-01    2     1000025        25   # BR(~chi_40 -> ~chi_30   h )
     1.47240345E-03    2     1000025        35   # BR(~chi_40 -> ~chi_30   H )
     6.40793661E-03    2     1000025        36   # BR(~chi_40 -> ~chi_30   A )
     1.81390234E-02    2     1000024       -37   # BR(~chi_40 -> ~chi_1+   H-)
     1.81390234E-02    2    -1000024        37   # BR(~chi_40 -> ~chi_1-   H+)
     2.30337421E-06    2     1000039        22   # BR(~chi_40 -> ~G        gam)
     7.29220587E-06    2     1000039        23   # BR(~chi_40 -> ~G        Z)
     4.93766055E-10    2     1000039        25   # BR(~chi_40 -> ~G        h)
     5.41248933E-10    2     1000039        35   # BR(~chi_40 -> ~G        H)
     3.05645360E-12    2     1000039        36   # BR(~chi_40 -> ~G        A)
#
#         PDG            Width
DECAY        25     4.21829853E-03   # h decays
#          BR         NDA      ID1       ID2
     6.01816784E-01    2           5        -5   # BR(h -> b       bb     )
     6.22411563E-02    2         -15        15   # BR(h -> tau+    tau-   )
     2.20306558E-04    2         -13        13   # BR(h -> mu+     mu-    )
     4.66125878E-04    2           3        -3   # BR(h -> s       sb     )
     2.01089111E-02    2           4        -4   # BR(h -> c       cb     )
     6.64100887E-02    2          21        21   # BR(h -> g       g      )
     2.30978836E-03    2          22        22   # BR(h -> gam     gam    )
     1.62656624E-03    2          22        23   # BR(h -> Z       gam    )
     2.16718922E-01    2          24       -24   # BR(h -> W+      W-     )
     2.80813510E-02    2          23        23   # BR(h -> Z       Z      )
#
#         PDG            Width
DECAY        35     3.95206375E+01   # H decays
#          BR         NDA      ID1       ID2
     1.40883696E-03    2           5        -5   # BR(H -> b       bb     )
     2.35790199E-04    2         -15        15   # BR(H -> tau+    tau-   )
     8.33606137E-07    2         -13        13   # BR(H -> mu+     mu-    )
     1.06730076E-06    2           3        -3   # BR(H -> s       sb     )
     9.63242762E-06    2           4        -4   # BR(H -> c       cb     )
     9.53091090E-01    2           6        -6   # BR(H -> t       tb     )
     7.63253815E-04    2          21        21   # BR(H -> g       g      )
     2.62683617E-06    2          22        22   # BR(H -> gam     gam    )
     1.10940286E-06    2          23        22   # BR(H -> Z       gam    )
     3.22620202E-04    2          24       -24   # BR(H -> W+      W-     )
     1.60870173E-04    2          23        23   # BR(H -> Z       Z      )
     8.65422795E-04    2          25        25   # BR(H -> h       h      )
     9.71997909E-24    2          36        36   # BR(H -> A       A      )
     3.88827953E-11    2          23        36   # BR(H -> Z       A      )
     6.89476500E-12    2          24       -37   # BR(H -> W+      H-     )
     6.89476500E-12    2         -24        37   # BR(H -> W-      H+     )
     3.34106425E-05    2     1000024  -1000024   # BR(H -> ~chi_1+ ~chi_1-)
     6.01858725E-04    2     1000022   1000022   # BR(H -> ~chi_10 ~chi_10)
     8.43028376E-06    2     1000023   1000023   # BR(H -> ~chi_20 ~chi_20)
     2.93142785E-04    2     1000025   1000025   # BR(H -> ~chi_30 ~chi_30)
     2.36497930E-02    2     1000022   1000023   # BR(H -> ~chi_10 ~chi_20)
     3.00128345E-08    2     1000022   1000025   # BR(H -> ~chi_10 ~chi_30)
     1.85501806E-02    2     1000023   1000025   # BR(H -> ~chi_20 ~chi_30)
#
#         PDG            Width
DECAY        36     3.99688870E+01   # A decays
#          BR         NDA      ID1       ID2
     1.41142732E-03    2           5        -5   # BR(A -> b       bb     )
     2.33336905E-04    2         -15        15   # BR(A -> tau+    tau-   )
     8.24930251E-07    2         -13        13   # BR(A -> mu+     mu-    )
     1.08755144E-06    2           3        -3   # BR(A -> s       sb     )
     9.53041861E-06    2           4        -4   # BR(A -> c       cb     )
     9.53825885E-01    2           6        -6   # BR(A -> t       tb     )
     9.02814321E-04    2          21        21   # BR(A -> g       g      )
     2.76237997E-06    2          22        22   # BR(A -> gam     gam    )
     1.29349899E-06    2          23        22   # BR(A -> Z       gam    )
     3.14264488E-04    2          23        25   # BR(A -> Z       h      )
     6.29390461E-04    2     1000024  -1000024   # BR(A -> ~chi_1+ ~chi_1-)
     2.46423814E-02    2     1000022   1000022   # BR(A -> ~chi_10 ~chi_10)
     6.39975579E-07    2     1000023   1000023   # BR(A -> ~chi_20 ~chi_20)
     1.71245739E-02    2     1000025   1000025   # BR(A -> ~chi_30 ~chi_30)
     4.42306698E-04    2     1000022   1000023   # BR(A -> ~chi_10 ~chi_20)
     5.44601489E-05    2     1000022   1000025   # BR(A -> ~chi_10 ~chi_30)
     4.03020346E-04    2     1000023   1000025   # BR(A -> ~chi_20 ~chi_30)
#
#         PDG            Width
DECAY        37     3.91521407E+01   # H+ decays
#          BR         NDA      ID1       ID2
     2.26436800E-06    2           4        -5   # BR(H+ -> c       bb     )
     2.38412093E-04    2         -15        16   # BR(H+ -> tau+    nu_tau )
     8.42872870E-07    2         -13        14   # BR(H+ -> mu+     nu_mu  )
     1.43964089E-08    2           2        -5   # BR(H+ -> u       bb     )
     5.21984129E-08    2           2        -3   # BR(H+ -> u       sb     )
     1.04007312E-05    2           4        -3   # BR(H+ -> c       sb     )
     9.55983991E-01    2           6        -5   # BR(H+ -> t       bb     )
     3.22116838E-04    2          24        25   # BR(H+ -> W+      h      )
     5.40166011E-13    2          24        36   # BR(H+ -> W+      A      )
     2.17207876E-02    2     1000024   1000022   # BR(H+ -> ~chi_1+ ~chi_10)
     1.47301660E-04    2     1000024   1000023   # BR(H+ -> ~chi_1+ ~chi_20)
     2.15738161E-02    2     1000024   1000025   # BR(H+ -> ~chi_1+ ~chi_30)
