#
#                              ======================
#                              | THE SUSYHIT OUTPUT |
#                              ======================
#
#
#              ------------------------------------------------------
#              |     This is the output of the SUSY-HIT package     |
#              |  created by A.Djouadi, M.Muehlleitner and M.Spira. |
#              |  In case of problems with SUSY-HIT email to        |
#              |           margarete.muehlleitner@cern.ch           |
#              |           michael.spira@psi.ch                     |
#              |           abdelhak.djouadi@cern.ch                 |
#              ------------------------------------------------------
#
#              ------------------------------------------------------
#              |  SUSY Les Houches Accord - MSSM Spectrum + Decays  |
#              |              based on the decay programs           |
#              |                                                    |
#              |                     SDECAY 1.3b                    |
#              |                                                    |
#              |  Authors: M.Muhlleitner, A.Djouadi and Y.Mambrini  |
#              |  Ref.:    Comput.Phys.Commun.168(2005)46           |
#              |           [hep-ph/0311167]                         |
#              |                                                    |
#              |                     HDECAY 3.4                     |
#              |                                                    |
#              |  By: A.Djouadi,J.Kalinowski,M.Muhlleitner,M.Spira  |
#              |  Ref.:    Comput.Phys.Commun.108(1998)56           |
#              |           [hep-ph/9704448]                         |
#              |                                                    |
#              |                                                    |
#              |  If not stated otherwise all DRbar couplings and   |
#              |  soft SUSY breaking masses are given at the scale  |
#              |  Q=  0.91187600E+02
#              |                                                    |
#              ------------------------------------------------------
#
#
BLOCK DCINFO  # Decay Program information
     1   SDECAY/HDECAY # decay calculator
     2   1.3b  /3.4    # version number
#
BLOCK SPINFO  # Spectrum calculator information
     1   SuSpect     # RGE +Spectrum calculator            
     2   2.41         # version number                     
#
BLOCK MODSEL  # Model selection
     1     0   # #general MSSM low scale                           
#
BLOCK SMINPUTS  # Standard Model inputs
         1     1.27934000E+02   # alpha_em^-1(M_Z)^MSbar
         2     1.16639000E-05   # G_F [GeV^-2]
         3     1.17200000E-01   # alpha_S(M_Z)^MSbar
         4     9.11870000E+01   # M_Z pole mass
         5     4.25000000E+00   # mb(mb)^MSbar
         6     1.72500000E+02   # mt pole mass
         7     1.77700000E+00   # mtau pole mass
#
BLOCK MINPAR  # Input parameters - minimal models
#
BLOCK EXTPAR  # Input parameters - non-minimal models
         0     9.11876000E+01   # EWSB                
         1     1.70000000E+03   # M_1                 
         2     1.00000000E+05   # M_2                 
         3     1.00000000E+05   # M_3                 
        11     0.00000000E+00   # A_t                 
        12     0.00000000E+00   # A_b                 
        13     0.00000000E+00   # A_tau               
        14     0.00000000E+00   # A_u                 
        15     0.00000000E+00   # A_d                 
        16     0.00000000E+00   # A_e                 
        23     3.50000000E+03   # mu(EWSB)            
        25     1.50000000E+00   # tanbeta(in)         
        26     2.00000000E+03   # MA_pole             
        31     1.00000000E+05   # M_eL                
        32     1.00000000E+05   # M_muL               
        33     1.00000000E+05   # M_tauL              
        34     1.00000000E+05   # M_eR                
        35     1.00000000E+05   # M_muR               
        36     1.00000000E+05   # M_tauR              
        41     2.10000000E+03   # M_q1L               
        42     2.10000000E+03   # M_q2L               
        43     2.10000000E+03   # M_q3L               
        44     1.00000000E+05   # M_uR                
        45     1.00000000E+05   # M_cR                
        46     1.00000000E+05   # M_tR                
        47     2.10000000E+03   # M_dR                
        48     2.10000000E+03   # M_sR                
        49     2.10000000E+03   # M_bR                
#
BLOCK MASS  # Mass Spectrum
# PDG code           mass       particle
        24     8.05849242E+01   # W+
        25     1.25000000E+02   # h
        35     2.00405929E+03   # H
        36     2.00000000E+03   # A
        37     2.02368506E+03   # H+
         5     4.87877839E+00   # b-quark pole mass calculated from mb(mb)_Msbar
   1000001     2.10031564E+03   # ~d_L
   2000001     2.10006093E+03   # ~d_R
   1000002     2.09974525E+03   # ~u_L
   2000002     9.99999974E+04   # ~u_R
   1000003     2.10031564E+03   # ~s_L
   2000003     2.10006093E+03   # ~s_R
   1000004     2.09974525E+03   # ~c_L
   2000004     9.99999974E+04   # ~c_R
   1000005     2.09695089E+03   # ~b_1
   2000005     2.10342388E+03   # ~b_2
   1000006     2.10491595E+03   # ~t_1
   2000006     1.00000106E+05   # ~t_2
   1000011     1.00000004E+05   # ~e_L
   2000011     1.00000004E+05   # ~e_R
   1000012     9.99999921E+04   # ~nu_eL
   1000013     1.00000004E+05   # ~mu_L
   2000013     1.00000004E+05   # ~mu_R
   1000014     9.99999921E+04   # ~nu_muL
   1000015     9.99999574E+04   # ~tau_1
   2000015     1.00000051E+05   # ~tau_2
   1000016     9.99999921E+04   # ~nu_tauL
   1000021     1.00000000E+05   # ~g
   1000022     1.69894914E+03   # ~chi_10
   1000023    -3.50001708E+03   # ~chi_20
   1000025     3.50100356E+03   # ~chi_30
   1000035     1.00000064E+05   # ~chi_40
   1000024     3.49994025E+03   # ~chi_1+
   1000037     1.00000064E+05   # ~chi_2+
   1000039     1.00000000E-09   # ~gravitino
#
BLOCK NMIX  # Neutralino Mixing Matrix
  1  1     9.99702868E-01   # N_11
  1  2    -1.88792607E-05   # N_12
  1  3     1.83863837E-02   # N_13
  1  4    -1.60036635E-02   # N_14
  2  1     1.68503642E-03   # N_21
  2  2    -1.49554954E-04   # N_22
  2  3    -7.07097143E-01   # N_23
  2  4    -7.07114395E-01   # N_24
  3  1     2.43174291E-02   # N_31
  3  2     8.01745619E-04   # N_32
  3  3    -7.06877187E-01   # N_33
  3  4     7.06917719E-01   # N_34
  4  1     3.70735776E-07   # N_41
  4  2    -9.99999667E-01   # N_42
  4  3    -4.61333083E-04   # N_43
  4  4     6.72823007E-04   # N_44
#
BLOCK UMIX  # Chargino Mixing Matrix U
  1  1    -6.52423295E-04   # U_11
  1  2     9.99999787E-01   # U_12
  2  1     9.99999787E-01   # U_21
  2  2     6.52423295E-04   # U_22
#
BLOCK VMIX  # Chargino Mixing Matrix V
  1  1    -9.51515331E-04   # V_11
  1  2     9.99999547E-01   # V_12
  2  1     9.99999547E-01   # V_21
  2  2     9.51515331E-04   # V_22
#
BLOCK STOPMIX  # Stop Mixing Matrix
  1  1     9.99999999E-01   # cos(theta_t)
  1  2     4.47213589E-05   # sin(theta_t)
  2  1    -4.47213589E-05   # -sin(theta_t)
  2  2     9.99999999E-01   # cos(theta_t)
#
BLOCK SBOTMIX  # Sbottom Mixing Matrix
  1  1     6.93054663E-01   # cos(theta_b)
  1  2     7.20885035E-01   # sin(theta_b)
  2  1    -7.20885035E-01   # -sin(theta_b)
  2  2     6.93054663E-01   # cos(theta_b)
#
BLOCK STAUMIX  # Stau Mixing Matrix
  1  1     7.06226497E-01   # cos(theta_tau)
  1  2     7.07985971E-01   # sin(theta_tau)
  2  1    -7.07985971E-01   # -sin(theta_tau)
  2  2     7.06226497E-01   # cos(theta_tau)
#
BLOCK ALPHA  # Higgs mixing
          -5.90348250E-01   # Mixing angle in the neutral Higgs boson sector
#
BLOCK HMIX Q=  9.11876000E+01  # DRbar Higgs Parameters
         1     3.50000000E+03   # mu(Q)               
         2     1.49999982E+00   # tanbeta(Q)          
         3     2.54887806E+02   # vev(Q)              
         4    -6.80983484E+07   # MA^2(Q)             
#
BLOCK GAUGE Q=  9.11876000E+01  # The gauge couplings
     1     3.50554816E-01   # gprime(Q) DRbar
     2     6.19274362E-01   # g(Q) DRbar
     3     1.02169450E+00   # g3(Q) DRbar
#
BLOCK AU Q=  9.11876000E+01  # The trilinear couplings
  1  1     0.00000000E+00   # A_u(Q) DRbar
  2  2     0.00000000E+00   # A_c(Q) DRbar
  3  3     0.00000000E+00   # A_t(Q) DRbar
#
BLOCK AD Q=  9.11876000E+01  # The trilinear couplings
  1  1     0.00000000E+00   # A_d(Q) DRbar
  2  2     0.00000000E+00   # A_s(Q) DRbar
  3  3     0.00000000E+00   # A_b(Q) DRbar
#
BLOCK AE Q=  9.11876000E+01  # The trilinear couplings
  1  1     0.00000000E+00   # A_e(Q) DRbar
  2  2     0.00000000E+00   # A_mu(Q) DRbar
  3  3     0.00000000E+00   # A_tau(Q) DRbar
#
BLOCK Yu Q=  9.11876000E+01  # The Yukawa couplings
  1  1     0.00000000E+00   # y_u(Q) DRbar
  2  2     0.00000000E+00   # y_c(Q) DRbar
  3  3     9.83501779E-01   # y_t(Q) DRbar
#
BLOCK Yd Q=  9.11876000E+01  # The Yukawa couplings
  1  1     0.00000000E+00   # y_d(Q) DRbar
  2  2     0.00000000E+00   # y_s(Q) DRbar
  3  3     2.58806482E-02   # y_b(Q) DRbar
#
BLOCK Ye Q=  9.11876000E+01  # The Yukawa couplings
  1  1     0.00000000E+00   # y_e(Q) DRbar
  2  2     0.00000000E+00   # y_mu(Q) DRbar
  3  3     1.77391523E-02   # y_tau(Q) DRbar
#
BLOCK MSOFT Q=  9.11876000E+01  # The soft SUSY breaking masses at the scale Q
         1     1.70000000E+03   # M_1                 
         2     1.00000000E+05   # M_2                 
         3     1.00000000E+05   # M_3                 
        14     0.00000000E+00   # A_u                 
        15     0.00000000E+00   # A_d                 
        16     0.00000000E+00   # A_e                 
        21     6.29728993E+08   # M^2_Hd              
        22    -1.15064778E+09   # M^2_Hu              
        31     1.00000000E+05   # M_eL                
        32     1.00000000E+05   # M_muL               
        33     1.00000000E+05   # M_tauL              
        34     1.00000000E+05   # M_eR                
        35     1.00000000E+05   # M_muR               
        36     1.00000000E+05   # M_tauR              
        41     2.10000000E+03   # M_q1L               
        42     2.10000000E+03   # M_q2L               
        43     2.10000000E+03   # M_q3L               
        44     1.00000000E+05   # M_uR                
        45     1.00000000E+05   # M_cR                
        46     1.00000000E+05   # M_tR                
        47     2.10000000E+03   # M_dR                
        48     2.10000000E+03   # M_sR                
        49     2.10000000E+03   # M_bR                
#
#
#
#                             =================
#                             |The decay table|
#                             =================
#
# - The QCD corrections to the decays gluino -> squark  + quark
#                                     squark -> gaugino + quark_prime
#                                     squark -> squark_prime + Higgs
#                                     squark -> gluino  + quark
#   are included.
#
# - The multi-body decays for the inos, stops and sbottoms are included.
#
# - The loop induced decays for the gluino, neutralinos and stops
#   are included.
#
# - The SUSY decays of the top quark are included.
#
# - Possible decays of the NLSP in GMSB models are included.
#
#
#         PDG            Width
DECAY         6     1.32356045E+00   # top decays
#          BR         NDA      ID1       ID2
     1.00000000E+00    2           5        24   # BR(t ->  b    W+)
#
#         PDG            Width
DECAY   1000021     1.E-04   # gluino decays (OJ Mods)
#          BR         NDA      ID1       ID2
    -6.98384963E-04    2     1000001        -1   # BR(~g -> ~d_L  db)
    -6.98384963E-04    2    -1000001         1   # BR(~g -> ~d_L* d )
    -6.98385113E-04    2     2000001        -1   # BR(~g -> ~d_R  db)
    -6.98385113E-04    2    -2000001         1   # BR(~g -> ~d_R* d )
    -6.98385298E-04    2     1000002        -2   # BR(~g -> ~u_L  ub)
    -6.98385298E-04    2    -1000002         2   # BR(~g -> ~u_L* u )
    -1.89010010E-18    2     2000002        -2   # BR(~g -> ~u_R  ub)
    -1.89010010E-18    2    -2000002         2   # BR(~g -> ~u_R* u )
    -6.98384963E-04    2     1000003        -3   # BR(~g -> ~s_L  sb)
    -6.98384963E-04    2    -1000003         3   # BR(~g -> ~s_L* s )
    -6.98385113E-04    2     2000003        -3   # BR(~g -> ~s_R  sb)
    -6.98385113E-04    2    -2000003         3   # BR(~g -> ~s_R* s )
    -6.98385298E-04    2     1000004        -4   # BR(~g -> ~c_L  cb)
    -6.98385298E-04    2    -1000004         4   # BR(~g -> ~c_L* c )
    -1.89010010E-18    2     2000004        -4   # BR(~g -> ~c_R  cb)
    -1.89010010E-18    2    -2000004         4   # BR(~g -> ~c_R* c )
     2.57284271E-01    2     1000005        -5   # BR(~g -> ~b_1  bb)
     2.57284271E-01    2    -1000005         5   # BR(~g -> ~b_1* b )
     2.57408711E-01    2     2000005        -5   # BR(~g -> ~b_2  bb)
     2.57408711E-01    2    -2000005         5   # BR(~g -> ~b_2* b )
    -6.87375719E-04    2     1000006        -6   # BR(~g -> ~t_1  tb)
    -6.87375719E-04    2    -1000006         6   # BR(~g -> ~t_1* t )
    -1.96305903E-02    2     1000039        21   # BR(~g -> ~G g)
#
#         PDG            Width
DECAY   1000006     4.17774396E-02   # stop1 decays
#          BR         NDA      ID1       ID2
     1.00000000E+00    2     1000022         6   # BR(~t_1 -> ~chi_10 t )
#
#         PDG            Width
DECAY   2000006    -2.78859289E+05   # stop2 decays
#          BR         NDA      ID1       ID2
    -7.47639494E-04    2     1000022         6   # BR(~t_2 -> ~chi_10 t )
    -1.80047308E-03    2     1000023         6   # BR(~t_2 -> ~chi_20 t )
    -1.79986662E-03    2     1000025         6   # BR(~t_2 -> ~chi_30 t )
     1.00428730E+00    2     1000024         5   # BR(~t_2 -> ~chi_1+ b )
     4.84772895E-05    2     1000006        25   # BR(~t_2 -> ~t_1    h )
    -5.07879755E-05    2     1000006        35   # BR(~t_2 -> ~t_1    H )
    -5.06973386E-05    2     1000006        36   # BR(~t_2 -> ~t_1    A )
    -4.77657692E-05    2     1000005        37   # BR(~t_2 -> ~b_1    H+)
    -5.36279683E-05    2     2000005        37   # BR(~t_2 -> ~b_2    H+)
     3.44281243E-05    2     1000006        23   # BR(~t_2 -> ~t_1    Z )
     8.67714983E-05    2     1000005        24   # BR(~t_2 -> ~b_1    W+)
     9.38765348E-05    2     2000005        24   # BR(~t_2 -> ~b_2    W+)
#
#         PDG            Width
DECAY   1000005    -1.23544595E+01   # sbottom1 decays
#          BR         NDA      ID1       ID2
     1.00000000E+00    2     1000022         5   # BR(~b_1 -> ~chi_10 b )
#
#         PDG            Width
DECAY   2000005    -1.22122031E+01   # sbottom2 decays
#          BR         NDA      ID1       ID2
     1.00000000E+00    2     1000022         5   # BR(~b_2 -> ~chi_10 b )
#
#         PDG            Width
DECAY   1000002     4.59049656E-02   # sup_L decays
#          BR         NDA      ID1       ID2
     1.00000000E+00    2     1000022         2   # BR(~u_L -> ~chi_10 u)
#
#         PDG            Width
DECAY   2000002     2.08388213E+02   # sup_R decays
#          BR         NDA      ID1       ID2
     9.99406442E-01    2     1000022         2   # BR(~u_R -> ~chi_10 u)
     2.83639541E-06    2     1000023         2   # BR(~u_R -> ~chi_20 u)
     5.90721973E-04    2     1000025         2   # BR(~u_R -> ~chi_30 u)
#
#         PDG            Width
DECAY   1000001     4.60217203E-02   # sdown_L decays
#          BR         NDA      ID1       ID2
     1.00000000E+00    2     1000022         1   # BR(~d_L -> ~chi_10 d)
#
#         PDG            Width
DECAY   2000001     1.83874330E-01   # sdown_R decays
#          BR         NDA      ID1       ID2
     1.00000000E+00    2     1000022         1   # BR(~d_R -> ~chi_10 d)
#
#         PDG            Width
DECAY   1000004     4.59049656E-02   # scharm_L decays
#          BR         NDA      ID1       ID2
     1.00000000E+00    2     1000022         4   # BR(~c_L -> ~chi_10 c)
#
#         PDG            Width
DECAY   2000004     2.08388213E+02   # scharm_R decays
#          BR         NDA      ID1       ID2
     9.99406442E-01    2     1000022         4   # BR(~c_R -> ~chi_10 c)
     2.83639541E-06    2     1000023         4   # BR(~c_R -> ~chi_20 c)
     5.90721973E-04    2     1000025         4   # BR(~c_R -> ~chi_30 c)
#
#         PDG            Width
DECAY   1000003     4.60217203E-02   # sstrange_L decays
#          BR         NDA      ID1       ID2
     1.00000000E+00    2     1000022         3   # BR(~s_L -> ~chi_10 s)
#
#         PDG            Width
DECAY   2000003     1.83874330E-01   # sstrange_R decays
#          BR         NDA      ID1       ID2
     1.00000000E+00    2     1000022         3   # BR(~s_R -> ~chi_10 s)
#
#         PDG            Width
DECAY   1000011     1.22169663E+02   # selectron_L decays
#          BR         NDA      ID1       ID2
     9.99334351E-01    2     1000022        11   # BR(~e_L -> ~chi_10 e-)
     2.01499487E-06    2     1000023        11   # BR(~e_L -> ~chi_20 e-)
     6.60982204E-04    2     1000025        11   # BR(~e_L -> ~chi_30 e-)
     2.65171758E-06    2    -1000024        12   # BR(~e_L -> ~chi_1- nu_e)
#
#         PDG            Width
DECAY   2000011     4.88675766E+02   # selectron_R decays
#          BR         NDA      ID1       ID2
     9.99406936E-01    2     1000022        11   # BR(~e_R -> ~chi_10 e-)
     2.83403449E-06    2     1000023        11   # BR(~e_R -> ~chi_20 e-)
     5.90229977E-04    2     1000025        11   # BR(~e_R -> ~chi_30 e-)
#
#         PDG            Width
DECAY   1000013     1.22169663E+02   # smuon_L decays
#          BR         NDA      ID1       ID2
     9.99334351E-01    2     1000022        13   # BR(~mu_L -> ~chi_10 mu-)
     2.01499487E-06    2     1000023        13   # BR(~mu_L -> ~chi_20 mu-)
     6.60982204E-04    2     1000025        13   # BR(~mu_L -> ~chi_30 mu-)
     2.65171758E-06    2    -1000024        14   # BR(~mu_L -> ~chi_1- nu_mu)
#
#         PDG            Width
DECAY   2000013     4.88675766E+02   # smuon_R decays
#          BR         NDA      ID1       ID2
     9.99406936E-01    2     1000022        13   # BR(~mu_R -> ~chi_10 mu-)
     2.83403449E-06    2     1000023        13   # BR(~mu_R -> ~chi_20 mu-)
     5.90229977E-04    2     1000025        13   # BR(~mu_R -> ~chi_30 mu-)
#
#         PDG            Width
DECAY   1000015     1.18197577E+04   # stau_1 decays
#          BR         NDA      ID1       ID2
     2.58764857E-02    2     1000022        15   # BR(~tau_1 -> ~chi_10  tau-)
     2.54683850E-05    2     1000023        15   # BR(~tau_1 -> ~chi_20  tau-)
     3.00877279E-05    2     1000025        15   # BR(~tau_1 -> ~chi_30  tau-)
     2.77003133E-05    2    -1000024        16   # BR(~tau_1 -> ~chi_1-  nu_tau)
     9.74040258E-01    2     1000039        15   # BR(~tau_1 -> ~G       tau-)
#
#         PDG            Width
DECAY   2000015     3.05881061E+02   # stau_2 decays
#          BR         NDA      ID1       ID2
     9.95880298E-01    2     1000022        15   # BR(~tau_2 -> ~chi_10  tau-)
     1.06277299E-03    2     1000023        15   # BR(~tau_2 -> ~chi_20  tau-)
     2.08461997E-03    2     1000025        15   # BR(~tau_2 -> ~chi_30  tau-)
     9.72309211E-04    2    -1000024        16   # BR(~tau_2 -> ~chi_1-  nu_tau)
#
#         PDG            Width
DECAY   1000012     1.22169725E+02   # snu_eL decays
#          BR         NDA      ID1       ID2
     9.99467092E-01    2     1000022        12   # BR(~nu_eL -> ~chi_10 nu_e)
     3.79237636E-06    2     1000023        12   # BR(~nu_eL -> ~chi_20 nu_e)
     5.23474883E-04    2     1000025        12   # BR(~nu_eL -> ~chi_30 nu_e)
     5.64026694E-06    2     1000024        11   # BR(~nu_eL -> ~chi_1+ e-)
#
#         PDG            Width
DECAY   1000014     1.22169725E+02   # snu_muL decays
#          BR         NDA      ID1       ID2
     9.99467092E-01    2     1000022        14   # BR(~nu_muL -> ~chi_10 nu_mu)
     3.79237636E-06    2     1000023        14   # BR(~nu_muL -> ~chi_20 nu_mu)
     5.23474883E-04    2     1000025        14   # BR(~nu_muL -> ~chi_30 nu_mu)
     5.64026694E-06    2     1000024        13   # BR(~nu_muL -> ~chi_1+ mu-)
#
#         PDG            Width
DECAY   1000016     1.22794223E+02   # snu_tauL decays
#          BR         NDA      ID1       ID2
     9.94384076E-01    2     1000022        16   # BR(~nu_tauL -> ~chi_10 nu_tau)
     3.77308937E-06    2     1000023        16   # BR(~nu_tauL -> ~chi_20 nu_tau)
     5.20812632E-04    2     1000025        16   # BR(~nu_tauL -> ~chi_30 nu_tau)
     5.09133856E-03    2     1000024        15   # BR(~nu_tauL -> ~chi_1+ tau-)
#
#         PDG            Width
DECAY   1000024     3.52634771E+01   # chargino1+ decays
#          BR         NDA      ID1       ID2
     5.11034608E-07    2     1000002        -1   # BR(~chi_1+ -> ~u_L     db)
     2.40119460E-07    2    -1000001         2   # BR(~chi_1+ -> ~d_L*    u )
     5.11034608E-07    2     1000004        -3   # BR(~chi_1+ -> ~c_L     sb)
     2.40119460E-07    2    -1000003         4   # BR(~chi_1+ -> ~s_L*    c )
    -1.16835700E-01    2     1000006        -5   # BR(~chi_1+ -> ~t_1     bb)
     1.16123874E-01    2    -1000005         6   # BR(~chi_1+ -> ~b_1*    t )
     9.06193567E-01    2    -2000005         6   # BR(~chi_1+ -> ~b_2*    t )
     9.45065173E-02    2     1000022        24   # BR(~chi_1+ -> ~chi_10  W+)
     8.55552505E-06    2     1000039        24   # BR(~chi_1+ -> ~G       W+)
     1.68339985E-06    2     1000039        37   # BR(~chi_1+ -> ~G       H+)
#
#         PDG            Width
DECAY   1000037    -1.58953992E+05   # chargino2+ decays
#          BR         NDA      ID1       ID2
    -7.44206722E-03    2     1000002        -1   # BR(~chi_2+ -> ~u_L     db)
    -7.44206906E-03    2    -1000001         2   # BR(~chi_2+ -> ~d_L*    u )
    -7.44206722E-03    2     1000004        -3   # BR(~chi_2+ -> ~c_L     sb)
    -7.44206906E-03    2    -1000003         4   # BR(~chi_2+ -> ~s_L*    c )
     1.12675757E+00    2     1000006        -5   # BR(~chi_2+ -> ~t_1     bb)
    -1.64760519E-03    2    -1000005         6   # BR(~chi_2+ -> ~b_1*    t )
    -7.03882553E-03    2    -2000005         6   # BR(~chi_2+ -> ~b_2*    t )
    -5.35013517E-15    2     1000012       -11   # BR(~chi_2+ -> ~nu_eL   e+  )
    -5.35013517E-15    2     1000014       -13   # BR(~chi_2+ -> ~nu_muL  mu+ )
    -3.72571589E-15    2    -1000011        12   # BR(~chi_2+ -> ~e_L+    nu_e)
    -3.72571589E-15    2    -1000013        14   # BR(~chi_2+ -> ~mu_L+   nu_mu)
    -5.86533988E-15    2    -1000015        16   # BR(~chi_2+ -> ~tau_1+  nu_tau)
    -8.76717425E-17    2    -2000015        16   # BR(~chi_2+ -> ~tau_2+  nu_tau)
    -1.36217949E-03    2     1000024        23   # BR(~chi_2+ -> ~chi_1+  Z )
    -6.92237712E-07    2     1000022        24   # BR(~chi_2+ -> ~chi_10  W+)
    -1.32092083E-03    2     1000023        24   # BR(~chi_2+ -> ~chi_20  W+)
    -1.32021473E-03    2     1000025        24   # BR(~chi_2+ -> ~chi_30  W+)
    -1.37729315E-03    2     1000024        25   # BR(~chi_2+ -> ~chi_1+  h )
    -1.20899731E-03    2     1000024        35   # BR(~chi_2+ -> ~chi_1+  H )
    -1.20916084E-03    2     1000024        36   # BR(~chi_2+ -> ~chi_1+  A )
    -7.59164678E-07    2     1000022        37   # BR(~chi_2+ -> ~chi_10  H+)
    -1.20912219E-03    2     1000023        37   # BR(~chi_2+ -> ~chi_20  H+)
    -1.20839578E-03    2     1000025        37   # BR(~chi_2+ -> ~chi_30  H+)
    -7.80851062E-02    2     1000039        24   # BR(~chi_2+ -> ~G       W+)
    -2.23451092E-08    2     1000039        37   # BR(~chi_2+ -> ~G       H+)
#
#         PDG            Width
DECAY   1000022     1.E-08   # neutralino1 decays (OJ Mods)
#          BR         NDA      ID1       ID2
     7.59210478E-01    2     1000039        22   # BR(~chi_10 -> ~G        gam)
     2.40784925E-01    2     1000039        23   # BR(~chi_10 -> ~G        Z)
     4.59610644E-06    2     1000039        25   # BR(~chi_10 -> ~G        h)
#
#         PDG            Width
DECAY   1000023     1.E-08   # neutralino2 decays (OJ Mods)
#          BR         NDA      ID1       ID2
     1.09958228E-01    2     1000022        23   # BR(~chi_20 -> ~chi_10   Z )
     5.19349581E-04    2     1000022        25   # BR(~chi_20 -> ~chi_10   h )
     1.06733799E-08    2     1000002        -2   # BR(~chi_20 -> ~u_L      ub)
     1.06733799E-08    2    -1000002         2   # BR(~chi_20 -> ~u_L*     u )
     8.22188088E-08    2     1000001        -1   # BR(~chi_20 -> ~d_L      db)
     8.22188088E-08    2    -1000001         1   # BR(~chi_20 -> ~d_L*     d )
     1.52154479E-07    2     2000001        -1   # BR(~chi_20 -> ~d_R      db)
     1.52154479E-07    2    -2000001         1   # BR(~chi_20 -> ~d_R*     d )
     1.06733799E-08    2     1000004        -4   # BR(~chi_20 -> ~c_L      cb)
     1.06733799E-08    2    -1000004         4   # BR(~chi_20 -> ~c_L*     c )
     8.22188088E-08    2     1000003        -3   # BR(~chi_20 -> ~s_L      sb)
     8.22188088E-08    2    -1000003         3   # BR(~chi_20 -> ~s_L*     s )
     1.52154479E-07    2     2000003        -3   # BR(~chi_20 -> ~s_R      sb)
     1.52154479E-07    2    -2000003         3   # BR(~chi_20 -> ~s_R*     s )
     5.78393370E-01    2     1000006        -6   # BR(~chi_20 -> ~t_1      tb)
     5.78393370E-01    2    -1000006         6   # BR(~chi_20 -> ~t_1*     t )
    -6.50104542E-02    2     1000005        -5   # BR(~chi_20 -> ~b_1      bb)
    -6.50104542E-02    2    -1000005         5   # BR(~chi_20 -> ~b_1*     b )
    -6.86279639E-02    2     2000005        -5   # BR(~chi_20 -> ~b_2      bb)
    -6.86279639E-02    2    -2000005         5   # BR(~chi_20 -> ~b_2*     b )
     3.77319928E-11    2     1000039        22   # BR(~chi_20 -> ~G        gam)
     3.73140854E-07    2     1000039        23   # BR(~chi_20 -> ~G        Z)
     9.31340983E-06    2     1000039        25   # BR(~chi_20 -> ~G        h)
     7.45640321E-08    2     1000039        35   # BR(~chi_20 -> ~G        H)
     1.92396140E-06    2     1000039        36   # BR(~chi_20 -> ~G        A)
#
#         PDG            Width
DECAY   1000025     3.09530004E+01   # neutralino3 decays
#          BR         NDA      ID1       ID2
     5.33661686E-04    2     1000022        23   # BR(~chi_30 -> ~chi_10   Z )
     1.11596734E-01    2     1000022        25   # BR(~chi_30 -> ~chi_10   h )
     1.09915331E-05    2     1000002        -2   # BR(~chi_30 -> ~u_L      ub)
     1.09915331E-05    2    -1000002         2   # BR(~chi_30 -> ~u_L*     u )
     5.42169279E-06    2     1000001        -1   # BR(~chi_30 -> ~d_L      db)
     5.42169279E-06    2    -1000001         1   # BR(~chi_30 -> ~d_L*     d )
     3.18500174E-05    2     2000001        -1   # BR(~chi_30 -> ~d_R      db)
     3.18500174E-05    2    -2000001         1   # BR(~chi_30 -> ~d_R*     d )
     1.09915331E-05    2     1000004        -4   # BR(~chi_30 -> ~c_L      cb)
     1.09915331E-05    2    -1000004         4   # BR(~chi_30 -> ~c_L*     c )
     5.42169279E-06    2     1000003        -3   # BR(~chi_30 -> ~s_L      sb)
     5.42169279E-06    2    -1000003         3   # BR(~chi_30 -> ~s_L*     s )
     3.18500174E-05    2     2000003        -3   # BR(~chi_30 -> ~s_R      sb)
     3.18500174E-05    2    -2000003         3   # BR(~chi_30 -> ~s_R*     s )
     5.81511246E-01    2     1000006        -6   # BR(~chi_30 -> ~t_1      tb)
     5.81511246E-01    2    -1000006         6   # BR(~chi_30 -> ~t_1*     t )
    -4.86784803E-02    2     1000005        -5   # BR(~chi_30 -> ~b_1      bb)
    -4.86784803E-02    2    -1000005         5   # BR(~chi_30 -> ~b_1*     b )
    -8.89859523E-02    2     2000005        -5   # BR(~chi_30 -> ~b_2      bb)
    -8.89859523E-02    2    -2000005         5   # BR(~chi_30 -> ~b_2*     b )
     9.09116737E-09    2     1000039        22   # BR(~chi_30 -> ~G        gam)
     9.37695714E-06    2     1000039        23   # BR(~chi_30 -> ~G        Z)
     3.65461196E-07    2     1000039        25   # BR(~chi_30 -> ~G        h)
     1.92243701E-06    2     1000039        35   # BR(~chi_30 -> ~G        H)
     7.74123434E-08    2     1000039        36   # BR(~chi_30 -> ~G        A)
#
#         PDG            Width
DECAY   1000035    -1.58954726E+05   # neutralino4 decays
#          BR         NDA      ID1       ID2
    -1.07204302E-08    2     1000022        23   # BR(~chi_40 -> ~chi_10   Z )
    -1.31640189E-03    2     1000023        23   # BR(~chi_40 -> ~chi_20   Z )
    -4.57611656E-05    2     1000025        23   # BR(~chi_40 -> ~chi_30   Z )
    -1.32090612E-03    2     1000024       -24   # BR(~chi_40 -> ~chi_1+   W-)
    -1.32090612E-03    2    -1000024        24   # BR(~chi_40 -> ~chi_1-   W+)
    -7.11781931E-07    2     1000022        25   # BR(~chi_40 -> ~chi_10   h )
    -5.40801235E-08    2     1000022        35   # BR(~chi_40 -> ~chi_10   H )
    -7.04170169E-07    2     1000022        36   # BR(~chi_40 -> ~chi_10   A )
    -4.52024626E-05    2     1000023        25   # BR(~chi_40 -> ~chi_20   h )
    -1.15702838E-03    2     1000023        35   # BR(~chi_40 -> ~chi_20   H )
    -5.31867872E-05    2     1000023        36   # BR(~chi_40 -> ~chi_20   A )
    -1.33137346E-03    2     1000025        25   # BR(~chi_40 -> ~chi_30   h )
    -5.19073416E-05    2     1000025        35   # BR(~chi_40 -> ~chi_30   H )
    -1.15526384E-03    2     1000025        36   # BR(~chi_40 -> ~chi_30   A )
    -1.20913329E-03    2     1000024       -37   # BR(~chi_40 -> ~chi_1+   H-)
    -1.20913329E-03    2    -1000024        37   # BR(~chi_40 -> ~chi_1-   H+)
    -3.56451174E-03    2     1000002        -2   # BR(~chi_40 -> ~u_L      ub)
    -3.56451174E-03    2    -1000002         2   # BR(~chi_40 -> ~u_L*     u )
    -5.70799156E-23    2     2000002        -2   # BR(~chi_40 -> ~u_R      ub)
    -5.70799156E-23    2    -2000002         2   # BR(~chi_40 -> ~u_R*     u )
    -3.56451287E-03    2     1000001        -1   # BR(~chi_40 -> ~d_L      db)
    -3.56451287E-03    2    -1000001         1   # BR(~chi_40 -> ~d_L*     d )
    -6.97738295E-17    2     2000001        -1   # BR(~chi_40 -> ~d_R      db)
    -6.97738295E-17    2    -2000001         1   # BR(~chi_40 -> ~d_R*     d )
    -3.56451174E-03    2     1000004        -4   # BR(~chi_40 -> ~c_L      cb)
    -3.56451174E-03    2    -1000004         4   # BR(~chi_40 -> ~c_L*     c )
    -5.70799156E-23    2     2000004        -4   # BR(~chi_40 -> ~c_R      cb)
    -5.70799156E-23    2    -2000004         4   # BR(~chi_40 -> ~c_R*     c )
    -3.56451287E-03    2     1000003        -3   # BR(~chi_40 -> ~s_L      sb)
    -3.56451287E-03    2    -1000003         3   # BR(~chi_40 -> ~s_L*     s )
    -6.97738295E-17    2     2000003        -3   # BR(~chi_40 -> ~s_R      sb)
    -6.97738295E-17    2    -2000003         3   # BR(~chi_40 -> ~s_R*     s )
    -4.34319337E-03    2     1000006        -6   # BR(~chi_40 -> ~t_1      tb)
    -4.34319337E-03    2    -1000006         6   # BR(~chi_40 -> ~t_1*     t )
     2.71852289E-01    2     1000005        -5   # BR(~chi_40 -> ~b_1      bb)
     2.71852289E-01    2    -1000005         5   # BR(~chi_40 -> ~b_1*     b )
     2.91526178E-01    2     2000005        -5   # BR(~chi_40 -> ~b_2      bb)
     2.91526178E-01    2    -2000005         5   # BR(~chi_40 -> ~b_2*     b )
    -1.86284744E-15    2     1000011       -11   # BR(~chi_40 -> ~e_L-     e+)
    -1.86284744E-15    2    -1000011        11   # BR(~chi_40 -> ~e_L+     e-)
    -3.28180234E-28    2     2000011       -11   # BR(~chi_40 -> ~e_R-     e+)
    -3.28180234E-28    2    -2000011        11   # BR(~chi_40 -> ~e_R+     e-)
    -1.86284744E-15    2     1000013       -13   # BR(~chi_40 -> ~mu_L-    mu+)
    -1.86284744E-15    2    -1000013        13   # BR(~chi_40 -> ~mu_L+    mu-)
    -3.28180234E-28    2     2000013       -13   # BR(~chi_40 -> ~mu_R-    mu+)
    -3.28180234E-28    2    -2000013        13   # BR(~chi_40 -> ~mu_R+    mu-)
    -2.67505602E-15    2     1000012       -12   # BR(~chi_40 -> ~nu_eL    nu_eb)
    -2.67505602E-15    2    -1000012        12   # BR(~chi_40 -> ~nu_eL*   nu_e )
    -2.67505602E-15    2     1000014       -14   # BR(~chi_40 -> ~nu_muL   nu_mub)
    -2.67505602E-15    2    -1000014        14   # BR(~chi_40 -> ~nu_muL*  nu_mu )
    -2.67505602E-15    2     1000016       -16   # BR(~chi_40 -> ~nu_tau1  nu_taub)
    -2.67505602E-15    2    -1000016        16   # BR(~chi_40 -> ~nu_tau1* nu_tau )
    -1.89493208E-02    2     1000039        22   # BR(~chi_40 -> ~G        gam)
    -5.91353906E-02    2     1000039        23   # BR(~chi_40 -> ~G        Z)
    -3.56421248E-09    2     1000039        25   # BR(~chi_40 -> ~G        h)
    -2.23832745E-08    2     1000039        35   # BR(~chi_40 -> ~G        H)
    -4.41061555E-12    2     1000039        36   # BR(~chi_40 -> ~G        A)
#
#
#
#
