#
#                              ======================
#                              | THE SUSYHIT OUTPUT |
#                              ======================
#
#
#              ------------------------------------------------------
#              |     This is the output of the SUSY-HIT package     |
#              |  created by A.Djouadi, M.Muehlleitner and M.Spira. |
#              |  In case of problems with SUSY-HIT email to        |
#              |           margarete.muehlleitner@cern.ch           |
#              |           michael.spira@psi.ch                     |
#              |           abdelhak.djouadi@cern.ch                 |
#              ------------------------------------------------------
#
#              ------------------------------------------------------
#              |  SUSY Les Houches Accord - MSSM Spectrum + Decays  |
#              |              based on the decay programs           |
#              |                                                    |
#              |                     SDECAY 1.3b                    |
#              |                                                    |
#              |  Authors: M.Muhlleitner, A.Djouadi and Y.Mambrini  |
#              |  Ref.:    Comput.Phys.Commun.168(2005)46           |
#              |           [hep-ph/0311167]                         |
#              |                                                    |
#              |                     HDECAY 3.4                     |
#              |                                                    |
#              |  By: A.Djouadi,J.Kalinowski,M.Muhlleitner,M.Spira  |
#              |  Ref.:    Comput.Phys.Commun.108(1998)56           |
#              |           [hep-ph/9704448]                         |
#              |                                                    |
#              |                                                    |
#              |  If not stated otherwise all DRbar couplings and   |
#              |  soft SUSY breaking masses are given at the scale  |
#              |  Q=  0.50007010E+04
#              |                                                    |
#              ------------------------------------------------------
#
#
BLOCK DCINFO  # Decay Program information
     1   SDECAY/HDECAY # decay calculator
     2   1.3b  /3.4    # version number
#
BLOCK SPINFO  # Spectrum calculator information
     1    SOFTSUSY    # spectrum calculator                
     2    3.4.0       # version number                     
#
BLOCK MODSEL  # Model selection
     1     0   #  nonUniversal                                     
#
BLOCK SMINPUTS  # Standard Model inputs
         1     1.25778332E+02   # alpha_em^-1(M_Z)^MSbar
         2     1.16570000E-05   # G_F [GeV^-2]
         3     1.17200002E-01   # alpha_S(M_Z)^MSbar
         4     9.11876000E+01   # M_Z pole mass
         5     4.25000000E+00   # mb(mb)^MSbar
         6     1.72500000E+02   # mt pole mass
         7     1.77682000E+00   # mtau pole mass
#
BLOCK MINPAR  # Input parameters - minimal models
         3     1.00000000E+01   # tanb                
#
BLOCK EXTPAR  # Input parameters - non-minimal models
         0    -1.00000000E+00   # Set                 
         1     6.00000000E+01   # M_1(MX)             
         2     3.00000000E+03   # M_2(MX)             
         3     2.23498300E+03   # M_3(MX)             
        11     5.00000000E+03   # At(MX)              
        12     5.00000000E+03   # Ab(MX)              
        13     0.00000000E+00   # Atau(MX)            
        23    -1.93690800E+03   # mu(MX)              
        26     3.00000000E+03   # mA(pole)            
        31     5.00000000E+03   # meL(MX)             
        32     5.00000000E+03   # mmuL(MX)            
        33     5.00000000E+03   # mtauL(MX)           
        34     5.00000000E+03   # meR(MX)             
        35     5.00000000E+03   # mmuR(MX)            
        36     5.00000000E+03   # mtauR(MX)           
        41     5.00000000E+03   # mqL1(MX)            
        42     5.00000000E+03   # mqL2(MX)            
        43     5.00000000E+03   # mqL3(MX)            
        44     5.00000000E+03   # muR(MX)             
        45     5.00000000E+03   # mcR(MX)             
        46     5.00000000E+03   # mtR(MX)             
        47     5.00000000E+03   # mdR(MX)             
        48     5.00000000E+03   # msR(MX)             
        49     5.00000000E+03   # mbR(MX)             
#
BLOCK MASS  # Mass Spectrum
# PDG code           mass       particle
        24     8.00977852E+01   # W+
        25     1.24830928E+02   # h
        35     3.00007622E+03   # H
        36     2.99999995E+03   # A
        37     3.00087250E+03   # H+
         5     4.87878001E+00   # b-quark pole mass calculated from mb(mb)_Msbar
   1000001     5.08186650E+03   # ~d_L
   2000001     5.06414450E+03   # ~d_R
   1000002     5.08139584E+03   # ~u_L
   2000002     5.06387704E+03   # ~u_R
   1000003     5.08186650E+03   # ~s_L
   2000003     5.06414450E+03   # ~s_R
   1000004     5.08139584E+03   # ~c_L
   2000004     5.06387704E+03   # ~c_R
   1000005     5.02858611E+03   # ~b_1
   2000005     5.06336277E+03   # ~b_2
   1000006     4.92182558E+03   # ~t_1
   2000006     5.07487113E+03   # ~t_2
   1000011     5.01903083E+03   # ~e_L
   2000011     5.00590186E+03   # ~e_R
   1000012     5.01808317E+03   # ~nu_eL
   1000013     5.01903083E+03   # ~mu_L
   2000013     5.00590186E+03   # ~mu_R
   1000014     5.01808317E+03   # ~nu_muL
   1000015     5.00405773E+03   # ~tau_1
   2000015     5.01933008E+03   # ~tau_2
   1000016     5.01755500E+03   # ~nu_tauL
   1000021     2.60000099E+03   # ~g
   1000022     6.02993518E+01   # ~chi_10
   1000023     1.99938265E+03   # ~chi_20
   1000025    -2.00239667E+03   # ~chi_30
   1000035     3.07449337E+03   # ~chi_40
   1000024     2.00000021E+03   # ~chi_1+
   1000037     3.07466125E+03   # ~chi_2+
#
BLOCK NMIX  # Neutralino Mixing Matrix
  1  1     9.99749441E-01   # N_11
  1  2     1.11642887E-04   # N_12
  1  3    -2.23213053E-02   # N_13
  1  4     1.67383118E-03   # N_14
  2  1     1.45912456E-02   # N_21
  2  2     4.52816469E-02   # N_22
  2  3     7.06689835E-01   # N_23
  2  4     7.05922195E-01   # N_24
  3  1    -1.69654083E-02   # N_31
  3  2     1.19412062E-02   # N_32
  3  3    -7.06777933E-01   # N_33
  3  4     7.07131201E-01   # N_34
  4  1    -5.70368867E-04   # N_41
  4  2     9.98902882E-01   # N_42
  4  3    -2.35836806E-02   # N_43
  4  4    -4.04538886E-02   # N_44
#
BLOCK UMIX  # Chargino Mixing Matrix U
  1  1     3.32825292E-02   # U_11
  1  2     9.99445983E-01   # U_12
  2  1    -9.99445983E-01   # U_21
  2  2     3.32825292E-02   # U_22
#
BLOCK VMIX  # Chargino Mixing Matrix V
  1  1     5.71417281E-02   # V_11
  1  2    -9.98366077E-01   # V_12
  2  1    -9.98366077E-01   # V_21
  2  2    -5.71417281E-02   # V_22
#
BLOCK STOPMIX  # Stop Mixing Matrix
  1  1    -5.14324603E-01   # cos(theta_t)
  1  2     8.57595594E-01   # sin(theta_t)
  2  1    -8.57595594E-01   # -sin(theta_t)
  2  2    -5.14324603E-01   # cos(theta_t)
#
BLOCK SBOTMIX  # Sbottom Mixing Matrix
  1  1     9.90705622E-01   # cos(theta_b)
  1  2    -1.36023419E-01   # sin(theta_b)
  2  1     1.36023419E-01   # -sin(theta_b)
  2  2     9.90705622E-01   # cos(theta_b)
#
BLOCK STAUMIX  # Stau Mixing Matrix
  1  1    -2.18683803E-01   # cos(theta_tau)
  1  2     9.75795775E-01   # sin(theta_tau)
  2  1    -9.75795775E-01   # -sin(theta_tau)
  2  2    -2.18683803E-01   # cos(theta_tau)
#
BLOCK ALPHA  # Higgs mixing
          -1.05463265E-01   # Mixing angle in the neutral Higgs boson sector
#
BLOCK HMIX Q=  5.00070098E+03  # DRbar Higgs Parameters
         1    -1.97263372E+03   # mu(Q)MSSM           
         2     9.47014104E+00   # tan                 
         3     2.42058418E+02   # higgs               
         4     8.33135029E+06   # mA^2(Q)MSSM         
#
BLOCK GAUGE Q=  5.00070098E+03  # The gauge couplings
     1     3.70622577E-01   # gprime(Q) DRbar
     2     6.31726977E-01   # g(Q) DRbar
     3     9.94617805E-01   # g3(Q) DRbar
#
BLOCK AU Q=  5.00070098E+03  # The trilinear couplings
  1  1     5.00000002E+03   # A_u(Q) DRbar
  2  2     5.00000002E+03   # A_c(Q) DRbar
  3  3     5.00000002E+03   # A_t(Q) DRbar
#
BLOCK AD Q=  5.00070098E+03  # The trilinear couplings
  1  1     5.00000001E+03   # A_d(Q) DRbar
  2  2     5.00000001E+03   # A_s(Q) DRbar
  3  3     5.00000001E+03   # A_b(Q) DRbar
#
BLOCK AE Q=  5.00070098E+03  # The trilinear couplings
  1  1     0.00000000E+00   # A_e(Q) DRbar
  2  2     2.71726471E-07   # A_mu(Q) DRbar
  3  3     2.71727940E-07   # A_tau(Q) DRbar
#
BLOCK Yu Q=  5.00070098E+03  # The Yukawa couplings
  1  1     0.00000000E+00   # y_u(Q) DRbar
  2  2     0.00000000E+00   # y_c(Q) DRbar
  3  3     8.20643813E-01   # y_t(Q) DRbar
#
BLOCK Yd Q=  5.00070098E+03  # The Yukawa couplings
  1  1     0.00000000E+00   # y_d(Q) DRbar
  2  2     0.00000000E+00   # y_s(Q) DRbar
  3  3     1.32575441E-01   # y_b(Q) DRbar
#
BLOCK Ye Q=  5.00070098E+03  # The Yukawa couplings
  1  1     0.00000000E+00   # y_e(Q) DRbar
  2  2     0.00000000E+00   # y_mu(Q) DRbar
  3  3     9.64498146E-02   # y_tau(Q) DRbar
#
BLOCK MSOFT Q=  5.00070098E+03  # The soft SUSY breaking masses at the scale Q
         1     6.00000000E+01   # M_1(Q)              
         2     3.00000000E+03   # M_2(Q)              
         3     2.23498300E+03   # M_3(Q)              
        21     4.75197190E+06   # mH1^2(Q)            
        22    -3.35830194E+06   # mH2^2(Q)            
        31     5.00000000E+03   # meL(Q)              
        32     5.00000000E+03   # mmuL(Q)             
        33     5.00000000E+03   # mtauL(Q)            
        34     5.00000000E+03   # meR(Q)              
        35     5.00000000E+03   # mmuR(Q)             
        36     5.00000000E+03   # mtauR(Q)            
        41     4.99999999E+03   # mqL1(Q)             
        42     4.99999999E+03   # mqL2(Q)             
        43     4.99999999E+03   # mqL3(Q)             
        44     4.99999999E+03   # muR(Q)              
        45     4.99999999E+03   # mcR(Q)              
        46     4.99999999E+03   # mtR(Q)              
        47     4.99999999E+03   # mdR(Q)              
        48     4.99999999E+03   # msR(Q)              
        49     4.99999999E+03   # mbR(Q)              
#
#
#
#                             =================
#                             |The decay table|
#                             =================
#
# - The QCD corrections to the decays gluino -> squark  + quark
#                                     squark -> gaugino + quark_prime
#                                     squark -> squark_prime + Higgs
#                                     squark -> gluino  + quark
#   are included.
#
# - The multi-body decays for the inos, stops and sbottoms are included.
#
# - The loop induced decays for the gluino, neutralinos and stops
#   are included.
#
# - The SUSY decays of the top quark are included.
#
#
#         PDG            Width
DECAY         6     1.39838671E+00   # top decays
#          BR         NDA      ID1       ID2
     1.00000000E+00    2           5        24   # BR(t ->  b    W+)
#
#         PDG            Width
DECAY   1000021     1.29198224E-03   # gluino decays
#          BR         NDA      ID1       ID2
     6.11900142E-06    2     1000022        21   # BR(~g -> ~chi_10 g)
     2.26286938E-03    2     1000023        21   # BR(~g -> ~chi_20 g)
     2.27901685E-03    2     1000025        21   # BR(~g -> ~chi_30 g)
#           BR         NDA      ID1       ID2       ID3
     7.23630977E-02    3     1000022         1        -1   # BR(~g -> ~chi_10 d  db)
     7.17871122E-06    3     1000023         1        -1   # BR(~g -> ~chi_20 d  db)
     3.64209206E-07    3     1000025         1        -1   # BR(~g -> ~chi_30 d  db)
     2.46712568E-01    3     1000022         2        -2   # BR(~g -> ~chi_10 u  ub)
     9.59629904E-06    3     1000023         2        -2   # BR(~g -> ~chi_20 u  ub)
     3.32810957E-07    3     1000025         2        -2   # BR(~g -> ~chi_30 u  ub)
     7.23630977E-02    3     1000022         3        -3   # BR(~g -> ~chi_10 s  sb)
     7.17871122E-06    3     1000023         3        -3   # BR(~g -> ~chi_20 s  sb)
     3.64209206E-07    3     1000025         3        -3   # BR(~g -> ~chi_30 s  sb)
     2.46712568E-01    3     1000022         4        -4   # BR(~g -> ~chi_10 c  cb)
     9.59629904E-06    3     1000023         4        -4   # BR(~g -> ~chi_20 c  cb)
     3.32810957E-07    3     1000025         4        -4   # BR(~g -> ~chi_30 c  cb)
     7.32205833E-02    3     1000022         5        -5   # BR(~g -> ~chi_10 b  bb)
     3.69216898E-04    3     1000023         5        -5   # BR(~g -> ~chi_20 b  bb)
     3.51075361E-04    3     1000025         5        -5   # BR(~g -> ~chi_30 b  bb)
     2.52332255E-01    3     1000022         6        -6   # BR(~g -> ~chi_10 t  tb)
     7.20052915E-03    3     1000023         6        -6   # BR(~g -> ~chi_20 t  tb)
     4.35292475E-03    3     1000025         6        -6   # BR(~g -> ~chi_30 t  tb)
     1.63207239E-05    3     1000024         1        -2   # BR(~g -> ~chi_1+ d  ub)
     1.63207239E-05    3    -1000024         2        -1   # BR(~g -> ~chi_1- u  db)
     1.63207239E-05    3     1000024         3        -4   # BR(~g -> ~chi_1+ s  cb)
     1.63207239E-05    3    -1000024         4        -3   # BR(~g -> ~chi_1- c  sb)
     9.68692574E-03    3     1000024         5        -6   # BR(~g -> ~chi_1+ b  tb)
     9.68692574E-03    3    -1000024         6        -5   # BR(~g -> ~chi_1- t  bb)
#
#         PDG            Width
DECAY   1000006     2.58435482E+02   # stop1 decays
#          BR         NDA      ID1       ID2
     3.39950119E-02    2     1000022         6   # BR(~t_1 -> ~chi_10 t )
     8.84743887E-02    2     1000023         6   # BR(~t_1 -> ~chi_20 t )
     8.49201671E-02    2     1000025         6   # BR(~t_1 -> ~chi_30 t )
     8.89619900E-03    2     1000035         6   # BR(~t_1 -> ~chi_40 t )
     1.26642639E-01    2     1000024         5   # BR(~t_1 -> ~chi_1+ b )
     1.76247830E-02    2     1000037         5   # BR(~t_1 -> ~chi_2+ b )
     6.39446811E-01    2     1000021         6   # BR(~t_1 -> ~g      t )
#
#         PDG            Width
DECAY   2000006     2.76396827E+02   # stop2 decays
#          BR         NDA      ID1       ID2
     1.28065673E-02    2     1000022         6   # BR(~t_2 -> ~chi_10 t )
     8.73930427E-02    2     1000023         6   # BR(~t_2 -> ~chi_20 t )
     9.10954806E-02    2     1000025         6   # BR(~t_2 -> ~chi_30 t )
     1.95585523E-02    2     1000035         6   # BR(~t_2 -> ~chi_40 t )
     5.48432203E-02    2     1000024         5   # BR(~t_2 -> ~chi_1+ b )
     3.86526599E-02    2     1000037         5   # BR(~t_2 -> ~chi_2+ b )
     6.91092463E-01    2     1000021         6   # BR(~t_2 -> ~g      t )
     9.79808058E-04    2     1000006        25   # BR(~t_2 -> ~t_1    h )
     3.57820577E-03    2     1000006        23   # BR(~t_2 -> ~t_1    Z )
#
#         PDG            Width
DECAY   1000005     2.52909429E+02   # sbottom1 decays
#          BR         NDA      ID1       ID2
     3.14302536E-03    2     1000022         5   # BR(~b_1 -> ~chi_10 b )
     2.66904155E-03    2     1000023         5   # BR(~b_1 -> ~chi_20 b )
     2.40403377E-03    2     1000025         5   # BR(~b_1 -> ~chi_30 b )
     2.94756527E-02    2     1000035         5   # BR(~b_1 -> ~chi_40 b )
     1.84404499E-01    2    -1000024         6   # BR(~b_1 -> ~chi_1- t )
     5.96022039E-02    2    -1000037         6   # BR(~b_1 -> ~chi_2- t )
     7.16282287E-01    2     1000021         5   # BR(~b_1 -> ~g      b )
     2.01925696E-03    2     1000006       -24   # BR(~b_1 -> ~t_1    W-)
#
#         PDG            Width
DECAY   2000005     1.90825511E+02   # sbottom2 decays
#          BR         NDA      ID1       ID2
     1.52245163E-02    2     1000022         5   # BR(~b_2 -> ~chi_10 b )
     3.15542428E-03    2     1000023         5   # BR(~b_2 -> ~chi_20 b )
     3.39139073E-03    2     1000025         5   # BR(~b_2 -> ~chi_30 b )
     7.99046699E-04    2     1000035         5   # BR(~b_2 -> ~chi_40 b )
     1.09561252E-02    2    -1000024         6   # BR(~b_2 -> ~chi_1- t )
     1.61362221E-03    2    -1000037         6   # BR(~b_2 -> ~chi_2- t )
     9.64634437E-01    2     1000021         5   # BR(~b_2 -> ~g      b )
     2.25437662E-04    2     1000006       -24   # BR(~b_2 -> ~t_1    W-)
#
#         PDG            Width
DECAY   1000002     2.10016551E+02   # sup_L decays
#          BR         NDA      ID1       ID2
     3.54498722E-03    2     1000022         2   # BR(~u_L -> ~chi_10 u)
     1.54047078E-04    2     1000023         2   # BR(~u_L -> ~chi_20 u)
     4.93870982E-06    2     1000025         2   # BR(~u_L -> ~chi_30 u)
     3.74686254E-02    2     1000035         2   # BR(~u_L -> ~chi_40 u)
     4.34078646E-04    2     1000024         1   # BR(~u_L -> ~chi_1+ d)
     7.48640891E-02    2     1000037         1   # BR(~u_L -> ~chi_2+ d)
     8.83529234E-01    2     1000021         2   # BR(~u_L -> ~g      u)
#
#         PDG            Width
DECAY   2000002     1.95868927E+02   # sup_R decays
#          BR         NDA      ID1       ID2
     6.05335225E-02    2     1000022         2   # BR(~u_R -> ~chi_10 u)
     9.23146064E-06    2     1000023         2   # BR(~u_R -> ~chi_20 u)
     1.24661761E-05    2     1000025         2   # BR(~u_R -> ~chi_30 u)
     7.92570473E-09    2     1000035         2   # BR(~u_R -> ~chi_40 u)
     9.39444772E-01    2     1000021         2   # BR(~u_R -> ~g      u)
#
#         PDG            Width
DECAY   1000001     2.10036020E+02   # sdown_L decays
#          BR         NDA      ID1       ID2
     3.53690574E-03    2     1000022         1   # BR(~d_L -> ~chi_10 d)
     1.19692738E-04    2     1000023         1   # BR(~d_L -> ~chi_20 d)
     1.54643793E-05    2     1000025         1   # BR(~d_L -> ~chi_30 d)
     3.74933329E-02    2     1000035         1   # BR(~d_L -> ~chi_40 d)
     1.47273316E-04    2    -1000024         2   # BR(~d_L -> ~chi_1- u)
     7.50420844E-02    2    -1000037         2   # BR(~d_L -> ~chi_2- u)
     8.83645247E-01    2     1000021         1   # BR(~d_L -> ~g      d)
#
#         PDG            Width
DECAY   2000001     1.86997057E+02   # sdown_R decays
#          BR         NDA      ID1       ID2
     1.58522218E-02    2     1000022         1   # BR(~d_R -> ~chi_10 d)
     2.41758219E-06    2     1000023         1   # BR(~d_R -> ~chi_20 d)
     3.26470650E-06    2     1000025         1   # BR(~d_R -> ~chi_30 d)
     2.07579682E-09    2     1000035         1   # BR(~d_R -> ~chi_40 d)
     9.84142094E-01    2     1000021         1   # BR(~d_R -> ~g      d)
#
#         PDG            Width
DECAY   1000004     2.10016551E+02   # scharm_L decays
#          BR         NDA      ID1       ID2
     3.54498722E-03    2     1000022         4   # BR(~c_L -> ~chi_10 c)
     1.54047078E-04    2     1000023         4   # BR(~c_L -> ~chi_20 c)
     4.93870982E-06    2     1000025         4   # BR(~c_L -> ~chi_30 c)
     3.74686254E-02    2     1000035         4   # BR(~c_L -> ~chi_40 c)
     4.34078646E-04    2     1000024         3   # BR(~c_L -> ~chi_1+ s)
     7.48640891E-02    2     1000037         3   # BR(~c_L -> ~chi_2+ s)
     8.83529234E-01    2     1000021         4   # BR(~c_L -> ~g      c)
#
#         PDG            Width
DECAY   2000004     1.95868927E+02   # scharm_R decays
#          BR         NDA      ID1       ID2
     6.05335225E-02    2     1000022         4   # BR(~c_R -> ~chi_10 c)
     9.23146064E-06    2     1000023         4   # BR(~c_R -> ~chi_20 c)
     1.24661761E-05    2     1000025         4   # BR(~c_R -> ~chi_30 c)
     7.92570473E-09    2     1000035         4   # BR(~c_R -> ~chi_40 c)
     9.39444772E-01    2     1000021         4   # BR(~c_R -> ~g      c)
#
#         PDG            Width
DECAY   1000003     2.10036020E+02   # sstrange_L decays
#          BR         NDA      ID1       ID2
     3.53690574E-03    2     1000022         3   # BR(~s_L -> ~chi_10 s)
     1.19692738E-04    2     1000023         3   # BR(~s_L -> ~chi_20 s)
     1.54643793E-05    2     1000025         3   # BR(~s_L -> ~chi_30 s)
     3.74933329E-02    2     1000035         3   # BR(~s_L -> ~chi_40 s)
     1.47273316E-04    2    -1000024         4   # BR(~s_L -> ~chi_1- c)
     7.50420844E-02    2    -1000037         4   # BR(~s_L -> ~chi_2- c)
     8.83645247E-01    2     1000021         3   # BR(~s_L -> ~g      s)
#
#         PDG            Width
DECAY   2000003     1.86997057E+02   # sstrange_R decays
#          BR         NDA      ID1       ID2
     1.58522218E-02    2     1000022         3   # BR(~s_R -> ~chi_10 s)
     2.41758219E-06    2     1000023         3   # BR(~s_R -> ~chi_20 s)
     3.26470650E-06    2     1000025         3   # BR(~s_R -> ~chi_30 s)
     2.07579682E-09    2     1000035         3   # BR(~s_R -> ~chi_40 s)
     9.84142094E-01    2     1000021         3   # BR(~s_R -> ~g      s)
#
#         PDG            Width
DECAY   1000011     3.02163763E+01   # selectron_L decays
#          BR         NDA      ID1       ID2
     2.26862988E-01    2     1000022        11   # BR(~e_L -> ~chi_10 e-)
     1.35297877E-03    2     1000023        11   # BR(~e_L -> ~chi_20 e-)
     1.84224856E-06    2     1000025        11   # BR(~e_L -> ~chi_30 e-)
     2.56637730E-01    2     1000035        11   # BR(~e_L -> ~chi_40 e-)
     1.03373453E-03    2    -1000024        12   # BR(~e_L -> ~chi_1- nu_e)
     5.14110727E-01    2    -1000037        12   # BR(~e_L -> ~chi_2- nu_e)
#
#         PDG            Width
DECAY   2000011     2.73474086E+01   # selectron_R decays
#          BR         NDA      ID1       ID2
     9.99646237E-01    2     1000022        11   # BR(~e_R -> ~chi_10 e-)
     1.50461355E-04    2     1000023        11   # BR(~e_R -> ~chi_20 e-)
     2.03175484E-04    2     1000025        11   # BR(~e_R -> ~chi_30 e-)
     1.26236753E-07    2     1000035        11   # BR(~e_R -> ~chi_40 e-)
#
#         PDG            Width
DECAY   1000013     3.02163763E+01   # smuon_L decays
#          BR         NDA      ID1       ID2
     2.26862988E-01    2     1000022        13   # BR(~mu_L -> ~chi_10 mu-)
     1.35297877E-03    2     1000023        13   # BR(~mu_L -> ~chi_20 mu-)
     1.84224856E-06    2     1000025        13   # BR(~mu_L -> ~chi_30 mu-)
     2.56637730E-01    2     1000035        13   # BR(~mu_L -> ~chi_40 mu-)
     1.03373453E-03    2    -1000024        14   # BR(~mu_L -> ~chi_1- nu_mu)
     5.14110727E-01    2    -1000037        14   # BR(~mu_L -> ~chi_2- nu_mu)
#
#         PDG            Width
DECAY   2000013     2.73474086E+01   # smuon_R decays
#          BR         NDA      ID1       ID2
     9.99646237E-01    2     1000022        13   # BR(~mu_R -> ~chi_10 mu-)
     1.50461355E-04    2     1000023        13   # BR(~mu_R -> ~chi_20 mu-)
     2.03175484E-04    2     1000025        13   # BR(~mu_R -> ~chi_30 mu-)
     1.26236753E-07    2     1000035        13   # BR(~mu_R -> ~chi_40 mu-)
#
#         PDG            Width
DECAY   1000015     2.87867751E+01   # stau_1 decays
#          BR         NDA      ID1       ID2
     9.16114507E-01    2     1000022        15   # BR(~tau_1 -> ~chi_10  tau-)
     1.27159506E-02    2     1000023        15   # BR(~tau_1 -> ~chi_20  tau-)
     1.08249352E-02    2     1000025        15   # BR(~tau_1 -> ~chi_30  tau-)
     1.21781485E-02    2     1000035        15   # BR(~tau_1 -> ~chi_40  tau-)
     2.37672065E-02    2    -1000024        16   # BR(~tau_1 -> ~chi_1-  nu_tau)
     2.43992523E-02    2    -1000037        16   # BR(~tau_1 -> ~chi_2-  nu_tau)
#
#         PDG            Width
DECAY   2000015     3.07280044E+01   # stau_2 decays
#          BR         NDA      ID1       ID2
     2.54324916E-01    2     1000022        15   # BR(~tau_2 -> ~chi_10  tau-)
     1.08631315E-02    2     1000023        15   # BR(~tau_2 -> ~chi_20  tau-)
     1.13427690E-02    2     1000025        15   # BR(~tau_2 -> ~chi_30  tau-)
     2.40899039E-01    2     1000035        15   # BR(~tau_2 -> ~chi_40  tau-)
     7.30904203E-07    2    -1000024        16   # BR(~tau_2 -> ~chi_1-  nu_tau)
     4.82569414E-01    2    -1000037        16   # BR(~tau_2 -> ~chi_2-  nu_tau)
#
#         PDG            Width
DECAY   1000012     3.02173908E+01   # snu_eL decays
#          BR         NDA      ID1       ID2
     2.26639890E-01    2     1000022        12   # BR(~nu_eL -> ~chi_10 nu_e)
     6.29105709E-04    2     1000023        12   # BR(~nu_eL -> ~chi_20 nu_e)
     2.23390374E-04    2     1000025        12   # BR(~nu_eL -> ~chi_30 nu_e)
     2.56808135E-01    2     1000035        12   # BR(~nu_eL -> ~chi_40 nu_e)
     3.04596283E-03    2     1000024        11   # BR(~nu_eL -> ~chi_1+ e-)
     5.12653516E-01    2     1000037        11   # BR(~nu_eL -> ~chi_2+ e-)
#
#         PDG            Width
DECAY   1000014     3.02173908E+01   # snu_muL decays
#          BR         NDA      ID1       ID2
     2.26639890E-01    2     1000022        14   # BR(~nu_muL -> ~chi_10 nu_mu)
     6.29105709E-04    2     1000023        14   # BR(~nu_muL -> ~chi_20 nu_mu)
     2.23390374E-04    2     1000025        14   # BR(~nu_muL -> ~chi_30 nu_mu)
     2.56808135E-01    2     1000035        14   # BR(~nu_muL -> ~chi_40 nu_mu)
     3.04596283E-03    2     1000024        13   # BR(~nu_muL -> ~chi_1+ mu-)
     5.12653516E-01    2     1000037        13   # BR(~nu_muL -> ~chi_2+ mu-)
#
#         PDG            Width
DECAY   1000016     3.08649950E+01   # snu_tauL decays
#          BR         NDA      ID1       ID2
     2.21861203E-01    2     1000022        16   # BR(~nu_tauL -> ~chi_10 nu_tau)
     6.15792157E-04    2     1000023        16   # BR(~nu_tauL -> ~chi_20 nu_tau)
     2.18662777E-04    2     1000025        16   # BR(~nu_tauL -> ~chi_30 nu_tau)
     2.51329754E-01    2     1000035        16   # BR(~nu_tauL -> ~chi_40 nu_tau)
     2.42481940E-02    2     1000024        15   # BR(~nu_tauL -> ~chi_1+ tau-)
     5.01726395E-01    2     1000037        15   # BR(~nu_tauL -> ~chi_2+ tau-)
#
#         PDG            Width
DECAY   1000024     1.23486479E+00   # chargino1+ decays
#          BR         NDA      ID1       ID2
     1.00000000E+00    2     1000022        24   # BR(~chi_1+ -> ~chi_10  W+)
#
#         PDG            Width
DECAY   1000037     1.53607459E+01   # chargino2+ decays
#          BR         NDA      ID1       ID2
     2.51881652E-01    2     1000024        23   # BR(~chi_2+ -> ~chi_1+  Z )
     4.76630329E-04    2     1000022        24   # BR(~chi_2+ -> ~chi_10  W+)
     2.45380837E-01    2     1000023        24   # BR(~chi_2+ -> ~chi_20  W+)
     2.42767917E-01    2     1000025        24   # BR(~chi_2+ -> ~chi_30  W+)
     2.59492921E-01    2     1000024        25   # BR(~chi_2+ -> ~chi_1+  h )
     4.32172569E-08    2     1000022        37   # BR(~chi_2+ -> ~chi_10  H+)
#
#         PDG            Width
DECAY   1000022     0.00000000E+00   # neutralino1 decays
#
#         PDG            Width
DECAY   1000023     1.30074460E+00   # neutralino2 decays
#          BR         NDA      ID1       ID2
     5.65491375E-01    2     1000022        23   # BR(~chi_20 -> ~chi_10   Z )
     4.34508625E-01    2     1000022        25   # BR(~chi_20 -> ~chi_10   h )
#
#         PDG            Width
DECAY   1000025     1.31707088E+00   # neutralino3 decays
#          BR         NDA      ID1       ID2
     4.15217118E-01    2     1000022        23   # BR(~chi_30 -> ~chi_10   Z )
     5.84782882E-01    2     1000022        25   # BR(~chi_30 -> ~chi_10   h )
#
#         PDG            Width
DECAY   1000035     1.53141179E+01   # neutralino4 decays
#          BR         NDA      ID1       ID2
     2.14712012E-04    2     1000022        23   # BR(~chi_40 -> ~chi_10   Z )
     1.67164938E-02    2     1000023        23   # BR(~chi_40 -> ~chi_20   Z )
     2.35826308E-01    2     1000025        23   # BR(~chi_40 -> ~chi_30   Z )
     2.43570919E-01    2     1000024       -24   # BR(~chi_40 -> ~chi_1+   W-)
     2.43570919E-01    2    -1000024        24   # BR(~chi_40 -> ~chi_1-   W+)
     2.82187811E-04    2     1000022        25   # BR(~chi_40 -> ~chi_10   h )
     3.23256120E-08    2     1000022        35   # BR(~chi_40 -> ~chi_10   H )
     1.24500695E-08    2     1000022        36   # BR(~chi_40 -> ~chi_10   A )
     2.43354933E-01    2     1000023        25   # BR(~chi_40 -> ~chi_20   h )
     1.64634823E-02    2     1000025        25   # BR(~chi_40 -> ~chi_30   h )
#
#         PDG            Width
DECAY        25     4.02843311E-03   # h decays
#          BR         NDA      ID1       ID2
     6.03800638E-01    2           5        -5   # BR(h -> b       bb     )
     6.44060989E-02    2         -15        15   # BR(h -> tau+    tau-   )
     2.28020753E-04    2         -13        13   # BR(h -> mu+     mu-    )
     4.83347994E-04    2           3        -3   # BR(h -> s       sb     )
     2.09472732E-02    2           4        -4   # BR(h -> c       cb     )
     6.78254219E-02    2          21        21   # BR(h -> g       g      )
     2.33362929E-03    2          22        22   # BR(h -> gam     gam    )
     1.50956077E-03    2          22        23   # BR(h -> Z       gam    )
     2.13025450E-01    2          24       -24   # BR(h -> W+      W-     )
     2.54191643E-02    2          23        23   # BR(h -> Z       Z      )
     2.13949785E-05    2     1000022   1000022   # BR(h -> ~chi_10 ~chi_10)
#
#         PDG            Width
DECAY        35     6.36588758E+00   # H decays
#          BR         NDA      ID1       ID2
     5.20108881E-01    2           5        -5   # BR(H -> b       bb     )
     8.75206241E-02    2         -15        15   # BR(H -> tau+    tau-   )
     3.09479879E-04    2         -13        13   # BR(H -> mu+     mu-    )
     3.79375006E-04    2           3        -3   # BR(H -> s       sb     )
     2.12153750E-06    2           4        -4   # BR(H -> c       cb     )
     2.11958390E-01    2           6        -6   # BR(H -> t       tb     )
     7.03065717E-05    2          21        21   # BR(H -> g       g      )
     3.97637875E-07    2          22        22   # BR(H -> gam     gam    )
     1.25223037E-07    2          23        22   # BR(H -> Z       gam    )
     9.22647922E-05    2          24       -24   # BR(H -> W+      W-     )
     4.60740166E-05    2          23        23   # BR(H -> Z       Z      )
     3.52614534E-04    2          25        25   # BR(H -> h       h      )
     1.79016094E-23    2          36        36   # BR(H -> A       A      )
     1.09037394E-18    2          23        36   # BR(H -> Z       A      )
     5.67594039E-04    2     1000022   1000022   # BR(H -> ~chi_10 ~chi_10)
     1.04306310E-01    2     1000022   1000023   # BR(H -> ~chi_10 ~chi_20)
     7.42854414E-02    2     1000022   1000025   # BR(H -> ~chi_10 ~chi_30)
#
#         PDG            Width
DECAY        36     6.36924610E+00   # A decays
#          BR         NDA      ID1       ID2
     5.20007083E-01    2           5        -5   # BR(A -> b       bb     )
     8.74771469E-02    2         -15        15   # BR(A -> tau+    tau-   )
     3.09325707E-04    2         -13        13   # BR(A -> mu+     mu-    )
     3.79463006E-04    2           3        -3   # BR(A -> s       sb     )
     2.12940469E-06    2           4        -4   # BR(A -> c       cb     )
     2.12627013E-01    2           6        -6   # BR(A -> t       tb     )
     2.10419645E-04    2          21        21   # BR(A -> g       g      )
     4.11306004E-07    2          22        22   # BR(A -> gam     gam    )
     2.54990895E-07    2          23        22   # BR(A -> Z       gam    )
     9.18677061E-05    2          23        25   # BR(A -> Z       h      )
     5.86538859E-04    2     1000022   1000022   # BR(A -> ~chi_10 ~chi_10)
     7.52126364E-02    2     1000022   1000023   # BR(A -> ~chi_10 ~chi_20)
     1.03095710E-01    2     1000022   1000025   # BR(A -> ~chi_10 ~chi_30)
#
#         PDG            Width
DECAY        37     6.40118164E+00   # H+ decays
#          BR         NDA      ID1       ID2
     8.40879442E-04    2           4        -5   # BR(H+ -> c       bb     )
     8.70660386E-02    2         -15        16   # BR(H+ -> tau+    nu_tau )
     3.07871998E-04    2         -13        14   # BR(H+ -> mu+     nu_mu  )
     5.38160141E-06    2           2        -5   # BR(H+ -> u       bb     )
     1.80652881E-05    2           2        -3   # BR(H+ -> u       sb     )
     3.73591013E-04    2           4        -3   # BR(H+ -> c       sb     )
     7.32665090E-01    2           6        -5   # BR(H+ -> t       bb     )
     9.15478492E-05    2          24        25   # BR(H+ -> W+      h      )
     1.03845698E-13    2          24        36   # BR(H+ -> W+      A      )
     1.78631534E-01    2     1000024   1000022   # BR(H+ -> ~chi_1+ ~chi_10)
