#
#                              ======================
#                              | THE SUSYHIT OUTPUT |
#                              ======================
#
#
#              ------------------------------------------------------
#              |     This is the output of the SUSY-HIT package     |
#              |  created by A.Djouadi, M.Muehlleitner and M.Spira. |
#              |  In case of problems with SUSY-HIT email to        |
#              |           margarete.muehlleitner@cern.ch           |
#              |           michael.spira@psi.ch                     |
#              |           abdelhak.djouadi@cern.ch                 |
#              ------------------------------------------------------
#
#              ------------------------------------------------------
#              |  SUSY Les Houches Accord - MSSM Spectrum + Decays  |
#              |              based on the decay programs           |
#              |                                                    |
#              |                     SDECAY 1.3b                    |
#              |                                                    |
#              |  Authors: M.Muhlleitner, A.Djouadi and Y.Mambrini  |
#              |  Ref.:    Comput.Phys.Commun.168(2005)46           |
#              |           [hep-ph/0311167]                         |
#              |                                                    |
#              |                     HDECAY 3.4                     |
#              |                                                    |
#              |  By: A.Djouadi,J.Kalinowski,M.Muhlleitner,M.Spira  |
#              |  Ref.:    Comput.Phys.Commun.108(1998)56           |
#              |           [hep-ph/9704448]                         |
#              |                                                    |
#              |                                                    |
#              |  If not stated otherwise all DRbar couplings and   |
#              |  soft SUSY breaking masses are given at the scale  |
#              |  Q=  0.50007269E+04
#              |                                                    |
#              ------------------------------------------------------
#
#
BLOCK DCINFO  # Decay Program information
     1   SDECAY/HDECAY # decay calculator
     2   1.3b  /3.4    # version number
#
BLOCK SPINFO  # Spectrum calculator information
     1    SOFTSUSY    # spectrum calculator                
     2    3.4.0       # version number                     
#
BLOCK MODSEL  # Model selection
     1     0   #  nonUniversal                                     
#
BLOCK SMINPUTS  # Standard Model inputs
         1     1.25778332E+02   # alpha_em^-1(M_Z)^MSbar
         2     1.16570000E-05   # G_F [GeV^-2]
         3     1.17200002E-01   # alpha_S(M_Z)^MSbar
         4     9.11876000E+01   # M_Z pole mass
         5     4.25000000E+00   # mb(mb)^MSbar
         6     1.72500000E+02   # mt pole mass
         7     1.77682000E+00   # mtau pole mass
#
BLOCK MINPAR  # Input parameters - minimal models
         3     1.00000000E+01   # tanb                
#
BLOCK EXTPAR  # Input parameters - non-minimal models
         0    -1.00000000E+00   # Set                 
         1     6.00000000E+01   # M_1(MX)             
         2     3.00000000E+03   # M_2(MX)             
         3     9.46041000E+02   # M_3(MX)             
        11     5.00000000E+03   # At(MX)              
        12     5.00000000E+03   # Ab(MX)              
        13     0.00000000E+00   # Atau(MX)            
        23    -1.05663400E+03   # mu(MX)              
        26     3.00000000E+03   # mA(pole)            
        31     5.00000000E+03   # meL(MX)             
        32     5.00000000E+03   # mmuL(MX)            
        33     5.00000000E+03   # mtauL(MX)           
        34     5.00000000E+03   # meR(MX)             
        35     5.00000000E+03   # mmuR(MX)            
        36     5.00000000E+03   # mtauR(MX)           
        41     5.00000000E+03   # mqL1(MX)            
        42     5.00000000E+03   # mqL2(MX)            
        43     5.00000000E+03   # mqL3(MX)            
        44     5.00000000E+03   # muR(MX)             
        45     5.00000000E+03   # mcR(MX)             
        46     5.00000000E+03   # mtR(MX)             
        47     5.00000000E+03   # mdR(MX)             
        48     5.00000000E+03   # msR(MX)             
        49     5.00000000E+03   # mbR(MX)             
#
BLOCK MASS  # Mass Spectrum
# PDG code           mass       particle
        24     8.00935166E+01   # W+
        25     1.24460668E+02   # h
        35     3.00008377E+03   # H
        36     2.99999640E+03   # A
        37     3.00099000E+03   # H+
         5     4.87878001E+00   # b-quark pole mass calculated from mb(mb)_Msbar
   1000001     5.06468616E+03   # ~d_L
   2000001     5.04686163E+03   # ~d_R
   1000002     5.06420964E+03   # ~u_L
   2000002     5.04657771E+03   # ~u_R
   1000003     5.06468616E+03   # ~s_L
   2000003     5.04686163E+03   # ~s_R
   1000004     5.06420964E+03   # ~c_L
   2000004     5.04657771E+03   # ~c_R
   1000005     5.01088593E+03   # ~b_1
   2000005     5.04549241E+03   # ~b_2
   1000006     4.90138478E+03   # ~t_1
   2000006     5.05690532E+03   # ~t_2
   1000011     5.01906807E+03   # ~e_L
   2000011     5.00592121E+03   # ~e_R
   1000012     5.01811915E+03   # ~nu_eL
   1000013     5.01906807E+03   # ~mu_L
   2000013     5.00592121E+03   # ~mu_R
   1000014     5.01811915E+03   # ~nu_muL
   1000015     5.00456987E+03   # ~tau_1
   2000015     5.01880768E+03   # ~tau_2
   1000016     5.01757418E+03   # ~nu_tauL
   1000021     1.20000108E+03   # ~g
   1000022     6.03007656E+01   # ~chi_10
   1000023     1.09958920E+03   # ~chi_20
   1000025    -1.10186549E+03   # ~chi_30
   1000035     3.07427772E+03   # ~chi_40
   1000024     1.10000036E+03   # ~chi_1+
   1000037     3.07444522E+03   # ~chi_2+
#
BLOCK NMIX  # Neutralino Mixing Matrix
  1  1     9.99178174E-01   # N_11
  1  2     1.73932658E-04   # N_12
  1  3    -4.04835648E-02   # N_13
  1  4     2.00684661E-03   # N_14
  2  1     2.72134719E-02   # N_21
  2  2     2.46751626E-02   # N_22
  2  3     7.06785179E-01   # N_23
  2  4     7.06473831E-01   # N_24
  3  1    -3.00372590E-02   # N_31
  3  2     1.45532094E-02   # N_32
  3  3    -7.06232650E-01   # N_33
  3  4     7.07192627E-01   # N_34
  4  1    -4.08315624E-04   # N_41
  4  2     9.99589571E-01   # N_42
  4  3    -7.15798404E-03   # N_43
  4  4    -2.77360117E-02   # N_44
#
BLOCK UMIX  # Chargino Mixing Matrix U
  1  1     1.01374884E-02   # U_11
  1  2     9.99948614E-01   # U_12
  2  1    -9.99948614E-01   # U_21
  2  2     1.01374884E-02   # U_22
#
BLOCK VMIX  # Chargino Mixing Matrix V
  1  1     3.92542760E-02   # V_11
  1  2    -9.99229254E-01   # V_12
  2  1    -9.99229254E-01   # V_21
  2  2    -3.92542760E-02   # V_22
#
BLOCK STOPMIX  # Stop Mixing Matrix
  1  1    -5.10359810E-01   # cos(theta_t)
  1  2     8.59960967E-01   # sin(theta_t)
  2  1    -8.59960967E-01   # -sin(theta_t)
  2  2    -5.10359810E-01   # cos(theta_t)
#
BLOCK SBOTMIX  # Sbottom Mixing Matrix
  1  1     9.96592648E-01   # cos(theta_b)
  1  2    -8.24808702E-02   # sin(theta_b)
  2  1     8.24808702E-02   # -sin(theta_b)
  2  2     9.96592648E-01   # cos(theta_b)
#
BLOCK STAUMIX  # Stau Mixing Matrix
  1  1    -1.25041963E-01   # cos(theta_tau)
  1  2     9.92151454E-01   # sin(theta_tau)
  2  1    -9.92151454E-01   # -sin(theta_tau)
  2  2    -1.25041963E-01   # cos(theta_tau)
#
BLOCK ALPHA  # Higgs mixing
          -1.05437191E-01   # Mixing angle in the neutral Higgs boson sector
#
BLOCK HMIX Q=  5.00072690E+03  # DRbar Higgs Parameters
         1    -1.07559733E+03   # mu(Q)MSSM           
         2     9.47300605E+00   # tan                 
         3     2.41922064E+02   # higgs               
         4     8.48423630E+06   # mA^2(Q)MSSM         
#
BLOCK GAUGE Q=  5.00072690E+03  # The gauge couplings
     1     3.70790427E-01   # gprime(Q) DRbar
     2     6.32483936E-01   # g(Q) DRbar
     3     1.00596802E+00   # g3(Q) DRbar
#
BLOCK AU Q=  5.00072690E+03  # The trilinear couplings
  1  1     5.00000001E+03   # A_u(Q) DRbar
  2  2     5.00000001E+03   # A_c(Q) DRbar
  3  3     5.00000001E+03   # A_t(Q) DRbar
#
BLOCK AD Q=  5.00072690E+03  # The trilinear couplings
  1  1     5.00000000E+03   # A_d(Q) DRbar
  2  2     5.00000000E+03   # A_s(Q) DRbar
  3  3     5.00000001E+03   # A_b(Q) DRbar
#
BLOCK AE Q=  5.00072690E+03  # The trilinear couplings
  1  1     0.00000000E+00   # A_e(Q) DRbar
  2  2     4.95046444E-08   # A_mu(Q) DRbar
  3  3     4.86563134E-08   # A_tau(Q) DRbar
#
BLOCK Yu Q=  5.00072690E+03  # The Yukawa couplings
  1  1     0.00000000E+00   # y_u(Q) DRbar
  2  2     0.00000000E+00   # y_c(Q) DRbar
  3  3     8.15772017E-01   # y_t(Q) DRbar
#
BLOCK Yd Q=  5.00072690E+03  # The Yukawa couplings
  1  1     0.00000000E+00   # y_d(Q) DRbar
  2  2     0.00000000E+00   # y_s(Q) DRbar
  3  3     1.29778966E-01   # y_b(Q) DRbar
#
BLOCK Ye Q=  5.00072690E+03  # The Yukawa couplings
  1  1     0.00000000E+00   # y_e(Q) DRbar
  2  2     0.00000000E+00   # y_mu(Q) DRbar
  3  3     9.68176330E-02   # y_tau(Q) DRbar
#
BLOCK MSOFT Q=  5.00072690E+03  # The soft SUSY breaking masses at the scale Q
         1     6.00000000E+01   # M_1(Q)              
         2     3.00000000E+03   # M_2(Q)              
         3     9.46041000E+02   # M_3(Q)              
        21     7.53357985E+06   # mH1^2(Q)            
        22    -5.99209160E+05   # mH2^2(Q)            
        31     5.00000000E+03   # meL(Q)              
        32     5.00000000E+03   # mmuL(Q)             
        33     5.00000000E+03   # mtauL(Q)            
        34     5.00000000E+03   # meR(Q)              
        35     5.00000000E+03   # mmuR(Q)             
        36     5.00000000E+03   # mtauR(Q)            
        41     5.00000000E+03   # mqL1(Q)             
        42     5.00000000E+03   # mqL2(Q)             
        43     5.00000000E+03   # mqL3(Q)             
        44     5.00000000E+03   # muR(Q)              
        45     5.00000000E+03   # mcR(Q)              
        46     5.00000000E+03   # mtR(Q)              
        47     5.00000000E+03   # mdR(Q)              
        48     5.00000000E+03   # msR(Q)              
        49     5.00000000E+03   # mbR(Q)              
#
#
#
#                             =================
#                             |The decay table|
#                             =================
#
# - The QCD corrections to the decays gluino -> squark  + quark
#                                     squark -> gaugino + quark_prime
#                                     squark -> squark_prime + Higgs
#                                     squark -> gluino  + quark
#   are included.
#
# - The multi-body decays for the inos, stops and sbottoms are included.
#
# - The loop induced decays for the gluino, neutralinos and stops
#   are included.
#
# - The SUSY decays of the top quark are included.
#
#
#         PDG            Width
DECAY         6     1.40192645E+00   # top decays
#          BR         NDA      ID1       ID2
     1.00000000E+00    2           5        24   # BR(t ->  b    W+)
#
#         PDG            Width
DECAY   1000021     2.16774810E-05   # gluino decays
#          BR         NDA      ID1       ID2
     1.57463131E-05    2     1000022        21   # BR(~g -> ~chi_10 g)
     6.31239322E-04    2     1000023        21   # BR(~g -> ~chi_20 g)
     5.86414290E-04    2     1000025        21   # BR(~g -> ~chi_30 g)
#           BR         NDA      ID1       ID2       ID3
     8.02548890E-02    3     1000022         1        -1   # BR(~g -> ~chi_10 d  db)
     1.39589981E-08    3     1000023         1        -1   # BR(~g -> ~chi_20 d  db)
     4.74665543E-09    3     1000025         1        -1   # BR(~g -> ~chi_30 d  db)
     2.73609949E-01    3     1000022         2        -2   # BR(~g -> ~chi_10 u  ub)
     3.87618856E-08    3     1000023         2        -2   # BR(~g -> ~chi_20 u  ub)
     5.41232055E-09    3     1000025         2        -2   # BR(~g -> ~chi_30 u  ub)
     8.02548890E-02    3     1000022         3        -3   # BR(~g -> ~chi_10 s  sb)
     1.39589981E-08    3     1000023         3        -3   # BR(~g -> ~chi_20 s  sb)
     4.74665543E-09    3     1000025         3        -3   # BR(~g -> ~chi_30 s  sb)
     2.73609949E-01    3     1000022         4        -4   # BR(~g -> ~chi_10 c  cb)
     3.87618856E-08    3     1000023         4        -4   # BR(~g -> ~chi_20 c  cb)
     5.41232055E-09    3     1000025         4        -4   # BR(~g -> ~chi_30 c  cb)
     8.13510955E-02    3     1000022         5        -5   # BR(~g -> ~chi_10 b  bb)
     2.47004643E-06    3     1000023         5        -5   # BR(~g -> ~chi_20 b  bb)
     2.12188889E-06    3     1000025         5        -5   # BR(~g -> ~chi_30 b  bb)
     2.09680959E-01    3     1000022         6        -6   # BR(~g -> ~chi_10 t  tb)
     3.80681937E-08    3     1000024         1        -2   # BR(~g -> ~chi_1+ d  ub)
     3.80681937E-08    3    -1000024         2        -1   # BR(~g -> ~chi_1- u  db)
     3.80681937E-08    3     1000024         3        -4   # BR(~g -> ~chi_1+ s  cb)
     3.80681937E-08    3    -1000024         4        -3   # BR(~g -> ~chi_1- c  sb)
#
#         PDG            Width
DECAY   1000006     4.01418534E+02   # stop1 decays
#          BR         NDA      ID1       ID2
     2.19092733E-02    2     1000022         6   # BR(~t_1 -> ~chi_10 t )
     7.39486076E-02    2     1000023         6   # BR(~t_1 -> ~chi_20 t )
     7.10571520E-02    2     1000025         6   # BR(~t_1 -> ~chi_30 t )
     5.28727835E-03    2     1000035         6   # BR(~t_1 -> ~chi_40 t )
     1.06572318E-01    2     1000024         5   # BR(~t_1 -> ~chi_1+ b )
     1.05315184E-02    2     1000037         5   # BR(~t_1 -> ~chi_2+ b )
     7.10693852E-01    2     1000021         6   # BR(~t_1 -> ~g      t )
#
#         PDG            Width
DECAY   2000006     4.04444598E+02   # stop2 decays
#          BR         NDA      ID1       ID2
     8.82535378E-03    2     1000022         6   # BR(~t_2 -> ~chi_10 t )
     7.52543095E-02    2     1000023         6   # BR(~t_2 -> ~chi_20 t )
     7.83861490E-02    2     1000025         6   # BR(~t_2 -> ~chi_30 t )
     1.35097453E-02    2     1000035         6   # BR(~t_2 -> ~chi_40 t )
     4.58011693E-02    2     1000024         5   # BR(~t_2 -> ~chi_1+ b )
     2.68716451E-02    2     1000037         5   # BR(~t_2 -> ~chi_2+ b )
     7.48132158E-01    2     1000021         6   # BR(~t_2 -> ~g      t )
     7.17834302E-04    2     1000006        25   # BR(~t_2 -> ~t_1    h )
     2.50163541E-03    2     1000006        23   # BR(~t_2 -> ~t_1    Z )
#
#         PDG            Width
DECAY   1000005     3.82177955E+02   # sbottom1 decays
#          BR         NDA      ID1       ID2
     2.03119869E-03    2     1000022         5   # BR(~b_1 -> ~chi_10 b )
     2.04007868E-03    2     1000023         5   # BR(~b_1 -> ~chi_20 b )
     1.97430475E-03    2     1000025         5   # BR(~b_1 -> ~chi_30 b )
     1.95939851E-02    2     1000035         5   # BR(~b_1 -> ~chi_40 b )
     1.57424741E-01    2    -1000024         6   # BR(~b_1 -> ~chi_1- t )
     3.93783951E-02    2    -1000037         6   # BR(~b_1 -> ~chi_2- t )
     7.76066655E-01    2     1000021         5   # BR(~b_1 -> ~g      b )
     1.49064174E-03    2     1000006       -24   # BR(~b_1 -> ~t_1    W-)
#
#         PDG            Width
DECAY   2000005     3.05512266E+02   # sbottom2 decays
#          BR         NDA      ID1       ID2
     9.62055686E-03    2     1000022         5   # BR(~b_2 -> ~chi_10 b )
     2.52389275E-03    2     1000023         5   # BR(~b_2 -> ~chi_20 b )
     2.60075246E-03    2     1000025         5   # BR(~b_2 -> ~chi_30 b )
     1.75248163E-04    2     1000035         5   # BR(~b_2 -> ~chi_40 b )
     6.37954327E-03    2    -1000024         6   # BR(~b_2 -> ~chi_1- t )
     3.52129428E-04    2    -1000037         6   # BR(~b_2 -> ~chi_2- t )
     9.78295660E-01    2     1000021         5   # BR(~b_2 -> ~g      b )
     5.22171459E-05    2     1000006       -24   # BR(~b_2 -> ~t_1    W-)
#
#         PDG            Width
DECAY   1000002     3.24399162E+02   # sup_L decays
#          BR         NDA      ID1       ID2
     2.30399355E-03    2     1000022         2   # BR(~u_L -> ~chi_10 u)
     4.93032766E-05    2     1000023         2   # BR(~u_L -> ~chi_20 u)
     4.13088224E-06    2     1000025         2   # BR(~u_L -> ~chi_30 u)
     2.40788167E-02    2     1000035         2   # BR(~u_L -> ~chi_40 u)
     1.68890548E-04    2     1000024         1   # BR(~u_L -> ~chi_1+ d)
     4.81245167E-02    2     1000037         1   # BR(~u_L -> ~chi_2+ d)
     9.25270348E-01    2     1000021         2   # BR(~u_L -> ~g      u)
#
#         PDG            Width
DECAY   2000002     3.10776191E+02   # sup_R decays
#          BR         NDA      ID1       ID2
     3.82770773E-02    2     1000022         2   # BR(~u_R -> ~chi_10 u)
     2.57780469E-05    2     1000023         2   # BR(~u_R -> ~chi_20 u)
     3.13922871E-05    2     1000025         2   # BR(~u_R -> ~chi_30 u)
     2.53321515E-09    2     1000035         2   # BR(~u_R -> ~chi_40 u)
     9.61665750E-01    2     1000021         2   # BR(~u_R -> ~g      u)
#
#         PDG            Width
DECAY   1000001     3.24409453E+02   # sdown_L decays
#          BR         NDA      ID1       ID2
     2.29594266E-03    2     1000022         1   # BR(~d_L -> ~chi_10 d)
     2.05378939E-05    2     1000023         1   # BR(~d_L -> ~chi_20 d)
     2.28521426E-05    2     1000025         1   # BR(~d_L -> ~chi_30 d)
     2.40932668E-02    2     1000035         1   # BR(~d_L -> ~chi_40 d)
     1.12649019E-05    2    -1000024         2   # BR(~d_L -> ~chi_1- u)
     4.82073617E-02    2    -1000037         2   # BR(~d_L -> ~chi_2- u)
     9.25348774E-01    2     1000021         1   # BR(~d_L -> ~g      d)
#
#         PDG            Width
DECAY   2000001     3.01862175E+02   # sdown_R decays
#          BR         NDA      ID1       ID2
     9.85240729E-03    2     1000022         1   # BR(~d_R -> ~chi_10 d)
     6.63526725E-06    2     1000023         1   # BR(~d_R -> ~chi_20 d)
     8.08037262E-06    2     1000025         1   # BR(~d_R -> ~chi_30 d)
     6.52128033E-10    2     1000035         1   # BR(~d_R -> ~chi_40 d)
     9.90132876E-01    2     1000021         1   # BR(~d_R -> ~g      d)
#
#         PDG            Width
DECAY   1000004     3.24399162E+02   # scharm_L decays
#          BR         NDA      ID1       ID2
     2.30399355E-03    2     1000022         4   # BR(~c_L -> ~chi_10 c)
     4.93032766E-05    2     1000023         4   # BR(~c_L -> ~chi_20 c)
     4.13088224E-06    2     1000025         4   # BR(~c_L -> ~chi_30 c)
     2.40788167E-02    2     1000035         4   # BR(~c_L -> ~chi_40 c)
     1.68890548E-04    2     1000024         3   # BR(~c_L -> ~chi_1+ s)
     4.81245167E-02    2     1000037         3   # BR(~c_L -> ~chi_2+ s)
     9.25270348E-01    2     1000021         4   # BR(~c_L -> ~g      c)
#
#         PDG            Width
DECAY   2000004     3.10776191E+02   # scharm_R decays
#          BR         NDA      ID1       ID2
     3.82770773E-02    2     1000022         4   # BR(~c_R -> ~chi_10 c)
     2.57780469E-05    2     1000023         4   # BR(~c_R -> ~chi_20 c)
     3.13922871E-05    2     1000025         4   # BR(~c_R -> ~chi_30 c)
     2.53321515E-09    2     1000035         4   # BR(~c_R -> ~chi_40 c)
     9.61665750E-01    2     1000021         4   # BR(~c_R -> ~g      c)
#
#         PDG            Width
DECAY   1000003     3.24409453E+02   # sstrange_L decays
#          BR         NDA      ID1       ID2
     2.29594266E-03    2     1000022         3   # BR(~s_L -> ~chi_10 s)
     2.05378939E-05    2     1000023         3   # BR(~s_L -> ~chi_20 s)
     2.28521426E-05    2     1000025         3   # BR(~s_L -> ~chi_30 s)
     2.40932668E-02    2     1000035         3   # BR(~s_L -> ~chi_40 s)
     1.12649019E-05    2    -1000024         4   # BR(~s_L -> ~chi_1- c)
     4.82073617E-02    2    -1000037         4   # BR(~s_L -> ~chi_2- c)
     9.25348774E-01    2     1000021         3   # BR(~s_L -> ~g      s)
#
#         PDG            Width
DECAY   2000003     3.01862175E+02   # sstrange_R decays
#          BR         NDA      ID1       ID2
     9.85240729E-03    2     1000022         3   # BR(~s_R -> ~chi_10 s)
     6.63526725E-06    2     1000023         3   # BR(~s_R -> ~chi_20 s)
     8.08037262E-06    2     1000025         3   # BR(~s_R -> ~chi_30 s)
     6.52128033E-10    2     1000035         3   # BR(~s_R -> ~chi_40 s)
     9.90132876E-01    2     1000021         3   # BR(~s_R -> ~g      s)
#
#         PDG            Width
DECAY   1000011     3.02660785E+01   # selectron_L decays
#          BR         NDA      ID1       ID2
     2.26486580E-01    2     1000022        11   # BR(~e_L -> ~chi_10 e-)
     9.87218280E-04    2     1000023        11   # BR(~e_L -> ~chi_20 e-)
     5.58292185E-06    2     1000025        11   # BR(~e_L -> ~chi_30 e-)
     2.57282896E-01    2     1000035        11   # BR(~e_L -> ~chi_40 e-)
     1.22913795E-04    2    -1000024        12   # BR(~e_L -> ~chi_1- nu_e)
     5.15114809E-01    2    -1000037        12   # BR(~e_L -> ~chi_2- nu_e)
#
#         PDG            Width
DECAY   2000011     2.73720884E+01   # selectron_R decays
#          BR         NDA      ID1       ID2
     9.98511512E-01    2     1000022        11   # BR(~e_R -> ~chi_10 e-)
     6.71131103E-04    2     1000023        11   # BR(~e_R -> ~chi_20 e-)
     8.17292552E-04    2     1000025        11   # BR(~e_R -> ~chi_30 e-)
     6.47064026E-08    2     1000035        11   # BR(~e_R -> ~chi_40 e-)
#
#         PDG            Width
DECAY   1000013     3.02660785E+01   # smuon_L decays
#          BR         NDA      ID1       ID2
     2.26486580E-01    2     1000022        13   # BR(~mu_L -> ~chi_10 mu-)
     9.87218280E-04    2     1000023        13   # BR(~mu_L -> ~chi_20 mu-)
     5.58292185E-06    2     1000025        13   # BR(~mu_L -> ~chi_30 mu-)
     2.57282896E-01    2     1000035        13   # BR(~mu_L -> ~chi_40 mu-)
     1.22913795E-04    2    -1000024        14   # BR(~mu_L -> ~chi_1- nu_mu)
     5.15114809E-01    2    -1000037        14   # BR(~mu_L -> ~chi_2- nu_mu)
#
#         PDG            Width
DECAY   2000013     2.73720884E+01   # smuon_R decays
#          BR         NDA      ID1       ID2
     9.98511512E-01    2     1000022        13   # BR(~mu_R -> ~chi_10 mu-)
     6.71131103E-04    2     1000023        13   # BR(~mu_R -> ~chi_20 mu-)
     8.17292552E-04    2     1000025        13   # BR(~mu_R -> ~chi_30 mu-)
     6.47064026E-08    2     1000035        13   # BR(~mu_R -> ~chi_40 mu-)
#
#         PDG            Width
DECAY   1000015     2.90977067E+01   # stau_1 decays
#          BR         NDA      ID1       ID2
     9.28954874E-01    2     1000022        15   # BR(~tau_1 -> ~chi_10  tau-)
     1.53546764E-02    2     1000023        15   # BR(~tau_1 -> ~chi_20  tau-)
     1.44849223E-02    2     1000025        15   # BR(~tau_1 -> ~chi_30  tau-)
     4.04187364E-03    2     1000035        15   # BR(~tau_1 -> ~chi_40  tau-)
     2.90715235E-02    2    -1000024        16   # BR(~tau_1 -> ~chi_1-  nu_tau)
     8.09213042E-03    2    -1000037        16   # BR(~tau_1 -> ~chi_2-  nu_tau)
#
#         PDG            Width
DECAY   2000015     3.10647044E+01   # stau_2 decays
#          BR         NDA      ID1       ID2
     2.30226132E-01    2     1000022        15   # BR(~tau_2 -> ~chi_10  tau-)
     1.44038789E-02    2     1000023        15   # BR(~tau_2 -> ~chi_20  tau-)
     1.43408307E-02    2     1000025        15   # BR(~tau_2 -> ~chi_30  tau-)
     2.46802036E-01    2     1000035        15   # BR(~tau_2 -> ~chi_40  tau-)
     9.61074896E-05    2    -1000024        16   # BR(~tau_2 -> ~chi_1-  nu_tau)
     4.94131015E-01    2    -1000037        16   # BR(~tau_2 -> ~chi_2-  nu_tau)
#
#         PDG            Width
DECAY   1000012     3.02687448E+01   # snu_eL decays
#          BR         NDA      ID1       ID2
     2.26155017E-01    2     1000022        12   # BR(~nu_eL -> ~chi_10 nu_e)
     4.54756277E-05    2     1000023        12   # BR(~nu_eL -> ~chi_20 nu_e)
     6.18188512E-04    2     1000025        12   # BR(~nu_eL -> ~chi_30 nu_e)
     2.57341160E-01    2     1000035        12   # BR(~nu_eL -> ~chi_40 nu_e)
     1.84237011E-03    2     1000024        11   # BR(~nu_eL -> ~chi_1+ e-)
     5.13997788E-01    2     1000037        11   # BR(~nu_eL -> ~chi_2+ e-)
#
#         PDG            Width
DECAY   1000014     3.02687448E+01   # snu_muL decays
#          BR         NDA      ID1       ID2
     2.26155017E-01    2     1000022        14   # BR(~nu_muL -> ~chi_10 nu_mu)
     4.54756277E-05    2     1000023        14   # BR(~nu_muL -> ~chi_20 nu_mu)
     6.18188512E-04    2     1000025        14   # BR(~nu_muL -> ~chi_30 nu_mu)
     2.57341160E-01    2     1000035        14   # BR(~nu_muL -> ~chi_40 nu_mu)
     1.84237011E-03    2     1000024        13   # BR(~nu_muL -> ~chi_1+ mu-)
     5.13997788E-01    2     1000037        13   # BR(~nu_muL -> ~chi_2+ mu-)
#
#         PDG            Width
DECAY   1000016     3.11072503E+01   # snu_tauL decays
#          BR         NDA      ID1       ID2
     2.20035027E-01    2     1000022        16   # BR(~nu_tauL -> ~chi_10 nu_tau)
     4.42440431E-05    2     1000023        16   # BR(~nu_tauL -> ~chi_20 nu_tau)
     6.01446488E-04    2     1000025        16   # BR(~nu_tauL -> ~chi_30 nu_tau)
     2.50311902E-01    2     1000035        16   # BR(~nu_tauL -> ~chi_40 nu_tau)
     2.90496294E-02    2     1000024        15   # BR(~nu_tauL -> ~chi_1+ tau-)
     4.99957752E-01    2     1000037        15   # BR(~nu_tauL -> ~chi_2+ tau-)
#
#         PDG            Width
DECAY   1000024     6.72053992E-01   # chargino1+ decays
#          BR         NDA      ID1       ID2
     1.00000000E+00    2     1000022        24   # BR(~chi_1+ -> ~chi_10  W+)
#
#         PDG            Width
DECAY   1000037     2.00597761E+01   # chargino2+ decays
#          BR         NDA      ID1       ID2
     2.53121273E-01    2     1000024        23   # BR(~chi_2+ -> ~chi_1+  Z )
     2.05858400E-04    2     1000022        24   # BR(~chi_2+ -> ~chi_10  W+)
     2.44089714E-01    2     1000023        24   # BR(~chi_2+ -> ~chi_20  W+)
     2.44063700E-01    2     1000025        24   # BR(~chi_2+ -> ~chi_30  W+)
     2.58518521E-01    2     1000024        25   # BR(~chi_2+ -> ~chi_1+  h )
     9.32440349E-07    2     1000022        37   # BR(~chi_2+ -> ~chi_10  H+)
#
#         PDG            Width
DECAY   1000022     0.00000000E+00   # neutralino1 decays
#
#         PDG            Width
DECAY   1000023     7.03166429E-01   # neutralino2 decays
#          BR         NDA      ID1       ID2
     5.44453707E-01    2     1000022        23   # BR(~chi_20 -> ~chi_10   Z )
     4.55546293E-01    2     1000022        25   # BR(~chi_20 -> ~chi_10   h )
#
#         PDG            Width
DECAY   1000025     7.07630036E-01   # neutralino3 decays
#          BR         NDA      ID1       ID2
     4.43667334E-01    2     1000022        23   # BR(~chi_30 -> ~chi_10   Z )
     5.56332666E-01    2     1000022        25   # BR(~chi_30 -> ~chi_10   h )
#
#         PDG            Width
DECAY   1000035     2.00734300E+01   # neutralino4 decays
#          BR         NDA      ID1       ID2
     5.54749045E-05    2     1000022        23   # BR(~chi_40 -> ~chi_10   Z )
     6.53725333E-02    2     1000023        23   # BR(~chi_40 -> ~chi_20   Z )
     1.87031263E-01    2     1000025        23   # BR(~chi_40 -> ~chi_30   Z )
     2.44726833E-01    2     1000024       -24   # BR(~chi_40 -> ~chi_1+   W-)
     2.44726833E-01    2    -1000024        24   # BR(~chi_40 -> ~chi_1-   W+)
     1.52296599E-04    2     1000022        25   # BR(~chi_40 -> ~chi_10   h )
     8.62499641E-07    2     1000022        35   # BR(~chi_40 -> ~chi_10   H )
     1.09120205E-07    2     1000022        36   # BR(~chi_40 -> ~chi_10   A )
     1.92427410E-01    2     1000023        25   # BR(~chi_40 -> ~chi_20   h )
     6.55063845E-02    2     1000025        25   # BR(~chi_40 -> ~chi_30   h )
#
#         PDG            Width
DECAY        25     4.02951614E-03   # h decays
#          BR         NDA      ID1       ID2
     6.14254044E-01    2           5        -5   # BR(h -> b       bb     )
     6.42041199E-02    2         -15        15   # BR(h -> tau+    tau-   )
     2.27307317E-04    2         -13        13   # BR(h -> mu+     mu-    )
     4.82114005E-04    2           3        -3   # BR(h -> s       sb     )
     2.08916226E-02    2           4        -4   # BR(h -> c       cb     )
     6.72178245E-02    2          21        21   # BR(h -> g       g      )
     2.30393393E-03    2          22        22   # BR(h -> gam     gam    )
     1.45922036E-03    2          22        23   # BR(h -> Z       gam    )
     2.04660473E-01    2          24       -24   # BR(h -> W+      W-     )
     2.42539810E-02    2          23        23   # BR(h -> Z       Z      )
     4.53591123E-05    2     1000022   1000022   # BR(h -> ~chi_10 ~chi_10)
#
#         PDG            Width
DECAY        35     7.95010241E+00   # H decays
#          BR         NDA      ID1       ID2
     4.06713755E-01    2           5        -5   # BR(H -> b       bb     )
     7.01229175E-02    2         -15        15   # BR(H -> tau+    tau-   )
     2.47960206E-04    2         -13        13   # BR(H -> mu+     mu-    )
     3.03961242E-04    2           3        -3   # BR(H -> s       sb     )
     1.69793489E-06    2           4        -4   # BR(H -> c       cb     )
     1.69637146E-01    2           6        -6   # BR(H -> t       tb     )
     5.63361444E-05    2          21        21   # BR(H -> g       g      )
     3.01155660E-07    2          22        22   # BR(H -> gam     gam    )
     1.00086684E-07    2          23        22   # BR(H -> Z       gam    )
     7.70681081E-05    2          24       -24   # BR(H -> W+      W-     )
     3.84852728E-05    2          23        23   # BR(H -> Z       Z      )
     2.89183135E-04    2          25        25   # BR(H -> h       h      )
     8.98601948E-24    2          36        36   # BR(H -> A       A      )
     1.10350987E-18    2          23        36   # BR(H -> Z       A      )
     1.60495022E-03    2     1000024  -1000024   # BR(H -> ~chi_1+ ~chi_1-)
     1.50161865E-03    2     1000022   1000022   # BR(H -> ~chi_10 ~chi_10)
     5.87383419E-05    2     1000023   1000023   # BR(H -> ~chi_20 ~chi_20)
     3.73505631E-04    2     1000025   1000025   # BR(H -> ~chi_30 ~chi_30)
     2.08973727E-01    2     1000022   1000023   # BR(H -> ~chi_10 ~chi_20)
     1.39655864E-01    2     1000022   1000025   # BR(H -> ~chi_10 ~chi_30)
     3.42684500E-04    2     1000023   1000025   # BR(H -> ~chi_20 ~chi_30)
#
#         PDG            Width
DECAY        36     7.96861266E+00   # A decays
#          BR         NDA      ID1       ID2
     4.05905824E-01    2           5        -5   # BR(A -> b       bb     )
     6.99619883E-02    2         -15        15   # BR(A -> tau+    tau-   )
     2.47390802E-04    2         -13        13   # BR(A -> mu+     mu-    )
     3.03484790E-04    2           3        -3   # BR(A -> s       sb     )
     1.70098442E-06    2           4        -4   # BR(A -> c       cb     )
     1.69848051E-01    2           6        -6   # BR(A -> t       tb     )
     1.68127298E-04    2          21        21   # BR(A -> g       g      )
     5.55137808E-07    2          22        22   # BR(A -> gam     gam    )
     2.03519442E-07    2          23        22   # BR(A -> Z       gam    )
     7.66000441E-05    2          23        25   # BR(A -> Z       h      )
     3.10581219E-03    2     1000024  -1000024   # BR(A -> ~chi_1+ ~chi_1-)
     1.53237755E-03    2     1000022   1000022   # BR(A -> ~chi_10 ~chi_10)
     8.28814056E-05    2     1000023   1000023   # BR(A -> ~chi_20 ~chi_20)
     1.23794784E-03    2     1000025   1000025   # BR(A -> ~chi_30 ~chi_30)
     1.41216274E-01    2     1000022   1000023   # BR(A -> ~chi_10 ~chi_20)
     2.06242001E-01    2     1000022   1000025   # BR(A -> ~chi_10 ~chi_30)
     6.87795902E-05    2     1000023   1000025   # BR(A -> ~chi_20 ~chi_30)
#
#         PDG            Width
DECAY        37     7.91529385E+00   # H+ decays
#          BR         NDA      ID1       ID2
     6.51636791E-04    2           4        -5   # BR(H+ -> c       bb     )
     7.04565921E-02    2         -15        16   # BR(H+ -> tau+    nu_tau )
     2.49139758E-04    2         -13        14   # BR(H+ -> mu+     nu_mu  )
     4.17045383E-06    2           2        -5   # BR(H+ -> u       bb     )
     1.46189283E-05    2           2        -3   # BR(H+ -> u       sb     )
     3.02318141E-04    2           4        -3   # BR(H+ -> c       sb     )
     5.74699747E-01    2           6        -5   # BR(H+ -> t       bb     )
     7.72422622E-05    2          24        25   # BR(H+ -> W+      h      )
     1.60788838E-13    2          24        36   # BR(H+ -> W+      A      )
     3.52820421E-01    2     1000024   1000022   # BR(H+ -> ~chi_1+ ~chi_10)
     6.75865794E-04    2     1000024   1000023   # BR(H+ -> ~chi_1+ ~chi_20)
     4.82480708E-05    2     1000024   1000025   # BR(H+ -> ~chi_1+ ~chi_30)
