#
#                              ======================
#                              | THE SUSYHIT OUTPUT |
#                              ======================
#
#
#              ------------------------------------------------------
#              |     This is the output of the SUSY-HIT package     |
#              |  created by A.Djouadi, M.Muehlleitner and M.Spira. |
#              |  In case of problems with SUSY-HIT email to        |
#              |           margarete.muehlleitner@cern.ch           |
#              |           michael.spira@psi.ch                     |
#              |           abdelhak.djouadi@cern.ch                 |
#              ------------------------------------------------------
#
#              ------------------------------------------------------
#              |  SUSY Les Houches Accord - MSSM Spectrum + Decays  |
#              |              based on the decay programs           |
#              |                                                    |
#              |                     SDECAY 1.3b                    |
#              |                                                    |
#              |  Authors: M.Muhlleitner, A.Djouadi and Y.Mambrini  |
#              |  Ref.:    Comput.Phys.Commun.168(2005)46           |
#              |           [hep-ph/0311167]                         |
#              |                                                    |
#              |                     HDECAY 3.4                     |
#              |                                                    |
#              |  By: A.Djouadi,J.Kalinowski,M.Muhlleitner,M.Spira  |
#              |  Ref.:    Comput.Phys.Commun.108(1998)56           |
#              |           [hep-ph/9704448]                         |
#              |                                                    |
#              |                                                    |
#              |  If not stated otherwise all DRbar couplings and   |
#              |  soft SUSY breaking masses are given at the scale  |
#              |  Q=  0.50006998E+04
#              |                                                    |
#              ------------------------------------------------------
#
#
BLOCK DCINFO  # Decay Program information
     1   SDECAY/HDECAY # decay calculator
     2   1.3b  /3.4    # version number
#
BLOCK SPINFO  # Spectrum calculator information
     1    SOFTSUSY    # spectrum calculator                
     2    3.4.0       # version number                     
#
BLOCK MODSEL  # Model selection
     1     0   #  nonUniversal                                     
#
BLOCK SMINPUTS  # Standard Model inputs
         1     1.25778332E+02   # alpha_em^-1(M_Z)^MSbar
         2     1.16570000E-05   # G_F [GeV^-2]
         3     1.17200002E-01   # alpha_S(M_Z)^MSbar
         4     9.11876000E+01   # M_Z pole mass
         5     4.25000000E+00   # mb(mb)^MSbar
         6     1.72500000E+02   # mt pole mass
         7     1.77682000E+00   # mtau pole mass
#
BLOCK MINPAR  # Input parameters - minimal models
         3     1.00000000E+01   # tanb                
#
BLOCK EXTPAR  # Input parameters - non-minimal models
         0    -1.00000000E+00   # Set                 
         1     6.00000000E+01   # M_1(MX)             
         2     3.00000000E+03   # M_2(MX)             
         3     1.39220400E+03   # M_3(MX)             
        11     5.00000000E+03   # At(MX)              
        12     5.00000000E+03   # Ab(MX)              
        13     0.00000000E+00   # Atau(MX)            
        23    -1.83892600E+03   # mu(MX)              
        26     3.00000000E+03   # mA(pole)            
        31     5.00000000E+03   # meL(MX)             
        32     5.00000000E+03   # mmuL(MX)            
        33     5.00000000E+03   # mtauL(MX)           
        34     5.00000000E+03   # meR(MX)             
        35     5.00000000E+03   # mmuR(MX)            
        36     5.00000000E+03   # mtauR(MX)           
        41     5.00000000E+03   # mqL1(MX)            
        42     5.00000000E+03   # mqL2(MX)            
        43     5.00000000E+03   # mqL3(MX)            
        44     5.00000000E+03   # muR(MX)             
        45     5.00000000E+03   # mcR(MX)             
        46     5.00000000E+03   # mtR(MX)             
        47     5.00000000E+03   # mdR(MX)             
        48     5.00000000E+03   # msR(MX)             
        49     5.00000000E+03   # mbR(MX)             
#
BLOCK MASS  # Mass Spectrum
# PDG code           mass       particle
        24     8.00966859E+01   # W+
        25     1.24696792E+02   # h
        35     3.00007715E+03   # H
        36     2.99999995E+03   # A
        37     3.00087315E+03   # H+
         5     4.87878001E+00   # b-quark pole mass calculated from mb(mb)_Msbar
   1000001     5.06842462E+03   # ~d_L
   2000001     5.05064794E+03   # ~d_R
   1000002     5.06794962E+03   # ~u_L
   2000002     5.05037819E+03   # ~u_R
   1000003     5.06842462E+03   # ~s_L
   2000003     5.05064794E+03   # ~s_R
   1000004     5.06794962E+03   # ~c_L
   2000004     5.05037819E+03   # ~c_R
   1000005     5.01509930E+03   # ~b_1
   2000005     5.04984573E+03   # ~b_2
   1000006     4.90680380E+03   # ~t_1
   2000006     5.06249841E+03   # ~t_2
   1000011     5.01903711E+03   # ~e_L
   2000011     5.00590330E+03   # ~e_R
   1000012     5.01808917E+03   # ~nu_eL
   1000013     5.01903711E+03   # ~mu_L
   2000013     5.00590330E+03   # ~mu_R
   1000014     5.01808917E+03   # ~nu_muL
   1000015     5.00412543E+03   # ~tau_1
   2000015     5.01926079E+03   # ~tau_2
   1000016     5.01755841E+03   # ~nu_tauL
   1000021     1.70000093E+03   # ~g
   1000022     6.03001513E+01   # ~chi_10
   1000023     1.89938962E+03   # ~chi_20
   1000025    -1.90224256E+03   # ~chi_30
   1000035     3.07443220E+03   # ~chi_40
   1000024     1.90000011E+03   # ~chi_1+
   1000037     3.07459997E+03   # ~chi_2+
#
BLOCK NMIX  # Neutralino Mixing Matrix
  1  1     9.99722524E-01   # N_11
  1  2     1.16353692E-04   # N_12
  1  3    -2.34924826E-02   # N_13
  1  4     1.72212230E-03   # N_14
  2  1     1.53873494E-02   # N_21
  2  2     4.14191052E-02   # N_22
  2  3     7.06771689E-01   # N_23
  2  4     7.06060526E-01   # N_24
  3  1    -1.78274278E-02   # N_31
  3  2     1.21855990E-02   # N_32
  3  3    -7.06749102E-01   # N_33
  3  4     7.07134642E-01   # N_34
  4  1    -5.36914413E-04   # N_41
  4  2     9.99067543E-01   # N_42
  4  3    -2.06782379E-02   # N_43
  4  4    -3.78967918E-02   # N_44
#
BLOCK UMIX  # Chargino Mixing Matrix U
  1  1     2.92046934E-02   # U_11
  1  2     9.99573452E-01   # U_12
  2  1    -9.99573452E-01   # U_21
  2  2     2.92046934E-02   # U_22
#
BLOCK VMIX  # Chargino Mixing Matrix V
  1  1     5.35582867E-02   # V_11
  1  2    -9.98564725E-01   # V_12
  2  1    -9.98564725E-01   # V_21
  2  2    -5.35582867E-02   # V_22
#
BLOCK STOPMIX  # Stop Mixing Matrix
  1  1    -5.16311748E-01   # cos(theta_t)
  1  2     8.56400712E-01   # sin(theta_t)
  2  1    -8.56400712E-01   # -sin(theta_t)
  2  2    -5.16311748E-01   # cos(theta_t)
#
BLOCK SBOTMIX  # Sbottom Mixing Matrix
  1  1     9.91554352E-01   # cos(theta_b)
  1  2    -1.29691816E-01   # sin(theta_b)
  2  1     1.29691816E-01   # -sin(theta_b)
  2  2     9.91554352E-01   # cos(theta_b)
#
BLOCK STAUMIX  # Stau Mixing Matrix
  1  1    -2.08906189E-01   # cos(theta_tau)
  1  2     9.77935685E-01   # sin(theta_tau)
  2  1    -9.77935685E-01   # -sin(theta_tau)
  2  2    -2.08906189E-01   # cos(theta_tau)
#
BLOCK ALPHA  # Higgs mixing
          -1.05447896E-01   # Mixing angle in the neutral Higgs boson sector
#
BLOCK HMIX Q=  5.00069985E+03  # DRbar Higgs Parameters
         1    -1.87246178E+03   # mu(Q)MSSM           
         2     9.47152519E+00   # tan                 
         3     2.42049028E+02   # higgs               
         4     8.33671419E+06   # mA^2(Q)MSSM         
#
BLOCK GAUGE Q=  5.00069985E+03  # The gauge couplings
     1     3.70652315E-01   # gprime(Q) DRbar
     2     6.31838861E-01   # g(Q) DRbar
     3     1.00087154E+00   # g3(Q) DRbar
#
BLOCK AU Q=  5.00069985E+03  # The trilinear couplings
  1  1     5.00000001E+03   # A_u(Q) DRbar
  2  2     5.00000001E+03   # A_c(Q) DRbar
  3  3     5.00000001E+03   # A_t(Q) DRbar
#
BLOCK AD Q=  5.00069985E+03  # The trilinear couplings
  1  1     5.00000000E+03   # A_d(Q) DRbar
  2  2     5.00000000E+03   # A_s(Q) DRbar
  3  3     5.00000001E+03   # A_b(Q) DRbar
#
BLOCK AE Q=  5.00069985E+03  # The trilinear couplings
  1  1     0.00000000E+00   # A_e(Q) DRbar
  2  2     1.31096950E-07   # A_mu(Q) DRbar
  3  3     1.30559723E-07   # A_tau(Q) DRbar
#
BLOCK Yu Q=  5.00069985E+03  # The Yukawa couplings
  1  1     0.00000000E+00   # y_u(Q) DRbar
  2  2     0.00000000E+00   # y_c(Q) DRbar
  3  3     8.18208032E-01   # y_t(Q) DRbar
#
BLOCK Yd Q=  5.00069985E+03  # The Yukawa couplings
  1  1     0.00000000E+00   # y_d(Q) DRbar
  2  2     0.00000000E+00   # y_s(Q) DRbar
  3  3     1.31389573E-01   # y_b(Q) DRbar
#
BLOCK Ye Q=  5.00069985E+03  # The Yukawa couplings
  1  1     0.00000000E+00   # y_e(Q) DRbar
  2  2     0.00000000E+00   # y_mu(Q) DRbar
  3  3     9.64914834E-02   # y_tau(Q) DRbar
#
BLOCK MSOFT Q=  5.00069985E+03  # The soft SUSY breaking masses at the scale Q
         1     6.00000000E+01   # M_1(Q)              
         2     3.00000000E+03   # M_2(Q)              
         3     1.39220400E+03   # M_3(Q)              
        21     5.14206687E+06   # mH1^2(Q)            
        22    -2.97290437E+06   # mH2^2(Q)            
        31     5.00000000E+03   # meL(Q)              
        32     5.00000000E+03   # mmuL(Q)             
        33     5.00000000E+03   # mtauL(Q)            
        34     5.00000000E+03   # meR(Q)              
        35     5.00000000E+03   # mmuR(Q)             
        36     5.00000000E+03   # mtauR(Q)            
        41     5.00000000E+03   # mqL1(Q)             
        42     5.00000000E+03   # mqL2(Q)             
        43     5.00000000E+03   # mqL3(Q)             
        44     5.00000000E+03   # muR(Q)              
        45     5.00000000E+03   # mcR(Q)              
        46     4.99999999E+03   # mtR(Q)              
        47     5.00000000E+03   # mdR(Q)              
        48     5.00000000E+03   # msR(Q)              
        49     5.00000000E+03   # mbR(Q)              
#
#
#
#                             =================
#                             |The decay table|
#                             =================
#
# - The QCD corrections to the decays gluino -> squark  + quark
#                                     squark -> gaugino + quark_prime
#                                     squark -> squark_prime + Higgs
#                                     squark -> gluino  + quark
#   are included.
#
# - The multi-body decays for the inos, stops and sbottoms are included.
#
# - The loop induced decays for the gluino, neutralinos and stops
#   are included.
#
# - The SUSY decays of the top quark are included.
#
#
#         PDG            Width
DECAY         6     1.39893002E+00   # top decays
#          BR         NDA      ID1       ID2
     1.00000000E+00    2           5        24   # BR(t ->  b    W+)
#
#         PDG            Width
DECAY   1000021     1.31343437E-04   # gluino decays
#          BR         NDA      ID1       ID2
     9.58171104E-06    2     1000022        21   # BR(~g -> ~chi_10 g)
#           BR         NDA      ID1       ID2       ID3
     7.71202308E-02    3     1000022         1        -1   # BR(~g -> ~chi_10 d  db)
     2.62893077E-01    3     1000022         2        -2   # BR(~g -> ~chi_10 u  ub)
     7.71202308E-02    3     1000022         3        -3   # BR(~g -> ~chi_10 s  sb)
     2.62893077E-01    3     1000022         4        -4   # BR(~g -> ~chi_10 c  cb)
     7.79987234E-02    3     1000022         5        -5   # BR(~g -> ~chi_10 b  bb)
     2.41965080E-01    3     1000022         6        -6   # BR(~g -> ~chi_10 t  tb)
#
#         PDG            Width
DECAY   1000006     3.44056702E+02   # stop1 decays
#          BR         NDA      ID1       ID2
     2.54070453E-02    2     1000022         6   # BR(~t_1 -> ~chi_10 t )
     6.90274594E-02    2     1000023         6   # BR(~t_1 -> ~chi_20 t )
     6.62104557E-02    2     1000025         6   # BR(~t_1 -> ~chi_30 t )
     6.66558661E-03    2     1000035         6   # BR(~t_1 -> ~chi_40 t )
     9.80624393E-02    2     1000024         5   # BR(~t_1 -> ~chi_1+ b )
     1.32203830E-02    2     1000037         5   # BR(~t_1 -> ~chi_2+ b )
     7.21406631E-01    2     1000021         6   # BR(~t_1 -> ~g      t )
#
#         PDG            Width
DECAY   2000006     3.56852231E+02   # stop2 decays
#          BR         NDA      ID1       ID2
     1.01440291E-02    2     1000022         6   # BR(~t_2 -> ~chi_10 t )
     6.98886914E-02    2     1000023         6   # BR(~t_2 -> ~chi_20 t )
     7.28692819E-02    2     1000025         6   # BR(~t_2 -> ~chi_30 t )
     1.49555659E-02    2     1000035         6   # BR(~t_2 -> ~chi_40 t )
     4.44189542E-02    2     1000024         5   # BR(~t_2 -> ~chi_1+ b )
     2.95960577E-02    2     1000037         5   # BR(~t_2 -> ~chi_2+ b )
     7.54422272E-01    2     1000021         6   # BR(~t_2 -> ~g      t )
     7.95390359E-04    2     1000006        25   # BR(~t_2 -> ~t_1    h )
     2.90975769E-03    2     1000006        23   # BR(~t_2 -> ~t_1    Z )
#
#         PDG            Width
DECAY   1000005     3.34802695E+02   # sbottom1 decays
#          BR         NDA      ID1       ID2
     2.37250971E-03    2     1000022         5   # BR(~b_1 -> ~chi_10 b )
     2.03610477E-03    2     1000023         5   # BR(~b_1 -> ~chi_20 b )
     1.85684595E-03    2     1000025         5   # BR(~b_1 -> ~chi_30 b )
     2.21287019E-02    2     1000035         5   # BR(~b_1 -> ~chi_40 b )
     1.44370107E-01    2    -1000024         6   # BR(~b_1 -> ~chi_1- t )
     4.46881038E-02    2    -1000037         6   # BR(~b_1 -> ~chi_2- t )
     7.80929035E-01    2     1000021         5   # BR(~b_1 -> ~g      b )
     1.61859179E-03    2     1000006       -24   # BR(~b_1 -> ~t_1    W-)
#
#         PDG            Width
DECAY   2000005     2.70715647E+02   # sbottom2 decays
#          BR         NDA      ID1       ID2
     1.07717202E-02    2     1000022         5   # BR(~b_2 -> ~chi_10 b )
     2.28806317E-03    2     1000023         5   # BR(~b_2 -> ~chi_20 b )
     2.44241457E-03    2     1000025         5   # BR(~b_2 -> ~chi_30 b )
     5.11840435E-04    2     1000035         5   # BR(~b_2 -> ~chi_40 b )
     7.69974698E-03    2    -1000024         6   # BR(~b_2 -> ~chi_1- t )
     1.03257102E-03    2    -1000037         6   # BR(~b_2 -> ~chi_2- t )
     9.75107938E-01    2     1000021         5   # BR(~b_2 -> ~g      b )
     1.45706096E-04    2     1000006       -24   # BR(~b_2 -> ~t_1    W-)
#
#         PDG            Width
DECAY   1000002     2.89568846E+02   # sup_L decays
#          BR         NDA      ID1       ID2
     2.57815497E-03    2     1000022         2   # BR(~u_L -> ~chi_10 u)
     9.84364683E-05    2     1000023         2   # BR(~u_L -> ~chi_20 u)
     3.77064008E-06    2     1000025         2   # BR(~u_L -> ~chi_30 u)
     2.69719723E-02    2     1000035         2   # BR(~u_L -> ~chi_40 u)
     2.86045611E-04    2     1000024         1   # BR(~u_L -> ~chi_1+ d)
     5.38941804E-02    2     1000037         1   # BR(~u_L -> ~chi_2+ d)
     9.16167440E-01    2     1000021         2   # BR(~u_L -> ~g      u)
#
#         PDG            Width
DECAY   2000002     2.75800438E+02   # sup_R decays
#          BR         NDA      ID1       ID2
     4.31069899E-02    2     1000022         2   # BR(~u_R -> ~chi_10 u)
     7.54092563E-06    2     1000023         2   # BR(~u_R -> ~chi_20 u)
     1.01121818E-05    2     1000025         2   # BR(~u_R -> ~chi_30 u)
     4.94722726E-09    2     1000035         2   # BR(~u_R -> ~chi_40 u)
     9.56875352E-01    2     1000021         2   # BR(~u_R -> ~g      u)
#
#         PDG            Width
DECAY   1000001     2.89583788E+02   # sdown_L decays
#          BR         NDA      ID1       ID2
     2.57213462E-03    2     1000022         1   # BR(~d_L -> ~chi_10 d)
     7.35837686E-05    2     1000023         1   # BR(~d_L -> ~chi_20 d)
     1.22373909E-05    2     1000025         1   # BR(~d_L -> ~chi_30 d)
     2.69903003E-02    2     1000035         1   # BR(~d_L -> ~chi_40 d)
     8.50613419E-05    2    -1000024         2   # BR(~d_L -> ~chi_1- u)
     5.40171083E-02    2    -1000037         2   # BR(~d_L -> ~chi_2- u)
     9.16249574E-01    2     1000021         1   # BR(~d_L -> ~g      d)
#
#         PDG            Width
DECAY   2000001     2.66901551E+02   # sdown_R decays
#          BR         NDA      ID1       ID2
     1.11366599E-02    2     1000022         1   # BR(~d_R -> ~chi_10 d)
     1.94826058E-06    2     1000023         1   # BR(~d_R -> ~chi_20 d)
     2.61256621E-06    2     1000025         1   # BR(~d_R -> ~chi_30 d)
     1.27827171E-09    2     1000035         1   # BR(~d_R -> ~chi_40 d)
     9.88858778E-01    2     1000021         1   # BR(~d_R -> ~g      d)
#
#         PDG            Width
DECAY   1000004     2.89568846E+02   # scharm_L decays
#          BR         NDA      ID1       ID2
     2.57815497E-03    2     1000022         4   # BR(~c_L -> ~chi_10 c)
     9.84364683E-05    2     1000023         4   # BR(~c_L -> ~chi_20 c)
     3.77064008E-06    2     1000025         4   # BR(~c_L -> ~chi_30 c)
     2.69719723E-02    2     1000035         4   # BR(~c_L -> ~chi_40 c)
     2.86045611E-04    2     1000024         3   # BR(~c_L -> ~chi_1+ s)
     5.38941804E-02    2     1000037         3   # BR(~c_L -> ~chi_2+ s)
     9.16167440E-01    2     1000021         4   # BR(~c_L -> ~g      c)
#
#         PDG            Width
DECAY   2000004     2.75800438E+02   # scharm_R decays
#          BR         NDA      ID1       ID2
     4.31069899E-02    2     1000022         4   # BR(~c_R -> ~chi_10 c)
     7.54092563E-06    2     1000023         4   # BR(~c_R -> ~chi_20 c)
     1.01121818E-05    2     1000025         4   # BR(~c_R -> ~chi_30 c)
     4.94722726E-09    2     1000035         4   # BR(~c_R -> ~chi_40 c)
     9.56875352E-01    2     1000021         4   # BR(~c_R -> ~g      c)
#
#         PDG            Width
DECAY   1000003     2.89583788E+02   # sstrange_L decays
#          BR         NDA      ID1       ID2
     2.57213462E-03    2     1000022         3   # BR(~s_L -> ~chi_10 s)
     7.35837686E-05    2     1000023         3   # BR(~s_L -> ~chi_20 s)
     1.22373909E-05    2     1000025         3   # BR(~s_L -> ~chi_30 s)
     2.69903003E-02    2     1000035         3   # BR(~s_L -> ~chi_40 s)
     8.50613419E-05    2    -1000024         4   # BR(~s_L -> ~chi_1- c)
     5.40171083E-02    2    -1000037         4   # BR(~s_L -> ~chi_2- c)
     9.16249574E-01    2     1000021         3   # BR(~s_L -> ~g      s)
#
#         PDG            Width
DECAY   2000003     2.66901551E+02   # sstrange_R decays
#          BR         NDA      ID1       ID2
     1.11366599E-02    2     1000022         3   # BR(~s_R -> ~chi_10 s)
     1.94826058E-06    2     1000023         3   # BR(~s_R -> ~chi_20 s)
     2.61256621E-06    2     1000025         3   # BR(~s_R -> ~chi_30 s)
     1.27827171E-09    2     1000035         3   # BR(~s_R -> ~chi_40 s)
     9.88858778E-01    2     1000021         3   # BR(~s_R -> ~g      s)
#
#         PDG            Width
DECAY   1000011     3.02235749E+01   # selectron_L decays
#          BR         NDA      ID1       ID2
     2.26837075E-01    2     1000022        11   # BR(~e_L -> ~chi_10 e-)
     1.23191260E-03    2     1000023        11   # BR(~e_L -> ~chi_20 e-)
     1.44336299E-06    2     1000025        11   # BR(~e_L -> ~chi_30 e-)
     2.56775623E-01    2     1000035        11   # BR(~e_L -> ~chi_40 e-)
     8.25607156E-04    2    -1000024        12   # BR(~e_L -> ~chi_1- nu_e)
     5.14328339E-01    2    -1000037        12   # BR(~e_L -> ~chi_2- nu_e)
#
#         PDG            Width
DECAY   2000011     2.73517739E+01   # selectron_R decays
#          BR         NDA      ID1       ID2
     9.99593548E-01    2     1000022        11   # BR(~e_R -> ~chi_10 e-)
     1.73579764E-04    2     1000023        11   # BR(~e_R -> ~chi_20 e-)
     2.32760652E-04    2     1000025        11   # BR(~e_R -> ~chi_30 e-)
     1.11868045E-07    2     1000035        11   # BR(~e_R -> ~chi_40 e-)
#
#         PDG            Width
DECAY   1000013     3.02235749E+01   # smuon_L decays
#          BR         NDA      ID1       ID2
     2.26837075E-01    2     1000022        13   # BR(~mu_L -> ~chi_10 mu-)
     1.23191260E-03    2     1000023        13   # BR(~mu_L -> ~chi_20 mu-)
     1.44336299E-06    2     1000025        13   # BR(~mu_L -> ~chi_30 mu-)
     2.56775623E-01    2     1000035        13   # BR(~mu_L -> ~chi_40 mu-)
     8.25607156E-04    2    -1000024        14   # BR(~mu_L -> ~chi_1- nu_mu)
     5.14328339E-01    2    -1000037        14   # BR(~mu_L -> ~chi_2- nu_mu)
#
#         PDG            Width
DECAY   2000013     2.73517739E+01   # smuon_R decays
#          BR         NDA      ID1       ID2
     9.99593548E-01    2     1000022        13   # BR(~mu_R -> ~chi_10 mu-)
     1.73579764E-04    2     1000023        13   # BR(~mu_R -> ~chi_20 mu-)
     2.32760652E-04    2     1000025        13   # BR(~mu_R -> ~chi_30 mu-)
     1.11868045E-07    2     1000035        13   # BR(~mu_R -> ~chi_40 mu-)
#
#         PDG            Width
DECAY   1000015     2.88282818E+01   # stau_1 decays
#          BR         NDA      ID1       ID2
     9.17886400E-01    2     1000022        15   # BR(~tau_1 -> ~chi_10  tau-)
     1.30011290E-02    2     1000023        15   # BR(~tau_1 -> ~chi_20  tau-)
     1.12521327E-02    2     1000025        15   # BR(~tau_1 -> ~chi_30  tau-)
     1.11480164E-02    2     1000035        15   # BR(~tau_1 -> ~chi_40  tau-)
     2.43805212E-02    2    -1000024        16   # BR(~tau_1 -> ~chi_1-  nu_tau)
     2.23318003E-02    2    -1000037        16   # BR(~tau_1 -> ~chi_2-  nu_tau)
#
#         PDG            Width
DECAY   2000015     3.07732004E+01   # stau_2 decays
#          BR         NDA      ID1       ID2
     2.51180782E-01    2     1000022        15   # BR(~tau_2 -> ~chi_10  tau-)
     1.12828749E-02    2     1000023        15   # BR(~tau_2 -> ~chi_20  tau-)
     1.17496746E-02    2     1000025        15   # BR(~tau_2 -> ~chi_30  tau-)
     2.41684510E-01    2     1000035        15   # BR(~tau_2 -> ~chi_40  tau-)
     1.05382542E-05    2    -1000024        16   # BR(~tau_2 -> ~chi_1-  nu_tau)
     4.84091620E-01    2    -1000037        16   # BR(~tau_2 -> ~chi_2-  nu_tau)
#
#         PDG            Width
DECAY   1000012     3.02248168E+01   # snu_eL decays
#          BR         NDA      ID1       ID2
     2.26604984E-01    2     1000022        12   # BR(~nu_eL -> ~chi_10 nu_e)
     5.07768596E-04    2     1000023        12   # BR(~nu_eL -> ~chi_20 nu_e)
     2.47874180E-04    2     1000025        12   # BR(~nu_eL -> ~chi_30 nu_e)
     2.56923870E-01    2     1000035        12   # BR(~nu_eL -> ~chi_40 nu_e)
     2.77566289E-03    2     1000024        11   # BR(~nu_eL -> ~chi_1+ e-)
     5.12939840E-01    2     1000037        11   # BR(~nu_eL -> ~chi_2+ e-)
#
#         PDG            Width
DECAY   1000014     3.02248168E+01   # snu_muL decays
#          BR         NDA      ID1       ID2
     2.26604984E-01    2     1000022        14   # BR(~nu_muL -> ~chi_10 nu_mu)
     5.07768596E-04    2     1000023        14   # BR(~nu_muL -> ~chi_20 nu_mu)
     2.47874180E-04    2     1000025        14   # BR(~nu_muL -> ~chi_30 nu_mu)
     2.56923870E-01    2     1000035        14   # BR(~nu_muL -> ~chi_40 nu_mu)
     2.77566289E-03    2     1000024        13   # BR(~nu_muL -> ~chi_1+ mu-)
     5.12939840E-01    2     1000037        13   # BR(~nu_muL -> ~chi_2+ mu-)
#
#         PDG            Width
DECAY   1000016     3.08974368E+01   # snu_tauL decays
#          BR         NDA      ID1       ID2
     2.21648461E-01    2     1000022        16   # BR(~nu_tauL -> ~chi_10 nu_tau)
     4.96627075E-04    2     1000023        16   # BR(~nu_tauL -> ~chi_20 nu_tau)
     2.42435235E-04    2     1000025        16   # BR(~nu_tauL -> ~chi_30 nu_tau)
     2.51240300E-01    2     1000035        16   # BR(~nu_tauL -> ~chi_40 nu_tau)
     2.47728466E-02    2     1000024        15   # BR(~nu_tauL -> ~chi_1+ tau-)
     5.01599331E-01    2     1000037        15   # BR(~nu_tauL -> ~chi_2+ tau-)
#
#         PDG            Width
DECAY   1000024     1.17294083E+00   # chargino1+ decays
#          BR         NDA      ID1       ID2
     1.00000000E+00    2     1000022        24   # BR(~chi_1+ -> ~chi_10  W+)
#
#         PDG            Width
DECAY   1000037     1.61046517E+01   # chargino2+ decays
#          BR         NDA      ID1       ID2
     2.52105507E-01    2     1000024        23   # BR(~chi_2+ -> ~chi_1+  Z )
     4.06525522E-04    2     1000022        24   # BR(~chi_2+ -> ~chi_10  W+)
     2.44895672E-01    2     1000023        24   # BR(~chi_2+ -> ~chi_20  W+)
     2.43037117E-01    2     1000025        24   # BR(~chi_2+ -> ~chi_30  W+)
     2.59555093E-01    2     1000024        25   # BR(~chi_2+ -> ~chi_1+  h )
     8.63747970E-08    2     1000022        37   # BR(~chi_2+ -> ~chi_10  H+)
#
#         PDG            Width
DECAY   1000022     0.00000000E+00   # neutralino1 decays
#
#         PDG            Width
DECAY   1000023     1.23499413E+00   # neutralino2 decays
#          BR         NDA      ID1       ID2
     5.64029883E-01    2     1000022        23   # BR(~chi_20 -> ~chi_10   Z )
     4.35970117E-01    2     1000022        25   # BR(~chi_20 -> ~chi_10   h )
#
#         PDG            Width
DECAY   1000025     1.24976406E+00   # neutralino3 decays
#          BR         NDA      ID1       ID2
     4.17003245E-01    2     1000022        23   # BR(~chi_30 -> ~chi_10   Z )
     5.82996755E-01    2     1000022        25   # BR(~chi_30 -> ~chi_10   h )
#
#         PDG            Width
DECAY   1000035     1.60714520E+01   # neutralino4 decays
#          BR         NDA      ID1       ID2
     1.76039512E-04    2     1000022        23   # BR(~chi_40 -> ~chi_10   Z )
     2.03999262E-02    2     1000023        23   # BR(~chi_40 -> ~chi_20   Z )
     2.31974359E-01    2     1000025        23   # BR(~chi_40 -> ~chi_30   Z )
     2.43781097E-01    2     1000024       -24   # BR(~chi_40 -> ~chi_1+   W-)
     2.43781097E-01    2    -1000024        24   # BR(~chi_40 -> ~chi_1-   W+)
     2.45980334E-04    2     1000022        25   # BR(~chi_40 -> ~chi_10   h )
     7.13856361E-08    2     1000022        35   # BR(~chi_40 -> ~chi_10   H )
     1.82503770E-08    2     1000022        36   # BR(~chi_40 -> ~chi_10   A )
     2.39458420E-01    2     1000023        25   # BR(~chi_40 -> ~chi_20   h )
     2.01829904E-02    2     1000025        25   # BR(~chi_40 -> ~chi_30   h )
#
#         PDG            Width
DECAY        25     4.03202419E-03   # h decays
#          BR         NDA      ID1       ID2
     6.07959820E-01    2           5        -5   # BR(h -> b       bb     )
     6.42793375E-02    2         -15        15   # BR(h -> tau+    tau-   )
     2.27572566E-04    2         -13        13   # BR(h -> mu+     mu-    )
     4.82499012E-04    2           3        -3   # BR(h -> s       sb     )
     2.09105186E-02    2           4        -4   # BR(h -> c       cb     )
     6.75507269E-02    2          21        21   # BR(h -> g       g      )
     2.32107130E-03    2          22        22   # BR(h -> gam     gam    )
     1.49002103E-03    2          22        23   # BR(h -> Z       gam    )
     2.09784426E-01    2          24       -24   # BR(h -> W+      W-     )
     2.49718504E-02    2          23        23   # BR(h -> Z       Z      )
     2.21567135E-05    2     1000022   1000022   # BR(h -> ~chi_10 ~chi_10)
#
#         PDG            Width
DECAY        35     6.53052854E+00   # H decays
#          BR         NDA      ID1       ID2
     5.03629191E-01    2           5        -5   # BR(H -> b       bb     )
     8.53391141E-02    2         -15        15   # BR(H -> tau+    tau-   )
     3.01765886E-04    2         -13        13   # BR(H -> mu+     mu-    )
     3.69918848E-04    2           3        -3   # BR(H -> s       sb     )
     2.06744491E-06    2           4        -4   # BR(H -> c       cb     )
     2.06554113E-01    2           6        -6   # BR(H -> t       tb     )
     6.85099656E-05    2          21        21   # BR(H -> g       g      )
     3.91985436E-07    2          22        22   # BR(H -> gam     gam    )
     1.21980280E-07    2          23        22   # BR(H -> Z       gam    )
     8.98637594E-05    2          24       -24   # BR(H -> W+      W-     )
     4.48750142E-05    2          23        23   # BR(H -> Z       Z      )
     3.44899366E-04    2          25        25   # BR(H -> h       h      )
    -1.94409691E-23    2          36        36   # BR(H -> A       A      )
     8.46360160E-19    2          23        36   # BR(H -> Z       A      )
     6.13105112E-04    2     1000022   1000022   # BR(H -> ~chi_10 ~chi_10)
     1.18891891E-01    2     1000022   1000023   # BR(H -> ~chi_10 ~chi_20)
     8.37501705E-02    2     1000022   1000025   # BR(H -> ~chi_10 ~chi_30)
#
#         PDG            Width
DECAY        36     6.53377337E+00   # A decays
#          BR         NDA      ID1       ID2
     5.03547236E-01    2           5        -5   # BR(A -> b       bb     )
     8.52993097E-02    2         -15        15   # BR(A -> tau+    tau-   )
     3.01624713E-04    2         -13        13   # BR(A -> mu+     mu-    )
     3.70015821E-04    2           3        -3   # BR(A -> s       sb     )
     2.07517738E-06    2           4        -4   # BR(A -> c       cb     )
     2.07212265E-01    2           6        -6   # BR(A -> t       tb     )
     2.05086036E-04    2          21        21   # BR(A -> g       g      )
     3.92870186E-07    2          22        22   # BR(A -> gam     gam    )
     2.48453851E-07    2          23        22   # BR(A -> Z       gam    )
     8.94806621E-05    2          23        25   # BR(A -> Z       h      )
     6.33134580E-04    2     1000022   1000022   # BR(A -> ~chi_10 ~chi_10)
     8.47517777E-02    2     1000022   1000023   # BR(A -> ~chi_10 ~chi_20)
     1.17587353E-01    2     1000022   1000025   # BR(A -> ~chi_10 ~chi_30)
#
#         PDG            Width
DECAY        37     6.53839731E+00   # H+ decays
#          BR         NDA      ID1       ID2
     8.11046082E-04    2           4        -5   # BR(H+ -> c       bb     )
     8.52637964E-02    2         -15        16   # BR(H+ -> tau+    nu_tau )
     3.01499135E-04    2         -13        14   # BR(H+ -> mu+     nu_mu  )
     5.19066857E-06    2           2        -5   # BR(H+ -> u       bb     )
     1.76913413E-05    2           2        -3   # BR(H+ -> u       sb     )
     3.65856612E-04    2           4        -3   # BR(H+ -> c       sb     )
     7.09624469E-01    2           6        -5   # BR(H+ -> t       bb     )
     8.95528982E-05    2          24        25   # BR(H+ -> W+      h      )
     1.02044245E-13    2          24        36   # BR(H+ -> W+      A      )
     2.03520898E-01    2     1000024   1000022   # BR(H+ -> ~chi_1+ ~chi_10)
