#
#                              ======================
#                              | THE SUSYHIT OUTPUT |
#                              ======================
#
#
#              ------------------------------------------------------
#              |     This is the output of the SUSY-HIT package     |
#              |  created by A.Djouadi, M.Muehlleitner and M.Spira. |
#              |  In case of problems with SUSY-HIT email to        |
#              |           margarete.muehlleitner@cern.ch           |
#              |           michael.spira@psi.ch                     |
#              |           abdelhak.djouadi@cern.ch                 |
#              ------------------------------------------------------
#
#              ------------------------------------------------------
#              |  SUSY Les Houches Accord - MSSM Spectrum + Decays  |
#              |              based on the decay programs           |
#              |                                                    |
#              |                     SDECAY 1.3b                    |
#              |                                                    |
#              |  Authors: M.Muhlleitner, A.Djouadi and Y.Mambrini  |
#              |  Ref.:    Comput.Phys.Commun.168(2005)46           |
#              |           [hep-ph/0311167]                         |
#              |                                                    |
#              |                     HDECAY 3.4                     |
#              |                                                    |
#              |  By: A.Djouadi,J.Kalinowski,M.Muhlleitner,M.Spira  |
#              |  Ref.:    Comput.Phys.Commun.108(1998)56           |
#              |           [hep-ph/9704448]                         |
#              |                                                    |
#              |                                                    |
#              |  If not stated otherwise all DRbar couplings and   |
#              |  soft SUSY breaking masses are given at the scale  |
#              |  Q=  0.50007087E+04
#              |                                                    |
#              ------------------------------------------------------
#
#
BLOCK DCINFO  # Decay Program information
     1   SDECAY/HDECAY # decay calculator
     2   1.3b  /3.4    # version number
#
BLOCK SPINFO  # Spectrum calculator information
     1    SOFTSUSY    # spectrum calculator                
     2    3.4.0       # version number                     
#
BLOCK MODSEL  # Model selection
     1     0   #  nonUniversal                                     
#
BLOCK SMINPUTS  # Standard Model inputs
         1     1.25778332E+02   # alpha_em^-1(M_Z)^MSbar
         2     1.16570000E-05   # G_F [GeV^-2]
         3     1.17200002E-01   # alpha_S(M_Z)^MSbar
         4     9.11876000E+01   # M_Z pole mass
         5     4.25000000E+00   # mb(mb)^MSbar
         6     1.72500000E+02   # mt pole mass
         7     1.77682000E+00   # mtau pole mass
#
BLOCK MINPAR  # Input parameters - minimal models
         3     1.00000000E+01   # tanb                
#
BLOCK EXTPAR  # Input parameters - non-minimal models
         0    -1.00000000E+00   # Set                 
         1     6.00000000E+01   # M_1(MX)             
         2     3.00000000E+03   # M_2(MX)             
         3     8.59146000E+02   # M_3(MX)             
        11     5.00000000E+03   # At(MX)              
        12     5.00000000E+03   # Ab(MX)              
        13     0.00000000E+00   # Atau(MX)            
        23    -1.44721000E+03   # mu(MX)              
        26     3.00000000E+03   # mA(pole)            
        31     5.00000000E+03   # meL(MX)             
        32     5.00000000E+03   # mmuL(MX)            
        33     5.00000000E+03   # mtauL(MX)           
        34     5.00000000E+03   # meR(MX)             
        35     5.00000000E+03   # mmuR(MX)            
        36     5.00000000E+03   # mtauR(MX)           
        41     5.00000000E+03   # mqL1(MX)            
        42     5.00000000E+03   # mqL2(MX)            
        43     5.00000000E+03   # mqL3(MX)            
        44     5.00000000E+03   # muR(MX)             
        45     5.00000000E+03   # mcR(MX)             
        46     5.00000000E+03   # mtR(MX)             
        47     5.00000000E+03   # mdR(MX)             
        48     5.00000000E+03   # msR(MX)             
        49     5.00000000E+03   # mbR(MX)             
#
BLOCK MASS  # Mass Spectrum
# PDG code           mass       particle
        24     8.00941046E+01   # W+
        25     1.24393585E+02   # h
        35     3.00008753E+03   # H
        36     2.99999996E+03   # A
        37     3.00087905E+03   # H+
         5     4.87878001E+00   # b-quark pole mass calculated from mb(mb)_Msbar
   1000001     5.06417260E+03   # ~d_L
   2000001     5.04636457E+03   # ~d_R
   1000002     5.06369585E+03   # ~u_L
   2000002     5.04608886E+03   # ~u_R
   1000003     5.06417260E+03   # ~s_L
   2000003     5.04636457E+03   # ~s_R
   1000004     5.06369585E+03   # ~c_L
   2000004     5.04608886E+03   # ~c_R
   1000005     5.01071157E+03   # ~b_1
   2000005     5.04528738E+03   # ~b_2
   1000006     4.90153146E+03   # ~t_1
   2000006     5.05772328E+03   # ~t_2
   1000011     5.01905182E+03   # ~e_L
   2000011     5.00591069E+03   # ~e_R
   1000012     5.01810325E+03   # ~nu_eL
   1000013     5.01905182E+03   # ~mu_L
   2000013     5.00591069E+03   # ~mu_R
   1000014     5.01810325E+03   # ~nu_muL
   1000015     5.00437021E+03   # ~tau_1
   2000015     5.01900629E+03   # ~tau_2
   1000016     5.01756422E+03   # ~nu_tauL
   1000021     1.10000031E+03   # ~g
   1000022     6.03026724E+01   # ~chi_10
   1000023     1.49944719E+03   # ~chi_20
   1000025    -1.50189832E+03   # ~chi_30
   1000035     3.07433411E+03   # ~chi_40
   1000024     1.50000073E+03   # ~chi_1+
   1000037     3.07450166E+03   # ~chi_2+
#
BLOCK NMIX  # Neutralino Mixing Matrix
  1  1     9.99556095E-01   # N_11
  1  2     1.39876865E-04   # N_12
  1  3    -2.97307232E-02   # N_13
  1  4     1.91774362E-03   # N_14
  2  1     1.96663563E-02   # N_21
  2  2     3.09048777E-02   # N_22
  2  3     7.06897680E-01   # N_23
  2  4     7.06366614E-01   # N_24
  3  1    -2.23750809E-02   # N_31
  3  2     1.32675824E-02   # N_32
  3  3    -7.06580591E-01   # N_33
  3  4     7.07154294E-01   # N_34
  4  1    -4.50993025E-04   # N_41
  4  2     9.99434260E-01   # N_42
  4  3    -1.24748690E-02   # N_43
  4  4    -3.12303382E-02   # N_44
#
BLOCK UMIX  # Chargino Mixing Matrix U
  1  1     1.76515687E-02   # U_11
  1  2     9.99844199E-01   # U_12
  2  1    -9.99844199E-01   # U_21
  2  2     1.76515687E-02   # U_22
#
BLOCK VMIX  # Chargino Mixing Matrix V
  1  1     4.41853262E-02   # V_11
  1  2    -9.99023352E-01   # V_12
  2  1    -9.99023352E-01   # V_21
  2  2    -4.41853262E-02   # V_22
#
BLOCK STOPMIX  # Stop Mixing Matrix
  1  1    -5.13992218E-01   # cos(theta_t)
  1  2     8.57794847E-01   # sin(theta_t)
  2  1    -8.57794847E-01   # -sin(theta_t)
  2  2    -5.13992218E-01   # cos(theta_t)
#
BLOCK SBOTMIX  # Sbottom Mixing Matrix
  1  1     9.94423730E-01   # cos(theta_b)
  1  2    -1.05458263E-01   # sin(theta_b)
  2  1     1.05458263E-01   # -sin(theta_b)
  2  2     9.94423730E-01   # cos(theta_b)
#
BLOCK STAUMIX  # Stau Mixing Matrix
  1  1    -1.68216534E-01   # cos(theta_tau)
  1  2     9.85750069E-01   # sin(theta_tau)
  2  1    -9.85750069E-01   # -sin(theta_tau)
  2  2    -1.68216534E-01   # cos(theta_tau)
#
BLOCK ALPHA  # Higgs mixing
          -1.05422426E-01   # Mixing angle in the neutral Higgs boson sector
#
BLOCK HMIX Q=  5.00070873E+03  # DRbar Higgs Parameters
         1    -1.47308577E+03   # mu(Q)MSSM           
         2     9.47401916E+00   # tan                 
         3     2.42015149E+02   # higgs               
         4     8.39333097E+06   # mA^2(Q)MSSM         
#
BLOCK GAUGE Q=  5.00070873E+03  # The gauge couplings
     1     3.70719796E-01   # gprime(Q) DRbar
     2     6.32135610E-01   # g(Q) DRbar
     3     1.00723863E+00   # g3(Q) DRbar
#
BLOCK AU Q=  5.00070873E+03  # The trilinear couplings
  1  1     5.00000001E+03   # A_u(Q) DRbar
  2  2     5.00000001E+03   # A_c(Q) DRbar
  3  3     5.00000001E+03   # A_t(Q) DRbar
#
BLOCK AD Q=  5.00070873E+03  # The trilinear couplings
  1  1     5.00000000E+03   # A_d(Q) DRbar
  2  2     5.00000000E+03   # A_s(Q) DRbar
  3  3     5.00000001E+03   # A_b(Q) DRbar
#
BLOCK AE Q=  5.00070873E+03  # The trilinear couplings
  1  1     0.00000000E+00   # A_e(Q) DRbar
  2  2     3.36523583E-08   # A_mu(Q) DRbar
  3  3     3.27435432E-08   # A_tau(Q) DRbar
#
BLOCK Yu Q=  5.00070873E+03  # The Yukawa couplings
  1  1     0.00000000E+00   # y_u(Q) DRbar
  2  2     0.00000000E+00   # y_c(Q) DRbar
  3  3     8.14728805E-01   # y_t(Q) DRbar
#
BLOCK Yd Q=  5.00070873E+03  # The Yukawa couplings
  1  1     0.00000000E+00   # y_d(Q) DRbar
  2  2     0.00000000E+00   # y_s(Q) DRbar
  3  3     1.29921838E-01   # y_b(Q) DRbar
#
BLOCK Ye Q=  5.00070873E+03  # The Yukawa couplings
  1  1     0.00000000E+00   # y_e(Q) DRbar
  2  2     0.00000000E+00   # y_mu(Q) DRbar
  3  3     9.66444045E-02   # y_tau(Q) DRbar
#
BLOCK MSOFT Q=  5.00070873E+03  # The soft SUSY breaking masses at the scale Q
         1     6.00000000E+01   # M_1(Q)              
         2     3.00000000E+03   # M_2(Q)              
         3     8.59146000E+02   # M_3(Q)              
        21     6.49941749E+06   # mH1^2(Q)            
        22    -1.62588879E+06   # mH2^2(Q)            
        31     5.00000000E+03   # meL(Q)              
        32     5.00000000E+03   # mmuL(Q)             
        33     5.00000000E+03   # mtauL(Q)            
        34     5.00000000E+03   # meR(Q)              
        35     5.00000000E+03   # mmuR(Q)             
        36     5.00000000E+03   # mtauR(Q)            
        41     5.00000000E+03   # mqL1(Q)             
        42     5.00000000E+03   # mqL2(Q)             
        43     5.00000000E+03   # mqL3(Q)             
        44     5.00000000E+03   # muR(Q)              
        45     5.00000000E+03   # mcR(Q)              
        46     5.00000000E+03   # mtR(Q)              
        47     5.00000000E+03   # mdR(Q)              
        48     5.00000000E+03   # msR(Q)              
        49     5.00000000E+03   # mbR(Q)              
#
#
#
#                             =================
#                             |The decay table|
#                             =================
#
# - The QCD corrections to the decays gluino -> squark  + quark
#                                     squark -> gaugino + quark_prime
#                                     squark -> squark_prime + Higgs
#                                     squark -> gluino  + quark
#   are included.
#
# - The multi-body decays for the inos, stops and sbottoms are included.
#
# - The loop induced decays for the gluino, neutralinos and stops
#   are included.
#
# - The SUSY decays of the top quark are included.
#
#
#         PDG            Width
DECAY         6     1.40035705E+00   # top decays
#          BR         NDA      ID1       ID2
     1.00000000E+00    2           5        24   # BR(t ->  b    W+)
#
#         PDG            Width
DECAY   1000021     1.37950629E-05   # gluino decays
#          BR         NDA      ID1       ID2
     1.80513460E-05    2     1000022        21   # BR(~g -> ~chi_10 g)
#           BR         NDA      ID1       ID2       ID3
     8.15847940E-02    3     1000022         1        -1   # BR(~g -> ~chi_10 d  db)
     2.78114551E-01    3     1000022         2        -2   # BR(~g -> ~chi_10 u  ub)
     8.15847940E-02    3     1000022         3        -3   # BR(~g -> ~chi_10 s  sb)
     2.78114551E-01    3     1000022         4        -4   # BR(~g -> ~chi_10 c  cb)
     8.25742786E-02    3     1000022         5        -5   # BR(~g -> ~chi_10 b  bb)
     1.98008980E-01    3     1000022         6        -6   # BR(~g -> ~chi_10 t  tb)
#
#         PDG            Width
DECAY   1000006     3.98402495E+02   # stop1 decays
#          BR         NDA      ID1       ID2
     2.19722316E-02    2     1000022         6   # BR(~t_1 -> ~chi_10 t )
     6.75767121E-02    2     1000023         6   # BR(~t_1 -> ~chi_20 t )
     6.49111515E-02    2     1000025         6   # BR(~t_1 -> ~chi_30 t )
     5.51307882E-03    2     1000035         6   # BR(~t_1 -> ~chi_40 t )
     9.65522520E-02    2     1000024         5   # BR(~t_1 -> ~chi_1+ b )
     1.09660336E-02    2     1000037         5   # BR(~t_1 -> ~chi_2+ b )
     7.32508540E-01    2     1000021         6   # BR(~t_1 -> ~g      t )
#
#         PDG            Width
DECAY   2000006     4.03759772E+02   # stop2 decays
#          BR         NDA      ID1       ID2
     8.96560688E-03    2     1000022         6   # BR(~t_2 -> ~chi_10 t )
     6.90278755E-02    2     1000023         6   # BR(~t_2 -> ~chi_20 t )
     7.18743500E-02    2     1000025         6   # BR(~t_2 -> ~chi_30 t )
     1.33462171E-02    2     1000035         6   # BR(~t_2 -> ~chi_40 t )
     4.30186224E-02    2     1000024         5   # BR(~t_2 -> ~chi_1+ b )
     2.65022768E-02    2     1000037         5   # BR(~t_2 -> ~chi_2+ b )
     7.63974426E-01    2     1000021         6   # BR(~t_2 -> ~g      t )
     7.16678213E-04    2     1000006        25   # BR(~t_2 -> ~t_1    h )
     2.57394758E-03    2     1000006        23   # BR(~t_2 -> ~t_1    Z )
#
#         PDG            Width
DECAY   1000005     3.82550261E+02   # sbottom1 decays
#          BR         NDA      ID1       ID2
     2.04921663E-03    2     1000022         5   # BR(~b_1 -> ~chi_10 b )
     1.90751244E-03    2     1000023         5   # BR(~b_1 -> ~chi_20 b )
     1.80342907E-03    2     1000025         5   # BR(~b_1 -> ~chi_30 b )
     1.94476847E-02    2     1000035         5   # BR(~b_1 -> ~chi_40 b )
     1.42813759E-01    2    -1000024         6   # BR(~b_1 -> ~chi_1- t )
     3.91459649E-02    2    -1000037         6   # BR(~b_1 -> ~chi_2- t )
     7.91360488E-01    2     1000021         5   # BR(~b_1 -> ~g      b )
     1.47194497E-03    2     1000006       -24   # BR(~b_1 -> ~t_1    W-)
#
#         PDG            Width
DECAY   2000005     3.11674341E+02   # sbottom2 decays
#          BR         NDA      ID1       ID2
     9.40481958E-03    2     1000022         5   # BR(~b_2 -> ~chi_10 b )
     2.24155165E-03    2     1000023         5   # BR(~b_2 -> ~chi_20 b )
     2.34249947E-03    2     1000025         5   # BR(~b_2 -> ~chi_30 b )
     2.88129250E-04    2     1000035         5   # BR(~b_2 -> ~chi_40 b )
     6.48965828E-03    2    -1000024         6   # BR(~b_2 -> ~chi_1- t )
     5.79709521E-04    2    -1000037         6   # BR(~b_2 -> ~chi_2- t )
     9.78569856E-01    2     1000021         5   # BR(~b_2 -> ~g      b )
     8.37760973E-05    2     1000006       -24   # BR(~b_2 -> ~t_1    W-)
#
#         PDG            Width
DECAY   1000002     3.30439014E+02   # sup_L decays
#          BR         NDA      ID1       ID2
     2.26219887E-03    2     1000022         2   # BR(~u_L -> ~chi_10 u)
     5.94794288E-05    2     1000023         2   # BR(~u_L -> ~chi_20 u)
     3.89361188E-06    2     1000025         2   # BR(~u_L -> ~chi_30 u)
     2.35911276E-02    2     1000035         2   # BR(~u_L -> ~chi_40 u)
     1.92308039E-04    2     1000024         1   # BR(~u_L -> ~chi_1+ d)
     4.71458150E-02    2     1000037         1   # BR(~u_L -> ~chi_2+ d)
     9.26745177E-01    2     1000021         2   # BR(~u_L -> ~g      u)
#
#         PDG            Width
DECAY   2000002     3.16866989E+02   # sup_R decays
#          BR         NDA      ID1       ID2
     3.75599884E-02    2     1000022         2   # BR(~u_R -> ~chi_10 u)
     1.20888413E-05    2     1000023         2   # BR(~u_R -> ~chi_20 u)
     1.56383237E-05    2     1000025         2   # BR(~u_R -> ~chi_30 u)
     3.02813811E-09    2     1000035         2   # BR(~u_R -> ~chi_40 u)
     9.62412281E-01    2     1000021         2   # BR(~u_R -> ~g      u)
#
#         PDG            Width
DECAY   1000001     3.30449811E+02   # sdown_L decays
#          BR         NDA      ID1       ID2
     2.25586994E-03    2     1000022         1   # BR(~d_L -> ~chi_10 d)
     3.60731257E-05    2     1000023         1   # BR(~d_L -> ~chi_20 d)
     1.53220529E-05    2     1000025         1   # BR(~d_L -> ~chi_30 d)
     2.36060617E-02    2     1000035         1   # BR(~d_L -> ~chi_40 d)
     3.06937831E-05    2    -1000024         2   # BR(~d_L -> ~chi_1- u)
     4.72365472E-02    2    -1000037         2   # BR(~d_L -> ~chi_2- u)
     9.26819432E-01    2     1000021         1   # BR(~d_L -> ~g      d)
#
#         PDG            Width
DECAY   2000001     3.07954409E+02   # sdown_R decays
#          BR         NDA      ID1       ID2
     9.66228494E-03    2     1000022         1   # BR(~d_R -> ~chi_10 d)
     3.10991282E-06    2     1000023         1   # BR(~d_R -> ~chi_20 d)
     4.02303463E-06    2     1000025         1   # BR(~d_R -> ~chi_30 d)
     7.79086489E-10    2     1000035         1   # BR(~d_R -> ~chi_40 d)
     9.90330581E-01    2     1000021         1   # BR(~d_R -> ~g      d)
#
#         PDG            Width
DECAY   1000004     3.30439014E+02   # scharm_L decays
#          BR         NDA      ID1       ID2
     2.26219887E-03    2     1000022         4   # BR(~c_L -> ~chi_10 c)
     5.94794288E-05    2     1000023         4   # BR(~c_L -> ~chi_20 c)
     3.89361188E-06    2     1000025         4   # BR(~c_L -> ~chi_30 c)
     2.35911276E-02    2     1000035         4   # BR(~c_L -> ~chi_40 c)
     1.92308039E-04    2     1000024         3   # BR(~c_L -> ~chi_1+ s)
     4.71458150E-02    2     1000037         3   # BR(~c_L -> ~chi_2+ s)
     9.26745177E-01    2     1000021         4   # BR(~c_L -> ~g      c)
#
#         PDG            Width
DECAY   2000004     3.16866989E+02   # scharm_R decays
#          BR         NDA      ID1       ID2
     3.75599884E-02    2     1000022         4   # BR(~c_R -> ~chi_10 c)
     1.20888413E-05    2     1000023         4   # BR(~c_R -> ~chi_20 c)
     1.56383237E-05    2     1000025         4   # BR(~c_R -> ~chi_30 c)
     3.02813811E-09    2     1000035         4   # BR(~c_R -> ~chi_40 c)
     9.62412281E-01    2     1000021         4   # BR(~c_R -> ~g      c)
#
#         PDG            Width
DECAY   1000003     3.30449811E+02   # sstrange_L decays
#          BR         NDA      ID1       ID2
     2.25586994E-03    2     1000022         3   # BR(~s_L -> ~chi_10 s)
     3.60731257E-05    2     1000023         3   # BR(~s_L -> ~chi_20 s)
     1.53220529E-05    2     1000025         3   # BR(~s_L -> ~chi_30 s)
     2.36060617E-02    2     1000035         3   # BR(~s_L -> ~chi_40 s)
     3.06937831E-05    2    -1000024         4   # BR(~s_L -> ~chi_1- c)
     4.72365472E-02    2    -1000037         4   # BR(~s_L -> ~chi_2- c)
     9.26819432E-01    2     1000021         3   # BR(~s_L -> ~g      s)
#
#         PDG            Width
DECAY   2000003     3.07954409E+02   # sstrange_R decays
#          BR         NDA      ID1       ID2
     9.66228494E-03    2     1000022         3   # BR(~s_R -> ~chi_10 s)
     3.10991282E-06    2     1000023         3   # BR(~s_R -> ~chi_20 s)
     4.02303463E-06    2     1000025         3   # BR(~s_R -> ~chi_30 s)
     7.79086489E-10    2     1000035         3   # BR(~s_R -> ~chi_40 s)
     9.90330581E-01    2     1000021         3   # BR(~s_R -> ~g      s)
#
#         PDG            Width
DECAY   1000011     3.02410858E+01   # selectron_L decays
#          BR         NDA      ID1       ID2
     2.26731671E-01    2     1000022        11   # BR(~e_L -> ~chi_10 e-)
     9.85502739E-04    2     1000023        11   # BR(~e_L -> ~chi_20 e-)
     1.15894271E-08    2     1000025        11   # BR(~e_L -> ~chi_30 e-)
     2.57104959E-01    2     1000035        11   # BR(~e_L -> ~chi_40 e-)
     3.40937647E-04    2    -1000024        12   # BR(~e_L -> ~chi_1- nu_e)
     5.14836918E-01    2    -1000037        12   # BR(~e_L -> ~chi_2- nu_e)
#
#         PDG            Width
DECAY   2000011     2.73616701E+01   # selectron_R decays
#          BR         NDA      ID1       ID2
     9.99264549E-01    2     1000022        11   # BR(~e_R -> ~chi_10 e-)
     3.20618545E-04    2     1000023        11   # BR(~e_R -> ~chi_20 e-)
     4.14753337E-04    2     1000025        11   # BR(~e_R -> ~chi_30 e-)
     7.89354975E-08    2     1000035        11   # BR(~e_R -> ~chi_40 e-)
#
#         PDG            Width
DECAY   1000013     3.02410858E+01   # smuon_L decays
#          BR         NDA      ID1       ID2
     2.26731671E-01    2     1000022        13   # BR(~mu_L -> ~chi_10 mu-)
     9.85502739E-04    2     1000023        13   # BR(~mu_L -> ~chi_20 mu-)
     1.15894271E-08    2     1000025        13   # BR(~mu_L -> ~chi_30 mu-)
     2.57104959E-01    2     1000035        13   # BR(~mu_L -> ~chi_40 mu-)
     3.40937647E-04    2    -1000024        14   # BR(~mu_L -> ~chi_1- nu_mu)
     5.14836918E-01    2    -1000037        14   # BR(~mu_L -> ~chi_2- nu_mu)
#
#         PDG            Width
DECAY   2000013     2.73616701E+01   # smuon_R decays
#          BR         NDA      ID1       ID2
     9.99264549E-01    2     1000022        13   # BR(~mu_R -> ~chi_10 mu-)
     3.20618545E-04    2     1000023        13   # BR(~mu_R -> ~chi_20 mu-)
     4.14753337E-04    2     1000025        13   # BR(~mu_R -> ~chi_30 mu-)
     7.89354975E-08    2     1000035        13   # BR(~mu_R -> ~chi_40 mu-)
#
#         PDG            Width
DECAY   1000015     2.89742184E+01   # stau_1 decays
#          BR         NDA      ID1       ID2
     9.24227305E-01    2     1000022        15   # BR(~tau_1 -> ~chi_10  tau-)
     1.41687870E-02    2     1000023        15   # BR(~tau_1 -> ~chi_20  tau-)
     1.28870431E-02    2     1000025        15   # BR(~tau_1 -> ~chi_30  tau-)
     7.28183689E-03    2     1000035        15   # BR(~tau_1 -> ~chi_40  tau-)
     2.68535502E-02    2    -1000024        16   # BR(~tau_1 -> ~chi_1-  nu_tau)
     1.45814781E-02    2    -1000037        16   # BR(~tau_1 -> ~chi_2-  nu_tau)
#
#         PDG            Width
DECAY   2000015     3.09284345E+01   # stau_2 decays
#          BR         NDA      ID1       ID2
     2.39720410E-01    2     1000022        15   # BR(~tau_2 -> ~chi_10  tau-)
     1.29179608E-02    2     1000023        15   # BR(~tau_2 -> ~chi_20  tau-)
     1.32054023E-02    2     1000025        15   # BR(~tau_2 -> ~chi_30  tau-)
     2.44495896E-01    2     1000035        15   # BR(~tau_2 -> ~chi_40  tau-)
     7.39512057E-05    2    -1000024        16   # BR(~tau_2 -> ~chi_1-  nu_tau)
     4.89586380E-01    2    -1000037        16   # BR(~tau_2 -> ~chi_2-  nu_tau)
#
#         PDG            Width
DECAY   1000012     3.02431266E+01   # snu_eL decays
#          BR         NDA      ID1       ID2
     2.26457248E-01    2     1000022        12   # BR(~nu_eL -> ~chi_10 nu_e)
     2.05267725E-04    2     1000023        12   # BR(~nu_eL -> ~chi_20 nu_e)
     3.80701063E-04    2     1000025        12   # BR(~nu_eL -> ~chi_30 nu_e)
     2.57194424E-01    2     1000035        12   # BR(~nu_eL -> ~chi_40 nu_e)
     2.13560472E-03    2     1000024        11   # BR(~nu_eL -> ~chi_1+ e-)
     5.13626754E-01    2     1000037        11   # BR(~nu_eL -> ~chi_2+ e-)
#
#         PDG            Width
DECAY   1000014     3.02431266E+01   # snu_muL decays
#          BR         NDA      ID1       ID2
     2.26457248E-01    2     1000022        14   # BR(~nu_muL -> ~chi_10 nu_mu)
     2.05267725E-04    2     1000023        14   # BR(~nu_muL -> ~chi_20 nu_mu)
     3.80701063E-04    2     1000025        14   # BR(~nu_muL -> ~chi_30 nu_mu)
     2.57194424E-01    2     1000035        14   # BR(~nu_muL -> ~chi_40 nu_mu)
     2.13560472E-03    2     1000024        13   # BR(~nu_muL -> ~chi_1+ mu-)
     5.13626754E-01    2     1000037        13   # BR(~nu_muL -> ~chi_2+ mu-)
#
#         PDG            Width
DECAY   1000016     3.10069049E+01   # snu_tauL decays
#          BR         NDA      ID1       ID2
     2.20855295E-01    2     1000022        16   # BR(~nu_tauL -> ~chi_10 nu_tau)
     2.00181523E-04    2     1000023        16   # BR(~nu_tauL -> ~chi_20 nu_tau)
     3.71267850E-04    2     1000025        16   # BR(~nu_tauL -> ~chi_30 nu_tau)
     2.50767366E-01    2     1000035        16   # BR(~nu_tauL -> ~chi_40 nu_tau)
     2.70127783E-02    2     1000024        15   # BR(~nu_tauL -> ~chi_1+ tau-)
     5.00793111E-01    2     1000037        15   # BR(~nu_tauL -> ~chi_2+ tau-)
#
#         PDG            Width
DECAY   1000024     9.23156178E-01   # chargino1+ decays
#          BR         NDA      ID1       ID2
     1.00000000E+00    2     1000022        24   # BR(~chi_1+ -> ~chi_10  W+)
#
#         PDG            Width
DECAY   1000037     1.84095579E+01   # chargino2+ decays
#          BR         NDA      ID1       ID2
     2.52719583E-01    2     1000024        23   # BR(~chi_2+ -> ~chi_1+  Z )
     2.61276825E-04    2     1000022        24   # BR(~chi_2+ -> ~chi_10  W+)
     2.44048408E-01    2     1000023        24   # BR(~chi_2+ -> ~chi_20  W+)
     2.43708276E-01    2     1000025        24   # BR(~chi_2+ -> ~chi_30  W+)
     2.59262093E-01    2     1000024        25   # BR(~chi_2+ -> ~chi_1+  h )
     3.63811019E-07    2     1000022        37   # BR(~chi_2+ -> ~chi_10  H+)
#
#         PDG            Width
DECAY   1000022     0.00000000E+00   # neutralino1 decays
#
#         PDG            Width
DECAY   1000023     9.69956513E-01   # neutralino2 decays
#          BR         NDA      ID1       ID2
     5.56514588E-01    2     1000022        23   # BR(~chi_20 -> ~chi_10   Z )
     4.43485412E-01    2     1000022        25   # BR(~chi_20 -> ~chi_10   h )
#
#         PDG            Width
DECAY   1000025     9.79508912E-01   # neutralino3 decays
#          BR         NDA      ID1       ID2
     4.26553475E-01    2     1000022        23   # BR(~chi_30 -> ~chi_10   Z )
     5.73446525E-01    2     1000022        25   # BR(~chi_30 -> ~chi_10   h )
#
#         PDG            Width
DECAY   1000035     1.84098635E+01   # neutralino4 decays
#          BR         NDA      ID1       ID2
     9.39830542E-05    2     1000022        23   # BR(~chi_40 -> ~chi_10   Z )
     3.95241309E-02    2     1000023        23   # BR(~chi_40 -> ~chi_20   Z )
     2.12663430E-01    2     1000025        23   # BR(~chi_40 -> ~chi_30   Z )
     2.44353299E-01    2     1000024       -24   # BR(~chi_40 -> ~chi_1+   W-)
     2.44353299E-01    2    -1000024        24   # BR(~chi_40 -> ~chi_1-   W+)
     1.73518417E-04    2     1000022        25   # BR(~chi_40 -> ~chi_10   h )
     3.27872035E-07    2     1000022        35   # BR(~chi_40 -> ~chi_10   H )
     4.93154130E-08    2     1000022        36   # BR(~chi_40 -> ~chi_10   A )
     2.19363672E-01    2     1000023        25   # BR(~chi_40 -> ~chi_20   h )
     3.94742915E-02    2     1000025        25   # BR(~chi_40 -> ~chi_30   h )
#
#         PDG            Width
DECAY        25     4.01612466E-03   # h decays
#          BR         NDA      ID1       ID2
     6.14884129E-01    2           5        -5   # BR(h -> b       bb     )
     6.43790507E-02    2         -15        15   # BR(h -> tau+    tau-   )
     2.27926939E-04    2         -13        13   # BR(h -> mu+     mu-    )
     4.83479447E-04    2           3        -3   # BR(h -> s       sb     )
     2.09522095E-02    2           4        -4   # BR(h -> c       cb     )
     6.73347950E-02    2          21        21   # BR(h -> g       g      )
     2.30658383E-03    2          22        22   # BR(h -> gam     gam    )
     1.45520974E-03    2          22        23   # BR(h -> Z       gam    )
     2.03818730E-01    2          24       -24   # BR(h -> W+      W-     )
     2.41291683E-02    2          23        23   # BR(h -> Z       Z      )
     2.87184200E-05    2     1000022   1000022   # BR(h -> ~chi_10 ~chi_10)
#
#         PDG            Width
DECAY        35     7.25914871E+00   # H decays
#          BR         NDA      ID1       ID2
     4.48613676E-01    2           5        -5   # BR(H -> b       bb     )
     7.68140692E-02    2         -15        15   # BR(H -> tau+    tau-   )
     2.71620650E-04    2         -13        13   # BR(H -> mu+     mu-    )
     3.32965292E-04    2           3        -3   # BR(H -> s       sb     )
     1.85902967E-06    2           4        -4   # BR(H -> c       cb     )
     1.85731795E-01    2           6        -6   # BR(H -> t       tb     )
     6.16295436E-05    2          21        21   # BR(H -> g       g      )
     3.88463474E-07    2          22        22   # BR(H -> gam     gam    )
     1.09587535E-07    2          23        22   # BR(H -> Z       gam    )
     8.21137402E-05    2          24       -24   # BR(H -> W+      W-     )
     4.10048979E-05    2          23        23   # BR(H -> Z       Z      )
     3.13522254E-04    2          25        25   # BR(H -> h       h      )
     4.22078196E-24    2          36        36   # BR(H -> A       A      )
     1.18817365E-18    2          23        36   # BR(H -> Z       A      )
     3.16936280E-09    2     1000024  -1000024   # BR(H -> ~chi_1+ ~chi_1-)
     8.84877861E-04    2     1000022   1000022   # BR(H -> ~chi_10 ~chi_10)
     1.92332921E-08    2     1000023   1000023   # BR(H -> ~chi_20 ~chi_20)
     1.70455292E-01    2     1000022   1000023   # BR(H -> ~chi_10 ~chi_20)
     1.16395054E-01    2     1000022   1000025   # BR(H -> ~chi_10 ~chi_30)
#
#         PDG            Width
DECAY        36     7.26185693E+00   # A decays
#          BR         NDA      ID1       ID2
     4.48596496E-01    2           5        -5   # BR(A -> b       bb     )
     7.67875084E-02    2         -15        15   # BR(A -> tau+    tau-   )
     2.71526349E-04    2         -13        13   # BR(A -> mu+     mu-    )
     3.33092806E-04    2           3        -3   # BR(A -> s       sb     )
     1.86613442E-06    2           4        -4   # BR(A -> c       cb     )
     1.86338741E-01    2           6        -6   # BR(A -> t       tb     )
     1.84467097E-04    2          21        21   # BR(A -> g       g      )
     2.67979202E-07    2          22        22   # BR(A -> gam     gam    )
     2.23323832E-07    2          23        22   # BR(A -> Z       gam    )
     8.17749950E-05    2          23        25   # BR(A -> Z       h      )
     9.10494866E-04    2     1000022   1000022   # BR(A -> ~chi_10 ~chi_10)
     1.52314140E-05    2     1000023   1000023   # BR(A -> ~chi_20 ~chi_20)
     1.17738335E-01    2     1000022   1000023   # BR(A -> ~chi_10 ~chi_20)
     1.68739975E-01    2     1000022   1000025   # BR(A -> ~chi_10 ~chi_30)
#
#         PDG            Width
DECAY        37     7.23935413E+00   # H+ decays
#          BR         NDA      ID1       ID2
     7.18785549E-04    2           4        -5   # BR(H+ -> c       bb     )
     7.70487657E-02    2         -15        16   # BR(H+ -> tau+    nu_tau )
     2.72450174E-04    2         -13        14   # BR(H+ -> mu+     nu_mu  )
     4.60020383E-06    2           2        -5   # BR(H+ -> u       bb     )
     1.59868047E-05    2           2        -3   # BR(H+ -> u       sb     )
     3.30604935E-04    2           4        -3   # BR(H+ -> c       sb     )
     6.32249250E-01    2           6        -5   # BR(H+ -> t       bb     )
     8.21539988E-05    2          24        25   # BR(H+ -> W+      h      )
     9.53105831E-14    2          24        36   # BR(H+ -> W+      A      )
     2.89261755E-01    2     1000024   1000022   # BR(H+ -> ~chi_1+ ~chi_10)
     1.56470179E-05    2     1000024   1000023   # BR(H+ -> ~chi_1+ ~chi_20)
