#
#                              ======================
#                              | THE SUSYHIT OUTPUT |
#                              ======================
#
#
#              ------------------------------------------------------
#              |     This is the output of the SUSY-HIT package     |
#              |  created by A.Djouadi, M.Muehlleitner and M.Spira. |
#              |  In case of problems with SUSY-HIT email to        |
#              |           margarete.muehlleitner@cern.ch           |
#              |           michael.spira@psi.ch                     |
#              |           abdelhak.djouadi@cern.ch                 |
#              ------------------------------------------------------
#
#              ------------------------------------------------------
#              |  SUSY Les Houches Accord - MSSM Spectrum + Decays  |
#              |              based on the decay programs           |
#              |                                                    |
#              |                     SDECAY 1.3b                    |
#              |                                                    |
#              |  Authors: M.Muhlleitner, A.Djouadi and Y.Mambrini  |
#              |  Ref.:    Comput.Phys.Commun.168(2005)46           |
#              |           [hep-ph/0311167]                         |
#              |                                                    |
#              |                     HDECAY 3.4                     |
#              |                                                    |
#              |  By: A.Djouadi,J.Kalinowski,M.Muhlleitner,M.Spira  |
#              |  Ref.:    Comput.Phys.Commun.108(1998)56           |
#              |           [hep-ph/9704448]                         |
#              |                                                    |
#              |                                                    |
#              |  If not stated otherwise all DRbar couplings and   |
#              |  soft SUSY breaking masses are given at the scale  |
#              |  Q=  0.50006860E+04
#              |                                                    |
#              ------------------------------------------------------
#
#
BLOCK DCINFO  # Decay Program information
     1   SDECAY/HDECAY # decay calculator
     2   1.3b  /3.4    # version number
#
BLOCK SPINFO  # Spectrum calculator information
     1    SOFTSUSY    # spectrum calculator                
     2    3.4.0       # version number                     
#
BLOCK MODSEL  # Model selection
     1     0   #  nonUniversal                                     
#
BLOCK SMINPUTS  # Standard Model inputs
         1     1.25778332E+02   # alpha_em^-1(M_Z)^MSbar
         2     1.16570000E-05   # G_F [GeV^-2]
         3     1.17200002E-01   # alpha_S(M_Z)^MSbar
         4     9.11876000E+01   # M_Z pole mass
         5     4.25000000E+00   # mb(mb)^MSbar
         6     1.72500000E+02   # mt pole mass
         7     1.77682000E+00   # mtau pole mass
#
BLOCK MINPAR  # Input parameters - minimal models
         3     1.00000000E+01   # tanb                
#
BLOCK EXTPAR  # Input parameters - non-minimal models
         0    -1.00000000E+00   # Set                 
         1     6.00000000E+01   # M_1(MX)             
         2     3.00000000E+03   # M_2(MX)             
         3     7.73148000E+02   # M_3(MX)             
        11     5.00000000E+03   # At(MX)              
        12     5.00000000E+03   # Ab(MX)              
        13     0.00000000E+00   # Atau(MX)            
        23    -1.93801900E+03   # mu(MX)              
        26     3.00000000E+03   # mA(pole)            
        31     5.00000000E+03   # meL(MX)             
        32     5.00000000E+03   # mmuL(MX)            
        33     5.00000000E+03   # mtauL(MX)           
        34     5.00000000E+03   # meR(MX)             
        35     5.00000000E+03   # mmuR(MX)            
        36     5.00000000E+03   # mtauR(MX)           
        41     5.00000000E+03   # mqL1(MX)            
        42     5.00000000E+03   # mqL2(MX)            
        43     5.00000000E+03   # mqL3(MX)            
        44     5.00000000E+03   # muR(MX)             
        45     5.00000000E+03   # mcR(MX)             
        46     5.00000000E+03   # mtR(MX)             
        47     5.00000000E+03   # mdR(MX)             
        48     5.00000000E+03   # msR(MX)             
        49     5.00000000E+03   # mbR(MX)             
#
BLOCK MASS  # Mass Spectrum
# PDG code           mass       particle
        24     8.00945546E+01   # W+
        25     1.24310705E+02   # h
        35     3.00007568E+03   # H
        36     2.99999995E+03   # A
        37     3.00087467E+03   # H+
         5     4.87878001E+00   # b-quark pole mass calculated from mb(mb)_Msbar
   1000001     5.06374225E+03   # ~d_L
   2000001     5.04594994E+03   # ~d_R
   1000002     5.06326509E+03   # ~u_L
   2000002     5.04568124E+03   # ~u_R
   1000003     5.06374225E+03   # ~s_L
   2000003     5.04594994E+03   # ~s_R
   1000004     5.06326509E+03   # ~c_L
   2000004     5.04568124E+03   # ~c_R
   1000005     5.01114411E+03   # ~b_1
   2000005     5.04530647E+03   # ~b_2
   1000006     4.90283249E+03   # ~t_1
   2000006     5.05946312E+03   # ~t_2
   1000011     5.01903629E+03   # ~e_L
   2000011     5.00590153E+03   # ~e_R
   1000012     5.01808783E+03   # ~nu_eL
   1000013     5.01903629E+03   # ~mu_L
   2000013     5.00590153E+03   # ~mu_R
   1000014     5.01808783E+03   # ~nu_muL
   1000015     5.00405674E+03   # ~tau_1
   2000015     5.01933582E+03   # ~tau_2
   1000016     5.01755952E+03   # ~nu_tauL
   1000021     1.00000043E+03   # ~g
   1000022     6.02987242E+01   # ~chi_10
   1000023     1.99938048E+03   # ~chi_20
   1000025    -2.00240004E+03   # ~chi_30
   1000035     3.07450322E+03   # ~chi_40
   1000024     2.00000044E+03   # ~chi_1+
   1000037     3.07467121E+03   # ~chi_2+
#
BLOCK NMIX  # Neutralino Mixing Matrix
  1  1     9.99749329E-01   # N_11
  1  2     1.11593194E-04   # N_12
  1  3    -2.23264211E-02   # N_13
  1  4     1.67281403E-03   # N_14
  2  1     1.45955835E-02   # N_21
  2  2     4.52977041E-02   # N_22
  2  3     7.06689819E-01   # N_23
  2  4     7.05921091E-01   # N_24
  3  1    -1.69682975E-02   # N_31
  3  2     1.19441912E-02   # N_32
  3  3    -7.06777478E-01   # N_33
  3  4     7.07131537E-01   # N_34
  4  1    -5.70665579E-04   # N_41
  4  2     9.98902118E-01   # N_42
  4  3    -2.35929518E-02   # N_43
  4  4    -4.04673340E-02   # N_44
#
BLOCK UMIX  # Chargino Mixing Matrix U
  1  1     3.32959478E-02   # U_11
  1  2     9.99445536E-01   # U_12
  2  1    -9.99445536E-01   # U_21
  2  2     3.32959478E-02   # U_22
#
BLOCK VMIX  # Chargino Mixing Matrix V
  1  1     5.71608034E-02   # V_11
  1  2    -9.98364985E-01   # V_12
  2  1    -9.98364985E-01   # V_21
  2  2    -5.71608034E-02   # V_22
#
BLOCK STOPMIX  # Stop Mixing Matrix
  1  1    -5.19742102E-01   # cos(theta_t)
  1  2     8.54323210E-01   # sin(theta_t)
  2  1    -8.54323210E-01   # -sin(theta_t)
  2  2    -5.19742102E-01   # cos(theta_t)
#
BLOCK SBOTMIX  # Sbottom Mixing Matrix
  1  1     9.90557502E-01   # cos(theta_b)
  1  2    -1.37097904E-01   # sin(theta_b)
  2  1     1.37097904E-01   # -sin(theta_b)
  2  2     9.90557502E-01   # cos(theta_b)
#
BLOCK STAUMIX  # Stau Mixing Matrix
  1  1    -2.18688840E-01   # cos(theta_tau)
  1  2     9.75794646E-01   # sin(theta_tau)
  2  1    -9.75794646E-01   # -sin(theta_tau)
  2  2    -2.18688840E-01   # cos(theta_tau)
#
BLOCK ALPHA  # Higgs mixing
          -1.05405286E-01   # Mixing angle in the neutral Higgs boson sector
#
BLOCK HMIX Q=  5.00068596E+03  # DRbar Higgs Parameters
         1    -1.97250381E+03   # mu(Q)MSSM           
         2     9.47520020E+00   # tan                 
         3     2.42130503E+02   # higgs               
         4     8.31587887E+06   # mA^2(Q)MSSM         
#
BLOCK GAUGE Q=  5.00068596E+03  # The gauge couplings
     1     3.70653501E-01   # gprime(Q) DRbar
     2     6.31810013E-01   # g(Q) DRbar
     3     1.00863181E+00   # g3(Q) DRbar
#
BLOCK AU Q=  5.00068596E+03  # The trilinear couplings
  1  1     5.00000001E+03   # A_u(Q) DRbar
  2  2     5.00000001E+03   # A_c(Q) DRbar
  3  3     5.00000001E+03   # A_t(Q) DRbar
#
BLOCK AD Q=  5.00068596E+03  # The trilinear couplings
  1  1     5.00000000E+03   # A_d(Q) DRbar
  2  2     5.00000000E+03   # A_s(Q) DRbar
  3  3     5.00000001E+03   # A_b(Q) DRbar
#
BLOCK AE Q=  5.00068596E+03  # The trilinear couplings
  1  1     0.00000000E+00   # A_e(Q) DRbar
  2  2     1.74644298E-08   # A_mu(Q) DRbar
  3  3     1.64935994E-08   # A_tau(Q) DRbar
#
BLOCK Yu Q=  5.00068596E+03  # The Yukawa couplings
  1  1     0.00000000E+00   # y_u(Q) DRbar
  2  2     0.00000000E+00   # y_c(Q) DRbar
  3  3     8.13524356E-01   # y_t(Q) DRbar
#
BLOCK Yd Q=  5.00068596E+03  # The Yukawa couplings
  1  1     0.00000000E+00   # y_d(Q) DRbar
  2  2     0.00000000E+00   # y_s(Q) DRbar
  3  3     1.30089836E-01   # y_b(Q) DRbar
#
BLOCK Ye Q=  5.00068596E+03  # The Yukawa couplings
  1  1     0.00000000E+00   # y_e(Q) DRbar
  2  2     0.00000000E+00   # y_mu(Q) DRbar
  3  3     9.64712602E-02   # y_tau(Q) DRbar
#
BLOCK MSOFT Q=  5.00068596E+03  # The soft SUSY breaking masses at the scale Q
         1     6.00000000E+01   # M_1(Q)              
         2     3.00000000E+03   # M_2(Q)              
         3     7.73148000E+02   # M_3(Q)              
        21     4.75130246E+06   # mH1^2(Q)            
        22    -3.36523531E+06   # mH2^2(Q)            
        31     5.00000000E+03   # meL(Q)              
        32     5.00000000E+03   # mmuL(Q)             
        33     5.00000000E+03   # mtauL(Q)            
        34     5.00000000E+03   # meR(Q)              
        35     5.00000000E+03   # mmuR(Q)             
        36     5.00000000E+03   # mtauR(Q)            
        41     5.00000000E+03   # mqL1(Q)             
        42     5.00000000E+03   # mqL2(Q)             
        43     5.00000000E+03   # mqL3(Q)             
        44     5.00000000E+03   # muR(Q)              
        45     5.00000000E+03   # mcR(Q)              
        46     5.00000000E+03   # mtR(Q)              
        47     5.00000000E+03   # mdR(Q)              
        48     5.00000000E+03   # msR(Q)              
        49     5.00000000E+03   # mbR(Q)              
#
#
#
#                             =================
#                             |The decay table|
#                             =================
#
# - The QCD corrections to the decays gluino -> squark  + quark
#                                     squark -> gaugino + quark_prime
#                                     squark -> squark_prime + Higgs
#                                     squark -> gluino  + quark
#   are included.
#
# - The multi-body decays for the inos, stops and sbottoms are included.
#
# - The loop induced decays for the gluino, neutralinos and stops
#   are included.
#
# - The SUSY decays of the top quark are included.
#
#
#         PDG            Width
DECAY         6     1.39889522E+00   # top decays
#          BR         NDA      ID1       ID2
     1.00000000E+00    2           5        24   # BR(t ->  b    W+)
#
#         PDG            Width
DECAY   1000021     8.40358902E-06   # gluino decays
#          BR         NDA      ID1       ID2
     1.98706351E-05    2     1000022        21   # BR(~g -> ~chi_10 g)
#           BR         NDA      ID1       ID2       ID3
     8.31661598E-02    3     1000022         1        -1   # BR(~g -> ~chi_10 d  db)
     2.83480168E-01    3     1000022         2        -2   # BR(~g -> ~chi_10 u  ub)
     8.31661598E-02    3     1000022         3        -3   # BR(~g -> ~chi_10 s  sb)
     2.83480168E-01    3     1000022         4        -4   # BR(~g -> ~chi_10 c  cb)
     8.40842469E-02    3     1000022         5        -5   # BR(~g -> ~chi_10 b  bb)
     1.82603227E-01    3     1000022         6        -6   # BR(~g -> ~chi_10 t  tb)
#
#         PDG            Width
DECAY   1000006     3.89943362E+02   # stop1 decays
#          BR         NDA      ID1       ID2
     2.22714048E-02    2     1000022         6   # BR(~t_1 -> ~chi_10 t )
     5.79868855E-02    2     1000023         6   # BR(~t_1 -> ~chi_20 t )
     5.55975410E-02    2     1000025         6   # BR(~t_1 -> ~chi_30 t )
     6.07007758E-03    2     1000035         6   # BR(~t_1 -> ~chi_40 t )
     8.14115700E-02    2     1000024         5   # BR(~t_1 -> ~chi_1+ b )
     1.20256336E-02    2     1000037         5   # BR(~t_1 -> ~chi_2+ b )
     7.64636888E-01    2     1000021         6   # BR(~t_1 -> ~g      t )
#
#         PDG            Width
DECAY   2000006     3.99072950E+02   # stop2 decays
#          BR         NDA      ID1       ID2
     9.26535922E-03    2     1000022         6   # BR(~t_2 -> ~chi_10 t )
     5.97656160E-02    2     1000023         6   # BR(~t_2 -> ~chi_20 t )
     6.23435256E-02    2     1000025         6   # BR(~t_2 -> ~chi_30 t )
     1.31280197E-02    2     1000035         6   # BR(~t_2 -> ~chi_40 t )
     3.90251944E-02    2     1000024         5   # BR(~t_2 -> ~chi_1+ b )
     2.59448460E-02    2     1000037         5   # BR(~t_2 -> ~chi_2+ b )
     7.87148653E-01    2     1000021         6   # BR(~t_2 -> ~g      t )
     7.08072689E-04    2     1000006        25   # BR(~t_2 -> ~t_1    h )
     2.67071290E-03    2     1000006        23   # BR(~t_2 -> ~t_1    Z )
#
#         PDG            Width
DECAY   1000005     3.79488407E+02   # sbottom1 decays
#          BR         NDA      ID1       ID2
     2.10858907E-03    2     1000022         5   # BR(~b_1 -> ~chi_10 b )
     1.72640728E-03    2     1000023         5   # BR(~b_1 -> ~chi_20 b )
     1.54930163E-03    2     1000025         5   # BR(~b_1 -> ~chi_30 b )
     1.93903166E-02    2     1000035         5   # BR(~b_1 -> ~chi_40 b )
     1.21297039E-01    2    -1000024         6   # BR(~b_1 -> ~chi_1- t )
     3.92069702E-02    2    -1000037         6   # BR(~b_1 -> ~chi_2- t )
     8.13295584E-01    2     1000021         5   # BR(~b_1 -> ~g      b )
     1.42579174E-03    2     1000006       -24   # BR(~b_1 -> ~t_1    W-)
#
#         PDG            Width
DECAY   2000005     3.17569886E+02   # sbottom2 decays
#          BR         NDA      ID1       ID2
     9.17797353E-03    2     1000022         5   # BR(~b_2 -> ~chi_10 b )
     1.83140534E-03    2     1000023         5   # BR(~b_2 -> ~chi_20 b )
     1.97409394E-03    2     1000025         5   # BR(~b_2 -> ~chi_30 b )
     4.94887910E-04    2     1000035         5   # BR(~b_2 -> ~chi_40 b )
     6.54395478E-03    2    -1000024         6   # BR(~b_2 -> ~chi_1- t )
     9.99365779E-04    2    -1000037         6   # BR(~b_2 -> ~chi_2- t )
     9.78841931E-01    2     1000021         5   # BR(~b_2 -> ~g      b )
     1.36388205E-04    2     1000006       -24   # BR(~b_2 -> ~t_1    W-)
#
#         PDG            Width
DECAY   1000002     3.36220022E+02   # sup_L decays
#          BR         NDA      ID1       ID2
     2.22293073E-03    2     1000022         2   # BR(~u_L -> ~chi_10 u)
     9.59440359E-05    2     1000023         2   # BR(~u_L -> ~chi_20 u)
     3.07557840E-06    2     1000025         2   # BR(~u_L -> ~chi_30 u)
     2.31211278E-02    2     1000035         2   # BR(~u_L -> ~chi_40 u)
     2.70345025E-04    2     1000024         1   # BR(~u_L -> ~chi_1+ d)
     4.61969928E-02    2     1000037         1   # BR(~u_L -> ~chi_2+ d)
     9.28089584E-01    2     1000021         2   # BR(~u_L -> ~g      u)
#
#         PDG            Width
DECAY   2000002     3.22689699E+02   # sup_R decays
#          BR         NDA      ID1       ID2
     3.68870052E-02    2     1000022         2   # BR(~u_R -> ~chi_10 u)
     5.58574016E-06    2     1000023         2   # BR(~u_R -> ~chi_20 u)
     7.54092692E-06    2     1000025         2   # BR(~u_R -> ~chi_30 u)
     4.75623300E-09    2     1000035         2   # BR(~u_R -> ~chi_40 u)
     9.63099863E-01    2     1000021         2   # BR(~u_R -> ~g      u)
#
#         PDG            Width
DECAY   1000001     3.36231957E+02   # sdown_L decays
#          BR         NDA      ID1       ID2
     2.21799199E-03    2     1000022         1   # BR(~d_L -> ~chi_10 d)
     7.45538270E-05    2     1000023         1   # BR(~d_L -> ~chi_20 d)
     9.62952962E-06    2     1000025         1   # BR(~d_L -> ~chi_30 d)
     2.31378843E-02    2     1000035         1   # BR(~d_L -> ~chi_40 d)
     9.17403281E-05    2    -1000024         2   # BR(~d_L -> ~chi_1- u)
     4.63099021E-02    2    -1000037         2   # BR(~d_L -> ~chi_2- u)
     9.28158298E-01    2     1000021         1   # BR(~d_L -> ~g      d)
#
#         PDG            Width
DECAY   2000001     3.13778644E+02   # sdown_R decays
#          BR         NDA      ID1       ID2
     9.48414796E-03    2     1000022         1   # BR(~d_R -> ~chi_10 d)
     1.43622614E-06    2     1000023         1   # BR(~d_R -> ~chi_20 d)
     1.93895125E-06    2     1000025         1   # BR(~d_R -> ~chi_30 d)
     1.22304457E-09    2     1000035         1   # BR(~d_R -> ~chi_40 d)
     9.90512476E-01    2     1000021         1   # BR(~d_R -> ~g      d)
#
#         PDG            Width
DECAY   1000004     3.36220022E+02   # scharm_L decays
#          BR         NDA      ID1       ID2
     2.22293073E-03    2     1000022         4   # BR(~c_L -> ~chi_10 c)
     9.59440359E-05    2     1000023         4   # BR(~c_L -> ~chi_20 c)
     3.07557840E-06    2     1000025         4   # BR(~c_L -> ~chi_30 c)
     2.31211278E-02    2     1000035         4   # BR(~c_L -> ~chi_40 c)
     2.70345025E-04    2     1000024         3   # BR(~c_L -> ~chi_1+ s)
     4.61969928E-02    2     1000037         3   # BR(~c_L -> ~chi_2+ s)
     9.28089584E-01    2     1000021         4   # BR(~c_L -> ~g      c)
#
#         PDG            Width
DECAY   2000004     3.22689699E+02   # scharm_R decays
#          BR         NDA      ID1       ID2
     3.68870052E-02    2     1000022         4   # BR(~c_R -> ~chi_10 c)
     5.58574016E-06    2     1000023         4   # BR(~c_R -> ~chi_20 c)
     7.54092692E-06    2     1000025         4   # BR(~c_R -> ~chi_30 c)
     4.75623300E-09    2     1000035         4   # BR(~c_R -> ~chi_40 c)
     9.63099863E-01    2     1000021         4   # BR(~c_R -> ~g      c)
#
#         PDG            Width
DECAY   1000003     3.36231957E+02   # sstrange_L decays
#          BR         NDA      ID1       ID2
     2.21799199E-03    2     1000022         3   # BR(~s_L -> ~chi_10 s)
     7.45538270E-05    2     1000023         3   # BR(~s_L -> ~chi_20 s)
     9.62952962E-06    2     1000025         3   # BR(~s_L -> ~chi_30 s)
     2.31378843E-02    2     1000035         3   # BR(~s_L -> ~chi_40 s)
     9.17403281E-05    2    -1000024         4   # BR(~s_L -> ~chi_1- c)
     4.63099021E-02    2    -1000037         4   # BR(~s_L -> ~chi_2- c)
     9.28158298E-01    2     1000021         3   # BR(~s_L -> ~g      s)
#
#         PDG            Width
DECAY   2000003     3.13778644E+02   # sstrange_R decays
#          BR         NDA      ID1       ID2
     9.48414796E-03    2     1000022         3   # BR(~s_R -> ~chi_10 s)
     1.43622614E-06    2     1000023         3   # BR(~s_R -> ~chi_20 s)
     1.93895125E-06    2     1000025         3   # BR(~s_R -> ~chi_30 s)
     1.22304457E-09    2     1000035         3   # BR(~s_R -> ~chi_40 s)
     9.90512476E-01    2     1000021         3   # BR(~s_R -> ~g      s)
#
#         PDG            Width
DECAY   1000011     3.02235975E+01   # selectron_L decays
#          BR         NDA      ID1       ID2
     2.26846799E-01    2     1000022        11   # BR(~e_L -> ~chi_10 e-)
     1.35392924E-03    2     1000023        11   # BR(~e_L -> ~chi_20 e-)
     1.84557183E-06    2     1000025        11   # BR(~e_L -> ~chi_30 e-)
     2.56642368E-01    2     1000035        11   # BR(~e_L -> ~chi_40 e-)
     1.03459488E-03    2    -1000024        12   # BR(~e_L -> ~chi_1- nu_e)
     5.14120464E-01    2    -1000037        12   # BR(~e_L -> ~chi_2- nu_e)
#
#         PDG            Width
DECAY   2000011     2.73519690E+01   # selectron_R decays
#          BR         NDA      ID1       ID2
     9.99646078E-01    2     1000022        11   # BR(~e_R -> ~chi_10 e-)
     1.50550956E-04    2     1000023        11   # BR(~e_R -> ~chi_20 e-)
     2.03244432E-04    2     1000025        11   # BR(~e_R -> ~chi_30 e-)
     1.26367133E-07    2     1000035        11   # BR(~e_R -> ~chi_40 e-)
#
#         PDG            Width
DECAY   1000013     3.02235975E+01   # smuon_L decays
#          BR         NDA      ID1       ID2
     2.26846799E-01    2     1000022        13   # BR(~mu_L -> ~chi_10 mu-)
     1.35392924E-03    2     1000023        13   # BR(~mu_L -> ~chi_20 mu-)
     1.84557183E-06    2     1000025        13   # BR(~mu_L -> ~chi_30 mu-)
     2.56642368E-01    2     1000035        13   # BR(~mu_L -> ~chi_40 mu-)
     1.03459488E-03    2    -1000024        14   # BR(~mu_L -> ~chi_1- nu_mu)
     5.14120464E-01    2    -1000037        14   # BR(~mu_L -> ~chi_2- nu_mu)
#
#         PDG            Width
DECAY   2000013     2.73519690E+01   # smuon_R decays
#          BR         NDA      ID1       ID2
     9.99646078E-01    2     1000022        13   # BR(~mu_R -> ~chi_10 mu-)
     1.50550956E-04    2     1000023        13   # BR(~mu_R -> ~chi_20 mu-)
     2.03244432E-04    2     1000025        13   # BR(~mu_R -> ~chi_30 mu-)
     1.26367133E-07    2     1000035        13   # BR(~mu_R -> ~chi_40 mu-)
#
#         PDG            Width
DECAY   1000015     2.87920564E+01   # stau_1 decays
#          BR         NDA      ID1       ID2
     9.16097707E-01    2     1000022        15   # BR(~tau_1 -> ~chi_10  tau-)
     1.27197187E-02    2     1000023        15   # BR(~tau_1 -> ~chi_20  tau-)
     1.08276572E-02    2     1000025        15   # BR(~tau_1 -> ~chi_30  tau-)
     1.21792901E-02    2     1000035        15   # BR(~tau_1 -> ~chi_40  tau-)
     2.37740753E-02    2    -1000024        16   # BR(~tau_1 -> ~chi_1-  nu_tau)
     2.44015513E-02    2    -1000037        16   # BR(~tau_1 -> ~chi_2-  nu_tau)
#
#         PDG            Width
DECAY   2000015     3.07353727E+01   # stau_2 decays
#          BR         NDA      ID1       ID2
     2.54307761E-01    2     1000022        15   # BR(~tau_2 -> ~chi_10  tau-)
     1.08656731E-02    2     1000023        15   # BR(~tau_2 -> ~chi_20  tau-)
     1.13451715E-02    2     1000025        15   # BR(~tau_2 -> ~chi_30  tau-)
     2.40902971E-01    2     1000035        15   # BR(~tau_2 -> ~chi_40  tau-)
     7.15817351E-07    2    -1000024        16   # BR(~tau_2 -> ~chi_1-  nu_tau)
     4.82577708E-01    2    -1000037        16   # BR(~tau_2 -> ~chi_2-  nu_tau)
#
#         PDG            Width
DECAY   1000012     3.02246118E+01   # snu_eL decays
#          BR         NDA      ID1       ID2
     2.26623752E-01    2     1000022        12   # BR(~nu_eL -> ~chi_10 nu_e)
     6.29599470E-04    2     1000023        12   # BR(~nu_eL -> ~chi_20 nu_e)
     2.23481560E-04    2     1000025        12   # BR(~nu_eL -> ~chi_30 nu_e)
     2.56812803E-01    2     1000035        12   # BR(~nu_eL -> ~chi_40 nu_e)
     3.04807444E-03    2     1000024        11   # BR(~nu_eL -> ~chi_1+ e-)
     5.12662289E-01    2     1000037        11   # BR(~nu_eL -> ~chi_2+ e-)
#
#         PDG            Width
DECAY   1000014     3.02246118E+01   # snu_muL decays
#          BR         NDA      ID1       ID2
     2.26623752E-01    2     1000022        14   # BR(~nu_muL -> ~chi_10 nu_mu)
     6.29599470E-04    2     1000023        14   # BR(~nu_muL -> ~chi_20 nu_mu)
     2.23481560E-04    2     1000025        14   # BR(~nu_muL -> ~chi_30 nu_mu)
     2.56812803E-01    2     1000035        14   # BR(~nu_muL -> ~chi_40 nu_mu)
     3.04807444E-03    2     1000024        13   # BR(~nu_muL -> ~chi_1+ mu-)
     5.12662289E-01    2     1000037        13   # BR(~nu_muL -> ~chi_2+ mu-)
#
#         PDG            Width
DECAY   1000016     3.08725040E+01   # snu_tauL decays
#          BR         NDA      ID1       ID2
     2.21844441E-01    2     1000022        16   # BR(~nu_tauL -> ~chi_10 nu_tau)
     6.16272779E-04    2     1000023        16   # BR(~nu_tauL -> ~chi_20 nu_tau)
     2.18751078E-04    2     1000025        16   # BR(~nu_tauL -> ~chi_30 nu_tau)
     2.51333212E-01    2     1000035        16   # BR(~nu_tauL -> ~chi_40 nu_tau)
     2.42545453E-02    2     1000024        15   # BR(~nu_tauL -> ~chi_1+ tau-)
     5.01732778E-01    2     1000037        15   # BR(~nu_tauL -> ~chi_2+ tau-)
#
#         PDG            Width
DECAY   1000024     1.23584324E+00   # chargino1+ decays
#          BR         NDA      ID1       ID2
     1.00000000E+00    2     1000022        24   # BR(~chi_1+ -> ~chi_10  W+)
#
#         PDG            Width
DECAY   1000037     1.53742918E+01   # chargino2+ decays
#          BR         NDA      ID1       ID2
     2.51902057E-01    2     1000024        23   # BR(~chi_2+ -> ~chi_1+  Z )
     4.76796198E-04    2     1000022        24   # BR(~chi_2+ -> ~chi_10  W+)
     2.45423811E-01    2     1000023        24   # BR(~chi_2+ -> ~chi_20  W+)
     2.42812845E-01    2     1000025        24   # BR(~chi_2+ -> ~chi_30  W+)
     2.59384448E-01    2     1000024        25   # BR(~chi_2+ -> ~chi_1+  h )
     4.32241818E-08    2     1000022        37   # BR(~chi_2+ -> ~chi_10  H+)
#
#         PDG            Width
DECAY   1000022     0.00000000E+00   # neutralino1 decays
#
#         PDG            Width
DECAY   1000023     1.30137716E+00   # neutralino2 decays
#          BR         NDA      ID1       ID2
     5.65542465E-01    2     1000022        23   # BR(~chi_20 -> ~chi_10   Z )
     4.34457535E-01    2     1000022        25   # BR(~chi_20 -> ~chi_10   h )
#
#         PDG            Width
DECAY   1000025     1.31763871E+00   # neutralino3 decays
#          BR         NDA      ID1       ID2
     4.15385296E-01    2     1000022        23   # BR(~chi_30 -> ~chi_10   Z )
     5.84614704E-01    2     1000022        25   # BR(~chi_30 -> ~chi_10   h )
#
#         PDG            Width
DECAY   1000035     1.53276707E+01   # neutralino4 decays
#          BR         NDA      ID1       ID2
     2.14798599E-04    2     1000022        23   # BR(~chi_40 -> ~chi_10   Z )
     1.67143014E-02    2     1000023        23   # BR(~chi_40 -> ~chi_20   Z )
     2.35845086E-01    2     1000025        23   # BR(~chi_40 -> ~chi_30   Z )
     2.43617500E-01    2     1000024       -24   # BR(~chi_40 -> ~chi_1+   W-)
     2.43617500E-01    2    -1000024        24   # BR(~chi_40 -> ~chi_1-   W+)
     2.82137212E-04    2     1000022        25   # BR(~chi_40 -> ~chi_10   h )
     3.23353279E-08    2     1000022        35   # BR(~chi_40 -> ~chi_10   H )
     1.24554862E-08    2     1000022        36   # BR(~chi_40 -> ~chi_10   A )
     2.43253905E-01    2     1000023        25   # BR(~chi_40 -> ~chi_20   h )
     1.64547282E-02    2     1000025        25   # BR(~chi_40 -> ~chi_30   h )
#
#         PDG            Width
DECAY        25     4.00051877E-03   # h decays
#          BR         NDA      ID1       ID2
     6.15725773E-01    2           5        -5   # BR(h -> b       bb     )
     6.45820236E-02    2         -15        15   # BR(h -> tau+    tau-   )
     2.28645914E-04    2         -13        13   # BR(h -> mu+     mu-    )
     4.85068057E-04    2           3        -3   # BR(h -> s       sb     )
     2.10226855E-02    2           4        -4   # BR(h -> c       cb     )
     6.74646756E-02    2          21        21   # BR(h -> g       g      )
     2.30925928E-03    2          22        22   # BR(h -> gam     gam    )
     1.44991643E-03    2          22        23   # BR(h -> Z       gam    )
     2.02743929E-01    2          24       -24   # BR(h -> W+      W-     )
     2.39702370E-02    2          23        23   # BR(h -> Z       Z      )
     1.77865776E-05    2     1000022   1000022   # BR(h -> ~chi_10 ~chi_10)
#
#         PDG            Width
DECAY        35     6.33625045E+00   # H decays
#          BR         NDA      ID1       ID2
     5.17957294E-01    2           5        -5   # BR(H -> b       bb     )
     8.80239939E-02    2         -15        15   # BR(H -> tau+    tau-   )
     3.11259834E-04    2         -13        13   # BR(H -> mu+     mu-    )
     3.81557088E-04    2           3        -3   # BR(H -> s       sb     )
     2.12910113E-06    2           4        -4   # BR(H -> c       cb     )
     2.12714056E-01    2           6        -6   # BR(H -> t       tb     )
     7.05094078E-05    2          21        21   # BR(H -> g       g      )
     3.98864705E-07    2          22        22   # BR(H -> gam     gam    )
     1.25506542E-07    2          23        22   # BR(H -> Z       gam    )
     9.11089707E-05    2          24       -24   # BR(H -> W+      W-     )
     4.54968215E-05    2          23        23   # BR(H -> Z       Z      )
     3.54652634E-04    2          25        25   # BR(H -> h       h      )
    -1.21214946E-23    2          36        36   # BR(H -> A       A      )
     8.54252678E-19    2          23        36   # BR(H -> Z       A      )
     5.70685393E-04    2     1000022   1000022   # BR(H -> ~chi_10 ~chi_10)
     1.04813433E-01    2     1000022   1000023   # BR(H -> ~chi_10 ~chi_20)
     7.46632998E-02    2     1000022   1000025   # BR(H -> ~chi_10 ~chi_30)
#
#         PDG            Width
DECAY        36     6.33966154E+00   # A decays
#          BR         NDA      ID1       ID2
     5.17852335E-01    2           5        -5   # BR(A -> b       bb     )
     8.79792920E-02    2         -15        15   # BR(A -> tau+    tau-   )
     3.11101330E-04    2         -13        13   # BR(A -> mu+     mu-    )
     3.81641059E-04    2           3        -3   # BR(A -> s       sb     )
     2.13705779E-06    2           4        -4   # BR(A -> c       cb     )
     2.13391197E-01    2           6        -6   # BR(A -> t       tb     )
     2.11269745E-04    2          21        21   # BR(A -> g       g      )
     4.12777151E-07    2          22        22   # BR(A -> gam     gam    )
     2.55791262E-07    2          23        22   # BR(A -> Z       gam    )
     9.07198378E-05    2          23        25   # BR(A -> Z       h      )
     5.89701028E-04    2     1000022   1000022   # BR(A -> ~chi_10 ~chi_10)
     7.55949783E-02    2     1000022   1000023   # BR(A -> ~chi_10 ~chi_20)
     1.03594960E-01    2     1000022   1000025   # BR(A -> ~chi_10 ~chi_30)
#
#         PDG            Width
DECAY        37     6.31996934E+00   # H+ decays
#          BR         NDA      ID1       ID2
     8.31256024E-04    2           4        -5   # BR(H+ -> c       bb     )
     8.82791564E-02    2         -15        16   # BR(H+ -> tau+    nu_tau )
     3.12161672E-04    2         -13        14   # BR(H+ -> mu+     nu_mu  )
     5.32001137E-06    2           2        -5   # BR(H+ -> u       bb     )
     1.83169955E-05    2           2        -3   # BR(H+ -> u       sb     )
     3.78791938E-04    2           4        -3   # BR(H+ -> c       sb     )
     7.29106038E-01    2           6        -5   # BR(H+ -> t       bb     )
     9.11405740E-05    2          24        25   # BR(H+ -> W+      h      )
     1.06491154E-13    2          24        36   # BR(H+ -> W+      A      )
     1.80977818E-01    2     1000024   1000022   # BR(H+ -> ~chi_1+ ~chi_10)
