#
#                              ======================
#                              | THE SUSYHIT OUTPUT |
#                              ======================
#
#
#              ------------------------------------------------------
#              |     This is the output of the SUSY-HIT package     |
#              |  created by A.Djouadi, M.Muehlleitner and M.Spira. |
#              |  In case of problems with SUSY-HIT email to        |
#              |           margarete.muehlleitner@cern.ch           |
#              |           michael.spira@psi.ch                     |
#              |           abdelhak.djouadi@cern.ch                 |
#              ------------------------------------------------------
#
#              ------------------------------------------------------
#              |  SUSY Les Houches Accord - MSSM Spectrum + Decays  |
#              |              based on the decay programs           |
#              |                                                    |
#              |                     SDECAY 1.3b                    |
#              |                                                    |
#              |  Authors: M.Muhlleitner, A.Djouadi and Y.Mambrini  |
#              |  Ref.:    Comput.Phys.Commun.168(2005)46           |
#              |           [hep-ph/0311167]                         |
#              |                                                    |
#              |                     HDECAY 3.4                     |
#              |                                                    |
#              |  By: A.Djouadi,J.Kalinowski,M.Muhlleitner,M.Spira  |
#              |  Ref.:    Comput.Phys.Commun.108(1998)56           |
#              |           [hep-ph/9704448]                         |
#              |                                                    |
#              |                                                    |
#              |  If not stated otherwise all DRbar couplings and   |
#              |  soft SUSY breaking masses are given at the scale  |
#              |  Q=  0.50007151E+04
#              |                                                    |
#              ------------------------------------------------------
#
#
BLOCK DCINFO  # Decay Program information
     1   SDECAY/HDECAY # decay calculator
     2   1.3b  /3.4    # version number
#
BLOCK SPINFO  # Spectrum calculator information
     1    SOFTSUSY    # spectrum calculator                
     2    3.4.0       # version number                     
#
BLOCK MODSEL  # Model selection
     1     0   #  nonUniversal                                     
#
BLOCK SMINPUTS  # Standard Model inputs
         1     1.25778332E+02   # alpha_em^-1(M_Z)^MSbar
         2     1.16570000E-05   # G_F [GeV^-2]
         3     1.17200002E-01   # alpha_S(M_Z)^MSbar
         4     9.11876000E+01   # M_Z pole mass
         5     4.25000000E+00   # mb(mb)^MSbar
         6     1.72500000E+02   # mt pole mass
         7     1.77682000E+00   # mtau pole mass
#
BLOCK MINPAR  # Input parameters - minimal models
         3     1.00000000E+01   # tanb                
#
BLOCK EXTPAR  # Input parameters - non-minimal models
         0    -1.00000000E+00   # Set                 
         1     6.00000000E+01   # M_1(MX)             
         2     3.00000000E+03   # M_2(MX)             
         3     7.73144000E+02   # M_3(MX)             
        11     5.00000000E+03   # At(MX)              
        12     5.00000000E+03   # Ab(MX)              
        13     0.00000000E+00   # Atau(MX)            
        23    -1.25182000E+03   # mu(MX)              
        26     3.00000000E+03   # mA(pole)            
        31     5.00000000E+03   # meL(MX)             
        32     5.00000000E+03   # mmuL(MX)            
        33     5.00000000E+03   # mtauL(MX)           
        34     5.00000000E+03   # meR(MX)             
        35     5.00000000E+03   # mmuR(MX)            
        36     5.00000000E+03   # mtauR(MX)           
        41     5.00000000E+03   # mqL1(MX)            
        42     5.00000000E+03   # mqL2(MX)            
        43     5.00000000E+03   # mqL3(MX)            
        44     5.00000000E+03   # muR(MX)             
        45     5.00000000E+03   # mcR(MX)             
        46     5.00000000E+03   # mtR(MX)             
        47     5.00000000E+03   # mdR(MX)             
        48     5.00000000E+03   # msR(MX)             
        49     5.00000000E+03   # mbR(MX)             
#
BLOCK MASS  # Mass Spectrum
# PDG code           mass       particle
        24     8.00931971E+01   # W+
        25     1.24313954E+02   # h
        35     3.00008116E+03   # H
        36     2.99999988E+03   # A
        37     3.00087004E+03   # H+
         5     4.87878001E+00   # b-quark pole mass calculated from mb(mb)_Msbar
   1000001     5.06377311E+03   # ~d_L
   2000001     5.04595480E+03   # ~d_R
   1000002     5.06329612E+03   # ~u_L
   2000002     5.04567528E+03   # ~u_R
   1000003     5.06377311E+03   # ~s_L
   2000003     5.04595480E+03   # ~s_R
   1000004     5.06329612E+03   # ~c_L
   2000004     5.04567528E+03   # ~c_R
   1000005     5.01026393E+03   # ~b_1
   2000005     5.04473979E+03   # ~b_2
   1000006     4.90091282E+03   # ~t_1
   2000006     5.05687206E+03   # ~t_2
   1000011     5.01905972E+03   # ~e_L
   2000011     5.00591553E+03   # ~e_R
   1000012     5.01811086E+03   # ~nu_eL
   1000013     5.01905972E+03   # ~mu_L
   2000013     5.00591553E+03   # ~mu_R
   1000014     5.01811086E+03   # ~nu_muL
   1000015     5.00447594E+03   # ~tau_1
   2000015     5.01889982E+03   # ~tau_2
   1000016     5.01756862E+03   # ~nu_tauL
   1000021     1.00000046E+03   # ~g
   1000022     6.03026308E+01   # ~chi_10
   1000023     1.29950126E+03   # ~chi_20
   1000025    -1.30184520E+03   # ~chi_30
   1000035     3.07431010E+03   # ~chi_40
   1000024     1.30000001E+03   # ~chi_1+
   1000037     3.07447762E+03   # ~chi_2+
#
BLOCK NMIX  # Neutralino Mixing Matrix
  1  1     9.99410153E-01   # N_11
  1  2     1.55296764E-04   # N_12
  1  3    -3.42833387E-02   # N_13
  1  4     1.99379347E-03   # N_14
  2  1     2.28347617E-02   # N_21
  2  2     2.74373113E-02   # N_22
  2  3     7.06875233E-01   # N_23
  2  4     7.06436956E-01   # N_24
  3  1    -2.56464208E-02   # N_31
  3  2     1.38819183E-02   # N_32
  3  3    -7.06441890E-01   # N_33
  3  4     7.07170000E-01   # N_34
  4  1    -4.25909515E-04   # N_41
  4  2     9.99527119E-01   # N_42
  4  3    -9.58719672E-03   # N_43
  4  4    -2.92137310E-02   # N_44
#
BLOCK UMIX  # Chargino Mixing Matrix U
  1  1     1.35726945E-02   # U_11
  1  2     9.99907887E-01   # U_12
  2  1    -9.99907887E-01   # U_21
  2  2     1.35726945E-02   # U_22
#
BLOCK VMIX  # Chargino Mixing Matrix V
  1  1     4.13412794E-02   # V_11
  1  2    -9.99145084E-01   # V_12
  2  1    -9.99145084E-01   # V_21
  2  2    -4.13412794E-02   # V_22
#
BLOCK STOPMIX  # Stop Mixing Matrix
  1  1    -5.12552439E-01   # cos(theta_t)
  1  2     8.58655925E-01   # sin(theta_t)
  2  1    -8.58655925E-01   # -sin(theta_t)
  2  2    -5.12552439E-01   # cos(theta_t)
#
BLOCK SBOTMIX  # Sbottom Mixing Matrix
  1  1     9.95572958E-01   # cos(theta_b)
  1  2    -9.39919427E-02   # sin(theta_b)
  2  1     9.39919427E-02   # -sin(theta_b)
  2  2     9.95572958E-01   # cos(theta_b)
#
BLOCK STAUMIX  # Stau Mixing Matrix
  1  1    -1.46917711E-01   # cos(theta_tau)
  1  2     9.89148718E-01   # sin(theta_tau)
  2  1    -9.89148718E-01   # -sin(theta_tau)
  2  2    -1.46917711E-01   # cos(theta_tau)
#
BLOCK ALPHA  # Higgs mixing
          -1.05417968E-01   # Mixing angle in the neutral Higgs boson sector
#
BLOCK HMIX Q=  5.00071509E+03  # DRbar Higgs Parameters
         1    -1.27409258E+03   # mu(Q)MSSM           
         2     9.47455200E+00   # tan                 
         3     2.41987320E+02   # higgs               
         4     8.43365805E+06   # mA^2(Q)MSSM         
#
BLOCK GAUGE Q=  5.00071509E+03  # The gauge couplings
     1     3.70755495E-01   # gprime(Q) DRbar
     2     6.32302495E-01   # g(Q) DRbar
     3     1.00864012E+00   # g3(Q) DRbar
#
BLOCK AU Q=  5.00071509E+03  # The trilinear couplings
  1  1     5.00000001E+03   # A_u(Q) DRbar
  2  2     5.00000001E+03   # A_c(Q) DRbar
  3  3     5.00000001E+03   # A_t(Q) DRbar
#
BLOCK AD Q=  5.00071509E+03  # The trilinear couplings
  1  1     5.00000000E+03   # A_d(Q) DRbar
  2  2     5.00000000E+03   # A_s(Q) DRbar
  3  3     5.00000001E+03   # A_b(Q) DRbar
#
BLOCK AE Q=  5.00071509E+03  # The trilinear couplings
  1  1     0.00000000E+00   # A_e(Q) DRbar
  2  2     1.68927643E-08   # A_mu(Q) DRbar
  3  3     1.59188130E-08   # A_tau(Q) DRbar
#
BLOCK Yu Q=  5.00071509E+03  # The Yukawa couplings
  1  1     0.00000000E+00   # y_u(Q) DRbar
  2  2     0.00000000E+00   # y_c(Q) DRbar
  3  3     8.13968173E-01   # y_t(Q) DRbar
#
BLOCK Yd Q=  5.00071509E+03  # The Yukawa couplings
  1  1     0.00000000E+00   # y_d(Q) DRbar
  2  2     0.00000000E+00   # y_s(Q) DRbar
  3  3     1.29569182E-01   # y_b(Q) DRbar
#
BLOCK Ye Q=  5.00071509E+03  # The Yukawa couplings
  1  1     0.00000000E+00   # y_e(Q) DRbar
  2  2     0.00000000E+00   # y_mu(Q) DRbar
  3  3     9.67296189E-02   # y_tau(Q) DRbar
#
BLOCK MSOFT Q=  5.00071509E+03  # The soft SUSY breaking masses at the scale Q
         1     6.00000000E+01   # M_1(Q)              
         2     3.00000000E+03   # M_2(Q)              
         3     7.73144000E+02   # M_3(Q)              
        21     7.05628587E+06   # mH1^2(Q)            
        22    -1.07330360E+06   # mH2^2(Q)            
        31     5.00000000E+03   # meL(Q)              
        32     5.00000000E+03   # mmuL(Q)             
        33     5.00000000E+03   # mtauL(Q)            
        34     5.00000000E+03   # meR(Q)              
        35     5.00000000E+03   # mmuR(Q)             
        36     5.00000000E+03   # mtauR(Q)            
        41     5.00000000E+03   # mqL1(Q)             
        42     5.00000000E+03   # mqL2(Q)             
        43     5.00000000E+03   # mqL3(Q)             
        44     5.00000000E+03   # muR(Q)              
        45     5.00000000E+03   # mcR(Q)              
        46     5.00000000E+03   # mtR(Q)              
        47     5.00000000E+03   # mdR(Q)              
        48     5.00000000E+03   # msR(Q)              
        49     5.00000000E+03   # mbR(Q)              
#
#
#
#                             =================
#                             |The decay table|
#                             =================
#
# - The QCD corrections to the decays gluino -> squark  + quark
#                                     squark -> gaugino + quark_prime
#                                     squark -> squark_prime + Higgs
#                                     squark -> gluino  + quark
#   are included.
#
# - The multi-body decays for the inos, stops and sbottoms are included.
#
# - The loop induced decays for the gluino, neutralinos and stops
#   are included.
#
# - The SUSY decays of the top quark are included.
#
#
#         PDG            Width
DECAY         6     1.40113618E+00   # top decays
#          BR         NDA      ID1       ID2
     1.00000000E+00    2           5        24   # BR(t ->  b    W+)
#
#         PDG            Width
DECAY   1000021     8.40883895E-06   # gluino decays
#          BR         NDA      ID1       ID2
     2.11588449E-05    2     1000022        21   # BR(~g -> ~chi_10 g)
#           BR         NDA      ID1       ID2       ID3
     8.30971070E-02    3     1000022         1        -1   # BR(~g -> ~chi_10 d  db)
     2.83280422E-01    3     1000022         2        -2   # BR(~g -> ~chi_10 u  ub)
     8.30971070E-02    3     1000022         3        -3   # BR(~g -> ~chi_10 s  sb)
     2.83280422E-01    3     1000022         4        -4   # BR(~g -> ~chi_10 c  cb)
     8.41600118E-02    3     1000022         5        -5   # BR(~g -> ~chi_10 b  bb)
     1.83063770E-01    3     1000022         6        -6   # BR(~g -> ~chi_10 t  tb)
#
#         PDG            Width
DECAY   1000006     4.09403244E+02   # stop1 decays
#          BR         NDA      ID1       ID2
     2.14143660E-02    2     1000022         6   # BR(~t_1 -> ~chi_10 t )
     6.91493628E-02    2     1000023         6   # BR(~t_1 -> ~chi_20 t )
     6.64557610E-02    2     1000025         6   # BR(~t_1 -> ~chi_30 t )
     5.27900657E-03    2     1000035         6   # BR(~t_1 -> ~chi_40 t )
     9.91281625E-02    2     1000024         5   # BR(~t_1 -> ~chi_1+ b )
     1.05090404E-02    2     1000037         5   # BR(~t_1 -> ~chi_2+ b )
     7.28064301E-01    2     1000021         6   # BR(~t_1 -> ~g      t )
#
#         PDG            Width
DECAY   2000006     4.12566383E+02   # stop2 decays
#          BR         NDA      ID1       ID2
     8.73999189E-03    2     1000022         6   # BR(~t_2 -> ~chi_10 t )
     7.06751770E-02    2     1000023         6   # BR(~t_2 -> ~chi_20 t )
     7.35741600E-02    2     1000025         6   # BR(~t_2 -> ~chi_30 t )
     1.31314595E-02    2     1000035         6   # BR(~t_2 -> ~chi_40 t )
     4.36248398E-02    2     1000024         5   # BR(~t_2 -> ~chi_1+ b )
     2.61013353E-02    2     1000037         5   # BR(~t_2 -> ~chi_2+ b )
     7.60958446E-01    2     1000021         6   # BR(~t_2 -> ~g      t )
     7.02089028E-04    2     1000006        25   # BR(~t_2 -> ~t_1    h )
     2.49250103E-03    2     1000006        23   # BR(~t_2 -> ~t_1    Z )
#
#         PDG            Width
DECAY   1000005     3.91280430E+02   # sbottom1 decays
#          BR         NDA      ID1       ID2
     1.99311135E-03    2     1000022         5   # BR(~b_1 -> ~chi_10 b )
     1.92597147E-03    2     1000023         5   # BR(~b_1 -> ~chi_20 b )
     1.84361474E-03    2     1000025         5   # BR(~b_1 -> ~chi_30 b )
     1.90650494E-02    2     1000035         5   # BR(~b_1 -> ~chi_40 b )
     1.46714964E-01    2    -1000024         6   # BR(~b_1 -> ~chi_1- t )
     3.83401684E-02    2    -1000037         6   # BR(~b_1 -> ~chi_2- t )
     7.88669038E-01    2     1000021         5   # BR(~b_1 -> ~g      b )
     1.44808274E-03    2     1000006       -24   # BR(~b_1 -> ~t_1    W-)
#
#         PDG            Width
DECAY   2000005     3.17463183E+02   # sbottom2 decays
#          BR         NDA      ID1       ID2
     9.24867264E-03    2     1000022         5   # BR(~b_2 -> ~chi_10 b )
     2.31275720E-03    2     1000023         5   # BR(~b_2 -> ~chi_20 b )
     2.39900093E-03    2     1000025         5   # BR(~b_2 -> ~chi_30 b )
     2.22507778E-04    2     1000035         5   # BR(~b_2 -> ~chi_40 b )
     6.25141509E-03    2    -1000024         6   # BR(~b_2 -> ~chi_1- t )
     4.47330393E-04    2    -1000037         6   # BR(~b_2 -> ~chi_2- t )
     9.79053245E-01    2     1000021         5   # BR(~b_2 -> ~g      b )
     6.50705224E-05    2     1000006       -24   # BR(~b_2 -> ~t_1    W-)
#
#         PDG            Width
DECAY   1000002     3.36254927E+02   # sup_L decays
#          BR         NDA      ID1       ID2
     2.22342335E-03    2     1000022         2   # BR(~u_L -> ~chi_10 u)
     5.16729082E-05    2     1000023         2   # BR(~u_L -> ~chi_20 u)
     3.99229610E-06    2     1000025         2   # BR(~u_L -> ~chi_30 u)
     2.31889322E-02    2     1000035         2   # BR(~u_L -> ~chi_40 u)
     1.73548403E-04    2     1000024         1   # BR(~u_L -> ~chi_1+ d)
     4.63442694E-02    2     1000037         1   # BR(~u_L -> ~chi_2+ d)
     9.28014161E-01    2     1000021         2   # BR(~u_L -> ~g      u)
#
#         PDG            Width
DECAY   2000002     3.22700526E+02   # sup_R decays
#          BR         NDA      ID1       ID2
     3.68809703E-02    2     1000022         2   # BR(~u_R -> ~chi_10 u)
     1.67876369E-05    2     1000023         2   # BR(~u_R -> ~chi_20 u)
     2.11654055E-05    2     1000025         2   # BR(~u_R -> ~chi_30 u)
     2.65106907E-09    2     1000035         2   # BR(~u_R -> ~chi_40 u)
     9.63081074E-01    2     1000021         2   # BR(~u_R -> ~g      u)
#
#         PDG            Width
DECAY   1000001     3.36264844E+02   # sdown_L decays
#          BR         NDA      ID1       ID2
     2.21650797E-03    2     1000022         1   # BR(~d_L -> ~chi_10 d)
     2.68034313E-05    2     1000023         1   # BR(~d_L -> ~chi_20 d)
     1.81201687E-05    2     1000025         1   # BR(~d_L -> ~chi_30 d)
     2.32032343E-02    2     1000035         1   # BR(~d_L -> ~chi_40 d)
     1.87078837E-05    2    -1000024         2   # BR(~d_L -> ~chi_1- u)
     4.64282194E-02    2    -1000037         2   # BR(~d_L -> ~chi_2- u)
     9.28088407E-01    2     1000021         1   # BR(~d_L -> ~g      d)
#
#         PDG            Width
DECAY   2000001     3.13785407E+02   # sdown_R decays
#          BR         NDA      ID1       ID2
     9.48273052E-03    2     1000022         1   # BR(~d_R -> ~chi_10 d)
     4.31645724E-06    2     1000023         1   # BR(~d_R -> ~chi_20 d)
     5.44207466E-06    2     1000025         1   # BR(~d_R -> ~chi_30 d)
     6.81723906E-10    2     1000035         1   # BR(~d_R -> ~chi_40 d)
     9.90507510E-01    2     1000021         1   # BR(~d_R -> ~g      d)
#
#         PDG            Width
DECAY   1000004     3.36254927E+02   # scharm_L decays
#          BR         NDA      ID1       ID2
     2.22342335E-03    2     1000022         4   # BR(~c_L -> ~chi_10 c)
     5.16729082E-05    2     1000023         4   # BR(~c_L -> ~chi_20 c)
     3.99229610E-06    2     1000025         4   # BR(~c_L -> ~chi_30 c)
     2.31889322E-02    2     1000035         4   # BR(~c_L -> ~chi_40 c)
     1.73548403E-04    2     1000024         3   # BR(~c_L -> ~chi_1+ s)
     4.63442694E-02    2     1000037         3   # BR(~c_L -> ~chi_2+ s)
     9.28014161E-01    2     1000021         4   # BR(~c_L -> ~g      c)
#
#         PDG            Width
DECAY   2000004     3.22700526E+02   # scharm_R decays
#          BR         NDA      ID1       ID2
     3.68809703E-02    2     1000022         4   # BR(~c_R -> ~chi_10 c)
     1.67876369E-05    2     1000023         4   # BR(~c_R -> ~chi_20 c)
     2.11654055E-05    2     1000025         4   # BR(~c_R -> ~chi_30 c)
     2.65106907E-09    2     1000035         4   # BR(~c_R -> ~chi_40 c)
     9.63081074E-01    2     1000021         4   # BR(~c_R -> ~g      c)
#
#         PDG            Width
DECAY   1000003     3.36264844E+02   # sstrange_L decays
#          BR         NDA      ID1       ID2
     2.21650797E-03    2     1000022         3   # BR(~s_L -> ~chi_10 s)
     2.68034313E-05    2     1000023         3   # BR(~s_L -> ~chi_20 s)
     1.81201687E-05    2     1000025         3   # BR(~s_L -> ~chi_30 s)
     2.32032343E-02    2     1000035         3   # BR(~s_L -> ~chi_40 s)
     1.87078837E-05    2    -1000024         4   # BR(~s_L -> ~chi_1- c)
     4.64282194E-02    2    -1000037         4   # BR(~s_L -> ~chi_2- c)
     9.28088407E-01    2     1000021         3   # BR(~s_L -> ~g      s)
#
#         PDG            Width
DECAY   2000003     3.13785407E+02   # sstrange_R decays
#          BR         NDA      ID1       ID2
     9.48273052E-03    2     1000022         3   # BR(~s_R -> ~chi_10 s)
     4.31645724E-06    2     1000023         3   # BR(~s_R -> ~chi_20 s)
     5.44207466E-06    2     1000025         3   # BR(~s_R -> ~chi_30 s)
     6.81723906E-10    2     1000035         3   # BR(~s_R -> ~chi_40 s)
     9.90507510E-01    2     1000021         3   # BR(~s_R -> ~g      s)
#
#         PDG            Width
DECAY   1000011     3.02525979E+01   # selectron_L decays
#          BR         NDA      ID1       ID2
     2.26635168E-01    2     1000022        11   # BR(~e_L -> ~chi_10 e-)
     9.57253239E-04    2     1000023        11   # BR(~e_L -> ~chi_20 e-)
     7.67140613E-07    2     1000025        11   # BR(~e_L -> ~chi_30 e-)
     2.57204436E-01    2     1000035        11   # BR(~e_L -> ~chi_40 e-)
     2.11569735E-04    2    -1000024        12   # BR(~e_L -> ~chi_1- nu_e)
     5.14990806E-01    2    -1000037        12   # BR(~e_L -> ~chi_2- nu_e)
#
#         PDG            Width
DECAY   2000011     2.73669280E+01   # selectron_R decays
#          BR         NDA      ID1       ID2
     9.98974177E-01    2     1000022        11   # BR(~e_R -> ~chi_10 e-)
     4.53719261E-04    2     1000023        11   # BR(~e_R -> ~chi_20 e-)
     5.72033061E-04    2     1000025        11   # BR(~e_R -> ~chi_30 e-)
     7.04007407E-08    2     1000035        11   # BR(~e_R -> ~chi_40 e-)
#
#         PDG            Width
DECAY   1000013     3.02525979E+01   # smuon_L decays
#          BR         NDA      ID1       ID2
     2.26635168E-01    2     1000022        13   # BR(~mu_L -> ~chi_10 mu-)
     9.57253239E-04    2     1000023        13   # BR(~mu_L -> ~chi_20 mu-)
     7.67140613E-07    2     1000025        13   # BR(~mu_L -> ~chi_30 mu-)
     2.57204436E-01    2     1000035        13   # BR(~mu_L -> ~chi_40 mu-)
     2.11569735E-04    2    -1000024        14   # BR(~mu_L -> ~chi_1- nu_mu)
     5.14990806E-01    2    -1000037        14   # BR(~mu_L -> ~chi_2- nu_mu)
#
#         PDG            Width
DECAY   2000013     2.73669280E+01   # smuon_R decays
#          BR         NDA      ID1       ID2
     9.98974177E-01    2     1000022        13   # BR(~mu_R -> ~chi_10 mu-)
     4.53719261E-04    2     1000023        13   # BR(~mu_R -> ~chi_20 mu-)
     5.72033061E-04    2     1000025        13   # BR(~mu_R -> ~chi_30 mu-)
     7.04007407E-08    2     1000035        13   # BR(~mu_R -> ~chi_40 mu-)
#
#         PDG            Width
DECAY   1000015     2.90392574E+01   # stau_1 decays
#          BR         NDA      ID1       ID2
     9.26841907E-01    2     1000022        15   # BR(~tau_1 -> ~chi_10  tau-)
     1.47520135E-02    2     1000023        15   # BR(~tau_1 -> ~chi_20  tau-)
     1.36781749E-02    2     1000025        15   # BR(~tau_1 -> ~chi_30  tau-)
     5.56759803E-03    2     1000035        15   # BR(~tau_1 -> ~chi_40  tau-)
     2.80126947E-02    2    -1000024        16   # BR(~tau_1 -> ~chi_1-  nu_tau)
     1.11476121E-02    2    -1000037        16   # BR(~tau_1 -> ~chi_2-  nu_tau)
#
#         PDG            Width
DECAY   2000015     3.09992000E+01   # stau_2 decays
#          BR         NDA      ID1       ID2
     2.34704749E-01    2     1000022        15   # BR(~tau_2 -> ~chi_10  tau-)
     1.36807852E-02    2     1000023        15   # BR(~tau_2 -> ~chi_20  tau-)
     1.38166031E-02    2     1000025        15   # BR(~tau_2 -> ~chi_30  tau-)
     2.45716844E-01    2     1000035        15   # BR(~tau_2 -> ~chi_40  tau-)
     9.17528162E-05    2    -1000024        16   # BR(~tau_2 -> ~chi_1-  nu_tau)
     4.91989266E-01    2    -1000037        16   # BR(~tau_2 -> ~chi_2-  nu_tau)
#
#         PDG            Width
DECAY   1000012     3.02549736E+01   # snu_eL decays
#          BR         NDA      ID1       ID2
     2.26334457E-01    2     1000022        12   # BR(~nu_eL -> ~chi_10 nu_e)
     1.13299160E-04    2     1000023        12   # BR(~nu_eL -> ~chi_20 nu_e)
     4.79918522E-04    2     1000025        12   # BR(~nu_eL -> ~chi_30 nu_e)
     2.57275832E-01    2     1000035        12   # BR(~nu_eL -> ~chi_40 nu_e)
     1.96222760E-03    2     1000024        11   # BR(~nu_eL -> ~chi_1+ e-)
     5.13834266E-01    2     1000037        11   # BR(~nu_eL -> ~chi_2+ e-)
#
#         PDG            Width
DECAY   1000014     3.02549736E+01   # snu_muL decays
#          BR         NDA      ID1       ID2
     2.26334457E-01    2     1000022        14   # BR(~nu_muL -> ~chi_10 nu_mu)
     1.13299160E-04    2     1000023        14   # BR(~nu_muL -> ~chi_20 nu_mu)
     4.79918522E-04    2     1000025        14   # BR(~nu_muL -> ~chi_30 nu_mu)
     2.57275832E-01    2     1000035        14   # BR(~nu_muL -> ~chi_40 nu_mu)
     1.96222760E-03    2     1000024        13   # BR(~nu_muL -> ~chi_1+ mu-)
     5.13834266E-01    2     1000037        13   # BR(~nu_muL -> ~chi_2+ mu-)
#
#         PDG            Width
DECAY   1000016     3.10583970E+01   # snu_tauL decays
#          BR         NDA      ID1       ID2
     2.20455765E-01    2     1000022        16   # BR(~nu_tauL -> ~chi_10 nu_tau)
     1.10352965E-04    2     1000023        16   # BR(~nu_tauL -> ~chi_20 nu_tau)
     4.67438818E-04    2     1000025        16   # BR(~nu_tauL -> ~chi_30 nu_tau)
     2.50528414E-01    2     1000035        16   # BR(~nu_tauL -> ~chi_40 nu_tau)
     2.80794143E-02    2     1000024        15   # BR(~nu_tauL -> ~chi_1+ tau-)
     5.00358616E-01    2     1000037        15   # BR(~nu_tauL -> ~chi_2+ tau-)
#
#         PDG            Width
DECAY   1000024     7.97765490E-01   # chargino1+ decays
#          BR         NDA      ID1       ID2
     1.00000000E+00    2     1000022        24   # BR(~chi_1+ -> ~chi_10  W+)
#
#         PDG            Width
DECAY   1000037     1.92890207E+01   # chargino2+ decays
#          BR         NDA      ID1       ID2
     2.52938714E-01    2     1000024        23   # BR(~chi_2+ -> ~chi_1+  Z )
     2.27581103E-04    2     1000022        24   # BR(~chi_2+ -> ~chi_10  W+)
     2.44004629E-01    2     1000023        24   # BR(~chi_2+ -> ~chi_20  W+)
     2.43916403E-01    2     1000025        24   # BR(~chi_2+ -> ~chi_30  W+)
     2.58912081E-01    2     1000024        25   # BR(~chi_2+ -> ~chi_1+  h )
     5.92122123E-07    2     1000022        37   # BR(~chi_2+ -> ~chi_10  H+)
#
#         PDG            Width
DECAY   1000022     0.00000000E+00   # neutralino1 decays
#
#         PDG            Width
DECAY   1000023     8.36803111E-01   # neutralino2 decays
#          BR         NDA      ID1       ID2
     5.51278348E-01    2     1000022        23   # BR(~chi_20 -> ~chi_10   Z )
     4.48721652E-01    2     1000022        25   # BR(~chi_20 -> ~chi_10   h )
#
#         PDG            Width
DECAY   1000025     8.43882283E-01   # neutralino3 decays
#          BR         NDA      ID1       ID2
     4.33693938E-01    2     1000022        23   # BR(~chi_30 -> ~chi_10   Z )
     5.66306062E-01    2     1000022        25   # BR(~chi_30 -> ~chi_10   h )
#
#         PDG            Width
DECAY   1000035     1.92977907E+01   # neutralino4 decays
#          BR         NDA      ID1       ID2
     7.23643481E-05    2     1000022        23   # BR(~chi_40 -> ~chi_10   Z )
     5.16740778E-02    2     1000023        23   # BR(~chi_40 -> ~chi_20   Z )
     2.00592897E-01    2     1000025        23   # BR(~chi_40 -> ~chi_30   Z )
     2.44559864E-01    2     1000024       -24   # BR(~chi_40 -> ~chi_1+   W-)
     2.44559864E-01    2    -1000024        24   # BR(~chi_40 -> ~chi_1-   W+)
     1.59082458E-04    2     1000022        25   # BR(~chi_40 -> ~chi_10   h )
     5.39928923E-07    2     1000022        35   # BR(~chi_40 -> ~chi_10   H )
     7.33292336E-08    2     1000022        36   # BR(~chi_40 -> ~chi_10   A )
     2.06668816E-01    2     1000023        25   # BR(~chi_40 -> ~chi_20   h )
     5.17124207E-02    2     1000025        25   # BR(~chi_40 -> ~chi_30   h )
#
#         PDG            Width
DECAY        25     4.01183537E-03   # h decays
#          BR         NDA      ID1       ID2
     6.16655546E-01    2           5        -5   # BR(h -> b       bb     )
     6.44082622E-02    2         -15        15   # BR(h -> tau+    tau-   )
     2.28030716E-04    2         -13        13   # BR(h -> mu+     mu-    )
     4.83759795E-04    2           3        -3   # BR(h -> s       sb     )
     2.09638008E-02    2           4        -4   # BR(h -> c       cb     )
     6.72802263E-02    2          21        21   # BR(h -> g       g      )
     2.30282057E-03    2          22        22   # BR(h -> gam     gam    )
     1.44618453E-03    2          22        23   # BR(h -> Z       gam    )
     2.02284560E-01    2          24       -24   # BR(h -> W+      W-     )
     2.39124713E-02    2          23        23   # BR(h -> Z       Z      )
     3.43374606E-05    2     1000022   1000022   # BR(h -> ~chi_10 ~chi_10)
#
#         PDG            Width
DECAY        35     7.61753770E+00   # H decays
#          BR         NDA      ID1       ID2
     4.25919114E-01    2           5        -5   # BR(H -> b       bb     )
     7.32081872E-02    2         -15        15   # BR(H -> tau+    tau-   )
     2.58869965E-04    2         -13        13   # BR(H -> mu+     mu-    )
     3.17335003E-04    2           3        -3   # BR(H -> s       sb     )
     1.77141153E-06    2           4        -4   # BR(H -> c       cb     )
     1.76978041E-01    2           6        -6   # BR(H -> t       tb     )
     5.87426935E-05    2          21        21   # BR(H -> g       g      )
     3.62416508E-07    2          22        22   # BR(H -> gam     gam    )
     1.04394133E-07    2          23        22   # BR(H -> Z       gam    )
     7.91026585E-05    2          24       -24   # BR(H -> W+      W-     )
     3.95012588E-05    2          23        23   # BR(H -> Z       Z      )
     3.00242986E-04    2          25        25   # BR(H -> h       h      )
     5.30615956E-23    2          36        36   # BR(H -> A       A      )
     4.11340038E-19    2          23        36   # BR(H -> Z       A      )
     7.44745026E-04    2     1000024  -1000024   # BR(H -> ~chi_1+ ~chi_1-)
     1.12247930E-03    2     1000022   1000022   # BR(H -> ~chi_10 ~chi_10)
     5.62204062E-05    2     1000023   1000023   # BR(H -> ~chi_20 ~chi_20)
     1.24259552E-04    2     1000025   1000025   # BR(H -> ~chi_30 ~chi_30)
     1.91427568E-01    2     1000022   1000023   # BR(H -> ~chi_10 ~chi_20)
     1.29240231E-01    2     1000022   1000025   # BR(H -> ~chi_10 ~chi_30)
     1.23122907E-04    2     1000023   1000025   # BR(H -> ~chi_20 ~chi_30)
#
#         PDG            Width
DECAY        36     7.63862504E+00   # A decays
#          BR         NDA      ID1       ID2
     4.24886847E-01    2           5        -5   # BR(A -> b       bb     )
     7.30082453E-02    2         -15        15   # BR(A -> tau+    tau-   )
     2.58162593E-04    2         -13        13   # BR(A -> mu+     mu-    )
     3.16698908E-04    2           3        -3   # BR(A -> s       sb     )
     1.77388949E-06    2           4        -4   # BR(A -> c       cb     )
     1.77127826E-01    2           6        -6   # BR(A -> t       tb     )
     1.75356911E-04    2          21        21   # BR(A -> g       g      )
     4.87500754E-07    2          22        22   # BR(A -> gam     gam    )
     2.12246179E-07    2          23        22   # BR(A -> Z       gam    )
     7.85891813E-05    2          23        25   # BR(A -> Z       h      )
     2.59693100E-03    2     1000024  -1000024   # BR(A -> ~chi_1+ ~chi_1-)
     1.14912969E-03    2     1000022   1000022   # BR(A -> ~chi_10 ~chi_10)
     1.47048217E-04    2     1000023   1000023   # BR(A -> ~chi_20 ~chi_20)
     7.67808863E-04    2     1000025   1000025   # BR(A -> ~chi_30 ~chi_30)
     1.30487346E-01    2     1000022   1000023   # BR(A -> ~chi_10 ~chi_20)
     1.88990552E-01    2     1000022   1000025   # BR(A -> ~chi_10 ~chi_30)
     6.98464652E-06    2     1000023   1000025   # BR(A -> ~chi_20 ~chi_30)
#
#         PDG            Width
DECAY        37     7.58702933E+00   # H+ decays
#          BR         NDA      ID1       ID2
     6.81765384E-04    2           4        -5   # BR(H+ -> c       bb     )
     7.35260593E-02    2         -15        16   # BR(H+ -> tau+    nu_tau )
     2.59993622E-04    2         -13        14   # BR(H+ -> mu+     nu_mu  )
     4.36327588E-06    2           2        -5   # BR(H+ -> u       bb     )
     1.52558863E-05    2           2        -3   # BR(H+ -> u       sb     )
     3.15489257E-04    2           4        -3   # BR(H+ -> c       sb     )
     6.00708883E-01    2           6        -5   # BR(H+ -> t       bb     )
     7.92433140E-05    2          24        25   # BR(H+ -> W+      h      )
     8.64204048E-14    2          24        36   # BR(H+ -> W+      A      )
     3.23984701E-01    2     1000024   1000022   # BR(H+ -> ~chi_1+ ~chi_10)
     3.57748491E-04    2     1000024   1000023   # BR(H+ -> ~chi_1+ ~chi_20)
     6.64971472E-05    2     1000024   1000025   # BR(H+ -> ~chi_1+ ~chi_30)
