#
#                              ======================
#                              | THE SUSYHIT OUTPUT |
#                              ======================
#
#
#              ------------------------------------------------------
#              |     This is the output of the SUSY-HIT package     |
#              |  created by A.Djouadi, M.Muehlleitner and M.Spira. |
#              |  In case of problems with SUSY-HIT email to        |
#              |           margarete.muehlleitner@cern.ch           |
#              |           michael.spira@psi.ch                     |
#              |           abdelhak.djouadi@cern.ch                 |
#              ------------------------------------------------------
#
#              ------------------------------------------------------
#              |  SUSY Les Houches Accord - MSSM Spectrum + Decays  |
#              |              based on the decay programs           |
#              |                                                    |
#              |                     SDECAY 1.3b                    |
#              |                                                    |
#              |  Authors: M.Muhlleitner, A.Djouadi and Y.Mambrini  |
#              |  Ref.:    Comput.Phys.Commun.168(2005)46           |
#              |           [hep-ph/0311167]                         |
#              |                                                    |
#              |                     HDECAY 3.4                     |
#              |                                                    |
#              |  By: A.Djouadi,J.Kalinowski,M.Muhlleitner,M.Spira  |
#              |  Ref.:    Comput.Phys.Commun.108(1998)56           |
#              |           [hep-ph/9704448]                         |
#              |                                                    |
#              |                                                    |
#              |  If not stated otherwise all DRbar couplings and   |
#              |  soft SUSY breaking masses are given at the scale  |
#              |  Q=  0.50007176E+04
#              |                                                    |
#              ------------------------------------------------------
#
#
BLOCK DCINFO  # Decay Program information
     1   SDECAY/HDECAY # decay calculator
     2   1.3b  /3.4    # version number
#
BLOCK SPINFO  # Spectrum calculator information
     1    SOFTSUSY    # spectrum calculator                
     2    3.4.0       # version number                     
#
BLOCK MODSEL  # Model selection
     1     0   #  nonUniversal                                     
#
BLOCK SMINPUTS  # Standard Model inputs
         1     1.25778332E+02   # alpha_em^-1(M_Z)^MSbar
         2     1.16570000E-05   # G_F [GeV^-2]
         3     1.17200002E-01   # alpha_S(M_Z)^MSbar
         4     9.11876000E+01   # M_Z pole mass
         5     4.25000000E+00   # mb(mb)^MSbar
         6     1.72500000E+02   # mt pole mass
         7     1.77682000E+00   # mtau pole mass
#
BLOCK MINPAR  # Input parameters - minimal models
         3     1.00000000E+01   # tanb                
#
BLOCK EXTPAR  # Input parameters - non-minimal models
         0    -1.00000000E+00   # Set                 
         1     6.00000000E+01   # M_1(MX)             
         2     3.00000000E+03   # M_2(MX)             
         3     1.48350600E+03   # M_3(MX)             
        11     5.00000000E+03   # At(MX)              
        12     5.00000000E+03   # Ab(MX)              
        13     0.00000000E+00   # Atau(MX)            
        23    -1.44670900E+03   # mu(MX)              
        26     3.00000000E+03   # mA(pole)            
        31     5.00000000E+03   # meL(MX)             
        32     5.00000000E+03   # mmuL(MX)            
        33     5.00000000E+03   # mtauL(MX)           
        34     5.00000000E+03   # meR(MX)             
        35     5.00000000E+03   # mmuR(MX)            
        36     5.00000000E+03   # mtauR(MX)           
        41     5.00000000E+03   # mqL1(MX)            
        42     5.00000000E+03   # mqL2(MX)            
        43     5.00000000E+03   # mqL3(MX)            
        44     5.00000000E+03   # muR(MX)             
        45     5.00000000E+03   # mcR(MX)             
        46     5.00000000E+03   # mtR(MX)             
        47     5.00000000E+03   # mdR(MX)             
        48     5.00000000E+03   # msR(MX)             
        49     5.00000000E+03   # mbR(MX)             
#
BLOCK MASS  # Mass Spectrum
# PDG code           mass       particle
        24     8.00961222E+01   # W+
        25     1.24726344E+02   # h
        35     3.00008785E+03   # H
        36     2.99999995E+03   # A
        37     3.00087791E+03   # H+
         5     4.87878001E+00   # b-quark pole mass calculated from mb(mb)_Msbar
   1000001     5.06948384E+03   # ~d_L
   2000001     5.05169692E+03   # ~d_R
   1000002     5.06900934E+03   # ~u_L
   2000002     5.05142154E+03   # ~u_R
   1000003     5.06948384E+03   # ~s_L
   2000003     5.05169692E+03   # ~s_R
   1000004     5.06900934E+03   # ~c_L
   2000004     5.05142154E+03   # ~c_R
   1000005     5.01555335E+03   # ~b_1
   2000005     5.05056245E+03   # ~b_2
   1000006     4.90670840E+03   # ~t_1
   2000006     5.06185556E+03   # ~t_2
   1000011     5.01904976E+03   # ~e_L
   2000011     5.00591078E+03   # ~e_R
   1000012     5.01810167E+03   # ~nu_eL
   1000013     5.01904976E+03   # ~mu_L
   2000013     5.00591078E+03   # ~mu_R
   1000014     5.01810167E+03   # ~nu_muL
   1000015     5.00437066E+03   # ~tau_1
   2000015     5.01900411E+03   # ~tau_2
   1000016     5.01756273E+03   # ~nu_tauL
   1000021     1.80000026E+03   # ~g
   1000022     6.03029489E+01   # ~chi_10
   1000023     1.49944839E+03   # ~chi_20
   1000025    -1.50189661E+03   # ~chi_30
   1000035     3.07433120E+03   # ~chi_40
   1000024     1.50000068E+03   # ~chi_1+
   1000037     3.07449869E+03   # ~chi_2+
#
BLOCK NMIX  # Neutralino Mixing Matrix
  1  1     9.99556236E-01   # N_11
  1  2     1.39903752E-04   # N_12
  1  3    -2.97259199E-02   # N_13
  1  4     1.91849446E-03   # N_14
  2  1     1.96624212E-02   # N_21
  2  2     3.08977891E-02   # N_22
  2  3     7.06897548E-01   # N_23
  2  4     7.06367165E-01   # N_24
  3  1    -2.23722248E-02   # N_31
  3  2     1.32654527E-02   # N_32
  3  3    -7.06580987E-01   # N_33
  3  4     7.07154029E-01   # N_34
  4  1    -4.50844271E-04   # N_41
  4  2     9.99434508E-01   # N_42
  4  3    -1.24713484E-02   # N_43
  4  4    -3.12238272E-02   # N_44
#
BLOCK UMIX  # Chargino Mixing Matrix U
  1  1     1.76465642E-02   # U_11
  1  2     9.99844287E-01   # U_12
  2  1    -9.99844287E-01   # U_21
  2  2     1.76465642E-02   # U_22
#
BLOCK VMIX  # Chargino Mixing Matrix V
  1  1     4.41761648E-02   # V_11
  1  2    -9.99023757E-01   # V_12
  2  1    -9.99023757E-01   # V_21
  2  2    -4.41761648E-02   # V_22
#
BLOCK STOPMIX  # Stop Mixing Matrix
  1  1    -5.11676084E-01   # cos(theta_t)
  1  2     8.59178436E-01   # sin(theta_t)
  2  1    -8.59178436E-01   # -sin(theta_t)
  2  2    -5.11676084E-01   # cos(theta_t)
#
BLOCK SBOTMIX  # Sbottom Mixing Matrix
  1  1     9.94500113E-01   # cos(theta_b)
  1  2    -1.04735501E-01   # sin(theta_b)
  2  1     1.04735501E-01   # -sin(theta_b)
  2  2     9.94500113E-01   # cos(theta_b)
#
BLOCK STAUMIX  # Stau Mixing Matrix
  1  1    -1.68195509E-01   # cos(theta_tau)
  1  2     9.85753656E-01   # sin(theta_tau)
  2  1    -9.85753656E-01   # -sin(theta_tau)
  2  2    -1.68195509E-01   # cos(theta_tau)
#
BLOCK ALPHA  # Higgs mixing
          -1.05458820E-01   # Mixing angle in the neutral Higgs boson sector
#
BLOCK HMIX Q=  5.00071760E+03  # DRbar Higgs Parameters
         1    -1.47313844E+03   # mu(Q)MSSM           
         2     9.47082478E+00   # tan                 
         3     2.41963125E+02   # higgs               
         4     8.39981624E+06   # mA^2(Q)MSSM         
#
BLOCK GAUGE Q=  5.00071760E+03  # The gauge couplings
     1     3.70706523E-01   # gprime(Q) DRbar
     2     6.32104258E-01   # g(Q) DRbar
     3     1.00004094E+00   # g3(Q) DRbar
#
BLOCK AU Q=  5.00071760E+03  # The trilinear couplings
  1  1     5.00000001E+03   # A_u(Q) DRbar
  2  2     5.00000001E+03   # A_c(Q) DRbar
  3  3     5.00000002E+03   # A_t(Q) DRbar
#
BLOCK AD Q=  5.00071760E+03  # The trilinear couplings
  1  1     5.00000000E+03   # A_d(Q) DRbar
  2  2     5.00000000E+03   # A_s(Q) DRbar
  3  3     5.00000001E+03   # A_b(Q) DRbar
#
BLOCK AE Q=  5.00071760E+03  # The trilinear couplings
  1  1     0.00000000E+00   # A_e(Q) DRbar
  2  2     1.45522442E-07   # A_mu(Q) DRbar
  3  3     1.45044216E-07   # A_tau(Q) DRbar
#
BLOCK Yu Q=  5.00071760E+03  # The Yukawa couplings
  1  1     0.00000000E+00   # y_u(Q) DRbar
  2  2     0.00000000E+00   # y_c(Q) DRbar
  3  3     8.18869908E-01   # y_t(Q) DRbar
#
BLOCK Yd Q=  5.00071760E+03  # The Yukawa couplings
  1  1     0.00000000E+00   # y_d(Q) DRbar
  2  2     0.00000000E+00   # y_s(Q) DRbar
  3  3     1.31040411E-01   # y_b(Q) DRbar
#
BLOCK Ye Q=  5.00071760E+03  # The Yukawa couplings
  1  1     0.00000000E+00   # y_e(Q) DRbar
  2  2     0.00000000E+00   # y_mu(Q) DRbar
  3  3     9.66332503E-02   # y_tau(Q) DRbar
#
BLOCK MSOFT Q=  5.00071760E+03  # The soft SUSY breaking masses at the scale Q
         1     6.00000000E+01   # M_1(Q)              
         2     3.00000000E+03   # M_2(Q)              
         3     1.48350600E+03   # M_3(Q)              
        21     6.49971536E+06   # mH1^2(Q)            
        22    -1.62237710E+06   # mH2^2(Q)            
        31     5.00000000E+03   # meL(Q)              
        32     5.00000000E+03   # mmuL(Q)             
        33     5.00000000E+03   # mtauL(Q)            
        34     5.00000000E+03   # meR(Q)              
        35     5.00000000E+03   # mmuR(Q)             
        36     5.00000000E+03   # mtauR(Q)            
        41     5.00000000E+03   # mqL1(Q)             
        42     5.00000000E+03   # mqL2(Q)             
        43     5.00000000E+03   # mqL3(Q)             
        44     5.00000000E+03   # muR(Q)              
        45     5.00000000E+03   # mcR(Q)              
        46     4.99999999E+03   # mtR(Q)              
        47     5.00000000E+03   # mdR(Q)              
        48     5.00000000E+03   # msR(Q)              
        49     5.00000000E+03   # mbR(Q)              
#
#
#
#                             =================
#                             |The decay table|
#                             =================
#
# - The QCD corrections to the decays gluino -> squark  + quark
#                                     squark -> gaugino + quark_prime
#                                     squark -> squark_prime + Higgs
#                                     squark -> gluino  + quark
#   are included.
#
# - The multi-body decays for the inos, stops and sbottoms are included.
#
# - The loop induced decays for the gluino, neutralinos and stops
#   are included.
#
# - The SUSY decays of the top quark are included.
#
#
#         PDG            Width
DECAY         6     1.40013008E+00   # top decays
#          BR         NDA      ID1       ID2
     1.00000000E+00    2           5        24   # BR(t ->  b    W+)
#
#         PDG            Width
DECAY   1000021     1.77850710E-04   # gluino decays
#          BR         NDA      ID1       ID2
     9.30225850E-06    2     1000022        21   # BR(~g -> ~chi_10 g)
     1.94706555E-03    2     1000023        21   # BR(~g -> ~chi_20 g)
     1.91173942E-03    2     1000025        21   # BR(~g -> ~chi_30 g)
#           BR         NDA      ID1       ID2       ID3
     7.63167023E-02    3     1000022         1        -1   # BR(~g -> ~chi_10 d  db)
     6.37880410E-07    3     1000023         1        -1   # BR(~g -> ~chi_20 d  db)
     1.01591764E-07    3     1000025         1        -1   # BR(~g -> ~chi_30 d  db)
     2.60174991E-01    3     1000022         2        -2   # BR(~g -> ~chi_10 u  ub)
     1.16603558E-06    3     1000023         2        -2   # BR(~g -> ~chi_20 u  ub)
     1.01910028E-07    3     1000025         2        -2   # BR(~g -> ~chi_30 u  ub)
     7.63167023E-02    3     1000022         3        -3   # BR(~g -> ~chi_10 s  sb)
     6.37880410E-07    3     1000023         3        -3   # BR(~g -> ~chi_20 s  sb)
     1.01591764E-07    3     1000025         3        -3   # BR(~g -> ~chi_30 s  sb)
     2.60174991E-01    3     1000022         4        -4   # BR(~g -> ~chi_10 c  cb)
     1.16603558E-06    3     1000023         4        -4   # BR(~g -> ~chi_20 c  cb)
     1.01910028E-07    3     1000025         4        -4   # BR(~g -> ~chi_30 c  cb)
     7.72510879E-02    3     1000022         5        -5   # BR(~g -> ~chi_10 b  bb)
     7.26582084E-05    3     1000023         5        -5   # BR(~g -> ~chi_20 b  bb)
     6.85511544E-05    3     1000025         5        -5   # BR(~g -> ~chi_30 b  bb)
     2.44675272E-01    3     1000022         6        -6   # BR(~g -> ~chi_10 t  tb)
     1.62130487E-06    3     1000024         1        -2   # BR(~g -> ~chi_1+ d  ub)
     1.62130487E-06    3    -1000024         2        -1   # BR(~g -> ~chi_1- u  db)
     1.62130487E-06    3     1000024         3        -4   # BR(~g -> ~chi_1+ s  cb)
     1.62130487E-06    3    -1000024         4        -3   # BR(~g -> ~chi_1- c  sb)
     5.35218147E-04    3     1000024         5        -6   # BR(~g -> ~chi_1+ b  tb)
     5.35218147E-04    3    -1000024         6        -5   # BR(~g -> ~chi_1- t  bb)
#
#         PDG            Width
DECAY   1000006     3.47334597E+02   # stop1 decays
#          BR         NDA      ID1       ID2
     2.53290874E-02    2     1000022         6   # BR(~t_1 -> ~chi_10 t )
     7.80815354E-02    2     1000023         6   # BR(~t_1 -> ~chi_20 t )
     7.50275059E-02    2     1000025         6   # BR(~t_1 -> ~chi_30 t )
     6.23584952E-03    2     1000035         6   # BR(~t_1 -> ~chi_40 t )
     1.12444834E-01    2     1000024         5   # BR(~t_1 -> ~chi_1+ b )
     1.24034649E-02    2     1000037         5   # BR(~t_1 -> ~chi_2+ b )
     6.90477723E-01    2     1000021         6   # BR(~t_1 -> ~g      t )
#
#         PDG            Width
DECAY   2000006     3.57132172E+02   # stop2 decays
#          BR         NDA      ID1       ID2
     9.95452530E-03    2     1000022         6   # BR(~t_2 -> ~chi_10 t )
     7.86777811E-02    2     1000023         6   # BR(~t_2 -> ~chi_20 t )
     8.19001640E-02    2     1000025         6   # BR(~t_2 -> ~chi_30 t )
     1.52699638E-02    2     1000035         6   # BR(~t_2 -> ~chi_40 t )
     4.81926064E-02    2     1000024         5   # BR(~t_2 -> ~chi_1+ b )
     3.03215787E-02    2     1000037         5   # BR(~t_2 -> ~chi_2+ b )
     7.32040925E-01    2     1000021         6   # BR(~t_2 -> ~g      t )
     8.05330436E-04    2     1000006        25   # BR(~t_2 -> ~t_1    h )
     2.83712536E-03    2     1000006        23   # BR(~t_2 -> ~t_1    Z )
#
#         PDG            Width
DECAY   1000005     3.33860092E+02   # sbottom1 decays
#          BR         NDA      ID1       ID2
     2.34207245E-03    2     1000022         5   # BR(~b_1 -> ~chi_10 b )
     2.21696359E-03    2     1000023         5   # BR(~b_1 -> ~chi_20 b )
     2.09840447E-03    2     1000025         5   # BR(~b_1 -> ~chi_30 b )
     2.23843922E-02    2     1000035         5   # BR(~b_1 -> ~chi_40 b )
     1.64989968E-01    2    -1000024         6   # BR(~b_1 -> ~chi_1- t )
     4.50587413E-02    2    -1000037         6   # BR(~b_1 -> ~chi_2- t )
     7.59244897E-01    2     1000021         5   # BR(~b_1 -> ~g      b )
     1.66456070E-03    2     1000006       -24   # BR(~b_1 -> ~t_1    W-)
#
#         PDG            Width
DECAY   2000005     2.62754053E+02   # sbottom2 decays
#          BR         NDA      ID1       ID2
     1.11442594E-02    2     1000022         5   # BR(~b_2 -> ~chi_10 b )
     2.70029480E-03    2     1000023         5   # BR(~b_2 -> ~chi_20 b )
     2.81898908E-03    2     1000025         5   # BR(~b_2 -> ~chi_30 b )
     3.33496508E-04    2     1000035         5   # BR(~b_2 -> ~chi_40 b )
     7.73094684E-03    2    -1000024         6   # BR(~b_2 -> ~chi_1- t )
     6.71013517E-04    2    -1000037         6   # BR(~b_2 -> ~chi_2- t )
     9.74502071E-01    2     1000021         5   # BR(~b_2 -> ~g      b )
     9.89291330E-05    2     1000006       -24   # BR(~b_2 -> ~t_1    W-)
#
#         PDG            Width
DECAY   1000002     2.81729189E+02   # sup_L decays
#          BR         NDA      ID1       ID2
     2.64981492E-03    2     1000022         2   # BR(~u_L -> ~chi_10 u)
     6.97727756E-05    2     1000023         2   # BR(~u_L -> ~chi_20 u)
     4.56782770E-06    2     1000025         2   # BR(~u_L -> ~chi_30 u)
     2.77902308E-02    2     1000035         2   # BR(~u_L -> ~chi_40 u)
     2.25596413E-04    2     1000024         1   # BR(~u_L -> ~chi_1+ d)
     5.55375853E-02    2     1000037         1   # BR(~u_L -> ~chi_2+ d)
     9.13722432E-01    2     1000021         2   # BR(~u_L -> ~g      u)
#
#         PDG            Width
DECAY   2000002     2.67907372E+02   # sup_R decays
#          BR         NDA      ID1       ID2
     4.43646334E-02    2     1000022         2   # BR(~u_R -> ~chi_10 u)
     1.43011886E-05    2     1000023         2   # BR(~u_R -> ~chi_20 u)
     1.85030245E-05    2     1000025         2   # BR(~u_R -> ~chi_30 u)
     3.59502911E-09    2     1000035         2   # BR(~u_R -> ~chi_40 u)
     9.55602559E-01    2     1000021         2   # BR(~u_R -> ~g      u)
#
#         PDG            Width
DECAY   1000001     2.81743519E+02   # sdown_L decays
#          BR         NDA      ID1       ID2
     2.64235223E-03    2     1000022         1   # BR(~d_L -> ~chi_10 d)
     4.23141253E-05    2     1000023         1   # BR(~d_L -> ~chi_20 d)
     1.79761151E-05    2     1000025         1   # BR(~d_L -> ~chi_30 d)
     2.78072396E-02    2     1000035         1   # BR(~d_L -> ~chi_40 d)
     3.60006902E-05    2    -1000024         2   # BR(~d_L -> ~chi_1- u)
     5.56432705E-02    2    -1000037         2   # BR(~d_L -> ~chi_2- u)
     9.13810847E-01    2     1000021         1   # BR(~d_L -> ~g      d)
#
#         PDG            Width
DECAY   2000001     2.59008810E+02   # sdown_R decays
#          BR         NDA      ID1       ID2
     1.14728401E-02    2     1000022         1   # BR(~d_R -> ~chi_10 d)
     3.69841118E-06    2     1000023         1   # BR(~d_R -> ~chi_20 d)
     4.78504268E-06    2     1000025         1   # BR(~d_R -> ~chi_30 d)
     9.29804310E-10    2     1000035         1   # BR(~d_R -> ~chi_40 d)
     9.88518676E-01    2     1000021         1   # BR(~d_R -> ~g      d)
#
#         PDG            Width
DECAY   1000004     2.81729189E+02   # scharm_L decays
#          BR         NDA      ID1       ID2
     2.64981492E-03    2     1000022         4   # BR(~c_L -> ~chi_10 c)
     6.97727756E-05    2     1000023         4   # BR(~c_L -> ~chi_20 c)
     4.56782770E-06    2     1000025         4   # BR(~c_L -> ~chi_30 c)
     2.77902308E-02    2     1000035         4   # BR(~c_L -> ~chi_40 c)
     2.25596413E-04    2     1000024         3   # BR(~c_L -> ~chi_1+ s)
     5.55375853E-02    2     1000037         3   # BR(~c_L -> ~chi_2+ s)
     9.13722432E-01    2     1000021         4   # BR(~c_L -> ~g      c)
#
#         PDG            Width
DECAY   2000004     2.67907372E+02   # scharm_R decays
#          BR         NDA      ID1       ID2
     4.43646334E-02    2     1000022         4   # BR(~c_R -> ~chi_10 c)
     1.43011886E-05    2     1000023         4   # BR(~c_R -> ~chi_20 c)
     1.85030245E-05    2     1000025         4   # BR(~c_R -> ~chi_30 c)
     3.59502911E-09    2     1000035         4   # BR(~c_R -> ~chi_40 c)
     9.55602559E-01    2     1000021         4   # BR(~c_R -> ~g      c)
#
#         PDG            Width
DECAY   1000003     2.81743519E+02   # sstrange_L decays
#          BR         NDA      ID1       ID2
     2.64235223E-03    2     1000022         3   # BR(~s_L -> ~chi_10 s)
     4.23141253E-05    2     1000023         3   # BR(~s_L -> ~chi_20 s)
     1.79761151E-05    2     1000025         3   # BR(~s_L -> ~chi_30 s)
     2.78072396E-02    2     1000035         3   # BR(~s_L -> ~chi_40 s)
     3.60006902E-05    2    -1000024         4   # BR(~s_L -> ~chi_1- c)
     5.56432705E-02    2    -1000037         4   # BR(~s_L -> ~chi_2- c)
     9.13810847E-01    2     1000021         3   # BR(~s_L -> ~g      s)
#
#         PDG            Width
DECAY   2000003     2.59008810E+02   # sstrange_R decays
#          BR         NDA      ID1       ID2
     1.14728401E-02    2     1000022         3   # BR(~s_R -> ~chi_10 s)
     3.69841118E-06    2     1000023         3   # BR(~s_R -> ~chi_20 s)
     4.78504268E-06    2     1000025         3   # BR(~s_R -> ~chi_30 s)
     9.29804310E-10    2     1000035         3   # BR(~s_R -> ~chi_40 s)
     9.88518676E-01    2     1000021         3   # BR(~s_R -> ~g      s)
#
#         PDG            Width
DECAY   1000011     3.02382853E+01   # selectron_L decays
#          BR         NDA      ID1       ID2
     2.26736423E-01    2     1000022        11   # BR(~e_L -> ~chi_10 e-)
     9.85066411E-04    2     1000023        11   # BR(~e_L -> ~chi_20 e-)
     1.14883548E-08    2     1000025        11   # BR(~e_L -> ~chi_30 e-)
     2.57103663E-01    2     1000035        11   # BR(~e_L -> ~chi_40 e-)
     3.40741918E-04    2    -1000024        12   # BR(~e_L -> ~chi_1- nu_e)
     5.14834095E-01    2    -1000037        12   # BR(~e_L -> ~chi_2- nu_e)
#
#         PDG            Width
DECAY   2000011     2.73597126E+01   # selectron_R decays
#          BR         NDA      ID1       ID2
     9.99264783E-01    2     1000022        11   # BR(~e_R -> ~chi_10 e-)
     3.20490138E-04    2     1000023        11   # BR(~e_R -> ~chi_20 e-)
     4.14647631E-04    2     1000025        11   # BR(~e_R -> ~chi_30 e-)
     7.88836152E-08    2     1000035        11   # BR(~e_R -> ~chi_40 e-)
#
#         PDG            Width
DECAY   1000013     3.02382853E+01   # smuon_L decays
#          BR         NDA      ID1       ID2
     2.26736423E-01    2     1000022        13   # BR(~mu_L -> ~chi_10 mu-)
     9.85066411E-04    2     1000023        13   # BR(~mu_L -> ~chi_20 mu-)
     1.14883548E-08    2     1000025        13   # BR(~mu_L -> ~chi_30 mu-)
     2.57103663E-01    2     1000035        13   # BR(~mu_L -> ~chi_40 mu-)
     3.40741918E-04    2    -1000024        14   # BR(~mu_L -> ~chi_1- nu_mu)
     5.14834095E-01    2    -1000037        14   # BR(~mu_L -> ~chi_2- nu_mu)
#
#         PDG            Width
DECAY   2000013     2.73597126E+01   # smuon_R decays
#          BR         NDA      ID1       ID2
     9.99264783E-01    2     1000022        13   # BR(~mu_R -> ~chi_10 mu-)
     3.20490138E-04    2     1000023        13   # BR(~mu_R -> ~chi_20 mu-)
     4.14647631E-04    2     1000025        13   # BR(~mu_R -> ~chi_30 mu-)
     7.88836152E-08    2     1000035        13   # BR(~mu_R -> ~chi_40 mu-)
#
#         PDG            Width
DECAY   1000015     2.89718628E+01   # stau_1 decays
#          BR         NDA      ID1       ID2
     9.24241289E-01    2     1000022        15   # BR(~tau_1 -> ~chi_10  tau-)
     1.41664024E-02    2     1000023        15   # BR(~tau_1 -> ~chi_20  tau-)
     1.28852509E-02    2     1000025        15   # BR(~tau_1 -> ~chi_30  tau-)
     7.27996169E-03    2     1000035        15   # BR(~tau_1 -> ~chi_40  tau-)
     2.68493793E-02    2    -1000024        16   # BR(~tau_1 -> ~chi_1-  nu_tau)
     1.45777172E-02    2    -1000037        16   # BR(~tau_1 -> ~chi_2-  nu_tau)
#
#         PDG            Width
DECAY   2000015     3.09255010E+01   # stau_2 decays
#          BR         NDA      ID1       ID2
     2.39721541E-01    2     1000022        15   # BR(~tau_2 -> ~chi_10  tau-)
     1.29160693E-02    2     1000023        15   # BR(~tau_2 -> ~chi_20  tau-)
     1.32034772E-02    2     1000025        15   # BR(~tau_2 -> ~chi_30  tau-)
     2.44496862E-01    2     1000035        15   # BR(~tau_2 -> ~chi_40  tau-)
     7.39502343E-05    2    -1000024        16   # BR(~tau_2 -> ~chi_1-  nu_tau)
     4.89588100E-01    2    -1000037        16   # BR(~tau_2 -> ~chi_2-  nu_tau)
#
#         PDG            Width
DECAY   1000012     3.02403257E+01   # snu_eL decays
#          BR         NDA      ID1       ID2
     2.26461979E-01    2     1000022        12   # BR(~nu_eL -> ~chi_10 nu_e)
     2.05161544E-04    2     1000023        12   # BR(~nu_eL -> ~chi_20 nu_e)
     3.80594018E-04    2     1000025        12   # BR(~nu_eL -> ~chi_30 nu_e)
     2.57193127E-01    2     1000035        12   # BR(~nu_eL -> ~chi_40 nu_e)
     2.13470427E-03    2     1000024        11   # BR(~nu_eL -> ~chi_1+ e-)
     5.13624435E-01    2     1000037        11   # BR(~nu_eL -> ~chi_2+ e-)
#
#         PDG            Width
DECAY   1000014     3.02403257E+01   # snu_muL decays
#          BR         NDA      ID1       ID2
     2.26461979E-01    2     1000022        14   # BR(~nu_muL -> ~chi_10 nu_mu)
     2.05161544E-04    2     1000023        14   # BR(~nu_muL -> ~chi_20 nu_mu)
     3.80594018E-04    2     1000025        14   # BR(~nu_muL -> ~chi_30 nu_mu)
     2.57193127E-01    2     1000035        14   # BR(~nu_muL -> ~chi_40 nu_mu)
     2.13470427E-03    2     1000024        13   # BR(~nu_muL -> ~chi_1+ mu-)
     5.13624435E-01    2     1000037        13   # BR(~nu_muL -> ~chi_2+ mu-)
#
#         PDG            Width
DECAY   1000016     3.10039277E+01   # snu_tauL decays
#          BR         NDA      ID1       ID2
     2.20860664E-01    2     1000022        16   # BR(~nu_tauL -> ~chi_10 nu_tau)
     2.00078659E-04    2     1000023        16   # BR(~nu_tauL -> ~chi_20 nu_tau)
     3.71164730E-04    2     1000025        16   # BR(~nu_tauL -> ~chi_30 nu_tau)
     2.50766969E-01    2     1000035        16   # BR(~nu_tauL -> ~chi_40 nu_tau)
     2.70085403E-02    2     1000024        15   # BR(~nu_tauL -> ~chi_1+ tau-)
     5.00792583E-01    2     1000037        15   # BR(~nu_tauL -> ~chi_2+ tau-)
#
#         PDG            Width
DECAY   1000024     9.22724197E-01   # chargino1+ decays
#          BR         NDA      ID1       ID2
     1.00000000E+00    2     1000022        24   # BR(~chi_1+ -> ~chi_10  W+)
#
#         PDG            Width
DECAY   1000037     1.84008514E+01   # chargino2+ decays
#          BR         NDA      ID1       ID2
     2.52704779E-01    2     1000024        23   # BR(~chi_2+ -> ~chi_1+  Z )
     2.61225020E-04    2     1000022        24   # BR(~chi_2+ -> ~chi_10  W+)
     2.44019334E-01    2     1000023        24   # BR(~chi_2+ -> ~chi_20  W+)
     2.43679731E-01    2     1000025        24   # BR(~chi_2+ -> ~chi_30  W+)
     2.59334568E-01    2     1000024        25   # BR(~chi_2+ -> ~chi_1+  h )
     3.63792062E-07    2     1000022        37   # BR(~chi_2+ -> ~chi_10  H+)
#
#         PDG            Width
DECAY   1000022     0.00000000E+00   # neutralino1 decays
#
#         PDG            Width
DECAY   1000023     9.69670654E-01   # neutralino2 decays
#          BR         NDA      ID1       ID2
     5.56485969E-01    2     1000022        23   # BR(~chi_20 -> ~chi_10   Z )
     4.43514031E-01    2     1000022        25   # BR(~chi_20 -> ~chi_10   h )
#
#         PDG            Width
DECAY   1000025     9.79250796E-01   # neutralino3 decays
#          BR         NDA      ID1       ID2
     4.26455246E-01    2     1000022        23   # BR(~chi_30 -> ~chi_10   Z )
     5.73544754E-01    2     1000022        25   # BR(~chi_30 -> ~chi_10   h )
#
#         PDG            Width
DECAY   1000035     1.84011882E+01   # neutralino4 decays
#          BR         NDA      ID1       ID2
     9.39513900E-05    2     1000022        23   # BR(~chi_40 -> ~chi_10   Z )
     3.95263911E-02    2     1000023        23   # BR(~chi_40 -> ~chi_20   Z )
     2.12645869E-01    2     1000025        23   # BR(~chi_40 -> ~chi_30   Z )
     2.44324817E-01    2     1000024       -24   # BR(~chi_40 -> ~chi_1+   W-)
     2.44324817E-01    2    -1000024        24   # BR(~chi_40 -> ~chi_1-   W+)
     1.73543417E-04    2     1000022        25   # BR(~chi_40 -> ~chi_10   h )
     3.27833999E-07    2     1000022        35   # BR(~chi_40 -> ~chi_10   H )
     4.93065679E-08    2     1000022        36   # BR(~chi_40 -> ~chi_10   A )
     2.19421000E-01    2     1000023        25   # BR(~chi_40 -> ~chi_20   h )
     3.94892330E-02    2     1000025        25   # BR(~chi_40 -> ~chi_30   h )
#
#         PDG            Width
DECAY        25     4.04306462E-03   # h decays
#          BR         NDA      ID1       ID2
     6.08158801E-01    2           5        -5   # BR(h -> b       bb     )
     6.41228948E-02    2         -15        15   # BR(h -> tau+    tau-   )
     2.27018570E-04    2         -13        13   # BR(h -> mu+     mu-    )
     4.81301828E-04    2           3        -3   # BR(h -> s       sb     )
     2.08573806E-02    2           4        -4   # BR(h -> c       cb     )
     6.74136559E-02    2          21        21   # BR(h -> g       g      )
     2.31693843E-03    2          22        22   # BR(h -> gam     gam    )
     1.48989338E-03    2          22        23   # BR(h -> Z       gam    )
     2.09903404E-01    2          24       -24   # BR(h -> W+      W-     )
     2.49964462E-02    2          23        23   # BR(h -> Z       Z      )
     3.22652074E-05    2     1000022   1000022   # BR(h -> ~chi_10 ~chi_10)
#
#         PDG            Width
DECAY        35     7.26649556E+00   # H decays
#          BR         NDA      ID1       ID2
     4.49142493E-01    2           5        -5   # BR(H -> b       bb     )
     7.66846551E-02    2         -15        15   # BR(H -> tau+    tau-   )
     2.71163032E-04    2         -13        13   # BR(H -> mu+     mu-    )
     3.32404251E-04    2           3        -3   # BR(H -> s       sb     )
     1.85844178E-06    2           4        -4   # BR(H -> c       cb     )
     1.85673061E-01    2           6        -6   # BR(H -> t       tb     )
     6.16334469E-05    2          21        21   # BR(H -> g       g      )
     3.88383120E-07    2          22        22   # BR(H -> gam     gam    )
     1.09641551E-07    2          23        22   # BR(H -> Z       gam    )
     8.27803244E-05    2          24       -24   # BR(H -> W+      W-     )
     4.13377770E-05    2          23        23   # BR(H -> Z       Z      )
     3.13261717E-04    2          25        25   # BR(H -> h       h      )
     1.03988802E-23    2          36        36   # BR(H -> A       A      )
     1.01883281E-18    2          23        36   # BR(H -> Z       A      )
     3.18824567E-09    2     1000024  -1000024   # BR(H -> ~chi_1+ ~chi_1-)
     8.83529712E-04    2     1000022   1000022   # BR(H -> ~chi_10 ~chi_10)
     1.91585756E-08    2     1000023   1000023   # BR(H -> ~chi_20 ~chi_20)
     1.70263689E-01    2     1000022   1000023   # BR(H -> ~chi_10 ~chi_20)
     1.16247613E-01    2     1000022   1000025   # BR(H -> ~chi_10 ~chi_30)
#
#         PDG            Width
DECAY        36     7.26917442E+00   # A decays
#          BR         NDA      ID1       ID2
     4.49126702E-01    2           5        -5   # BR(A -> b       bb     )
     7.66584898E-02    2         -15        15   # BR(A -> tau+    tau-   )
     2.71070130E-04    2         -13        13   # BR(A -> mu+     mu-    )
     3.32533241E-04    2           3        -3   # BR(A -> s       sb     )
     1.86551367E-06    2           4        -4   # BR(A -> c       cb     )
     1.86276757E-01    2           6        -6   # BR(A -> t       tb     )
     1.84354010E-04    2          21        21   # BR(A -> g       g      )
     2.67912481E-07    2          22        22   # BR(A -> gam     gam    )
     2.23312346E-07    2          23        22   # BR(A -> Z       gam    )
     8.24368957E-05    2          23        25   # BR(A -> Z       h      )
     9.09134074E-04    2     1000022   1000022   # BR(A -> ~chi_10 ~chi_10)
     1.51932574E-05    2     1000023   1000023   # BR(A -> ~chi_20 ~chi_20)
     1.17589335E-01    2     1000022   1000023   # BR(A -> ~chi_10 ~chi_20)
     1.68551638E-01    2     1000022   1000025   # BR(A -> ~chi_10 ~chi_30)
#
#         PDG            Width
DECAY        37     7.26752690E+00   # H+ decays
#          BR         NDA      ID1       ID2
     7.22165491E-04    2           4        -5   # BR(H+ -> c       bb     )
     7.66983075E-02    2         -15        16   # BR(H+ -> tau+    nu_tau )
     2.71210928E-04    2         -13        14   # BR(H+ -> mu+     nu_mu  )
     4.62183549E-06    2           2        -5   # BR(H+ -> u       bb     )
     1.59140891E-05    2           2        -3   # BR(H+ -> u       sb     )
     3.29103599E-04    2           4        -3   # BR(H+ -> c       sb     )
     6.33769997E-01    2           6        -5   # BR(H+ -> t       bb     )
     8.25809471E-05    2          24        25   # BR(H+ -> W+      h      )
     9.43334663E-14    2          24        36   # BR(H+ -> W+      A      )
     2.88090531E-01    2     1000024   1000022   # BR(H+ -> ~chi_1+ ~chi_10)
     1.55678816E-05    2     1000024   1000023   # BR(H+ -> ~chi_1+ ~chi_20)
