#
#                              ======================
#                              | THE SUSYHIT OUTPUT |
#                              ======================
#
#
#              ------------------------------------------------------
#              |     This is the output of the SUSY-HIT package     |
#              |  created by A.Djouadi, M.Muehlleitner and M.Spira. |
#              |  In case of problems with SUSY-HIT email to        |
#              |           margarete.muehlleitner@cern.ch           |
#              |           michael.spira@psi.ch                     |
#              |           abdelhak.djouadi@cern.ch                 |
#              ------------------------------------------------------
#
#              ------------------------------------------------------
#              |  SUSY Les Houches Accord - MSSM Spectrum + Decays  |
#              |              based on the decay programs           |
#              |                                                    |
#              |                     SDECAY 1.3b                    |
#              |                                                    |
#              |  Authors: M.Muhlleitner, A.Djouadi and Y.Mambrini  |
#              |  Ref.:    Comput.Phys.Commun.168(2005)46           |
#              |           [hep-ph/0311167]                         |
#              |                                                    |
#              |                     HDECAY 3.4                     |
#              |                                                    |
#              |  By: A.Djouadi,J.Kalinowski,M.Muhlleitner,M.Spira  |
#              |  Ref.:    Comput.Phys.Commun.108(1998)56           |
#              |           [hep-ph/9704448]                         |
#              |                                                    |
#              |                                                    |
#              |  If not stated otherwise all DRbar couplings and   |
#              |  soft SUSY breaking masses are given at the scale  |
#              |  Q=  0.50007229E+04
#              |                                                    |
#              ------------------------------------------------------
#
#
BLOCK DCINFO  # Decay Program information
     1   SDECAY/HDECAY # decay calculator
     2   1.3b  /3.4    # version number
#
BLOCK SPINFO  # Spectrum calculator information
     1    SOFTSUSY    # spectrum calculator                
     2    3.4.0       # version number                     
#
BLOCK MODSEL  # Model selection
     1     0   #  nonUniversal                                     
#
BLOCK SMINPUTS  # Standard Model inputs
         1     1.25778332E+02   # alpha_em^-1(M_Z)^MSbar
         2     1.16570000E-05   # G_F [GeV^-2]
         3     1.17200002E-01   # alpha_S(M_Z)^MSbar
         4     9.11876000E+01   # M_Z pole mass
         5     4.25000000E+00   # mb(mb)^MSbar
         6     1.72500000E+02   # mt pole mass
         7     1.77682000E+00   # mtau pole mass
#
BLOCK MINPAR  # Input parameters - minimal models
         3     1.00000000E+01   # tanb                
#
BLOCK EXTPAR  # Input parameters - non-minimal models
         0    -1.00000000E+00   # Set                 
         1     6.00000000E+01   # M_1(MX)             
         2     3.00000000E+03   # M_2(MX)             
         3     2.52554200E+03   # M_3(MX)             
        11     5.00000000E+03   # At(MX)              
        12     5.00000000E+03   # Ab(MX)              
        13     0.00000000E+00   # Atau(MX)            
        23    -1.44649800E+03   # mu(MX)              
        26     3.00000000E+03   # mA(pole)            
        31     5.00000000E+03   # meL(MX)             
        32     5.00000000E+03   # mmuL(MX)            
        33     5.00000000E+03   # mtauL(MX)           
        34     5.00000000E+03   # meR(MX)             
        35     5.00000000E+03   # mmuR(MX)            
        36     5.00000000E+03   # mtauR(MX)           
        41     5.00000000E+03   # mqL1(MX)            
        42     5.00000000E+03   # mqL2(MX)            
        43     5.00000000E+03   # mqL3(MX)            
        44     5.00000000E+03   # muR(MX)             
        45     5.00000000E+03   # mcR(MX)             
        46     5.00000000E+03   # mtR(MX)             
        47     5.00000000E+03   # mdR(MX)             
        48     5.00000000E+03   # msR(MX)             
        49     5.00000000E+03   # mbR(MX)             
#
BLOCK MASS  # Mass Spectrum
# PDG code           mass       particle
        24     8.00968475E+01   # W+
        25     1.24824472E+02   # h
        35     3.00008809E+03   # H
        36     2.99999993E+03   # A
        37     3.00087726E+03   # H+
         5     4.87878001E+00   # b-quark pole mass calculated from mb(mb)_Msbar
   1000001     5.08863553E+03   # ~d_L
   2000001     5.07092157E+03   # ~d_R
   1000002     5.08816699E+03   # ~u_L
   2000002     5.07064827E+03   # ~u_R
   1000003     5.08863553E+03   # ~s_L
   2000003     5.07092157E+03   # ~s_R
   1000004     5.08816699E+03   # ~c_L
   2000004     5.07064827E+03   # ~c_R
   1000005     5.03463447E+03   # ~b_1
   2000005     5.06971713E+03   # ~b_2
   1000006     4.92764056E+03   # ~t_1
   2000006     5.07912490E+03   # ~t_2
   1000011     5.01904545E+03   # ~e_L
   2000011     5.00591048E+03   # ~e_R
   1000012     5.01809761E+03   # ~nu_eL
   1000013     5.01904545E+03   # ~mu_L
   2000013     5.00591048E+03   # ~mu_R
   1000014     5.01809761E+03   # ~nu_muL
   1000015     5.00437054E+03   # ~tau_1
   2000015     5.01899992E+03   # ~tau_2
   1000016     5.01755877E+03   # ~nu_tauL
   1000021     2.90000073E+03   # ~g
   1000022     6.03031088E+01   # ~chi_10
   1000023     1.49944897E+03   # ~chi_20
   1000025    -1.50189571E+03   # ~chi_30
   1000035     3.07431808E+03   # ~chi_40
   1000024     1.50000046E+03   # ~chi_1+
   1000037     3.07448553E+03   # ~chi_2+
#
BLOCK NMIX  # Neutralino Mixing Matrix
  1  1     9.99556244E-01   # N_11
  1  2     1.39925295E-04   # N_12
  1  3    -2.97256484E-02   # N_13
  1  4     1.91889462E-03   # N_14
  2  1     1.96619415E-02   # N_21
  2  2     3.08953582E-02   # N_22
  2  3     7.06897418E-01   # N_23
  2  4     7.06367415E-01   # N_24
  3  1    -2.23723205E-02   # N_31
  3  2     1.32646715E-02   # N_32
  3  3    -7.06581149E-01   # N_33
  3  4     7.07153878E-01   # N_34
  4  1    -4.50819343E-04   # N_41
  4  2     9.99434593E-01   # N_42
  4  3    -1.24701734E-02   # N_43
  4  4    -3.12215596E-02   # N_44
#
BLOCK UMIX  # Chargino Mixing Matrix U
  1  1     1.76448892E-02   # U_11
  1  2     9.99844317E-01   # U_12
  2  1    -9.99844317E-01   # U_21
  2  2     1.76448892E-02   # U_22
#
BLOCK VMIX  # Chargino Mixing Matrix V
  1  1     4.41729856E-02   # V_11
  1  2    -9.99023897E-01   # V_12
  2  1    -9.99023897E-01   # V_21
  2  2    -4.41729856E-02   # V_22
#
BLOCK STOPMIX  # Stop Mixing Matrix
  1  1    -5.07469738E-01   # cos(theta_t)
  1  2     8.61669580E-01   # sin(theta_t)
  2  1    -8.61669580E-01   # -sin(theta_t)
  2  2    -5.07469738E-01   # cos(theta_t)
#
BLOCK SBOTMIX  # Sbottom Mixing Matrix
  1  1     9.94553900E-01   # cos(theta_b)
  1  2    -1.04223510E-01   # sin(theta_b)
  2  1     1.04223510E-01   # -sin(theta_b)
  2  2     9.94553900E-01   # cos(theta_b)
#
BLOCK STAUMIX  # Stau Mixing Matrix
  1  1    -1.68226181E-01   # cos(theta_tau)
  1  2     9.85748422E-01   # sin(theta_tau)
  2  1    -9.85748422E-01   # -sin(theta_tau)
  2  2    -1.68226181E-01   # cos(theta_tau)
#
BLOCK ALPHA  # Higgs mixing
          -1.05473087E-01   # Mixing angle in the neutral Higgs boson sector
#
BLOCK HMIX Q=  5.00072290E+03  # DRbar Higgs Parameters
         1    -1.47317424E+03   # mu(Q)MSSM           
         2     9.46959573E+00   # tan                 
         3     2.41962531E+02   # higgs               
         4     8.40426432E+06   # mA^2(Q)MSSM         
#
BLOCK GAUGE Q=  5.00072290E+03  # The gauge couplings
     1     3.70684427E-01   # gprime(Q) DRbar
     2     6.32033907E-01   # g(Q) DRbar
     3     9.92986745E-01   # g3(Q) DRbar
#
BLOCK AU Q=  5.00072290E+03  # The trilinear couplings
  1  1     5.00000002E+03   # A_u(Q) DRbar
  2  2     5.00000002E+03   # A_c(Q) DRbar
  3  3     5.00000003E+03   # A_t(Q) DRbar
#
BLOCK AD Q=  5.00072290E+03  # The trilinear couplings
  1  1     5.00000001E+03   # A_d(Q) DRbar
  2  2     5.00000001E+03   # A_s(Q) DRbar
  3  3     5.00000001E+03   # A_b(Q) DRbar
#
BLOCK AE Q=  5.00072290E+03  # The trilinear couplings
  1  1     0.00000000E+00   # A_e(Q) DRbar
  2  2     3.13191147E-07   # A_mu(Q) DRbar
  3  3     3.13363652E-07   # A_tau(Q) DRbar
#
BLOCK Yu Q=  5.00072290E+03  # The Yukawa couplings
  1  1     0.00000000E+00   # y_u(Q) DRbar
  2  2     0.00000000E+00   # y_c(Q) DRbar
  3  3     8.21241328E-01   # y_t(Q) DRbar
#
BLOCK Yd Q=  5.00072290E+03  # The Yukawa couplings
  1  1     0.00000000E+00   # y_d(Q) DRbar
  2  2     0.00000000E+00   # y_s(Q) DRbar
  3  3     1.31956271E-01   # y_b(Q) DRbar
#
BLOCK Ye Q=  5.00072290E+03  # The Yukawa couplings
  1  1     0.00000000E+00   # y_e(Q) DRbar
  2  2     0.00000000E+00   # y_mu(Q) DRbar
  3  3     9.66214079E-02   # y_tau(Q) DRbar
#
BLOCK MSOFT Q=  5.00072290E+03  # The soft SUSY breaking masses at the scale Q
         1     6.00000000E+01   # M_1(Q)              
         2     3.00000000E+03   # M_2(Q)              
         3     2.52554200E+03   # M_3(Q)              
        21     6.50014935E+06   # mH1^2(Q)            
        22    -1.61845431E+06   # mH2^2(Q)            
        31     5.00000000E+03   # meL(Q)              
        32     5.00000000E+03   # mmuL(Q)             
        33     5.00000000E+03   # mtauL(Q)            
        34     5.00000000E+03   # meR(Q)              
        35     5.00000000E+03   # mmuR(Q)             
        36     5.00000000E+03   # mtauR(Q)            
        41     4.99999999E+03   # mqL1(Q)             
        42     4.99999999E+03   # mqL2(Q)             
        43     4.99999999E+03   # mqL3(Q)             
        44     4.99999999E+03   # muR(Q)              
        45     4.99999999E+03   # mcR(Q)              
        46     4.99999999E+03   # mtR(Q)              
        47     4.99999999E+03   # mdR(Q)              
        48     4.99999999E+03   # msR(Q)              
        49     4.99999999E+03   # mbR(Q)              
#
#
#
#                             =================
#                             |The decay table|
#                             =================
#
# - The QCD corrections to the decays gluino -> squark  + quark
#                                     squark -> gaugino + quark_prime
#                                     squark -> squark_prime + Higgs
#                                     squark -> gluino  + quark
#   are included.
#
# - The multi-body decays for the inos, stops and sbottoms are included.
#
# - The loop induced decays for the gluino, neutralinos and stops
#   are included.
#
# - The SUSY decays of the top quark are included.
#
#
#         PDG            Width
DECAY         6     1.39978679E+00   # top decays
#          BR         NDA      ID1       ID2
     1.00000000E+00    2           5        24   # BR(t ->  b    W+)
#
#         PDG            Width
DECAY   1000021     5.11284773E-03   # gluino decays
#          BR         NDA      ID1       ID2
     2.80073190E-06    2     1000022        21   # BR(~g -> ~chi_10 g)
     4.62011670E-03    2     1000023        21   # BR(~g -> ~chi_20 g)
     4.61094817E-03    2     1000025        21   # BR(~g -> ~chi_30 g)
#           BR         NDA      ID1       ID2       ID3
     3.32370668E-02    3     1000022         1        -1   # BR(~g -> ~chi_10 d  db)
     3.09103789E-05    3     1000023         1        -1   # BR(~g -> ~chi_20 d  db)
     5.85465957E-06    3     1000025         1        -1   # BR(~g -> ~chi_30 d  db)
     1.13335921E-01    3     1000022         2        -2   # BR(~g -> ~chi_10 u  ub)
     5.65181443E-05    3     1000023         2        -2   # BR(~g -> ~chi_20 u  ub)
     5.88078279E-06    3     1000025         2        -2   # BR(~g -> ~chi_30 u  ub)
     3.32370668E-02    3     1000022         3        -3   # BR(~g -> ~chi_10 s  sb)
     3.09103789E-05    3     1000023         3        -3   # BR(~g -> ~chi_20 s  sb)
     5.85465957E-06    3     1000025         3        -3   # BR(~g -> ~chi_30 s  sb)
     1.13335921E-01    3     1000022         4        -4   # BR(~g -> ~chi_10 c  cb)
     5.65181443E-05    3     1000023         4        -4   # BR(~g -> ~chi_20 c  cb)
     5.88078279E-06    3     1000025         4        -4   # BR(~g -> ~chi_30 c  cb)
     3.36739605E-02    3     1000022         5        -5   # BR(~g -> ~chi_10 b  bb)
     3.70212301E-03    3     1000023         5        -5   # BR(~g -> ~chi_20 b  bb)
     3.63808592E-03    3     1000025         5        -5   # BR(~g -> ~chi_30 b  bb)
     1.18236709E-01    3     1000022         6        -6   # BR(~g -> ~chi_10 t  tb)
     1.35020881E-01    3     1000023         6        -6   # BR(~g -> ~chi_20 t  tb)
     1.21917197E-01    3     1000025         6        -6   # BR(~g -> ~chi_30 t  tb)
     7.98269028E-05    3     1000024         1        -2   # BR(~g -> ~chi_1+ d  ub)
     7.98269028E-05    3    -1000024         2        -1   # BR(~g -> ~chi_1- u  db)
     7.98269028E-05    3     1000024         3        -4   # BR(~g -> ~chi_1+ s  cb)
     7.98269028E-05    3    -1000024         4        -3   # BR(~g -> ~chi_1- c  sb)
     1.40456784E-01    3     1000024         5        -6   # BR(~g -> ~chi_1+ b  tb)
     1.40456784E-01    3    -1000024         6        -5   # BR(~g -> ~chi_1- t  bb)
#
#         PDG            Width
DECAY   1000006     2.43124095E+02   # stop1 decays
#          BR         NDA      ID1       ID2
     3.64977531E-02    2     1000022         6   # BR(~t_1 -> ~chi_10 t )
     1.11404892E-01    2     1000023         6   # BR(~t_1 -> ~chi_20 t )
     1.07145049E-01    2     1000025         6   # BR(~t_1 -> ~chi_30 t )
     8.70440324E-03    2     1000035         6   # BR(~t_1 -> ~chi_40 t )
     1.62754240E-01    2     1000024         5   # BR(~t_1 -> ~chi_1+ b )
     1.73139438E-02    2     1000037         5   # BR(~t_1 -> ~chi_2+ b )
     5.56179718E-01    2     1000021         6   # BR(~t_1 -> ~g      t )
#
#         PDG            Width
DECAY   2000006     2.56778803E+02   # stop2 decays
#          BR         NDA      ID1       ID2
     1.33661421E-02    2     1000022         6   # BR(~t_2 -> ~chi_10 t )
     1.09456017E-01    2     1000023         6   # BR(~t_2 -> ~chi_20 t )
     1.13857651E-01    2     1000025         6   # BR(~t_2 -> ~chi_30 t )
     2.17820838E-02    2     1000035         6   # BR(~t_2 -> ~chi_40 t )
     6.48937828E-02    2     1000024         5   # BR(~t_2 -> ~chi_1+ b )
     4.32542811E-02    2     1000037         5   # BR(~t_2 -> ~chi_2+ b )
     6.28646454E-01    2     1000021         6   # BR(~t_2 -> ~g      t )
     1.05296116E-03    2     1000006        25   # BR(~t_2 -> ~t_1    h )
     3.69062661E-03    2     1000006        23   # BR(~t_2 -> ~t_1    Z )
#
#         PDG            Width
DECAY   1000005     2.32087218E+02   # sbottom1 decays
#          BR         NDA      ID1       ID2
     3.35180777E-03    2     1000022         5   # BR(~b_1 -> ~chi_10 b )
     3.21224654E-03    2     1000023         5   # BR(~b_1 -> ~chi_20 b )
     3.04388788E-03    2     1000025         5   # BR(~b_1 -> ~chi_30 b )
     3.25782256E-02    2     1000035         5   # BR(~b_1 -> ~chi_40 b )
     2.37368878E-01    2    -1000024         6   # BR(~b_1 -> ~chi_1- t )
     6.55776154E-02    2    -1000037         6   # BR(~b_1 -> ~chi_2- t )
     6.52612978E-01    2     1000021         5   # BR(~b_1 -> ~g      b )
     2.25436090E-03    2     1000006       -24   # BR(~b_1 -> ~t_1    W-)
#
#         PDG            Width
DECAY   2000005     1.61146389E+02   # sbottom2 decays
#          BR         NDA      ID1       ID2
     1.81157034E-02    2     1000022         5   # BR(~b_2 -> ~chi_10 b )
     4.44000341E-03    2     1000023         5   # BR(~b_2 -> ~chi_20 b )
     4.63014530E-03    2     1000025         5   # BR(~b_2 -> ~chi_30 b )
     5.29060629E-04    2     1000035         5   # BR(~b_2 -> ~chi_40 b )
     1.25334764E-02    2    -1000024         6   # BR(~b_2 -> ~chi_1- t )
     1.06450983E-03    2    -1000037         6   # BR(~b_2 -> ~chi_2- t )
     9.58527603E-01    2     1000021         5   # BR(~b_2 -> ~g      b )
     1.59497686E-04    2     1000006       -24   # BR(~b_2 -> ~t_1    W-)
#
#         PDG            Width
DECAY   1000002     1.80579433E+02   # sup_L decays
#          BR         NDA      ID1       ID2
     4.11989960E-03    2     1000022         2   # BR(~u_L -> ~chi_10 u)
     1.08891277E-04    2     1000023         2   # BR(~u_L -> ~chi_20 u)
     7.12818744E-06    2     1000025         2   # BR(~u_L -> ~chi_30 u)
     4.38315557E-02    2     1000035         2   # BR(~u_L -> ~chi_40 u)
     3.52075628E-04    2     1000024         1   # BR(~u_L -> ~chi_1+ d)
     8.75956604E-02    2     1000037         1   # BR(~u_L -> ~chi_2+ d)
     8.63984789E-01    2     1000021         2   # BR(~u_L -> ~g      u)
#
#         PDG            Width
DECAY   2000002     1.66300155E+02   # sup_R decays
#          BR         NDA      ID1       ID2
     7.12238149E-02    2     1000022         2   # BR(~u_R -> ~chi_10 u)
     2.30512561E-05    2     1000023         2   # BR(~u_R -> ~chi_20 u)
     2.98259663E-05    2     1000025         2   # BR(~u_R -> ~chi_30 u)
     5.85595600E-09    2     1000035         2   # BR(~u_R -> ~chi_40 u)
     9.28723302E-01    2     1000021         2   # BR(~u_R -> ~g      u)
#
#         PDG            Width
DECAY   1000001     1.80597978E+02   # sdown_L decays
#          BR         NDA      ID1       ID2
     4.10808201E-03    2     1000022         1   # BR(~d_L -> ~chi_10 d)
     6.60307245E-05    2     1000023         1   # BR(~d_L -> ~chi_20 d)
     2.80553647E-05    2     1000025         1   # BR(~d_L -> ~chi_30 d)
     4.38557899E-02    2     1000035         1   # BR(~d_L -> ~chi_40 d)
     5.61786797E-05    2    -1000024         2   # BR(~d_L -> ~chi_1- u)
     8.77571436E-02    2    -1000037         2   # BR(~d_L -> ~chi_2- u)
     8.64128720E-01    2     1000021         1   # BR(~d_L -> ~g      d)
#
#         PDG            Width
DECAY   2000001     1.57434835E+02   # sdown_R decays
#          BR         NDA      ID1       ID2
     1.88096648E-02    2     1000022         1   # BR(~d_R -> ~chi_10 d)
     6.08778284E-06    2     1000023         1   # BR(~d_R -> ~chi_20 d)
     7.87696853E-06    2     1000025         1   # BR(~d_R -> ~chi_30 d)
     1.54670385E-09    2     1000035         1   # BR(~d_R -> ~chi_40 d)
     9.81176369E-01    2     1000021         1   # BR(~d_R -> ~g      d)
#
#         PDG            Width
DECAY   1000004     1.80579433E+02   # scharm_L decays
#          BR         NDA      ID1       ID2
     4.11989960E-03    2     1000022         4   # BR(~c_L -> ~chi_10 c)
     1.08891277E-04    2     1000023         4   # BR(~c_L -> ~chi_20 c)
     7.12818744E-06    2     1000025         4   # BR(~c_L -> ~chi_30 c)
     4.38315557E-02    2     1000035         4   # BR(~c_L -> ~chi_40 c)
     3.52075628E-04    2     1000024         3   # BR(~c_L -> ~chi_1+ s)
     8.75956604E-02    2     1000037         3   # BR(~c_L -> ~chi_2+ s)
     8.63984789E-01    2     1000021         4   # BR(~c_L -> ~g      c)
#
#         PDG            Width
DECAY   2000004     1.66300155E+02   # scharm_R decays
#          BR         NDA      ID1       ID2
     7.12238149E-02    2     1000022         4   # BR(~c_R -> ~chi_10 c)
     2.30512561E-05    2     1000023         4   # BR(~c_R -> ~chi_20 c)
     2.98259663E-05    2     1000025         4   # BR(~c_R -> ~chi_30 c)
     5.85595600E-09    2     1000035         4   # BR(~c_R -> ~chi_40 c)
     9.28723302E-01    2     1000021         4   # BR(~c_R -> ~g      c)
#
#         PDG            Width
DECAY   1000003     1.80597978E+02   # sstrange_L decays
#          BR         NDA      ID1       ID2
     4.10808201E-03    2     1000022         3   # BR(~s_L -> ~chi_10 s)
     6.60307245E-05    2     1000023         3   # BR(~s_L -> ~chi_20 s)
     2.80553647E-05    2     1000025         3   # BR(~s_L -> ~chi_30 s)
     4.38557899E-02    2     1000035         3   # BR(~s_L -> ~chi_40 s)
     5.61786797E-05    2    -1000024         4   # BR(~s_L -> ~chi_1- c)
     8.77571436E-02    2    -1000037         4   # BR(~s_L -> ~chi_2- c)
     8.64128720E-01    2     1000021         3   # BR(~s_L -> ~g      s)
#
#         PDG            Width
DECAY   2000003     1.57434835E+02   # sstrange_R decays
#          BR         NDA      ID1       ID2
     1.88096648E-02    2     1000022         3   # BR(~s_R -> ~chi_10 s)
     6.08778284E-06    2     1000023         3   # BR(~s_R -> ~chi_20 s)
     7.87696853E-06    2     1000025         3   # BR(~s_R -> ~chi_30 s)
     1.54670385E-09    2     1000035         3   # BR(~s_R -> ~chi_40 s)
     9.81176369E-01    2     1000021         3   # BR(~s_R -> ~g      s)
#
#         PDG            Width
DECAY   1000011     3.02324269E+01   # selectron_L decays
#          BR         NDA      ID1       ID2
     2.26753145E-01    2     1000022        11   # BR(~e_L -> ~chi_10 e-)
     9.84938415E-04    2     1000023        11   # BR(~e_L -> ~chi_20 e-)
     1.12490168E-08    2     1000025        11   # BR(~e_L -> ~chi_30 e-)
     2.57098175E-01    2     1000035        11   # BR(~e_L -> ~chi_40 e-)
     3.40667020E-04    2    -1000024        12   # BR(~e_L -> ~chi_1- nu_e)
     5.14823064E-01    2    -1000037        12   # BR(~e_L -> ~chi_2- nu_e)
#
#         PDG            Width
DECAY   2000011     2.73564496E+01   # selectron_R decays
#          BR         NDA      ID1       ID2
     9.99264795E-01    2     1000022        11   # BR(~e_R -> ~chi_10 e-)
     3.20474443E-04    2     1000023        11   # BR(~e_R -> ~chi_20 e-)
     4.14651266E-04    2     1000025        11   # BR(~e_R -> ~chi_30 e-)
     7.88756959E-08    2     1000035        11   # BR(~e_R -> ~chi_40 e-)
#
#         PDG            Width
DECAY   1000013     3.02324269E+01   # smuon_L decays
#          BR         NDA      ID1       ID2
     2.26753145E-01    2     1000022        13   # BR(~mu_L -> ~chi_10 mu-)
     9.84938415E-04    2     1000023        13   # BR(~mu_L -> ~chi_20 mu-)
     1.12490168E-08    2     1000025        13   # BR(~mu_L -> ~chi_30 mu-)
     2.57098175E-01    2     1000035        13   # BR(~mu_L -> ~chi_40 mu-)
     3.40667020E-04    2    -1000024        14   # BR(~mu_L -> ~chi_1- nu_mu)
     5.14823064E-01    2    -1000037        14   # BR(~mu_L -> ~chi_2- nu_mu)
#
#         PDG            Width
DECAY   2000013     2.73564496E+01   # smuon_R decays
#          BR         NDA      ID1       ID2
     9.99264795E-01    2     1000022        13   # BR(~mu_R -> ~chi_10 mu-)
     3.20474443E-04    2     1000023        13   # BR(~mu_R -> ~chi_20 mu-)
     4.14651266E-04    2     1000025        13   # BR(~mu_R -> ~chi_30 mu-)
     7.88756959E-08    2     1000035        13   # BR(~mu_R -> ~chi_40 mu-)
#
#         PDG            Width
DECAY   1000015     2.89681751E+01   # stau_1 decays
#          BR         NDA      ID1       ID2
     9.24241532E-01    2     1000022        15   # BR(~tau_1 -> ~chi_10  tau-)
     1.41647797E-02    2     1000023        15   # BR(~tau_1 -> ~chi_20  tau-)
     1.28836466E-02    2     1000025        15   # BR(~tau_1 -> ~chi_30  tau-)
     7.28206758E-03    2     1000035        15   # BR(~tau_1 -> ~chi_40  tau-)
     2.68460410E-02    2    -1000024        16   # BR(~tau_1 -> ~chi_1-  nu_tau)
     1.45819333E-02    2    -1000037        16   # BR(~tau_1 -> ~chi_2-  nu_tau)
#
#         PDG            Width
DECAY   2000015     3.09195046E+01   # stau_2 decays
#          BR         NDA      ID1       ID2
     2.39746035E-01    2     1000022        15   # BR(~tau_2 -> ~chi_10  tau-)
     1.29152832E-02    2     1000023        15   # BR(~tau_2 -> ~chi_20  tau-)
     1.32029333E-02    2     1000025        15   # BR(~tau_2 -> ~chi_30  tau-)
     2.44489124E-01    2     1000035        15   # BR(~tau_2 -> ~chi_40  tau-)
     7.40573531E-05    2    -1000024        16   # BR(~tau_2 -> ~chi_1-  nu_tau)
     4.89572567E-01    2    -1000037        16   # BR(~tau_2 -> ~chi_2-  nu_tau)
#
#         PDG            Width
DECAY   1000012     3.02344668E+01   # snu_eL decays
#          BR         NDA      ID1       ID2
     2.26478671E-01    2     1000022        12   # BR(~nu_eL -> ~chi_10 nu_e)
     2.05097197E-04    2     1000023        12   # BR(~nu_eL -> ~chi_20 nu_e)
     3.80581353E-04    2     1000025        12   # BR(~nu_eL -> ~chi_30 nu_e)
     2.57187682E-01    2     1000035        12   # BR(~nu_eL -> ~chi_40 nu_e)
     2.13433318E-03    2     1000024        11   # BR(~nu_eL -> ~chi_1+ e-)
     5.13613635E-01    2     1000037        11   # BR(~nu_eL -> ~chi_2+ e-)
#
#         PDG            Width
DECAY   1000014     3.02344668E+01   # snu_muL decays
#          BR         NDA      ID1       ID2
     2.26478671E-01    2     1000022        14   # BR(~nu_muL -> ~chi_10 nu_mu)
     2.05097197E-04    2     1000023        14   # BR(~nu_muL -> ~chi_20 nu_mu)
     3.80581353E-04    2     1000025        14   # BR(~nu_muL -> ~chi_30 nu_mu)
     2.57187682E-01    2     1000035        14   # BR(~nu_muL -> ~chi_40 nu_mu)
     2.13433318E-03    2     1000024        13   # BR(~nu_muL -> ~chi_1+ mu-)
     5.13613635E-01    2     1000037        13   # BR(~nu_muL -> ~chi_2+ mu-)
#
#         PDG            Width
DECAY   1000016     3.09978823E+01   # snu_tauL decays
#          BR         NDA      ID1       ID2
     2.20877223E-01    2     1000022        16   # BR(~nu_tauL -> ~chi_10 nu_tau)
     2.00016160E-04    2     1000023        16   # BR(~nu_tauL -> ~chi_20 nu_tau)
     3.71152850E-04    2     1000025        16   # BR(~nu_tauL -> ~chi_30 nu_tau)
     2.50761990E-01    2     1000035        16   # BR(~nu_tauL -> ~chi_40 nu_tau)
     2.70069074E-02    2     1000024        15   # BR(~nu_tauL -> ~chi_1+ tau-)
     5.00782711E-01    2     1000037        15   # BR(~nu_tauL -> ~chi_2+ tau-)
#
#         PDG            Width
DECAY   1000024     9.22486562E-01   # chargino1+ decays
#          BR         NDA      ID1       ID2
     1.00000000E+00    2     1000022        24   # BR(~chi_1+ -> ~chi_10  W+)
#
#         PDG            Width
DECAY   1000037     1.83941912E+01   # chargino2+ decays
#          BR         NDA      ID1       ID2
     2.52703582E-01    2     1000024        23   # BR(~chi_2+ -> ~chi_1+  Z )
     2.61238407E-04    2     1000022        24   # BR(~chi_2+ -> ~chi_10  W+)
     2.44006888E-01    2     1000023        24   # BR(~chi_2+ -> ~chi_20  W+)
     2.43667513E-01    2     1000025        24   # BR(~chi_2+ -> ~chi_30  W+)
     2.59360415E-01    2     1000024        25   # BR(~chi_2+ -> ~chi_1+  h )
     3.63576118E-07    2     1000022        37   # BR(~chi_2+ -> ~chi_10  H+)
#
#         PDG            Width
DECAY   1000022     0.00000000E+00   # neutralino1 decays
#
#         PDG            Width
DECAY   1000023     9.69494697E-01   # neutralino2 decays
#          BR         NDA      ID1       ID2
     5.56482788E-01    2     1000022        23   # BR(~chi_20 -> ~chi_10   Z )
     4.43517212E-01    2     1000022        25   # BR(~chi_20 -> ~chi_10   h )
#
#         PDG            Width
DECAY   1000025     9.79080574E-01   # neutralino3 decays
#          BR         NDA      ID1       ID2
     4.26424564E-01    2     1000022        23   # BR(~chi_30 -> ~chi_10   Z )
     5.73575436E-01    2     1000022        25   # BR(~chi_30 -> ~chi_10   h )
#
#         PDG            Width
DECAY   1000035     1.83945468E+01   # neutralino4 decays
#          BR         NDA      ID1       ID2
     9.39525077E-05    2     1000022        23   # BR(~chi_40 -> ~chi_10   Z )
     3.95275111E-02    2     1000023        23   # BR(~chi_40 -> ~chi_20   Z )
     2.12643173E-01    2     1000025        23   # BR(~chi_40 -> ~chi_30   Z )
     2.44312719E-01    2     1000024       -24   # BR(~chi_40 -> ~chi_1+   W-)
     2.44312719E-01    2    -1000024        24   # BR(~chi_40 -> ~chi_1-   W+)
     1.73570621E-04    2     1000022        25   # BR(~chi_40 -> ~chi_10   h )
     3.27665809E-07    2     1000022        35   # BR(~chi_40 -> ~chi_10   H )
     4.92426846E-08    2     1000022        36   # BR(~chi_40 -> ~chi_10   A )
     2.19441525E-01    2     1000023        25   # BR(~chi_40 -> ~chi_20   h )
     3.94944533E-02    2     1000025        25   # BR(~chi_40 -> ~chi_30   h )
#
#         PDG            Width
DECAY        25     4.03844978E-03   # h decays
#          BR         NDA      ID1       ID2
     6.04922719E-01    2           5        -5   # BR(h -> b       bb     )
     6.42476243E-02    2         -15        15   # BR(h -> tau+    tau-   )
     2.27459724E-04    2         -13        13   # BR(h -> mu+     mu-    )
     4.82163155E-04    2           3        -3   # BR(h -> s       sb     )
     2.08944306E-02    2           4        -4   # BR(h -> c       cb     )
     6.76476271E-02    2          21        21   # BR(h -> g       g      )
     2.32722604E-03    2          22        22   # BR(h -> gam     gam    )
     1.50489110E-03    2          22        23   # BR(h -> Z       gam    )
     2.12376854E-01    2          24       -24   # BR(h -> W+      W-     )
     2.53355702E-02    2          23        23   # BR(h -> Z       Z      )
     3.34349611E-05    2     1000022   1000022   # BR(h -> ~chi_10 ~chi_10)
#
#         PDG            Width
DECAY        35     7.27728153E+00   # H decays
#          BR         NDA      ID1       ID2
     4.49945572E-01    2           5        -5   # BR(H -> b       bb     )
     7.65511192E-02    2         -15        15   # BR(H -> tau+    tau-   )
     2.70690838E-04    2         -13        13   # BR(H -> mu+     mu-    )
     3.31825386E-04    2           3        -3   # BR(H -> s       sb     )
     1.85619301E-06    2           4        -4   # BR(H -> c       cb     )
     1.85448392E-01    2           6        -6   # BR(H -> t       tb     )
     6.15724229E-05    2          21        21   # BR(H -> g       g      )
     3.88007018E-07    2          22        22   # BR(H -> gam     gam    )
     1.09541851E-07    2          23        22   # BR(H -> Z       gam    )
     8.31102111E-05    2          24       -24   # BR(H -> W+      W-     )
     4.15025148E-05    2          23        23   # BR(H -> Z       Z      )
     3.12711242E-04    2          25        25   # BR(H -> h       h      )
    -1.61405439E-23    2          36        36   # BR(H -> A       A      )
     1.39293176E-18    2          23        36   # BR(H -> Z       A      )
     3.22075218E-09    2     1000024  -1000024   # BR(H -> ~chi_1+ ~chi_1-)
     8.82143150E-04    2     1000022   1000022   # BR(H -> ~chi_10 ~chi_10)
     1.91055015E-08    2     1000023   1000023   # BR(H -> ~chi_20 ~chi_20)
     1.70004691E-01    2     1000022   1000023   # BR(H -> ~chi_10 ~chi_20)
     1.16064295E-01    2     1000022   1000025   # BR(H -> ~chi_10 ~chi_30)
#
#         PDG            Width
DECAY        36     7.27994113E+00   # A decays
#          BR         NDA      ID1       ID2
     4.49930420E-01    2           5        -5   # BR(A -> b       bb     )
     7.65252492E-02    2         -15        15   # BR(A -> tau+    tau-   )
     2.70598981E-04    2         -13        13   # BR(A -> mu+     mu-    )
     3.31955301E-04    2           3        -3   # BR(A -> s       sb     )
     1.86323821E-06    2           4        -4   # BR(A -> c       cb     )
     1.86049546E-01    2           6        -6   # BR(A -> t       tb     )
     1.84109275E-04    2          21        21   # BR(A -> g       g      )
     2.67575450E-07    2          22        22   # BR(A -> gam     gam    )
     2.23061420E-07    2          23        22   # BR(A -> Z       gam    )
     8.27649842E-05    2          23        25   # BR(A -> Z       h      )
     9.07718991E-04    2     1000022   1000022   # BR(A -> ~chi_10 ~chi_10)
     1.51598113E-05    2     1000023   1000023   # BR(A -> ~chi_20 ~chi_20)
     1.17404177E-01    2     1000022   1000023   # BR(A -> ~chi_10 ~chi_20)
     1.68295947E-01    2     1000022   1000025   # BR(A -> ~chi_10 ~chi_30)
#
#         PDG            Width
DECAY        37     7.30122319E+00   # H+ decays
#          BR         NDA      ID1       ID2
     7.26200008E-04    2           4        -5   # BR(H+ -> c       bb     )
     7.63245027E-02    2         -15        16   # BR(H+ -> tau+    nu_tau )
     2.69889127E-04    2         -13        14   # BR(H+ -> mu+     nu_mu  )
     4.64765644E-06    2           2        -5   # BR(H+ -> u       bb     )
     1.58365290E-05    2           2        -3   # BR(H+ -> u       sb     )
     3.27500580E-04    2           4        -3   # BR(H+ -> c       sb     )
     6.35490179E-01    2           6        -5   # BR(H+ -> t       bb     )
     8.26491479E-05    2          24        25   # BR(H+ -> W+      h      )
     9.35614800E-14    2          24        36   # BR(H+ -> W+      A      )
     2.86743106E-01    2     1000024   1000022   # BR(H+ -> ~chi_1+ ~chi_10)
     1.54889819E-05    2     1000024   1000023   # BR(H+ -> ~chi_1+ ~chi_20)
