#
#                              ======================
#                              | THE SUSYHIT OUTPUT |
#                              ======================
#
#
#              ------------------------------------------------------
#              |     This is the output of the SUSY-HIT package     |
#              |  created by A.Djouadi, M.Muehlleitner and M.Spira. |
#              |  In case of problems with SUSY-HIT email to        |
#              |           margarete.muehlleitner@cern.ch           |
#              |           michael.spira@psi.ch                     |
#              |           abdelhak.djouadi@cern.ch                 |
#              ------------------------------------------------------
#
#              ------------------------------------------------------
#              |  SUSY Les Houches Accord - MSSM Spectrum + Decays  |
#              |              based on the decay programs           |
#              |                                                    |
#              |                     SDECAY 1.3b                    |
#              |                                                    |
#              |  Authors: M.Muhlleitner, A.Djouadi and Y.Mambrini  |
#              |  Ref.:    Comput.Phys.Commun.168(2005)46           |
#              |           [hep-ph/0311167]                         |
#              |                                                    |
#              |                     HDECAY 3.4                     |
#              |                                                    |
#              |  By: A.Djouadi,J.Kalinowski,M.Muhlleitner,M.Spira  |
#              |  Ref.:    Comput.Phys.Commun.108(1998)56           |
#              |           [hep-ph/9704448]                         |
#              |                                                    |
#              |                                                    |
#              |  If not stated otherwise all DRbar couplings and   |
#              |  soft SUSY breaking masses are given at the scale  |
#              |  Q=  0.50007284E+04
#              |                                                    |
#              ------------------------------------------------------
#
#
BLOCK DCINFO  # Decay Program information
     1   SDECAY/HDECAY # decay calculator
     2   1.3b  /3.4    # version number
#
BLOCK SPINFO  # Spectrum calculator information
     1    SOFTSUSY    # spectrum calculator                
     2    3.4.0       # version number                     
#
BLOCK MODSEL  # Model selection
     1     0   #  nonUniversal                                     
#
BLOCK SMINPUTS  # Standard Model inputs
         1     1.25778332E+02   # alpha_em^-1(M_Z)^MSbar
         2     1.16570000E-05   # G_F [GeV^-2]
         3     1.17200002E-01   # alpha_S(M_Z)^MSbar
         4     9.11876000E+01   # M_Z pole mass
         5     4.25000000E+00   # mb(mb)^MSbar
         6     1.72500000E+02   # mt pole mass
         7     1.77682000E+00   # mtau pole mass
#
BLOCK MINPAR  # Input parameters - minimal models
         3     1.00000000E+01   # tanb                
#
BLOCK EXTPAR  # Input parameters - non-minimal models
         0    -1.00000000E+00   # Set                 
         1     6.00000000E+01   # M_1(MX)             
         2     3.00000000E+03   # M_2(MX)             
         3     1.03377400E+03   # M_3(MX)             
        11     5.00000000E+03   # At(MX)              
        12     5.00000000E+03   # Ab(MX)              
        13     0.00000000E+00   # Atau(MX)            
        23    -1.05657100E+03   # mu(MX)              
        26     3.00000000E+03   # mA(pole)            
        31     5.00000000E+03   # meL(MX)             
        32     5.00000000E+03   # mmuL(MX)            
        33     5.00000000E+03   # mtauL(MX)           
        34     5.00000000E+03   # meR(MX)             
        35     5.00000000E+03   # mmuR(MX)            
        36     5.00000000E+03   # mtauR(MX)           
        41     5.00000000E+03   # mqL1(MX)            
        42     5.00000000E+03   # mqL2(MX)            
        43     5.00000000E+03   # mqL3(MX)            
        44     5.00000000E+03   # muR(MX)             
        45     5.00000000E+03   # mcR(MX)             
        46     5.00000000E+03   # mtR(MX)             
        47     5.00000000E+03   # mdR(MX)             
        48     5.00000000E+03   # msR(MX)             
        49     5.00000000E+03   # mbR(MX)             
#
BLOCK MASS  # Mass Spectrum
# PDG code           mass       particle
        24     8.00938729E+01   # W+
        25     1.24520901E+02   # h
        35     3.00008367E+03   # H
        36     2.99999660E+03   # A
        37     3.00099535E+03   # H+
         5     4.87878001E+00   # b-quark pole mass calculated from mb(mb)_Msbar
   1000001     5.06526179E+03   # ~d_L
   2000001     5.04743960E+03   # ~d_R
   1000002     5.06478555E+03   # ~u_L
   2000002     5.04715572E+03   # ~u_R
   1000003     5.06526179E+03   # ~s_L
   2000003     5.04743960E+03   # ~s_R
   1000004     5.06478555E+03   # ~c_L
   2000004     5.04715572E+03   # ~c_R
   1000005     5.01137631E+03   # ~b_1
   2000005     5.04606267E+03   # ~b_2
   1000006     4.90189006E+03   # ~t_1
   2000006     5.05731105E+03   # ~t_2
   1000011     5.01906780E+03   # ~e_L
   2000011     5.00592121E+03   # ~e_R
   1000012     5.01811897E+03   # ~nu_eL
   1000013     5.01906780E+03   # ~mu_L
   2000013     5.00592121E+03   # ~mu_R
   1000014     5.01811897E+03   # ~nu_muL
   1000015     5.00456991E+03   # ~tau_1
   2000015     5.01880740E+03   # ~tau_2
   1000016     5.01757401E+03   # ~nu_tauL
   1000021     1.30000010E+03   # ~g
   1000022     6.03008020E+01   # ~chi_10
   1000023     1.09958991E+03   # ~chi_20
   1000025    -1.10186573E+03   # ~chi_30
   1000035     3.07427733E+03   # ~chi_40
   1000024     1.10000088E+03   # ~chi_1+
   1000037     3.07444483E+03   # ~chi_2+
#
BLOCK NMIX  # Neutralino Mixing Matrix
  1  1     9.99178224E-01   # N_11
  1  2     1.73937010E-04   # N_12
  1  3    -4.04823189E-02   # N_13
  1  4     2.00702392E-03   # N_14
  2  1     2.72124626E-02   # N_21
  2  2     2.46741541E-02   # N_22
  2  3     7.06785150E-01   # N_23
  2  4     7.06473935E-01   # N_24
  3  1    -3.00365065E-02   # N_31
  3  2     1.45527800E-02   # N_32
  3  3    -7.06232754E-01   # N_33
  3  4     7.07192563E-01   # N_34
  4  1    -4.08291458E-04   # N_41
  4  2     9.99589602E-01   # N_42
  4  3    -7.15757189E-03   # N_43
  4  4    -2.77349960E-02   # N_44
#
BLOCK UMIX  # Chargino Mixing Matrix U
  1  1     1.01369033E-02   # U_11
  1  2     9.99948620E-01   # U_12
  2  1    -9.99948620E-01   # U_21
  2  2     1.01369033E-02   # U_22
#
BLOCK VMIX  # Chargino Mixing Matrix V
  1  1     3.92528427E-02   # V_11
  1  2    -9.99229310E-01   # V_12
  2  1    -9.99229310E-01   # V_21
  2  2    -3.92528427E-02   # V_22
#
BLOCK STOPMIX  # Stop Mixing Matrix
  1  1    -5.10030898E-01   # cos(theta_t)
  1  2     8.60156081E-01   # sin(theta_t)
  2  1    -8.60156081E-01   # -sin(theta_t)
  2  2    -5.10030898E-01   # cos(theta_t)
#
BLOCK SBOTMIX  # Sbottom Mixing Matrix
  1  1     9.96602729E-01   # cos(theta_b)
  1  2    -8.23589737E-02   # sin(theta_b)
  2  1     8.23589737E-02   # -sin(theta_b)
  2  2     9.96602729E-01   # cos(theta_b)
#
BLOCK STAUMIX  # Stau Mixing Matrix
  1  1    -1.25037984E-01   # cos(theta_tau)
  1  2     9.92151955E-01   # sin(theta_tau)
  2  1    -9.92151955E-01   # -sin(theta_tau)
  2  2    -1.25037984E-01   # cos(theta_tau)
#
BLOCK ALPHA  # Higgs mixing
          -1.05443662E-01   # Mixing angle in the neutral Higgs boson sector
#
BLOCK HMIX Q=  5.00072844E+03  # DRbar Higgs Parameters
         1    -1.07560419E+03   # mu(Q)MSSM           
         2     9.47243663E+00   # tan                 
         3     2.41912273E+02   # higgs               
         4     8.48503267E+06   # mA^2(Q)MSSM         
#
BLOCK GAUGE Q=  5.00072844E+03  # The gauge couplings
     1     3.70788491E-01   # gprime(Q) DRbar
     2     6.32479761E-01   # g(Q) DRbar
     3     1.00479751E+00   # g3(Q) DRbar
#
BLOCK AU Q=  5.00072844E+03  # The trilinear couplings
  1  1     5.00000001E+03   # A_u(Q) DRbar
  2  2     5.00000001E+03   # A_c(Q) DRbar
  3  3     5.00000001E+03   # A_t(Q) DRbar
#
BLOCK AD Q=  5.00072844E+03  # The trilinear couplings
  1  1     5.00000000E+03   # A_d(Q) DRbar
  2  2     5.00000000E+03   # A_s(Q) DRbar
  3  3     5.00000001E+03   # A_b(Q) DRbar
#
BLOCK AE Q=  5.00072844E+03  # The trilinear couplings
  1  1     0.00000000E+00   # A_e(Q) DRbar
  2  2     6.56059267E-08   # A_mu(Q) DRbar
  3  3     6.48200737E-08   # A_tau(Q) DRbar
#
BLOCK Yu Q=  5.00072844E+03  # The Yukawa couplings
  1  1     0.00000000E+00   # y_u(Q) DRbar
  2  2     0.00000000E+00   # y_c(Q) DRbar
  3  3     8.16483523E-01   # y_t(Q) DRbar
#
BLOCK Yd Q=  5.00072844E+03  # The Yukawa couplings
  1  1     0.00000000E+00   # y_d(Q) DRbar
  2  2     0.00000000E+00   # y_s(Q) DRbar
  3  3     1.29934655E-01   # y_b(Q) DRbar
#
BLOCK Ye Q=  5.00072844E+03  # The Yukawa couplings
  1  1     0.00000000E+00   # y_e(Q) DRbar
  2  2     0.00000000E+00   # y_mu(Q) DRbar
  3  3     9.68158319E-02   # y_tau(Q) DRbar
#
BLOCK MSOFT Q=  5.00072844E+03  # The soft SUSY breaking masses at the scale Q
         1     6.00000000E+01   # M_1(Q)              
         2     3.00000000E+03   # M_2(Q)              
         3     1.03377400E+03   # M_3(Q)              
        21     7.53366426E+06   # mH1^2(Q)            
        22    -5.98616991E+05   # mH2^2(Q)            
        31     5.00000000E+03   # meL(Q)              
        32     5.00000000E+03   # mmuL(Q)             
        33     5.00000000E+03   # mtauL(Q)            
        34     5.00000000E+03   # meR(Q)              
        35     5.00000000E+03   # mmuR(Q)             
        36     5.00000000E+03   # mtauR(Q)            
        41     5.00000000E+03   # mqL1(Q)             
        42     5.00000000E+03   # mqL2(Q)             
        43     5.00000000E+03   # mqL3(Q)             
        44     5.00000000E+03   # muR(Q)              
        45     5.00000000E+03   # mcR(Q)              
        46     5.00000000E+03   # mtR(Q)              
        47     5.00000000E+03   # mdR(Q)              
        48     5.00000000E+03   # msR(Q)              
        49     5.00000000E+03   # mbR(Q)              
#
#
#
#                             =================
#                             |The decay table|
#                             =================
#
# - The QCD corrections to the decays gluino -> squark  + quark
#                                     squark -> gaugino + quark_prime
#                                     squark -> squark_prime + Higgs
#                                     squark -> gluino  + quark
#   are included.
#
# - The multi-body decays for the inos, stops and sbottoms are included.
#
# - The loop induced decays for the gluino, neutralinos and stops
#   are included.
#
# - The SUSY decays of the top quark are included.
#
#
#         PDG            Width
DECAY         6     1.40189237E+00   # top decays
#          BR         NDA      ID1       ID2
     1.00000000E+00    2           5        24   # BR(t ->  b    W+)
#
#         PDG            Width
DECAY   1000021     3.29519057E-05   # gluino decays
#          BR         NDA      ID1       ID2
     1.39795978E-05    2     1000022        21   # BR(~g -> ~chi_10 g)
     2.96890408E-03    2     1000023        21   # BR(~g -> ~chi_20 g)
     2.85433316E-03    2     1000025        21   # BR(~g -> ~chi_30 g)
#           BR         NDA      ID1       ID2       ID3
     7.89285136E-02    3     1000022         1        -1   # BR(~g -> ~chi_10 d  db)
     2.60784173E-07    3     1000023         1        -1   # BR(~g -> ~chi_20 d  db)
     9.45108859E-08    3     1000025         1        -1   # BR(~g -> ~chi_30 d  db)
     2.69090316E-01    3     1000022         2        -2   # BR(~g -> ~chi_10 u  ub)
     7.24165122E-07    3     1000023         2        -2   # BR(~g -> ~chi_20 u  ub)
     1.07770558E-07    3     1000025         2        -2   # BR(~g -> ~chi_30 u  ub)
     7.89285136E-02    3     1000022         3        -3   # BR(~g -> ~chi_10 s  sb)
     2.60784173E-07    3     1000023         3        -3   # BR(~g -> ~chi_20 s  sb)
     9.45108859E-08    3     1000025         3        -3   # BR(~g -> ~chi_30 s  sb)
     2.69090316E-01    3     1000022         4        -4   # BR(~g -> ~chi_10 c  cb)
     7.24165122E-07    3     1000023         4        -4   # BR(~g -> ~chi_20 c  cb)
     1.07770558E-07    3     1000025         4        -4   # BR(~g -> ~chi_30 c  cb)
     8.00050580E-02    3     1000022         5        -5   # BR(~g -> ~chi_10 b  bb)
     4.67171324E-05    3     1000023         5        -5   # BR(~g -> ~chi_20 b  bb)
     4.34229207E-05    3     1000025         5        -5   # BR(~g -> ~chi_30 b  bb)
     2.18007305E-01    3     1000022         6        -6   # BR(~g -> ~chi_10 t  tb)
     7.18977792E-07    3     1000024         1        -2   # BR(~g -> ~chi_1+ d  ub)
     7.18977792E-07    3    -1000024         2        -1   # BR(~g -> ~chi_1- u  db)
     7.18977792E-07    3     1000024         3        -4   # BR(~g -> ~chi_1+ s  cb)
     7.18977792E-07    3    -1000024         4        -3   # BR(~g -> ~chi_1- c  sb)
     8.68533431E-06    3     1000024         5        -6   # BR(~g -> ~chi_1+ b  tb)
     8.68533431E-06    3    -1000024         6        -5   # BR(~g -> ~chi_1- t  bb)
#
#         PDG            Width
DECAY   1000006     3.94774212E+02   # stop1 decays
#          BR         NDA      ID1       ID2
     2.22940761E-02    2     1000022         6   # BR(~t_1 -> ~chi_10 t )
     7.52950458E-02    2     1000023         6   # BR(~t_1 -> ~chi_20 t )
     7.23547062E-02    2     1000025         6   # BR(~t_1 -> ~chi_30 t )
     5.36509658E-03    2     1000035         6   # BR(~t_1 -> ~chi_40 t )
     1.08630851E-01    2     1000024         5   # BR(~t_1 -> ~chi_1+ b )
     1.06864563E-02    2     1000037         5   # BR(~t_1 -> ~chi_2+ b )
     7.05373768E-01    2     1000021         6   # BR(~t_1 -> ~g      t )
#
#         PDG            Width
DECAY   2000006     3.98436899E+02   # stop2 decays
#          BR         NDA      ID1       ID2
     8.93604514E-03    2     1000022         6   # BR(~t_2 -> ~chi_10 t )
     7.65023634E-02    2     1000023         6   # BR(~t_2 -> ~chi_20 t )
     7.96825319E-02    2     1000025         6   # BR(~t_2 -> ~chi_30 t )
     1.37350995E-02    2     1000035         6   # BR(~t_2 -> ~chi_40 t )
     4.64455381E-02    2     1000024         5   # BR(~t_2 -> ~chi_1+ b )
     2.73197025E-02    2     1000037         5   # BR(~t_2 -> ~chi_2+ b )
     7.44117300E-01    2     1000021         6   # BR(~t_2 -> ~g      t )
     7.28835812E-04    2     1000006        25   # BR(~t_2 -> ~t_1    h )
     2.53258328E-03    2     1000006        23   # BR(~t_2 -> ~t_1    Z )
#
#         PDG            Width
DECAY   1000005     3.75858587E+02   # sbottom1 decays
#          BR         NDA      ID1       ID2
     2.06466369E-03    2     1000022         5   # BR(~b_1 -> ~chi_10 b )
     2.07861971E-03    2     1000023         5   # BR(~b_1 -> ~chi_20 b )
     2.01185814E-03    2     1000025         5   # BR(~b_1 -> ~chi_30 b )
     1.99342905E-02    2     1000035         5   # BR(~b_1 -> ~chi_40 b )
     1.60308352E-01    2    -1000024         6   # BR(~b_1 -> ~chi_1- t )
     4.00626220E-02    2    -1000037         6   # BR(~b_1 -> ~chi_2- t )
     7.72024666E-01    2     1000021         5   # BR(~b_1 -> ~g      b )
     1.51492770E-03    2     1000006       -24   # BR(~b_1 -> ~t_1    W-)
#
#         PDG            Width
DECAY   2000005     2.99132757E+02   # sbottom2 decays
#          BR         NDA      ID1       ID2
     9.82465776E-03    2     1000022         5   # BR(~b_2 -> ~chi_10 b )
     2.58323516E-03    2     1000023         5   # BR(~b_2 -> ~chi_20 b )
     2.66155937E-03    2     1000025         5   # BR(~b_2 -> ~chi_30 b )
     1.78061009E-04    2     1000035         5   # BR(~b_2 -> ~chi_40 b )
     6.52082193E-03    2    -1000024         6   # BR(~b_2 -> ~chi_1- t )
     3.57784846E-04    2    -1000037         6   # BR(~b_2 -> ~chi_2- t )
     9.77820587E-01    2     1000021         5   # BR(~b_2 -> ~g      b )
     5.32924476E-05    2     1000006       -24   # BR(~b_2 -> ~t_1    W-)
#
#         PDG            Width
DECAY   1000002     3.18046022E+02   # sup_L decays
#          BR         NDA      ID1       ID2
     2.34966366E-03    2     1000022         2   # BR(~u_L -> ~chi_10 u)
     5.02850730E-05    2     1000023         2   # BR(~u_L -> ~chi_20 u)
     4.21319920E-06    2     1000025         2   # BR(~u_L -> ~chi_30 u)
     2.45732810E-02    2     1000035         2   # BR(~u_L -> ~chi_40 u)
     1.72254940E-04    2     1000024         1   # BR(~u_L -> ~chi_1+ d)
     4.91127705E-02    2     1000037         1   # BR(~u_L -> ~chi_2+ d)
     9.23737532E-01    2     1000021         2   # BR(~u_L -> ~g      u)
#
#         PDG            Width
DECAY   2000002     3.04391028E+02   # sup_R decays
#          BR         NDA      ID1       ID2
     3.90740639E-02    2     1000022         2   # BR(~u_R -> ~chi_10 u)
     2.63174065E-05    2     1000023         2   # BR(~u_R -> ~chi_20 u)
     3.20499027E-05    2     1000025         2   # BR(~u_R -> ~chi_30 u)
     2.58749155E-09    2     1000035         2   # BR(~u_R -> ~chi_40 u)
     9.60867566E-01    2     1000021         2   # BR(~u_R -> ~g      u)
#
#         PDG            Width
DECAY   1000001     3.18056778E+02   # sdown_L decays
#          BR         NDA      ID1       ID2
     2.34144807E-03    2     1000022         1   # BR(~d_L -> ~chi_10 d)
     2.09467307E-05    2     1000023         1   # BR(~d_L -> ~chi_20 d)
     2.33077340E-05    2     1000025         1   # BR(~d_L -> ~chi_30 d)
     2.45879677E-02    2     1000035         1   # BR(~d_L -> ~chi_40 d)
     1.14887930E-05    2    -1000024         2   # BR(~d_L -> ~chi_1- u)
     4.91971924E-02    2    -1000037         2   # BR(~d_L -> ~chi_2- u)
     9.23817649E-01    2     1000021         1   # BR(~d_L -> ~g      d)
#
#         PDG            Width
DECAY   2000001     2.95478651E+02   # sdown_R decays
#          BR         NDA      ID1       ID2
     1.00637277E-02    2     1000022         1   # BR(~d_R -> ~chi_10 d)
     6.77825955E-06    2     1000023         1   # BR(~d_R -> ~chi_20 d)
     8.25471044E-06    2     1000025         1   # BR(~d_R -> ~chi_30 d)
     6.66509556E-10    2     1000035         1   # BR(~d_R -> ~chi_40 d)
     9.89921239E-01    2     1000021         1   # BR(~d_R -> ~g      d)
#
#         PDG            Width
DECAY   1000004     3.18046022E+02   # scharm_L decays
#          BR         NDA      ID1       ID2
     2.34966366E-03    2     1000022         4   # BR(~c_L -> ~chi_10 c)
     5.02850730E-05    2     1000023         4   # BR(~c_L -> ~chi_20 c)
     4.21319920E-06    2     1000025         4   # BR(~c_L -> ~chi_30 c)
     2.45732810E-02    2     1000035         4   # BR(~c_L -> ~chi_40 c)
     1.72254940E-04    2     1000024         3   # BR(~c_L -> ~chi_1+ s)
     4.91127705E-02    2     1000037         3   # BR(~c_L -> ~chi_2+ s)
     9.23737532E-01    2     1000021         4   # BR(~c_L -> ~g      c)
#
#         PDG            Width
DECAY   2000004     3.04391028E+02   # scharm_R decays
#          BR         NDA      ID1       ID2
     3.90740639E-02    2     1000022         4   # BR(~c_R -> ~chi_10 c)
     2.63174065E-05    2     1000023         4   # BR(~c_R -> ~chi_20 c)
     3.20499027E-05    2     1000025         4   # BR(~c_R -> ~chi_30 c)
     2.58749155E-09    2     1000035         4   # BR(~c_R -> ~chi_40 c)
     9.60867566E-01    2     1000021         4   # BR(~c_R -> ~g      c)
#
#         PDG            Width
DECAY   1000003     3.18056778E+02   # sstrange_L decays
#          BR         NDA      ID1       ID2
     2.34144807E-03    2     1000022         3   # BR(~s_L -> ~chi_10 s)
     2.09467307E-05    2     1000023         3   # BR(~s_L -> ~chi_20 s)
     2.33077340E-05    2     1000025         3   # BR(~s_L -> ~chi_30 s)
     2.45879677E-02    2     1000035         3   # BR(~s_L -> ~chi_40 s)
     1.14887930E-05    2    -1000024         4   # BR(~s_L -> ~chi_1- c)
     4.91971924E-02    2    -1000037         4   # BR(~s_L -> ~chi_2- c)
     9.23817649E-01    2     1000021         3   # BR(~s_L -> ~g      s)
#
#         PDG            Width
DECAY   2000003     2.95478651E+02   # sstrange_R decays
#          BR         NDA      ID1       ID2
     1.00637277E-02    2     1000022         3   # BR(~s_R -> ~chi_10 s)
     6.77825955E-06    2     1000023         3   # BR(~s_R -> ~chi_20 s)
     8.25471044E-06    2     1000025         3   # BR(~s_R -> ~chi_30 s)
     6.66509556E-10    2     1000035         3   # BR(~s_R -> ~chi_40 s)
     9.89921239E-01    2     1000021         3   # BR(~s_R -> ~g      s)
#
#         PDG            Width
DECAY   1000011     3.02656993E+01   # selectron_L decays
#          BR         NDA      ID1       ID2
     2.26487067E-01    2     1000022        11   # BR(~e_L -> ~chi_10 e-)
     9.87140732E-04    2     1000023        11   # BR(~e_L -> ~chi_20 e-)
     5.58296333E-06    2     1000025        11   # BR(~e_L -> ~chi_30 e-)
     2.57282778E-01    2     1000035        11   # BR(~e_L -> ~chi_40 e-)
     1.22899505E-04    2    -1000024        12   # BR(~e_L -> ~chi_1- nu_e)
     5.15114532E-01    2    -1000037        12   # BR(~e_L -> ~chi_2- nu_e)
#
#         PDG            Width
DECAY   2000011     2.73718028E+01   # selectron_R decays
#          BR         NDA      ID1       ID2
     9.98511603E-01    2     1000022        11   # BR(~e_R -> ~chi_10 e-)
     6.71081228E-04    2     1000023        11   # BR(~e_R -> ~chi_20 e-)
     8.17251559E-04    2     1000025        11   # BR(~e_R -> ~chi_30 e-)
     6.46987629E-08    2     1000035        11   # BR(~e_R -> ~chi_40 e-)
#
#         PDG            Width
DECAY   1000013     3.02656993E+01   # smuon_L decays
#          BR         NDA      ID1       ID2
     2.26487067E-01    2     1000022        13   # BR(~mu_L -> ~chi_10 mu-)
     9.87140732E-04    2     1000023        13   # BR(~mu_L -> ~chi_20 mu-)
     5.58296333E-06    2     1000025        13   # BR(~mu_L -> ~chi_30 mu-)
     2.57282778E-01    2     1000035        13   # BR(~mu_L -> ~chi_40 mu-)
     1.22899505E-04    2    -1000024        14   # BR(~mu_L -> ~chi_1- nu_mu)
     5.15114532E-01    2    -1000037        14   # BR(~mu_L -> ~chi_2- nu_mu)
#
#         PDG            Width
DECAY   2000013     2.73718028E+01   # smuon_R decays
#          BR         NDA      ID1       ID2
     9.98511603E-01    2     1000022        13   # BR(~mu_R -> ~chi_10 mu-)
     6.71081228E-04    2     1000023        13   # BR(~mu_R -> ~chi_20 mu-)
     8.17251559E-04    2     1000025        13   # BR(~mu_R -> ~chi_30 mu-)
     6.46987629E-08    2     1000035        13   # BR(~mu_R -> ~chi_40 mu-)
#
#         PDG            Width
DECAY   1000015     2.90973541E+01   # stau_1 decays
#          BR         NDA      ID1       ID2
     9.28957158E-01    2     1000022        15   # BR(~tau_1 -> ~chi_10  tau-)
     1.53542431E-02    2     1000023        15   # BR(~tau_1 -> ~chi_20  tau-)
     1.44845802E-02    2     1000025        15   # BR(~tau_1 -> ~chi_30  tau-)
     4.04161749E-03    2     1000035        15   # BR(~tau_1 -> ~chi_40  tau-)
     2.90707838E-02    2    -1000024        16   # BR(~tau_1 -> ~chi_1-  nu_tau)
     8.09161699E-03    2    -1000037        16   # BR(~tau_1 -> ~chi_2-  nu_tau)
#
#         PDG            Width
DECAY   2000015     3.10642978E+01   # stau_2 decays
#          BR         NDA      ID1       ID2
     2.30226154E-01    2     1000022        15   # BR(~tau_2 -> ~chi_10  tau-)
     1.44034901E-02    2     1000023        15   # BR(~tau_2 -> ~chi_20  tau-)
     1.43404541E-02    2     1000025        15   # BR(~tau_2 -> ~chi_30  tau-)
     2.46802298E-01    2     1000035        15   # BR(~tau_2 -> ~chi_40  tau-)
     9.61018922E-05    2    -1000024        16   # BR(~tau_2 -> ~chi_1-  nu_tau)
     4.94131501E-01    2    -1000037        16   # BR(~tau_2 -> ~chi_2-  nu_tau)
#
#         PDG            Width
DECAY   1000012     3.02683655E+01   # snu_eL decays
#          BR         NDA      ID1       ID2
     2.26155501E-01    2     1000022        12   # BR(~nu_eL -> ~chi_10 nu_e)
     4.54710132E-05    2     1000023        12   # BR(~nu_eL -> ~chi_20 nu_e)
     6.18155513E-04    2     1000025        12   # BR(~nu_eL -> ~chi_30 nu_e)
     2.57341044E-01    2     1000035        12   # BR(~nu_eL -> ~chi_40 nu_e)
     1.84223408E-03    2     1000024        11   # BR(~nu_eL -> ~chi_1+ e-)
     5.13997595E-01    2     1000037        11   # BR(~nu_eL -> ~chi_2+ e-)
#
#         PDG            Width
DECAY   1000014     3.02683655E+01   # snu_muL decays
#          BR         NDA      ID1       ID2
     2.26155501E-01    2     1000022        14   # BR(~nu_muL -> ~chi_10 nu_mu)
     4.54710132E-05    2     1000023        14   # BR(~nu_muL -> ~chi_20 nu_mu)
     6.18155513E-04    2     1000025        14   # BR(~nu_muL -> ~chi_30 nu_mu)
     2.57341044E-01    2     1000035        14   # BR(~nu_muL -> ~chi_40 nu_mu)
     1.84223408E-03    2     1000024        13   # BR(~nu_muL -> ~chi_1+ mu-)
     5.13997595E-01    2     1000037        13   # BR(~nu_muL -> ~chi_2+ mu-)
#
#         PDG            Width
DECAY   1000016     3.11068396E+01   # snu_tauL decays
#          BR         NDA      ID1       ID2
     2.20035645E-01    2     1000022        16   # BR(~nu_tauL -> ~chi_10 nu_tau)
     4.42395834E-05    2     1000023        16   # BR(~nu_tauL -> ~chi_20 nu_tau)
     6.01414787E-04    2     1000025        16   # BR(~nu_tauL -> ~chi_30 nu_tau)
     2.50311958E-01    2     1000035        16   # BR(~nu_tauL -> ~chi_40 nu_tau)
     2.90488405E-02    2     1000024        15   # BR(~nu_tauL -> ~chi_1+ tau-)
     4.99957902E-01    2     1000037        15   # BR(~nu_tauL -> ~chi_2+ tau-)
#
#         PDG            Width
DECAY   1000024     6.71999144E-01   # chargino1+ decays
#          BR         NDA      ID1       ID2
     1.00000000E+00    2     1000022        24   # BR(~chi_1+ -> ~chi_10  W+)
#
#         PDG            Width
DECAY   1000037     2.00582186E+01   # chargino2+ decays
#          BR         NDA      ID1       ID2
     2.53118409E-01    2     1000024        23   # BR(~chi_2+ -> ~chi_1+  Z )
     2.05852299E-04    2     1000022        24   # BR(~chi_2+ -> ~chi_10  W+)
     2.44084542E-01    2     1000023        24   # BR(~chi_2+ -> ~chi_20  W+)
     2.44058531E-01    2     1000025        24   # BR(~chi_2+ -> ~chi_30  W+)
     2.58531735E-01    2     1000024        25   # BR(~chi_2+ -> ~chi_1+  h )
     9.32139891E-07    2     1000022        37   # BR(~chi_2+ -> ~chi_10  H+)
#
#         PDG            Width
DECAY   1000022     0.00000000E+00   # neutralino1 decays
#
#         PDG            Width
DECAY   1000023     7.03127306E-01   # neutralino2 decays
#          BR         NDA      ID1       ID2
     5.44450827E-01    2     1000022        23   # BR(~chi_20 -> ~chi_10   Z )
     4.55549173E-01    2     1000022        25   # BR(~chi_20 -> ~chi_10   h )
#
#         PDG            Width
DECAY   1000025     7.07592743E-01   # neutralino3 decays
#          BR         NDA      ID1       ID2
     4.43652771E-01    2     1000022        23   # BR(~chi_30 -> ~chi_10   Z )
     5.56347229E-01    2     1000022        25   # BR(~chi_30 -> ~chi_10   h )
#
#         PDG            Width
DECAY   1000035     2.00718750E+01   # neutralino4 decays
#          BR         NDA      ID1       ID2
     5.54711891E-05    2     1000022        23   # BR(~chi_40 -> ~chi_10   Z )
     6.53729051E-02    2     1000023        23   # BR(~chi_40 -> ~chi_20   Z )
     1.87027965E-01    2     1000025        23   # BR(~chi_40 -> ~chi_30   Z )
     2.44721691E-01    2     1000024       -24   # BR(~chi_40 -> ~chi_1+   W-)
     2.44721691E-01    2    -1000024        24   # BR(~chi_40 -> ~chi_1-   W+)
     1.52302050E-04    2     1000022        25   # BR(~chi_40 -> ~chi_10   h )
     8.62486916E-07    2     1000022        35   # BR(~chi_40 -> ~chi_10   H )
     1.09114206E-07    2     1000022        36   # BR(~chi_40 -> ~chi_10   A )
     1.92436169E-01    2     1000023        25   # BR(~chi_40 -> ~chi_20   h )
     6.55108336E-02    2     1000025        25   # BR(~chi_40 -> ~chi_30   h )
#
#         PDG            Width
DECAY        25     4.03525009E-03   # h decays
#          BR         NDA      ID1       ID2
     6.13125401E-01    2           5        -5   # BR(h -> b       bb     )
     6.41442089E-02    2         -15        15   # BR(h -> tau+    tau-   )
     2.27094941E-04    2         -13        13   # BR(h -> mu+     mu-    )
     4.81618118E-04    2           3        -3   # BR(h -> s       sb     )
     2.08700586E-02    2           4        -4   # BR(h -> c       cb     )
     6.72178572E-02    2          21        21   # BR(h -> g       g      )
     2.30531445E-03    2          22        22   # BR(h -> gam     gam    )
     1.46515844E-03    2          22        23   # BR(h -> Z       gam    )
     2.05712370E-01    2          24       -24   # BR(h -> W+      W-     )
     2.44045848E-02    2          23        23   # BR(h -> Z       Z      )
     4.63333035E-05    2     1000022   1000022   # BR(h -> ~chi_10 ~chi_10)
#
#         PDG            Width
DECAY        35     7.95043278E+00   # H decays
#          BR         NDA      ID1       ID2
     4.06736585E-01    2           5        -5   # BR(H -> b       bb     )
     7.01115686E-02    2         -15        15   # BR(H -> tau+    tau-   )
     2.47920076E-04    2         -13        13   # BR(H -> mu+     mu-    )
     3.03912038E-04    2           3        -3   # BR(H -> s       sb     )
     1.69807418E-06    2           4        -4   # BR(H -> c       cb     )
     1.69651061E-01    2           6        -6   # BR(H -> t       tb     )
     5.63444295E-05    2          21        21   # BR(H -> g       g      )
     3.01188401E-07    2          22        22   # BR(H -> gam     gam    )
     1.00109212E-07    2          23        22   # BR(H -> Z       gam    )
     7.71790669E-05    2          24       -24   # BR(H -> W+      W-     )
     3.85406835E-05    2          23        23   # BR(H -> Z       Z      )
     2.89203341E-04    2          25        25   # BR(H -> h       h      )
    -5.07357384E-24    2          36        36   # BR(H -> A       A      )
     1.00844298E-18    2          23        36   # BR(H -> Z       A      )
     1.60477902E-03    2     1000024  -1000024   # BR(H -> ~chi_1+ ~chi_1-)
     1.50141386E-03    2     1000022   1000022   # BR(H -> ~chi_10 ~chi_10)
     5.87348595E-05    2     1000023   1000023   # BR(H -> ~chi_20 ~chi_20)
     3.73459264E-04    2     1000025   1000025   # BR(H -> ~chi_30 ~chi_30)
     2.08960844E-01    2     1000022   1000023   # BR(H -> ~chi_10 ~chi_20)
     1.39643706E-01    2     1000022   1000025   # BR(H -> ~chi_10 ~chi_30)
     3.42649330E-04    2     1000023   1000025   # BR(H -> ~chi_20 ~chi_30)
#
#         PDG            Width
DECAY        36     7.96893810E+00   # A decays
#          BR         NDA      ID1       ID2
     4.05928893E-01    2           5        -5   # BR(A -> b       bb     )
     6.99507256E-02    2         -15        15   # BR(A -> tau+    tau-   )
     2.47350976E-04    2         -13        13   # BR(A -> mu+     mu-    )
     3.03435946E-04    2           3        -3   # BR(A -> s       sb     )
     1.70111956E-06    2           4        -4   # BR(A -> c       cb     )
     1.69861544E-01    2           6        -6   # BR(A -> t       tb     )
     1.68132234E-04    2          21        21   # BR(A -> g       g      )
     5.55155486E-07    2          22        22   # BR(A -> gam     gam    )
     2.03545645E-07    2          23        22   # BR(A -> Z       gam    )
     7.67100247E-05    2          23        25   # BR(A -> Z       h      )
     3.10547407E-03    2     1000024  -1000024   # BR(A -> ~chi_1+ ~chi_1-)
     1.53217567E-03    2     1000022   1000022   # BR(A -> ~chi_10 ~chi_10)
     8.28745410E-05    2     1000023   1000023   # BR(A -> ~chi_20 ~chi_20)
     1.23782834E-03    2     1000025   1000025   # BR(A -> ~chi_30 ~chi_30)
     1.41204023E-01    2     1000022   1000023   # BR(A -> ~chi_10 ~chi_20)
     2.06229604E-01    2     1000022   1000025   # BR(A -> ~chi_10 ~chi_30)
     6.87681157E-05    2     1000023   1000025   # BR(A -> ~chi_20 ~chi_30)
#
#         PDG            Width
DECAY        37     7.91824447E+00   # H+ decays
#          BR         NDA      ID1       ID2
     6.51986314E-04    2           4        -5   # BR(H+ -> c       bb     )
     7.04219962E-02    2         -15        16   # BR(H+ -> tau+    nu_tau )
     2.49017424E-04    2         -13        14   # BR(H+ -> mu+     nu_mu  )
     4.17269078E-06    2           2        -5   # BR(H+ -> u       bb     )
     1.46117467E-05    2           2        -3   # BR(H+ -> u       sb     )
     3.02170021E-04    2           4        -3   # BR(H+ -> c       sb     )
     5.74875728E-01    2           6        -5   # BR(H+ -> t       bb     )
     7.73278974E-05    2          24        25   # BR(H+ -> W+      h      )
     1.64940948E-13    2          24        36   # BR(H+ -> W+      A      )
     3.52679197E-01    2     1000024   1000022   # BR(H+ -> ~chi_1+ ~chi_10)
     6.75564499E-04    2     1000024   1000023   # BR(H+ -> ~chi_1+ ~chi_20)
     4.82279090E-05    2     1000024   1000025   # BR(H+ -> ~chi_1+ ~chi_30)
