#
#                              ======================
#                              | THE SUSYHIT OUTPUT |
#                              ======================
#
#
#              ------------------------------------------------------
#              |     This is the output of the SUSY-HIT package     |
#              |  created by A.Djouadi, M.Muehlleitner and M.Spira. |
#              |  In case of problems with SUSY-HIT email to        |
#              |           margarete.muehlleitner@cern.ch           |
#              |           michael.spira@psi.ch                     |
#              |           abdelhak.djouadi@cern.ch                 |
#              ------------------------------------------------------
#
#              ------------------------------------------------------
#              |  SUSY Les Houches Accord - MSSM Spectrum + Decays  |
#              |              based on the decay programs           |
#              |                                                    |
#              |                     SDECAY 1.3b                    |
#              |                                                    |
#              |  Authors: M.Muhlleitner, A.Djouadi and Y.Mambrini  |
#              |  Ref.:    Comput.Phys.Commun.168(2005)46           |
#              |           [hep-ph/0311167]                         |
#              |                                                    |
#              |                     HDECAY 3.4                     |
#              |                                                    |
#              |  By: A.Djouadi,J.Kalinowski,M.Muhlleitner,M.Spira  |
#              |  Ref.:    Comput.Phys.Commun.108(1998)56           |
#              |           [hep-ph/9704448]                         |
#              |                                                    |
#              |                                                    |
#              |  If not stated otherwise all DRbar couplings and   |
#              |  soft SUSY breaking masses are given at the scale  |
#              |  Q=  0.50007316E+04
#              |                                                    |
#              ------------------------------------------------------
#
#
BLOCK DCINFO  # Decay Program information
     1   SDECAY/HDECAY # decay calculator
     2   1.3b  /3.4    # version number
#
BLOCK SPINFO  # Spectrum calculator information
     1    SOFTSUSY    # spectrum calculator                
     2    3.4.0       # version number                     
#
BLOCK MODSEL  # Model selection
     1     0   #  nonUniversal                                     
#
BLOCK SMINPUTS  # Standard Model inputs
         1     1.25778332E+02   # alpha_em^-1(M_Z)^MSbar
         2     1.16570000E-05   # G_F [GeV^-2]
         3     1.17200002E-01   # alpha_S(M_Z)^MSbar
         4     9.11876000E+01   # M_Z pole mass
         5     4.25000000E+00   # mb(mb)^MSbar
         6     1.72500000E+02   # mt pole mass
         7     1.77682000E+00   # mtau pole mass
#
BLOCK MINPAR  # Input parameters - minimal models
         3     1.00000000E+01   # tanb                
#
BLOCK EXTPAR  # Input parameters - non-minimal models
         0    -1.00000000E+00   # Set                 
         1     6.00000000E+01   # M_1(MX)             
         2     3.00000000E+03   # M_2(MX)             
         3     1.66797200E+03   # M_3(MX)             
        11     5.00000000E+03   # At(MX)              
        12     5.00000000E+03   # Ab(MX)              
        13     0.00000000E+00   # Atau(MX)            
        23    -1.15369700E+03   # mu(MX)              
        26     3.00000000E+03   # mA(pole)            
        31     5.00000000E+03   # meL(MX)             
        32     5.00000000E+03   # mmuL(MX)            
        33     5.00000000E+03   # mtauL(MX)           
        34     5.00000000E+03   # meR(MX)             
        35     5.00000000E+03   # mmuR(MX)            
        36     5.00000000E+03   # mtauR(MX)           
        41     5.00000000E+03   # mqL1(MX)            
        42     5.00000000E+03   # mqL2(MX)            
        43     5.00000000E+03   # mqL3(MX)            
        44     5.00000000E+03   # muR(MX)             
        45     5.00000000E+03   # mcR(MX)             
        46     5.00000000E+03   # mtR(MX)             
        47     5.00000000E+03   # mdR(MX)             
        48     5.00000000E+03   # msR(MX)             
        49     5.00000000E+03   # mbR(MX)             
#
BLOCK MASS  # Mass Spectrum
# PDG code           mass       particle
        24     8.00957030E+01   # W+
        25     1.24769402E+02   # h
        35     3.00008011E+03   # H
        36     2.99999986E+03   # A
        37     3.00086411E+03   # H+
         5     4.87878001E+00   # b-quark pole mass calculated from mb(mb)_Msbar
   1000001     5.07190032E+03   # ~d_L
   2000001     5.05410937E+03   # ~d_R
   1000002     5.07142664E+03   # ~u_L
   2000002     5.05382846E+03   # ~u_R
   1000003     5.07190032E+03   # ~s_L
   2000003     5.05410937E+03   # ~s_R
   1000004     5.07142664E+03   # ~c_L
   2000004     5.05382846E+03   # ~c_R
   1000005     5.01769623E+03   # ~b_1
   2000005     5.05275183E+03   # ~b_2
   1000006     4.90881023E+03   # ~t_1
   2000006     5.06305186E+03   # ~t_2
   1000011     5.01906105E+03   # ~e_L
   2000011     5.00591817E+03   # ~e_R
   1000012     5.01811274E+03   # ~nu_eL
   1000013     5.01906105E+03   # ~mu_L
   2000013     5.00591817E+03   # ~mu_R
   1000014     5.01811274E+03   # ~nu_muL
   1000015     5.00452474E+03   # ~tau_1
   2000015     5.01884910E+03   # ~tau_2
   1000016     5.01756921E+03   # ~nu_tauL
   1000021     2.00000041E+03   # ~g
   1000022     6.03023073E+01   # ~chi_10
   1000023     1.19954139E+03   # ~chi_20
   1000025    -1.20184371E+03   # ~chi_30
   1000035     3.07428969E+03   # ~chi_40
   1000024     1.20000008E+03   # ~chi_1+
   1000037     3.07445713E+03   # ~chi_2+
#
BLOCK NMIX  # Neutralino Mixing Matrix
  1  1     9.99308823E-01   # N_11
  1  2     1.64216070E-04   # N_12
  1  3    -3.71186309E-02   # N_13
  1  4     2.01394752E-03   # N_14
  2  1     2.48270694E-02   # N_21
  2  2     2.59747814E-02   # N_22
  2  3     7.06840405E-01   # N_23
  2  4     7.06459885E-01   # N_24
  3  1    -2.76644026E-02   # N_31
  3  2     1.42070855E-02   # N_32
  3  3    -7.06349479E-01   # N_33
  3  4     7.07179788E-01   # N_34
  4  1    -4.16132156E-04   # N_41
  4  2     9.99561625E-01   # N_42
  4  3    -8.32241040E-03   # N_43
  4  4    -2.84098897E-02   # N_44
#
BLOCK UMIX  # Chargino Mixing Matrix U
  1  1     1.17845214E-02   # U_11
  1  2     9.99930560E-01   # U_12
  2  1    -9.99930560E-01   # U_21
  2  2     1.17845214E-02   # U_22
#
BLOCK VMIX  # Chargino Mixing Matrix V
  1  1     4.02063844E-02   # V_11
  1  2    -9.99191396E-01   # V_12
  2  1    -9.99191396E-01   # V_21
  2  2    -4.02063844E-02   # V_22
#
BLOCK STOPMIX  # Stop Mixing Matrix
  1  1    -5.08348313E-01   # cos(theta_t)
  1  2     8.61151550E-01   # sin(theta_t)
  2  1    -8.61151550E-01   # -sin(theta_t)
  2  2    -5.08348313E-01   # cos(theta_t)
#
BLOCK SBOTMIX  # Sbottom Mixing Matrix
  1  1     9.96181561E-01   # cos(theta_b)
  1  2    -8.73057703E-02   # sin(theta_b)
  2  1     8.73057703E-02   # -sin(theta_b)
  2  2     9.96181561E-01   # cos(theta_b)
#
BLOCK STAUMIX  # Stau Mixing Matrix
  1  1    -1.36025119E-01   # cos(theta_tau)
  1  2     9.90705389E-01   # sin(theta_tau)
  2  1    -9.90705389E-01   # -sin(theta_tau)
  2  2    -1.36025119E-01   # cos(theta_tau)
#
BLOCK ALPHA  # Higgs mixing
          -1.05470213E-01   # Mixing angle in the neutral Higgs boson sector
#
BLOCK HMIX Q=  5.00073164E+03  # DRbar Higgs Parameters
         1    -1.17483371E+03   # mu(Q)MSSM           
         2     9.47003442E+00   # tan                 
         3     2.41896073E+02   # higgs               
         4     8.46402552E+06   # mA^2(Q)MSSM         
#
BLOCK GAUGE Q=  5.00073164E+03  # The gauge couplings
     1     3.70755088E-01   # gprime(Q) DRbar
     2     6.32347129E-01   # g(Q) DRbar
     3     9.98501221E-01   # g3(Q) DRbar
#
BLOCK AU Q=  5.00073164E+03  # The trilinear couplings
  1  1     5.00000001E+03   # A_u(Q) DRbar
  2  2     5.00000001E+03   # A_c(Q) DRbar
  3  3     5.00000002E+03   # A_t(Q) DRbar
#
BLOCK AD Q=  5.00073164E+03  # The trilinear couplings
  1  1     5.00000001E+03   # A_d(Q) DRbar
  2  2     5.00000001E+03   # A_s(Q) DRbar
  3  3     5.00000001E+03   # A_b(Q) DRbar
#
BLOCK AE Q=  5.00073164E+03  # The trilinear couplings
  1  1     0.00000000E+00   # A_e(Q) DRbar
  2  2     1.75333555E-07   # A_mu(Q) DRbar
  3  3     1.74973285E-07   # A_tau(Q) DRbar
#
BLOCK Yu Q=  5.00073164E+03  # The Yukawa couplings
  1  1     0.00000000E+00   # y_u(Q) DRbar
  2  2     0.00000000E+00   # y_c(Q) DRbar
  3  3     8.19761735E-01   # y_t(Q) DRbar
#
BLOCK Yd Q=  5.00073164E+03  # The Yukawa couplings
  1  1     0.00000000E+00   # y_d(Q) DRbar
  2  2     0.00000000E+00   # y_s(Q) DRbar
  3  3     1.30883784E-01   # y_b(Q) DRbar
#
BLOCK Ye Q=  5.00073164E+03  # The Yukawa couplings
  1  1     0.00000000E+00   # y_e(Q) DRbar
  2  2     0.00000000E+00   # y_mu(Q) DRbar
  3  3     9.67584024E-02   # y_tau(Q) DRbar
#
BLOCK MSOFT Q=  5.00073164E+03  # The soft SUSY breaking masses at the scale Q
         1     6.00000000E+01   # M_1(Q)              
         2     3.00000000E+03   # M_2(Q)              
         3     1.66797200E+03   # M_3(Q)              
        21     7.30486684E+06   # mH1^2(Q)            
        22    -8.21862035E+05   # mH2^2(Q)            
        31     5.00000000E+03   # meL(Q)              
        32     5.00000000E+03   # mmuL(Q)             
        33     5.00000000E+03   # mtauL(Q)            
        34     5.00000000E+03   # meR(Q)              
        35     5.00000000E+03   # mmuR(Q)             
        36     5.00000000E+03   # mtauR(Q)            
        41     5.00000000E+03   # mqL1(Q)             
        42     5.00000000E+03   # mqL2(Q)             
        43     5.00000000E+03   # mqL3(Q)             
        44     5.00000000E+03   # muR(Q)              
        45     5.00000000E+03   # mcR(Q)              
        46     4.99999999E+03   # mtR(Q)              
        47     5.00000000E+03   # mdR(Q)              
        48     5.00000000E+03   # msR(Q)              
        49     5.00000000E+03   # mbR(Q)              
#
#
#
#                             =================
#                             |The decay table|
#                             =================
#
# - The QCD corrections to the decays gluino -> squark  + quark
#                                     squark -> gaugino + quark_prime
#                                     squark -> squark_prime + Higgs
#                                     squark -> gluino  + quark
#   are included.
#
# - The multi-body decays for the inos, stops and sbottoms are included.
#
# - The loop induced decays for the gluino, neutralinos and stops
#   are included.
#
# - The SUSY decays of the top quark are included.
#
#
#         PDG            Width
DECAY         6     1.40122453E+00   # top decays
#          BR         NDA      ID1       ID2
     1.00000000E+00    2           5        24   # BR(t ->  b    W+)
#
#         PDG            Width
DECAY   1000021     4.45828267E-04   # gluino decays
#          BR         NDA      ID1       ID2
     5.80675998E-06    2     1000022        21   # BR(~g -> ~chi_10 g)
     9.77812973E-03    2     1000023        21   # BR(~g -> ~chi_20 g)
     9.65839578E-03    2     1000025        21   # BR(~g -> ~chi_30 g)
#           BR         NDA      ID1       ID2       ID3
     5.24181398E-02    3     1000022         1        -1   # BR(~g -> ~chi_10 d  db)
     1.46937867E-05    3     1000023         1        -1   # BR(~g -> ~chi_20 d  db)
     4.88006363E-06    3     1000025         1        -1   # BR(~g -> ~chi_30 d  db)
     1.78718943E-01    3     1000022         2        -2   # BR(~g -> ~chi_10 u  ub)
     3.61614292E-05    3     1000023         2        -2   # BR(~g -> ~chi_20 u  ub)
     5.35746973E-06    3     1000025         2        -2   # BR(~g -> ~chi_30 u  ub)
     5.24181398E-02    3     1000022         3        -3   # BR(~g -> ~chi_10 s  sb)
     1.46937867E-05    3     1000023         3        -3   # BR(~g -> ~chi_20 s  sb)
     4.88006363E-06    3     1000025         3        -3   # BR(~g -> ~chi_30 s  sb)
     1.78718943E-01    3     1000022         4        -4   # BR(~g -> ~chi_10 c  cb)
     3.61614292E-05    3     1000023         4        -4   # BR(~g -> ~chi_20 c  cb)
     5.35746973E-06    3     1000025         4        -4   # BR(~g -> ~chi_30 c  cb)
     5.31144157E-02    3     1000022         5        -5   # BR(~g -> ~chi_10 b  bb)
     2.46750824E-03    3     1000023         5        -5   # BR(~g -> ~chi_20 b  bb)
     2.41629200E-03    3     1000025         5        -5   # BR(~g -> ~chi_30 b  bb)
     1.73506082E-01    3     1000022         6        -6   # BR(~g -> ~chi_10 t  tb)
     7.10886404E-02    3     1000023         6        -6   # BR(~g -> ~chi_20 t  tb)
     5.30682937E-02    3     1000025         6        -6   # BR(~g -> ~chi_30 t  tb)
     4.05348260E-05    3     1000024         1        -2   # BR(~g -> ~chi_1+ d  ub)
     4.05348260E-05    3    -1000024         2        -1   # BR(~g -> ~chi_1- u  db)
     4.05348260E-05    3     1000024         3        -4   # BR(~g -> ~chi_1+ s  cb)
     4.05348260E-05    3    -1000024         4        -3   # BR(~g -> ~chi_1- c  sb)
     8.11689719E-02    3     1000024         5        -6   # BR(~g -> ~chi_1+ b  tb)
     8.11689719E-02    3    -1000024         6        -5   # BR(~g -> ~chi_1- t  bb)
#
#         PDG            Width
DECAY   1000006     3.37330957E+02   # stop1 decays
#          BR         NDA      ID1       ID2
     2.62033760E-02    2     1000022         6   # BR(~t_1 -> ~chi_10 t )
     8.66925196E-02    2     1000023         6   # BR(~t_1 -> ~chi_20 t )
     8.33615166E-02    2     1000025         6   # BR(~t_1 -> ~chi_30 t )
     6.22672353E-03    2     1000035         6   # BR(~t_1 -> ~chi_40 t )
     1.25921096E-01    2     1000024         5   # BR(~t_1 -> ~chi_1+ b )
     1.23992016E-02    2     1000037         5   # BR(~t_1 -> ~chi_2+ b )
     6.59195566E-01    2     1000021         6   # BR(~t_1 -> ~g      t )
#
#         PDG            Width
DECAY   2000006     3.45874786E+02   # stop2 decays
#          BR         NDA      ID1       ID2
     1.01218876E-02    2     1000022         6   # BR(~t_2 -> ~chi_10 t )
     8.69961577E-02    2     1000023         6   # BR(~t_2 -> ~chi_20 t )
     9.05399333E-02    2     1000025         6   # BR(~t_2 -> ~chi_30 t )
     1.59848676E-02    2     1000035         6   # BR(~t_2 -> ~chi_40 t )
     5.20689839E-02    2     1000024         5   # BR(~t_2 -> ~chi_1+ b )
     3.17839850E-02    2     1000037         5   # BR(~t_2 -> ~chi_2+ b )
     7.08829759E-01    2     1000021         6   # BR(~t_2 -> ~g      t )
     8.28262305E-04    2     1000006        25   # BR(~t_2 -> ~t_1    h )
     2.84616390E-03    2     1000006        23   # BR(~t_2 -> ~t_1    Z )
#
#         PDG            Width
DECAY   1000005     3.21592241E+02   # sbottom1 decays
#          BR         NDA      ID1       ID2
     2.41073579E-03    2     1000022         5   # BR(~b_1 -> ~chi_10 b )
     2.42066277E-03    2     1000023         5   # BR(~b_1 -> ~chi_20 b )
     2.33284838E-03    2     1000025         5   # BR(~b_1 -> ~chi_30 b )
     2.33834384E-02    2     1000035         5   # BR(~b_1 -> ~chi_40 b )
     1.84571950E-01    2    -1000024         6   # BR(~b_1 -> ~chi_1- t )
     4.70098382E-02    2    -1000037         6   # BR(~b_1 -> ~chi_2- t )
     7.36140257E-01    2     1000021         5   # BR(~b_1 -> ~g      b )
     1.73026971E-03    2     1000006       -24   # BR(~b_1 -> ~t_1    W-)
#
#         PDG            Width
DECAY   2000005     2.46057751E+02   # sbottom2 decays
#          BR         NDA      ID1       ID2
     1.19216311E-02    2     1000022         5   # BR(~b_2 -> ~chi_10 b )
     3.10933777E-03    2     1000023         5   # BR(~b_2 -> ~chi_20 b )
     3.21072769E-03    2     1000025         5   # BR(~b_2 -> ~chi_30 b )
     2.41192504E-04    2     1000035         5   # BR(~b_2 -> ~chi_40 b )
     8.02391592E-03    2    -1000024         6   # BR(~b_2 -> ~chi_1- t )
     4.84779458E-04    2    -1000037         6   # BR(~b_2 -> ~chi_2- t )
     9.72935168E-01    2     1000021         5   # BR(~b_2 -> ~g      b )
     7.32479106E-05    2     1000006       -24   # BR(~b_2 -> ~t_1    W-)
#
#         PDG            Width
DECAY   1000002     2.65192048E+02   # sup_L decays
#          BR         NDA      ID1       ID2
     2.81364845E-03    2     1000022         2   # BR(~u_L -> ~chi_10 u)
     6.24960508E-05    2     1000023         2   # BR(~u_L -> ~chi_20 u)
     5.09094968E-06    2     1000025         2   # BR(~u_L -> ~chi_30 u)
     2.96026572E-02    2     1000035         2   # BR(~u_L -> ~chi_40 u)
     2.12604443E-04    2     1000024         1   # BR(~u_L -> ~chi_1+ d)
     5.91636566E-02    2     1000037         1   # BR(~u_L -> ~chi_2+ d)
     9.08139846E-01    2     1000021         2   # BR(~u_L -> ~g      u)
#
#         PDG            Width
DECAY   2000002     2.51270719E+02   # sup_R decays
#          BR         NDA      ID1       ID2
     4.72661714E-02    2     1000022         2   # BR(~u_R -> ~chi_10 u)
     2.60329035E-05    2     1000023         2   # BR(~u_R -> ~chi_20 u)
     3.23084362E-05    2     1000025         2   # BR(~u_R -> ~chi_30 u)
     3.27182834E-09    2     1000035         2   # BR(~u_R -> ~chi_40 u)
     9.52675484E-01    2     1000021         2   # BR(~u_R -> ~g      u)
#
#         PDG            Width
DECAY   1000001     2.65206766E+02   # sdown_L decays
#          BR         NDA      ID1       ID2
     2.80431065E-03    2     1000022         1   # BR(~d_L -> ~chi_10 d)
     2.93435847E-05    2     1000023         1   # BR(~d_L -> ~chi_20 d)
     2.52896873E-05    2     1000025         1   # BR(~d_L -> ~chi_30 d)
     2.96197995E-02    2     1000035         1   # BR(~d_L -> ~chi_40 d)
     1.82655414E-05    2    -1000024         2   # BR(~d_L -> ~chi_1- u)
     5.92662449E-02    2    -1000037         2   # BR(~d_L -> ~chi_2- u)
     9.08236746E-01    2     1000021         1   # BR(~d_L -> ~g      d)
#
#         PDG            Width
DECAY   2000001     2.42375625E+02   # sdown_R decays
#          BR         NDA      ID1       ID2
     1.22508947E-02    2     1000022         1   # BR(~d_R -> ~chi_10 d)
     6.74754241E-06    2     1000023         1   # BR(~d_R -> ~chi_20 d)
     8.37411606E-06    2     1000025         1   # BR(~d_R -> ~chi_30 d)
     8.48132927E-10    2     1000035         1   # BR(~d_R -> ~chi_40 d)
     9.87733983E-01    2     1000021         1   # BR(~d_R -> ~g      d)
#
#         PDG            Width
DECAY   1000004     2.65192048E+02   # scharm_L decays
#          BR         NDA      ID1       ID2
     2.81364845E-03    2     1000022         4   # BR(~c_L -> ~chi_10 c)
     6.24960508E-05    2     1000023         4   # BR(~c_L -> ~chi_20 c)
     5.09094968E-06    2     1000025         4   # BR(~c_L -> ~chi_30 c)
     2.96026572E-02    2     1000035         4   # BR(~c_L -> ~chi_40 c)
     2.12604443E-04    2     1000024         3   # BR(~c_L -> ~chi_1+ s)
     5.91636566E-02    2     1000037         3   # BR(~c_L -> ~chi_2+ s)
     9.08139846E-01    2     1000021         4   # BR(~c_L -> ~g      c)
#
#         PDG            Width
DECAY   2000004     2.51270719E+02   # scharm_R decays
#          BR         NDA      ID1       ID2
     4.72661714E-02    2     1000022         4   # BR(~c_R -> ~chi_10 c)
     2.60329035E-05    2     1000023         4   # BR(~c_R -> ~chi_20 c)
     3.23084362E-05    2     1000025         4   # BR(~c_R -> ~chi_30 c)
     3.27182834E-09    2     1000035         4   # BR(~c_R -> ~chi_40 c)
     9.52675484E-01    2     1000021         4   # BR(~c_R -> ~g      c)
#
#         PDG            Width
DECAY   1000003     2.65206766E+02   # sstrange_L decays
#          BR         NDA      ID1       ID2
     2.80431065E-03    2     1000022         3   # BR(~s_L -> ~chi_10 s)
     2.93435847E-05    2     1000023         3   # BR(~s_L -> ~chi_20 s)
     2.52896873E-05    2     1000025         3   # BR(~s_L -> ~chi_30 s)
     2.96197995E-02    2     1000035         3   # BR(~s_L -> ~chi_40 s)
     1.82655414E-05    2    -1000024         4   # BR(~s_L -> ~chi_1- c)
     5.92662449E-02    2    -1000037         4   # BR(~s_L -> ~chi_2- c)
     9.08236746E-01    2     1000021         3   # BR(~s_L -> ~g      s)
#
#         PDG            Width
DECAY   2000003     2.42375625E+02   # sstrange_R decays
#          BR         NDA      ID1       ID2
     1.22508947E-02    2     1000022         3   # BR(~s_R -> ~chi_10 s)
     6.74754241E-06    2     1000023         3   # BR(~s_R -> ~chi_20 s)
     8.37411606E-06    2     1000025         3   # BR(~s_R -> ~chi_30 s)
     8.48132927E-10    2     1000035         3   # BR(~s_R -> ~chi_40 s)
     9.87733983E-01    2     1000021         3   # BR(~s_R -> ~g      s)
#
#         PDG            Width
DECAY   1000011     3.02552040E+01   # selectron_L decays
#          BR         NDA      ID1       ID2
     2.26576176E-01    2     1000022        11   # BR(~e_L -> ~chi_10 e-)
     9.63668203E-04    2     1000023        11   # BR(~e_L -> ~chi_20 e-)
     2.37589772E-06    2     1000025        11   # BR(~e_L -> ~chi_30 e-)
     2.57243649E-01    2     1000035        11   # BR(~e_L -> ~chi_40 e-)
     1.62914770E-04    2    -1000024        12   # BR(~e_L -> ~chi_1- nu_e)
     5.15051216E-01    2    -1000037        12   # BR(~e_L -> ~chi_2- nu_e)
#
#         PDG            Width
DECAY   2000011     2.73668686E+01   # selectron_R decays
#          BR         NDA      ID1       ID2
     9.98772122E-01    2     1000022        11   # BR(~e_R -> ~chi_10 e-)
     5.47873635E-04    2     1000023        11   # BR(~e_R -> ~chi_20 e-)
     6.79937110E-04    2     1000025        11   # BR(~e_R -> ~chi_30 e-)
     6.72067437E-08    2     1000035        11   # BR(~e_R -> ~chi_40 e-)
#
#         PDG            Width
DECAY   1000013     3.02552040E+01   # smuon_L decays
#          BR         NDA      ID1       ID2
     2.26576176E-01    2     1000022        13   # BR(~mu_L -> ~chi_10 mu-)
     9.63668203E-04    2     1000023        13   # BR(~mu_L -> ~chi_20 mu-)
     2.37589772E-06    2     1000025        13   # BR(~mu_L -> ~chi_30 mu-)
     2.57243649E-01    2     1000035        13   # BR(~mu_L -> ~chi_40 mu-)
     1.62914770E-04    2    -1000024        14   # BR(~mu_L -> ~chi_1- nu_mu)
     5.15051216E-01    2    -1000037        14   # BR(~mu_L -> ~chi_2- nu_mu)
#
#         PDG            Width
DECAY   2000013     2.73668686E+01   # smuon_R decays
#          BR         NDA      ID1       ID2
     9.98772122E-01    2     1000022        13   # BR(~mu_R -> ~chi_10 mu-)
     5.47873635E-04    2     1000023        13   # BR(~mu_R -> ~chi_20 mu-)
     6.79937110E-04    2     1000025        13   # BR(~mu_R -> ~chi_30 mu-)
     6.72067437E-08    2     1000035        13   # BR(~mu_R -> ~chi_40 mu-)
#
#         PDG            Width
DECAY   1000015     2.90661455E+01   # stau_1 decays
#          BR         NDA      ID1       ID2
     9.27986994E-01    2     1000022        15   # BR(~tau_1 -> ~chi_10  tau-)
     1.50449116E-02    2     1000023        15   # BR(~tau_1 -> ~chi_20  tau-)
     1.40740301E-02    2     1000025        15   # BR(~tau_1 -> ~chi_30  tau-)
     4.77773681E-03    2     1000035        15   # BR(~tau_1 -> ~chi_40  tau-)
     2.85506052E-02    2    -1000024        16   # BR(~tau_1 -> ~chi_1-  nu_tau)
     9.56572261E-03    2    -1000037        16   # BR(~tau_1 -> ~chi_2-  nu_tau)
#
#         PDG            Width
DECAY   2000015     3.10285411E+01   # stau_2 decays
#          BR         NDA      ID1       ID2
     2.32400366E-01    2     1000022        15   # BR(~tau_2 -> ~chi_10  tau-)
     1.40439738E-02    2     1000023        15   # BR(~tau_2 -> ~chi_20  tau-)
     1.40872193E-02    2     1000025        15   # BR(~tau_2 -> ~chi_30  tau-)
     2.46277680E-01    2     1000035        15   # BR(~tau_2 -> ~chi_40  tau-)
     9.54989323E-05    2    -1000024        16   # BR(~tau_2 -> ~chi_1-  nu_tau)
     4.93095262E-01    2    -1000037        16   # BR(~tau_2 -> ~chi_2-  nu_tau)
#
#         PDG            Width
DECAY   1000012     3.02577299E+01   # snu_eL decays
#          BR         NDA      ID1       ID2
     2.26260628E-01    2     1000022        12   # BR(~nu_eL -> ~chi_10 nu_e)
     7.64557110E-05    2     1000023        12   # BR(~nu_eL -> ~chi_20 nu_e)
     5.42661709E-04    2     1000025        12   # BR(~nu_eL -> ~chi_30 nu_e)
     2.57307950E-01    2     1000035        12   # BR(~nu_eL -> ~chi_40 nu_e)
     1.89578191E-03    2     1000024        11   # BR(~nu_eL -> ~chi_1+ e-)
     5.13916523E-01    2     1000037        11   # BR(~nu_eL -> ~chi_2+ e-)
#
#         PDG            Width
DECAY   1000014     3.02577299E+01   # snu_muL decays
#          BR         NDA      ID1       ID2
     2.26260628E-01    2     1000022        14   # BR(~nu_muL -> ~chi_10 nu_mu)
     7.64557110E-05    2     1000023        14   # BR(~nu_muL -> ~chi_20 nu_mu)
     5.42661709E-04    2     1000025        14   # BR(~nu_muL -> ~chi_30 nu_mu)
     2.57307950E-01    2     1000035        14   # BR(~nu_muL -> ~chi_40 nu_mu)
     1.89578191E-03    2     1000024        13   # BR(~nu_muL -> ~chi_1+ mu-)
     5.13916523E-01    2     1000037        13   # BR(~nu_muL -> ~chi_2+ mu-)
#
#         PDG            Width
DECAY   1000016     3.10790361E+01   # snu_tauL decays
#          BR         NDA      ID1       ID2
     2.20257506E-01    2     1000022        16   # BR(~nu_tauL -> ~chi_10 nu_tau)
     7.44252469E-05    2     1000023        16   # BR(~nu_tauL -> ~chi_20 nu_tau)
     5.28249974E-04    2     1000025        16   # BR(~nu_tauL -> ~chi_30 nu_tau)
     2.50415890E-01    2     1000035        16   # BR(~nu_tauL -> ~chi_40 nu_tau)
     2.85727609E-02    2     1000024        15   # BR(~nu_tauL -> ~chi_1+ tau-)
     5.00151167E-01    2     1000037        15   # BR(~nu_tauL -> ~chi_2+ tau-)
#
#         PDG            Width
DECAY   1000024     7.34507128E-01   # chargino1+ decays
#          BR         NDA      ID1       ID2
     1.00000000E+00    2     1000022        24   # BR(~chi_1+ -> ~chi_10  W+)
#
#         PDG            Width
DECAY   1000037     1.96733207E+01   # chargino2+ decays
#          BR         NDA      ID1       ID2
     2.53015382E-01    2     1000024        23   # BR(~chi_2+ -> ~chi_1+  Z )
     2.15538207E-04    2     1000022        24   # BR(~chi_2+ -> ~chi_10  W+)
     2.43997574E-01    2     1000023        24   # BR(~chi_2+ -> ~chi_20  W+)
     2.43960565E-01    2     1000025        24   # BR(~chi_2+ -> ~chi_30  W+)
     2.58810195E-01    2     1000024        25   # BR(~chi_2+ -> ~chi_1+  h )
     7.45681906E-07    2     1000022        37   # BR(~chi_2+ -> ~chi_10  H+)
#
#         PDG            Width
DECAY   1000022     0.00000000E+00   # neutralino1 decays
#
#         PDG            Width
DECAY   1000023     7.69742645E-01   # neutralino2 decays
#          BR         NDA      ID1       ID2
     5.48080556E-01    2     1000022        23   # BR(~chi_20 -> ~chi_10   Z )
     4.51919444E-01    2     1000022        25   # BR(~chi_20 -> ~chi_10   h )
#
#         PDG            Width
DECAY   1000025     7.75561479E-01   # neutralino3 decays
#          BR         NDA      ID1       ID2
     4.38118438E-01    2     1000022        23   # BR(~chi_30 -> ~chi_10   Z )
     5.61881562E-01    2     1000022        25   # BR(~chi_30 -> ~chi_10   h )
#
#         PDG            Width
DECAY   1000035     1.96849489E+01   # neutralino4 decays
#          BR         NDA      ID1       ID2
     6.35261609E-05    2     1000022        23   # BR(~chi_40 -> ~chi_10   Z )
     5.83467757E-02    2     1000023        23   # BR(~chi_40 -> ~chi_20   Z )
     1.93963671E-01    2     1000025        23   # BR(~chi_40 -> ~chi_30   Z )
     2.44611735E-01    2     1000024       -24   # BR(~chi_40 -> ~chi_1+   W-)
     2.44611735E-01    2    -1000024        24   # BR(~chi_40 -> ~chi_1-   W+)
     1.54933885E-04    2     1000022        25   # BR(~chi_40 -> ~chi_10   h )
     6.82644012E-07    2     1000022        35   # BR(~chi_40 -> ~chi_10   H )
     8.92011115E-08    2     1000022        36   # BR(~chi_40 -> ~chi_10   A )
     1.99790385E-01    2     1000023        25   # BR(~chi_40 -> ~chi_20   h )
     5.84564657E-02    2     1000025        25   # BR(~chi_40 -> ~chi_30   h )
#
#         PDG            Width
DECAY        25     4.05276809E-03   # h decays
#          BR         NDA      ID1       ID2
     6.07843085E-01    2           5        -5   # BR(h -> b       bb     )
     6.39947150E-02    2         -15        15   # BR(h -> tau+    tau-   )
     2.26564577E-04    2         -13        13   # BR(h -> mu+     mu-    )
     4.80306700E-04    2           3        -3   # BR(h -> s       sb     )
     2.08132104E-02    2           4        -4   # BR(h -> c       cb     )
     6.73209036E-02    2          21        21   # BR(h -> g       g      )
     2.31461962E-03    2          22        22   # BR(h -> gam     gam    )
     1.49208962E-03    2          22        23   # BR(h -> Z       gam    )
     2.10397522E-01    2          24       -24   # BR(h -> W+      W-     )
     2.50719897E-02    2          23        23   # BR(h -> Z       Z      )
     4.49934815E-05    2     1000022   1000022   # BR(h -> ~chi_10 ~chi_10)
#
#         PDG            Width
DECAY        35     7.79328323E+00   # H decays
#          BR         NDA      ID1       ID2
     4.16244180E-01    2           5        -5   # BR(H -> b       bb     )
     7.14889904E-02    2         -15        15   # BR(H -> tau+    tau-   )
     2.52790749E-04    2         -13        13   # BR(H -> mu+     mu-    )
     3.09882741E-04    2           3        -3   # BR(H -> s       sb     )
     1.73319259E-06    2           4        -4   # BR(H -> c       cb     )
     1.73159664E-01    2           6        -6   # BR(H -> t       tb     )
     5.75161572E-05    2          21        21   # BR(H -> g       g      )
     3.33373948E-07    2          22        22   # BR(H -> gam     gam    )
     1.02249782E-07    2          23        22   # BR(H -> Z       gam    )
     7.87750853E-05    2          24       -24   # BR(H -> W+      W-     )
     3.93376900E-05    2          23        23   # BR(H -> Z       Z      )
     2.94407444E-04    2          25        25   # BR(H -> h       h      )
     3.72490910E-23    2          36        36   # BR(H -> A       A      )
     4.15107502E-19    2          23        36   # BR(H -> Z       A      )
     1.18918634E-03    2     1000024  -1000024   # BR(H -> ~chi_1+ ~chi_1-)
     1.28661646E-03    2     1000022   1000022   # BR(H -> ~chi_10 ~chi_10)
     6.58273505E-05    2     1000023   1000023   # BR(H -> ~chi_20 ~chi_20)
     2.34399191E-04    2     1000025   1000025   # BR(H -> ~chi_30 ~chi_30)
     2.00463569E-01    2     1000022   1000023   # BR(H -> ~chi_10 ~chi_20)
     1.34616607E-01    2     1000022   1000025   # BR(H -> ~chi_10 ~chi_30)
     2.16080409E-04    2     1000023   1000025   # BR(H -> ~chi_20 ~chi_30)
#
#         PDG            Width
DECAY        36     7.81357415E+00   # A decays
#          BR         NDA      ID1       ID2
     4.15303412E-01    2           5        -5   # BR(A -> b       bb     )
     7.13055131E-02    2         -15        15   # BR(A -> tau+    tau-   )
     2.52141606E-04    2         -13        13   # BR(A -> mu+     mu-    )
     3.09312839E-04    2           3        -3   # BR(A -> s       sb     )
     1.73582630E-06    2           4        -4   # BR(A -> c       cb     )
     1.73327111E-01    2           6        -6   # BR(A -> t       tb     )
     1.71526131E-04    2          21        21   # BR(A -> g       g      )
     5.27330139E-07    2          22        22   # BR(A -> gam     gam    )
     2.07757531E-07    2          23        22   # BR(A -> Z       gam    )
     7.82737131E-05    2          23        25   # BR(A -> Z       h      )
     2.91044567E-03    2     1000024  -1000024   # BR(A -> ~chi_1+ ~chi_1-)
     1.31522629E-03    2     1000022   1000022   # BR(A -> ~chi_10 ~chi_10)
     1.19151729E-04    2     1000023   1000023   # BR(A -> ~chi_20 ~chi_20)
     9.98754549E-04    2     1000025   1000025   # BR(A -> ~chi_30 ~chi_30)
     1.35999825E-01    2     1000022   1000023   # BR(A -> ~chi_10 ~chi_20)
     1.97880398E-01    2     1000022   1000025   # BR(A -> ~chi_10 ~chi_30)
     2.64378461E-05    2     1000023   1000025   # BR(A -> ~chi_20 ~chi_30)
#
#         PDG            Width
DECAY        37     7.78284706E+00   # H+ decays
#          BR         NDA      ID1       ID2
     6.69300177E-04    2           4        -5   # BR(H+ -> c       bb     )
     7.16076541E-02    2         -15        16   # BR(H+ -> tau+    nu_tau )
     2.53209999E-04    2         -13        14   # BR(H+ -> mu+     nu_mu  )
     4.28349908E-06    2           2        -5   # BR(H+ -> u       bb     )
     1.48578411E-05    2           2        -3   # BR(H+ -> u       sb     )
     3.07260933E-04    2           4        -3   # BR(H+ -> c       sb     )
     5.88683459E-01    2           6        -5   # BR(H+ -> t       bb     )
     7.87011352E-05    2          24        25   # BR(H+ -> W+      h      )
     8.14243306E-14    2          24        36   # BR(H+ -> W+      A      )
     3.37815765E-01    2     1000024   1000022   # BR(H+ -> ~chi_1+ ~chi_10)
     5.04376955E-04    2     1000024   1000023   # BR(H+ -> ~chi_1+ ~chi_20)
     6.11319161E-05    2     1000024   1000025   # BR(H+ -> ~chi_1+ ~chi_30)
