#
#                              ======================
#                              | THE SUSYHIT OUTPUT |
#                              ======================
#
#
#              ------------------------------------------------------
#              |     This is the output of the SUSY-HIT package     |
#              |  created by A.Djouadi, M.Muehlleitner and M.Spira. |
#              |  In case of problems with SUSY-HIT email to        |
#              |           margarete.muehlleitner@cern.ch           |
#              |           michael.spira@psi.ch                     |
#              |           abdelhak.djouadi@cern.ch                 |
#              ------------------------------------------------------
#
#              ------------------------------------------------------
#              |  SUSY Les Houches Accord - MSSM Spectrum + Decays  |
#              |              based on the decay programs           |
#              |                                                    |
#              |                     SDECAY 1.3b                    |
#              |                                                    |
#              |  Authors: M.Muhlleitner, A.Djouadi and Y.Mambrini  |
#              |  Ref.:    Comput.Phys.Commun.168(2005)46           |
#              |           [hep-ph/0311167]                         |
#              |                                                    |
#              |                     HDECAY 3.4                     |
#              |                                                    |
#              |  By: A.Djouadi,J.Kalinowski,M.Muhlleitner,M.Spira  |
#              |  Ref.:    Comput.Phys.Commun.108(1998)56           |
#              |           [hep-ph/9704448]                         |
#              |                                                    |
#              |                                                    |
#              |  If not stated otherwise all DRbar couplings and   |
#              |  soft SUSY breaking masses are given at the scale  |
#              |  Q=  0.50007478E+04
#              |                                                    |
#              ------------------------------------------------------
#
#
BLOCK DCINFO  # Decay Program information
     1   SDECAY/HDECAY # decay calculator
     2   1.3b  /3.4    # version number
#
BLOCK SPINFO  # Spectrum calculator information
     1    SOFTSUSY    # spectrum calculator                
     2    3.4.0       # version number                     
#
BLOCK MODSEL  # Model selection
     1     0   #  nonUniversal                                     
#
BLOCK SMINPUTS  # Standard Model inputs
         1     1.25778332E+02   # alpha_em^-1(M_Z)^MSbar
         2     1.16570000E-05   # G_F [GeV^-2]
         3     1.17200002E-01   # alpha_S(M_Z)^MSbar
         4     9.11876000E+01   # M_Z pole mass
         5     4.25000000E+00   # mb(mb)^MSbar
         6     1.72500000E+02   # mt pole mass
         7     1.77682000E+00   # mtau pole mass
#
BLOCK MINPAR  # Input parameters - minimal models
         3     1.00000000E+01   # tanb                
#
BLOCK EXTPAR  # Input parameters - non-minimal models
         0    -1.00000000E+00   # Set                 
         1     6.00000000E+01   # M_1(MX)             
         2     3.00000000E+03   # M_2(MX)             
         3     2.52553700E+03   # M_3(MX)             
        11     5.00000000E+03   # At(MX)              
        12     5.00000000E+03   # Ab(MX)              
        13     0.00000000E+00   # Atau(MX)            
        23    -8.61785000E+02   # mu(MX)              
        26     3.00000000E+03   # mA(pole)            
        31     5.00000000E+03   # meL(MX)             
        32     5.00000000E+03   # mmuL(MX)            
        33     5.00000000E+03   # mtauL(MX)           
        34     5.00000000E+03   # meR(MX)             
        35     5.00000000E+03   # mmuR(MX)            
        36     5.00000000E+03   # mtauR(MX)           
        41     5.00000000E+03   # mqL1(MX)            
        42     5.00000000E+03   # mqL2(MX)            
        43     5.00000000E+03   # mqL3(MX)            
        44     5.00000000E+03   # muR(MX)             
        45     5.00000000E+03   # mcR(MX)             
        46     5.00000000E+03   # mtR(MX)             
        47     5.00000000E+03   # mdR(MX)             
        48     5.00000000E+03   # msR(MX)             
        49     5.00000000E+03   # mbR(MX)             
#
BLOCK MASS  # Mass Spectrum
# PDG code           mass       particle
        24     8.00951745E+01   # W+
        25     1.24814071E+02   # h
        35     3.00007961E+03   # H
        36     2.99998970E+03   # A
        37     3.00141285E+03   # H+
         5     4.87878001E+00   # b-quark pole mass calculated from mb(mb)_Msbar
   1000001     5.08867159E+03   # ~d_L
   2000001     5.07092732E+03   # ~d_R
   1000002     5.08820289E+03   # ~u_L
   2000002     5.07064101E+03   # ~u_R
   1000003     5.08867159E+03   # ~s_L
   2000003     5.07092732E+03   # ~s_R
   1000004     5.08820289E+03   # ~c_L
   2000004     5.07064101E+03   # ~c_R
   1000005     5.03440009E+03   # ~b_1
   2000005     5.06934314E+03   # ~b_2
   1000006     4.92701831E+03   # ~t_1
   2000006     5.07759517E+03   # ~t_2
   1000011     5.01907275E+03   # ~e_L
   2000011     5.00592729E+03   # ~e_R
   1000012     5.01812409E+03   # ~nu_eL
   1000013     5.01907275E+03   # ~mu_L
   2000013     5.00592729E+03   # ~mu_R
   1000014     5.01812409E+03   # ~nu_muL
   1000015     5.00465108E+03   # ~tau_1
   2000015     5.01872624E+03   # ~tau_2
   1000016     5.01757688E+03   # ~nu_tauL
   1000021     2.90000098E+03   # ~g
   1000022     6.02946166E+01   # ~chi_10
   1000023     8.99734572E+02   # ~chi_20
   1000025    -9.01972925E+02   # ~chi_30
   1000035     3.07422074E+03   # ~chi_40
   1000024     9.00000426E+02   # ~chi_1+
   1000037     3.07438819E+03   # ~chi_2+
#
BLOCK NMIX  # Neutralino Mixing Matrix
  1  1     9.98775590E-01   # N_11
  1  2     1.96011857E-04   # N_12
  1  3    -4.94357642E-02   # N_13
  1  4     1.84073794E-03   # N_14
  2  1     3.36664653E-02   # N_21
  2  2     2.24239584E-02   # N_22
  2  3     7.06575204E-01   # N_23
  2  4     7.06480867E-01   # N_24
  3  1    -3.62454589E-02   # N_31
  3  2     1.52897498E-02   # N_32
  3  3    -7.05891032E-01   # N_33
  3  4     7.07227220E-01   # N_34
  4  1    -3.96669408E-04   # N_41
  4  2     9.99631608E-01   # N_42
  4  3    -5.04348374E-03   # N_43
  4  4    -2.66656090E-02   # N_44
#
BLOCK UMIX  # Chargino Mixing Matrix U
  1  1     7.14494171E-03   # U_11
  1  2     9.99974475E-01   # U_12
  2  1    -9.99974475E-01   # U_21
  2  2     7.14494171E-03   # U_22
#
BLOCK VMIX  # Chargino Mixing Matrix V
  1  1     3.77402057E-02   # V_11
  1  2    -9.99287585E-01   # V_12
  2  1    -9.99287585E-01   # V_21
  2  2    -3.77402057E-02   # V_22
#
BLOCK STOPMIX  # Stop Mixing Matrix
  1  1    -5.02570737E-01   # cos(theta_t)
  1  2     8.64536092E-01   # sin(theta_t)
  2  1    -8.64536092E-01   # -sin(theta_t)
  2  2    -5.02570737E-01   # cos(theta_t)
#
BLOCK SBOTMIX  # Sbottom Mixing Matrix
  1  1     9.97523913E-01   # cos(theta_b)
  1  2    -7.03281096E-02   # sin(theta_b)
  2  1     7.03281096E-02   # -sin(theta_b)
  2  2     9.97523913E-01   # cos(theta_b)
#
BLOCK STAUMIX  # Stau Mixing Matrix
  1  1    -1.02700072E-01   # cos(theta_tau)
  1  2     9.94712368E-01   # sin(theta_tau)
  2  1    -9.94712368E-01   # -sin(theta_tau)
  2  2    -1.02700072E-01   # cos(theta_tau)
#
BLOCK ALPHA  # Higgs mixing
          -1.05484831E-01   # Mixing angle in the neutral Higgs boson sector
#
BLOCK HMIX Q=  5.00074777E+03  # DRbar Higgs Parameters
         1    -8.77649376E+02   # mu(Q)MSSM           
         2     9.46897505E+00   # tan                 
         3     2.41839785E+02   # higgs               
         4     8.54755412E+06   # mA^2(Q)MSSM         
#
BLOCK GAUGE Q=  5.00074777E+03  # The gauge couplings
     1     3.70803371E-01   # gprime(Q) DRbar
     2     6.32611712E-01   # g(Q) DRbar
     3     9.92992024E-01   # g3(Q) DRbar
#
BLOCK AU Q=  5.00074777E+03  # The trilinear couplings
  1  1     5.00000002E+03   # A_u(Q) DRbar
  2  2     5.00000002E+03   # A_c(Q) DRbar
  3  3     5.00000003E+03   # A_t(Q) DRbar
#
BLOCK AD Q=  5.00074777E+03  # The trilinear couplings
  1  1     5.00000001E+03   # A_d(Q) DRbar
  2  2     5.00000001E+03   # A_s(Q) DRbar
  3  3     5.00000001E+03   # A_b(Q) DRbar
#
BLOCK AE Q=  5.00074777E+03  # The trilinear couplings
  1  1     0.00000000E+00   # A_e(Q) DRbar
  2  2     3.08370981E-07   # A_mu(Q) DRbar
  3  3     3.08535688E-07   # A_tau(Q) DRbar
#
BLOCK Yu Q=  5.00074777E+03  # The Yukawa couplings
  1  1     0.00000000E+00   # y_u(Q) DRbar
  2  2     0.00000000E+00   # y_c(Q) DRbar
  3  3     8.21574362E-01   # y_t(Q) DRbar
#
BLOCK Yd Q=  5.00074777E+03  # The Yukawa couplings
  1  1     0.00000000E+00   # y_d(Q) DRbar
  2  2     0.00000000E+00   # y_s(Q) DRbar
  3  3     1.31021248E-01   # y_b(Q) DRbar
#
BLOCK Ye Q=  5.00074777E+03  # The Yukawa couplings
  1  1     0.00000000E+00   # y_e(Q) DRbar
  2  2     0.00000000E+00   # y_mu(Q) DRbar
  3  3     9.68969448E-02   # y_tau(Q) DRbar
#
BLOCK MSOFT Q=  5.00074777E+03  # The soft SUSY breaking masses at the scale Q
         1     6.00000000E+01   # M_1(Q)              
         2     3.00000000E+03   # M_2(Q)              
         3     2.52553700E+03   # M_3(Q)              
        21     7.93296358E+06   # mH1^2(Q)            
        22    -1.99976518E+05   # mH2^2(Q)            
        31     5.00000000E+03   # meL(Q)              
        32     5.00000000E+03   # mmuL(Q)             
        33     5.00000000E+03   # mtauL(Q)            
        34     5.00000000E+03   # meR(Q)              
        35     5.00000000E+03   # mmuR(Q)             
        36     5.00000000E+03   # mtauR(Q)            
        41     4.99999999E+03   # mqL1(Q)             
        42     4.99999999E+03   # mqL2(Q)             
        43     4.99999999E+03   # mqL3(Q)             
        44     4.99999999E+03   # muR(Q)              
        45     4.99999999E+03   # mcR(Q)              
        46     4.99999999E+03   # mtR(Q)              
        47     4.99999999E+03   # mdR(Q)              
        48     4.99999999E+03   # msR(Q)              
        49     4.99999999E+03   # mbR(Q)              
#
#
#
#                             =================
#                             |The decay table|
#                             =================
#
# - The QCD corrections to the decays gluino -> squark  + quark
#                                     squark -> gaugino + quark_prime
#                                     squark -> squark_prime + Higgs
#                                     squark -> gluino  + quark
#   are included.
#
# - The multi-body decays for the inos, stops and sbottoms are included.
#
# - The loop induced decays for the gluino, neutralinos and stops
#   are included.
#
# - The SUSY decays of the top quark are included.
#
#
#         PDG            Width
DECAY         6     1.40242047E+00   # top decays
#          BR         NDA      ID1       ID2
     1.00000000E+00    2           5        24   # BR(t ->  b    W+)
#
#         PDG            Width
DECAY   1000021     1.19036411E-02   # gluino decays
#          BR         NDA      ID1       ID2
     1.15611859E-06    2     1000022        21   # BR(~g -> ~chi_10 g)
     3.58706261E-03    2     1000023        21   # BR(~g -> ~chi_20 g)
     3.52344440E-03    2     1000025        21   # BR(~g -> ~chi_30 g)
#           BR         NDA      ID1       ID2       ID3
     1.42611564E-02    3     1000022         1        -1   # BR(~g -> ~chi_10 d  db)
     2.18327669E-05    3     1000023         1        -1   # BR(~g -> ~chi_20 d  db)
     1.72086770E-05    3     1000025         1        -1   # BR(~g -> ~chi_30 d  db)
     4.86373797E-02    3     1000022         2        -2   # BR(~g -> ~chi_10 u  ub)
     7.90119155E-05    3     1000023         2        -2   # BR(~g -> ~chi_20 u  ub)
     2.15898139E-05    3     1000025         2        -2   # BR(~g -> ~chi_30 u  ub)
     1.42611564E-02    3     1000022         3        -3   # BR(~g -> ~chi_10 s  sb)
     2.18327669E-05    3     1000023         3        -3   # BR(~g -> ~chi_20 s  sb)
     1.72086770E-05    3     1000025         3        -3   # BR(~g -> ~chi_30 s  sb)
     4.86373797E-02    3     1000022         4        -4   # BR(~g -> ~chi_10 c  cb)
     7.90119155E-05    3     1000023         4        -4   # BR(~g -> ~chi_20 c  cb)
     2.15898139E-05    3     1000025         4        -4   # BR(~g -> ~chi_30 c  cb)
     1.44864691E-02    3     1000022         5        -5   # BR(~g -> ~chi_10 b  bb)
     5.04152575E-03    3     1000023         5        -5   # BR(~g -> ~chi_20 b  bb)
     5.00326631E-03    3     1000025         5        -5   # BR(~g -> ~chi_30 b  bb)
     5.07985831E-02    3     1000022         6        -6   # BR(~g -> ~chi_10 t  tb)
     1.97157687E-01    3     1000023         6        -6   # BR(~g -> ~chi_20 t  tb)
     1.87411135E-01    3     1000025         6        -6   # BR(~g -> ~chi_30 t  tb)
     6.29748391E-05    3     1000024         1        -2   # BR(~g -> ~chi_1+ d  ub)
     6.29748391E-05    3    -1000024         2        -1   # BR(~g -> ~chi_1- u  db)
     6.29748391E-05    3     1000024         3        -4   # BR(~g -> ~chi_1+ s  cb)
     6.29748391E-05    3    -1000024         4        -3   # BR(~g -> ~chi_1- c  sb)
     2.03330706E-01    3     1000024         5        -6   # BR(~g -> ~chi_1+ b  tb)
     2.03330706E-01    3    -1000024         6        -5   # BR(~g -> ~chi_1- t  bb)
#
#         PDG            Width
DECAY   1000006     2.56262867E+02   # stop1 decays
#          BR         NDA      ID1       ID2
     3.48030100E-02    2     1000022         6   # BR(~t_1 -> ~chi_10 t )
     1.20506071E-01    2     1000023         6   # BR(~t_1 -> ~chi_20 t )
     1.15734414E-01    2     1000025         6   # BR(~t_1 -> ~chi_30 t )
     7.88383976E-03    2     1000035         6   # BR(~t_1 -> ~chi_40 t )
     1.77711805E-01    2     1000024         5   # BR(~t_1 -> ~chi_1+ b )
     1.57095214E-02    2     1000037         5   # BR(~t_1 -> ~chi_2+ b )
     5.27651339E-01    2     1000021         6   # BR(~t_1 -> ~g      t )
#
#         PDG            Width
DECAY   2000006     2.65468576E+02   # stop2 decays
#          BR         NDA      ID1       ID2
     1.27021997E-02    2     1000022         6   # BR(~t_2 -> ~chi_10 t )
     1.18948409E-01    2     1000023         6   # BR(~t_2 -> ~chi_20 t )
     1.24045886E-01    2     1000025         6   # BR(~t_2 -> ~chi_30 t )
     2.14300654E-02    2     1000035         6   # BR(~t_2 -> ~chi_40 t )
     6.83595441E-02    2     1000024         5   # BR(~t_2 -> ~chi_1+ b )
     4.26469556E-02    2     1000037         5   # BR(~t_2 -> ~chi_2+ b )
     6.07419006E-01    2     1000021         6   # BR(~t_2 -> ~g      t )
     1.01561397E-03    2     1000006        25   # BR(~t_2 -> ~t_1    h )
     3.43232098E-03    2     1000006        23   # BR(~t_2 -> ~t_1    Z )
#
#         PDG            Width
DECAY   1000005     2.39939563E+02   # sbottom1 decays
#          BR         NDA      ID1       ID2
     3.20428656E-03    2     1000022         5   # BR(~b_1 -> ~chi_10 b )
     3.36287246E-03    2     1000023         5   # BR(~b_1 -> ~chi_20 b )
     3.29098139E-03    2     1000025         5   # BR(~b_1 -> ~chi_30 b )
     3.17778020E-02    2     1000035         5   # BR(~b_1 -> ~chi_40 b )
     2.61086935E-01    2    -1000024         6   # BR(~b_1 -> ~chi_1- t )
     6.38361482E-02    2    -1000037         6   # BR(~b_1 -> ~chi_2- t )
     6.31231736E-01    2     1000021         5   # BR(~b_1 -> ~g      b )
     2.20923821E-03    2     1000006       -24   # BR(~b_1 -> ~t_1    W-)
#
#         PDG            Width
DECAY   2000005     1.61007306E+02   # sbottom2 decays
#          BR         NDA      ID1       ID2
     1.81958423E-02    2     1000022         5   # BR(~b_2 -> ~chi_10 b )
     5.02659858E-03    2     1000023         5   # BR(~b_2 -> ~chi_20 b )
     5.14312848E-03    2     1000025         5   # BR(~b_2 -> ~chi_30 b )
     2.26352355E-04    2     1000035         5   # BR(~b_2 -> ~chi_40 b )
     1.17861571E-02    2    -1000024         6   # BR(~b_2 -> ~chi_1- t )
     4.54680026E-04    2    -1000037         6   # BR(~b_2 -> ~chi_2- t )
     9.59095288E-01    2     1000021         5   # BR(~b_2 -> ~g      b )
     7.19529327E-05    2     1000006       -24   # BR(~b_2 -> ~t_1    W-)
#
#         PDG            Width
DECAY   1000002     1.80625649E+02   # sup_L decays
#          BR         NDA      ID1       ID2
     4.11745434E-03    2     1000022         2   # BR(~u_L -> ~chi_10 u)
     8.54229883E-05    2     1000023         2   # BR(~u_L -> ~chi_20 u)
     6.84015236E-06    2     1000025         2   # BR(~u_L -> ~chi_30 u)
     4.39229170E-02    2     1000035         2   # BR(~u_L -> ~chi_40 u)
     2.89299324E-04    2     1000024         1   # BR(~u_L -> ~chi_1+ d)
     8.77881012E-02    2     1000037         1   # BR(~u_L -> ~chi_2+ d)
     8.63789965E-01    2     1000021         2   # BR(~u_L -> ~g      u)
#
#         PDG            Width
DECAY   2000002     1.66308596E+02   # sup_R decays
#          BR         NDA      ID1       ID2
     7.11545083E-02    2     1000022         2   # BR(~u_R -> ~chi_10 u)
     7.60590879E-05    2     1000023         2   # BR(~u_R -> ~chi_20 u)
     8.81302749E-05    2     1000025         2   # BR(~u_R -> ~chi_30 u)
     4.53665999E-09    2     1000035         2   # BR(~u_R -> ~chi_40 u)
     9.28681298E-01    2     1000021         2   # BR(~u_R -> ~g      u)
#
#         PDG            Width
DECAY   1000001     1.80642987E+02   # sdown_L decays
#          BR         NDA      ID1       ID2
     4.10093792E-03    2     1000022         1   # BR(~d_L -> ~chi_10 d)
     2.55020848E-05    2     1000023         1   # BR(~d_L -> ~chi_20 d)
     5.08137582E-05    2     1000025         1   # BR(~d_L -> ~chi_30 d)
     4.39456272E-02    2     1000035         1   # BR(~d_L -> ~chi_40 d)
     1.03690867E-05    2    -1000024         2   # BR(~d_L -> ~chi_1- u)
     8.79270140E-02    2    -1000037         2   # BR(~d_L -> ~chi_2- u)
     8.63939736E-01    2     1000021         1   # BR(~d_L -> ~g      d)
#
#         PDG            Width
DECAY   2000001     1.57438760E+02   # sdown_R decays
#          BR         NDA      ID1       ID2
     1.87918961E-02    2     1000022         1   # BR(~d_R -> ~chi_10 d)
     2.00873353E-05    2     1000023         1   # BR(~d_R -> ~chi_20 d)
     2.32753573E-05    2     1000025         1   # BR(~d_R -> ~chi_30 d)
     1.19828602E-09    2     1000035         1   # BR(~d_R -> ~chi_40 d)
     9.81164740E-01    2     1000021         1   # BR(~d_R -> ~g      d)
#
#         PDG            Width
DECAY   1000004     1.80625649E+02   # scharm_L decays
#          BR         NDA      ID1       ID2
     4.11745434E-03    2     1000022         4   # BR(~c_L -> ~chi_10 c)
     8.54229883E-05    2     1000023         4   # BR(~c_L -> ~chi_20 c)
     6.84015236E-06    2     1000025         4   # BR(~c_L -> ~chi_30 c)
     4.39229170E-02    2     1000035         4   # BR(~c_L -> ~chi_40 c)
     2.89299324E-04    2     1000024         3   # BR(~c_L -> ~chi_1+ s)
     8.77881012E-02    2     1000037         3   # BR(~c_L -> ~chi_2+ s)
     8.63789965E-01    2     1000021         4   # BR(~c_L -> ~g      c)
#
#         PDG            Width
DECAY   2000004     1.66308596E+02   # scharm_R decays
#          BR         NDA      ID1       ID2
     7.11545083E-02    2     1000022         4   # BR(~c_R -> ~chi_10 c)
     7.60590879E-05    2     1000023         4   # BR(~c_R -> ~chi_20 c)
     8.81302749E-05    2     1000025         4   # BR(~c_R -> ~chi_30 c)
     4.53665999E-09    2     1000035         4   # BR(~c_R -> ~chi_40 c)
     9.28681298E-01    2     1000021         4   # BR(~c_R -> ~g      c)
#
#         PDG            Width
DECAY   1000003     1.80642987E+02   # sstrange_L decays
#          BR         NDA      ID1       ID2
     4.10093792E-03    2     1000022         3   # BR(~s_L -> ~chi_10 s)
     2.55020848E-05    2     1000023         3   # BR(~s_L -> ~chi_20 s)
     5.08137582E-05    2     1000025         3   # BR(~s_L -> ~chi_30 s)
     4.39456272E-02    2     1000035         3   # BR(~s_L -> ~chi_40 s)
     1.03690867E-05    2    -1000024         4   # BR(~s_L -> ~chi_1- c)
     8.79270140E-02    2    -1000037         4   # BR(~s_L -> ~chi_2- c)
     8.63939736E-01    2     1000021         3   # BR(~s_L -> ~g      s)
#
#         PDG            Width
DECAY   2000003     1.57438760E+02   # sstrange_R decays
#          BR         NDA      ID1       ID2
     1.87918961E-02    2     1000022         3   # BR(~s_R -> ~chi_10 s)
     2.00873353E-05    2     1000023         3   # BR(~s_R -> ~chi_20 s)
     2.32753573E-05    2     1000025         3   # BR(~s_R -> ~chi_30 s)
     1.19828602E-09    2     1000035         3   # BR(~s_R -> ~chi_40 s)
     9.81164740E-01    2     1000021         3   # BR(~s_R -> ~g      s)
#
#         PDG            Width
DECAY   1000011     3.02757617E+01   # selectron_L decays
#          BR         NDA      ID1       ID2
     2.26264885E-01    2     1000022        11   # BR(~e_L -> ~chi_10 e-)
     1.09870487E-03    2     1000023        11   # BR(~e_L -> ~chi_20 e-)
     2.19185759E-05    2     1000025        11   # BR(~e_L -> ~chi_30 e-)
     2.57341995E-01    2     1000035        11   # BR(~e_L -> ~chi_40 e-)
     6.31164674E-05    2    -1000024        12   # BR(~e_L -> ~chi_1- nu_e)
     5.15209380E-01    2    -1000037        12   # BR(~e_L -> ~chi_2- nu_e)
#
#         PDG            Width
DECAY   2000011     2.73740159E+01   # selectron_R decays
#          BR         NDA      ID1       ID2
     9.97707717E-01    2     1000022        11   # BR(~e_R -> ~chi_10 e-)
     1.06185744E-03    2     1000023        11   # BR(~e_R -> ~chi_20 e-)
     1.23036485E-03    2     1000025        11   # BR(~e_R -> ~chi_30 e-)
     6.10708151E-08    2     1000035        11   # BR(~e_R -> ~chi_40 e-)
#
#         PDG            Width
DECAY   1000013     3.02757617E+01   # smuon_L decays
#          BR         NDA      ID1       ID2
     2.26264885E-01    2     1000022        13   # BR(~mu_L -> ~chi_10 mu-)
     1.09870487E-03    2     1000023        13   # BR(~mu_L -> ~chi_20 mu-)
     2.19185759E-05    2     1000025        13   # BR(~mu_L -> ~chi_30 mu-)
     2.57341995E-01    2     1000035        13   # BR(~mu_L -> ~chi_40 mu-)
     6.31164674E-05    2    -1000024        14   # BR(~mu_L -> ~chi_1- nu_mu)
     5.15209380E-01    2    -1000037        14   # BR(~mu_L -> ~chi_2- nu_mu)
#
#         PDG            Width
DECAY   2000013     2.73740159E+01   # smuon_R decays
#          BR         NDA      ID1       ID2
     9.97707717E-01    2     1000022        13   # BR(~mu_R -> ~chi_10 mu-)
     1.06185744E-03    2     1000023        13   # BR(~mu_R -> ~chi_20 mu-)
     1.23036485E-03    2     1000025        13   # BR(~mu_R -> ~chi_30 mu-)
     6.10708151E-08    2     1000035        13   # BR(~mu_R -> ~chi_40 mu-)
#
#         PDG            Width
DECAY   1000015     2.91454307E+01   # stau_1 decays
#          BR         NDA      ID1       ID2
     9.30372867E-01    2     1000022        15   # BR(~tau_1 -> ~chi_10  tau-)
     1.60462855E-02    2     1000023        15   # BR(~tau_1 -> ~chi_20  tau-)
     1.53741841E-02    2     1000025        15   # BR(~tau_1 -> ~chi_30  tau-)
     2.73321201E-03    2     1000035        15   # BR(~tau_1 -> ~chi_40  tau-)
     3.00016776E-02    2    -1000024        16   # BR(~tau_1 -> ~chi_1-  nu_tau)
     5.47177377E-03    2    -1000037        16   # BR(~tau_1 -> ~chi_2-  nu_tau)
#
#         PDG            Width
DECAY   2000015     3.11184818E+01   # stau_2 decays
#          BR         NDA      ID1       ID2
     2.26333482E-01    2     1000022        15   # BR(~tau_2 -> ~chi_10  tau-)
     1.51061078E-02    2     1000023        15   # BR(~tau_2 -> ~chi_20  tau-)
     1.47756731E-02    2     1000025        15   # BR(~tau_2 -> ~chi_30  tau-)
     2.47729654E-01    2     1000035        15   # BR(~tau_2 -> ~chi_40  tau-)
     8.94339321E-05    2    -1000024        16   # BR(~tau_2 -> ~chi_1-  nu_tau)
     4.95965648E-01    2    -1000037        16   # BR(~tau_2 -> ~chi_2-  nu_tau)
#
#         PDG            Width
DECAY   1000012     3.02786690E+01   # snu_eL decays
#          BR         NDA      ID1       ID2
     2.25897632E-01    2     1000022        12   # BR(~nu_eL -> ~chi_10 nu_e)
     4.47355167E-06    2     1000023        12   # BR(~nu_eL -> ~chi_20 nu_e)
     8.24650719E-04    2     1000025        12   # BR(~nu_eL -> ~chi_30 nu_e)
     2.57391201E-01    2     1000035        12   # BR(~nu_eL -> ~chi_40 nu_e)
     1.76043146E-03    2     1000024        11   # BR(~nu_eL -> ~chi_1+ e-)
     5.14121612E-01    2     1000037        11   # BR(~nu_eL -> ~chi_2+ e-)
#
#         PDG            Width
DECAY   1000014     3.02786690E+01   # snu_muL decays
#          BR         NDA      ID1       ID2
     2.25897632E-01    2     1000022        14   # BR(~nu_muL -> ~chi_10 nu_mu)
     4.47355167E-06    2     1000023        14   # BR(~nu_muL -> ~chi_20 nu_mu)
     8.24650719E-04    2     1000025        14   # BR(~nu_muL -> ~chi_30 nu_mu)
     2.57391201E-01    2     1000035        14   # BR(~nu_muL -> ~chi_40 nu_mu)
     1.76043146E-03    2     1000024        13   # BR(~nu_muL -> ~chi_1+ mu-)
     5.14121612E-01    2     1000037        13   # BR(~nu_muL -> ~chi_2+ mu-)
#
#         PDG            Width
DECAY   1000016     3.11471286E+01   # snu_tauL decays
#          BR         NDA      ID1       ID2
     2.19575082E-01    2     1000022        16   # BR(~nu_tauL -> ~chi_10 nu_tau)
     4.34828066E-06    2     1000023        16   # BR(~nu_tauL -> ~chi_20 nu_tau)
     8.01558308E-04    2     1000025        16   # BR(~nu_tauL -> ~chi_30 nu_tau)
     2.50121638E-01    2     1000035        16   # BR(~nu_tauL -> ~chi_40 nu_tau)
     2.98967300E-02    2     1000024        15   # BR(~nu_tauL -> ~chi_1+ tau-)
     4.99600644E-01    2     1000037        15   # BR(~nu_tauL -> ~chi_2+ tau-)
#
#         PDG            Width
DECAY   1000024     5.46076220E-01   # chargino1+ decays
#          BR         NDA      ID1       ID2
     1.00000000E+00    2     1000022        24   # BR(~chi_1+ -> ~chi_10  W+)
#
#         PDG            Width
DECAY   1000037     2.07614183E+01   # chargino2+ decays
#          BR         NDA      ID1       ID2
     2.53279661E-01    2     1000024        23   # BR(~chi_2+ -> ~chi_1+  Z )
     1.91057384E-04    2     1000022        24   # BR(~chi_2+ -> ~chi_10  W+)
     2.44261306E-01    2     1000023        24   # BR(~chi_2+ -> ~chi_20  W+)
     2.44158837E-01    2     1000025        24   # BR(~chi_2+ -> ~chi_30  W+)
     2.58107666E-01    2     1000024        25   # BR(~chi_2+ -> ~chi_1+  h )
     1.47257872E-06    2     1000022        37   # BR(~chi_2+ -> ~chi_10  H+)
#
#         PDG            Width
DECAY   1000022     0.00000000E+00   # neutralino1 decays
#
#         PDG            Width
DECAY   1000023     5.68901084E-01   # neutralino2 decays
#          BR         NDA      ID1       ID2
     5.35270462E-01    2     1000022        23   # BR(~chi_20 -> ~chi_10   Z )
     4.64729538E-01    2     1000022        25   # BR(~chi_20 -> ~chi_10   h )
#
#         PDG            Width
DECAY   1000025     5.70399464E-01   # neutralino3 decays
#          BR         NDA      ID1       ID2
     4.58684746E-01    2     1000022        23   # BR(~chi_30 -> ~chi_10   Z )
     5.41315254E-01    2     1000022        25   # BR(~chi_30 -> ~chi_10   h )
#
#         PDG            Width
DECAY   1000035     2.07771306E+01   # neutralino4 decays
#          BR         NDA      ID1       ID2
     4.00064567E-05    2     1000022        23   # BR(~chi_40 -> ~chi_10   Z )
     8.03620325E-02    2     1000023        23   # BR(~chi_40 -> ~chi_20   Z )
     1.72222782E-01    2     1000025        23   # BR(~chi_40 -> ~chi_30   Z )
     2.44857876E-01    2     1000024       -24   # BR(~chi_40 -> ~chi_1+   W-)
     2.44857876E-01    2    -1000024        24   # BR(~chi_40 -> ~chi_1-   W+)
     1.50926655E-04    2     1000022        25   # BR(~chi_40 -> ~chi_10   h )
     1.40370166E-06    2     1000022        35   # BR(~chi_40 -> ~chi_10   H )
     1.67820120E-07    2     1000022        36   # BR(~chi_40 -> ~chi_10   A )
     1.76906830E-01    2     1000023        25   # BR(~chi_40 -> ~chi_20   h )
     8.06000990E-02    2     1000025        25   # BR(~chi_40 -> ~chi_30   h )
#
#         PDG            Width
DECAY        25     4.05676732E-03   # h decays
#          BR         NDA      ID1       ID2
     6.06915004E-01    2           5        -5   # BR(h -> b       bb     )
     6.39580816E-02    2         -15        15   # BR(h -> tau+    tau-   )
     2.26434684E-04    2         -13        13   # BR(h -> mu+     mu-    )
     4.79997513E-04    2           3        -3   # BR(h -> s       sb     )
     2.07986695E-02    2           4        -4   # BR(h -> c       cb     )
     6.73261979E-02    2          21        21   # BR(h -> g       g      )
     2.31560301E-03    2          22        22   # BR(h -> gam     gam    )
     1.49660390E-03    2          22        23   # BR(h -> Z       gam    )
     2.11230193E-01    2          24       -24   # BR(h -> W+      W-     )
     2.51882501E-02    2          23        23   # BR(h -> Z       Z      )
     6.49652387E-05    2     1000022   1000022   # BR(h -> ~chi_10 ~chi_10)
#
#         PDG            Width
DECAY        35     8.24370004E+00   # H decays
#          BR         NDA      ID1       ID2
     3.91049569E-01    2           5        -5   # BR(H -> b       bb     )
     6.75678231E-02    2         -15        15   # BR(H -> tau+    tau-   )
     2.38925190E-04    2         -13        13   # BR(H -> mu+     mu-    )
     2.92885675E-04    2           3        -3   # BR(H -> s       sb     )
     1.63895127E-06    2           4        -4   # BR(H -> c       cb     )
     1.63744210E-01    2           6        -6   # BR(H -> t       tb     )
     5.44258860E-05    2          21        21   # BR(H -> g       g      )
     2.37960891E-07    2          22        22   # BR(H -> gam     gam    )
     9.66864066E-08    2          23        22   # BR(H -> Z       gam    )
     7.61365830E-05    2          24       -24   # BR(H -> W+      W-     )
     3.80201065E-05    2          23        23   # BR(H -> Z       Z      )
     2.80593724E-04    2          25        25   # BR(H -> h       h      )
    -2.50004775E-24    2          36        36   # BR(H -> A       A      )
     6.50617949E-19    2          23        36   # BR(H -> Z       A      )
     2.29813703E-03    2     1000024  -1000024   # BR(H -> ~chi_1+ ~chi_1-)
     2.16282795E-03    2     1000022   1000022   # BR(H -> ~chi_10 ~chi_10)
     1.59435648E-05    2     1000023   1000023   # BR(H -> ~chi_20 ~chi_20)
     7.54275236E-04    2     1000025   1000025   # BR(H -> ~chi_30 ~chi_30)
     2.23073295E-01    2     1000022   1000023   # BR(H -> ~chi_10 ~chi_20)
     1.47607948E-01    2     1000022   1000025   # BR(H -> ~chi_10 ~chi_30)
     7.43010773E-04    2     1000023   1000025   # BR(H -> ~chi_20 ~chi_30)
#
#         PDG            Width
DECAY        36     8.25773252E+00   # A decays
#          BR         NDA      ID1       ID2
     3.90516387E-01    2           5        -5   # BR(A -> b       bb     )
     6.74548832E-02    2         -15        15   # BR(A -> tau+    tau-   )
     2.38525492E-04    2         -13        13   # BR(A -> mu+     mu-    )
     2.92609533E-04    2           3        -3   # BR(A -> s       sb     )
     1.64282418E-06    2           4        -4   # BR(A -> c       cb     )
     1.64040586E-01    2           6        -6   # BR(A -> t       tb     )
     1.62321591E-04    2          21        21   # BR(A -> g       g      )
     5.87849760E-07    2          22        22   # BR(A -> gam     gam    )
     1.96589651E-07    2          23        22   # BR(A -> Z       gam    )
     7.57190611E-05    2          23        25   # BR(A -> Z       h      )
     3.30896406E-03    2     1000024  -1000024   # BR(A -> ~chi_1+ ~chi_1-)
     2.19703496E-03    2     1000022   1000022   # BR(A -> ~chi_10 ~chi_10)
     1.62622360E-05    2     1000023   1000023   # BR(A -> ~chi_20 ~chi_20)
     1.80482980E-03    2     1000025   1000025   # BR(A -> ~chi_30 ~chi_30)
     1.49621774E-01    2     1000022   1000023   # BR(A -> ~chi_10 ~chi_20)
     2.19990856E-01    2     1000022   1000025   # BR(A -> ~chi_10 ~chi_30)
     2.76820100E-04    2     1000023   1000025   # BR(A -> ~chi_20 ~chi_30)
#
#         PDG            Width
DECAY        37     8.22914859E+00   # H+ decays
#          BR         NDA      ID1       ID2
     6.29775667E-04    2           4        -5   # BR(H+ -> c       bb     )
     6.77212984E-02    2         -15        16   # BR(H+ -> tau+    nu_tau )
     2.39467555E-04    2         -13        14   # BR(H+ -> mu+     nu_mu  )
     4.03054343E-06    2           2        -5   # BR(H+ -> u       bb     )
     1.40511300E-05    2           2        -3   # BR(H+ -> u       sb     )
     2.90578812E-04    2           4        -3   # BR(H+ -> c       sb     )
     5.54806110E-01    2           6        -5   # BR(H+ -> t       bb     )
     7.61392841E-05    2          24        25   # BR(H+ -> W+      h      )
     9.32211338E-13    2          24        36   # BR(H+ -> W+      A      )
     3.75076249E-01    2     1000024   1000022   # BR(H+ -> ~chi_1+ ~chi_10)
     1.12057201E-03    2     1000024   1000023   # BR(H+ -> ~chi_1+ ~chi_20)
     2.17277471E-05    2     1000024   1000025   # BR(H+ -> ~chi_1+ ~chi_30)
