#
#                              ======================
#                              | THE SUSYHIT OUTPUT |
#                              ======================
#
#
#              ------------------------------------------------------
#              |     This is the output of the SUSY-HIT package     |
#              |  created by A.Djouadi, M.Muehlleitner and M.Spira. |
#              |  In case of problems with SUSY-HIT email to        |
#              |           margarete.muehlleitner@kit.edu           |
#              |           michael.spira@psi.ch                     |
#              |           abdelhak.djouadi@cern.ch                 |
#              ------------------------------------------------------
#
#              ------------------------------------------------------
#              |  SUSY Les Houches Accord - MSSM Spectrum + Decays  |
#              |              based on the decay programs           |
#              |                                                    |
#              |                     SDECAY 1.5                     |
#              |                                                    |
#              |  Authors: M.Muhlleitner, A.Djouadi and Y.Mambrini  |
#              |  Ref.:    Comput.Phys.Commun.168(2005)46           |
#              |           [hep-ph/0311167]                         |
#              |                                                    |
#              |                     HDECAY 3.4                     |
#              |                                                    |
#              |  By: A.Djouadi,J.Kalinowski,M.Muhlleitner,M.Spira  |
#              |  Ref.:    Comput.Phys.Commun.108(1998)56           |
#              |           [hep-ph/9704448]                         |
#              |                                                    |
#              |                                                    |
#              |  If not stated otherwise all DRbar couplings and   |
#              |  soft SUSY breaking masses are given at the scale  |
#              |  Q=  0.91187600E+02
#              |                                                    |
#              ------------------------------------------------------
#
#
BLOCK DCINFO  # Decay Program information
     1   SDECAY/HDECAY # decay calculator
     2   1.5  /3.4    # version number
#
BLOCK SPINFO  # Spectrum calculator information
     1   SuSpect     # RGE +Spectrum calculator            
     2   2.43         # version number                     
#
BLOCK MODSEL  # Model selection
     1     2   # GMSB                                              
#
BLOCK SMINPUTS  # Standard Model inputs
         1     1.27932904E+02   # alpha_em^-1(M_Z)^MSbar
         2     1.16639000E-05   # G_F [GeV^-2]
         3     1.17200000E-01   # alpha_S(M_Z)^MSbar
         4     9.11870000E+01   # M_Z pole mass
         5     4.25000000E+00   # mb(mb)^MSbar
         6     1.72900000E+02   # mt pole mass
         7     1.77700000E+00   # mtau pole mass
#
BLOCK MINPAR  # Input parameters - minimal models
#
BLOCK EXTPAR  # Input parameters - non-minimal models
         0     9.11876000E+01   # EWSB                
         1     8.54000000E+02   # M_1                 
         2     3.00000000E+03   # M_2                 
         3     1.80000000E+03   # M_3                 
        11     0.00000000E+00   # A_t                 
        12     0.00000000E+00   # A_b                 
        13     0.00000000E+00   # A_tau               
        14     0.00000000E+00   # A_u                 
        15     0.00000000E+00   # A_d                 
        16     0.00000000E+00   # A_e                 
        23     8.50000000E+02   # mu(EWSB)            
        25     1.50000000E+00   # tanbeta(in)         
        26     2.00000000E+03   # MA_pole             
        31     5.00000000E+03   # M_eL                
        32     5.00000000E+03   # M_muL               
        33     5.00000000E+03   # M_tauL              
        34     5.00000000E+03   # M_eR                
        35     5.00000000E+03   # M_muR               
        36     5.00000000E+03   # M_tauR              
        41     5.00000000E+03   # M_q1L               
        42     5.00000000E+03   # M_q2L               
        43     5.00000000E+03   # M_q3L               
        44     5.00000000E+03   # M_uR                
        45     5.00000000E+03   # M_cR                
        46     5.00000000E+03   # M_tR                
        47     5.00000000E+03   # M_dR                
        48     5.00000000E+03   # M_sR                
        49     5.00000000E+03   # M_bR                
#
BLOCK MASS  # Mass Spectrum
# PDG code           mass       particle
        24     8.05400814E+01   # W+
        25     1.26000000E+02   # h
        35     2.00404230E+03   # H
        36     2.00000000E+03   # A
        37     2.00148180E+03   # H+
         5     4.87877839E+00   # b-quark pole mass calculated from mb(mb)_Msbar
   1000001     4.96252856E+03   # ~d_L
   2000001     4.96241863E+03   # ~d_R
   1000002     4.96228280E+03   # ~u_L
   2000002     4.96234094E+03   # ~u_R
   1000003     4.96252856E+03   # ~s_L
   2000003     4.96241863E+03   # ~s_R
   1000004     4.96228280E+03   # ~c_L
   2000004     4.96234094E+03   # ~c_R
   1000005     4.96211989E+03   # ~b_1
   2000005     4.96282875E+03   # ~b_2
   1000006     5.08900179E+03   # ~t_1
   2000006     5.38776964E+03   # ~t_2
   1000011     5.00008227E+03   # ~e_L
   2000011     5.00007605E+03   # ~e_R
   1000012     4.99984168E+03   # ~nu_eL
   1000013     5.00008227E+03   # ~mu_L
   2000013     5.00007605E+03   # ~mu_R
   1000014     4.99984168E+03   # ~nu_muL
   1000015     4.99985276E+03   # ~tau_1
   2000015     5.00030618E+03   # ~tau_2
   1000016     4.99984168E+03   # ~nu_tauL
   1000021     1.88524456E+03   # ~g
   1000022     8.62246093E+02   # ~chi_10
   1000023    -9.09005731E+02   # ~chi_20
   1000025     9.49394761E+02   # ~chi_30
   1000035     3.12892883E+03   # ~chi_40
   1000024     9.06254325E+02   # ~chi_1+
   1000037     3.12892785E+03   # ~chi_2+
   1000039     1.00000000E-09   # ~gravitino
#
BLOCK NMIX  # Neutralino Mixing Matrix
  1  1     7.10129799E-01   # N_11
  1  2    -2.40793210E-02   # N_12
  1  3     5.00176526E-01   # N_13
  1  4    -4.94933629E-01   # N_14
  2  1     4.81286223E-03   # N_21
  2  2    -3.84922066E-03   # N_22
  2  3    -7.06895584E-01   # N_23
  2  4    -7.07291067E-01   # N_24
  3  1     7.04053986E-01   # N_31
  3  2     2.53069892E-02   # N_32
  3  3    -4.99638788E-01   # N_33
  3  4     5.04012523E-01   # N_34
  4  1     6.99949786E-04   # N_41
  4  2    -9.99382272E-01   # N_42
  4  3    -2.19808456E-02   # N_43
  4  4     2.74121578E-02   # N_44
#
BLOCK UMIX  # Chargino Mixing Matrix U
  1  1    -3.10717698E-02   # U_11
  1  2     9.99517156E-01   # U_12
  2  1     9.99517156E-01   # U_21
  2  2     3.10717698E-02   # U_22
#
BLOCK VMIX  # Chargino Mixing Matrix V
  1  1    -3.87549443E-02   # V_11
  1  2     9.99248745E-01   # V_12
  2  1     9.99248745E-01   # V_21
  2  2     3.87549443E-02   # V_22
#
BLOCK STOPMIX  # Stop Mixing Matrix
  1  1     9.99975266E-01   # cos(theta_t)
  1  2    -7.03330564E-03   # sin(theta_t)
  2  1     7.03330564E-03   # -sin(theta_t)
  2  2     9.99975266E-01   # cos(theta_t)
#
BLOCK SBOTMIX  # Sbottom Mixing Matrix
  1  1     6.49968026E-01   # cos(theta_b)
  1  2     7.59961555E-01   # sin(theta_b)
  2  1    -7.59961555E-01   # -sin(theta_b)
  2  2     6.49968026E-01   # cos(theta_b)
#
BLOCK STAUMIX  # Stau Mixing Matrix
  1  1     7.02237735E-01   # cos(theta_tau)
  1  2     7.11942528E-01   # sin(theta_tau)
  2  1    -7.11942528E-01   # -sin(theta_tau)
  2  2     7.02237735E-01   # cos(theta_tau)
#
BLOCK ALPHA  # Higgs mixing
          -5.90207955E-01   # Mixing angle in the neutral Higgs boson sector
#
BLOCK HMIX Q=  9.11876000E+01  # DRbar Higgs Parameters
         1     8.50000000E+02   # mu(Q)               
         2     1.49999979E+00   # tanbeta(Q)          
         3     2.52038350E+02   # vev(Q)              
         4     3.58973869E+06   # MA^2(Q)             
#
BLOCK GAUGE Q=  9.11876000E+01  # The gauge couplings
     1     3.52850438E-01   # gprime(Q) DRbar
     2     6.27603954E-01   # g(Q) DRbar
     3     1.08213370E+00   # g3(Q) DRbar
#
BLOCK AU Q=  9.11876000E+01  # The trilinear couplings
  1  1     0.00000000E+00   # A_u(Q) DRbar
  2  2     0.00000000E+00   # A_c(Q) DRbar
  3  3     0.00000000E+00   # A_t(Q) DRbar
#
BLOCK AD Q=  9.11876000E+01  # The trilinear couplings
  1  1     0.00000000E+00   # A_d(Q) DRbar
  2  2     0.00000000E+00   # A_s(Q) DRbar
  3  3     0.00000000E+00   # A_b(Q) DRbar
#
BLOCK AE Q=  9.11876000E+01  # The trilinear couplings
  1  1     0.00000000E+00   # A_e(Q) DRbar
  2  2     0.00000000E+00   # A_mu(Q) DRbar
  3  3     0.00000000E+00   # A_tau(Q) DRbar
#
BLOCK Yu Q=  9.11876000E+01  # The Yukawa couplings
  1  1     0.00000000E+00   # y_u(Q) DRbar
  2  2     0.00000000E+00   # y_c(Q) DRbar
  3  3     1.02603880E+00   # y_t(Q) DRbar
#
BLOCK Yd Q=  9.11876000E+01  # The Yukawa couplings
  1  1     0.00000000E+00   # y_d(Q) DRbar
  2  2     0.00000000E+00   # y_s(Q) DRbar
  3  3     2.71948618E-02   # y_b(Q) DRbar
#
BLOCK Ye Q=  9.11876000E+01  # The Yukawa couplings
  1  1     0.00000000E+00   # y_e(Q) DRbar
  2  2     0.00000000E+00   # y_mu(Q) DRbar
  3  3     1.79852211E-02   # y_tau(Q) DRbar
#
BLOCK MSOFT Q=  9.11876000E+01  # The soft SUSY breaking masses at the scale Q
         1     8.54000000E+02   # M_1                 
         2     3.00000000E+03   # M_2                 
         3     1.80000000E+03   # M_3                 
        14     0.00000000E+00   # A_u                 
        15     0.00000000E+00   # A_d                 
        16     0.00000000E+00   # A_e                 
        21     2.24372019E+06   # M^2_Hd              
        22    -6.10573880E+06   # M^2_Hu              
        31     5.00000000E+03   # M_eL                
        32     5.00000000E+03   # M_muL               
        33     5.00000000E+03   # M_tauL              
        34     5.00000000E+03   # M_eR                
        35     5.00000000E+03   # M_muR               
        36     5.00000000E+03   # M_tauR              
        41     5.00000000E+03   # M_q1L               
        42     5.00000000E+03   # M_q2L               
        43     5.00000000E+03   # M_q3L               
        44     5.00000000E+03   # M_uR                
        45     5.00000000E+03   # M_cR                
        46     5.00000000E+03   # M_tR                
        47     5.00000000E+03   # M_dR                
        48     5.00000000E+03   # M_sR                
        49     5.00000000E+03   # M_bR                
#
#
#
#                             =================
#                             |The decay table|
#                             =================
#
# - The QCD corrections to the decays gluino -> squark  + quark
#                                     squark -> gaugino + quark_prime
#                                     squark -> squark_prime + Higgs
#                                     squark -> gluino  + quark
#   are included.
#
# - The multi-body decays for the inos, stops and sbottoms are included.
#
# - The loop induced decays for the gluino, neutralinos and stops
#   are included.
#
# - The SUSY decays of the top quark are included.
#
# - Possible decays of the NLSP in GMSB models are included.
#
#
#         PDG            Width
DECAY         6     1.37240238E+00   # top decays
#          BR         NDA      ID1       ID2
     1.00000000E+00    2           5        24   # BR(t ->  b    W+)
#
#         PDG            Width
DECAY   1000021     5.38405208E-04   # gluino decays
#          BR         NDA      ID1       ID2
     1.08550712E-02    2     1000022        21   # BR(~g -> ~chi_10 g)
     2.00517802E-02    2     1000023        21   # BR(~g -> ~chi_20 g)
     9.13174552E-03    2     1000025        21   # BR(~g -> ~chi_30 g)
#          BR         NDA      ID1       ID2
0.0E+00    2     1000039    21 # BR(~g -> ~G      g)
#           BR         NDA      ID1       ID2       ID3
     6.29448475E-03    3     1000022         1        -1   # BR(~g -> ~chi_10 d  db)
     5.59906813E-07    3     1000023         1        -1   # BR(~g -> ~chi_20 d  db)
     3.87613804E-03    3     1000025         1        -1   # BR(~g -> ~chi_30 d  db)
     1.94535927E-02    3     1000022         2        -2   # BR(~g -> ~chi_10 u  ub)
     4.70565645E-07    3     1000023         2        -2   # BR(~g -> ~chi_20 u  ub)
     1.45125643E-02    3     1000025         2        -2   # BR(~g -> ~chi_30 u  ub)
     6.29448475E-03    3     1000022         3        -3   # BR(~g -> ~chi_10 s  sb)
     5.59906813E-07    3     1000023         3        -3   # BR(~g -> ~chi_20 s  sb)
     3.87613804E-03    3     1000025         3        -3   # BR(~g -> ~chi_30 s  sb)
     1.94535927E-02    3     1000022         4        -4   # BR(~g -> ~chi_10 c  cb)
     4.70565645E-07    3     1000023         4        -4   # BR(~g -> ~chi_20 c  cb)
     1.45125643E-02    3     1000025         4        -4   # BR(~g -> ~chi_30 c  cb)
     6.38925077E-03    3     1000022         5        -5   # BR(~g -> ~chi_10 b  bb)
     2.18863526E-04    3     1000023         5        -5   # BR(~g -> ~chi_20 b  bb)
     3.99094978E-03    3     1000025         5        -5   # BR(~g -> ~chi_30 b  bb)
     1.01726560E-01    3     1000022         6        -6   # BR(~g -> ~chi_10 t  tb)
     1.61162144E-01    3     1000023         6        -6   # BR(~g -> ~chi_20 t  tb)
     1.01031952E-01    3     1000025         6        -6   # BR(~g -> ~chi_30 t  tb)
     1.38105404E-04    3     1000024         1        -2   # BR(~g -> ~chi_1+ d  ub)
     1.38105404E-04    3    -1000024         2        -1   # BR(~g -> ~chi_1- u  db)
     1.38105404E-04    3     1000024         3        -4   # BR(~g -> ~chi_1+ s  cb)
     1.38105404E-04    3    -1000024         4        -3   # BR(~g -> ~chi_1- c  sb)
     2.22845223E-01    3     1000024         5        -6   # BR(~g -> ~chi_1+ b  tb)
     2.22845223E-01    3    -1000024         6        -5   # BR(~g -> ~chi_1- t  bb)
#
#         PDG            Width
DECAY   1000006     2.94086167E+02   # stop1 decays
#          BR         NDA      ID1       ID2
     5.66905935E-02    2     1000022         6   # BR(~t_1 -> ~chi_10 t )
     1.16509373E-01    2     1000023         6   # BR(~t_1 -> ~chi_20 t )
     6.17552469E-02    2     1000025         6   # BR(~t_1 -> ~chi_30 t )
     2.55930668E-02    2     1000035         6   # BR(~t_1 -> ~chi_40 t )
     2.05177498E-05    2     1000024         5   # BR(~t_1 -> ~chi_1+ b )
     5.09280823E-02    2     1000037         5   # BR(~t_1 -> ~chi_2+ b )
     6.72205814E-01    2     1000021         6   # BR(~t_1 -> ~g      t )
     6.99637350E-03    2     1000005        24   # BR(~t_1 -> ~b_1    W+)
     9.30093271E-03    2     2000005        24   # BR(~t_1 -> ~b_2    W+)
#
#         PDG            Width
DECAY   2000006     3.71507257E+02   # stop2 decays
#          BR         NDA      ID1       ID2
     6.43853236E-02    2     1000022         6   # BR(~t_2 -> ~chi_10 t )
     9.89157725E-02    2     1000023         6   # BR(~t_2 -> ~chi_20 t )
     6.33753541E-02    2     1000025         6   # BR(~t_2 -> ~chi_30 t )
    -1.18376811E-05    2     1000035         6   # BR(~t_2 -> ~chi_40 t )
     1.98102204E-01    2     1000024         5   # BR(~t_2 -> ~chi_1+ b )
    -2.33162933E-05    2     1000037         5   # BR(~t_2 -> ~chi_2+ b )
     5.75301155E-01    2     1000021         6   # BR(~t_2 -> ~g      t )
    -8.99346822E-05    2     1000006        25   # BR(~t_2 -> ~t_1    h )
     7.11075933E-06    2     1000006        23   # BR(~t_2 -> ~t_1    Z )
     1.61493332E-05    2     1000005        24   # BR(~t_2 -> ~b_1    W+)
     2.20194986E-05    2     2000005        24   # BR(~t_2 -> ~b_2    W+)
#
#         PDG            Width
DECAY   1000005     2.23758097E+02   # sbottom1 decays
#          BR         NDA      ID1       ID2
     5.16221421E-03    2     1000022         5   # BR(~b_1 -> ~chi_10 b )
     8.78060568E-05    2     1000023         5   # BR(~b_1 -> ~chi_20 b )
     3.08688404E-03    2     1000025         5   # BR(~b_1 -> ~chi_30 b )
     1.11047846E-02    2     1000035         5   # BR(~b_1 -> ~chi_40 b )
     1.01683221E-01    2    -1000024         6   # BR(~b_1 -> ~chi_1- t )
     2.23176486E-02    2    -1000037         6   # BR(~b_1 -> ~chi_2- t )
     8.56557441E-01    2     1000021         5   # BR(~b_1 -> ~g      b )
#
#         PDG            Width
DECAY   2000005     2.49871877E+02   # sbottom2 decays
#          BR         NDA      ID1       ID2
     2.21883465E-03    2     1000022         5   # BR(~b_2 -> ~chi_10 b )
     1.11915683E-04    2     1000023         5   # BR(~b_2 -> ~chi_20 b )
     2.97530425E-03    2     1000025         5   # BR(~b_2 -> ~chi_30 b )
     1.74258039E-02    2     1000035         5   # BR(~b_2 -> ~chi_40 b )
     1.75640310E-01    2    -1000024         6   # BR(~b_2 -> ~chi_1- t )
     3.50323774E-02    2    -1000037         6   # BR(~b_2 -> ~chi_2- t )
     7.66595454E-01    2     1000021         5   # BR(~b_2 -> ~g      b )
#
#         PDG            Width
DECAY   1000002     2.12789329E+02   # sup_L decays
#          BR         NDA      ID1       ID2
     9.85203710E-04    2     1000022         2   # BR(~u_L -> ~chi_10 u)
     7.15303489E-07    2     1000023         2   # BR(~u_L -> ~chi_20 u)
     2.02356129E-03    2     1000025         2   # BR(~u_L -> ~chi_30 u)
     3.21160190E-02    2     1000035         2   # BR(~u_L -> ~chi_40 u)
     2.47467561E-04    2     1000024         1   # BR(~u_L -> ~chi_1+ d)
     6.42317882E-02    2     1000037         1   # BR(~u_L -> ~chi_2+ d)
     9.00395245E-01    2     1000021         2   # BR(~u_L -> ~g      u)
#
#         PDG            Width
DECAY   2000002     2.01448911E+02   # sup_R decays
#          BR         NDA      ID1       ID2
     2.48199014E-02    2     1000022         2   # BR(~u_R -> ~chi_10 u)
     1.13223937E-06    2     1000023         2   # BR(~u_R -> ~chi_20 u)
     2.40779610E-02    2     1000025         2   # BR(~u_R -> ~chi_30 u)
     9.35399181E-09    2     1000035         2   # BR(~u_R -> ~chi_40 u)
     9.51100996E-01    2     1000021         2   # BR(~u_R -> ~g      u)
#
#         PDG            Width
DECAY   1000001     2.12794883E+02   # sdown_L decays
#          BR         NDA      ID1       ID2
     2.04811557E-03    2     1000022         1   # BR(~d_L -> ~chi_10 d)
     1.85895794E-06    2     1000023         1   # BR(~d_L -> ~chi_20 d)
     9.30591696E-04    2     1000025         1   # BR(~d_L -> ~chi_30 d)
     3.21378015E-02    2     1000035         1   # BR(~d_L -> ~chi_40 d)
     1.59077715E-04    2    -1000024         2   # BR(~d_L -> ~chi_1- u)
     6.42761327E-02    2    -1000037         2   # BR(~d_L -> ~chi_2- u)
     9.00446422E-01    2     1000021         1   # BR(~d_L -> ~g      d)
#
#         PDG            Width
DECAY   2000001     1.94065990E+02   # sdown_R decays
#          BR         NDA      ID1       ID2
     6.44114765E-03    2     1000022         1   # BR(~d_R -> ~chi_10 d)
     2.93833665E-07    2     1000023         1   # BR(~d_R -> ~chi_20 d)
     6.24860533E-03    2     1000025         1   # BR(~d_R -> ~chi_30 d)
     2.42759969E-09    2     1000035         1   # BR(~d_R -> ~chi_40 d)
     9.87309951E-01    2     1000021         1   # BR(~d_R -> ~g      d)
#
#         PDG            Width
DECAY   1000004     2.12789329E+02   # scharm_L decays
#          BR         NDA      ID1       ID2
     9.85203710E-04    2     1000022         4   # BR(~c_L -> ~chi_10 c)
     7.15303489E-07    2     1000023         4   # BR(~c_L -> ~chi_20 c)
     2.02356129E-03    2     1000025         4   # BR(~c_L -> ~chi_30 c)
     3.21160190E-02    2     1000035         4   # BR(~c_L -> ~chi_40 c)
     2.47467561E-04    2     1000024         3   # BR(~c_L -> ~chi_1+ s)
     6.42317882E-02    2     1000037         3   # BR(~c_L -> ~chi_2+ s)
     9.00395245E-01    2     1000021         4   # BR(~c_L -> ~g      c)
#
#         PDG            Width
DECAY   2000004     2.01448911E+02   # scharm_R decays
#          BR         NDA      ID1       ID2
     2.48199014E-02    2     1000022         4   # BR(~c_R -> ~chi_10 c)
     1.13223937E-06    2     1000023         4   # BR(~c_R -> ~chi_20 c)
     2.40779610E-02    2     1000025         4   # BR(~c_R -> ~chi_30 c)
     9.35399181E-09    2     1000035         4   # BR(~c_R -> ~chi_40 c)
     9.51100996E-01    2     1000021         4   # BR(~c_R -> ~g      c)
#
#         PDG            Width
DECAY   1000003     2.12794883E+02   # sstrange_L decays
#          BR         NDA      ID1       ID2
     2.04811557E-03    2     1000022         3   # BR(~s_L -> ~chi_10 s)
     1.85895794E-06    2     1000023         3   # BR(~s_L -> ~chi_20 s)
     9.30591696E-04    2     1000025         3   # BR(~s_L -> ~chi_30 s)
     3.21378015E-02    2     1000035         3   # BR(~s_L -> ~chi_40 s)
     1.59077715E-04    2    -1000024         4   # BR(~s_L -> ~chi_1- c)
     6.42761327E-02    2    -1000037         4   # BR(~s_L -> ~chi_2- c)
     9.00446422E-01    2     1000021         3   # BR(~s_L -> ~g      s)
#
#         PDG            Width
DECAY   2000003     1.94065990E+02   # sstrange_R decays
#          BR         NDA      ID1       ID2
     6.44114765E-03    2     1000022         3   # BR(~s_R -> ~chi_10 s)
     2.93833665E-07    2     1000023         3   # BR(~s_R -> ~chi_20 s)
     6.24860533E-03    2     1000025         3   # BR(~s_R -> ~chi_30 s)
     2.42759969E-09    2     1000035         3   # BR(~s_R -> ~chi_40 s)
     9.87309951E-01    2     1000021         3   # BR(~s_R -> ~g      s)
#
#         PDG            Width
DECAY   1000011     2.75859716E+01   # selectron_L decays
#          BR         NDA      ID1       ID2
     9.41004549E-02    2     1000022        11   # BR(~e_L -> ~chi_10 e-)
     8.67999973E-07    2     1000023        11   # BR(~e_L -> ~chi_20 e-)
     1.17035555E-01    2     1000025        11   # BR(~e_L -> ~chi_30 e-)
     2.62341614E-01    2     1000035        11   # BR(~e_L -> ~chi_40 e-)
     1.28265333E-03    2    -1000024        12   # BR(~e_L -> ~chi_1- nu_e)
     5.25238855E-01    2    -1000037        12   # BR(~e_L -> ~chi_2- nu_e)
#
#         PDG            Width
DECAY   2000011     2.31682834E+01   # selectron_R decays
#          BR         NDA      ID1       ID2
     5.07548897E-01    2     1000022        11   # BR(~e_R -> ~chi_10 e-)
     2.31546662E-05    2     1000023        11   # BR(~e_R -> ~chi_20 e-)
     4.92427754E-01    2     1000025        11   # BR(~e_R -> ~chi_30 e-)
     1.93884116E-07    2     1000035        11   # BR(~e_R -> ~chi_40 e-)
#
#         PDG            Width
DECAY   1000013     2.75859716E+01   # smuon_L decays
#          BR         NDA      ID1       ID2
     9.41004549E-02    2     1000022        13   # BR(~mu_L -> ~chi_10 mu-)
     8.67999973E-07    2     1000023        13   # BR(~mu_L -> ~chi_20 mu-)
     1.17035555E-01    2     1000025        13   # BR(~mu_L -> ~chi_30 mu-)
     2.62341614E-01    2     1000035        13   # BR(~mu_L -> ~chi_40 mu-)
     1.28265333E-03    2    -1000024        14   # BR(~mu_L -> ~chi_1- nu_mu)
     5.25238855E-01    2    -1000037        14   # BR(~mu_L -> ~chi_2- nu_mu)
#
#         PDG            Width
DECAY   2000013     2.31682834E+01   # smuon_R decays
#          BR         NDA      ID1       ID2
     5.07548897E-01    2     1000022        13   # BR(~mu_R -> ~chi_10 mu-)
     2.31546662E-05    2     1000023        13   # BR(~mu_R -> ~chi_20 mu-)
     4.92427754E-01    2     1000025        13   # BR(~mu_R -> ~chi_30 mu-)
     1.93884116E-07    2     1000035        13   # BR(~mu_R -> ~chi_40 mu-)
#
#         PDG            Width
DECAY   1000015     2.54262644E+01   # stau_1 decays
#          BR         NDA      ID1       ID2
     2.91291244E-01    2     1000022        15   # BR(~tau_1 -> ~chi_10  tau-)
     4.67176236E-04    2     1000023        15   # BR(~tau_1 -> ~chi_20  tau-)
     2.84986795E-01    2     1000025        15   # BR(~tau_1 -> ~chi_30  tau-)
     1.40082584E-01    2     1000035        15   # BR(~tau_1 -> ~chi_40  tau-)
     2.56822338E-03    2    -1000024        16   # BR(~tau_1 -> ~chi_1-  nu_tau)
     2.80462500E-01    2    -1000037        16   # BR(~tau_1 -> ~chi_2-  nu_tau)
     1.41478329E-04    2     1000039        15   # BR(~tau_1 -> ~G       tau-)
#
#         PDG            Width
DECAY   2000015     2.54218319E+01   # stau_2 decays
#          BR         NDA      ID1       ID2
     2.73919614E-01    2     1000022        15   # BR(~tau_2 -> ~chi_10  tau-)
     7.37477914E-04    2     1000023        15   # BR(~tau_2 -> ~chi_20  tau-)
     2.91327265E-01    2     1000025        15   # BR(~tau_2 -> ~chi_30  tau-)
     1.44568485E-01    2     1000035        15   # BR(~tau_2 -> ~chi_40  tau-)
     5.80750731E-06    2    -1000024        16   # BR(~tau_2 -> ~chi_1-  nu_tau)
     2.89441350E-01    2    -1000037        16   # BR(~tau_2 -> ~chi_2-  nu_tau)
#
#         PDG            Width
DECAY   1000012     2.75857734E+01   # snu_eL decays
#          BR         NDA      ID1       ID2
     1.19803867E-01    2     1000022        12   # BR(~nu_eL -> ~chi_10 nu_e)
     2.85302701E-05    2     1000023        12   # BR(~nu_eL -> ~chi_20 nu_e)
     9.05901720E-02    2     1000025        12   # BR(~nu_eL -> ~chi_30 nu_e)
     2.62711841E-01    2     1000035        12   # BR(~nu_eL -> ~chi_40 nu_e)
     1.99531252E-03    2     1000024        11   # BR(~nu_eL -> ~chi_1+ e-)
     5.24870277E-01    2     1000037        11   # BR(~nu_eL -> ~chi_2+ e-)
#
#         PDG            Width
DECAY   1000014     2.75857734E+01   # snu_muL decays
#          BR         NDA      ID1       ID2
     1.19803867E-01    2     1000022        14   # BR(~nu_muL -> ~chi_10 nu_mu)
     2.85302701E-05    2     1000023        14   # BR(~nu_muL -> ~chi_20 nu_mu)
     9.05901720E-02    2     1000025        14   # BR(~nu_muL -> ~chi_30 nu_mu)
     2.62711841E-01    2     1000035        14   # BR(~nu_muL -> ~chi_40 nu_mu)
     1.99531252E-03    2     1000024        13   # BR(~nu_muL -> ~chi_1+ mu-)
     5.24870277E-01    2     1000037        13   # BR(~nu_muL -> ~chi_2+ mu-)
#
#         PDG            Width
DECAY   1000016     2.76158495E+01   # snu_tauL decays
#          BR         NDA      ID1       ID2
     1.19673390E-01    2     1000022        16   # BR(~nu_tauL -> ~chi_10 nu_tau)
     2.84991982E-05    2     1000023        16   # BR(~nu_tauL -> ~chi_20 nu_tau)
     9.04915113E-02    2     1000025        16   # BR(~nu_tauL -> ~chi_30 nu_tau)
     2.62425725E-01    2     1000035        16   # BR(~nu_tauL -> ~chi_40 nu_tau)
     3.08148613E-03    2     1000024        15   # BR(~nu_tauL -> ~chi_1+ tau-)
     5.24299388E-01    2     1000037        15   # BR(~nu_tauL -> ~chi_2+ tau-)
#
#         PDG            Width
DECAY   1000024     1.03421294E-04   # chargino1+ decays
#          BR         NDA      ID1       ID2
     3.30374171E-03    2     1000039        24   # BR(~chi_1+ -> ~G       W+)
#           BR         NDA      ID1       ID2       ID3
     3.32529146E-01    3     1000022         2        -1   # BR(~chi_1+ -> ~chi_10 u    db)
     3.32529146E-01    3     1000022         4        -3   # BR(~chi_1+ -> ~chi_10 c    sb)
     1.10843181E-01    3     1000022       -11        12   # BR(~chi_1+ -> ~chi_10 e+   nu_e)
     1.10843181E-01    3     1000022       -13        14   # BR(~chi_1+ -> ~chi_10 mu+  nu_mu)
     1.09951604E-01    3     1000022       -15        16   # BR(~chi_1+ -> ~chi_10 tau+ nu_tau)
#
#         PDG            Width
DECAY   1000037     3.66899864E+01   # chargino2+ decays
#          BR         NDA      ID1       ID2
     2.44816512E-01    2     1000024        23   # BR(~chi_2+ -> ~chi_1+  Z )
     1.11772263E-01    2     1000022        24   # BR(~chi_2+ -> ~chi_10  W+)
     2.38469309E-01    2     1000023        24   # BR(~chi_2+ -> ~chi_20  W+)
     1.26894545E-01    2     1000025        24   # BR(~chi_2+ -> ~chi_30  W+)
     2.45920519E-01    2     1000024        25   # BR(~chi_2+ -> ~chi_1+  h )
     7.91338730E-03    2     1000024        35   # BR(~chi_2+ -> ~chi_1+  H )
     8.12758922E-03    2     1000024        36   # BR(~chi_2+ -> ~chi_1+  A )
     4.83615164E-03    2     1000022        37   # BR(~chi_2+ -> ~chi_10  H+)
     7.96571082E-03    2     1000023        37   # BR(~chi_2+ -> ~chi_20  H+)
     3.27463100E-03    2     1000025        37   # BR(~chi_2+ -> ~chi_30  H+)
     9.38116284E-06    2     1000039        24   # BR(~chi_2+ -> ~G       W+)
     6.48173250E-10    2     1000039        37   # BR(~chi_2+ -> ~G       H+)
#
#         PDG            Width
DECAY   1000022    1.0E-05    # neutralino1 decays
#          BR         NDA      ID1       ID2
     5.02276208E-01    2     1000039        22   # BR(~chi_10 -> ~G        gam)
     4.86698535E-01    2     1000039        23   # BR(~chi_10 -> ~G        Z)
     1.10252575E-02    2     1000039        25   # BR(~chi_10 -> ~G        h)
#
#         PDG            Width
DECAY   1000023     1.13112948E-04   # neutralino2 decays
#          BR         NDA      ID1       ID2
     3.11199193E-04    2     1000022        22   # BR(~chi_20 -> ~chi_10 gam)
#          BR         NDA      ID1       ID2
     3.36749506E-08    2     1000039        22   # BR(~chi_20 -> ~G        gam)
     1.17183215E-04    2     1000039        23   # BR(~chi_20 -> ~G        Z)
     2.81289859E-03    2     1000039        25   # BR(~chi_20 -> ~G        h)
#           BR         NDA      ID1       ID2       ID3
     1.18415673E-01    3     1000022        -2         2   # BR(~chi_20 -> ~chi_10 ub      u)
     1.53315023E-01    3     1000022        -1         1   # BR(~chi_20 -> ~chi_10 db      d)
     1.18415673E-01    3     1000022        -4         4   # BR(~chi_20 -> ~chi_10 cb      c)
     1.53315023E-01    3     1000022        -3         3   # BR(~chi_20 -> ~chi_10 sb      s)
     1.38917665E-01    3     1000022        -5         5   # BR(~chi_20 -> ~chi_10 bb      b)
     3.50074307E-02    3     1000022       -11        11   # BR(~chi_20 -> ~chi_10 e+      e-)
     3.50074307E-02    3     1000022       -13        13   # BR(~chi_20 -> ~chi_10 mu+     mu-)
     3.46405012E-02    3     1000022       -15        15   # BR(~chi_20 -> ~chi_10 tau+    tau-)
     6.99071598E-02    3     1000022       -12        12   # BR(~chi_20 -> ~chi_10 nu_eb   nu_e)
     6.99071598E-02    3     1000022       -14        14   # BR(~chi_20 -> ~chi_10 nu_mub  nu_mu)
     6.99071598E-02    3     1000022       -16        16   # BR(~chi_20 -> ~chi_10 nu_taub nu_tau)
     5.15401913E-07    3     1000024        -2         1   # BR(~chi_20 -> ~chi_1+ ub      d)
     5.15401913E-07    3    -1000024        -1         2   # BR(~chi_20 -> ~chi_1- db      u)
     5.15401913E-07    3     1000024        -4         3   # BR(~chi_20 -> ~chi_1+ cb      s)
     5.15401913E-07    3    -1000024        -3         4   # BR(~chi_20 -> ~chi_1- sb      c)
     1.71800649E-07    3     1000024       -12        11   # BR(~chi_20 -> ~chi_1+ nu_eb   e-)
     1.71800649E-07    3    -1000024        12       -11   # BR(~chi_20 -> ~chi_1- nu_e    e+)
     1.71800649E-07    3     1000024       -14        13   # BR(~chi_20 -> ~chi_1+ nu_mub  mu-)
     1.71800649E-07    3    -1000024        14       -13   # BR(~chi_20 -> ~chi_1- nu_mu   mu+)
     1.88632068E-08    3     1000024       -16        15   # BR(~chi_20 -> ~chi_1+ nu_taub tau-)
     1.88632068E-08    3    -1000024        16       -15   # BR(~chi_20 -> ~chi_1- nu_tau  tau+)
#
#         PDG            Width
DECAY   1000025     2.43097419E-04   # neutralino3 decays
#          BR         NDA      ID1       ID2
     3.45184082E-04    2     1000022        22   # BR(~chi_30 -> ~chi_10 gam)
     3.77214724E-04    2     1000023        22   # BR(~chi_30 -> ~chi_20 gam)
#          BR         NDA      ID1       ID2
     1.43200596E-03    2     1000039        22   # BR(~chi_30 -> ~G        gam)
     1.22101497E-03    2     1000039        23   # BR(~chi_30 -> ~G        Z)
     3.36671423E-05    2     1000039        25   # BR(~chi_30 -> ~G        h)
#           BR         NDA      ID1       ID2       ID3
     1.02748834E-05    3     1000022        -2         2   # BR(~chi_30 -> ~chi_10 ub      u)
     1.23038667E-05    3     1000022        -1         1   # BR(~chi_30 -> ~chi_10 db      d)
     1.02748834E-05    3     1000022        -4         4   # BR(~chi_30 -> ~chi_10 cb      c)
     1.23038667E-05    3     1000022        -3         3   # BR(~chi_30 -> ~chi_10 sb      s)
     1.60162814E-05    3     1000022        -5         5   # BR(~chi_30 -> ~chi_10 bb      b)
     2.19660028E-06    3     1000022       -11        11   # BR(~chi_30 -> ~chi_10 e+      e-)
     2.19660028E-06    3     1000022       -13        13   # BR(~chi_30 -> ~chi_10 mu+     mu-)
     2.78460891E-06    3     1000022       -15        15   # BR(~chi_30 -> ~chi_10 tau+    tau-)
     5.98667932E-06    3     1000022       -12        12   # BR(~chi_30 -> ~chi_10 nu_eb   nu_e)
     5.98667932E-06    3     1000022       -14        14   # BR(~chi_30 -> ~chi_10 nu_mub  nu_mu)
     5.98667932E-06    3     1000022       -16        16   # BR(~chi_30 -> ~chi_10 nu_taub nu_tau)
     2.60760040E-02    3     1000023        -2         2   # BR(~chi_30 -> ~chi_20 ub      u)
     3.37611655E-02    3     1000023        -1         1   # BR(~chi_30 -> ~chi_20 db      d)
     2.60760040E-02    3     1000023        -4         4   # BR(~chi_30 -> ~chi_20 cb      c)
     3.37611655E-02    3     1000023        -3         3   # BR(~chi_30 -> ~chi_20 sb      s)
     2.96352341E-02    3     1000023        -5         5   # BR(~chi_30 -> ~chi_20 bb      b)
     7.70893951E-03    3     1000023       -11        11   # BR(~chi_30 -> ~chi_20 e+      e-)
     7.70893951E-03    3     1000023       -13        13   # BR(~chi_30 -> ~chi_20 mu+     mu-)
     7.60849597E-03    3     1000023       -15        15   # BR(~chi_30 -> ~chi_20 tau+    tau-)
     1.53940299E-02    3     1000023       -12        12   # BR(~chi_30 -> ~chi_20 nu_eb   nu_e)
     1.53940299E-02    3     1000023       -14        14   # BR(~chi_30 -> ~chi_20 nu_mub  nu_mu)
     1.53940299E-02    3     1000023       -16        16   # BR(~chi_30 -> ~chi_20 nu_taub nu_tau)
     1.29785262E-01    3     1000024        -2         1   # BR(~chi_30 -> ~chi_1+ ub      d)
     1.29785262E-01    3    -1000024        -1         2   # BR(~chi_30 -> ~chi_1- db      u)
     1.29785262E-01    3     1000024        -4         3   # BR(~chi_30 -> ~chi_1+ cb      s)
     1.29785262E-01    3    -1000024        -3         4   # BR(~chi_30 -> ~chi_1- sb      c)
     4.32616852E-02    3     1000024       -12        11   # BR(~chi_30 -> ~chi_1+ nu_eb   e-)
     4.32616852E-02    3    -1000024        12       -11   # BR(~chi_30 -> ~chi_1- nu_e    e+)
     4.32616852E-02    3     1000024       -14        13   # BR(~chi_30 -> ~chi_1+ nu_mub  mu-)
     4.32616852E-02    3    -1000024        14       -13   # BR(~chi_30 -> ~chi_1- nu_mu   mu+)
     4.28993873E-02    3     1000024       -16        15   # BR(~chi_30 -> ~chi_1+ nu_taub tau-)
     4.28993873E-02    3    -1000024        16       -15   # BR(~chi_30 -> ~chi_1- nu_tau  tau+)
#
#         PDG            Width
DECAY   1000035     3.66903802E+01   # neutralino4 decays
#          BR         NDA      ID1       ID2
     1.35440384E-03    2     1000022        23   # BR(~chi_40 -> ~chi_10   Z )
     2.41964827E-01    2     1000023        23   # BR(~chi_40 -> ~chi_20   Z )
     1.55861415E-03    2     1000025        23   # BR(~chi_40 -> ~chi_30   Z )
     2.38394275E-01    2     1000024       -24   # BR(~chi_40 -> ~chi_1+   W-)
     2.38394275E-01    2    -1000024        24   # BR(~chi_40 -> ~chi_1-   W+)
     1.13960548E-01    2     1000022        25   # BR(~chi_40 -> ~chi_10   h )
     1.46252966E-03    2     1000022        35   # BR(~chi_40 -> ~chi_10   H )
     3.34283814E-03    2     1000022        36   # BR(~chi_40 -> ~chi_10   A )
     2.88098238E-03    2     1000023        25   # BR(~chi_40 -> ~chi_20   h )
     5.11751259E-03    2     1000023        35   # BR(~chi_40 -> ~chi_20   H )
     2.78469085E-03    2     1000023        36   # BR(~chi_40 -> ~chi_20   A )
     1.29365422E-01    2     1000025        25   # BR(~chi_40 -> ~chi_30   h )
     1.23238306E-03    2     1000025        35   # BR(~chi_40 -> ~chi_30   H )
     2.01594837E-03    2     1000025        36   # BR(~chi_40 -> ~chi_30   A )
     8.08068447E-03    2     1000024       -37   # BR(~chi_40 -> ~chi_1+   H-)
     8.08068447E-03    2    -1000024        37   # BR(~chi_40 -> ~chi_1-   H+)
     2.25171638E-06    2     1000039        22   # BR(~chi_40 -> ~G        gam)
     7.12857045E-06    2     1000039        23   # BR(~chi_40 -> ~G        Z)
     5.19486222E-10    2     1000039        25   # BR(~chi_40 -> ~G        h)
     6.39558295E-10    2     1000039        35   # BR(~chi_40 -> ~G        H)
     5.47409900E-12    2     1000039        36   # BR(~chi_40 -> ~G        A)
#
#         PDG            Width
DECAY        25     4.21859211E-03   # h decays
#          BR         NDA      ID1       ID2
     6.01866746E-01    2           5        -5   # BR(h -> b       bb     )
     6.22364311E-02    2         -15        15   # BR(h -> tau+    tau-   )
     2.20289833E-04    2         -13        13   # BR(h -> mu+     mu-    )
     4.66090546E-04    2           3        -3   # BR(h -> s       sb     )
     2.01075688E-02    2           4        -4   # BR(h -> c       cb     )
     6.64048292E-02    2          21        21   # BR(h -> g       g      )
     2.30842721E-03    2          22        22   # BR(h -> gam     gam    )
     1.62648958E-03    2          22        23   # BR(h -> Z       gam    )
     2.16683730E-01    2          24       -24   # BR(h -> W+      W-     )
     2.80793970E-02    2          23        23   # BR(h -> Z       Z      )
#
#         PDG            Width
DECAY        35     3.88095684E+01   # H decays
#          BR         NDA      ID1       ID2
     1.43392799E-03    2           5        -5   # BR(H -> b       bb     )
     2.40083412E-04    2         -15        15   # BR(H -> tau+    tau-   )
     8.48784244E-07    2         -13        13   # BR(H -> mu+     mu-    )
     1.08675136E-06    2           3        -3   # BR(H -> s       sb     )
     9.80787893E-06    2           4        -4   # BR(H -> c       cb     )
     9.70445120E-01    2           6        -6   # BR(H -> t       tb     )
     7.77238105E-04    2          21        21   # BR(H -> g       g      )
     2.63846653E-06    2          22        22   # BR(H -> gam     gam    )
     1.12987392E-06    2          23        22   # BR(H -> Z       gam    )
     3.27786894E-04    2          24       -24   # BR(H -> W+      W-     )
     1.63446396E-04    2          23        23   # BR(H -> Z       Z      )
     8.81059187E-04    2          25        25   # BR(H -> h       h      )
     7.50922569E-24    2          36        36   # BR(H -> A       A      )
     3.00075722E-11    2          23        36   # BR(H -> Z       A      )
     7.45573358E-12    2          24       -37   # BR(H -> W+      H-     )
     7.45573358E-12    2         -24        37   # BR(H -> W-      H+     )
     7.58355644E-06    2     1000024  -1000024   # BR(H -> ~chi_1+ ~chi_1-)
     1.83593357E-04    2     1000022   1000022   # BR(H -> ~chi_10 ~chi_10)
     1.29265924E-06    2     1000023   1000023   # BR(H -> ~chi_20 ~chi_20)
     3.16496225E-05    2     1000025   1000025   # BR(H -> ~chi_30 ~chi_30)
     1.58342424E-02    2     1000022   1000023   # BR(H -> ~chi_10 ~chi_20)
     4.58056987E-07    2     1000022   1000025   # BR(H -> ~chi_10 ~chi_30)
     9.65700626E-03    2     1000023   1000025   # BR(H -> ~chi_20 ~chi_30)
#
#         PDG            Width
DECAY        36     3.92441563E+01   # A decays
#          BR         NDA      ID1       ID2
     1.43691354E-03    2           5        -5   # BR(A -> b       bb     )
     2.37645990E-04    2         -15        15   # BR(A -> tau+    tau-   )
     8.40164425E-07    2         -13        13   # BR(A -> mu+     mu-    )
     1.10763550E-06    2           3        -3   # BR(A -> s       sb     )
     9.70641901E-06    2           4        -4   # BR(A -> c       cb     )
     9.71440404E-01    2           6        -6   # BR(A -> t       tb     )
     9.19486798E-04    2          21        21   # BR(A -> g       g      )
     2.99655763E-06    2          22        22   # BR(A -> gam     gam    )
     1.31759704E-06    2          23        22   # BR(A -> Z       gam    )
     3.19453879E-04    2          23        25   # BR(A -> Z       h      )
     4.48621890E-04    2     1000024  -1000024   # BR(A -> ~chi_1+ ~chi_1-)
     1.68687284E-02    2     1000022   1000022   # BR(A -> ~chi_10 ~chi_10)
     2.84505799E-07    2     1000023   1000023   # BR(A -> ~chi_20 ~chi_20)
     8.00163512E-03    2     1000025   1000025   # BR(A -> ~chi_30 ~chi_30)
     1.19369001E-04    2     1000022   1000023   # BR(A -> ~chi_10 ~chi_20)
     1.33615200E-04    2     1000022   1000025   # BR(A -> ~chi_10 ~chi_30)
     5.78732677E-05    2     1000023   1000025   # BR(A -> ~chi_20 ~chi_30)
#
#         PDG            Width
DECAY        37     3.84329195E+01   # H+ decays
#          BR         NDA      ID1       ID2
     2.30519107E-06    2           4        -5   # BR(H+ -> c       bb     )
     2.42841978E-04    2         -15        16   # BR(H+ -> tau+    nu_tau )
     8.58534117E-07    2         -13        14   # BR(H+ -> mu+     nu_mu  )
     1.46558995E-08    2           2        -5   # BR(H+ -> u       bb     )
     5.31692397E-08    2           2        -3   # BR(H+ -> u       sb     )
     1.05941727E-05    2           4        -3   # BR(H+ -> c       sb     )
     9.73761105E-01    2           6        -5   # BR(H+ -> t       bb     )
     3.27385508E-04    2          24        25   # BR(H+ -> W+      h      )
     2.44458717E-13    2          24        36   # BR(H+ -> W+      A      )
     1.42762665E-02    2     1000024   1000022   # BR(H+ -> ~chi_1+ ~chi_10)
     1.06589716E-04    2     1000024   1000023   # BR(H+ -> ~chi_1+ ~chi_20)
     1.12719858E-02    2     1000024   1000025   # BR(H+ -> ~chi_1+ ~chi_30)
