#
#                              ======================
#                              | THE SUSYHIT OUTPUT |
#                              ======================
#
#
#              ------------------------------------------------------
#              |     This is the output of the SUSY-HIT package     |
#              |  created by A.Djouadi, M.Muehlleitner and M.Spira. |
#              |  In case of problems with SUSY-HIT email to        |
#              |           margarete.muehlleitner@cern.ch           |
#              |           michael.spira@psi.ch                     |
#              |           abdelhak.djouadi@cern.ch                 |
#              ------------------------------------------------------
#
#              ------------------------------------------------------
#              |  SUSY Les Houches Accord - MSSM Spectrum + Decays  |
#              |              based on the decay programs           |
#              |                                                    |
#              |                     SDECAY 1.3b                    |
#              |                                                    |
#              |  Authors: M.Muhlleitner, A.Djouadi and Y.Mambrini  |
#              |  Ref.:    Comput.Phys.Commun.168(2005)46           |
#              |           [hep-ph/0311167]                         |
#              |                                                    |
#              |                     HDECAY 3.4                     |
#              |                                                    |
#              |  By: A.Djouadi,J.Kalinowski,M.Muhlleitner,M.Spira  |
#              |  Ref.:    Comput.Phys.Commun.108(1998)56           |
#              |           [hep-ph/9704448]                         |
#              |                                                    |
#              |                                                    |
#              |  If not stated otherwise all DRbar couplings and   |
#              |  soft SUSY breaking masses are given at the scale  |
#              |  Q=  0.50006935E+04
#              |                                                    |
#              ------------------------------------------------------
#
#
BLOCK DCINFO  # Decay Program information
     1   SDECAY/HDECAY # decay calculator
     2   1.3b  /3.4    # version number
#
BLOCK SPINFO  # Spectrum calculator information
     1    SOFTSUSY    # spectrum calculator                
     2    3.4.0       # version number                     
#
BLOCK MODSEL  # Model selection
     1     0   #  nonUniversal                                     
#
BLOCK SMINPUTS  # Standard Model inputs
         1     1.25778332E+02   # alpha_em^-1(M_Z)^MSbar
         2     1.16570000E-05   # G_F [GeV^-2]
         3     1.17200002E-01   # alpha_S(M_Z)^MSbar
         4     9.11876000E+01   # M_Z pole mass
         5     4.25000000E+00   # mb(mb)^MSbar
         6     1.72500000E+02   # mt pole mass
         7     1.77682000E+00   # mtau pole mass
#
BLOCK MINPAR  # Input parameters - minimal models
         3     1.00000000E+01   # tanb                
#
BLOCK EXTPAR  # Input parameters - non-minimal models
         0    -1.00000000E+00   # Set                 
         1     6.00000000E+01   # M_1(MX)             
         2     3.00000000E+03   # M_2(MX)             
         3     1.21157100E+03   # M_3(MX)             
        11     5.00000000E+03   # At(MX)              
        12     5.00000000E+03   # Ab(MX)              
        13     0.00000000E+00   # Atau(MX)            
        23    -1.93741500E+03   # mu(MX)              
        26     3.00000000E+03   # mA(pole)            
        31     5.00000000E+03   # meL(MX)             
        32     5.00000000E+03   # mmuL(MX)            
        33     5.00000000E+03   # mtauL(MX)           
        34     5.00000000E+03   # meR(MX)             
        35     5.00000000E+03   # mmuR(MX)            
        36     5.00000000E+03   # mtauR(MX)           
        41     5.00000000E+03   # mqL1(MX)            
        42     5.00000000E+03   # mqL2(MX)            
        43     5.00000000E+03   # mqL3(MX)            
        44     5.00000000E+03   # muR(MX)             
        45     5.00000000E+03   # mcR(MX)             
        46     5.00000000E+03   # mtR(MX)             
        47     5.00000000E+03   # mdR(MX)             
        48     5.00000000E+03   # msR(MX)             
        49     5.00000000E+03   # mbR(MX)             
#
BLOCK MASS  # Mass Spectrum
# PDG code           mass       particle
        24     8.00963780E+01   # W+
        25     1.24621322E+02   # h
        35     3.00007590E+03   # H
        36     2.99999995E+03   # A
        37     3.00087362E+03   # H+
         5     4.87878001E+00   # b-quark pole mass calculated from mb(mb)_Msbar
   1000001     5.06663369E+03   # ~d_L
   2000001     5.04885312E+03   # ~d_R
   1000002     5.06615796E+03   # ~u_L
   2000002     5.04858438E+03   # ~u_R
   1000003     5.06663369E+03   # ~s_L
   2000003     5.04885312E+03   # ~s_R
   1000004     5.06615796E+03   # ~c_L
   2000004     5.04858438E+03   # ~c_R
   1000005     5.01361048E+03   # ~b_1
   2000005     5.04815950E+03   # ~b_2
   1000006     4.90538391E+03   # ~t_1
   2000006     5.06149909E+03   # ~t_2
   1000011     5.01903484E+03   # ~e_L
   2000011     5.00590177E+03   # ~e_R
   1000012     5.01808681E+03   # ~nu_eL
   1000013     5.01903484E+03   # ~mu_L
   2000013     5.00590177E+03   # ~mu_R
   1000014     5.01808681E+03   # ~nu_muL
   1000015     5.00405738E+03   # ~tau_1
   2000015     5.01933411E+03   # ~tau_2
   1000016     5.01755854E+03   # ~nu_tauL
   1000021     1.50000067E+03   # ~g
   1000022     6.02990213E+01   # ~chi_10
   1000023     1.99938162E+03   # ~chi_20
   1000025    -2.00239823E+03   # ~chi_30
   1000035     3.07450243E+03   # ~chi_40
   1000024     2.00000039E+03   # ~chi_1+
   1000037     3.07467037E+03   # ~chi_2+
#
BLOCK NMIX  # Neutralino Mixing Matrix
  1  1     9.99749406E-01   # N_11
  1  2     1.11615421E-04   # N_12
  1  3    -2.23229382E-02   # N_13
  1  4     1.67332921E-03   # N_14
  2  1     1.45927567E-02   # N_21
  2  2     4.52882497E-02   # N_22
  2  3     7.06689861E-01   # N_23
  2  4     7.05921714E-01   # N_24
  3  1    -1.69662037E-02   # N_31
  3  2     1.19424493E-02   # N_32
  3  3    -7.06777728E-01   # N_33
  3  4     7.07131366E-01   # N_34
  4  1    -5.70475890E-04   # N_41
  4  2     9.98902568E-01   # N_42
  4  3    -2.35874838E-02   # N_43
  4  4    -4.04594276E-02   # N_44
#
BLOCK UMIX  # Chargino Mixing Matrix U
  1  1     3.32880559E-02   # U_11
  1  2     9.99445799E-01   # U_12
  2  1    -9.99445799E-01   # U_21
  2  2     3.32880559E-02   # U_22
#
BLOCK VMIX  # Chargino Mixing Matrix V
  1  1     5.71495877E-02   # V_11
  1  2    -9.98365627E-01   # V_12
  2  1    -9.98365627E-01   # V_21
  2  2    -5.71495877E-02   # V_22
#
BLOCK STOPMIX  # Stop Mixing Matrix
  1  1    -5.18200416E-01   # cos(theta_t)
  1  2     8.55259217E-01   # sin(theta_t)
  2  1    -8.55259217E-01   # -sin(theta_t)
  2  2    -5.18200416E-01   # cos(theta_t)
#
BLOCK SBOTMIX  # Sbottom Mixing Matrix
  1  1     9.90642240E-01   # cos(theta_b)
  1  2    -1.36484257E-01   # sin(theta_b)
  2  1     1.36484257E-01   # -sin(theta_b)
  2  2     9.90642240E-01   # cos(theta_b)
#
BLOCK STAUMIX  # Stau Mixing Matrix
  1  1    -2.18662817E-01   # cos(theta_tau)
  1  2     9.75800478E-01   # sin(theta_tau)
  2  1    -9.75800478E-01   # -sin(theta_tau)
  2  2    -2.18662817E-01   # cos(theta_tau)
#
BLOCK ALPHA  # Higgs mixing
          -1.05437668E-01   # Mixing angle in the neutral Higgs boson sector
#
BLOCK HMIX Q=  5.00069351E+03  # DRbar Higgs Parameters
         1    -1.97256723E+03   # mu(Q)MSSM           
         2     9.47235809E+00   # tan                 
         3     2.42080526E+02   # higgs               
         4     8.32264650E+06   # mA^2(Q)MSSM         
#
BLOCK GAUGE Q=  5.00069351E+03  # The gauge couplings
     1     3.70643758E-01   # gprime(Q) DRbar
     2     6.31789302E-01   # g(Q) DRbar
     3     1.00269767E+00   # g3(Q) DRbar
#
BLOCK AU Q=  5.00069351E+03  # The trilinear couplings
  1  1     5.00000001E+03   # A_u(Q) DRbar
  2  2     5.00000001E+03   # A_c(Q) DRbar
  3  3     5.00000001E+03   # A_t(Q) DRbar
#
BLOCK AD Q=  5.00069351E+03  # The trilinear couplings
  1  1     5.00000000E+03   # A_d(Q) DRbar
  2  2     5.00000000E+03   # A_s(Q) DRbar
  3  3     5.00000001E+03   # A_b(Q) DRbar
#
BLOCK AE Q=  5.00069351E+03  # The trilinear couplings
  1  1     0.00000000E+00   # A_e(Q) DRbar
  2  2     9.94463299E-08   # A_mu(Q) DRbar
  3  3     9.87875481E-08   # A_tau(Q) DRbar
#
BLOCK Yu Q=  5.00069351E+03  # The Yukawa couplings
  1  1     0.00000000E+00   # y_u(Q) DRbar
  2  2     0.00000000E+00   # y_c(Q) DRbar
  3  3     8.17152233E-01   # y_t(Q) DRbar
#
BLOCK Yd Q=  5.00069351E+03  # The Yukawa couplings
  1  1     0.00000000E+00   # y_d(Q) DRbar
  2  2     0.00000000E+00   # y_s(Q) DRbar
  3  3     1.31168839E-01   # y_b(Q) DRbar
#
BLOCK Ye Q=  5.00069351E+03  # The Yukawa couplings
  1  1     0.00000000E+00   # y_e(Q) DRbar
  2  2     0.00000000E+00   # y_mu(Q) DRbar
  3  3     9.64628410E-02   # y_tau(Q) DRbar
#
BLOCK MSOFT Q=  5.00069351E+03  # The soft SUSY breaking masses at the scale Q
         1     6.00000000E+01   # M_1(Q)              
         2     3.00000000E+03   # M_2(Q)              
         3     1.21157100E+03   # M_3(Q)              
        21     4.75148955E+06   # mH1^2(Q)            
        22    -3.36233159E+06   # mH2^2(Q)            
        31     5.00000000E+03   # meL(Q)              
        32     5.00000000E+03   # mmuL(Q)             
        33     5.00000000E+03   # mtauL(Q)            
        34     5.00000000E+03   # meR(Q)              
        35     5.00000000E+03   # mmuR(Q)             
        36     5.00000000E+03   # mtauR(Q)            
        41     5.00000000E+03   # mqL1(Q)             
        42     5.00000000E+03   # mqL2(Q)             
        43     5.00000000E+03   # mqL3(Q)             
        44     5.00000000E+03   # muR(Q)              
        45     5.00000000E+03   # mcR(Q)              
        46     5.00000000E+03   # mtR(Q)              
        47     5.00000000E+03   # mdR(Q)              
        48     5.00000000E+03   # msR(Q)              
        49     5.00000000E+03   # mbR(Q)              
#
#
#
#                             =================
#                             |The decay table|
#                             =================
#
# - The QCD corrections to the decays gluino -> squark  + quark
#                                     squark -> gaugino + quark_prime
#                                     squark -> squark_prime + Higgs
#                                     squark -> gluino  + quark
#   are included.
#
# - The multi-body decays for the inos, stops and sbottoms are included.
#
# - The loop induced decays for the gluino, neutralinos and stops
#   are included.
#
# - The SUSY decays of the top quark are included.
#
#
#         PDG            Width
DECAY         6     1.39872400E+00   # top decays
#          BR         NDA      ID1       ID2
     1.00000000E+00    2           5        24   # BR(t ->  b    W+)
#
#         PDG            Width
DECAY   1000021     6.86207788E-05   # gluino decays
#          BR         NDA      ID1       ID2
     1.10381579E-05    2     1000022        21   # BR(~g -> ~chi_10 g)
#           BR         NDA      ID1       ID2       ID3
     7.80901441E-02    3     1000022         1        -1   # BR(~g -> ~chi_10 d  db)
     2.66189594E-01    3     1000022         2        -2   # BR(~g -> ~chi_10 u  ub)
     7.80901441E-02    3     1000022         3        -3   # BR(~g -> ~chi_10 s  sb)
     2.66189594E-01    3     1000022         4        -4   # BR(~g -> ~chi_10 c  cb)
     7.89613078E-02    3     1000022         5        -5   # BR(~g -> ~chi_10 b  bb)
     2.32468178E-01    3     1000022         6        -6   # BR(~g -> ~chi_10 t  tb)
#
#         PDG            Width
DECAY   1000006     3.56489799E+02   # stop1 decays
#          BR         NDA      ID1       ID2
     2.44462798E-02    2     1000022         6   # BR(~t_1 -> ~chi_10 t )
     6.38998797E-02    2     1000023         6   # BR(~t_1 -> ~chi_20 t )
     6.12767227E-02    2     1000025         6   # BR(~t_1 -> ~chi_30 t )
     6.58260528E-03    2     1000035         6   # BR(~t_1 -> ~chi_40 t )
     9.02045700E-02    2     1000024         5   # BR(~t_1 -> ~chi_1+ b )
     1.30406522E-02    2     1000037         5   # BR(~t_1 -> ~chi_2+ b )
     7.40549290E-01    2     1000021         6   # BR(~t_1 -> ~g      t )
#
#         PDG            Width
DECAY   2000006     3.68957481E+02   # stop2 decays
#          BR         NDA      ID1       ID2
     9.90492037E-03    2     1000022         6   # BR(~t_2 -> ~chi_10 t )
     6.51475436E-02    2     1000023         6   # BR(~t_2 -> ~chi_20 t )
     6.79514200E-02    2     1000025         6   # BR(~t_2 -> ~chi_30 t )
     1.43127775E-02    2     1000035         6   # BR(~t_2 -> ~chi_40 t )
     4.20745152E-02    2     1000024         5   # BR(~t_2 -> ~chi_1+ b )
     2.82848230E-02    2     1000037         5   # BR(~t_2 -> ~chi_2+ b )
     7.68706103E-01    2     1000021         6   # BR(~t_2 -> ~g      t )
     7.67088228E-04    2     1000006        25   # BR(~t_2 -> ~t_1    h )
     2.85080863E-03    2     1000006        23   # BR(~t_2 -> ~t_1    Z )
#
#         PDG            Width
DECAY   1000005     3.47763502E+02   # sbottom1 decays
#          BR         NDA      ID1       ID2
     2.29686920E-03    2     1000022         5   # BR(~b_1 -> ~chi_10 b )
     1.91060653E-03    2     1000023         5   # BR(~b_1 -> ~chi_20 b )
     1.71739347E-03    2     1000025         5   # BR(~b_1 -> ~chi_30 b )
     2.12201604E-02    2     1000035         5   # BR(~b_1 -> ~chi_40 b )
     1.33429096E-01    2    -1000024         6   # BR(~b_1 -> ~chi_1- t )
     4.29092094E-02    2    -1000037         6   # BR(~b_1 -> ~chi_2- t )
     7.94965066E-01    2     1000021         5   # BR(~b_1 -> ~g      b )
     1.55159904E-03    2     1000006       -24   # BR(~b_1 -> ~t_1    W-)
#
#         PDG            Width
DECAY   2000005     2.85619938E+02   # sbottom2 decays
#          BR         NDA      ID1       ID2
     1.01994107E-02    2     1000022         5   # BR(~b_2 -> ~chi_10 b )
     2.06958904E-03    2     1000023         5   # BR(~b_2 -> ~chi_20 b )
     2.22808674E-03    2     1000025         5   # BR(~b_2 -> ~chi_30 b )
     5.42997927E-04    2     1000035         5   # BR(~b_2 -> ~chi_40 b )
     7.31449564E-03    2    -1000024         6   # BR(~b_2 -> ~chi_1- t )
     1.09655989E-03    2    -1000037         6   # BR(~b_2 -> ~chi_2- t )
     9.76396861E-01    2     1000021         5   # BR(~b_2 -> ~g      b )
     1.51999206E-04    2     1000006       -24   # BR(~b_2 -> ~t_1    W-)
#
#         PDG            Width
DECAY   1000002     3.04389138E+02   # sup_L decays
#          BR         NDA      ID1       ID2
     2.45354918E-03    2     1000022         2   # BR(~u_L -> ~chi_10 u)
     1.06046445E-04    2     1000023         2   # BR(~u_L -> ~chi_20 u)
     3.39978049E-06    2     1000025         2   # BR(~u_L -> ~chi_30 u)
     2.56092924E-02    2     1000035         2   # BR(~u_L -> ~chi_40 u)
     2.98818025E-04    2     1000024         1   # BR(~u_L -> ~chi_1+ d)
     5.11684865E-02    2     1000037         1   # BR(~u_L -> ~chi_2+ d)
     9.20360408E-01    2     1000021         2   # BR(~u_L -> ~g      u)
#
#         PDG            Width
DECAY   2000002     2.90700170E+02   # sup_R decays
#          BR         NDA      ID1       ID2
     4.09151167E-02    2     1000022         2   # BR(~u_R -> ~chi_10 u)
     6.20477617E-06    2     1000023         2   # BR(~u_R -> ~chi_20 u)
     8.37786375E-06    2     1000025         2   # BR(~u_R -> ~chi_30 u)
     5.29088402E-09    2     1000035         2   # BR(~u_R -> ~chi_40 u)
     9.59070295E-01    2     1000021         2   # BR(~u_R -> ~g      u)
#
#         PDG            Width
DECAY   1000001     3.04403335E+02   # sdown_L decays
#          BR         NDA      ID1       ID2
     2.44806972E-03    2     1000022         1   # BR(~d_L -> ~chi_10 d)
     8.24025368E-05    2     1000023         1   # BR(~d_L -> ~chi_20 d)
     1.06448405E-05    2     1000025         1   # BR(~d_L -> ~chi_30 d)
     2.56275202E-02    2     1000035         1   # BR(~d_L -> ~chi_40 d)
     1.01393034E-04    2    -1000024         2   # BR(~d_L -> ~chi_1- u)
     5.12928508E-02    2    -1000037         2   # BR(~d_L -> ~chi_2- u)
     9.20437119E-01    2     1000021         1   # BR(~d_L -> ~g      d)
#
#         PDG            Width
DECAY   2000001     2.81797214E+02   # sdown_R decays
#          BR         NDA      ID1       ID2
     1.05525074E-02    2     1000022         1   # BR(~d_R -> ~chi_10 d)
     1.60035029E-06    2     1000023         1   # BR(~d_R -> ~chi_20 d)
     2.16083839E-06    2     1000025         1   # BR(~d_R -> ~chi_30 d)
     1.36475315E-09    2     1000035         1   # BR(~d_R -> ~chi_40 d)
     9.89443730E-01    2     1000021         1   # BR(~d_R -> ~g      d)
#
#         PDG            Width
DECAY   1000004     3.04389138E+02   # scharm_L decays
#          BR         NDA      ID1       ID2
     2.45354918E-03    2     1000022         4   # BR(~c_L -> ~chi_10 c)
     1.06046445E-04    2     1000023         4   # BR(~c_L -> ~chi_20 c)
     3.39978049E-06    2     1000025         4   # BR(~c_L -> ~chi_30 c)
     2.56092924E-02    2     1000035         4   # BR(~c_L -> ~chi_40 c)
     2.98818025E-04    2     1000024         3   # BR(~c_L -> ~chi_1+ s)
     5.11684865E-02    2     1000037         3   # BR(~c_L -> ~chi_2+ s)
     9.20360408E-01    2     1000021         4   # BR(~c_L -> ~g      c)
#
#         PDG            Width
DECAY   2000004     2.90700170E+02   # scharm_R decays
#          BR         NDA      ID1       ID2
     4.09151167E-02    2     1000022         4   # BR(~c_R -> ~chi_10 c)
     6.20477617E-06    2     1000023         4   # BR(~c_R -> ~chi_20 c)
     8.37786375E-06    2     1000025         4   # BR(~c_R -> ~chi_30 c)
     5.29088402E-09    2     1000035         4   # BR(~c_R -> ~chi_40 c)
     9.59070295E-01    2     1000021         4   # BR(~c_R -> ~g      c)
#
#         PDG            Width
DECAY   1000003     3.04403335E+02   # sstrange_L decays
#          BR         NDA      ID1       ID2
     2.44806972E-03    2     1000022         3   # BR(~s_L -> ~chi_10 s)
     8.24025368E-05    2     1000023         3   # BR(~s_L -> ~chi_20 s)
     1.06448405E-05    2     1000025         3   # BR(~s_L -> ~chi_30 s)
     2.56275202E-02    2     1000035         3   # BR(~s_L -> ~chi_40 s)
     1.01393034E-04    2    -1000024         4   # BR(~s_L -> ~chi_1- c)
     5.12928508E-02    2    -1000037         4   # BR(~s_L -> ~chi_2- c)
     9.20437119E-01    2     1000021         3   # BR(~s_L -> ~g      s)
#
#         PDG            Width
DECAY   2000003     2.81797214E+02   # sstrange_R decays
#          BR         NDA      ID1       ID2
     1.05525074E-02    2     1000022         3   # BR(~s_R -> ~chi_10 s)
     1.60035029E-06    2     1000023         3   # BR(~s_R -> ~chi_20 s)
     2.16083839E-06    2     1000025         3   # BR(~s_R -> ~chi_30 s)
     1.36475315E-09    2     1000035         3   # BR(~s_R -> ~chi_40 s)
     9.89443730E-01    2     1000021         3   # BR(~s_R -> ~g      s)
#
#         PDG            Width
DECAY   1000011     3.02216819E+01   # selectron_L decays
#          BR         NDA      ID1       ID2
     2.26849236E-01    2     1000022        11   # BR(~e_L -> ~chi_10 e-)
     1.35336917E-03    2     1000023        11   # BR(~e_L -> ~chi_20 e-)
     1.84449563E-06    2     1000025        11   # BR(~e_L -> ~chi_30 e-)
     2.56642002E-01    2     1000035        11   # BR(~e_L -> ~chi_40 e-)
     1.03410173E-03    2    -1000024        12   # BR(~e_L -> ~chi_1- nu_e)
     5.14119446E-01    2    -1000037        12   # BR(~e_L -> ~chi_2- nu_e)
#
#         PDG            Width
DECAY   2000011     2.73505335E+01   # selectron_R decays
#          BR         NDA      ID1       ID2
     9.99646187E-01    2     1000022        11   # BR(~e_R -> ~chi_10 e-)
     1.50492580E-04    2     1000023        11   # BR(~e_R -> ~chi_20 e-)
     2.03194415E-04    2     1000025        11   # BR(~e_R -> ~chi_30 e-)
     1.26283226E-07    2     1000035        11   # BR(~e_R -> ~chi_40 e-)
#
#         PDG            Width
DECAY   1000013     3.02216819E+01   # smuon_L decays
#          BR         NDA      ID1       ID2
     2.26849236E-01    2     1000022        13   # BR(~mu_L -> ~chi_10 mu-)
     1.35336917E-03    2     1000023        13   # BR(~mu_L -> ~chi_20 mu-)
     1.84449563E-06    2     1000025        13   # BR(~mu_L -> ~chi_30 mu-)
     2.56642002E-01    2     1000035        13   # BR(~mu_L -> ~chi_40 mu-)
     1.03410173E-03    2    -1000024        14   # BR(~mu_L -> ~chi_1- nu_mu)
     5.14119446E-01    2    -1000037        14   # BR(~mu_L -> ~chi_2- nu_mu)
#
#         PDG            Width
DECAY   2000013     2.73505335E+01   # smuon_R decays
#          BR         NDA      ID1       ID2
     9.99646187E-01    2     1000022        13   # BR(~mu_R -> ~chi_10 mu-)
     1.50492580E-04    2     1000023        13   # BR(~mu_R -> ~chi_20 mu-)
     2.03194415E-04    2     1000025        13   # BR(~mu_R -> ~chi_30 mu-)
     1.26283226E-07    2     1000035        13   # BR(~mu_R -> ~chi_40 mu-)
#
#         PDG            Width
DECAY   1000015     2.87903364E+01   # stau_1 decays
#          BR         NDA      ID1       ID2
     9.16112351E-01    2     1000022        15   # BR(~tau_1 -> ~chi_10  tau-)
     1.27178688E-02    2     1000023        15   # BR(~tau_1 -> ~chi_20  tau-)
     1.08265439E-02    2     1000025        15   # BR(~tau_1 -> ~chi_30  tau-)
     1.21764392E-02    2     1000035        15   # BR(~tau_1 -> ~chi_40  tau-)
     2.37709663E-02    2    -1000024        16   # BR(~tau_1 -> ~chi_1-  nu_tau)
     2.43958310E-02    2    -1000037        16   # BR(~tau_1 -> ~chi_2-  nu_tau)
#
#         PDG            Width
DECAY   2000015     3.07334007E+01   # stau_2 decays
#          BR         NDA      ID1       ID2
     2.54303314E-01    2     1000022        15   # BR(~tau_2 -> ~chi_10  tau-)
     1.08643921E-02    2     1000023        15   # BR(~tau_2 -> ~chi_20  tau-)
     1.13437988E-02    2     1000025        15   # BR(~tau_2 -> ~chi_30  tau-)
     2.40905423E-01    2     1000035        15   # BR(~tau_2 -> ~chi_40  tau-)
     7.18616442E-07    2    -1000024        16   # BR(~tau_2 -> ~chi_1-  nu_tau)
     4.82582354E-01    2    -1000037        16   # BR(~tau_2 -> ~chi_2-  nu_tau)
#
#         PDG            Width
DECAY   1000012     3.02226964E+01   # snu_eL decays
#          BR         NDA      ID1       ID2
     2.26626172E-01    2     1000022        12   # BR(~nu_eL -> ~chi_10 nu_e)
     6.29328491E-04    2     1000023        12   # BR(~nu_eL -> ~chi_20 nu_e)
     2.23421844E-04    2     1000025        12   # BR(~nu_eL -> ~chi_30 nu_e)
     2.56812397E-01    2     1000035        12   # BR(~nu_eL -> ~chi_40 nu_e)
     3.04687072E-03    2     1000024        11   # BR(~nu_eL -> ~chi_1+ e-)
     5.12661810E-01    2     1000037        11   # BR(~nu_eL -> ~chi_2+ e-)
#
#         PDG            Width
DECAY   1000014     3.02226964E+01   # snu_muL decays
#          BR         NDA      ID1       ID2
     2.26626172E-01    2     1000022        14   # BR(~nu_muL -> ~chi_10 nu_mu)
     6.29328491E-04    2     1000023        14   # BR(~nu_muL -> ~chi_20 nu_mu)
     2.23421844E-04    2     1000025        14   # BR(~nu_muL -> ~chi_30 nu_mu)
     2.56812397E-01    2     1000035        14   # BR(~nu_muL -> ~chi_40 nu_mu)
     3.04687072E-03    2     1000024        13   # BR(~nu_muL -> ~chi_1+ mu-)
     5.12661810E-01    2     1000037        13   # BR(~nu_muL -> ~chi_2+ mu-)
#
#         PDG            Width
DECAY   1000016     3.08704751E+01   # snu_tauL decays
#          BR         NDA      ID1       ID2
     2.21847331E-01    2     1000022        16   # BR(~nu_tauL -> ~chi_10 nu_tau)
     6.16008988E-04    2     1000023        16   # BR(~nu_tauL -> ~chi_20 nu_tau)
     2.18693142E-04    2     1000025        16   # BR(~nu_tauL -> ~chi_30 nu_tau)
     2.51333412E-01    2     1000035        16   # BR(~nu_tauL -> ~chi_40 nu_tau)
     2.42510629E-02    2     1000024        15   # BR(~nu_tauL -> ~chi_1+ tau-)
     5.01733492E-01    2     1000037        15   # BR(~nu_tauL -> ~chi_2+ tau-)
#
#         PDG            Width
DECAY   1000024     1.23532737E+00   # chargino1+ decays
#          BR         NDA      ID1       ID2
     1.00000000E+00    2     1000022        24   # BR(~chi_1+ -> ~chi_10  W+)
#
#         PDG            Width
DECAY   1000037     1.53678241E+01   # chargino2+ decays
#          BR         NDA      ID1       ID2
     2.51888129E-01    2     1000024        23   # BR(~chi_2+ -> ~chi_1+  Z )
     4.76670371E-04    2     1000022        24   # BR(~chi_2+ -> ~chi_10  W+)
     2.45399726E-01    2     1000023        24   # BR(~chi_2+ -> ~chi_20  W+)
     2.42787756E-01    2     1000025        24   # BR(~chi_2+ -> ~chi_30  W+)
     2.59447676E-01    2     1000024        25   # BR(~chi_2+ -> ~chi_1+  h )
     4.32320737E-08    2     1000022        37   # BR(~chi_2+ -> ~chi_10  H+)
#
#         PDG            Width
DECAY   1000022     0.00000000E+00   # neutralino1 decays
#
#         PDG            Width
DECAY   1000023     1.30105593E+00   # neutralino2 decays
#          BR         NDA      ID1       ID2
     5.65508057E-01    2     1000022        23   # BR(~chi_20 -> ~chi_10   Z )
     4.34491943E-01    2     1000022        25   # BR(~chi_20 -> ~chi_10   h )
#
#         PDG            Width
DECAY   1000025     1.31735948E+00   # neutralino3 decays
#          BR         NDA      ID1       ID2
     4.15285835E-01    2     1000022        23   # BR(~chi_30 -> ~chi_10   Z )
     5.84714165E-01    2     1000022        25   # BR(~chi_30 -> ~chi_10   h )
#
#         PDG            Width
DECAY   1000035     1.53211960E+01   # neutralino4 decays
#          BR         NDA      ID1       ID2
     2.14733712E-04    2     1000022        23   # BR(~chi_40 -> ~chi_10   Z )
     1.67154918E-02    2     1000023        23   # BR(~chi_40 -> ~chi_20   Z )
     2.35832055E-01    2     1000025        23   # BR(~chi_40 -> ~chi_30   Z )
     2.43591471E-01    2     1000024       -24   # BR(~chi_40 -> ~chi_1+   W-)
     2.43591471E-01    2    -1000024        24   # BR(~chi_40 -> ~chi_1-   W+)
     2.82151475E-04    2     1000022        25   # BR(~chi_40 -> ~chi_10   h )
     3.23363261E-08    2     1000022        35   # BR(~chi_40 -> ~chi_10   H )
     1.24584682E-08    2     1000022        36   # BR(~chi_40 -> ~chi_10   A )
     2.43312754E-01    2     1000023        25   # BR(~chi_40 -> ~chi_20   h )
     1.64598262E-02    2     1000025        25   # BR(~chi_40 -> ~chi_30   h )
#
#         PDG            Width
DECAY        25     4.02519705E-03   # h decays
#          BR         NDA      ID1       ID2
     6.09434778E-01    2           5        -5   # BR(h -> b       bb     )
     6.43480518E-02    2         -15        15   # BR(h -> tau+    tau-   )
     2.27816175E-04    2         -13        13   # BR(h -> mu+     mu-    )
     4.83072621E-04    2           3        -3   # BR(h -> s       sb     )
     2.09357882E-02    2           4        -4   # BR(h -> c       cb     )
     6.75447955E-02    2          21        21   # BR(h -> g       g      )
     2.31914490E-03    2          22        22   # BR(h -> gam     gam    )
     1.48238016E-03    2          22        23   # BR(h -> Z       gam    )
     2.08426768E-01    2          24       -24   # BR(h -> W+      W-     )
     2.47775237E-02    2          23        23   # BR(h -> Z       Z      )
     1.98809996E-05    2     1000022   1000022   # BR(h -> ~chi_10 ~chi_10)
#
#         PDG            Width
DECAY        35     6.34624836E+00   # H decays
#          BR         NDA      ID1       ID2
     5.18665524E-01    2           5        -5   # BR(H -> b       bb     )
     8.78325908E-02    2         -15        15   # BR(H -> tau+    tau-   )
     3.10583018E-04    2         -13        13   # BR(H -> mu+     mu-    )
     3.80727345E-04    2           3        -3   # BR(H -> s       sb     )
     2.12706261E-06    2           4        -4   # BR(H -> c       cb     )
     2.12510392E-01    2           6        -6   # BR(H -> t       tb     )
     7.04654326E-05    2          21        21   # BR(H -> g       g      )
     3.98538811E-07    2          22        22   # BR(H -> gam     gam    )
     1.25477707E-07    2          23        22   # BR(H -> Z       gam    )
     9.17241630E-05    2          24       -24   # BR(H -> W+      W-     )
     4.58040372E-05    2          23        23   # BR(H -> Z       Z      )
     3.54013670E-04    2          25        25   # BR(H -> h       h      )
    -3.40506017E-23    2          36        36   # BR(H -> A       A      )
     2.94752590E-19    2          23        36   # BR(H -> Z       A      )
     5.69510111E-04    2     1000022   1000022   # BR(H -> ~chi_10 ~chi_10)
     1.04637418E-01    2     1000022   1000023   # BR(H -> ~chi_10 ~chi_20)
     7.45285964E-02    2     1000022   1000025   # BR(H -> ~chi_10 ~chi_30)
#
#         PDG            Width
DECAY        36     6.34963472E+00   # A decays
#          BR         NDA      ID1       ID2
     5.18562186E-01    2           5        -5   # BR(A -> b       bb     )
     8.77884172E-02    2         -15        15   # BR(A -> tau+    tau-   )
     3.10426382E-04    2         -13        13   # BR(A -> mu+     mu-    )
     3.80813173E-04    2           3        -3   # BR(A -> s       sb     )
     2.13498177E-06    2           4        -4   # BR(A -> c       cb     )
     2.13183901E-01    2           6        -6   # BR(A -> t       tb     )
     2.11011830E-04    2          21        21   # BR(A -> g       g      )
     4.12380754E-07    2          22        22   # BR(A -> gam     gam    )
     2.55608426E-07    2          23        22   # BR(A -> Z       gam    )
     9.13304686E-05    2          23        25   # BR(A -> Z       h      )
     5.88503817E-04    2     1000022   1000022   # BR(A -> ~chi_10 ~chi_10)
     7.54586085E-02    2     1000022   1000023   # BR(A -> ~chi_10 ~chi_20)
     1.03421999E-01    2     1000022   1000025   # BR(A -> ~chi_10 ~chi_30)
#
#         PDG            Width
DECAY        37     6.34973761E+00   # H+ decays
#          BR         NDA      ID1       ID2
     8.34787537E-04    2           4        -5   # BR(H+ -> c       bb     )
     8.78125603E-02    2         -15        16   # BR(H+ -> tau+    nu_tau )
     3.10511754E-04    2         -13        14   # BR(H+ -> mu+     nu_mu  )
     5.34261311E-06    2           2        -5   # BR(H+ -> u       bb     )
     1.82201826E-05    2           2        -3   # BR(H+ -> u       sb     )
     3.76792321E-04    2           4        -3   # BR(H+ -> c       sb     )
     7.30449502E-01    2           6        -5   # BR(H+ -> t       bb     )
     9.14674466E-05    2          24        25   # BR(H+ -> W+      h      )
     1.05356418E-13    2          24        36   # BR(H+ -> W+      A      )
     1.80100815E-01    2     1000024   1000022   # BR(H+ -> ~chi_1+ ~chi_10)
