#
#                              ======================
#                              | THE SUSYHIT OUTPUT |
#                              ======================
#
#
#              ------------------------------------------------------
#              |     This is the output of the SUSY-HIT package     |
#              |  created by A.Djouadi, M.Muehlleitner and M.Spira. |
#              |  In case of problems with SUSY-HIT email to        |
#              |           margarete.muehlleitner@kit.edu           |
#              |           michael.spira@psi.ch                     |
#              |           abdelhak.djouadi@cern.ch                 |
#              ------------------------------------------------------
#
#              ------------------------------------------------------
#              |  SUSY Les Houches Accord - MSSM Spectrum + Decays  |
#              |              based on the decay programs           |
#              |                                                    |
#              |                     SDECAY 1.5                     |
#              |                                                    |
#              |  Authors: M.Muhlleitner, A.Djouadi and Y.Mambrini  |
#              |  Ref.:    Comput.Phys.Commun.168(2005)46           |
#              |           [hep-ph/0311167]                         |
#              |                                                    |
#              |                     HDECAY 3.4                     |
#              |                                                    |
#              |  By: A.Djouadi,J.Kalinowski,M.Muhlleitner,M.Spira  |
#              |  Ref.:    Comput.Phys.Commun.108(1998)56           |
#              |           [hep-ph/9704448]                         |
#              |                                                    |
#              |                                                    |
#              |  If not stated otherwise all DRbar couplings and   |
#              |  soft SUSY breaking masses are given at the scale  |
#              |  Q=  0.91187600E+02
#              |                                                    |
#              ------------------------------------------------------
#
#
BLOCK DCINFO  # Decay Program information
     1   SDECAY/HDECAY # decay calculator
     2   1.5  /3.4    # version number
#
BLOCK SPINFO  # Spectrum calculator information
     1   SuSpect     # RGE +Spectrum calculator            
     2   2.43         # version number                     
#
BLOCK MODSEL  # Model selection
     1     2   # GMSB                                              
#
BLOCK SMINPUTS  # Standard Model inputs
         1     1.27932904E+02   # alpha_em^-1(M_Z)^MSbar
         2     1.16639000E-05   # G_F [GeV^-2]
         3     1.17200000E-01   # alpha_S(M_Z)^MSbar
         4     9.11870000E+01   # M_Z pole mass
         5     4.25000000E+00   # mb(mb)^MSbar
         6     1.72900000E+02   # mt pole mass
         7     1.77700000E+00   # mtau pole mass
#
BLOCK MINPAR  # Input parameters - minimal models
#
BLOCK EXTPAR  # Input parameters - non-minimal models
         0     9.11876000E+01   # EWSB                
         1     1.44600000E+03   # M_1                 
         2     3.00000000E+03   # M_2                 
         3     2.00000000E+03   # M_3                 
        11     0.00000000E+00   # A_t                 
        12     0.00000000E+00   # A_b                 
        13     0.00000000E+00   # A_tau               
        14     0.00000000E+00   # A_u                 
        15     0.00000000E+00   # A_d                 
        16     0.00000000E+00   # A_e                 
        23     1.45000000E+03   # mu(EWSB)            
        25     1.50000000E+00   # tanbeta(in)         
        26     2.00000000E+03   # MA_pole             
        31     5.00000000E+03   # M_eL                
        32     5.00000000E+03   # M_muL               
        33     5.00000000E+03   # M_tauL              
        34     5.00000000E+03   # M_eR                
        35     5.00000000E+03   # M_muR               
        36     5.00000000E+03   # M_tauR              
        41     5.00000000E+03   # M_q1L               
        42     5.00000000E+03   # M_q2L               
        43     5.00000000E+03   # M_q3L               
        44     5.00000000E+03   # M_uR                
        45     5.00000000E+03   # M_cR                
        46     5.00000000E+03   # M_tR                
        47     5.00000000E+03   # M_dR                
        48     5.00000000E+03   # M_sR                
        49     5.00000000E+03   # M_bR                
#
BLOCK MASS  # Mass Spectrum
# PDG code           mass       particle
        24     8.05413763E+01   # W+
        25     1.26000000E+02   # h
        35     2.00401363E+03   # H
        36     2.00000000E+03   # A
        37     2.00151228E+03   # H+
         5     4.87877839E+00   # b-quark pole mass calculated from mb(mb)_Msbar
   1000001     4.94269500E+03   # ~d_L
   2000001     4.94258486E+03   # ~d_R
   1000002     4.94244874E+03   # ~u_L
   2000002     4.94250692E+03   # ~u_R
   1000003     4.94269500E+03   # ~s_L
   2000003     4.94258486E+03   # ~s_R
   1000004     4.94244874E+03   # ~c_L
   2000004     4.94250692E+03   # ~c_R
   1000005     4.94203965E+03   # ~b_1
   2000005     4.94324161E+03   # ~b_2
   1000006     5.06145599E+03   # ~t_1
   2000006     5.35651225E+03   # ~t_2
   1000011     5.00008218E+03   # ~e_L
   2000011     5.00007611E+03   # ~e_R
   1000012     4.99984171E+03   # ~nu_eL
   1000013     5.00008218E+03   # ~mu_L
   2000013     5.00007611E+03   # ~mu_R
   1000014     4.99984171E+03   # ~nu_muL
   1000015     4.99969262E+03   # ~tau_1
   2000015     5.00046627E+03   # ~tau_2
   1000016     4.99984171E+03   # ~nu_tauL
   1000021     2.06306441E+03   # ~g
   1000022     1.49248879E+03   # ~chi_10
   1000023    -1.54196705E+03   # ~chi_20
   1000025     1.57971310E+03   # ~chi_30
   1000035     3.12742775E+03   # ~chi_40
   1000024     1.53815053E+03   # ~chi_1+
   1000037     3.12742498E+03   # ~chi_2+
   1000039     1.00000000E-09   # ~gravitino
#
BLOCK NMIX  # Neutralino Mixing Matrix
  1  1     7.23120902E-01   # N_11
  1  2    -3.27754806E-02   # N_12
  1  3     4.89449634E-01   # N_13
  1  4    -4.86272541E-01   # N_14
  2  1     2.83788400E-03   # N_21
  2  2    -3.32576175E-03   # N_22
  2  3    -7.07012507E-01   # N_23
  2  4    -7.07187529E-01   # N_24
  3  1     6.90714317E-01   # N_31
  3  2     3.62882336E-02   # N_32
  3  3    -5.09445275E-01   # N_33
  3  4     5.11920315E-01   # N_34
  4  1     1.35635928E-03   # N_41
  4  2    -9.98798213E-01   # N_42
  4  3    -3.22161780E-02   # N_43
  4  4     3.69107963E-02   # N_44
#
BLOCK UMIX  # Chargino Mixing Matrix U
  1  1    -4.55248700E-02   # U_11
  1  2     9.98963206E-01   # U_12
  2  1     9.98963206E-01   # U_21
  2  2     4.55248700E-02   # U_22
#
BLOCK VMIX  # Chargino Mixing Matrix V
  1  1    -5.21644077E-02   # V_11
  1  2     9.98638510E-01   # V_12
  2  1     9.98638510E-01   # V_21
  2  2     5.21644077E-02   # V_22
#
BLOCK STOPMIX  # Stop Mixing Matrix
  1  1     9.99979014E-01   # cos(theta_t)
  1  2     6.47854610E-03   # sin(theta_t)
  2  1    -6.47854610E-03   # -sin(theta_t)
  2  2     9.99979014E-01   # cos(theta_t)
#
BLOCK SBOTMIX  # Sbottom Mixing Matrix
  1  1     6.73933008E-01   # cos(theta_b)
  1  2     7.38792461E-01   # sin(theta_b)
  2  1    -7.38792461E-01   # -sin(theta_b)
  2  2     6.73933008E-01   # cos(theta_b)
#
BLOCK STAUMIX  # Stau Mixing Matrix
  1  1     7.04328255E-01   # cos(theta_tau)
  1  2     7.09874432E-01   # sin(theta_tau)
  2  1    -7.09874432E-01   # -sin(theta_tau)
  2  2     7.04328255E-01   # cos(theta_tau)
#
BLOCK ALPHA  # Higgs mixing
          -5.90204568E-01   # Mixing angle in the neutral Higgs boson sector
#
BLOCK HMIX Q=  9.11876000E+01  # DRbar Higgs Parameters
         1     1.45000000E+03   # mu(Q)               
         2     1.49999979E+00   # tanbeta(Q)          
         3     2.52209787E+02   # vev(Q)              
         4     3.30722913E+06   # MA^2(Q)             
#
BLOCK GAUGE Q=  9.11876000E+01  # The gauge couplings
     1     3.52759003E-01   # gprime(Q) DRbar
     2     6.27024102E-01   # g(Q) DRbar
     3     1.08044661E+00   # g3(Q) DRbar
#
BLOCK AU Q=  9.11876000E+01  # The trilinear couplings
  1  1     0.00000000E+00   # A_u(Q) DRbar
  2  2     0.00000000E+00   # A_c(Q) DRbar
  3  3     0.00000000E+00   # A_t(Q) DRbar
#
BLOCK AD Q=  9.11876000E+01  # The trilinear couplings
  1  1     0.00000000E+00   # A_d(Q) DRbar
  2  2     0.00000000E+00   # A_s(Q) DRbar
  3  3     0.00000000E+00   # A_b(Q) DRbar
#
BLOCK AE Q=  9.11876000E+01  # The trilinear couplings
  1  1     0.00000000E+00   # A_e(Q) DRbar
  2  2     0.00000000E+00   # A_mu(Q) DRbar
  3  3     0.00000000E+00   # A_tau(Q) DRbar
#
BLOCK Yu Q=  9.11876000E+01  # The Yukawa couplings
  1  1     0.00000000E+00   # y_u(Q) DRbar
  2  2     0.00000000E+00   # y_c(Q) DRbar
  3  3     1.02536649E+00   # y_t(Q) DRbar
#
BLOCK Yd Q=  9.11876000E+01  # The Yukawa couplings
  1  1     0.00000000E+00   # y_d(Q) DRbar
  2  2     0.00000000E+00   # y_s(Q) DRbar
  3  3     2.71613396E-02   # y_b(Q) DRbar
#
BLOCK Ye Q=  9.11876000E+01  # The Yukawa couplings
  1  1     0.00000000E+00   # y_e(Q) DRbar
  2  2     0.00000000E+00   # y_mu(Q) DRbar
  3  3     1.79780753E-02   # y_tau(Q) DRbar
#
BLOCK MSOFT Q=  9.11876000E+01  # The soft SUSY breaking masses at the scale Q
         1     1.44600000E+03   # M_1                 
         2     3.00000000E+03   # M_2                 
         3     2.00000000E+03   # M_3                 
        14     0.00000000E+00   # A_u                 
        15     0.00000000E+00   # A_d                 
        16     0.00000000E+00   # A_e                 
        21     6.91445141E+05   # M^2_Hd              
        22    -7.35549494E+06   # M^2_Hu              
        31     5.00000000E+03   # M_eL                
        32     5.00000000E+03   # M_muL               
        33     5.00000000E+03   # M_tauL              
        34     5.00000000E+03   # M_eR                
        35     5.00000000E+03   # M_muR               
        36     5.00000000E+03   # M_tauR              
        41     5.00000000E+03   # M_q1L               
        42     5.00000000E+03   # M_q2L               
        43     5.00000000E+03   # M_q3L               
        44     5.00000000E+03   # M_uR                
        45     5.00000000E+03   # M_cR                
        46     5.00000000E+03   # M_tR                
        47     5.00000000E+03   # M_dR                
        48     5.00000000E+03   # M_sR                
        49     5.00000000E+03   # M_bR                
#
#
#
#                             =================
#                             |The decay table|
#                             =================
#
# - The QCD corrections to the decays gluino -> squark  + quark
#                                     squark -> gaugino + quark_prime
#                                     squark -> squark_prime + Higgs
#                                     squark -> gluino  + quark
#   are included.
#
# - The multi-body decays for the inos, stops and sbottoms are included.
#
# - The loop induced decays for the gluino, neutralinos and stops
#   are included.
#
# - The SUSY decays of the top quark are included.
#
# - Possible decays of the NLSP in GMSB models are included.
#
#
#         PDG            Width
DECAY         6     1.36981246E+00   # top decays
#          BR         NDA      ID1       ID2
     1.00000000E+00    2           5        24   # BR(t ->  b    W+)
#
#         PDG            Width
DECAY   1000021     7.42066520E-05   # gluino decays
#          BR         NDA      ID1       ID2
     2.33899870E-02    2     1000022        21   # BR(~g -> ~chi_10 g)
     3.91826157E-02    2     1000023        21   # BR(~g -> ~chi_20 g)
     1.66830495E-02    2     1000025        21   # BR(~g -> ~chi_30 g)
#          BR         NDA      ID1       ID2
0.0E+00    2     1000039    21 # BR(~g -> ~G      g)
#           BR         NDA      ID1       ID2       ID3
     5.34853158E-03    3     1000022         1        -1   # BR(~g -> ~chi_10 d  db)
     1.93270563E-07    3     1000023         1        -1   # BR(~g -> ~chi_20 d  db)
     1.90426593E-03    3     1000025         1        -1   # BR(~g -> ~chi_30 d  db)
     1.59986170E-02    3     1000022         2        -2   # BR(~g -> ~chi_10 u  ub)
     1.48882515E-07    3     1000023         2        -2   # BR(~g -> ~chi_20 u  ub)
     7.43484544E-03    3     1000025         2        -2   # BR(~g -> ~chi_30 u  ub)
     5.34853158E-03    3     1000022         3        -3   # BR(~g -> ~chi_10 s  sb)
     1.93270563E-07    3     1000023         3        -3   # BR(~g -> ~chi_20 s  sb)
     1.90426593E-03    3     1000025         3        -3   # BR(~g -> ~chi_30 s  sb)
     1.59986170E-02    3     1000022         4        -4   # BR(~g -> ~chi_10 c  cb)
     1.48882515E-07    3     1000023         4        -4   # BR(~g -> ~chi_20 c  cb)
     7.43484544E-03    3     1000025         4        -4   # BR(~g -> ~chi_30 c  cb)
     5.39474106E-03    3     1000022         5        -5   # BR(~g -> ~chi_10 b  bb)
     1.33115788E-04    3     1000023         5        -5   # BR(~g -> ~chi_20 b  bb)
     1.97284005E-03    3     1000025         5        -5   # BR(~g -> ~chi_30 b  bb)
     3.63034416E-02    3     1000022         6        -6   # BR(~g -> ~chi_10 t  tb)
     2.78300126E-02    3     1000023         6        -6   # BR(~g -> ~chi_20 t  tb)
     1.87421993E-02    3     1000025         6        -6   # BR(~g -> ~chi_30 t  tb)
     1.73570807E-04    3     1000024         1        -2   # BR(~g -> ~chi_1+ d  ub)
     1.73570807E-04    3    -1000024         2        -1   # BR(~g -> ~chi_1- u  db)
     1.73570807E-04    3     1000024         3        -4   # BR(~g -> ~chi_1+ s  cb)
     1.73570807E-04    3    -1000024         4        -3   # BR(~g -> ~chi_1- c  sb)
     9.42307005E-02    3     1000024         5        -6   # BR(~g -> ~chi_1+ b  tb)
     9.42307005E-02    3    -1000024         6        -5   # BR(~g -> ~chi_1- t  bb)
#
#         PDG            Width
DECAY   1000006     2.70615145E+02   # stop1 decays
#          BR         NDA      ID1       ID2
     5.25189842E-02    2     1000022         6   # BR(~t_1 -> ~chi_10 t )
     1.10244767E-01    2     1000023         6   # BR(~t_1 -> ~chi_20 t )
     5.96067393E-02    2     1000025         6   # BR(~t_1 -> ~chi_30 t )
     2.73861869E-02    2     1000035         6   # BR(~t_1 -> ~chi_40 t )
    -5.41595691E-05    2     1000024         5   # BR(~t_1 -> ~chi_1+ b )
     5.42669106E-02    2     1000037         5   # BR(~t_1 -> ~chi_2+ b )
     6.83240815E-01    2     1000021         6   # BR(~t_1 -> ~g      t )
     5.98596710E-03    2     1000005        24   # BR(~t_1 -> ~b_1    W+)
     6.80378984E-03    2     2000005        24   # BR(~t_1 -> ~b_2    W+)
#
#         PDG            Width
DECAY   2000006     3.40972224E+02   # stop2 decays
#          BR         NDA      ID1       ID2
     6.05716197E-02    2     1000022         6   # BR(~t_2 -> ~chi_10 t )
     9.53183444E-02    2     1000023         6   # BR(~t_2 -> ~chi_20 t )
     6.25526879E-02    2     1000025         6   # BR(~t_2 -> ~chi_30 t )
     2.63937927E-05    2     1000035         6   # BR(~t_2 -> ~chi_40 t )
     1.90972251E-01    2     1000024         5   # BR(~t_2 -> ~chi_1+ b )
     5.40042470E-05    2     1000037         5   # BR(~t_2 -> ~chi_2+ b )
     5.90534955E-01    2     1000021         6   # BR(~t_2 -> ~g      t )
    -8.55947614E-05    2     1000006        25   # BR(~t_2 -> ~t_1    h )
     7.43997139E-06    2     1000006        23   # BR(~t_2 -> ~t_1    Z )
     2.18778708E-05    2     1000005        24   # BR(~t_2 -> ~b_1    W+)
     2.60205648E-05    2     2000005        24   # BR(~t_2 -> ~b_2    W+)
#
#         PDG            Width
DECAY   1000005     2.13407898E+02   # sbottom1 decays
#          BR         NDA      ID1       ID2
     4.76157556E-03    2     1000022         5   # BR(~b_1 -> ~chi_10 b )
     8.33964128E-05    2     1000023         5   # BR(~b_1 -> ~chi_20 b )
     2.35130344E-03    2     1000025         5   # BR(~b_1 -> ~chi_30 b )
     1.34847933E-02    2     1000035         5   # BR(~b_1 -> ~chi_40 b )
     1.13498614E-01    2    -1000024         6   # BR(~b_1 -> ~chi_1- t )
     2.72219267E-02    2    -1000037         6   # BR(~b_1 -> ~chi_2- t )
     8.38598391E-01    2     1000021         5   # BR(~b_1 -> ~g      b )
#
#         PDG            Width
DECAY   2000005     2.25224966E+02   # sbottom2 decays
#          BR         NDA      ID1       ID2
     2.54569525E-03    2     1000022         5   # BR(~b_2 -> ~chi_10 b )
     1.03419406E-04    2     1000023         5   # BR(~b_2 -> ~chi_20 b )
     2.92678078E-03    2     1000025         5   # BR(~b_2 -> ~chi_30 b )
     1.71054324E-02    2     1000035         5   # BR(~b_2 -> ~chi_40 b )
     1.48654215E-01    2    -1000024         6   # BR(~b_2 -> ~chi_1- t )
     3.45393846E-02    2    -1000037         6   # BR(~b_2 -> ~chi_2- t )
     7.94125072E-01    2     1000021         5   # BR(~b_2 -> ~g      b )
#
#         PDG            Width
DECAY   1000002     1.99725983E+02   # sup_L decays
#          BR         NDA      ID1       ID2
     8.15530760E-04    2     1000022         2   # BR(~u_L -> ~chi_10 u)
     5.93796091E-07    2     1000023         2   # BR(~u_L -> ~chi_20 u)
     2.06990882E-03    2     1000025         2   # BR(~u_L -> ~chi_30 u)
     3.36562946E-02    2     1000035         2   # BR(~u_L -> ~chi_40 u)
     4.14531180E-04    2     1000024         1   # BR(~u_L -> ~chi_1+ d)
     6.73255093E-02    2     1000037         1   # BR(~u_L -> ~chi_2+ d)
     8.95717632E-01    2     1000021         2   # BR(~u_L -> ~g      u)
#
#         PDG            Width
DECAY   2000002     1.87470642E+02   # sup_R decays
#          BR         NDA      ID1       ID2
     2.41757321E-02    2     1000022         2   # BR(~u_R -> ~chi_10 u)
     3.67350835E-07    2     1000023         2   # BR(~u_R -> ~chi_20 u)
     2.15306155E-02    2     1000025         2   # BR(~u_R -> ~chi_30 u)
     3.72277392E-08    2     1000035         2   # BR(~u_R -> ~chi_40 u)
     9.54293248E-01    2     1000021         2   # BR(~u_R -> ~g      u)
#
#         PDG            Width
DECAY   1000001     1.99733257E+02   # sdown_L decays
#          BR         NDA      ID1       ID2
     2.18672843E-03    2     1000022         1   # BR(~d_L -> ~chi_10 d)
     1.13252272E-06    2     1000023         1   # BR(~d_L -> ~chi_20 d)
     6.54522096E-04    2     1000025         1   # BR(~d_L -> ~chi_30 d)
     3.36954915E-02    2     1000035         1   # BR(~d_L -> ~chi_40 d)
     3.15733983E-04    2    -1000024         2   # BR(~d_L -> ~chi_1- u)
     6.73790849E-02    2    -1000037         2   # BR(~d_L -> ~chi_2- u)
     8.95767307E-01    2     1000021         1   # BR(~d_L -> ~g      d)
#
#         PDG            Width
DECAY   2000001     1.81049387E+02   # sdown_R decays
#          BR         NDA      ID1       ID2
     6.25843144E-03    2     1000022         1   # BR(~d_R -> ~chi_10 d)
     9.50970618E-08    2     1000023         1   # BR(~d_R -> ~chi_20 d)
     5.57368826E-03    2     1000025         1   # BR(~d_R -> ~chi_30 d)
     9.63757687E-09    2     1000035         1   # BR(~d_R -> ~chi_40 d)
     9.88167776E-01    2     1000021         1   # BR(~d_R -> ~g      d)
#
#         PDG            Width
DECAY   1000004     1.99725983E+02   # scharm_L decays
#          BR         NDA      ID1       ID2
     8.15530760E-04    2     1000022         4   # BR(~c_L -> ~chi_10 c)
     5.93796091E-07    2     1000023         4   # BR(~c_L -> ~chi_20 c)
     2.06990882E-03    2     1000025         4   # BR(~c_L -> ~chi_30 c)
     3.36562946E-02    2     1000035         4   # BR(~c_L -> ~chi_40 c)
     4.14531180E-04    2     1000024         3   # BR(~c_L -> ~chi_1+ s)
     6.73255093E-02    2     1000037         3   # BR(~c_L -> ~chi_2+ s)
     8.95717632E-01    2     1000021         4   # BR(~c_L -> ~g      c)
#
#         PDG            Width
DECAY   2000004     1.87470642E+02   # scharm_R decays
#          BR         NDA      ID1       ID2
     2.41757321E-02    2     1000022         4   # BR(~c_R -> ~chi_10 c)
     3.67350835E-07    2     1000023         4   # BR(~c_R -> ~chi_20 c)
     2.15306155E-02    2     1000025         4   # BR(~c_R -> ~chi_30 c)
     3.72277392E-08    2     1000035         4   # BR(~c_R -> ~chi_40 c)
     9.54293248E-01    2     1000021         4   # BR(~c_R -> ~g      c)
#
#         PDG            Width
DECAY   1000003     1.99733257E+02   # sstrange_L decays
#          BR         NDA      ID1       ID2
     2.18672843E-03    2     1000022         3   # BR(~s_L -> ~chi_10 s)
     1.13252272E-06    2     1000023         3   # BR(~s_L -> ~chi_20 s)
     6.54522096E-04    2     1000025         3   # BR(~s_L -> ~chi_30 s)
     3.36954915E-02    2     1000035         3   # BR(~s_L -> ~chi_40 s)
     3.15733983E-04    2    -1000024         4   # BR(~s_L -> ~chi_1- c)
     6.73790849E-02    2    -1000037         4   # BR(~s_L -> ~chi_2- c)
     8.95767307E-01    2     1000021         3   # BR(~s_L -> ~g      s)
#
#         PDG            Width
DECAY   2000003     1.81049387E+02   # sstrange_R decays
#          BR         NDA      ID1       ID2
     6.25843144E-03    2     1000022         3   # BR(~s_R -> ~chi_10 s)
     9.50970618E-08    2     1000023         3   # BR(~s_R -> ~chi_20 s)
     5.57368826E-03    2     1000025         3   # BR(~s_R -> ~chi_30 s)
     9.63757687E-09    2     1000035         3   # BR(~s_R -> ~chi_40 s)
     9.88167776E-01    2     1000021         3   # BR(~s_R -> ~g      s)
#
#         PDG            Width
DECAY   1000011     2.68800456E+01   # selectron_L decays
#          BR         NDA      ID1       ID2
     8.44522255E-02    2     1000022        11   # BR(~e_L -> ~chi_10 e-)
     1.78114388E-06    2     1000023        11   # BR(~e_L -> ~chi_20 e-)
     1.06416301E-01    2     1000025        11   # BR(~e_L -> ~chi_30 e-)
     2.68552472E-01    2     1000035        11   # BR(~e_L -> ~chi_40 e-)
     2.47168056E-03    2    -1000024        12   # BR(~e_L -> ~chi_1- nu_e)
     5.38105539E-01    2    -1000037        12   # BR(~e_L -> ~chi_2- nu_e)
#
#         PDG            Width
DECAY   2000011     2.03123849E+01   # selectron_R decays
#          BR         NDA      ID1       ID2
     5.28806766E-01    2     1000022        11   # BR(~e_R -> ~chi_10 e-)
     8.03746420E-06    2     1000023        11   # BR(~e_R -> ~chi_20 e-)
     4.71184365E-01    2     1000025        11   # BR(~e_R -> ~chi_30 e-)
     8.31001707E-07    2     1000035        11   # BR(~e_R -> ~chi_40 e-)
#
#         PDG            Width
DECAY   1000013     2.68800456E+01   # smuon_L decays
#          BR         NDA      ID1       ID2
     8.44522255E-02    2     1000022        13   # BR(~mu_L -> ~chi_10 mu-)
     1.78114388E-06    2     1000023        13   # BR(~mu_L -> ~chi_20 mu-)
     1.06416301E-01    2     1000025        13   # BR(~mu_L -> ~chi_30 mu-)
     2.68552472E-01    2     1000035        13   # BR(~mu_L -> ~chi_40 mu-)
     2.47168056E-03    2    -1000024        14   # BR(~mu_L -> ~chi_1- nu_mu)
     5.38105539E-01    2    -1000037        14   # BR(~mu_L -> ~chi_2- nu_mu)
#
#         PDG            Width
DECAY   2000013     2.03123849E+01   # smuon_R decays
#          BR         NDA      ID1       ID2
     5.28806766E-01    2     1000022        13   # BR(~mu_R -> ~chi_10 mu-)
     8.03746420E-06    2     1000023        13   # BR(~mu_R -> ~chi_20 mu-)
     4.71184365E-01    2     1000025        13   # BR(~mu_R -> ~chi_30 mu-)
     8.31001707E-07    2     1000035        13   # BR(~mu_R -> ~chi_40 mu-)
#
#         PDG            Width
DECAY   1000015     2.36491112E+01   # stau_1 decays
#          BR         NDA      ID1       ID2
     2.82770205E-01    2     1000022        15   # BR(~tau_1 -> ~chi_10  tau-)
     4.65459632E-04    2     1000023        15   # BR(~tau_1 -> ~chi_20  tau-)
     2.59379323E-01    2     1000025        15   # BR(~tau_1 -> ~chi_30  tau-)
     1.50982534E-01    2     1000035        15   # BR(~tau_1 -> ~chi_40  tau-)
     3.72111884E-03    2    -1000024        16   # BR(~tau_1 -> ~chi_1-  nu_tau)
     3.02529273E-01    2    -1000037        16   # BR(~tau_1 -> ~chi_2-  nu_tau)
     1.52085604E-04    2     1000039        15   # BR(~tau_1 -> ~G       tau-)
#
#         PDG            Width
DECAY   2000015     2.36258895E+01   # stau_2 decays
#          BR         NDA      ID1       ID2
     2.68215279E-01    2     1000022        15   # BR(~tau_2 -> ~chi_10  tau-)
     6.56999333E-04    2     1000023        15   # BR(~tau_2 -> ~chi_20  tau-)
     2.67116571E-01    2     1000025        15   # BR(~tau_2 -> ~chi_30  tau-)
     1.54413540E-01    2     1000035        15   # BR(~tau_2 -> ~chi_40  tau-)
     2.00105914E-04    2    -1000024        16   # BR(~tau_2 -> ~chi_1-  nu_tau)
     3.09397504E-01    2    -1000037        16   # BR(~tau_2 -> ~chi_2-  nu_tau)
#
#         PDG            Width
DECAY   1000012     2.68813949E+01   # snu_eL decays
#          BR         NDA      ID1       ID2
     1.16632418E-01    2     1000022        12   # BR(~nu_eL -> ~chi_10 nu_e)
     1.44312633E-05    2     1000023        12   # BR(~nu_eL -> ~chi_20 nu_e)
     7.31572130E-02    2     1000025        12   # BR(~nu_eL -> ~chi_30 nu_e)
     2.69314645E-01    2     1000035        12   # BR(~nu_eL -> ~chi_40 nu_e)
     3.24483079E-03    2     1000024        11   # BR(~nu_eL -> ~chi_1+ e-)
     5.37636463E-01    2     1000037        11   # BR(~nu_eL -> ~chi_2+ e-)
#
#         PDG            Width
DECAY   1000014     2.68813949E+01   # snu_muL decays
#          BR         NDA      ID1       ID2
     1.16632418E-01    2     1000022        14   # BR(~nu_muL -> ~chi_10 nu_mu)
     1.44312633E-05    2     1000023        14   # BR(~nu_muL -> ~chi_20 nu_mu)
     7.31572130E-02    2     1000025        14   # BR(~nu_muL -> ~chi_30 nu_mu)
     2.69314645E-01    2     1000035        14   # BR(~nu_muL -> ~chi_40 nu_mu)
     3.24483079E-03    2     1000024        13   # BR(~nu_muL -> ~chi_1+ mu-)
     5.37636463E-01    2     1000037        13   # BR(~nu_muL -> ~chi_2+ mu-)
#
#         PDG            Width
DECAY   1000016     2.69077115E+01   # snu_tauL decays
#          BR         NDA      ID1       ID2
     1.16518347E-01    2     1000022        16   # BR(~nu_tauL -> ~chi_10 nu_tau)
     1.44171490E-05    2     1000023        16   # BR(~nu_tauL -> ~chi_20 nu_tau)
     7.30856629E-02    2     1000025        16   # BR(~nu_tauL -> ~chi_30 nu_tau)
     2.69051246E-01    2     1000035        16   # BR(~nu_tauL -> ~chi_40 nu_tau)
     4.21811306E-03    2     1000024        15   # BR(~nu_tauL -> ~chi_1+ tau-)
     5.37112214E-01    2     1000037        15   # BR(~nu_tauL -> ~chi_2+ tau-)
#
#         PDG            Width
DECAY   1000024     1.29636385E-04   # chargino1+ decays
#          BR         NDA      ID1       ID2
     3.79151304E-02    2     1000039        24   # BR(~chi_1+ -> ~G       W+)
#           BR         NDA      ID1       ID2       ID3
     3.20960901E-01    3     1000022         2        -1   # BR(~chi_1+ -> ~chi_10 u    db)
     3.20960901E-01    3     1000022         4        -3   # BR(~chi_1+ -> ~chi_10 c    sb)
     1.06987086E-01    3     1000022       -11        12   # BR(~chi_1+ -> ~chi_10 e+   nu_e)
     1.06987086E-01    3     1000022       -13        14   # BR(~chi_1+ -> ~chi_10 mu+  nu_mu)
     1.06188895E-01    3     1000022       -15        16   # BR(~chi_1+ -> ~chi_10 tau+ nu_tau)
#
#         PDG            Width
DECAY   1000037     3.87879538E+01   # chargino2+ decays
#          BR         NDA      ID1       ID2
     2.53244491E-01    2     1000024        23   # BR(~chi_2+ -> ~chi_1+  Z )
     1.10748512E-01    2     1000022        24   # BR(~chi_2+ -> ~chi_10  W+)
     2.46240485E-01    2     1000023        24   # BR(~chi_2+ -> ~chi_20  W+)
     1.36120491E-01    2     1000025        24   # BR(~chi_2+ -> ~chi_30  W+)
     2.53637172E-01    2     1000024        25   # BR(~chi_2+ -> ~chi_1+  h )
     8.84740128E-06    2     1000039        24   # BR(~chi_2+ -> ~G       W+)
     1.22588097E-09    2     1000039        37   # BR(~chi_2+ -> ~G       H+)
#
#         PDG            Width
DECAY   1000022    1.0E-05    # neutralino1 decays
#          BR         NDA      ID1       ID2
     4.99341094E-01    2     1000039        22   # BR(~chi_10 -> ~G        gam)
     4.89516299E-01    2     1000039        23   # BR(~chi_10 -> ~G        Z)
     1.11426070E-02    2     1000039        25   # BR(~chi_10 -> ~G        h)
#
#         PDG            Width
DECAY   1000023     1.56236241E-04   # neutralino2 decays
#          BR         NDA      ID1       ID2
     5.91739726E-04    2     1000022        22   # BR(~chi_20 -> ~chi_10 gam)
#          BR         NDA      ID1       ID2
     4.56101168E-08    2     1000039        22   # BR(~chi_20 -> ~G        gam)
     1.22077201E-03    2     1000039        23   # BR(~chi_20 -> ~G        Z)
     3.00934336E-02    2     1000039        25   # BR(~chi_20 -> ~G        h)
#           BR         NDA      ID1       ID2       ID3
     1.14825473E-01    3     1000022        -2         2   # BR(~chi_20 -> ~chi_10 ub      u)
     1.48683274E-01    3     1000022        -1         1   # BR(~chi_20 -> ~chi_10 db      d)
     1.14825473E-01    3     1000022        -4         4   # BR(~chi_20 -> ~chi_10 cb      c)
     1.48683274E-01    3     1000022        -3         3   # BR(~chi_20 -> ~chi_10 sb      s)
     1.36074537E-01    3     1000022        -5         5   # BR(~chi_20 -> ~chi_10 bb      b)
     3.39575367E-02    3     1000022       -11        11   # BR(~chi_20 -> ~chi_10 e+      e-)
     3.39575367E-02    3     1000022       -13        13   # BR(~chi_20 -> ~chi_10 mu+     mu-)
     3.36294526E-02    3     1000022       -15        15   # BR(~chi_20 -> ~chi_10 tau+    tau-)
     6.78156080E-02    3     1000022       -12        12   # BR(~chi_20 -> ~chi_10 nu_eb   nu_e)
     6.78156080E-02    3     1000022       -14        14   # BR(~chi_20 -> ~chi_10 nu_mub  nu_mu)
     6.78156080E-02    3     1000022       -16        16   # BR(~chi_20 -> ~chi_10 nu_taub nu_tau)
     1.90954768E-06    3     1000024        -2         1   # BR(~chi_20 -> ~chi_1+ ub      d)
     1.90954768E-06    3    -1000024        -1         2   # BR(~chi_20 -> ~chi_1- db      u)
     1.90954768E-06    3     1000024        -4         3   # BR(~chi_20 -> ~chi_1+ cb      s)
     1.90954768E-06    3    -1000024        -3         4   # BR(~chi_20 -> ~chi_1- sb      c)
     6.36515930E-07    3     1000024       -12        11   # BR(~chi_20 -> ~chi_1+ nu_eb   e-)
     6.36515930E-07    3    -1000024        12       -11   # BR(~chi_20 -> ~chi_1- nu_e    e+)
     6.36515930E-07    3     1000024       -14        13   # BR(~chi_20 -> ~chi_1+ nu_mub  mu-)
     6.36515930E-07    3    -1000024        14       -13   # BR(~chi_20 -> ~chi_1- nu_mu   mu+)
     2.21563091E-07    3     1000024       -16        15   # BR(~chi_20 -> ~chi_1+ nu_taub tau-)
     2.21563091E-07    3    -1000024        16       -15   # BR(~chi_20 -> ~chi_1- nu_tau  tau+)
#
#         PDG            Width
DECAY   1000025     2.12711951E-04   # neutralino3 decays
#          BR         NDA      ID1       ID2
     3.93904833E-04    2     1000022        22   # BR(~chi_30 -> ~chi_10 gam)
     8.37016227E-06    2     1000023        22   # BR(~chi_30 -> ~chi_20 gam)
#          BR         NDA      ID1       ID2
     2.04530997E-02    2     1000039        22   # BR(~chi_30 -> ~G        gam)
     1.81412588E-02    2     1000039        23   # BR(~chi_30 -> ~G        Z)
     5.21784042E-04    2     1000039        25   # BR(~chi_30 -> ~G        h)
#           BR         NDA      ID1       ID2       ID3
     1.06448107E-05    3     1000022        -2         2   # BR(~chi_30 -> ~chi_10 ub      u)
     1.25762423E-05    3     1000022        -1         1   # BR(~chi_30 -> ~chi_10 db      d)
     1.06448107E-05    3     1000022        -4         4   # BR(~chi_30 -> ~chi_10 cb      c)
     1.25762423E-05    3     1000022        -3         3   # BR(~chi_30 -> ~chi_10 sb      s)
     2.88719676E-05    3     1000022        -5         5   # BR(~chi_30 -> ~chi_10 bb      b)
     2.16212337E-06    3     1000022       -11        11   # BR(~chi_30 -> ~chi_10 e+      e-)
     2.16212337E-06    3     1000022       -13        13   # BR(~chi_30 -> ~chi_10 mu+     mu-)
     4.65125125E-06    3     1000022       -15        15   # BR(~chi_30 -> ~chi_10 tau+    tau-)
     6.17687244E-06    3     1000022       -12        12   # BR(~chi_30 -> ~chi_10 nu_eb   nu_e)
     6.17687244E-06    3     1000022       -14        14   # BR(~chi_30 -> ~chi_10 nu_mub  nu_mu)
     6.17687244E-06    3     1000022       -16        16   # BR(~chi_30 -> ~chi_10 nu_taub nu_tau)
     2.21855353E-02    3     1000023        -2         2   # BR(~chi_30 -> ~chi_20 ub      u)
     2.87272682E-02    3     1000023        -1         1   # BR(~chi_30 -> ~chi_20 db      d)
     2.21855353E-02    3     1000023        -4         4   # BR(~chi_30 -> ~chi_20 cb      c)
     2.87272682E-02    3     1000023        -3         3   # BR(~chi_30 -> ~chi_20 sb      s)
     2.47622841E-02    3     1000023        -5         5   # BR(~chi_30 -> ~chi_20 bb      b)
     6.56098537E-03    3     1000023       -11        11   # BR(~chi_30 -> ~chi_20 e+      e-)
     6.56098537E-03    3     1000023       -13        13   # BR(~chi_30 -> ~chi_20 mu+     mu-)
     6.46607316E-03    3     1000023       -15        15   # BR(~chi_30 -> ~chi_20 tau+    tau-)
     1.31026823E-02    3     1000023       -12        12   # BR(~chi_30 -> ~chi_20 nu_eb   nu_e)
     1.31026823E-02    3     1000023       -14        14   # BR(~chi_30 -> ~chi_20 nu_mub  nu_mu)
     1.31026823E-02    3     1000023       -16        16   # BR(~chi_30 -> ~chi_20 nu_taub nu_tau)
     1.29278858E-01    3     1000024        -2         1   # BR(~chi_30 -> ~chi_1+ ub      d)
     1.29278858E-01    3    -1000024        -1         2   # BR(~chi_30 -> ~chi_1- db      u)
     1.29278858E-01    3     1000024        -4         3   # BR(~chi_30 -> ~chi_1+ cb      s)
     1.29278858E-01    3    -1000024        -3         4   # BR(~chi_30 -> ~chi_1- sb      c)
     4.30928906E-02    3     1000024       -12        11   # BR(~chi_30 -> ~chi_1+ nu_eb   e-)
     4.30928906E-02    3    -1000024        12       -11   # BR(~chi_30 -> ~chi_1- nu_e    e+)
     4.30928906E-02    3     1000024       -14        13   # BR(~chi_30 -> ~chi_1+ nu_mub  mu-)
     4.30928906E-02    3    -1000024        14       -13   # BR(~chi_30 -> ~chi_1- nu_mu   mu+)
     4.27038921E-02    3     1000024       -16        15   # BR(~chi_30 -> ~chi_1+ nu_taub tau-)
     4.27038921E-02    3    -1000024        16       -15   # BR(~chi_30 -> ~chi_1- nu_tau  tau+)
#
#         PDG            Width
DECAY   1000035     3.87880464E+01   # neutralino4 decays
#          BR         NDA      ID1       ID2
     5.36809079E-04    2     1000022        23   # BR(~chi_40 -> ~chi_10   Z )
     2.51846274E-01    2     1000023        23   # BR(~chi_40 -> ~chi_20   Z )
     6.24940315E-04    2     1000025        23   # BR(~chi_40 -> ~chi_30   Z )
     2.46469930E-01    2     1000024       -24   # BR(~chi_40 -> ~chi_1+   W-)
     2.46469930E-01    2    -1000024        24   # BR(~chi_40 -> ~chi_1-   W+)
     1.13433715E-01    2     1000022        25   # BR(~chi_40 -> ~chi_10   h )
     1.14000650E-03    2     1000023        25   # BR(~chi_40 -> ~chi_20   h )
     1.39469547E-01    2     1000025        25   # BR(~chi_40 -> ~chi_30   h )
     2.11953680E-06    2     1000039        22   # BR(~chi_40 -> ~G        gam)
     6.72686987E-06    2     1000039        23   # BR(~chi_40 -> ~G        Z)
     7.15674506E-10    2     1000039        25   # BR(~chi_40 -> ~G        h)
     1.19916854E-09    2     1000039        35   # BR(~chi_40 -> ~G        H)
     2.17168859E-11    2     1000039        36   # BR(~chi_40 -> ~G        A)
#
#         PDG            Width
DECAY        25     4.22057974E-03   # h decays
#          BR         NDA      ID1       ID2
     6.02095942E-01    2           5        -5   # BR(h -> b       bb     )
     6.22064925E-02    2         -15        15   # BR(h -> tau+    tau-   )
     2.20183863E-04    2         -13        13   # BR(h -> mu+     mu-    )
     4.65866423E-04    2           3        -3   # BR(h -> s       sb     )
     2.00981905E-02    2           4        -4   # BR(h -> c       cb     )
     6.63745116E-02    2          21        21   # BR(h -> g       g      )
     2.30569828E-03    2          22        22   # BR(h -> gam     gam    )
     1.62579744E-03    2          22        23   # BR(h -> Z       gam    )
     2.16541144E-01    2          24       -24   # BR(h -> W+      W-     )
     2.80661738E-02    2          23        23   # BR(h -> Z       Z      )
#
#         PDG            Width
DECAY        35     3.78104309E+01   # H decays
#          BR         NDA      ID1       ID2
     1.46846441E-03    2           5        -5   # BR(H -> b       bb     )
     2.46425189E-04    2         -15        15   # BR(H -> tau+    tau-   )
     8.71204788E-07    2         -13        13   # BR(H -> mu+     mu-    )
     1.11546009E-06    2           3        -3   # BR(H -> s       sb     )
     1.00668254E-05    2           4        -4   # BR(H -> c       cb     )
     9.96065912E-01    2           6        -6   # BR(H -> t       tb     )
     7.97753255E-04    2          21        21   # BR(H -> g       g      )
     2.71477143E-06    2          22        22   # BR(H -> gam     gam    )
     1.16010410E-06    2          23        22   # BR(H -> Z       gam    )
     3.35401366E-04    2          24       -24   # BR(H -> W+      W-     )
     1.67243286E-04    2          23        23   # BR(H -> Z       Z      )
     9.02871588E-04    2          25        25   # BR(H -> h       h      )
     7.44270494E-24    2          36        36   # BR(H -> A       A      )
     2.97246421E-11    2          23        36   # BR(H -> Z       A      )
     6.80884968E-12    2          24       -37   # BR(H -> W+      H-     )
     6.80884968E-12    2         -24        37   # BR(H -> W-      H+     )
#
#         PDG            Width
DECAY        36     3.82381613E+01   # A decays
#          BR         NDA      ID1       ID2
     1.47140093E-03    2           5        -5   # BR(A -> b       bb     )
     2.43898139E-04    2         -15        15   # BR(A -> tau+    tau-   )
     8.62268030E-07    2         -13        13   # BR(A -> mu+     mu-    )
     1.13677591E-06    2           3        -3   # BR(A -> s       sb     )
     9.96178195E-06    2           4        -4   # BR(A -> c       cb     )
     9.96997706E-01    2           6        -6   # BR(A -> t       tb     )
     9.43677269E-04    2          21        21   # BR(A -> g       g      )
     3.15260715E-06    2          22        22   # BR(A -> gam     gam    )
     1.35269757E-06    2          23        22   # BR(A -> Z       gam    )
     3.26851974E-04    2          23        25   # BR(A -> Z       h      )
#
#         PDG            Width
DECAY        37     3.74472226E+01   # H+ decays
#          BR         NDA      ID1       ID2
     2.35856546E-06    2           4        -5   # BR(H+ -> c       bb     )
     2.49237932E-04    2         -15        16   # BR(H+ -> tau+    nu_tau )
     8.81146125E-07    2         -13        14   # BR(H+ -> mu+     nu_mu  )
     1.49949327E-08    2           2        -5   # BR(H+ -> u       bb     )
     5.45694948E-08    2           2        -3   # BR(H+ -> u       sb     )
     1.08731788E-05    2           4        -3   # BR(H+ -> c       sb     )
     9.99401592E-01    2           6        -5   # BR(H+ -> t       bb     )
     3.34987160E-04    2          24        25   # BR(H+ -> W+      h      )
     2.77776390E-13    2          24        36   # BR(H+ -> W+      A      )
