#
#                              ======================
#                              | THE SUSYHIT OUTPUT |
#                              ======================
#
#
#              ------------------------------------------------------
#              |     This is the output of the SUSY-HIT package     |
#              |  created by A.Djouadi, M.Muehlleitner and M.Spira. |
#              |  In case of problems with SUSY-HIT email to        |
#              |           margarete.muehlleitner@kit.edu           |
#              |           michael.spira@psi.ch                     |
#              |           abdelhak.djouadi@cern.ch                 |
#              ------------------------------------------------------
#
#              ------------------------------------------------------
#              |  SUSY Les Houches Accord - MSSM Spectrum + Decays  |
#              |              based on the decay programs           |
#              |                                                    |
#              |                     SDECAY 1.5                     |
#              |                                                    |
#              |  Authors: M.Muhlleitner, A.Djouadi and Y.Mambrini  |
#              |  Ref.:    Comput.Phys.Commun.168(2005)46           |
#              |           [hep-ph/0311167]                         |
#              |                                                    |
#              |                     HDECAY 3.4                     |
#              |                                                    |
#              |  By: A.Djouadi,J.Kalinowski,M.Muhlleitner,M.Spira  |
#              |  Ref.:    Comput.Phys.Commun.108(1998)56           |
#              |           [hep-ph/9704448]                         |
#              |                                                    |
#              |                                                    |
#              |  If not stated otherwise all DRbar couplings and   |
#              |  soft SUSY breaking masses are given at the scale  |
#              |  Q=  0.91187600E+02
#              |                                                    |
#              ------------------------------------------------------
#
#
BLOCK DCINFO  # Decay Program information
     1   SDECAY/HDECAY # decay calculator
     2   1.5  /3.4    # version number
#
BLOCK SPINFO  # Spectrum calculator information
     1   SuSpect     # RGE +Spectrum calculator            
     2   2.43         # version number                     
#
BLOCK MODSEL  # Model selection
     1     2   # GMSB                                              
#
BLOCK SMINPUTS  # Standard Model inputs
         1     1.27932904E+02   # alpha_em^-1(M_Z)^MSbar
         2     1.16639000E-05   # G_F [GeV^-2]
         3     1.17200000E-01   # alpha_S(M_Z)^MSbar
         4     9.11870000E+01   # M_Z pole mass
         5     4.25000000E+00   # mb(mb)^MSbar
         6     1.72900000E+02   # mt pole mass
         7     1.77700000E+00   # mtau pole mass
#
BLOCK MINPAR  # Input parameters - minimal models
#
BLOCK EXTPAR  # Input parameters - non-minimal models
         0     9.11876000E+01   # EWSB                
         1     6.57000000E+02   # M_1                 
         2     3.00000000E+03   # M_2                 
         3     1.40000000E+03   # M_3                 
        11     0.00000000E+00   # A_t                 
        12     0.00000000E+00   # A_b                 
        13     0.00000000E+00   # A_tau               
        14     0.00000000E+00   # A_u                 
        15     0.00000000E+00   # A_d                 
        16     0.00000000E+00   # A_e                 
        23     6.50000000E+02   # mu(EWSB)            
        25     1.50000000E+00   # tanbeta(in)         
        26     2.00000000E+03   # MA_pole             
        31     5.00000000E+03   # M_eL                
        32     5.00000000E+03   # M_muL               
        33     5.00000000E+03   # M_tauL              
        34     5.00000000E+03   # M_eR                
        35     5.00000000E+03   # M_muR               
        36     5.00000000E+03   # M_tauR              
        41     5.00000000E+03   # M_q1L               
        42     5.00000000E+03   # M_q2L               
        43     5.00000000E+03   # M_q3L               
        44     5.00000000E+03   # M_uR                
        45     5.00000000E+03   # M_cR                
        46     5.00000000E+03   # M_tR                
        47     5.00000000E+03   # M_dR                
        48     5.00000000E+03   # M_sR                
        49     5.00000000E+03   # M_bR                
#
BLOCK MASS  # Mass Spectrum
# PDG code           mass       particle
        24     8.05394407E+01   # W+
        25     1.26000000E+02   # h
        35     2.00436588E+03   # H
        36     2.00000000E+03   # A
        37     2.00200162E+03   # H+
         5     4.87877839E+00   # b-quark pole mass calculated from mb(mb)_Msbar
   1000001     4.99643637E+03   # ~d_L
   2000001     4.99632685E+03   # ~d_R
   1000002     4.99619155E+03   # ~u_L
   2000002     4.99624952E+03   # ~u_R
   1000003     4.99643637E+03   # ~s_L
   2000003     4.99632685E+03   # ~s_R
   1000004     4.99619155E+03   # ~c_L
   2000004     4.99624952E+03   # ~c_R
   1000005     4.99611012E+03   # ~b_1
   2000005     4.99665456E+03   # ~b_2
   1000006     5.12393991E+03   # ~t_1
   2000006     5.42161144E+03   # ~t_2
   1000011     5.00008233E+03   # ~e_L
   2000011     5.00007602E+03   # ~e_R
   1000012     4.99984165E+03   # ~nu_eL
   1000013     5.00008233E+03   # ~mu_L
   2000013     5.00007602E+03   # ~mu_R
   1000014     4.99984165E+03   # ~nu_muL
   1000015     4.99990613E+03   # ~tau_1
   2000015     5.00025285E+03   # ~tau_2
   1000016     4.99984165E+03   # ~nu_tauL
   1000021     1.52200581E+03   # ~g
   1000022     6.51760725E+02   # ~chi_10
   1000023    -6.96929681E+02   # ~chi_20
   1000025     7.38923470E+02   # ~chi_30
   1000035     3.12900863E+03   # ~chi_40
   1000024     6.94400935E+02   # ~chi_1+
   1000037     3.12900790E+03   # ~chi_2+
   1000039     1.00000000E-09   # ~gravitino
#
BLOCK NMIX  # Neutralino Mixing Matrix
  1  1     6.98900610E-01   # N_11
  1  2    -2.23768502E-02   # N_12
  1  3     5.08854452E-01   # N_13
  1  4    -5.02099950E-01   # N_14
  2  1     6.27133149E-03   # N_21
  2  2    -4.06604104E-03   # N_22
  2  3    -7.06788242E-01   # N_23
  2  4    -7.07385693E-01   # N_24
  3  1     7.15191068E-01   # N_31
  3  2     2.27216905E-02   # N_32
  3  3    -4.91050109E-01   # N_33
  3  4     4.96845299E-01   # N_34
  4  1     5.85959262E-04   # N_41
  4  2    -9.99483101E-01   # N_42
  4  3    -1.96803912E-02   # N_43
  4  4     2.54139762E-02   # N_44
#
BLOCK UMIX  # Chargino Mixing Matrix U
  1  1    -2.78213329E-02   # U_11
  1  2     9.99612912E-01   # U_12
  2  1     9.99612912E-01   # U_21
  2  2     2.78213329E-02   # U_22
#
BLOCK VMIX  # Chargino Mixing Matrix V
  1  1    -3.59324260E-02   # V_11
  1  2     9.99354222E-01   # V_12
  2  1     9.99354222E-01   # V_21
  2  2     3.59324260E-02   # V_22
#
BLOCK STOPMIX  # Stop Mixing Matrix
  1  1     9.99967837E-01   # cos(theta_t)
  1  2    -8.02028463E-03   # sin(theta_t)
  2  1     8.02028463E-03   # -sin(theta_t)
  2  2     9.99967837E-01   # cos(theta_t)
#
BLOCK SBOTMIX  # Sbottom Mixing Matrix
  1  1     6.31999276E-01   # cos(theta_b)
  1  2     7.74968977E-01   # sin(theta_b)
  2  1    -7.74968977E-01   # -sin(theta_b)
  2  2     6.31999276E-01   # cos(theta_b)
#
BLOCK STAUMIX  # Stau Mixing Matrix
  1  1     7.00650842E-01   # cos(theta_tau)
  1  2     7.13504308E-01   # sin(theta_tau)
  2  1    -7.13504308E-01   # -sin(theta_tau)
  2  2     7.00650842E-01   # cos(theta_tau)
#
BLOCK ALPHA  # Higgs mixing
          -5.90205000E-01   # Mixing angle in the neutral Higgs boson sector
#
BLOCK HMIX Q=  9.11876000E+01  # DRbar Higgs Parameters
         1     6.50000000E+02   # mu(Q)               
         2     1.49999979E+00   # tanbeta(Q)          
         3     2.51967738E+02   # vev(Q)              
         4     3.68701275E+06   # MA^2(Q)             
#
BLOCK GAUGE Q=  9.11876000E+01  # The gauge couplings
     1     3.52896734E-01   # gprime(Q) DRbar
     2     6.27898131E-01   # g(Q) DRbar
     3     1.08619173E+00   # g3(Q) DRbar
#
BLOCK AU Q=  9.11876000E+01  # The trilinear couplings
  1  1     0.00000000E+00   # A_u(Q) DRbar
  2  2     0.00000000E+00   # A_c(Q) DRbar
  3  3     0.00000000E+00   # A_t(Q) DRbar
#
BLOCK AD Q=  9.11876000E+01  # The trilinear couplings
  1  1     0.00000000E+00   # A_d(Q) DRbar
  2  2     0.00000000E+00   # A_s(Q) DRbar
  3  3     0.00000000E+00   # A_b(Q) DRbar
#
BLOCK AE Q=  9.11876000E+01  # The trilinear couplings
  1  1     0.00000000E+00   # A_e(Q) DRbar
  2  2     0.00000000E+00   # A_mu(Q) DRbar
  3  3     0.00000000E+00   # A_tau(Q) DRbar
#
BLOCK Yu Q=  9.11876000E+01  # The Yukawa couplings
  1  1     0.00000000E+00   # y_u(Q) DRbar
  2  2     0.00000000E+00   # y_c(Q) DRbar
  3  3     1.02595093E+00   # y_t(Q) DRbar
#
BLOCK Yd Q=  9.11876000E+01  # The Yukawa couplings
  1  1     0.00000000E+00   # y_d(Q) DRbar
  2  2     0.00000000E+00   # y_s(Q) DRbar
  3  3     2.72060701E-02   # y_b(Q) DRbar
#
BLOCK Ye Q=  9.11876000E+01  # The Yukawa couplings
  1  1     0.00000000E+00   # y_e(Q) DRbar
  2  2     0.00000000E+00   # y_mu(Q) DRbar
  3  3     1.79881780E-02   # y_tau(Q) DRbar
#
BLOCK MSOFT Q=  9.11876000E+01  # The soft SUSY breaking masses at the scale Q
         1     6.57000000E+02   # M_1                 
         2     3.00000000E+03   # M_2                 
         3     1.40000000E+03   # M_3                 
        14     0.00000000E+00   # A_u                 
        15     0.00000000E+00   # A_d                 
        16     0.00000000E+00   # A_e                 
        21     2.58351508E+06   # M^2_Hd              
        22    -5.86858350E+06   # M^2_Hu              
        31     5.00000000E+03   # M_eL                
        32     5.00000000E+03   # M_muL               
        33     5.00000000E+03   # M_tauL              
        34     5.00000000E+03   # M_eR                
        35     5.00000000E+03   # M_muR               
        36     5.00000000E+03   # M_tauR              
        41     5.00000000E+03   # M_q1L               
        42     5.00000000E+03   # M_q2L               
        43     5.00000000E+03   # M_q3L               
        44     5.00000000E+03   # M_uR                
        45     5.00000000E+03   # M_cR                
        46     5.00000000E+03   # M_tR                
        47     5.00000000E+03   # M_dR                
        48     5.00000000E+03   # M_sR                
        49     5.00000000E+03   # M_bR                
#
#
#
#                             =================
#                             |The decay table|
#                             =================
#
# - The QCD corrections to the decays gluino -> squark  + quark
#                                     squark -> gaugino + quark_prime
#                                     squark -> squark_prime + Higgs
#                                     squark -> gluino  + quark
#   are included.
#
# - The multi-body decays for the inos, stops and sbottoms are included.
#
# - The loop induced decays for the gluino, neutralinos and stops
#   are included.
#
# - The SUSY decays of the top quark are included.
#
# - Possible decays of the NLSP in GMSB models are included.
#
#
#         PDG            Width
DECAY         6     1.37371661E+00   # top decays
#          BR         NDA      ID1       ID2
     1.00000000E+00    2           5        24   # BR(t ->  b    W+)
#
#         PDG            Width
DECAY   1000021     1.88837580E-04   # gluino decays
#          BR         NDA      ID1       ID2
     1.74037341E-02    2     1000022        21   # BR(~g -> ~chi_10 g)
     3.11045200E-02    2     1000023        21   # BR(~g -> ~chi_20 g)
     1.35768659E-02    2     1000025        21   # BR(~g -> ~chi_30 g)
#          BR         NDA      ID1       ID2
0.0E+00    2     1000039    21 # BR(~g -> ~G      g)
#           BR         NDA      ID1       ID2       ID3
     6.55923373E-03    3     1000022         1        -1   # BR(~g -> ~chi_10 d  db)
     7.68954060E-07    3     1000023         1        -1   # BR(~g -> ~chi_20 d  db)
     4.13362068E-03    3     1000025         1        -1   # BR(~g -> ~chi_30 d  db)
     2.03809898E-02    3     1000022         2        -2   # BR(~g -> ~chi_10 u  ub)
     7.09760647E-07    3     1000023         2        -2   # BR(~g -> ~chi_20 u  ub)
     1.53101469E-02    3     1000025         2        -2   # BR(~g -> ~chi_30 u  ub)
     6.55923373E-03    3     1000022         3        -3   # BR(~g -> ~chi_10 s  sb)
     7.68954060E-07    3     1000023         3        -3   # BR(~g -> ~chi_20 s  sb)
     4.13362068E-03    3     1000025         3        -3   # BR(~g -> ~chi_30 s  sb)
     2.03809898E-02    3     1000022         4        -4   # BR(~g -> ~chi_10 c  cb)
     7.09760647E-07    3     1000023         4        -4   # BR(~g -> ~chi_20 c  cb)
     1.53101469E-02    3     1000025         4        -4   # BR(~g -> ~chi_30 c  cb)
     6.66022776E-03    3     1000022         5        -5   # BR(~g -> ~chi_10 b  bb)
     2.33369625E-04    3     1000023         5        -5   # BR(~g -> ~chi_20 b  bb)
     4.25279823E-03    3     1000025         5        -5   # BR(~g -> ~chi_30 b  bb)
     1.00544935E-01    3     1000022         6        -6   # BR(~g -> ~chi_10 t  tb)
     1.44513229E-01    3     1000023         6        -6   # BR(~g -> ~chi_20 t  tb)
     9.06576493E-02    3     1000025         6        -6   # BR(~g -> ~chi_30 t  tb)
     1.22470362E-04    3     1000024         1        -2   # BR(~g -> ~chi_1+ d  ub)
     1.22470362E-04    3    -1000024         2        -1   # BR(~g -> ~chi_1- u  db)
     1.22470362E-04    3     1000024         3        -4   # BR(~g -> ~chi_1+ s  cb)
     1.22470362E-04    3    -1000024         4        -3   # BR(~g -> ~chi_1- c  sb)
     2.23998781E-01    3     1000024         5        -6   # BR(~g -> ~chi_1+ b  tb)
     2.23998781E-01    3    -1000024         6        -5   # BR(~g -> ~chi_1- t  bb)
#
#         PDG            Width
DECAY   1000006     3.19582009E+02   # stop1 decays
#          BR         NDA      ID1       ID2
     5.56337455E-02    2     1000022         6   # BR(~t_1 -> ~chi_10 t )
     1.11023084E-01    2     1000023         6   # BR(~t_1 -> ~chi_20 t )
     5.71677422E-02    2     1000025         6   # BR(~t_1 -> ~chi_30 t )
     2.40846387E-02    2     1000035         6   # BR(~t_1 -> ~chi_40 t )
     6.83532419E-05    2     1000024         5   # BR(~t_1 -> ~chi_1+ b )
     4.79611859E-02    2     1000037         5   # BR(~t_1 -> ~chi_2+ b )
     6.88578450E-01    2     1000021         6   # BR(~t_1 -> ~g      t )
     6.26260800E-03    2     1000005        24   # BR(~t_1 -> ~b_1    W+)
     9.22019262E-03    2     2000005        24   # BR(~t_1 -> ~b_2    W+)
#
#         PDG            Width
DECAY   2000006     3.97223268E+02   # stop2 decays
#          BR         NDA      ID1       ID2
     6.28371719E-02    2     1000022         6   # BR(~t_2 -> ~chi_10 t )
     9.53094270E-02    2     1000023         6   # BR(~t_2 -> ~chi_20 t )
     6.02895206E-02    2     1000025         6   # BR(~t_2 -> ~chi_30 t )
    -4.82513300E-06    2     1000035         6   # BR(~t_2 -> ~chi_40 t )
     1.90819651E-01    2     1000024         5   # BR(~t_2 -> ~chi_1+ b )
    -9.38892190E-06    2     1000037         5   # BR(~t_2 -> ~chi_2+ b )
     5.90756530E-01    2     1000021         6   # BR(~t_2 -> ~g      t )
    -5.60231323E-05    2     1000006        25   # BR(~t_2 -> ~t_1    h )
     8.70824580E-06    2     1000006        23   # BR(~t_2 -> ~t_1    Z )
     1.96863756E-05    2     1000005        24   # BR(~t_2 -> ~b_1    W+)
     2.95416959E-05    2     2000005        24   # BR(~t_2 -> ~b_2    W+)
#
#         PDG            Width
DECAY   1000005     2.43136453E+02   # sbottom1 decays
#          BR         NDA      ID1       ID2
     4.91140211E-03    2     1000022         5   # BR(~b_1 -> ~chi_10 b )
     8.16869835E-05    2     1000023         5   # BR(~b_1 -> ~chi_20 b )
     3.29216003E-03    2     1000025         5   # BR(~b_1 -> ~chi_30 b )
     9.21507868E-03    2     1000035         5   # BR(~b_1 -> ~chi_40 b )
     8.21443794E-02    2    -1000024         6   # BR(~b_1 -> ~chi_1- t )
     1.85054242E-02    2    -1000037         6   # BR(~b_1 -> ~chi_2- t )
     8.81849869E-01    2     1000021         5   # BR(~b_1 -> ~g      b )
#
#         PDG            Width
DECAY   2000005     2.79107162E+02   # sbottom2 decays
#          BR         NDA      ID1       ID2
     1.84661784E-03    2     1000022         5   # BR(~b_2 -> ~chi_10 b )
     1.06239321E-04    2     1000023         5   # BR(~b_2 -> ~chi_20 b )
     2.67943914E-03    2     1000025         5   # BR(~b_2 -> ~chi_30 b )
     1.70971617E-02    2     1000035         5   # BR(~b_2 -> ~chi_40 b )
     1.76009961E-01    2    -1000024         6   # BR(~b_2 -> ~chi_1- t )
     3.43453832E-02    2    -1000037         6   # BR(~b_2 -> ~chi_2- t )
     7.67915198E-01    2     1000021         5   # BR(~b_2 -> ~g      b )
#
#         PDG            Width
DECAY   1000002     2.36090247E+02   # sup_L decays
#          BR         NDA      ID1       ID2
     9.12938300E-04    2     1000022         2   # BR(~u_L -> ~chi_10 u)
     6.44349801E-07    2     1000023         2   # BR(~u_L -> ~chi_20 u)
     1.88378147E-03    2     1000025         2   # BR(~u_L -> ~chi_30 u)
     2.96832076E-02    2     1000035         2   # BR(~u_L -> ~chi_40 u)
     1.99116409E-04    2     1000024         1   # BR(~u_L -> ~chi_1+ d)
     5.93641810E-02    2     1000037         1   # BR(~u_L -> ~chi_2+ d)
     9.07956131E-01    2     1000021         2   # BR(~u_L -> ~g      u)
#
#         PDG            Width
DECAY   2000002     2.24582388E+02   # sup_R decays
#          BR         NDA      ID1       ID2
     2.23386596E-02    2     1000022         2   # BR(~u_R -> ~chi_10 u)
     1.78978816E-06    2     1000023         2   # BR(~u_R -> ~chi_20 u)
     2.31630930E-02    2     1000025         2   # BR(~u_R -> ~chi_30 u)
     6.02427555E-09    2     1000035         2   # BR(~u_R -> ~chi_40 u)
     9.54496452E-01    2     1000021         2   # BR(~u_R -> ~g      u)
#
#         PDG            Width
DECAY   1000001     2.36094415E+02   # sdown_L decays
#          BR         NDA      ID1       ID2
     1.82089719E-03    2     1000022         1   # BR(~d_L -> ~chi_10 d)
     2.11744491E-06    2     1000023         1   # BR(~d_L -> ~chi_20 d)
     9.49679755E-04    2     1000025         1   # BR(~d_L -> ~chi_30 d)
     2.97009067E-02    2     1000035         1   # BR(~d_L -> ~chi_40 d)
     1.19372762E-04    2    -1000024         2   # BR(~d_L -> ~chi_1- u)
     5.94042301E-02    2    -1000037         2   # BR(~d_L -> ~chi_2- u)
     9.08002796E-01    2     1000021         1   # BR(~d_L -> ~g      d)
#
#         PDG            Width
DECAY   2000001     2.16922635E+02   # sdown_R decays
#          BR         NDA      ID1       ID2
     5.78196114E-03    2     1000022         1   # BR(~d_R -> ~chi_10 d)
     4.63254617E-07    2     1000023         1   # BR(~d_R -> ~chi_20 d)
     5.99535279E-03    2     1000025         1   # BR(~d_R -> ~chi_30 d)
     1.55933558E-09    2     1000035         1   # BR(~d_R -> ~chi_40 d)
     9.88222221E-01    2     1000021         1   # BR(~d_R -> ~g      d)
#
#         PDG            Width
DECAY   1000004     2.36090247E+02   # scharm_L decays
#          BR         NDA      ID1       ID2
     9.12938300E-04    2     1000022         4   # BR(~c_L -> ~chi_10 c)
     6.44349801E-07    2     1000023         4   # BR(~c_L -> ~chi_20 c)
     1.88378147E-03    2     1000025         4   # BR(~c_L -> ~chi_30 c)
     2.96832076E-02    2     1000035         4   # BR(~c_L -> ~chi_40 c)
     1.99116409E-04    2     1000024         3   # BR(~c_L -> ~chi_1+ s)
     5.93641810E-02    2     1000037         3   # BR(~c_L -> ~chi_2+ s)
     9.07956131E-01    2     1000021         4   # BR(~c_L -> ~g      c)
#
#         PDG            Width
DECAY   2000004     2.24582388E+02   # scharm_R decays
#          BR         NDA      ID1       ID2
     2.23386596E-02    2     1000022         4   # BR(~c_R -> ~chi_10 c)
     1.78978816E-06    2     1000023         4   # BR(~c_R -> ~chi_20 c)
     2.31630930E-02    2     1000025         4   # BR(~c_R -> ~chi_30 c)
     6.02427555E-09    2     1000035         4   # BR(~c_R -> ~chi_40 c)
     9.54496452E-01    2     1000021         4   # BR(~c_R -> ~g      c)
#
#         PDG            Width
DECAY   1000003     2.36094415E+02   # sstrange_L decays
#          BR         NDA      ID1       ID2
     1.82089719E-03    2     1000022         3   # BR(~s_L -> ~chi_10 s)
     2.11744491E-06    2     1000023         3   # BR(~s_L -> ~chi_20 s)
     9.49679755E-04    2     1000025         3   # BR(~s_L -> ~chi_30 s)
     2.97009067E-02    2     1000035         3   # BR(~s_L -> ~chi_40 s)
     1.19372762E-04    2    -1000024         4   # BR(~s_L -> ~chi_1- c)
     5.94042301E-02    2    -1000037         4   # BR(~s_L -> ~chi_2- c)
     9.08002796E-01    2     1000021         3   # BR(~s_L -> ~g      s)
#
#         PDG            Width
DECAY   2000003     2.16922635E+02   # sstrange_R decays
#          BR         NDA      ID1       ID2
     5.78196114E-03    2     1000022         3   # BR(~s_R -> ~chi_10 s)
     4.63254617E-07    2     1000023         3   # BR(~s_R -> ~chi_20 s)
     5.99535279E-03    2     1000025         3   # BR(~s_R -> ~chi_30 s)
     1.55933558E-09    2     1000035         3   # BR(~s_R -> ~chi_40 s)
     9.88222221E-01    2     1000021         3   # BR(~s_R -> ~g      s)
#
#         PDG            Width
DECAY   1000011     2.77632317E+01   # selectron_L decays
#          BR         NDA      ID1       ID2
     9.36487219E-02    2     1000022        11   # BR(~e_L -> ~chi_10 e-)
     1.99039006E-07    2     1000023        11   # BR(~e_L -> ~chi_20 e-)
     1.21878902E-01    2     1000025        11   # BR(~e_L -> ~chi_30 e-)
     2.60980145E-01    2     1000035        11   # BR(~e_L -> ~chi_40 e-)
     1.05161151E-03    2    -1000024        12   # BR(~e_L -> ~chi_1- nu_e)
     5.22440422E-01    2    -1000037        12   # BR(~e_L -> ~chi_2- nu_e)
#
#         PDG            Width
DECAY   2000011     2.38207399E+01   # selectron_R decays
#          BR         NDA      ID1       ID2
     4.90933264E-01    2     1000022        11   # BR(~e_R -> ~chi_10 e-)
     3.93328488E-05    2     1000023        11   # BR(~e_R -> ~chi_20 e-)
     5.09027271E-01    2     1000025        11   # BR(~e_R -> ~chi_30 e-)
     1.32180487E-07    2     1000035        11   # BR(~e_R -> ~chi_40 e-)
#
#         PDG            Width
DECAY   1000013     2.77632317E+01   # smuon_L decays
#          BR         NDA      ID1       ID2
     9.36487219E-02    2     1000022        13   # BR(~mu_L -> ~chi_10 mu-)
     1.99039006E-07    2     1000023        13   # BR(~mu_L -> ~chi_20 mu-)
     1.21878902E-01    2     1000025        13   # BR(~mu_L -> ~chi_30 mu-)
     2.60980145E-01    2     1000035        13   # BR(~mu_L -> ~chi_40 mu-)
     1.05161151E-03    2    -1000024        14   # BR(~mu_L -> ~chi_1- nu_mu)
     5.22440422E-01    2    -1000037        14   # BR(~mu_L -> ~chi_2- nu_mu)
#
#         PDG            Width
DECAY   2000013     2.38207399E+01   # smuon_R decays
#          BR         NDA      ID1       ID2
     4.90933264E-01    2     1000022        13   # BR(~mu_R -> ~chi_10 mu-)
     3.93328488E-05    2     1000023        13   # BR(~mu_R -> ~chi_20 mu-)
     5.09027271E-01    2     1000025        13   # BR(~mu_R -> ~chi_30 mu-)
     1.32180487E-07    2     1000035        13   # BR(~mu_R -> ~chi_40 mu-)
#
#         PDG            Width
DECAY   1000015     2.58349762E+01   # stau_1 decays
#          BR         NDA      ID1       ID2
     2.86444562E-01    2     1000022        15   # BR(~tau_1 -> ~chi_10  tau-)
     4.58415906E-04    2     1000023        15   # BR(~tau_1 -> ~chi_20  tau-)
     2.98058545E-01    2     1000025        15   # BR(~tau_1 -> ~chi_30  tau-)
     1.37439523E-01    2     1000035        15   # BR(~tau_1 -> ~chi_40  tau-)
     2.32729568E-03    2    -1000024        16   # BR(~tau_1 -> ~chi_1-  nu_tau)
     2.75132411E-01    2    -1000037        16   # BR(~tau_1 -> ~chi_2-  nu_tau)
     1.39247560E-04    2     1000039        15   # BR(~tau_1 -> ~G       tau-)
#
#         PDG            Width
DECAY   2000015     2.58454271E+01   # stau_2 decays
#          BR         NDA      ID1       ID2
     2.67364820E-01    2     1000022        15   # BR(~tau_2 -> ~chi_10  tau-)
     7.74584189E-04    2     1000023        15   # BR(~tau_2 -> ~chi_20  tau-)
     3.02711695E-01    2     1000025        15   # BR(~tau_2 -> ~chi_30  tau-)
     1.42962403E-01    2     1000035        15   # BR(~tau_2 -> ~chi_40  tau-)
     6.68418014E-08    2    -1000024        16   # BR(~tau_2 -> ~chi_1-  nu_tau)
     2.86186430E-01    2    -1000037        16   # BR(~tau_2 -> ~chi_2-  nu_tau)
#
#         PDG            Width
DECAY   1000012     2.77625902E+01   # snu_eL decays
#          BR         NDA      ID1       ID2
     1.17641083E-01    2     1000022        12   # BR(~nu_eL -> ~chi_10 nu_e)
     3.91288401E-05    2     1000023        12   # BR(~nu_eL -> ~chi_20 nu_e)
     9.71879900E-02    2     1000025        12   # BR(~nu_eL -> ~chi_30 nu_e)
     2.61285410E-01    2     1000035        12   # BR(~nu_eL -> ~chi_40 nu_e)
     1.75412294E-03    2     1000024        11   # BR(~nu_eL -> ~chi_1+ e-)
     5.22092265E-01    2     1000037        11   # BR(~nu_eL -> ~chi_2+ e-)
#
#         PDG            Width
DECAY   1000014     2.77625902E+01   # snu_muL decays
#          BR         NDA      ID1       ID2
     1.17641083E-01    2     1000022        14   # BR(~nu_muL -> ~chi_10 nu_mu)
     3.91288401E-05    2     1000023        14   # BR(~nu_muL -> ~chi_20 nu_mu)
     9.71879900E-02    2     1000025        14   # BR(~nu_muL -> ~chi_30 nu_mu)
     2.61285410E-01    2     1000035        14   # BR(~nu_muL -> ~chi_40 nu_mu)
     1.75412294E-03    2     1000024        13   # BR(~nu_muL -> ~chi_1+ mu-)
     5.22092265E-01    2     1000037        13   # BR(~nu_muL -> ~chi_2+ mu-)
#
#         PDG            Width
DECAY   1000016     2.77935305E+01   # snu_tauL decays
#          BR         NDA      ID1       ID2
     1.17510122E-01    2     1000022        16   # BR(~nu_tauL -> ~chi_10 nu_tau)
     3.90852811E-05    2     1000023        16   # BR(~nu_tauL -> ~chi_20 nu_tau)
     9.70797985E-02    2     1000025        16   # BR(~nu_tauL -> ~chi_30 nu_tau)
     2.60994542E-01    2     1000035        16   # BR(~nu_tauL -> ~chi_40 nu_tau)
     2.86480565E-03    2     1000024        15   # BR(~nu_tauL -> ~chi_1+ tau-)
     5.21511646E-01    2     1000037        15   # BR(~nu_tauL -> ~chi_2+ tau-)
#
#         PDG            Width
DECAY   1000024     8.80931078E-05   # chargino1+ decays
#          BR         NDA      ID1       ID2
     1.00225774E-03    2     1000039        24   # BR(~chi_1+ -> ~G       W+)
#           BR         NDA      ID1       ID2       ID3
     3.33316749E-01    3     1000022         2        -1   # BR(~chi_1+ -> ~chi_10 u    db)
     3.33316749E-01    3     1000022         4        -3   # BR(~chi_1+ -> ~chi_10 c    sb)
     1.11105716E-01    3     1000022       -11        12   # BR(~chi_1+ -> ~chi_10 e+   nu_e)
     1.11105716E-01    3     1000022       -13        14   # BR(~chi_1+ -> ~chi_10 mu+  nu_mu)
     1.10152814E-01    3     1000022       -15        16   # BR(~chi_1+ -> ~chi_10 tau+ nu_tau)
#
#         PDG            Width
DECAY   1000037     3.58728150E+01   # chargino2+ decays
#          BR         NDA      ID1       ID2
     2.34621607E-01    2     1000024        23   # BR(~chi_2+ -> ~chi_1+  Z )
     1.10623801E-01    2     1000022        24   # BR(~chi_2+ -> ~chi_10  W+)
     2.28645208E-01    2     1000023        24   # BR(~chi_2+ -> ~chi_20  W+)
     1.18124266E-01    2     1000025        24   # BR(~chi_2+ -> ~chi_30  W+)
     2.35708629E-01    2     1000024        25   # BR(~chi_2+ -> ~chi_1+  h )
     1.79437921E-02    2     1000024        35   # BR(~chi_2+ -> ~chi_1+  H )
     1.81939063E-02    2     1000024        36   # BR(~chi_2+ -> ~chi_1+  A )
     1.02509015E-02    2     1000022        37   # BR(~chi_2+ -> ~chi_10  H+)
     1.79831074E-02    2     1000023        37   # BR(~chi_2+ -> ~chi_20  H+)
     7.89518487E-03    2     1000025        37   # BR(~chi_2+ -> ~chi_30  H+)
     9.59702776E-06    2     1000039        24   # BR(~chi_2+ -> ~G       W+)
     5.46549366E-10    2     1000039        37   # BR(~chi_2+ -> ~G       H+)
#
#         PDG            Width
DECAY   1000022    1.0E-05    # neutralino1 decays
#          BR         NDA      ID1       ID2
     5.01985267E-01    2     1000039        22   # BR(~chi_10 -> ~G        gam)
     4.87209647E-01    2     1000039        23   # BR(~chi_10 -> ~G        Z)
     1.08050861E-02    2     1000039        25   # BR(~chi_10 -> ~G        h)
#
#         PDG            Width
DECAY   1000023     9.48910763E-05   # neutralino2 decays
#          BR         NDA      ID1       ID2
     4.64570315E-04    2     1000022        22   # BR(~chi_20 -> ~chi_10 gam)
#          BR         NDA      ID1       ID2
     2.40872477E-08    2     1000039        22   # BR(~chi_20 -> ~G        gam)
     3.60327539E-05    2     1000039        23   # BR(~chi_20 -> ~G        Z)
     8.40506009E-04    2     1000039        25   # BR(~chi_20 -> ~G        h)
#           BR         NDA      ID1       ID2       ID3
     1.18765172E-01    3     1000022        -2         2   # BR(~chi_20 -> ~chi_10 ub      u)
     1.53758804E-01    3     1000022        -1         1   # BR(~chi_20 -> ~chi_10 db      d)
     1.18765172E-01    3     1000022        -4         4   # BR(~chi_20 -> ~chi_10 cb      c)
     1.53758804E-01    3     1000022        -3         3   # BR(~chi_20 -> ~chi_10 sb      s)
     1.38385391E-01    3     1000022        -5         5   # BR(~chi_20 -> ~chi_10 bb      b)
     3.51047390E-02    3     1000022       -11        11   # BR(~chi_20 -> ~chi_10 e+      e-)
     3.51047390E-02    3     1000022       -13        13   # BR(~chi_20 -> ~chi_10 mu+     mu-)
     3.47173981E-02    3     1000022       -15        15   # BR(~chi_20 -> ~chi_10 tau+    tau-)
     7.00988260E-02    3     1000022       -12        12   # BR(~chi_20 -> ~chi_10 nu_eb   nu_e)
     7.00988260E-02    3     1000022       -14        14   # BR(~chi_20 -> ~chi_10 nu_mub  nu_mu)
     7.00988260E-02    3     1000022       -16        16   # BR(~chi_20 -> ~chi_10 nu_taub nu_tau)
     4.03328483E-07    3     1000024        -2         1   # BR(~chi_20 -> ~chi_1+ ub      d)
     4.03328483E-07    3    -1000024        -1         2   # BR(~chi_20 -> ~chi_1- db      u)
     4.03328483E-07    3     1000024        -4         3   # BR(~chi_20 -> ~chi_1+ cb      s)
     4.03328483E-07    3    -1000024        -3         4   # BR(~chi_20 -> ~chi_1- sb      c)
     1.34442838E-07    3     1000024       -12        11   # BR(~chi_20 -> ~chi_1+ nu_eb   e-)
     1.34442838E-07    3    -1000024        12       -11   # BR(~chi_20 -> ~chi_1- nu_e    e+)
     1.34442838E-07    3     1000024       -14        13   # BR(~chi_20 -> ~chi_1+ nu_mub  mu-)
     1.34442838E-07    3    -1000024        14       -13   # BR(~chi_20 -> ~chi_1- nu_mu   mu+)
     8.66759449E-09    3     1000024       -16        15   # BR(~chi_20 -> ~chi_1+ nu_taub tau-)
     8.66759449E-09    3    -1000024        16       -15   # BR(~chi_20 -> ~chi_1- nu_tau  tau+)
#
#         PDG            Width
DECAY   1000025     2.75413097E-04   # neutralino3 decays
#          BR         NDA      ID1       ID2
     3.02903126E-04    2     1000022        22   # BR(~chi_30 -> ~chi_10 gam)
     4.78427698E-04    2     1000023        22   # BR(~chi_30 -> ~chi_20 gam)
#          BR         NDA      ID1       ID2
     3.70852052E-04    2     1000039        22   # BR(~chi_30 -> ~G        gam)
     2.98306726E-04    2     1000039        23   # BR(~chi_30 -> ~G        Z)
     7.96350691E-06    2     1000039        25   # BR(~chi_30 -> ~G        h)
#           BR         NDA      ID1       ID2       ID3
     7.03128906E-06    3     1000022        -2         2   # BR(~chi_30 -> ~chi_10 ub      u)
     8.36107136E-06    3     1000022        -1         1   # BR(~chi_30 -> ~chi_10 db      d)
     7.03128906E-06    3     1000022        -4         4   # BR(~chi_30 -> ~chi_10 cb      c)
     8.36107136E-06    3     1000022        -3         3   # BR(~chi_30 -> ~chi_10 sb      s)
     8.99582571E-06    3     1000022        -5         5   # BR(~chi_30 -> ~chi_10 bb      b)
     1.45856853E-06    3     1000022       -11        11   # BR(~chi_30 -> ~chi_10 e+      e-)
     1.45856853E-06    3     1000022       -13        13   # BR(~chi_30 -> ~chi_10 mu+     mu-)
     1.57362147E-06    3     1000022       -15        15   # BR(~chi_30 -> ~chi_10 tau+    tau-)
     4.09471270E-06    3     1000022       -12        12   # BR(~chi_30 -> ~chi_10 nu_eb   nu_e)
     4.09471270E-06    3     1000022       -14        14   # BR(~chi_30 -> ~chi_10 nu_mub  nu_mu)
     4.09471270E-06    3     1000022       -16        16   # BR(~chi_30 -> ~chi_10 nu_taub nu_tau)
     2.68458707E-02    3     1000023        -2         2   # BR(~chi_30 -> ~chi_20 ub      u)
     3.47559762E-02    3     1000023        -1         1   # BR(~chi_30 -> ~chi_20 db      d)
     2.68458707E-02    3     1000023        -4         4   # BR(~chi_30 -> ~chi_20 cb      c)
     3.47559762E-02    3     1000023        -3         3   # BR(~chi_30 -> ~chi_20 sb      s)
     3.07947393E-02    3     1000023        -5         5   # BR(~chi_30 -> ~chi_20 bb      b)
     7.93519730E-03    3     1000023       -11        11   # BR(~chi_30 -> ~chi_20 e+      e-)
     7.93519730E-03    3     1000023       -13        13   # BR(~chi_30 -> ~chi_20 mu+     mu-)
     7.83766755E-03    3     1000023       -15        15   # BR(~chi_30 -> ~chi_20 tau+    tau-)
     1.58452071E-02    3     1000023       -12        12   # BR(~chi_30 -> ~chi_20 nu_eb   nu_e)
     1.58452071E-02    3     1000023       -14        14   # BR(~chi_30 -> ~chi_20 nu_mub  nu_mu)
     1.58452071E-02    3     1000023       -16        16   # BR(~chi_30 -> ~chi_20 nu_taub nu_tau)
     1.28986502E-01    3     1000024        -2         1   # BR(~chi_30 -> ~chi_1+ ub      d)
     1.28986502E-01    3    -1000024        -1         2   # BR(~chi_30 -> ~chi_1- db      u)
     1.28986502E-01    3     1000024        -4         3   # BR(~chi_30 -> ~chi_1+ cb      s)
     1.28986502E-01    3    -1000024        -3         4   # BR(~chi_30 -> ~chi_1- sb      c)
     4.29954271E-02    3     1000024       -12        11   # BR(~chi_30 -> ~chi_1+ nu_eb   e-)
     4.29954271E-02    3    -1000024        12       -11   # BR(~chi_30 -> ~chi_1- nu_e    e+)
     4.29954271E-02    3     1000024       -14        13   # BR(~chi_30 -> ~chi_1+ nu_mub  mu-)
     4.29954271E-02    3    -1000024        14       -13   # BR(~chi_30 -> ~chi_1- nu_mu   mu+)
     4.26575793E-02    3     1000024       -16        15   # BR(~chi_30 -> ~chi_1+ nu_taub tau-)
     4.26575793E-02    3    -1000024        16       -15   # BR(~chi_30 -> ~chi_1- nu_tau  tau+)
#
#         PDG            Width
DECAY   1000035     3.58732185E+01   # neutralino4 decays
#          BR         NDA      ID1       ID2
     1.75115107E-03    2     1000022        23   # BR(~chi_40 -> ~chi_10   Z )
     2.31014934E-01    2     1000023        23   # BR(~chi_40 -> ~chi_20   Z )
     1.96090000E-03    2     1000025        23   # BR(~chi_40 -> ~chi_30   Z )
     2.28514727E-01    2     1000024       -24   # BR(~chi_40 -> ~chi_1+   W-)
     2.28514727E-01    2    -1000024        24   # BR(~chi_40 -> ~chi_1-   W+)
     1.12375711E-01    2     1000022        25   # BR(~chi_40 -> ~chi_10   h )
     1.73501029E-03    2     1000022        35   # BR(~chi_40 -> ~chi_10   H )
     8.49138175E-03    2     1000022        36   # BR(~chi_40 -> ~chi_10   A )
     3.68233184E-03    2     1000023        25   # BR(~chi_40 -> ~chi_20   h )
     1.46186091E-02    2     1000023        35   # BR(~chi_40 -> ~chi_20   H )
     3.28734747E-03    2     1000023        36   # BR(~chi_40 -> ~chi_20   A )
     1.19909818E-01    2     1000025        25   # BR(~chi_40 -> ~chi_30   h )
     1.47149608E-03    2     1000025        35   # BR(~chi_40 -> ~chi_30   H )
     6.40549268E-03    2     1000025        36   # BR(~chi_40 -> ~chi_30   A )
     1.81283828E-02    2     1000024       -37   # BR(~chi_40 -> ~chi_1+   H-)
     1.81283828E-02    2    -1000024        37   # BR(~chi_40 -> ~chi_1-   H+)
     2.30351988E-06    2     1000039        22   # BR(~chi_40 -> ~G        gam)
     7.29265216E-06    2     1000039        23   # BR(~chi_40 -> ~G        Z)
     4.93790035E-10    2     1000039        25   # BR(~chi_40 -> ~G        h)
     5.41102531E-10    2     1000039        35   # BR(~chi_40 -> ~G        H)
     3.05609802E-12    2     1000039        36   # BR(~chi_40 -> ~G        A)
#
#         PDG            Width
DECAY        25     4.21771115E-03   # h decays
#          BR         NDA      ID1       ID2
     6.01763522E-01    2           5        -5   # BR(h -> b       bb     )
     6.22488812E-02    2         -15        15   # BR(h -> tau+    tau-   )
     2.20333901E-04    2         -13        13   # BR(h -> mu+     mu-    )
     4.66183863E-04    2           3        -3   # BR(h -> s       sb     )
     2.01118483E-02    2           4        -4   # BR(h -> c       cb     )
     6.64179831E-02    2          21        21   # BR(h -> g       g      )
     2.31012294E-03    2          22        22   # BR(h -> gam     gam    )
     1.62679220E-03    2          22        23   # BR(h -> Z       gam    )
     2.16749070E-01    2          24       -24   # BR(h -> W+      W-     )
     2.80852624E-02    2          23        23   # BR(h -> Z       Z      )
#
#         PDG            Width
DECAY        35     3.95218284E+01   # H decays
#          BR         NDA      ID1       ID2
     1.40967219E-03    2           5        -5   # BR(H -> b       bb     )
     2.35795643E-04    2         -15        15   # BR(H -> tau+    tau-   )
     8.33625384E-07    2         -13        13   # BR(H -> mu+     mu-    )
     1.06731865E-06    2           3        -3   # BR(H -> s       sb     )
     9.63237669E-06    2           4        -4   # BR(H -> c       cb     )
     9.53088505E-01    2           6        -6   # BR(H -> t       tb     )
     7.63236250E-04    2          21        21   # BR(H -> g       g      )
     2.62677823E-06    2          22        22   # BR(H -> gam     gam    )
     1.10938709E-06    2          23        22   # BR(H -> Z       gam    )
     3.21174082E-04    2          24       -24   # BR(H -> W+      W-     )
     1.60149126E-04    2          23        23   # BR(H -> Z       Z      )
     8.65363815E-04    2          25        25   # BR(H -> h       h      )
     1.07735128E-23    2          36        36   # BR(H -> A       A      )
     4.33031134E-11    2          23        36   # BR(H -> Z       A      )
     4.91441207E-12    2          24       -37   # BR(H -> W+      H-     )
     4.91441207E-12    2         -24        37   # BR(H -> W-      H+     )
     3.34212521E-05    2     1000024  -1000024   # BR(H -> ~chi_1+ ~chi_1-)
     6.02008728E-04    2     1000022   1000022   # BR(H -> ~chi_10 ~chi_10)
     8.43321288E-06    2     1000023   1000023   # BR(H -> ~chi_20 ~chi_20)
     2.93247748E-04    2     1000025   1000025   # BR(H -> ~chi_30 ~chi_30)
     2.36404690E-02    2     1000022   1000023   # BR(H -> ~chi_10 ~chi_20)
     2.48282209E-08    2     1000022   1000025   # BR(H -> ~chi_10 ~chi_30)
     1.85632294E-02    2     1000023   1000025   # BR(H -> ~chi_20 ~chi_30)
#
#         PDG            Width
DECAY        36     3.99689157E+01   # A decays
#          BR         NDA      ID1       ID2
     1.41223130E-03    2           5        -5   # BR(A -> b       bb     )
     2.33336738E-04    2         -15        15   # BR(A -> tau+    tau-   )
     8.24929660E-07    2         -13        13   # BR(A -> mu+     mu-    )
     1.08755066E-06    2           3        -3   # BR(A -> s       sb     )
     9.53041178E-06    2           4        -4   # BR(A -> c       cb     )
     9.53825202E-01    2           6        -6   # BR(A -> t       tb     )
     9.02813674E-04    2          21        21   # BR(A -> g       g      )
     2.76235642E-06    2          22        22   # BR(A -> gam     gam    )
     1.29349845E-06    2          23        22   # BR(A -> Z       gam    )
     3.12821174E-04    2          23        25   # BR(A -> Z       h      )
     6.29387504E-04    2     1000024  -1000024   # BR(A -> ~chi_1+ ~chi_1-)
     2.46438094E-02    2     1000022   1000022   # BR(A -> ~chi_10 ~chi_10)
     6.40024781E-07    2     1000023   1000023   # BR(A -> ~chi_20 ~chi_20)
     1.71259871E-02    2     1000025   1000025   # BR(A -> ~chi_30 ~chi_30)
     4.42115249E-04    2     1000022   1000023   # BR(A -> ~chi_10 ~chi_20)
     5.28665494E-05    2     1000022   1000025   # BR(A -> ~chi_10 ~chi_30)
     4.03290737E-04    2     1000023   1000025   # BR(A -> ~chi_20 ~chi_30)
#
#         PDG            Width
DECAY        37     3.91568890E+01   # H+ decays
#          BR         NDA      ID1       ID2
     2.26611384E-06    2           4        -5   # BR(H+ -> c       bb     )
     2.38413991E-04    2         -15        16   # BR(H+ -> tau+    nu_tau )
     8.42879582E-07    2         -13        14   # BR(H+ -> mu+     nu_mu  )
     1.44075832E-08    2           2        -5   # BR(H+ -> u       bb     )
     5.21979155E-08    2           2        -3   # BR(H+ -> u       sb     )
     1.04006316E-05    2           4        -3   # BR(H+ -> c       sb     )
     9.55978138E-01    2           6        -5   # BR(H+ -> t       bb     )
     3.20724532E-04    2          24        25   # BR(H+ -> W+      h      )
     1.07884982E-12    2          24        36   # BR(H+ -> W+      A      )
     2.17124464E-02    2     1000024   1000022   # BR(H+ -> ~chi_1+ ~chi_10)
     1.47319673E-04    2     1000024   1000023   # BR(H+ -> ~chi_1+ ~chi_20)
     2.15893817E-02    2     1000024   1000025   # BR(H+ -> ~chi_1+ ~chi_30)
