#
#                              ======================
#                              | THE SUSYHIT OUTPUT |
#                              ======================
#
#
#              ------------------------------------------------------
#              |     This is the output of the SUSY-HIT package     |
#              |  created by A.Djouadi, M.Muehlleitner and M.Spira. |
#              |  In case of problems with SUSY-HIT email to        |
#              |           margarete.muehlleitner@kit.edu           |
#              |           michael.spira@psi.ch                     |
#              |           abdelhak.djouadi@cern.ch                 |
#              ------------------------------------------------------
#
#              ------------------------------------------------------
#              |  SUSY Les Houches Accord - MSSM Spectrum + Decays  |
#              |              based on the decay programs           |
#              |                                                    |
#              |                     SDECAY 1.5                     |
#              |                                                    |
#              |  Authors: M.Muhlleitner, A.Djouadi and Y.Mambrini  |
#              |  Ref.:    Comput.Phys.Commun.168(2005)46           |
#              |           [hep-ph/0311167]                         |
#              |                                                    |
#              |                     HDECAY 3.4                     |
#              |                                                    |
#              |  By: A.Djouadi,J.Kalinowski,M.Muhlleitner,M.Spira  |
#              |  Ref.:    Comput.Phys.Commun.108(1998)56           |
#              |           [hep-ph/9704448]                         |
#              |                                                    |
#              |                                                    |
#              |  If not stated otherwise all DRbar couplings and   |
#              |  soft SUSY breaking masses are given at the scale  |
#              |  Q=  0.91187600E+02
#              |                                                    |
#              ------------------------------------------------------
#
#
BLOCK DCINFO  # Decay Program information
     1   SDECAY/HDECAY # decay calculator
     2   1.5  /3.4    # version number
#
BLOCK SPINFO  # Spectrum calculator information
     1   SuSpect     # RGE +Spectrum calculator            
     2   2.43         # version number                     
#
BLOCK MODSEL  # Model selection
     1     2   # GMSB                                              
#
BLOCK SMINPUTS  # Standard Model inputs
         1     1.27932904E+02   # alpha_em^-1(M_Z)^MSbar
         2     1.16639000E-05   # G_F [GeV^-2]
         3     1.17200000E-01   # alpha_S(M_Z)^MSbar
         4     9.11870000E+01   # M_Z pole mass
         5     4.25000000E+00   # mb(mb)^MSbar
         6     1.72900000E+02   # mt pole mass
         7     1.77700000E+00   # mtau pole mass
#
BLOCK MINPAR  # Input parameters - minimal models
#
BLOCK EXTPAR  # Input parameters - non-minimal models
         0     9.11876000E+01   # EWSB                
         1     1.44600000E+03   # M_1                 
         2     3.00000000E+03   # M_2                 
         3     2.40000000E+03   # M_3                 
        11     0.00000000E+00   # A_t                 
        12     0.00000000E+00   # A_b                 
        13     0.00000000E+00   # A_tau               
        14     0.00000000E+00   # A_u                 
        15     0.00000000E+00   # A_d                 
        16     0.00000000E+00   # A_e                 
        23     1.45000000E+03   # mu(EWSB)            
        25     1.50000000E+00   # tanbeta(in)         
        26     2.00000000E+03   # MA_pole             
        31     5.00000000E+03   # M_eL                
        32     5.00000000E+03   # M_muL               
        33     5.00000000E+03   # M_tauL              
        34     5.00000000E+03   # M_eR                
        35     5.00000000E+03   # M_muR               
        36     5.00000000E+03   # M_tauR              
        41     5.00000000E+03   # M_q1L               
        42     5.00000000E+03   # M_q2L               
        43     5.00000000E+03   # M_q3L               
        44     5.00000000E+03   # M_uR                
        45     5.00000000E+03   # M_cR                
        46     5.00000000E+03   # M_tR                
        47     5.00000000E+03   # M_dR                
        48     5.00000000E+03   # M_sR                
        49     5.00000000E+03   # M_bR                
#
BLOCK MASS  # Mass Spectrum
# PDG code           mass       particle
        24     8.05413741E+01   # W+
        25     1.26000000E+02   # h
        35     2.00401213E+03   # H
        36     2.00000000E+03   # A
        37     2.00151420E+03   # H+
         5     4.87877839E+00   # b-quark pole mass calculated from mb(mb)_Msbar
   1000001     4.89730090E+03   # ~d_L
   2000001     4.89719014E+03   # ~d_R
   1000002     4.89705325E+03   # ~u_L
   2000002     4.89711176E+03   # ~u_R
   1000003     4.89730090E+03   # ~s_L
   2000003     4.89719014E+03   # ~s_R
   1000004     4.89705325E+03   # ~c_L
   2000004     4.89711176E+03   # ~c_R
   1000005     4.89664202E+03   # ~b_1
   2000005     4.89785044E+03   # ~b_2
   1000006     5.01718660E+03   # ~t_1
   2000006     5.31451562E+03   # ~t_2
   1000011     5.00008218E+03   # ~e_L
   2000011     5.00007611E+03   # ~e_R
   1000012     4.99984171E+03   # ~nu_eL
   1000013     5.00008218E+03   # ~mu_L
   2000013     5.00007611E+03   # ~mu_R
   1000014     4.99984171E+03   # ~nu_muL
   1000015     4.99969262E+03   # ~tau_1
   2000015     5.00046627E+03   # ~tau_2
   1000016     4.99984171E+03   # ~nu_tauL
   1000021     2.41236529E+03   # ~g
   1000022     1.49248839E+03   # ~chi_10
   1000023    -1.54196616E+03   # ~chi_20
   1000025     1.57971268E+03   # ~chi_30
   1000035     3.12742816E+03   # ~chi_40
   1000024     1.53814963E+03   # ~chi_1+
   1000037     3.12742539E+03   # ~chi_2+
   1000039     1.00000000E-09   # ~gravitino
#
BLOCK NMIX  # Neutralino Mixing Matrix
  1  1     7.23117032E-01   # N_11
  1  2    -3.27757062E-02   # N_12
  1  3     4.89452489E-01   # N_13
  1  4    -4.86275407E-01   # N_14
  2  1     2.83788570E-03   # N_21
  2  2    -3.32576711E-03   # N_22
  2  3    -7.07012507E-01   # N_23
  2  4    -7.07187529E-01   # N_24
  3  1     6.90718368E-01   # N_31
  3  2     3.62880750E-02   # N_32
  3  3    -5.09442531E-01   # N_33
  3  4     5.11917590E-01   # N_34
  4  1     1.35636040E-03   # N_41
  4  2    -9.98798212E-01   # N_42
  4  3    -3.22161979E-02   # N_43
  4  4     3.69108238E-02   # N_44
#
BLOCK UMIX  # Chargino Mixing Matrix U
  1  1    -4.55248982E-02   # U_11
  1  2     9.98963204E-01   # U_12
  2  1     9.98963204E-01   # U_21
  2  2     4.55248982E-02   # U_22
#
BLOCK VMIX  # Chargino Mixing Matrix V
  1  1    -5.21644465E-02   # V_11
  1  2     9.98638508E-01   # V_12
  2  1     9.98638508E-01   # V_21
  2  2     5.21644465E-02   # V_22
#
BLOCK STOPMIX  # Stop Mixing Matrix
  1  1     9.99996235E-01   # cos(theta_t)
  1  2     2.74408196E-03   # sin(theta_t)
  2  1    -2.74408196E-03   # -sin(theta_t)
  2  2     9.99996235E-01   # cos(theta_t)
#
BLOCK SBOTMIX  # Sbottom Mixing Matrix
  1  1     6.73921938E-01   # cos(theta_b)
  1  2     7.38802559E-01   # sin(theta_b)
  2  1    -7.38802559E-01   # -sin(theta_b)
  2  2     6.73921938E-01   # cos(theta_b)
#
BLOCK STAUMIX  # Stau Mixing Matrix
  1  1     7.04328124E-01   # cos(theta_tau)
  1  2     7.09874562E-01   # sin(theta_tau)
  2  1    -7.09874562E-01   # -sin(theta_tau)
  2  2     7.04328124E-01   # cos(theta_tau)
#
BLOCK ALPHA  # Higgs mixing
          -5.90203830E-01   # Mixing angle in the neutral Higgs boson sector
#
BLOCK HMIX Q=  9.11876000E+01  # DRbar Higgs Parameters
         1     1.45000000E+03   # mu(Q)               
         2     1.49999979E+00   # tanbeta(Q)          
         3     2.52209756E+02   # vev(Q)              
         4     3.28279176E+06   # MA^2(Q)             
#
BLOCK GAUGE Q=  9.11876000E+01  # The gauge couplings
     1     3.52759164E-01   # gprime(Q) DRbar
     2     6.27025122E-01   # g(Q) DRbar
     3     1.07754591E+00   # g3(Q) DRbar
#
BLOCK AU Q=  9.11876000E+01  # The trilinear couplings
  1  1     0.00000000E+00   # A_u(Q) DRbar
  2  2     0.00000000E+00   # A_c(Q) DRbar
  3  3     0.00000000E+00   # A_t(Q) DRbar
#
BLOCK AD Q=  9.11876000E+01  # The trilinear couplings
  1  1     0.00000000E+00   # A_d(Q) DRbar
  2  2     0.00000000E+00   # A_s(Q) DRbar
  3  3     0.00000000E+00   # A_b(Q) DRbar
#
BLOCK AE Q=  9.11876000E+01  # The trilinear couplings
  1  1     0.00000000E+00   # A_e(Q) DRbar
  2  2     0.00000000E+00   # A_mu(Q) DRbar
  3  3     0.00000000E+00   # A_tau(Q) DRbar
#
BLOCK Yu Q=  9.11876000E+01  # The Yukawa couplings
  1  1     0.00000000E+00   # y_u(Q) DRbar
  2  2     0.00000000E+00   # y_c(Q) DRbar
  3  3     1.02536278E+00   # y_t(Q) DRbar
#
BLOCK Yd Q=  9.11876000E+01  # The Yukawa couplings
  1  1     0.00000000E+00   # y_d(Q) DRbar
  2  2     0.00000000E+00   # y_s(Q) DRbar
  3  3     2.71525145E-02   # y_b(Q) DRbar
#
BLOCK Ye Q=  9.11876000E+01  # The Yukawa couplings
  1  1     0.00000000E+00   # y_e(Q) DRbar
  2  2     0.00000000E+00   # y_mu(Q) DRbar
  3  3     1.79780769E-02   # y_tau(Q) DRbar
#
BLOCK MSOFT Q=  9.11876000E+01  # The soft SUSY breaking masses at the scale Q
         1     1.44600000E+03   # M_1                 
         2     3.00000000E+03   # M_2                 
         3     2.40000000E+03   # M_3                 
        14     0.00000000E+00   # A_u                 
        15     0.00000000E+00   # A_d                 
        16     0.00000000E+00   # A_e                 
        21     6.92261476E+05   # M^2_Hd              
        22    -7.29058883E+06   # M^2_Hu              
        31     5.00000000E+03   # M_eL                
        32     5.00000000E+03   # M_muL               
        33     5.00000000E+03   # M_tauL              
        34     5.00000000E+03   # M_eR                
        35     5.00000000E+03   # M_muR               
        36     5.00000000E+03   # M_tauR              
        41     5.00000000E+03   # M_q1L               
        42     5.00000000E+03   # M_q2L               
        43     5.00000000E+03   # M_q3L               
        44     5.00000000E+03   # M_uR                
        45     5.00000000E+03   # M_cR                
        46     5.00000000E+03   # M_tR                
        47     5.00000000E+03   # M_dR                
        48     5.00000000E+03   # M_sR                
        49     5.00000000E+03   # M_bR                
#
#
#
#                             =================
#                             |The decay table|
#                             =================
#
# - The QCD corrections to the decays gluino -> squark  + quark
#                                     squark -> gaugino + quark_prime
#                                     squark -> squark_prime + Higgs
#                                     squark -> gluino  + quark
#   are included.
#
# - The multi-body decays for the inos, stops and sbottoms are included.
#
# - The loop induced decays for the gluino, neutralinos and stops
#   are included.
#
# - The SUSY decays of the top quark are included.
#
# - Possible decays of the NLSP in GMSB models are included.
#
#
#         PDG            Width
DECAY         6     1.36981701E+00   # top decays
#          BR         NDA      ID1       ID2
     1.00000000E+00    2           5        24   # BR(t ->  b    W+)
#
#         PDG            Width
DECAY   1000021     5.78847917E-04   # gluino decays
#          BR         NDA      ID1       ID2
     1.12960881E-02    2     1000022        21   # BR(~g -> ~chi_10 g)
     2.07839482E-02    2     1000023        21   # BR(~g -> ~chi_20 g)
     9.59289102E-03    2     1000025        21   # BR(~g -> ~chi_30 g)
#          BR         NDA      ID1       ID2
0.0E+00    2     1000039    21 # BR(~g -> ~G      g)
#           BR         NDA      ID1       ID2       ID3
     6.73241648E-03    3     1000022         1        -1   # BR(~g -> ~chi_10 d  db)
     3.02501925E-07    3     1000023         1        -1   # BR(~g -> ~chi_20 d  db)
     3.33263123E-03    3     1000025         1        -1   # BR(~g -> ~chi_30 d  db)
     2.01381947E-02    3     1000022         2        -2   # BR(~g -> ~chi_10 u  ub)
     2.33029804E-07    3     1000023         2        -2   # BR(~g -> ~chi_20 u  ub)
     1.30116766E-02    3     1000025         2        -2   # BR(~g -> ~chi_30 u  ub)
     6.73241648E-03    3     1000022         3        -3   # BR(~g -> ~chi_10 s  sb)
     3.02501925E-07    3     1000023         3        -3   # BR(~g -> ~chi_20 s  sb)
     3.33263123E-03    3     1000025         3        -3   # BR(~g -> ~chi_30 s  sb)
     2.01381947E-02    3     1000022         4        -4   # BR(~g -> ~chi_10 c  cb)
     2.33029804E-07    3     1000023         4        -4   # BR(~g -> ~chi_20 c  cb)
     1.30116766E-02    3     1000025         4        -4   # BR(~g -> ~chi_30 c  cb)
     6.81566460E-03    3     1000022         5        -5   # BR(~g -> ~chi_10 b  bb)
     2.01802777E-04    3     1000023         5        -5   # BR(~g -> ~chi_20 b  bb)
     3.44037031E-03    3     1000025         5        -5   # BR(~g -> ~chi_30 b  bb)
     8.85009845E-02    3     1000022         6        -6   # BR(~g -> ~chi_10 t  tb)
     1.31229371E-01    3     1000023         6        -6   # BR(~g -> ~chi_20 t  tb)
     8.55853548E-02    3     1000025         6        -6   # BR(~g -> ~chi_30 t  tb)
     2.56791238E-04    3     1000024         1        -2   # BR(~g -> ~chi_1+ d  ub)
     2.56791238E-04    3    -1000024         2        -1   # BR(~g -> ~chi_1- u  db)
     2.56791238E-04    3     1000024         3        -4   # BR(~g -> ~chi_1+ s  cb)
     2.56791238E-04    3    -1000024         4        -3   # BR(~g -> ~chi_1- c  sb)
     1.96300733E-01    3     1000024         5        -6   # BR(~g -> ~chi_1+ b  tb)
     1.96300733E-01    3    -1000024         6        -5   # BR(~g -> ~chi_1- t  bb)
#
#         PDG            Width
DECAY   1000006     2.42098098E+02   # stop1 decays
#          BR         NDA      ID1       ID2
     5.74578227E-02    2     1000022         6   # BR(~t_1 -> ~chi_10 t )
     1.21326579E-01    2     1000023         6   # BR(~t_1 -> ~chi_20 t )
     6.59669374E-02    2     1000025         6   # BR(~t_1 -> ~chi_30 t )
     2.97091781E-02    2     1000035         6   # BR(~t_1 -> ~chi_40 t )
    -1.41261954E-04    2     1000024         5   # BR(~t_1 -> ~chi_1+ b )
     5.88728894E-02    2     1000037         5   # BR(~t_1 -> ~chi_2+ b )
     6.51471885E-01    2     1000021         6   # BR(~t_1 -> ~g      t )
     7.17313870E-03    2     1000005        24   # BR(~t_1 -> ~b_1    W+)
     8.16283214E-03    2     2000005        24   # BR(~t_1 -> ~b_2    W+)
#
#         PDG            Width
DECAY   2000006     3.13737519E+02   # stop2 decays
#          BR         NDA      ID1       ID2
     6.53527204E-02    2     1000022         6   # BR(~t_2 -> ~chi_10 t )
     1.02362606E-01    2     1000023         6   # BR(~t_2 -> ~chi_20 t )
     6.68507773E-02    2     1000025         6   # BR(~t_2 -> ~chi_30 t )
     1.91228472E-06    2     1000035         6   # BR(~t_2 -> ~chi_40 t )
     2.05102495E-01    2     1000024         5   # BR(~t_2 -> ~chi_1+ b )
     5.17834668E-06    2     1000037         5   # BR(~t_2 -> ~chi_2+ b )
     5.60460021E-01    2     1000021         6   # BR(~t_2 -> ~g      t )
    -1.50612177E-04    2     1000006        25   # BR(~t_2 -> ~t_1    h )
     1.74967260E-06    2     1000006        23   # BR(~t_2 -> ~t_1    Z )
     6.01195397E-06    2     1000005        24   # BR(~t_2 -> ~b_1    W+)
     7.14034862E-06    2     2000005        24   # BR(~t_2 -> ~b_2    W+)
#
#         PDG            Width
DECAY   1000005     1.84788531E+02   # sbottom1 decays
#          BR         NDA      ID1       ID2
     5.42674924E-03    2     1000022         5   # BR(~b_1 -> ~chi_10 b )
     9.47302837E-05    2     1000023         5   # BR(~b_1 -> ~chi_20 b )
     2.68745194E-03    2     1000025         5   # BR(~b_1 -> ~chi_30 b )
     1.49609323E-02    2     1000035         5   # BR(~b_1 -> ~chi_40 b )
     1.27842390E-01    2    -1000024         6   # BR(~b_1 -> ~chi_1- t )
     3.01995546E-02    2    -1000037         6   # BR(~b_1 -> ~chi_2- t )
     8.18788192E-01    2     1000021         5   # BR(~b_1 -> ~g      b )
#
#         PDG            Width
DECAY   2000005     1.96832542E+02   # sbottom2 decays
#          BR         NDA      ID1       ID2
     2.86261459E-03    2     1000022         5   # BR(~b_2 -> ~chi_10 b )
     1.16362268E-04    2     1000023         5   # BR(~b_2 -> ~chi_20 b )
     3.28654647E-03    2     1000025         5   # BR(~b_2 -> ~chi_30 b )
     1.89944172E-02    2     1000035         5   # BR(~b_2 -> ~chi_40 b )
     1.68369711E-01    2    -1000024         6   # BR(~b_2 -> ~chi_1- t )
     3.83525530E-02    2    -1000037         6   # BR(~b_2 -> ~chi_2- t )
     7.68017795E-01    2     1000021         5   # BR(~b_2 -> ~g      b )
#
#         PDG            Width
DECAY   1000002     1.71361273E+02   # sup_L decays
#          BR         NDA      ID1       ID2
     9.36625579E-04    2     1000022         2   # BR(~u_L -> ~chi_10 u)
     6.81821587E-07    2     1000023         2   # BR(~u_L -> ~chi_20 u)
     2.37630668E-03    2     1000025         2   # BR(~u_L -> ~chi_30 u)
     3.79037740E-02    2     1000035         2   # BR(~u_L -> ~chi_40 u)
     4.75989835E-04    2     1000024         1   # BR(~u_L -> ~chi_1+ d)
     7.58221037E-02    2     1000037         1   # BR(~u_L -> ~chi_2+ d)
     8.82484518E-01    2     1000021         2   # BR(~u_L -> ~g      u)
#
#         PDG            Width
DECAY   2000002     1.59669655E+02   # sup_R decays
#          BR         NDA      ID1       ID2
     2.79703680E-02    2     1000022         2   # BR(~u_R -> ~chi_10 u)
     4.24914311E-07    2     1000023         2   # BR(~u_R -> ~chi_20 u)
     2.48999582E-02    2     1000025         2   # BR(~u_R -> ~chi_30 u)
     4.22349731E-08    2     1000035         2   # BR(~u_R -> ~chi_40 u)
     9.47129207E-01    2     1000021         2   # BR(~u_R -> ~g      u)
#
#         PDG            Width
DECAY   1000001     1.71369584E+02   # sdown_L decays
#          BR         NDA      ID1       ID2
     2.51143521E-03    2     1000022         1   # BR(~d_L -> ~chi_10 d)
     1.30039478E-06    2     1000023         1   # BR(~d_L -> ~chi_20 d)
     7.51408140E-04    2     1000025         1   # BR(~d_L -> ~chi_30 d)
     3.79477219E-02    2     1000035         1   # BR(~d_L -> ~chi_40 d)
     3.62541058E-04    2    -1000024         2   # BR(~d_L -> ~chi_1- u)
     7.58820496E-02    2    -1000037         2   # BR(~d_L -> ~chi_2- u)
     8.82543544E-01    2     1000021         1   # BR(~d_L -> ~g      d)
#
#         PDG            Width
DECAY   2000001     1.53343830E+02   # sdown_R decays
#          BR         NDA      ID1       ID2
     7.28121988E-03    2     1000022         1   # BR(~d_R -> ~chi_10 d)
     1.10613347E-07    2     1000023         1   # BR(~d_R -> ~chi_20 d)
     6.48193932E-03    2     1000025         1   # BR(~d_R -> ~chi_30 d)
     1.09949748E-08    2     1000035         1   # BR(~d_R -> ~chi_40 d)
     9.86236719E-01    2     1000021         1   # BR(~d_R -> ~g      d)
#
#         PDG            Width
DECAY   1000004     1.71361273E+02   # scharm_L decays
#          BR         NDA      ID1       ID2
     9.36625579E-04    2     1000022         4   # BR(~c_L -> ~chi_10 c)
     6.81821587E-07    2     1000023         4   # BR(~c_L -> ~chi_20 c)
     2.37630668E-03    2     1000025         4   # BR(~c_L -> ~chi_30 c)
     3.79037740E-02    2     1000035         4   # BR(~c_L -> ~chi_40 c)
     4.75989835E-04    2     1000024         3   # BR(~c_L -> ~chi_1+ s)
     7.58221037E-02    2     1000037         3   # BR(~c_L -> ~chi_2+ s)
     8.82484518E-01    2     1000021         4   # BR(~c_L -> ~g      c)
#
#         PDG            Width
DECAY   2000004     1.59669655E+02   # scharm_R decays
#          BR         NDA      ID1       ID2
     2.79703680E-02    2     1000022         4   # BR(~c_R -> ~chi_10 c)
     4.24914311E-07    2     1000023         4   # BR(~c_R -> ~chi_20 c)
     2.48999582E-02    2     1000025         4   # BR(~c_R -> ~chi_30 c)
     4.22349731E-08    2     1000035         4   # BR(~c_R -> ~chi_40 c)
     9.47129207E-01    2     1000021         4   # BR(~c_R -> ~g      c)
#
#         PDG            Width
DECAY   1000003     1.71369584E+02   # sstrange_L decays
#          BR         NDA      ID1       ID2
     2.51143521E-03    2     1000022         3   # BR(~s_L -> ~chi_10 s)
     1.30039478E-06    2     1000023         3   # BR(~s_L -> ~chi_20 s)
     7.51408140E-04    2     1000025         3   # BR(~s_L -> ~chi_30 s)
     3.79477219E-02    2     1000035         3   # BR(~s_L -> ~chi_40 s)
     3.62541058E-04    2    -1000024         4   # BR(~s_L -> ~chi_1- c)
     7.58820496E-02    2    -1000037         4   # BR(~s_L -> ~chi_2- c)
     8.82543544E-01    2     1000021         3   # BR(~s_L -> ~g      s)
#
#         PDG            Width
DECAY   2000003     1.53343830E+02   # sstrange_R decays
#          BR         NDA      ID1       ID2
     7.28121988E-03    2     1000022         3   # BR(~s_R -> ~chi_10 s)
     1.10613347E-07    2     1000023         3   # BR(~s_R -> ~chi_20 s)
     6.48193932E-03    2     1000025         3   # BR(~s_R -> ~chi_30 s)
     1.09949748E-08    2     1000035         3   # BR(~s_R -> ~chi_40 s)
     9.86236719E-01    2     1000021         3   # BR(~s_R -> ~g      s)
#
#         PDG            Width
DECAY   1000011     2.68801138E+01   # selectron_L decays
#          BR         NDA      ID1       ID2
     8.44509947E-02    2     1000022        11   # BR(~e_L -> ~chi_10 e-)
     1.78115851E-06    2     1000023        11   # BR(~e_L -> ~chi_20 e-)
     1.06417224E-01    2     1000025        11   # BR(~e_L -> ~chi_30 e-)
     2.68552573E-01    2     1000035        11   # BR(~e_L -> ~chi_40 e-)
     2.47168599E-03    2    -1000024        12   # BR(~e_L -> ~chi_1- nu_e)
     5.38105740E-01    2    -1000037        12   # BR(~e_L -> ~chi_2- nu_e)
#
#         PDG            Width
DECAY   2000011     2.03124030E+01   # selectron_R decays
#          BR         NDA      ID1       ID2
     5.28801173E-01    2     1000022        11   # BR(~e_R -> ~chi_10 e-)
     8.03747596E-06    2     1000023        11   # BR(~e_R -> ~chi_20 e-)
     4.71189958E-01    2     1000025        11   # BR(~e_R -> ~chi_30 e-)
     8.31002817E-07    2     1000035        11   # BR(~e_R -> ~chi_40 e-)
#
#         PDG            Width
DECAY   1000013     2.68801138E+01   # smuon_L decays
#          BR         NDA      ID1       ID2
     8.44509947E-02    2     1000022        13   # BR(~mu_L -> ~chi_10 mu-)
     1.78115851E-06    2     1000023        13   # BR(~mu_L -> ~chi_20 mu-)
     1.06417224E-01    2     1000025        13   # BR(~mu_L -> ~chi_30 mu-)
     2.68552573E-01    2     1000035        13   # BR(~mu_L -> ~chi_40 mu-)
     2.47168599E-03    2    -1000024        14   # BR(~mu_L -> ~chi_1- nu_mu)
     5.38105740E-01    2    -1000037        14   # BR(~mu_L -> ~chi_2- nu_mu)
#
#         PDG            Width
DECAY   2000013     2.03124030E+01   # smuon_R decays
#          BR         NDA      ID1       ID2
     5.28801173E-01    2     1000022        13   # BR(~mu_R -> ~chi_10 mu-)
     8.03747596E-06    2     1000023        13   # BR(~mu_R -> ~chi_20 mu-)
     4.71189958E-01    2     1000025        13   # BR(~mu_R -> ~chi_30 mu-)
     8.31002817E-07    2     1000035        13   # BR(~mu_R -> ~chi_40 mu-)
#
#         PDG            Width
DECAY   1000015     2.36491531E+01   # stau_1 decays
#          BR         NDA      ID1       ID2
     2.82766997E-01    2     1000022        15   # BR(~tau_1 -> ~chi_10  tau-)
     4.65458789E-04    2     1000023        15   # BR(~tau_1 -> ~chi_20  tau-)
     2.59382179E-01    2     1000025        15   # BR(~tau_1 -> ~chi_30  tau-)
     1.50982651E-01    2     1000035        15   # BR(~tau_1 -> ~chi_40  tau-)
     3.72112332E-03    2    -1000024        16   # BR(~tau_1 -> ~chi_1-  nu_tau)
     3.02529506E-01    2    -1000037        16   # BR(~tau_1 -> ~chi_2-  nu_tau)
     1.52085335E-04    2     1000039        15   # BR(~tau_1 -> ~G       tau-)
#
#         PDG            Width
DECAY   2000015     2.36259340E+01   # stau_2 decays
#          BR         NDA      ID1       ID2
     2.68211931E-01    2     1000022        15   # BR(~tau_2 -> ~chi_10  tau-)
     6.56998622E-04    2     1000023        15   # BR(~tau_2 -> ~chi_20  tau-)
     2.67119271E-01    2     1000025        15   # BR(~tau_2 -> ~chi_30  tau-)
     1.54413756E-01    2     1000035        15   # BR(~tau_2 -> ~chi_40  tau-)
     2.00108239E-04    2    -1000024        16   # BR(~tau_2 -> ~chi_1-  nu_tau)
     3.09397935E-01    2    -1000037        16   # BR(~tau_2 -> ~chi_2-  nu_tau)
#
#         PDG            Width
DECAY   1000012     2.68814632E+01   # snu_eL decays
#          BR         NDA      ID1       ID2
     1.16631225E-01    2     1000022        12   # BR(~nu_eL -> ~chi_10 nu_e)
     1.44313032E-05    2     1000023        12   # BR(~nu_eL -> ~chi_20 nu_e)
     7.31580973E-02    2     1000025        12   # BR(~nu_eL -> ~chi_30 nu_e)
     2.69314745E-01    2     1000035        12   # BR(~nu_eL -> ~chi_40 nu_e)
     3.24483872E-03    2     1000024        11   # BR(~nu_eL -> ~chi_1+ e-)
     5.37636663E-01    2     1000037        11   # BR(~nu_eL -> ~chi_2+ e-)
#
#         PDG            Width
DECAY   1000014     2.68814632E+01   # snu_muL decays
#          BR         NDA      ID1       ID2
     1.16631225E-01    2     1000022        14   # BR(~nu_muL -> ~chi_10 nu_mu)
     1.44313032E-05    2     1000023        14   # BR(~nu_muL -> ~chi_20 nu_mu)
     7.31580973E-02    2     1000025        14   # BR(~nu_muL -> ~chi_30 nu_mu)
     2.69314745E-01    2     1000035        14   # BR(~nu_muL -> ~chi_40 nu_mu)
     3.24483872E-03    2     1000024        13   # BR(~nu_muL -> ~chi_1+ mu-)
     5.37636663E-01    2     1000037        13   # BR(~nu_muL -> ~chi_2+ mu-)
#
#         PDG            Width
DECAY   1000016     2.69077798E+01   # snu_tauL decays
#          BR         NDA      ID1       ID2
     1.16517156E-01    2     1000022        16   # BR(~nu_tauL -> ~chi_10 nu_tau)
     1.44171889E-05    2     1000023        16   # BR(~nu_tauL -> ~chi_20 nu_tau)
     7.30865465E-02    2     1000025        16   # BR(~nu_tauL -> ~chi_30 nu_tau)
     2.69051347E-01    2     1000035        16   # BR(~nu_tauL -> ~chi_40 nu_tau)
     4.21811893E-03    2     1000024        15   # BR(~nu_tauL -> ~chi_1+ tau-)
     5.37112415E-01    2     1000037        15   # BR(~nu_tauL -> ~chi_2+ tau-)
#
#         PDG            Width
DECAY   1000024     1.29631219E-04   # chargino1+ decays
#          BR         NDA      ID1       ID2
     3.79165288E-02    2     1000039        24   # BR(~chi_1+ -> ~G       W+)
#           BR         NDA      ID1       ID2       ID3
     3.20960442E-01    3     1000022         2        -1   # BR(~chi_1+ -> ~chi_10 u    db)
     3.20960442E-01    3     1000022         4        -3   # BR(~chi_1+ -> ~chi_10 c    sb)
     1.06986931E-01    3     1000022       -11        12   # BR(~chi_1+ -> ~chi_10 e+   nu_e)
     1.06986931E-01    3     1000022       -13        14   # BR(~chi_1+ -> ~chi_10 mu+  nu_mu)
     1.06188724E-01    3     1000022       -15        16   # BR(~chi_1+ -> ~chi_10 tau+ nu_tau)
#
#         PDG            Width
DECAY   1000037     3.87881652E+01   # chargino2+ decays
#          BR         NDA      ID1       ID2
     2.53244589E-01    2     1000024        23   # BR(~chi_2+ -> ~chi_1+  Z )
     1.10750000E-01    2     1000022        24   # BR(~chi_2+ -> ~chi_10  W+)
     2.46240732E-01    2     1000023        24   # BR(~chi_2+ -> ~chi_20  W+)
     1.36119251E-01    2     1000025        24   # BR(~chi_2+ -> ~chi_30  W+)
     2.53636579E-01    2     1000024        25   # BR(~chi_2+ -> ~chi_1+  h )
     8.84735878E-06    2     1000039        24   # BR(~chi_2+ -> ~G       W+)
     1.22587109E-09    2     1000039        37   # BR(~chi_2+ -> ~G       H+)
#
#         PDG            Width
DECAY   1000022    1.0E-05    # neutralino1 decays
#          BR         NDA      ID1       ID2
     4.99337561E-01    2     1000039        22   # BR(~chi_10 -> ~G        gam)
     4.89519573E-01    2     1000039        23   # BR(~chi_10 -> ~G        Z)
     1.11428662E-02    2     1000039        25   # BR(~chi_10 -> ~G        h)
#
#         PDG            Width
DECAY   1000023     1.56230731E-04   # neutralino2 decays
#          BR         NDA      ID1       ID2
     5.91549014E-04    2     1000022        22   # BR(~chi_20 -> ~chi_10 gam)
#          BR         NDA      ID1       ID2
     4.56117021E-08    2     1000039        22   # BR(~chi_20 -> ~G        gam)
     1.22081153E-03    2     1000039        23   # BR(~chi_20 -> ~G        Z)
     3.00943985E-02    2     1000039        25   # BR(~chi_20 -> ~G        h)
#           BR         NDA      ID1       ID2       ID3
     1.14825440E-01    3     1000022        -2         2   # BR(~chi_20 -> ~chi_10 ub      u)
     1.48683201E-01    3     1000022        -1         1   # BR(~chi_20 -> ~chi_10 db      d)
     1.14825440E-01    3     1000022        -4         4   # BR(~chi_20 -> ~chi_10 cb      c)
     1.48683201E-01    3     1000022        -3         3   # BR(~chi_20 -> ~chi_10 sb      s)
     1.36074236E-01    3     1000022        -5         5   # BR(~chi_20 -> ~chi_10 bb      b)
     3.39575068E-02    3     1000022       -11        11   # BR(~chi_20 -> ~chi_10 e+      e-)
     3.39575068E-02    3     1000022       -13        13   # BR(~chi_20 -> ~chi_10 mu+     mu-)
     3.36294183E-02    3     1000022       -15        15   # BR(~chi_20 -> ~chi_10 tau+    tau-)
     6.78155393E-02    3     1000022       -12        12   # BR(~chi_20 -> ~chi_10 nu_eb   nu_e)
     6.78155393E-02    3     1000022       -14        14   # BR(~chi_20 -> ~chi_10 nu_mub  nu_mu)
     6.78155393E-02    3     1000022       -16        16   # BR(~chi_20 -> ~chi_10 nu_taub nu_tau)
     1.90965266E-06    3     1000024        -2         1   # BR(~chi_20 -> ~chi_1+ ub      d)
     1.90965266E-06    3    -1000024        -1         2   # BR(~chi_20 -> ~chi_1- db      u)
     1.90965266E-06    3     1000024        -4         3   # BR(~chi_20 -> ~chi_1+ cb      s)
     1.90965266E-06    3    -1000024        -3         4   # BR(~chi_20 -> ~chi_1- sb      c)
     6.36550925E-07    3     1000024       -12        11   # BR(~chi_20 -> ~chi_1+ nu_eb   e-)
     6.36550925E-07    3    -1000024        12       -11   # BR(~chi_20 -> ~chi_1- nu_e    e+)
     6.36550925E-07    3     1000024       -14        13   # BR(~chi_20 -> ~chi_1+ nu_mub  mu-)
     6.36550925E-07    3    -1000024        14       -13   # BR(~chi_20 -> ~chi_1- nu_mu   mu+)
     2.21576572E-07    3     1000024       -16        15   # BR(~chi_20 -> ~chi_1+ nu_taub tau-)
     2.21576572E-07    3    -1000024        16       -15   # BR(~chi_20 -> ~chi_1- nu_tau  tau+)
#
#         PDG            Width
DECAY   1000025     2.12723697E-04   # neutralino3 decays
#          BR         NDA      ID1       ID2
     3.93100424E-04    2     1000022        22   # BR(~chi_30 -> ~chi_10 gam)
     8.40472896E-06    2     1000023        22   # BR(~chi_30 -> ~chi_20 gam)
#          BR         NDA      ID1       ID2
     2.04521812E-02    2     1000039        22   # BR(~chi_30 -> ~G        gam)
     1.81401503E-02    2     1000039        23   # BR(~chi_30 -> ~G        Z)
     5.21752953E-04    2     1000039        25   # BR(~chi_30 -> ~G        h)
#           BR         NDA      ID1       ID2       ID3
     1.06610636E-05    3     1000022        -2         2   # BR(~chi_30 -> ~chi_10 ub      u)
     1.25703438E-05    3     1000022        -1         1   # BR(~chi_30 -> ~chi_10 db      d)
     1.06610636E-05    3     1000022        -4         4   # BR(~chi_30 -> ~chi_10 cb      c)
     1.25703438E-05    3     1000022        -3         3   # BR(~chi_30 -> ~chi_10 sb      s)
     2.88521215E-05    3     1000022        -5         5   # BR(~chi_30 -> ~chi_10 bb      b)
     2.16164186E-06    3     1000022       -11        11   # BR(~chi_30 -> ~chi_10 e+      e-)
     2.16164186E-06    3     1000022       -13        13   # BR(~chi_30 -> ~chi_10 mu+     mu-)
     4.65021470E-06    3     1000022       -15        15   # BR(~chi_30 -> ~chi_10 tau+    tau-)
     6.17565154E-06    3     1000022       -12        12   # BR(~chi_30 -> ~chi_10 nu_eb   nu_e)
     6.17565154E-06    3     1000022       -14        14   # BR(~chi_30 -> ~chi_10 nu_mub  nu_mu)
     6.17565154E-06    3     1000022       -16        16   # BR(~chi_30 -> ~chi_10 nu_taub nu_tau)
     2.21856415E-02    3     1000023        -2         2   # BR(~chi_30 -> ~chi_20 ub      u)
     2.87274003E-02    3     1000023        -1         1   # BR(~chi_30 -> ~chi_20 db      d)
     2.21856415E-02    3     1000023        -4         4   # BR(~chi_30 -> ~chi_20 cb      c)
     2.87274003E-02    3     1000023        -3         3   # BR(~chi_30 -> ~chi_20 sb      s)
     2.47624847E-02    3     1000023        -5         5   # BR(~chi_30 -> ~chi_20 bb      b)
     6.56101288E-03    3     1000023       -11        11   # BR(~chi_30 -> ~chi_20 e+      e-)
     6.56101288E-03    3     1000023       -13        13   # BR(~chi_30 -> ~chi_20 mu+     mu-)
     6.46610212E-03    3     1000023       -15        15   # BR(~chi_30 -> ~chi_20 tau+    tau-)
     1.31027356E-02    3     1000023       -12        12   # BR(~chi_30 -> ~chi_20 nu_eb   nu_e)
     1.31027356E-02    3     1000023       -14        14   # BR(~chi_30 -> ~chi_20 nu_mub  nu_mu)
     1.31027356E-02    3     1000023       -16        16   # BR(~chi_30 -> ~chi_20 nu_taub nu_tau)
     1.29279176E-01    3     1000024        -2         1   # BR(~chi_30 -> ~chi_1+ ub      d)
     1.29279176E-01    3    -1000024        -1         2   # BR(~chi_30 -> ~chi_1- db      u)
     1.29279176E-01    3     1000024        -4         3   # BR(~chi_30 -> ~chi_1+ cb      s)
     1.29279176E-01    3    -1000024        -3         4   # BR(~chi_30 -> ~chi_1- sb      c)
     4.30929949E-02    3     1000024       -12        11   # BR(~chi_30 -> ~chi_1+ nu_eb   e-)
     4.30929949E-02    3    -1000024        12       -11   # BR(~chi_30 -> ~chi_1- nu_e    e+)
     4.30929949E-02    3     1000024       -14        13   # BR(~chi_30 -> ~chi_1+ nu_mub  mu-)
     4.30929949E-02    3    -1000024        14       -13   # BR(~chi_30 -> ~chi_1- nu_mu   mu+)
     4.27040045E-02    3     1000024       -16        15   # BR(~chi_30 -> ~chi_1+ nu_taub tau-)
     4.27040045E-02    3    -1000024        16       -15   # BR(~chi_30 -> ~chi_1- nu_tau  tau+)
#
#         PDG            Width
DECAY   1000035     3.87882578E+01   # neutralino4 decays
#          BR         NDA      ID1       ID2
     5.36816773E-04    2     1000022        23   # BR(~chi_40 -> ~chi_10   Z )
     2.51846369E-01    2     1000023        23   # BR(~chi_40 -> ~chi_20   Z )
     6.24935194E-04    2     1000025        23   # BR(~chi_40 -> ~chi_30   Z )
     2.46470178E-01    2     1000024       -24   # BR(~chi_40 -> ~chi_1+   W-)
     2.46470178E-01    2    -1000024        24   # BR(~chi_40 -> ~chi_1-   W+)
     1.13434855E-01    2     1000022        25   # BR(~chi_40 -> ~chi_10   h )
     1.14001475E-03    2     1000023        25   # BR(~chi_40 -> ~chi_20   h )
     1.39467805E-01    2     1000025        25   # BR(~chi_40 -> ~chi_30   h )
     2.11952284E-06    2     1000039        22   # BR(~chi_40 -> ~G        gam)
     6.72684140E-06    2     1000039        23   # BR(~chi_40 -> ~G        Z)
     7.15676322E-10    2     1000039        25   # BR(~chi_40 -> ~G        h)
     1.19916981E-09    2     1000039        35   # BR(~chi_40 -> ~G        H)
     2.17168064E-11    2     1000039        36   # BR(~chi_40 -> ~G        A)
#
#         PDG            Width
DECAY        25     4.22121808E-03   # h decays
#          BR         NDA      ID1       ID2
     6.02154687E-01    2           5        -5   # BR(h -> b       bb     )
     6.21969485E-02    2         -15        15   # BR(h -> tau+    tau-   )
     2.20150082E-04    2         -13        13   # BR(h -> mu+     mu-    )
     4.65794967E-04    2           3        -3   # BR(h -> s       sb     )
     2.00951711E-02    2           4        -4   # BR(h -> c       cb     )
     6.63659634E-02    2          21        21   # BR(h -> g       g      )
     2.30533634E-03    2          22        22   # BR(h -> gam     gam    )
     1.62555136E-03    2          22        23   # BR(h -> Z       gam    )
     2.16508468E-01    2          24       -24   # BR(h -> W+      W-     )
     2.80619297E-02    2          23        23   # BR(h -> Z       Z      )
#
#         PDG            Width
DECAY        35     3.78102732E+01   # H decays
#          BR         NDA      ID1       ID2
     1.46752297E-03    2           5        -5   # BR(H -> b       bb     )
     2.46426276E-04    2         -15        15   # BR(H -> tau+    tau-   )
     8.71208630E-07    2         -13        13   # BR(H -> mu+     mu-    )
     1.11546515E-06    2           3        -3   # BR(H -> s       sb     )
     1.00668387E-05    2           4        -4   # BR(H -> c       cb     )
     9.96067188E-01    2           6        -6   # BR(H -> t       tb     )
     7.97743005E-04    2          21        21   # BR(H -> g       g      )
     2.71471851E-06    2          22        22   # BR(H -> gam     gam    )
     1.16010837E-06    2          23        22   # BR(H -> Z       gam    )
     3.35177215E-04    2          24       -24   # BR(H -> W+      W-     )
     1.67131515E-04    2          23        23   # BR(H -> Z       Z      )
     9.02882843E-04    2          25        25   # BR(H -> h       h      )
     7.28218788E-24    2          36        36   # BR(H -> A       A      )
     2.96692689E-11    2          23        36   # BR(H -> Z       A      )
     6.76246596E-12    2          24       -37   # BR(H -> W+      H-     )
     6.76246596E-12    2         -24        37   # BR(H -> W-      H+     )
#
#         PDG            Width
DECAY        36     3.82381169E+01   # A decays
#          BR         NDA      ID1       ID2
     1.47046247E-03    2           5        -5   # BR(A -> b       bb     )
     2.43898422E-04    2         -15        15   # BR(A -> tau+    tau-   )
     8.62269030E-07    2         -13        13   # BR(A -> mu+     mu-    )
     1.13677723E-06    2           3        -3   # BR(A -> s       sb     )
     9.96179350E-06    2           4        -4   # BR(A -> c       cb     )
     9.96998861E-01    2           6        -6   # BR(A -> t       tb     )
     9.43678363E-04    2          21        21   # BR(A -> g       g      )
     3.15261096E-06    2          22        22   # BR(A -> gam     gam    )
     1.35269840E-06    2          23        22   # BR(A -> Z       gam    )
     3.26633291E-04    2          23        25   # BR(A -> Z       h      )
#
#         PDG            Width
DECAY        37     3.74471970E+01   # H+ decays
#          BR         NDA      ID1       ID2
     2.35647531E-06    2           4        -5   # BR(H+ -> c       bb     )
     2.49238342E-04    2         -15        16   # BR(H+ -> tau+    nu_tau )
     8.81147572E-07    2         -13        14   # BR(H+ -> mu+     nu_mu  )
     1.49815556E-08    2           2        -5   # BR(H+ -> u       bb     )
     5.45695773E-08    2           2        -3   # BR(H+ -> u       sb     )
     1.08731952E-05    2           4        -3   # BR(H+ -> c       sb     )
     9.99401817E-01    2           6        -5   # BR(H+ -> t       bb     )
     3.34763849E-04    2          24        25   # BR(H+ -> W+      h      )
     2.79544355E-13    2          24        36   # BR(H+ -> W+      A      )
