#
#                              ======================
#                              | THE SUSYHIT OUTPUT |
#                              ======================
#
#
#              ------------------------------------------------------
#              |     This is the output of the SUSY-HIT package     |
#              |  created by A.Djouadi, M.Muehlleitner and M.Spira. |
#              |  In case of problems with SUSY-HIT email to        |
#              |           margarete.muehlleitner@cern.ch           |
#              |           michael.spira@psi.ch                     |
#              |           abdelhak.djouadi@cern.ch                 |
#              ------------------------------------------------------
#
#              ------------------------------------------------------
#              |  SUSY Les Houches Accord - MSSM Spectrum + Decays  |
#              |              based on the decay programs           |
#              |                                                    |
#              |                     SDECAY 1.3b                    |
#              |                                                    |
#              |  Authors: M.Muhlleitner, A.Djouadi and Y.Mambrini  |
#              |  Ref.:    Comput.Phys.Commun.168(2005)46           |
#              |           [hep-ph/0311167]                         |
#              |                                                    |
#              |                     HDECAY 3.4                     |
#              |                                                    |
#              |  By: A.Djouadi,J.Kalinowski,M.Muhlleitner,M.Spira  |
#              |  Ref.:    Comput.Phys.Commun.108(1998)56           |
#              |           [hep-ph/9704448]                         |
#              |                                                    |
#              |                                                    |
#              |  If not stated otherwise all DRbar couplings and   |
#              |  soft SUSY breaking masses are given at the scale  |
#              |  Q=  0.50007641E+04
#              |                                                    |
#              ------------------------------------------------------
#
#
BLOCK DCINFO  # Decay Program information
     1   SDECAY/HDECAY # decay calculator
     2   1.3b  /3.4    # version number
#
BLOCK SPINFO  # Spectrum calculator information
     1    SOFTSUSY    # spectrum calculator                
     2    3.4.0       # version number                     
#
BLOCK MODSEL  # Model selection
     1     0   #  nonUniversal                                     
#
BLOCK SMINPUTS  # Standard Model inputs
         1     1.25778332E+02   # alpha_em^-1(M_Z)^MSbar
         2     1.16570000E-05   # G_F [GeV^-2]
         3     1.17200002E-01   # alpha_S(M_Z)^MSbar
         4     9.11876000E+01   # M_Z pole mass
         5     4.25000000E+00   # mb(mb)^MSbar
         6     1.72500000E+02   # mt pole mass
         7     1.77682000E+00   # mtau pole mass
#
BLOCK MINPAR  # Input parameters - minimal models
         3     1.00000000E+01   # tanb                
#
BLOCK EXTPAR  # Input parameters - non-minimal models
         0    -1.00000000E+00   # Set                 
         1     6.00000000E+01   # M_1(MX)             
         2     3.00000000E+03   # M_2(MX)             
         3     2.62338500E+03   # M_3(MX)             
        11     5.00000000E+03   # At(MX)              
        12     5.00000000E+03   # Ab(MX)              
        13     0.00000000E+00   # Atau(MX)            
        23    -4.74870000E+02   # mu(MX)              
        26     3.00000000E+03   # mA(pole)            
        31     5.00000000E+03   # meL(MX)             
        32     5.00000000E+03   # mmuL(MX)            
        33     5.00000000E+03   # mtauL(MX)           
        34     5.00000000E+03   # meR(MX)             
        35     5.00000000E+03   # mmuR(MX)            
        36     5.00000000E+03   # mtauR(MX)           
        41     5.00000000E+03   # mqL1(MX)            
        42     5.00000000E+03   # mqL2(MX)            
        43     5.00000000E+03   # mqL3(MX)            
        44     5.00000000E+03   # muR(MX)             
        45     5.00000000E+03   # mcR(MX)             
        46     5.00000000E+03   # mtR(MX)             
        47     5.00000000E+03   # mdR(MX)             
        48     5.00000000E+03   # msR(MX)             
        49     5.00000000E+03   # mbR(MX)             
#
BLOCK MASS  # Mass Spectrum
# PDG code           mass       particle
        24     8.00932944E+01   # W+
        25     1.24794947E+02   # h
        35     3.00008596E+03   # H
        36     2.99999945E+03   # A
        37     3.00143034E+03   # H+
         5     4.87878001E+00   # b-quark pole mass calculated from mb(mb)_Msbar
   1000001     5.09123885E+03   # ~d_L
   2000001     5.07346907E+03   # ~d_R
   1000002     5.09077028E+03   # ~u_L
   2000002     5.07317124E+03   # ~u_R
   1000003     5.09123885E+03   # ~s_L
   2000003     5.07346907E+03   # ~s_R
   1000004     5.09077028E+03   # ~c_L
   2000004     5.07317124E+03   # ~c_R
   1000005     5.03710499E+03   # ~b_1
   2000005     5.07167217E+03   # ~b_2
   1000006     4.92999762E+03   # ~t_1
   2000006     5.07933991E+03   # ~t_2
   1000011     5.01910491E+03   # ~e_L
   2000011     5.00594332E+03   # ~e_R
   1000012     5.01815487E+03   # ~nu_eL
   1000013     5.01910491E+03   # ~mu_L
   2000013     5.00594332E+03   # ~mu_R
   1000014     5.01815487E+03   # ~nu_muL
   1000015     5.00477415E+03   # ~tau_1
   2000015     5.01862928E+03   # ~tau_2
   1000016     5.01760331E+03   # ~nu_tauL
   1000021     3.00000007E+03   # ~g
   1000022     6.02023933E+01   # ~chi_10
   1000023     5.00512946E+02   # ~chi_20
   1000025    -5.02707078E+02   # ~chi_30
   1000035     3.07416627E+03   # ~chi_40
   1000024     5.00000256E+02   # ~chi_1+
   1000037     3.07433394E+03   # ~chi_2+
#
BLOCK NMIX  # Neutralino Mixing Matrix
  1  1     9.96029078E-01   # N_11
  1  2     2.24969741E-04   # N_12
  1  3    -8.90152209E-02   # N_13
  1  4    -1.52173107E-03   # N_14
  2  1     6.40551359E-02   # N_21
  2  2     1.90061491E-02   # N_22
  2  3     7.04713136E-01   # N_23
  2  4     7.06339226E-01   # N_24
  3  1    -6.18293096E-02   # N_31
  3  2     1.70138146E-02   # N_32
  3  3    -7.03884742E-01   # N_33
  3  4     7.07413554E-01   # N_34
  4  1    -3.89692273E-04   # N_41
  4  2     9.99674570E-01   # N_42
  4  3    -1.39854780E-03   # N_43
  4  4    -2.54685375E-02   # N_44
#
BLOCK UMIX  # Chargino Mixing Matrix U
  1  1     1.98309518E-03   # U_11
  1  2     9.99998034E-01   # U_12
  2  1    -9.99998034E-01   # U_21
  2  2     1.98309518E-03   # U_22
#
BLOCK VMIX  # Chargino Mixing Matrix V
  1  1     3.60382159E-02   # V_11
  1  2    -9.99350413E-01   # V_12
  2  1    -9.99350413E-01   # V_21
  2  2    -3.60382159E-02   # V_22
#
BLOCK STOPMIX  # Stop Mixing Matrix
  1  1    -4.99740715E-01   # cos(theta_t)
  1  2     8.66175050E-01   # sin(theta_t)
  2  1    -8.66175050E-01   # -sin(theta_t)
  2  2    -4.99740715E-01   # cos(theta_t)
#
BLOCK SBOTMIX  # Sbottom Mixing Matrix
  1  1     9.98788015E-01   # cos(theta_b)
  1  2    -4.92189099E-02   # sin(theta_b)
  2  1     4.92189099E-02   # -sin(theta_b)
  2  2     9.98788015E-01   # cos(theta_b)
#
BLOCK STAUMIX  # Stau Mixing Matrix
  1  1    -5.69288221E-02   # cos(theta_tau)
  1  2     9.98378240E-01   # sin(theta_tau)
  2  1    -9.98378240E-01   # -sin(theta_tau)
  2  2    -5.69288221E-02   # cos(theta_tau)
#
BLOCK ALPHA  # Higgs mixing
          -1.05493252E-01   # Mixing angle in the neutral Higgs boson sector
#
BLOCK HMIX Q=  5.00076411E+03  # DRbar Higgs Parameters
         1    -4.83590731E+02   # mu(Q)MSSM           
         2     9.46856114E+00   # tan                 
         3     2.41757576E+02   # higgs               
         4     8.67884387E+06   # mA^2(Q)MSSM         
#
BLOCK GAUGE Q=  5.00076411E+03  # The gauge couplings
     1     3.70935165E-01   # gprime(Q) DRbar
     2     6.33261874E-01   # g(Q) DRbar
     3     9.92482328E-01   # g3(Q) DRbar
#
BLOCK AU Q=  5.00076411E+03  # The trilinear couplings
  1  1     5.00000002E+03   # A_u(Q) DRbar
  2  2     5.00000002E+03   # A_c(Q) DRbar
  3  3     5.00000003E+03   # A_t(Q) DRbar
#
BLOCK AD Q=  5.00076411E+03  # The trilinear couplings
  1  1     5.00000001E+03   # A_d(Q) DRbar
  2  2     5.00000001E+03   # A_s(Q) DRbar
  3  3     5.00000001E+03   # A_b(Q) DRbar
#
BLOCK AE Q=  5.00076411E+03  # The trilinear couplings
  1  1     0.00000000E+00   # A_e(Q) DRbar
  2  2     3.19791530E-07   # A_mu(Q) DRbar
  3  3     3.20007003E-07   # A_tau(Q) DRbar
#
BLOCK Yu Q=  5.00076411E+03  # The Yukawa couplings
  1  1     0.00000000E+00   # y_u(Q) DRbar
  2  2     0.00000000E+00   # y_c(Q) DRbar
  3  3     8.21884427E-01   # y_t(Q) DRbar
#
BLOCK Yd Q=  5.00076411E+03  # The Yukawa couplings
  1  1     0.00000000E+00   # y_d(Q) DRbar
  2  2     0.00000000E+00   # y_s(Q) DRbar
  3  3     1.30477879E-01   # y_b(Q) DRbar
#
BLOCK Ye Q=  5.00076411E+03  # The Yukawa couplings
  1  1     0.00000000E+00   # y_e(Q) DRbar
  2  2     0.00000000E+00   # y_mu(Q) DRbar
  3  3     9.71302988E-02   # y_tau(Q) DRbar
#
BLOCK MSOFT Q=  5.00076411E+03  # The soft SUSY breaking masses at the scale Q
         1     6.00000000E+01   # M_1(Q)              
         2     3.00000000E+03   # M_2(Q)              
         3     2.62338500E+03   # M_3(Q)              
        21     8.49034474E+06   # mH1^2(Q)            
        22     3.45606188E+05   # mH2^2(Q)            
        31     5.00000000E+03   # meL(Q)              
        32     5.00000000E+03   # mmuL(Q)             
        33     5.00000000E+03   # mtauL(Q)            
        34     5.00000000E+03   # meR(Q)              
        35     5.00000000E+03   # mmuR(Q)             
        36     5.00000000E+03   # mtauR(Q)            
        41     4.99999999E+03   # mqL1(Q)             
        42     4.99999999E+03   # mqL2(Q)             
        43     4.99999999E+03   # mqL3(Q)             
        44     4.99999999E+03   # muR(Q)              
        45     4.99999999E+03   # mcR(Q)              
        46     4.99999999E+03   # mtR(Q)              
        47     4.99999999E+03   # mdR(Q)              
        48     4.99999999E+03   # msR(Q)              
        49     4.99999999E+03   # mbR(Q)              
#
#
#
#                             =================
#                             |The decay table|
#                             =================
#
# - The QCD corrections to the decays gluino -> squark  + quark
#                                     squark -> gaugino + quark_prime
#                                     squark -> squark_prime + Higgs
#                                     squark -> gluino  + quark
#   are included.
#
# - The multi-body decays for the inos, stops and sbottoms are included.
#
# - The loop induced decays for the gluino, neutralinos and stops
#   are included.
#
# - The SUSY decays of the top quark are included.
#
#
#         PDG            Width
DECAY         6     1.40538697E+00   # top decays
#          BR         NDA      ID1       ID2
     1.00000000E+00    2           5        24   # BR(t ->  b    W+)
#
#         PDG            Width
DECAY   1000021     2.12759689E-02   # gluino decays
#          BR         NDA      ID1       ID2
     3.45462642E-07    2     1000022        21   # BR(~g -> ~chi_10 g)
     2.79265047E-03    2     1000023        21   # BR(~g -> ~chi_20 g)
     2.71482225E-03    2     1000025        21   # BR(~g -> ~chi_30 g)
#           BR         NDA      ID1       ID2       ID3
     9.59299833E-03    3     1000022         1        -1   # BR(~g -> ~chi_10 d  db)
     3.36812969E-05    3     1000023         1        -1   # BR(~g -> ~chi_20 d  db)
     4.41344369E-05    3     1000025         1        -1   # BR(~g -> ~chi_30 d  db)
     3.27207918E-02    3     1000022         2        -2   # BR(~g -> ~chi_10 u  ub)
     1.75697405E-04    3     1000023         2        -2   # BR(~g -> ~chi_20 u  ub)
     7.35180641E-05    3     1000025         2        -2   # BR(~g -> ~chi_30 u  ub)
     9.59299833E-03    3     1000022         3        -3   # BR(~g -> ~chi_10 s  sb)
     3.36812969E-05    3     1000023         3        -3   # BR(~g -> ~chi_20 s  sb)
     4.41344369E-05    3     1000025         3        -3   # BR(~g -> ~chi_30 s  sb)
     3.27207918E-02    3     1000022         4        -4   # BR(~g -> ~chi_10 c  cb)
     1.75697405E-04    3     1000023         4        -4   # BR(~g -> ~chi_20 c  cb)
     7.35180641E-05    3     1000025         4        -4   # BR(~g -> ~chi_30 c  cb)
     9.82369735E-03    3     1000022         5        -5   # BR(~g -> ~chi_10 b  bb)
     5.27502620E-03    3     1000023         5        -5   # BR(~g -> ~chi_20 b  bb)
     5.26022683E-03    3     1000025         5        -5   # BR(~g -> ~chi_30 b  bb)
     3.41986501E-02    3     1000022         6        -6   # BR(~g -> ~chi_10 t  tb)
     2.12377546E-01    3     1000023         6        -6   # BR(~g -> ~chi_20 t  tb)
     2.05232591E-01    3     1000025         6        -6   # BR(~g -> ~chi_30 t  tb)
     5.37603586E-05    3     1000024         1        -2   # BR(~g -> ~chi_1+ d  ub)
     5.37603586E-05    3    -1000024         2        -1   # BR(~g -> ~chi_1- u  db)
     5.37603586E-05    3     1000024         3        -4   # BR(~g -> ~chi_1+ s  cb)
     5.37603586E-05    3    -1000024         4        -3   # BR(~g -> ~chi_1- c  sb)
     2.18413880E-01    3     1000024         5        -6   # BR(~g -> ~chi_1+ b  tb)
     2.18413880E-01    3    -1000024         6        -5   # BR(~g -> ~chi_1- t  bb)
#
#         PDG            Width
DECAY   1000006     2.51754991E+02   # stop1 decays
#          BR         NDA      ID1       ID2
     3.51660498E-02    2     1000022         6   # BR(~t_1 -> ~chi_10 t )
     1.29810394E-01    2     1000023         6   # BR(~t_1 -> ~chi_20 t )
     1.22884342E-01    2     1000025         6   # BR(~t_1 -> ~chi_30 t )
     7.88590053E-03    2     1000035         6   # BR(~t_1 -> ~chi_40 t )
     1.90834960E-01    2     1000024         5   # BR(~t_1 -> ~chi_1+ b )
     1.57202049E-02    2     1000037         5   # BR(~t_1 -> ~chi_2+ b )
     4.97698148E-01    2     1000021         6   # BR(~t_1 -> ~g      t )
#
#         PDG            Width
DECAY   2000006     2.58962500E+02   # stop2 decays
#          BR         NDA      ID1       ID2
     1.30359252E-02    2     1000022         6   # BR(~t_2 -> ~chi_10 t )
     1.26260293E-01    2     1000023         6   # BR(~t_2 -> ~chi_20 t )
     1.33837477E-01    2     1000025         6   # BR(~t_2 -> ~chi_30 t )
     2.21967579E-02    2     1000035         6   # BR(~t_2 -> ~chi_40 t )
     7.19997002E-02    2     1000024         5   # BR(~t_2 -> ~chi_1+ b )
     4.41981795E-02    2     1000037         5   # BR(~t_2 -> ~chi_2+ b )
     5.84059960E-01    2     1000021         6   # BR(~t_2 -> ~g      t )
     1.01733818E-03    2     1000006        25   # BR(~t_2 -> ~t_1    h )
     3.39436859E-03    2     1000006        23   # BR(~t_2 -> ~t_1    Z )
#
#         PDG            Width
DECAY   1000005     2.33259823E+02   # sbottom1 decays
#          BR         NDA      ID1       ID2
     3.31695028E-03    2     1000022         5   # BR(~b_1 -> ~chi_10 b )
     3.51587229E-03    2     1000023         5   # BR(~b_1 -> ~chi_20 b )
     3.51862847E-03    2     1000025         5   # BR(~b_1 -> ~chi_30 b )
     3.28918487E-02    2     1000035         5   # BR(~b_1 -> ~chi_40 b )
     2.81727864E-01    2    -1000024         6   # BR(~b_1 -> ~chi_1- t )
     6.60389009E-02    2    -1000037         6   # BR(~b_1 -> ~chi_2- t )
     6.06746385E-01    2     1000021         5   # BR(~b_1 -> ~g      b )
     2.24355067E-03    2     1000006       -24   # BR(~b_1 -> ~t_1    W-)
#
#         PDG            Width
DECAY   2000005     1.50959457E+02   # sbottom2 decays
#          BR         NDA      ID1       ID2
     1.93711537E-02    2     1000022         5   # BR(~b_2 -> ~chi_10 b )
     5.63610165E-03    2     1000023         5   # BR(~b_2 -> ~chi_20 b )
     5.70007099E-03    2     1000025         5   # BR(~b_2 -> ~chi_30 b )
     1.08992299E-04    2     1000035         5   # BR(~b_2 -> ~chi_40 b )
     1.19937868E-02    2    -1000024         6   # BR(~b_2 -> ~chi_1- t )
     2.18864510E-04    2    -1000037         6   # BR(~b_2 -> ~chi_2- t )
     9.56934142E-01    2     1000021         5   # BR(~b_2 -> ~g      b )
     3.68884049E-05    2     1000006       -24   # BR(~b_2 -> ~t_1    W-)
#
#         PDG            Width
DECAY   1000002     1.70776089E+02   # sup_L decays
#          BR         NDA      ID1       ID2
     4.33411988E-03    2     1000022         2   # BR(~u_L -> ~chi_10 u)
     1.11561639E-04    2     1000023         2   # BR(~u_L -> ~chi_20 u)
     2.74280794E-06    2     1000025         2   # BR(~u_L -> ~chi_30 u)
     4.66200003E-02    2     1000035         2   # BR(~u_L -> ~chi_40 u)
     2.91815982E-04    2     1000024         1   # BR(~u_L -> ~chi_1+ d)
     9.31821728E-02    2     1000037         1   # BR(~u_L -> ~chi_2+ d)
     8.55457587E-01    2     1000021         2   # BR(~u_L -> ~g      u)
#
#         PDG            Width
DECAY   2000002     1.56377716E+02   # sup_R decays
#          BR         NDA      ID1       ID2
     7.52879304E-02    2     1000022         2   # BR(~u_R -> ~chi_10 u)
     3.05918702E-04    2     1000023         2   # BR(~u_R -> ~chi_20 u)
     2.84980382E-04    2     1000025         2   # BR(~u_R -> ~chi_30 u)
     4.66622326E-09    2     1000035         2   # BR(~u_R -> ~chi_40 u)
     9.24121166E-01    2     1000021         2   # BR(~u_R -> ~g      u)
#
#         PDG            Width
DECAY   1000001     1.70792922E+02   # sdown_L decays
#          BR         NDA      ID1       ID2
     4.31409363E-03    2     1000022         1   # BR(~d_L -> ~chi_10 d)
     4.74537731E-06    2     1000023         1   # BR(~d_L -> ~chi_20 d)
     9.50240747E-05    2     1000025         1   # BR(~d_L -> ~chi_30 d)
     4.66436960E-02    2     1000035         1   # BR(~d_L -> ~chi_40 d)
     8.83627551E-07    2    -1000024         2   # BR(~d_L -> ~chi_1- u)
     9.33219943E-02    2    -1000037         2   # BR(~d_L -> ~chi_2- u)
     8.55619563E-01    2     1000021         1   # BR(~d_L -> ~g      d)
#
#         PDG            Width
DECAY   2000001     1.47505308E+02   # sdown_R decays
#          BR         NDA      ID1       ID2
     1.99553226E-02    2     1000022         1   # BR(~d_R -> ~chi_10 d)
     8.10849638E-05    2     1000023         1   # BR(~d_R -> ~chi_20 d)
     7.55351808E-05    2     1000025         1   # BR(~d_R -> ~chi_30 d)
     1.23696413E-09    2     1000035         1   # BR(~d_R -> ~chi_40 d)
     9.79888056E-01    2     1000021         1   # BR(~d_R -> ~g      d)
#
#         PDG            Width
DECAY   1000004     1.70776089E+02   # scharm_L decays
#          BR         NDA      ID1       ID2
     4.33411988E-03    2     1000022         4   # BR(~c_L -> ~chi_10 c)
     1.11561639E-04    2     1000023         4   # BR(~c_L -> ~chi_20 c)
     2.74280794E-06    2     1000025         4   # BR(~c_L -> ~chi_30 c)
     4.66200003E-02    2     1000035         4   # BR(~c_L -> ~chi_40 c)
     2.91815982E-04    2     1000024         3   # BR(~c_L -> ~chi_1+ s)
     9.31821728E-02    2     1000037         3   # BR(~c_L -> ~chi_2+ s)
     8.55457587E-01    2     1000021         4   # BR(~c_L -> ~g      c)
#
#         PDG            Width
DECAY   2000004     1.56377716E+02   # scharm_R decays
#          BR         NDA      ID1       ID2
     7.52879304E-02    2     1000022         4   # BR(~c_R -> ~chi_10 c)
     3.05918702E-04    2     1000023         4   # BR(~c_R -> ~chi_20 c)
     2.84980382E-04    2     1000025         4   # BR(~c_R -> ~chi_30 c)
     4.66622326E-09    2     1000035         4   # BR(~c_R -> ~chi_40 c)
     9.24121166E-01    2     1000021         4   # BR(~c_R -> ~g      c)
#
#         PDG            Width
DECAY   1000003     1.70792922E+02   # sstrange_L decays
#          BR         NDA      ID1       ID2
     4.31409363E-03    2     1000022         3   # BR(~s_L -> ~chi_10 s)
     4.74537731E-06    2     1000023         3   # BR(~s_L -> ~chi_20 s)
     9.50240747E-05    2     1000025         3   # BR(~s_L -> ~chi_30 s)
     4.66436960E-02    2     1000035         3   # BR(~s_L -> ~chi_40 s)
     8.83627551E-07    2    -1000024         4   # BR(~s_L -> ~chi_1- c)
     9.33219943E-02    2    -1000037         4   # BR(~s_L -> ~chi_2- c)
     8.55619563E-01    2     1000021         3   # BR(~s_L -> ~g      s)
#
#         PDG            Width
DECAY   2000003     1.47505308E+02   # sstrange_R decays
#          BR         NDA      ID1       ID2
     1.99553226E-02    2     1000022         3   # BR(~s_R -> ~chi_10 s)
     8.10849638E-05    2     1000023         3   # BR(~s_R -> ~chi_20 s)
     7.55351808E-05    2     1000025         3   # BR(~s_R -> ~chi_30 s)
     1.23696413E-09    2     1000035         3   # BR(~s_R -> ~chi_40 s)
     9.79888056E-01    2     1000021         3   # BR(~s_R -> ~g      s)
#
#         PDG            Width
DECAY   1000011     3.03290641E+01   # selectron_L decays
#          BR         NDA      ID1       ID2
     2.24810893E-01    2     1000022        11   # BR(~e_L -> ~chi_10 e-)
     2.06756783E-03    2     1000023        11   # BR(~e_L -> ~chi_20 e-)
     2.38566961E-04    2     1000025        11   # BR(~e_L -> ~chi_30 e-)
     2.57458914E-01    2     1000035        11   # BR(~e_L -> ~chi_40 e-)
     5.08965394E-06    2    -1000024        12   # BR(~e_L -> ~chi_1- nu_e)
     5.15418968E-01    2    -1000037        12   # BR(~e_L -> ~chi_2- nu_e)
#
#         PDG            Width
DECAY   2000011     2.73935687E+01   # selectron_R decays
#          BR         NDA      ID1       ID2
     9.92228896E-01    2     1000022        11   # BR(~e_R -> ~chi_10 e-)
     4.02322780E-03    2     1000023        11   # BR(~e_R -> ~chi_20 e-)
     3.74781750E-03    2     1000025        11   # BR(~e_R -> ~chi_30 e-)
     5.89443051E-08    2     1000035        11   # BR(~e_R -> ~chi_40 e-)
#
#         PDG            Width
DECAY   1000013     3.03290641E+01   # smuon_L decays
#          BR         NDA      ID1       ID2
     2.24810893E-01    2     1000022        13   # BR(~mu_L -> ~chi_10 mu-)
     2.06756783E-03    2     1000023        13   # BR(~mu_L -> ~chi_20 mu-)
     2.38566961E-04    2     1000025        13   # BR(~mu_L -> ~chi_30 mu-)
     2.57458914E-01    2     1000035        13   # BR(~mu_L -> ~chi_40 mu-)
     5.08965394E-06    2    -1000024        14   # BR(~mu_L -> ~chi_1- nu_mu)
     5.15418968E-01    2    -1000037        14   # BR(~mu_L -> ~chi_2- nu_mu)
#
#         PDG            Width
DECAY   2000013     2.73935687E+01   # smuon_R decays
#          BR         NDA      ID1       ID2
     9.92228896E-01    2     1000022        13   # BR(~mu_R -> ~chi_10 mu-)
     4.02322780E-03    2     1000023        13   # BR(~mu_R -> ~chi_20 mu-)
     3.74781750E-03    2     1000025        13   # BR(~mu_R -> ~chi_30 mu-)
     5.89443051E-08    2     1000035        13   # BR(~mu_R -> ~chi_40 mu-)
#
#         PDG            Width
DECAY   1000015     2.92360245E+01   # stau_1 decays
#          BR         NDA      ID1       ID2
     9.28350571E-01    2     1000022        15   # BR(~tau_1 -> ~chi_10  tau-)
     1.91858410E-02    2     1000023        15   # BR(~tau_1 -> ~chi_20  tau-)
     1.84820809E-02    2     1000025        15   # BR(~tau_1 -> ~chi_30  tau-)
     8.48144591E-04    2     1000035        15   # BR(~tau_1 -> ~chi_40  tau-)
     3.14355818E-02    2    -1000024        16   # BR(~tau_1 -> ~chi_1-  nu_tau)
     1.69778060E-03    2    -1000037        16   # BR(~tau_1 -> ~chi_2-  nu_tau)
#
#         PDG            Width
DECAY   2000015     3.12362355E+01   # stau_2 decays
#          BR         NDA      ID1       ID2
     2.19800042E-01    2     1000022        15   # BR(~tau_2 -> ~chi_10  tau-)
     1.68944527E-02    2     1000023        15   # BR(~tau_2 -> ~chi_20  tau-)
     1.54639995E-02    2     1000025        15   # BR(~tau_2 -> ~chi_30  tau-)
     2.49099615E-01    2     1000035        15   # BR(~tau_2 -> ~chi_40  tau-)
     5.72810039E-05    2    -1000024        16   # BR(~tau_2 -> ~chi_1-  nu_tau)
     4.98684610E-01    2    -1000037        16   # BR(~tau_2 -> ~chi_2-  nu_tau)
#
#         PDG            Width
DECAY   1000012     3.03322593E+01   # snu_eL decays
#          BR         NDA      ID1       ID2
     2.24398259E-01    2     1000022        12   # BR(~nu_eL -> ~chi_10 nu_e)
     2.21737430E-04    2     1000023        12   # BR(~nu_eL -> ~chi_20 nu_e)
     1.83259670E-03    2     1000025        12   # BR(~nu_eL -> ~chi_30 nu_e)
     2.57501128E-01    2     1000035        12   # BR(~nu_eL -> ~chi_40 nu_e)
     1.68033720E-03    2     1000024        11   # BR(~nu_eL -> ~chi_1+ e-)
     5.14365941E-01    2     1000037        11   # BR(~nu_eL -> ~chi_2+ e-)
#
#         PDG            Width
DECAY   1000014     3.03322593E+01   # snu_muL decays
#          BR         NDA      ID1       ID2
     2.24398259E-01    2     1000022        14   # BR(~nu_muL -> ~chi_10 nu_mu)
     2.21737430E-04    2     1000023        14   # BR(~nu_muL -> ~chi_20 nu_mu)
     1.83259670E-03    2     1000025        14   # BR(~nu_muL -> ~chi_30 nu_mu)
     2.57501128E-01    2     1000035        14   # BR(~nu_muL -> ~chi_40 nu_mu)
     1.68033720E-03    2     1000024        13   # BR(~nu_muL -> ~chi_1+ mu-)
     5.14365941E-01    2     1000037        13   # BR(~nu_muL -> ~chi_2+ mu-)
#
#         PDG            Width
DECAY   1000016     3.12458924E+01   # snu_tauL decays
#          BR         NDA      ID1       ID2
     2.17812874E-01    2     1000022        16   # BR(~nu_tauL -> ~chi_10 nu_tau)
     2.15229195E-04    2     1000023        16   # BR(~nu_tauL -> ~chi_20 nu_tau)
     1.77880792E-03    2     1000025        16   # BR(~nu_tauL -> ~chi_30 nu_tau)
     2.49878273E-01    2     1000035        16   # BR(~nu_tauL -> ~chi_40 nu_tau)
     3.11762586E-02    2     1000024        15   # BR(~nu_tauL -> ~chi_1+ tau-)
     4.99138557E-01    2     1000037        15   # BR(~nu_tauL -> ~chi_2+ tau-)
#
#         PDG            Width
DECAY   1000024     2.94038908E-01   # chargino1+ decays
#          BR         NDA      ID1       ID2
     1.00000000E+00    2     1000022        24   # BR(~chi_1+ -> ~chi_10  W+)
#
#         PDG            Width
DECAY   1000037     2.21576353E+01   # chargino2+ decays
#          BR         NDA      ID1       ID2
     2.53560693E-01    2     1000024        23   # BR(~chi_2+ -> ~chi_1+  Z )
     1.56246428E-04    2     1000022        24   # BR(~chi_2+ -> ~chi_10  W+)
     2.44963298E-01    2     1000023        24   # BR(~chi_2+ -> ~chi_20  W+)
     2.44368958E-01    2     1000025        24   # BR(~chi_2+ -> ~chi_30  W+)
     2.56945627E-01    2     1000024        25   # BR(~chi_2+ -> ~chi_1+  h )
     5.17742231E-06    2     1000022        37   # BR(~chi_2+ -> ~chi_10  H+)
#
#         PDG            Width
DECAY   1000022     0.00000000E+00   # neutralino1 decays
#
#         PDG            Width
DECAY   1000023     2.97378125E-01   # neutralino2 decays
#          BR         NDA      ID1       ID2
     5.04345781E-01    2     1000022        23   # BR(~chi_20 -> ~chi_10   Z )
     4.95654219E-01    2     1000022        25   # BR(~chi_20 -> ~chi_10   h )
#
#         PDG            Width
DECAY   1000025     2.90280097E-01   # neutralino3 decays
#          BR         NDA      ID1       ID2
     5.33683132E-01    2     1000022        23   # BR(~chi_30 -> ~chi_10   Z )
     4.66316868E-01    2     1000022        25   # BR(~chi_30 -> ~chi_10   h )
#
#         PDG            Width
DECAY   1000035     2.21685841E+01   # neutralino4 decays
#          BR         NDA      ID1       ID2
     3.10018929E-06    2     1000022        23   # BR(~chi_40 -> ~chi_10   Z )
     1.12720787E-01    2     1000023        23   # BR(~chi_40 -> ~chi_20   Z )
     1.40401243E-01    2     1000025        23   # BR(~chi_40 -> ~chi_30   Z )
     2.45145985E-01    2     1000024       -24   # BR(~chi_40 -> ~chi_1+   W-)
     2.45145985E-01    2    -1000024        24   # BR(~chi_40 -> ~chi_1-   W+)
     1.45598722E-04    2     1000022        25   # BR(~chi_40 -> ~chi_10   h )
     4.98134367E-06    2     1000022        35   # BR(~chi_40 -> ~chi_10   H )
     5.43270126E-07    2     1000022        36   # BR(~chi_40 -> ~chi_10   A )
     1.43429732E-01    2     1000023        25   # BR(~chi_40 -> ~chi_20   h )
     1.13002043E-01    2     1000025        25   # BR(~chi_40 -> ~chi_30   h )
#
#         PDG            Width
DECAY        25     4.06717076E-03   # h decays
#          BR         NDA      ID1       ID2
     6.08383352E-01    2           5        -5   # BR(h -> b       bb     )
     6.37893154E-02    2         -15        15   # BR(h -> tau+    tau-   )
     2.25837275E-04    2         -13        13   # BR(h -> mu+     mu-    )
     4.78744957E-04    2           3        -3   # BR(h -> s       sb     )
     2.07428935E-02    2           4        -4   # BR(h -> c       cb     )
     6.71240727E-02    2          21        21   # BR(h -> g       g      )
     2.30754393E-03    2          22        22   # BR(h -> gam     gam    )
     1.49010554E-03    2          22        23   # BR(h -> Z       gam    )
     2.10309479E-01    2          24       -24   # BR(h -> W+      W-     )
     2.50635373E-02    2          23        23   # BR(h -> Z       Z      )
     8.51186039E-05    2     1000022   1000022   # BR(h -> ~chi_10 ~chi_10)
#
#         PDG            Width
DECAY        35     8.65973507E+00   # H decays
#          BR         NDA      ID1       ID2
     3.68255542E-01    2           5        -5   # BR(H -> b       bb     )
     6.43161586E-02    2         -15        15   # BR(H -> tau+    tau-   )
     2.27427046E-04    2         -13        13   # BR(H -> mu+     mu-    )
     2.78790624E-04    2           3        -3   # BR(H -> s       sb     )
     1.56046457E-06    2           4        -4   # BR(H -> c       cb     )
     1.55902775E-01    2           6        -6   # BR(H -> t       tb     )
     5.18567631E-05    2          21        21   # BR(H -> g       g      )
     1.49188578E-07    2          22        22   # BR(H -> gam     gam    )
     9.20142118E-08    2          23        22   # BR(H -> Z       gam    )
     7.45891798E-05    2          24       -24   # BR(H -> W+      W-     )
     3.72473769E-05    2          23        23   # BR(H -> Z       Z      )
     2.69969445E-04    2          25        25   # BR(H -> h       h      )
    -7.21014613E-25    2          36        36   # BR(H -> A       A      )
     7.80479860E-19    2          23        36   # BR(H -> Z       A      )
     3.17478887E-03    2     1000024  -1000024   # BR(H -> ~chi_1+ ~chi_1-)
     6.71615411E-03    2     1000022   1000022   # BR(H -> ~chi_10 ~chi_10)
     3.69012141E-04    2     1000023   1000023   # BR(H -> ~chi_20 ~chi_20)
     2.44880585E-03    2     1000025   1000025   # BR(H -> ~chi_30 ~chi_30)
     2.39593510E-01    2     1000022   1000023   # BR(H -> ~chi_10 ~chi_20)
     1.54957069E-01    2     1000022   1000025   # BR(H -> ~chi_10 ~chi_30)
     3.32450315E-03    2     1000023   1000025   # BR(H -> ~chi_20 ~chi_30)
#
#         PDG            Width
DECAY        36     8.66675953E+00   # A decays
#          BR         NDA      ID1       ID2
     3.68082565E-01    2           5        -5   # BR(A -> b       bb     )
     6.42659456E-02    2         -15        15   # BR(A -> tau+    tau-   )
     2.27249171E-04    2         -13        13   # BR(A -> mu+     mu-    )
     2.78776274E-04    2           3        -3   # BR(A -> s       sb     )
     1.56543249E-06    2           4        -4   # BR(A -> c       cb     )
     1.56312812E-01    2           6        -6   # BR(A -> t       tb     )
     1.54668636E-04    2          21        21   # BR(A -> g       g      )
     5.93916235E-07    2          22        22   # BR(A -> gam     gam    )
     1.87240311E-07    2          23        22   # BR(A -> Z       gam    )
     7.42465464E-05    2          23        25   # BR(A -> Z       h      )
     3.48674814E-03    2     1000024  -1000024   # BR(A -> ~chi_1+ ~chi_1-)
     6.67329680E-03    2     1000022   1000022   # BR(A -> ~chi_10 ~chi_10)
     2.71120187E-04    2     1000023   1000023   # BR(A -> ~chi_20 ~chi_20)
     4.22381048E-03    2     1000025   1000025   # BR(A -> ~chi_30 ~chi_30)
     1.58358571E-01    2     1000022   1000023   # BR(A -> ~chi_10 ~chi_20)
     2.35224743E-01    2     1000022   1000025   # BR(A -> ~chi_10 ~chi_30)
     2.36309987E-03    2     1000023   1000025   # BR(A -> ~chi_20 ~chi_30)
#
#         PDG            Width
DECAY        37     8.62196419E+00   # H+ decays
#          BR         NDA      ID1       ID2
     5.91738955E-04    2           4        -5   # BR(H+ -> c       bb     )
     6.46306505E-02    2         -15        16   # BR(H+ -> tau+    nu_tau )
     2.28538794E-04    2         -13        14   # BR(H+ -> mu+     nu_mu  )
     3.78710949E-06    2           2        -5   # BR(H+ -> u       bb     )
     1.34098579E-05    2           2        -3   # BR(H+ -> u       sb     )
     2.77317503E-04    2           4        -3   # BR(H+ -> c       sb     )
     5.23711995E-01    2           6        -5   # BR(H+ -> t       bb     )
     7.47873020E-05    2          24        25   # BR(H+ -> W+      h      )
     9.14194848E-13    2          24        36   # BR(H+ -> W+      A      )
     4.06675018E-01    2     1000024   1000022   # BR(H+ -> ~chi_1+ ~chi_10)
     3.46321518E-03    2     1000024   1000023   # BR(H+ -> ~chi_1+ ~chi_20)
     3.29542310E-04    2     1000024   1000025   # BR(H+ -> ~chi_1+ ~chi_30)
