#
#                              ======================
#                              | THE SUSYHIT OUTPUT |
#                              ======================
#
#
#              ------------------------------------------------------
#              |     This is the output of the SUSY-HIT package     |
#              |  created by A.Djouadi, M.Muehlleitner and M.Spira. |
#              |  In case of problems with SUSY-HIT email to        |
#              |           margarete.muehlleitner@kit.edu           |
#              |           michael.spira@psi.ch                     |
#              |           abdelhak.djouadi@cern.ch                 |
#              ------------------------------------------------------
#
#              ------------------------------------------------------
#              |  SUSY Les Houches Accord - MSSM Spectrum + Decays  |
#              |              based on the decay programs           |
#              |                                                    |
#              |                     SDECAY 1.5                     |
#              |                                                    |
#              |  Authors: M.Muhlleitner, A.Djouadi and Y.Mambrini  |
#              |  Ref.:    Comput.Phys.Commun.168(2005)46           |
#              |           [hep-ph/0311167]                         |
#              |                                                    |
#              |                     HDECAY 3.4                     |
#              |                                                    |
#              |  By: A.Djouadi,J.Kalinowski,M.Muhlleitner,M.Spira  |
#              |  Ref.:    Comput.Phys.Commun.108(1998)56           |
#              |           [hep-ph/9704448]                         |
#              |                                                    |
#              |                                                    |
#              |  If not stated otherwise all DRbar couplings and   |
#              |  soft SUSY breaking masses are given at the scale  |
#              |  Q=  0.91187600E+02
#              |                                                    |
#              ------------------------------------------------------
#
#
BLOCK DCINFO  # Decay Program information
     1   SDECAY/HDECAY # decay calculator
     2   1.5  /3.4    # version number
#
BLOCK SPINFO  # Spectrum calculator information
     1   SuSpect     # RGE +Spectrum calculator            
     2   2.43         # version number                     
#
BLOCK MODSEL  # Model selection
     1     2   # GMSB                                              
#
BLOCK SMINPUTS  # Standard Model inputs
         1     1.27932904E+02   # alpha_em^-1(M_Z)^MSbar
         2     1.16639000E-05   # G_F [GeV^-2]
         3     1.17200000E-01   # alpha_S(M_Z)^MSbar
         4     9.11870000E+01   # M_Z pole mass
         5     4.25000000E+00   # mb(mb)^MSbar
         6     1.72900000E+02   # mt pole mass
         7     1.77700000E+00   # mtau pole mass
#
BLOCK MINPAR  # Input parameters - minimal models
#
BLOCK EXTPAR  # Input parameters - non-minimal models
         0     9.11876000E+01   # EWSB                
         1     8.54000000E+02   # M_1                 
         2     3.00000000E+03   # M_2                 
         3     2.30000000E+03   # M_3                 
        11     0.00000000E+00   # A_t                 
        12     0.00000000E+00   # A_b                 
        13     0.00000000E+00   # A_tau               
        14     0.00000000E+00   # A_u                 
        15     0.00000000E+00   # A_d                 
        16     0.00000000E+00   # A_e                 
        23     8.50000000E+02   # mu(EWSB)            
        25     1.50000000E+00   # tanbeta(in)         
        26     2.00000000E+03   # MA_pole             
        31     5.00000000E+03   # M_eL                
        32     5.00000000E+03   # M_muL               
        33     5.00000000E+03   # M_tauL              
        34     5.00000000E+03   # M_eR                
        35     5.00000000E+03   # M_muR               
        36     5.00000000E+03   # M_tauR              
        41     5.00000000E+03   # M_q1L               
        42     5.00000000E+03   # M_q2L               
        43     5.00000000E+03   # M_q3L               
        44     5.00000000E+03   # M_uR                
        45     5.00000000E+03   # M_cR                
        46     5.00000000E+03   # M_tR                
        47     5.00000000E+03   # M_dR                
        48     5.00000000E+03   # M_sR                
        49     5.00000000E+03   # M_bR                
#
BLOCK MASS  # Mass Spectrum
# PDG code           mass       particle
        24     8.05400794E+01   # W+
        25     1.26000000E+02   # h
        35     2.00404228E+03   # H
        36     2.00000000E+03   # A
        37     2.00148453E+03   # H+
         5     4.87877839E+00   # b-quark pole mass calculated from mb(mb)_Msbar
   1000001     4.90936599E+03   # ~d_L
   2000001     4.90925532E+03   # ~d_R
   1000002     4.90911859E+03   # ~u_L
   2000002     4.90917712E+03   # ~u_R
   1000003     4.90936599E+03   # ~s_L
   2000003     4.90925532E+03   # ~s_R
   1000004     4.90911859E+03   # ~c_L
   2000004     4.90917712E+03   # ~c_R
   1000005     4.90895467E+03   # ~b_1
   2000005     4.90966810E+03   # ~b_2
   1000006     5.03723646E+03   # ~t_1
   2000006     5.33888743E+03   # ~t_2
   1000011     5.00008227E+03   # ~e_L
   2000011     5.00007605E+03   # ~e_R
   1000012     4.99984168E+03   # ~nu_eL
   1000013     5.00008227E+03   # ~mu_L
   2000013     5.00007605E+03   # ~mu_R
   1000014     4.99984168E+03   # ~nu_muL
   1000015     4.99985276E+03   # ~tau_1
   2000015     5.00030618E+03   # ~tau_2
   1000016     4.99984168E+03   # ~nu_tauL
   1000021     2.32578569E+03   # ~g
   1000022     8.62254168E+02   # ~chi_10
   1000023    -9.09022394E+02   # ~chi_20
   1000025     9.49403336E+02   # ~chi_30
   1000035     3.12892914E+03   # ~chi_40
   1000024     9.06270942E+02   # ~chi_1+
   1000037     3.12892816E+03   # ~chi_2+
   1000039     1.00000000E-09   # ~gravitino
#
BLOCK NMIX  # Neutralino Mixing Matrix
  1  1     7.10196761E-01   # N_11
  1  2    -2.40772067E-02   # N_12
  1  3     5.00128981E-01   # N_13
  1  4    -4.94885695E-01   # N_14
  2  1     4.81283757E-03   # N_21
  2  2    -3.84922318E-03   # N_22
  2  3    -7.06895587E-01   # N_23
  2  4    -7.07291064E-01   # N_24
  3  1     7.03986440E-01   # N_31
  3  2     2.53095904E-02   # N_32
  3  3    -4.99686362E-01   # N_33
  3  4     5.04059577E-01   # N_34
  4  1     6.99960955E-04   # N_41
  4  2    -9.99382257E-01   # N_42
  4  3    -2.19811458E-02   # N_43
  4  4     2.74124616E-02   # N_44
#
BLOCK UMIX  # Chargino Mixing Matrix U
  1  1    -3.10721940E-02   # U_11
  1  2     9.99517143E-01   # U_12
  2  1     9.99517143E-01   # U_21
  2  2     3.10721940E-02   # U_22
#
BLOCK VMIX  # Chargino Mixing Matrix V
  1  1    -3.87553735E-02   # V_11
  1  2     9.99248728E-01   # V_12
  2  1     9.99248728E-01   # V_21
  2  2     3.87553735E-02   # V_22
#
BLOCK STOPMIX  # Stop Mixing Matrix
  1  1     9.99931875E-01   # cos(theta_t)
  1  2    -1.16724187E-02   # sin(theta_t)
  2  1     1.16724187E-02   # -sin(theta_t)
  2  2     9.99931875E-01   # cos(theta_t)
#
BLOCK SBOTMIX  # Sbottom Mixing Matrix
  1  1     6.49955089E-01   # cos(theta_b)
  1  2     7.59972619E-01   # sin(theta_b)
  2  1    -7.59972619E-01   # -sin(theta_b)
  2  2     6.49955089E-01   # cos(theta_b)
#
BLOCK STAUMIX  # Stau Mixing Matrix
  1  1     7.02237549E-01   # cos(theta_tau)
  1  2     7.11942712E-01   # sin(theta_tau)
  2  1    -7.11942712E-01   # -sin(theta_tau)
  2  2     7.02237549E-01   # cos(theta_tau)
#
BLOCK ALPHA  # Higgs mixing
          -5.90208707E-01   # Mixing angle in the neutral Higgs boson sector
#
BLOCK HMIX Q=  9.11876000E+01  # DRbar Higgs Parameters
         1     8.50000000E+02   # mu(Q)               
         2     1.49999979E+00   # tanbeta(Q)          
         3     2.52039303E+02   # vev(Q)              
         4     3.57154393E+06   # MA^2(Q)             
#
BLOCK GAUGE Q=  9.11876000E+01  # The gauge couplings
     1     3.52850551E-01   # gprime(Q) DRbar
     2     6.27604639E-01   # g(Q) DRbar
     3     1.07822029E+00   # g3(Q) DRbar
#
BLOCK AU Q=  9.11876000E+01  # The trilinear couplings
  1  1     0.00000000E+00   # A_u(Q) DRbar
  2  2     0.00000000E+00   # A_c(Q) DRbar
  3  3     0.00000000E+00   # A_t(Q) DRbar
#
BLOCK AD Q=  9.11876000E+01  # The trilinear couplings
  1  1     0.00000000E+00   # A_d(Q) DRbar
  2  2     0.00000000E+00   # A_s(Q) DRbar
  3  3     0.00000000E+00   # A_b(Q) DRbar
#
BLOCK AE Q=  9.11876000E+01  # The trilinear couplings
  1  1     0.00000000E+00   # A_e(Q) DRbar
  2  2     0.00000000E+00   # A_mu(Q) DRbar
  3  3     0.00000000E+00   # A_tau(Q) DRbar
#
BLOCK Yu Q=  9.11876000E+01  # The Yukawa couplings
  1  1     0.00000000E+00   # y_u(Q) DRbar
  2  2     0.00000000E+00   # y_c(Q) DRbar
  3  3     1.02617318E+00   # y_t(Q) DRbar
#
BLOCK Yd Q=  9.11876000E+01  # The Yukawa couplings
  1  1     0.00000000E+00   # y_d(Q) DRbar
  2  2     0.00000000E+00   # y_s(Q) DRbar
  3  3     2.71889868E-02   # y_b(Q) DRbar
#
BLOCK Ye Q=  9.11876000E+01  # The Yukawa couplings
  1  1     0.00000000E+00   # y_e(Q) DRbar
  2  2     0.00000000E+00   # y_mu(Q) DRbar
  3  3     1.79851514E-02   # y_tau(Q) DRbar
#
BLOCK MSOFT Q=  9.11876000E+01  # The soft SUSY breaking masses at the scale Q
         1     8.54000000E+02   # M_1                 
         2     3.00000000E+03   # M_2                 
         3     2.30000000E+03   # M_3                 
        14     0.00000000E+00   # A_u                 
        15     0.00000000E+00   # A_d                 
        16     0.00000000E+00   # A_e                 
        21     2.24395406E+06   # M^2_Hd              
        22    -6.03248560E+06   # M^2_Hu              
        31     5.00000000E+03   # M_eL                
        32     5.00000000E+03   # M_muL               
        33     5.00000000E+03   # M_tauL              
        34     5.00000000E+03   # M_eR                
        35     5.00000000E+03   # M_muR               
        36     5.00000000E+03   # M_tauR              
        41     5.00000000E+03   # M_q1L               
        42     5.00000000E+03   # M_q2L               
        43     5.00000000E+03   # M_q3L               
        44     5.00000000E+03   # M_uR                
        45     5.00000000E+03   # M_cR                
        46     5.00000000E+03   # M_tR                
        47     5.00000000E+03   # M_dR                
        48     5.00000000E+03   # M_sR                
        49     5.00000000E+03   # M_bR                
#
#
#
#                             =================
#                             |The decay table|
#                             =================
#
# - The QCD corrections to the decays gluino -> squark  + quark
#                                     squark -> gaugino + quark_prime
#                                     squark -> squark_prime + Higgs
#                                     squark -> gluino  + quark
#   are included.
#
# - The multi-body decays for the inos, stops and sbottoms are included.
#
# - The loop induced decays for the gluino, neutralinos and stops
#   are included.
#
# - The SUSY decays of the top quark are included.
#
# - Possible decays of the NLSP in GMSB models are included.
#
#
#         PDG            Width
DECAY         6     1.37240546E+00   # top decays
#          BR         NDA      ID1       ID2
     1.00000000E+00    2           5        24   # BR(t ->  b    W+)
#
#         PDG            Width
DECAY   1000021     3.26513075E-03   # gluino decays
#          BR         NDA      ID1       ID2
     4.77912441E-03    2     1000022        21   # BR(~g -> ~chi_10 g)
     9.05467346E-03    2     1000023        21   # BR(~g -> ~chi_20 g)
     4.21792223E-03    2     1000025        21   # BR(~g -> ~chi_30 g)
#          BR         NDA      ID1       ID2
0.0E+00    2     1000039    21 # BR(~g -> ~G      g)
#           BR         NDA      ID1       ID2       ID3
     5.47035873E-03    3     1000022         1        -1   # BR(~g -> ~chi_10 d  db)
     5.71655717E-07    3     1000023         1        -1   # BR(~g -> ~chi_20 d  db)
     3.83842038E-03    3     1000025         1        -1   # BR(~g -> ~chi_30 d  db)
     1.69069579E-02    3     1000022         2        -2   # BR(~g -> ~chi_10 u  ub)
     4.80444321E-07    3     1000023         2        -2   # BR(~g -> ~chi_20 u  ub)
     1.43716853E-02    3     1000025         2        -2   # BR(~g -> ~chi_30 u  ub)
     5.47035873E-03    3     1000022         3        -3   # BR(~g -> ~chi_10 s  sb)
     5.71655717E-07    3     1000023         3        -3   # BR(~g -> ~chi_20 s  sb)
     3.83842038E-03    3     1000025         3        -3   # BR(~g -> ~chi_30 s  sb)
     1.69069579E-02    3     1000022         4        -4   # BR(~g -> ~chi_10 c  cb)
     4.80444321E-07    3     1000023         4        -4   # BR(~g -> ~chi_20 c  cb)
     1.43716853E-02    3     1000025         4        -4   # BR(~g -> ~chi_30 c  cb)
     5.56438132E-03    3     1000022         5        -5   # BR(~g -> ~chi_10 b  bb)
     2.08803173E-04    3     1000023         5        -5   # BR(~g -> ~chi_20 b  bb)
     3.94828584E-03    3     1000025         5        -5   # BR(~g -> ~chi_30 b  bb)
     1.06028904E-01    3     1000022         6        -6   # BR(~g -> ~chi_10 t  tb)
     1.89764271E-01    3     1000023         6        -6   # BR(~g -> ~chi_20 t  tb)
     1.14091353E-01    3     1000025         6        -6   # BR(~g -> ~chi_30 t  tb)
     1.27915343E-04    3     1000024         1        -2   # BR(~g -> ~chi_1+ d  ub)
     1.27915343E-04    3    -1000024         2        -1   # BR(~g -> ~chi_1- u  db)
     1.27915343E-04    3     1000024         3        -4   # BR(~g -> ~chi_1+ s  cb)
     1.27915343E-04    3    -1000024         4        -3   # BR(~g -> ~chi_1- c  sb)
     2.28328962E-01    3     1000024         5        -6   # BR(~g -> ~chi_1+ b  tb)
     2.28328962E-01    3    -1000024         6        -5   # BR(~g -> ~chi_1- t  bb)
#
#         PDG            Width
DECAY   1000006     2.60176953E+02   # stop1 decays
#          BR         NDA      ID1       ID2
     6.26838389E-02    2     1000022         6   # BR(~t_1 -> ~chi_10 t )
     1.29826225E-01    2     1000023         6   # BR(~t_1 -> ~chi_20 t )
     6.93248060E-02    2     1000025         6   # BR(~t_1 -> ~chi_30 t )
     2.79384643E-02    2     1000035         6   # BR(~t_1 -> ~chi_40 t )
     1.90174569E-05    2     1000024         5   # BR(~t_1 -> ~chi_1+ b )
     5.56023286E-02    2     1000037         5   # BR(~t_1 -> ~chi_2+ b )
     6.34761871E-01    2     1000021         6   # BR(~t_1 -> ~g      t )
     8.51562101E-03    2     1000005        24   # BR(~t_1 -> ~b_1    W+)
     1.13278278E-02    2     2000005        24   # BR(~t_1 -> ~b_2    W+)
#
#         PDG            Width
DECAY   2000006     3.39358691E+02   # stop2 decays
#          BR         NDA      ID1       ID2
     7.00995277E-02    2     1000022         6   # BR(~t_2 -> ~chi_10 t )
     1.07114075E-01    2     1000023         6   # BR(~t_2 -> ~chi_20 t )
     6.81924747E-02    2     1000025         6   # BR(~t_2 -> ~chi_30 t )
    -2.86668317E-05    2     1000035         6   # BR(~t_2 -> ~chi_40 t )
     2.14483103E-01    2     1000024         5   # BR(~t_2 -> ~chi_1+ b )
    -5.70646140E-05    2     1000037         5   # BR(~t_2 -> ~chi_2+ b )
     5.40188125E-01    2     1000021         6   # BR(~t_2 -> ~g      t )
    -1.39633146E-04    2     1000006        25   # BR(~t_2 -> ~t_1    h )
     2.27942810E-05    2     1000006        23   # BR(~t_2 -> ~t_1    Z )
     5.30220584E-05    2     1000005        24   # BR(~t_2 -> ~b_1    W+)
     7.22428476E-05    2     2000005        24   # BR(~t_2 -> ~b_2    W+)
#
#         PDG            Width
DECAY   1000005     1.88917674E+02   # sbottom1 decays
#          BR         NDA      ID1       ID2
     6.06140875E-03    2     1000022         5   # BR(~b_1 -> ~chi_10 b )
     1.02478568E-04    2     1000023         5   # BR(~b_1 -> ~chi_20 b )
     3.65318669E-03    2     1000025         5   # BR(~b_1 -> ~chi_30 b )
     1.23304205E-02    2     1000035         5   # BR(~b_1 -> ~chi_40 b )
     1.14145355E-01    2    -1000024         6   # BR(~b_1 -> ~chi_1- t )
     2.47756641E-02    2    -1000037         6   # BR(~b_1 -> ~chi_2- t )
     8.38931486E-01    2     1000021         5   # BR(~b_1 -> ~g      b )
#
#         PDG            Width
DECAY   2000005     2.16484472E+02   # sbottom2 decays
#          BR         NDA      ID1       ID2
     2.49351294E-03    2     1000022         5   # BR(~b_2 -> ~chi_10 b )
     1.27125995E-04    2     1000023         5   # BR(~b_2 -> ~chi_20 b )
     3.33763035E-03    2     1000025         5   # BR(~b_2 -> ~chi_30 b )
     1.96049158E-02    2     1000035         5   # BR(~b_2 -> ~chi_40 b )
     2.03600583E-01    2    -1000024         6   # BR(~b_2 -> ~chi_1- t )
     3.94088211E-02    2    -1000037         6   # BR(~b_2 -> ~chi_2- t )
     7.31427411E-01    2     1000021         5   # BR(~b_2 -> ~g      b )
#
#         PDG            Width
DECAY   1000002     1.78791674E+02   # sup_L decays
#          BR         NDA      ID1       ID2
     1.15579520E-03    2     1000022         2   # BR(~u_L -> ~chi_10 u)
     8.38847169E-07    2     1000023         2   # BR(~u_L -> ~chi_20 u)
     2.37249984E-03    2     1000025         2   # BR(~u_L -> ~chi_30 u)
     3.67390363E-02    2     1000035         2   # BR(~u_L -> ~chi_40 u)
     2.90215787E-04    2     1000024         1   # BR(~u_L -> ~chi_1+ d)
     7.34777889E-02    2     1000037         1   # BR(~u_L -> ~chi_2+ d)
     8.85963825E-01    2     1000021         2   # BR(~u_L -> ~g      u)
#
#         PDG            Width
DECAY   2000002     1.68113370E+02   # sup_R decays
#          BR         NDA      ID1       ID2
     2.93143570E-02    2     1000022         2   # BR(~u_R -> ~chi_10 u)
     1.33685279E-06    2     1000023         2   # BR(~u_R -> ~chi_20 u)
     2.84211674E-02    2     1000025         2   # BR(~u_R -> ~chi_30 u)
     1.07740051E-08    2     1000035         2   # BR(~u_R -> ~chi_40 u)
     9.42263128E-01    2     1000021         2   # BR(~u_R -> ~g      u)
#
#         PDG            Width
DECAY   1000001     1.78798565E+02   # sdown_L decays
#          BR         NDA      ID1       ID2
     2.40240160E-03    2     1000022         1   # BR(~d_L -> ~chi_10 d)
     2.17998985E-06    2     1000023         1   # BR(~d_L -> ~chi_20 d)
     1.09087559E-03    2     1000025         1   # BR(~d_L -> ~chi_30 d)
     3.67637898E-02    2     1000035         1   # BR(~d_L -> ~chi_40 d)
     1.86556148E-04    2    -1000024         2   # BR(~d_L -> ~chi_1- u)
     7.35281876E-02    2    -1000037         2   # BR(~d_L -> ~chi_2- u)
     8.86026009E-01    2     1000021         1   # BR(~d_L -> ~g      d)
#
#         PDG            Width
DECAY   2000001     1.60839104E+02   # sdown_R decays
#          BR         NDA      ID1       ID2
     7.66017851E-03    2     1000022         1   # BR(~d_R -> ~chi_10 d)
     3.49335083E-07    2     1000023         1   # BR(~d_R -> ~chi_20 d)
     7.42678106E-03    2     1000025         1   # BR(~d_R -> ~chi_30 d)
     2.81548664E-09    2     1000035         1   # BR(~d_R -> ~chi_40 d)
     9.84912688E-01    2     1000021         1   # BR(~d_R -> ~g      d)
#
#         PDG            Width
DECAY   1000004     1.78791674E+02   # scharm_L decays
#          BR         NDA      ID1       ID2
     1.15579520E-03    2     1000022         4   # BR(~c_L -> ~chi_10 c)
     8.38847169E-07    2     1000023         4   # BR(~c_L -> ~chi_20 c)
     2.37249984E-03    2     1000025         4   # BR(~c_L -> ~chi_30 c)
     3.67390363E-02    2     1000035         4   # BR(~c_L -> ~chi_40 c)
     2.90215787E-04    2     1000024         3   # BR(~c_L -> ~chi_1+ s)
     7.34777889E-02    2     1000037         3   # BR(~c_L -> ~chi_2+ s)
     8.85963825E-01    2     1000021         4   # BR(~c_L -> ~g      c)
#
#         PDG            Width
DECAY   2000004     1.68113370E+02   # scharm_R decays
#          BR         NDA      ID1       ID2
     2.93143570E-02    2     1000022         4   # BR(~c_R -> ~chi_10 c)
     1.33685279E-06    2     1000023         4   # BR(~c_R -> ~chi_20 c)
     2.84211674E-02    2     1000025         4   # BR(~c_R -> ~chi_30 c)
     1.07740051E-08    2     1000035         4   # BR(~c_R -> ~chi_40 c)
     9.42263128E-01    2     1000021         4   # BR(~c_R -> ~g      c)
#
#         PDG            Width
DECAY   1000003     1.78798565E+02   # sstrange_L decays
#          BR         NDA      ID1       ID2
     2.40240160E-03    2     1000022         3   # BR(~s_L -> ~chi_10 s)
     2.17998985E-06    2     1000023         3   # BR(~s_L -> ~chi_20 s)
     1.09087559E-03    2     1000025         3   # BR(~s_L -> ~chi_30 s)
     3.67637898E-02    2     1000035         3   # BR(~s_L -> ~chi_40 s)
     1.86556148E-04    2    -1000024         4   # BR(~s_L -> ~chi_1- c)
     7.35281876E-02    2    -1000037         4   # BR(~s_L -> ~chi_2- c)
     8.86026009E-01    2     1000021         3   # BR(~s_L -> ~g      s)
#
#         PDG            Width
DECAY   2000003     1.60839104E+02   # sstrange_R decays
#          BR         NDA      ID1       ID2
     7.66017851E-03    2     1000022         3   # BR(~s_R -> ~chi_10 s)
     3.49335083E-07    2     1000023         3   # BR(~s_R -> ~chi_20 s)
     7.42678106E-03    2     1000025         3   # BR(~s_R -> ~chi_30 s)
     2.81548664E-09    2     1000035         3   # BR(~s_R -> ~chi_40 s)
     9.84912688E-01    2     1000021         3   # BR(~s_R -> ~g      s)
#
#         PDG            Width
DECAY   1000011     2.75860181E+01   # selectron_L decays
#          BR         NDA      ID1       ID2
     9.41201864E-02    2     1000022        11   # BR(~e_L -> ~chi_10 e-)
     8.68026275E-07    2     1000023        11   # BR(~e_L -> ~chi_20 e-)
     1.17015625E-01    2     1000025        11   # BR(~e_L -> ~chi_30 e-)
     2.62341667E-01    2     1000035        11   # BR(~e_L -> ~chi_40 e-)
     1.28268579E-03    2    -1000024        12   # BR(~e_L -> ~chi_1- nu_e)
     5.25238968E-01    2    -1000037        12   # BR(~e_L -> ~chi_2- nu_e)
#
#         PDG            Width
DECAY   2000011     2.31682981E+01   # selectron_R decays
#          BR         NDA      ID1       ID2
     5.07644041E-01    2     1000022        11   # BR(~e_R -> ~chi_10 e-)
     2.31543711E-05    2     1000023        11   # BR(~e_R -> ~chi_20 e-)
     4.92332611E-01    2     1000025        11   # BR(~e_R -> ~chi_30 e-)
     1.93890256E-07    2     1000035        11   # BR(~e_R -> ~chi_40 e-)
#
#         PDG            Width
DECAY   1000013     2.75860181E+01   # smuon_L decays
#          BR         NDA      ID1       ID2
     9.41201864E-02    2     1000022        13   # BR(~mu_L -> ~chi_10 mu-)
     8.68026275E-07    2     1000023        13   # BR(~mu_L -> ~chi_20 mu-)
     1.17015625E-01    2     1000025        13   # BR(~mu_L -> ~chi_30 mu-)
     2.62341667E-01    2     1000035        13   # BR(~mu_L -> ~chi_40 mu-)
     1.28268579E-03    2    -1000024        14   # BR(~mu_L -> ~chi_1- nu_mu)
     5.25238968E-01    2    -1000037        14   # BR(~mu_L -> ~chi_2- nu_mu)
#
#         PDG            Width
DECAY   2000013     2.31682981E+01   # smuon_R decays
#          BR         NDA      ID1       ID2
     5.07644041E-01    2     1000022        13   # BR(~mu_R -> ~chi_10 mu-)
     2.31543711E-05    2     1000023        13   # BR(~mu_R -> ~chi_20 mu-)
     4.92332611E-01    2     1000025        13   # BR(~mu_R -> ~chi_30 mu-)
     1.93890256E-07    2     1000035        13   # BR(~mu_R -> ~chi_40 mu-)
#
#         PDG            Width
DECAY   1000015     2.54262934E+01   # stau_1 decays
#          BR         NDA      ID1       ID2
     2.91345584E-01    2     1000022        15   # BR(~tau_1 -> ~chi_10  tau-)
     4.67170528E-04    2     1000023        15   # BR(~tau_1 -> ~chi_20  tau-)
     2.84932353E-01    2     1000025        15   # BR(~tau_1 -> ~chi_30  tau-)
     1.40082611E-01    2     1000035        15   # BR(~tau_1 -> ~chi_40  tau-)
     2.56824348E-03    2    -1000024        16   # BR(~tau_1 -> ~chi_1-  nu_tau)
     2.80462560E-01    2    -1000037        16   # BR(~tau_1 -> ~chi_2-  nu_tau)
     1.41478168E-04    2     1000039        15   # BR(~tau_1 -> ~G       tau-)
#
#         PDG            Width
DECAY   2000015     2.54218632E+01   # stau_2 decays
#          BR         NDA      ID1       ID2
     2.73973063E-01    2     1000022        15   # BR(~tau_2 -> ~chi_10  tau-)
     7.37469836E-04    2     1000023        15   # BR(~tau_2 -> ~chi_20  tau-)
     2.91273303E-01    2     1000025        15   # BR(~tau_2 -> ~chi_30  tau-)
     1.44568656E-01    2     1000035        15   # BR(~tau_2 -> ~chi_40  tau-)
     5.80988987E-06    2    -1000024        16   # BR(~tau_2 -> ~chi_1-  nu_tau)
     2.89441698E-01    2    -1000037        16   # BR(~tau_2 -> ~chi_2-  nu_tau)
#
#         PDG            Width
DECAY   1000012     2.75858199E+01   # snu_eL decays
#          BR         NDA      ID1       ID2
     1.19823728E-01    2     1000022        12   # BR(~nu_eL -> ~chi_10 nu_e)
     2.85300958E-05    2     1000023        12   # BR(~nu_eL -> ~chi_20 nu_e)
     9.05701049E-02    2     1000025        12   # BR(~nu_eL -> ~chi_30 nu_e)
     2.62711900E-01    2     1000035        12   # BR(~nu_eL -> ~chi_40 nu_e)
     1.99535274E-03    2     1000024        11   # BR(~nu_eL -> ~chi_1+ e-)
     5.24870385E-01    2     1000037        11   # BR(~nu_eL -> ~chi_2+ e-)
#
#         PDG            Width
DECAY   1000014     2.75858199E+01   # snu_muL decays
#          BR         NDA      ID1       ID2
     1.19823728E-01    2     1000022        14   # BR(~nu_muL -> ~chi_10 nu_mu)
     2.85300958E-05    2     1000023        14   # BR(~nu_muL -> ~chi_20 nu_mu)
     9.05701049E-02    2     1000025        14   # BR(~nu_muL -> ~chi_30 nu_mu)
     2.62711900E-01    2     1000035        14   # BR(~nu_muL -> ~chi_40 nu_mu)
     1.99535274E-03    2     1000024        13   # BR(~nu_muL -> ~chi_1+ mu-)
     5.24870385E-01    2     1000037        13   # BR(~nu_muL -> ~chi_2+ mu-)
#
#         PDG            Width
DECAY   1000016     2.76158957E+01   # snu_tauL decays
#          BR         NDA      ID1       ID2
     1.19693231E-01    2     1000022        16   # BR(~nu_tauL -> ~chi_10 nu_tau)
     2.84990244E-05    2     1000023        16   # BR(~nu_tauL -> ~chi_20 nu_tau)
     9.04714673E-02    2     1000025        16   # BR(~nu_tauL -> ~chi_30 nu_tau)
     2.62425787E-01    2     1000035        16   # BR(~nu_tauL -> ~chi_40 nu_tau)
     3.08151331E-03    2     1000024        15   # BR(~nu_tauL -> ~chi_1+ tau-)
     5.24299503E-01    2     1000037        15   # BR(~nu_tauL -> ~chi_2+ tau-)
#
#         PDG            Width
DECAY   1000024     1.03509690E-04   # chargino1+ decays
#          BR         NDA      ID1       ID2
     3.30122584E-03    2     1000039        24   # BR(~chi_1+ -> ~G       W+)
#           BR         NDA      ID1       ID2       ID3
     3.32529869E-01    3     1000022         2        -1   # BR(~chi_1+ -> ~chi_10 u    db)
     3.32529869E-01    3     1000022         4        -3   # BR(~chi_1+ -> ~chi_10 c    sb)
     1.10843421E-01    3     1000022       -11        12   # BR(~chi_1+ -> ~chi_10 e+   nu_e)
     1.10843421E-01    3     1000022       -13        14   # BR(~chi_1+ -> ~chi_10 mu+  nu_mu)
     1.09952194E-01    3     1000022       -15        16   # BR(~chi_1+ -> ~chi_10 tau+ nu_tau)
#
#         PDG            Width
DECAY   1000037     3.66903830E+01   # chargino2+ decays
#          BR         NDA      ID1       ID2
     2.44817827E-01    2     1000024        23   # BR(~chi_2+ -> ~chi_1+  Z )
     1.11750231E-01    2     1000022        24   # BR(~chi_2+ -> ~chi_10  W+)
     2.38470684E-01    2     1000023        24   # BR(~chi_2+ -> ~chi_20  W+)
     1.26917964E-01    2     1000025        24   # BR(~chi_2+ -> ~chi_30  W+)
     2.45919567E-01    2     1000024        25   # BR(~chi_2+ -> ~chi_1+  h )
     7.91265259E-03    2     1000024        35   # BR(~chi_2+ -> ~chi_1+  H )
     8.12686822E-03    2     1000024        36   # BR(~chi_2+ -> ~chi_1+  A )
     4.83494711E-03    2     1000022        37   # BR(~chi_2+ -> ~chi_10  H+)
     7.96487728E-03    2     1000023        37   # BR(~chi_2+ -> ~chi_20  H+)
     3.27499977E-03    2     1000025        37   # BR(~chi_2+ -> ~chi_30  H+)
     9.38106572E-06    2     1000039        24   # BR(~chi_2+ -> ~G       W+)
     6.48178354E-10    2     1000039        37   # BR(~chi_2+ -> ~G       H+)
#
#         PDG            Width
DECAY   1000022    1.0E-05    # neutralino1 decays
#          BR         NDA      ID1       ID2
     5.02341178E-01    2     1000039        22   # BR(~chi_10 -> ~G        gam)
     4.86636586E-01    2     1000039        23   # BR(~chi_10 -> ~G        Z)
     1.10222356E-02    2     1000039        25   # BR(~chi_10 -> ~G        h)
#
#         PDG            Width
DECAY   1000023     1.13202247E-04   # neutralino2 decays
#          BR         NDA      ID1       ID2
     3.10861087E-04    2     1000022        22   # BR(~chi_20 -> ~chi_10 gam)
#          BR         NDA      ID1       ID2
     3.36508628E-08    2     1000039        22   # BR(~chi_20 -> ~G        gam)
     1.17101677E-04    2     1000039        23   # BR(~chi_20 -> ~G        Z)
     2.81094618E-03    2     1000039        25   # BR(~chi_20 -> ~G        h)
#           BR         NDA      ID1       ID2       ID3
     1.18415407E-01    3     1000022        -2         2   # BR(~chi_20 -> ~chi_10 ub      u)
     1.53314654E-01    3     1000022        -1         1   # BR(~chi_20 -> ~chi_10 db      d)
     1.18415407E-01    3     1000022        -4         4   # BR(~chi_20 -> ~chi_10 cb      c)
     1.53314654E-01    3     1000022        -3         3   # BR(~chi_20 -> ~chi_10 sb      s)
     1.38922066E-01    3     1000022        -5         5   # BR(~chi_20 -> ~chi_10 bb      b)
     3.50073378E-02    3     1000022       -11        11   # BR(~chi_20 -> ~chi_10 e+      e-)
     3.50073378E-02    3     1000022       -13        13   # BR(~chi_20 -> ~chi_10 mu+     mu-)
     3.46405062E-02    3     1000022       -15        15   # BR(~chi_20 -> ~chi_10 tau+    tau-)
     6.99069682E-02    3     1000022       -12        12   # BR(~chi_20 -> ~chi_10 nu_eb   nu_e)
     6.99069682E-02    3     1000022       -14        14   # BR(~chi_20 -> ~chi_10 nu_mub  nu_mu)
     6.99069682E-02    3     1000022       -16        16   # BR(~chi_20 -> ~chi_10 nu_taub nu_tau)
     5.15040694E-07    3     1000024        -2         1   # BR(~chi_20 -> ~chi_1+ ub      d)
     5.15040694E-07    3    -1000024        -1         2   # BR(~chi_20 -> ~chi_1- db      u)
     5.15040694E-07    3     1000024        -4         3   # BR(~chi_20 -> ~chi_1+ cb      s)
     5.15040694E-07    3    -1000024        -3         4   # BR(~chi_20 -> ~chi_1- sb      c)
     1.71680243E-07    3     1000024       -12        11   # BR(~chi_20 -> ~chi_1+ nu_eb   e-)
     1.71680243E-07    3    -1000024        12       -11   # BR(~chi_20 -> ~chi_1- nu_e    e+)
     1.71680243E-07    3     1000024       -14        13   # BR(~chi_20 -> ~chi_1+ nu_mub  mu-)
     1.71680243E-07    3    -1000024        14       -13   # BR(~chi_20 -> ~chi_1- nu_mu   mu+)
     1.88517033E-08    3     1000024       -16        15   # BR(~chi_20 -> ~chi_1+ nu_taub tau-)
     1.88517033E-08    3    -1000024        16       -15   # BR(~chi_20 -> ~chi_1- nu_tau  tau+)
#
#         PDG            Width
DECAY   1000025     2.42899849E-04   # neutralino3 decays
#          BR         NDA      ID1       ID2
     3.44775917E-04    2     1000022        22   # BR(~chi_30 -> ~chi_10 gam)
     3.77753359E-04    2     1000023        22   # BR(~chi_30 -> ~chi_20 gam)
#          BR         NDA      ID1       ID2
     1.43297222E-03    2     1000039        22   # BR(~chi_30 -> ~G        gam)
     1.22214400E-03    2     1000039        23   # BR(~chi_30 -> ~G        Z)
     3.37018855E-05    2     1000039        25   # BR(~chi_30 -> ~G        h)
#           BR         NDA      ID1       ID2       ID3
     1.03404962E-05    3     1000022        -2         2   # BR(~chi_30 -> ~chi_10 ub      u)
     1.23618346E-05    3     1000022        -1         1   # BR(~chi_30 -> ~chi_10 db      d)
     1.03404962E-05    3     1000022        -4         4   # BR(~chi_30 -> ~chi_10 cb      c)
     1.23618346E-05    3     1000022        -3         3   # BR(~chi_30 -> ~chi_10 sb      s)
     1.60960737E-05    3     1000022        -5         5   # BR(~chi_30 -> ~chi_10 bb      b)
     2.20859598E-06    3     1000022       -11        11   # BR(~chi_30 -> ~chi_10 e+      e-)
     2.20859598E-06    3     1000022       -13        13   # BR(~chi_30 -> ~chi_10 mu+     mu-)
     2.80024596E-06    3     1000022       -15        15   # BR(~chi_30 -> ~chi_10 tau+    tau-)
     6.01563418E-06    3     1000022       -12        12   # BR(~chi_30 -> ~chi_10 nu_eb   nu_e)
     6.01563418E-06    3     1000022       -14        14   # BR(~chi_30 -> ~chi_10 nu_mub  nu_mu)
     6.01563418E-06    3     1000022       -16        16   # BR(~chi_30 -> ~chi_10 nu_taub nu_tau)
     2.60750900E-02    3     1000023        -2         2   # BR(~chi_30 -> ~chi_20 ub      u)
     3.37599784E-02    3     1000023        -1         1   # BR(~chi_30 -> ~chi_20 db      d)
     2.60750900E-02    3     1000023        -4         4   # BR(~chi_30 -> ~chi_20 cb      c)
     3.37599784E-02    3     1000023        -3         3   # BR(~chi_30 -> ~chi_20 sb      s)
     2.96326998E-02    3     1000023        -5         5   # BR(~chi_30 -> ~chi_20 bb      b)
     7.70866637E-03    3     1000023       -11        11   # BR(~chi_30 -> ~chi_20 e+      e-)
     7.70866637E-03    3     1000023       -13        13   # BR(~chi_30 -> ~chi_20 mu+     mu-)
     7.60819548E-03    3     1000023       -15        15   # BR(~chi_30 -> ~chi_20 tau+    tau-)
     1.53934831E-02    3     1000023       -12        12   # BR(~chi_30 -> ~chi_20 nu_eb   nu_e)
     1.53934831E-02    3     1000023       -14        14   # BR(~chi_30 -> ~chi_20 nu_mub  nu_mu)
     1.53934831E-02    3     1000023       -16        16   # BR(~chi_30 -> ~chi_20 nu_taub nu_tau)
     1.29786395E-01    3     1000024        -2         1   # BR(~chi_30 -> ~chi_1+ ub      d)
     1.29786395E-01    3    -1000024        -1         2   # BR(~chi_30 -> ~chi_1- db      u)
     1.29786395E-01    3     1000024        -4         3   # BR(~chi_30 -> ~chi_1+ cb      s)
     1.29786395E-01    3    -1000024        -3         4   # BR(~chi_30 -> ~chi_1- sb      c)
     4.32620617E-02    3     1000024       -12        11   # BR(~chi_30 -> ~chi_1+ nu_eb   e-)
     4.32620617E-02    3    -1000024        12       -11   # BR(~chi_30 -> ~chi_1- nu_e    e+)
     4.32620617E-02    3     1000024       -14        13   # BR(~chi_30 -> ~chi_1+ nu_mub  mu-)
     4.32620617E-02    3    -1000024        14       -13   # BR(~chi_30 -> ~chi_1- nu_mu   mu+)
     4.28996240E-02    3     1000024       -16        15   # BR(~chi_30 -> ~chi_1+ nu_taub tau-)
     4.28996240E-02    3    -1000024        16       -15   # BR(~chi_30 -> ~chi_1- nu_tau  tau+)
#
#         PDG            Width
DECAY   1000035     3.66907766E+01   # neutralino4 decays
#          BR         NDA      ID1       ID2
     1.35410304E-03    2     1000022        23   # BR(~chi_40 -> ~chi_10   Z )
     2.41966190E-01    2     1000023        23   # BR(~chi_40 -> ~chi_20   Z )
     1.55886418E-03    2     1000025        23   # BR(~chi_40 -> ~chi_30   Z )
     2.38395656E-01    2     1000024       -24   # BR(~chi_40 -> ~chi_1+   W-)
     2.38395656E-01    2    -1000024        24   # BR(~chi_40 -> ~chi_1-   W+)
     1.13937026E-01    2     1000022        25   # BR(~chi_40 -> ~chi_10   h )
     1.46222222E-03    2     1000022        35   # BR(~chi_40 -> ~chi_10   H )
     3.34199547E-03    2     1000022        36   # BR(~chi_40 -> ~chi_10   A )
     2.88088278E-03    2     1000023        25   # BR(~chi_40 -> ~chi_20   h )
     5.11688644E-03    2     1000023        35   # BR(~chi_40 -> ~chi_20   H )
     2.78460374E-03    2     1000023        36   # BR(~chi_40 -> ~chi_20   A )
     1.29388095E-01    2     1000025        25   # BR(~chi_40 -> ~chi_30   h )
     1.23258335E-03    2     1000025        35   # BR(~chi_40 -> ~chi_30   H )
     2.01615823E-03    2     1000025        36   # BR(~chi_40 -> ~chi_30   A )
     8.07984829E-03    2     1000024       -37   # BR(~chi_40 -> ~chi_1+   H-)
     8.07984829E-03    2    -1000024        37   # BR(~chi_40 -> ~chi_1-   H+)
     2.25169036E-06    2     1000039        22   # BR(~chi_40 -> ~G        gam)
     7.12849961E-06    2     1000039        23   # BR(~chi_40 -> ~G        Z)
     5.19486793E-10    2     1000039        25   # BR(~chi_40 -> ~G        h)
     6.39568362E-10    2     1000039        35   # BR(~chi_40 -> ~G        H)
     5.47433409E-12    2     1000039        36   # BR(~chi_40 -> ~G        A)
#
#         PDG            Width
DECAY        25     4.21906519E-03   # h decays
#          BR         NDA      ID1       ID2
     6.01909703E-01    2           5        -5   # BR(h -> b       bb     )
     6.22295924E-02    2         -15        15   # BR(h -> tau+    tau-   )
     2.20265627E-04    2         -13        13   # BR(h -> mu+     mu-    )
     4.66039311E-04    2           3        -3   # BR(h -> s       sb     )
     2.01052939E-02    2           4        -4   # BR(h -> c       cb     )
     6.63988991E-02    2          21        21   # BR(h -> g       g      )
     2.30815470E-03    2          22        22   # BR(h -> gam     gam    )
     1.62630719E-03    2          22        23   # BR(h -> Z       gam    )
     2.16659496E-01    2          24       -24   # BR(h -> W+      W-     )
     2.80762485E-02    2          23        23   # BR(h -> Z       Z      )
#
#         PDG            Width
DECAY        35     3.88095953E+01   # H decays
#          BR         NDA      ID1       ID2
     1.43320885E-03    2           5        -5   # BR(H -> b       bb     )
     2.40083001E-04    2         -15        15   # BR(H -> tau+    tau-   )
     8.48782792E-07    2         -13        13   # BR(H -> mu+     mu-    )
     1.08674948E-06    2           3        -3   # BR(H -> s       sb     )
     9.80789406E-06    2           4        -4   # BR(H -> c       cb     )
     9.70446617E-01    2           6        -6   # BR(H -> t       tb     )
     7.77225428E-04    2          21        21   # BR(H -> g       g      )
     2.63841056E-06    2          22        22   # BR(H -> gam     gam    )
     1.12987224E-06    2          23        22   # BR(H -> Z       gam    )
     3.28010244E-04    2          24       -24   # BR(H -> W+      W-     )
     1.63557767E-04    2          23        23   # BR(H -> Z       Z      )
     8.81058917E-04    2          25        25   # BR(H -> h       h      )
     7.56083771E-24    2          36        36   # BR(H -> A       A      )
     3.00068076E-11    2          23        36   # BR(H -> Z       A      )
     7.41578332E-12    2          24       -37   # BR(H -> W+      H-     )
     7.41578332E-12    2         -24        37   # BR(H -> W-      H+     )
     7.58176129E-06    2     1000024  -1000024   # BR(H -> ~chi_1+ ~chi_1-)
     1.83574164E-04    2     1000022   1000022   # BR(H -> ~chi_10 ~chi_10)
     1.29232389E-06    2     1000023   1000023   # BR(H -> ~chi_20 ~chi_20)
     3.16411104E-05    2     1000025   1000025   # BR(H -> ~chi_30 ~chi_30)
     1.58360968E-02    2     1000022   1000023   # BR(H -> ~chi_10 ~chi_20)
     4.61496322E-07    2     1000022   1000025   # BR(H -> ~chi_10 ~chi_30)
     9.65407927E-03    2     1000023   1000025   # BR(H -> ~chi_20 ~chi_30)
#
#         PDG            Width
DECAY        36     3.92440919E+01   # A decays
#          BR         NDA      ID1       ID2
     1.43620497E-03    2           5        -5   # BR(A -> b       bb     )
     2.37646380E-04    2         -15        15   # BR(A -> tau+    tau-   )
     8.40165802E-07    2         -13        13   # BR(A -> mu+     mu-    )
     1.10763732E-06    2           3        -3   # BR(A -> s       sb     )
     9.70643493E-06    2           4        -4   # BR(A -> c       cb     )
     9.71441997E-01    2           6        -6   # BR(A -> t       tb     )
     9.19488306E-04    2          21        21   # BR(A -> g       g      )
     2.99658549E-06    2          22        22   # BR(A -> gam     gam    )
     1.31759855E-06    2          23        22   # BR(A -> Z       gam    )
     3.19672307E-04    2          23        25   # BR(A -> Z       h      )
     4.48595525E-04    2     1000024  -1000024   # BR(A -> ~chi_1+ ~chi_1-)
     1.68678821E-02    2     1000022   1000022   # BR(A -> ~chi_10 ~chi_10)
     2.84480540E-07    2     1000023   1000023   # BR(A -> ~chi_20 ~chi_20)
     8.00073481E-03    2     1000025   1000025   # BR(A -> ~chi_30 ~chi_30)
     1.19373497E-04    2     1000022   1000023   # BR(A -> ~chi_10 ~chi_20)
     1.34305071E-04    2     1000022   1000025   # BR(A -> ~chi_10 ~chi_30)
     5.78471450E-05    2     1000023   1000025   # BR(A -> ~chi_20 ~chi_30)
#
#         PDG            Width
DECAY        37     3.84329004E+01   # H+ decays
#          BR         NDA      ID1       ID2
     2.30364164E-06    2           4        -5   # BR(H+ -> c       bb     )
     2.42842430E-04    2         -15        16   # BR(H+ -> tau+    nu_tau )
     8.58535714E-07    2         -13        14   # BR(H+ -> mu+     nu_mu  )
     1.46459830E-08    2           2        -5   # BR(H+ -> u       bb     )
     5.31693288E-08    2           2        -3   # BR(H+ -> u       sb     )
     1.05941904E-05    2           4        -3   # BR(H+ -> c       sb     )
     9.73761793E-01    2           6        -5   # BR(H+ -> t       bb     )
     3.27610340E-04    2          24        25   # BR(H+ -> W+      h      )
     2.46718404E-13    2          24        36   # BR(H+ -> W+      A      )
     1.42783427E-02    2     1000024   1000022   # BR(H+ -> ~chi_1+ ~chi_10)
     1.06584140E-04    2     1000024   1000023   # BR(H+ -> ~chi_1+ ~chi_20)
     1.12690037E-02    2     1000024   1000025   # BR(H+ -> ~chi_1+ ~chi_30)
