#
#                              ======================
#                              | THE SUSYHIT OUTPUT |
#                              ======================
#
#
#              ------------------------------------------------------
#              |     This is the output of the SUSY-HIT package     |
#              |  created by A.Djouadi, M.Muehlleitner and M.Spira. |
#              |  In case of problems with SUSY-HIT email to        |
#              |           margarete.muehlleitner@cern.ch           |
#              |           michael.spira@psi.ch                     |
#              |           abdelhak.djouadi@cern.ch                 |
#              ------------------------------------------------------
#
#              ------------------------------------------------------
#              |  SUSY Les Houches Accord - MSSM Spectrum + Decays  |
#              |              based on the decay programs           |
#              |                                                    |
#              |                     SDECAY 1.3b                    |
#              |                                                    |
#              |  Authors: M.Muhlleitner, A.Djouadi and Y.Mambrini  |
#              |  Ref.:    Comput.Phys.Commun.168(2005)46           |
#              |           [hep-ph/0311167]                         |
#              |                                                    |
#              |                     HDECAY 3.4                     |
#              |                                                    |
#              |  By: A.Djouadi,J.Kalinowski,M.Muhlleitner,M.Spira  |
#              |  Ref.:    Comput.Phys.Commun.108(1998)56           |
#              |           [hep-ph/9704448]                         |
#              |                                                    |
#              |                                                    |
#              |  If not stated otherwise all DRbar couplings and   |
#              |  soft SUSY breaking masses are given at the scale  |
#              |  Q=  0.50007412E+04
#              |                                                    |
#              ------------------------------------------------------
#
#
BLOCK DCINFO  # Decay Program information
     1   SDECAY/HDECAY # decay calculator
     2   1.3b  /3.4    # version number
#
BLOCK SPINFO  # Spectrum calculator information
     1    SOFTSUSY    # spectrum calculator                
     2    3.4.0       # version number                     
#
BLOCK MODSEL  # Model selection
     1     0   #  nonUniversal                                     
#
BLOCK SMINPUTS  # Standard Model inputs
         1     1.25778332E+02   # alpha_em^-1(M_Z)^MSbar
         2     1.16570000E-05   # G_F [GeV^-2]
         3     1.17200002E-01   # alpha_S(M_Z)^MSbar
         4     9.11876000E+01   # M_Z pole mass
         5     4.25000000E+00   # mb(mb)^MSbar
         6     1.72500000E+02   # mt pole mass
         7     1.77682000E+00   # mtau pole mass
#
BLOCK MINPAR  # Input parameters - minimal models
         3     1.00000000E+01   # tanb                
#
BLOCK EXTPAR  # Input parameters - non-minimal models
         0    -1.00000000E+00   # Set                 
         1     6.00000000E+01   # M_1(MX)             
         2     3.00000000E+03   # M_2(MX)             
         3     1.85478400E+03   # M_3(MX)             
        11     5.00000000E+03   # At(MX)              
        12     5.00000000E+03   # Ab(MX)              
        13     0.00000000E+00   # Atau(MX)            
        23    -9.58968000E+02   # mu(MX)              
        26     3.00000000E+03   # mA(pole)            
        31     5.00000000E+03   # meL(MX)             
        32     5.00000000E+03   # mmuL(MX)            
        33     5.00000000E+03   # mtauL(MX)           
        34     5.00000000E+03   # meR(MX)             
        35     5.00000000E+03   # mmuR(MX)            
        36     5.00000000E+03   # mtauR(MX)           
        41     5.00000000E+03   # mqL1(MX)            
        42     5.00000000E+03   # mqL2(MX)            
        43     5.00000000E+03   # mqL3(MX)            
        44     5.00000000E+03   # muR(MX)             
        45     5.00000000E+03   # mcR(MX)             
        46     5.00000000E+03   # mtR(MX)             
        47     5.00000000E+03   # mdR(MX)             
        48     5.00000000E+03   # msR(MX)             
        49     5.00000000E+03   # mbR(MX)             
#
BLOCK MASS  # Mass Spectrum
# PDG code           mass       particle
        24     8.00953265E+01   # W+
        25     1.24796310E+02   # h
        35     3.00008146E+03   # H
        36     2.99999861E+03   # A
        37     3.00113176E+03   # H+
         5     4.87878001E+00   # b-quark pole mass calculated from mb(mb)_Msbar
   1000001     5.07476078E+03   # ~d_L
   2000001     5.05696996E+03   # ~d_R
   1000002     5.07428796E+03   # ~u_L
   2000002     5.05668463E+03   # ~u_R
   1000003     5.07476078E+03   # ~s_L
   2000003     5.05696996E+03   # ~s_R
   1000004     5.07428796E+03   # ~c_L
   2000004     5.05668463E+03   # ~c_R
   1000005     5.02046498E+03   # ~b_1
   2000005     5.05547539E+03   # ~b_2
   1000006     4.91176696E+03   # ~t_1
   2000006     5.06509265E+03   # ~t_2
   1000011     5.01907003E+03   # ~e_L
   2000011     5.00592421E+03   # ~e_R
   1000012     5.01812146E+03   # ~nu_eL
   1000013     5.01907003E+03   # ~mu_L
   2000013     5.00592421E+03   # ~mu_R
   1000014     5.01812146E+03   # ~nu_muL
   1000015     5.00461227E+03   # ~tau_1
   2000015     5.01876476E+03   # ~tau_2
   1000016     5.01757537E+03   # ~nu_tauL
   1000021     2.20000070E+03   # ~g
   1000022     6.02986419E+01   # ~chi_10
   1000023     9.99653339E+02   # ~chi_20
   1000025    -1.00190600E+03   # ~chi_30
   1000035     3.07425111E+03   # ~chi_40
   1000024     1.00000082E+03   # ~chi_1+
   1000037     3.07441856E+03   # ~chi_2+
#
BLOCK NMIX  # Neutralino Mixing Matrix
  1  1     9.99007091E-01   # N_11
  1  2     1.84593486E-04   # N_12
  1  3    -4.45079480E-02   # N_13
  1  4     1.95984373E-03   # N_14
  2  1     3.00947625E-02   # N_21
  2  2     2.34918886E-02   # N_22
  2  3     7.06700991E-01   # N_23
  2  4     7.06481526E-01   # N_24
  3  1    -3.28477758E-02   # N_31
  3  2     1.49114068E-02   # N_32
  3  3    -7.06084940E-01   # N_33
  3  4     7.07207701E-01   # N_34
  4  1    -4.01742015E-04   # N_41
  4  2     9.99612799E-01   # N_42
  4  3    -6.06715448E-03   # N_43
  4  4    -2.71529224E-02   # N_44
#
BLOCK UMIX  # Chargino Mixing Matrix U
  1  1     8.59393260E-03   # U_11
  1  2     9.99963071E-01   # U_12
  2  1    -9.99963071E-01   # U_21
  2  2     8.59393260E-03   # U_22
#
BLOCK VMIX  # Chargino Mixing Matrix V
  1  1     3.84298525E-02   # V_11
  1  2    -9.99261300E-01   # V_12
  2  1    -9.99261300E-01   # V_21
  2  2    -3.84298525E-02   # V_22
#
BLOCK STOPMIX  # Stop Mixing Matrix
  1  1    -5.06100069E-01   # cos(theta_t)
  1  2     8.62474765E-01   # sin(theta_t)
  2  1    -8.62474765E-01   # -sin(theta_t)
  2  2    -5.06100069E-01   # cos(theta_t)
#
BLOCK SBOTMIX  # Sbottom Mixing Matrix
  1  1     9.97098395E-01   # cos(theta_b)
  1  2    -7.61235226E-02   # sin(theta_b)
  2  1     7.61235226E-02   # -sin(theta_b)
  2  2     9.97098395E-01   # cos(theta_b)
#
BLOCK STAUMIX  # Stau Mixing Matrix
  1  1    -1.13912447E-01   # cos(theta_tau)
  1  2     9.93490792E-01   # sin(theta_tau)
  2  1    -9.93490792E-01   # -sin(theta_tau)
  2  2    -1.13912447E-01   # cos(theta_tau)
#
BLOCK ALPHA  # Higgs mixing
          -1.05478202E-01   # Mixing angle in the neutral Higgs boson sector
#
BLOCK HMIX Q=  5.00074115E+03  # DRbar Higgs Parameters
         1    -9.76570751E+02   # mu(Q)MSSM           
         2     9.46947710E+00   # tan                 
         3     2.41852496E+02   # higgs               
         4     8.51706079E+06   # mA^2(Q)MSSM         
#
BLOCK GAUGE Q=  5.00074115E+03  # The gauge couplings
     1     3.70793597E-01   # gprime(Q) DRbar
     2     6.32541603E-01   # g(Q) DRbar
     3     9.97102310E-01   # g3(Q) DRbar
#
BLOCK AU Q=  5.00074115E+03  # The trilinear couplings
  1  1     5.00000001E+03   # A_u(Q) DRbar
  2  2     5.00000001E+03   # A_c(Q) DRbar
  3  3     5.00000002E+03   # A_t(Q) DRbar
#
BLOCK AD Q=  5.00074115E+03  # The trilinear couplings
  1  1     5.00000001E+03   # A_d(Q) DRbar
  2  2     5.00000001E+03   # A_s(Q) DRbar
  3  3     5.00000001E+03   # A_b(Q) DRbar
#
BLOCK AE Q=  5.00074115E+03  # The trilinear couplings
  1  1     0.00000000E+00   # A_e(Q) DRbar
  2  2     2.04877261E-07   # A_mu(Q) DRbar
  3  3     2.04634052E-07   # A_tau(Q) DRbar
#
BLOCK Yu Q=  5.00074115E+03  # The Yukawa couplings
  1  1     0.00000000E+00   # y_u(Q) DRbar
  2  2     0.00000000E+00   # y_c(Q) DRbar
  3  3     8.20443217E-01   # y_t(Q) DRbar
#
BLOCK Yd Q=  5.00074115E+03  # The Yukawa couplings
  1  1     0.00000000E+00   # y_d(Q) DRbar
  2  2     0.00000000E+00   # y_s(Q) DRbar
  3  3     1.30792145E-01   # y_b(Q) DRbar
#
BLOCK Ye Q=  5.00074115E+03  # The Yukawa couplings
  1  1     0.00000000E+00   # y_e(Q) DRbar
  2  2     0.00000000E+00   # y_mu(Q) DRbar
  3  3     9.68522440E-02   # y_tau(Q) DRbar
#
BLOCK MSOFT Q=  5.00074115E+03  # The soft SUSY breaking masses at the scale Q
         1     6.00000000E+01   # M_1(Q)              
         2     3.00000000E+03   # M_2(Q)              
         3     1.85478400E+03   # M_3(Q)              
        21     7.74303491E+06   # mH1^2(Q)            
        22    -3.88639493E+05   # mH2^2(Q)            
        31     5.00000000E+03   # meL(Q)              
        32     5.00000000E+03   # mmuL(Q)             
        33     5.00000000E+03   # mtauL(Q)            
        34     5.00000000E+03   # meR(Q)              
        35     5.00000000E+03   # mmuR(Q)             
        36     5.00000000E+03   # mtauR(Q)            
        41     5.00000000E+03   # mqL1(Q)             
        42     5.00000000E+03   # mqL2(Q)             
        43     4.99999999E+03   # mqL3(Q)             
        44     5.00000000E+03   # muR(Q)              
        45     5.00000000E+03   # mcR(Q)              
        46     4.99999999E+03   # mtR(Q)              
        47     5.00000000E+03   # mdR(Q)              
        48     5.00000000E+03   # msR(Q)              
        49     5.00000000E+03   # mbR(Q)              
#
#
#
#                             =================
#                             |The decay table|
#                             =================
#
# - The QCD corrections to the decays gluino -> squark  + quark
#                                     squark -> gaugino + quark_prime
#                                     squark -> squark_prime + Higgs
#                                     squark -> gluino  + quark
#   are included.
#
# - The multi-body decays for the inos, stops and sbottoms are included.
#
# - The loop induced decays for the gluino, neutralinos and stops
#   are included.
#
# - The SUSY decays of the top quark are included.
#
#
#         PDG            Width
DECAY         6     1.40210300E+00   # top decays
#          BR         NDA      ID1       ID2
     1.00000000E+00    2           5        24   # BR(t ->  b    W+)
#
#         PDG            Width
DECAY   1000021     1.40140551E-03   # gluino decays
#          BR         NDA      ID1       ID2
     2.71885356E-06    2     1000022        21   # BR(~g -> ~chi_10 g)
     8.00594543E-03    2     1000023        21   # BR(~g -> ~chi_20 g)
     7.88178868E-03    2     1000025        21   # BR(~g -> ~chi_30 g)
#           BR         NDA      ID1       ID2       ID3
     2.74073850E-02    3     1000022         1        -1   # BR(~g -> ~chi_10 d  db)
     2.09378413E-05    3     1000023         1        -1   # BR(~g -> ~chi_20 d  db)
     1.14642959E-05    3     1000025         1        -1   # BR(~g -> ~chi_30 d  db)
     9.34537480E-02    3     1000022         2        -2   # BR(~g -> ~chi_10 u  ub)
     6.62172537E-05    3     1000023         2        -2   # BR(~g -> ~chi_20 u  ub)
     1.36681414E-05    3     1000025         2        -2   # BR(~g -> ~chi_30 u  ub)
     2.74073850E-02    3     1000022         3        -3   # BR(~g -> ~chi_10 s  sb)
     2.09378413E-05    3     1000023         3        -3   # BR(~g -> ~chi_20 s  sb)
     1.14642959E-05    3     1000025         3        -3   # BR(~g -> ~chi_30 s  sb)
     9.34537480E-02    3     1000022         4        -4   # BR(~g -> ~chi_10 c  cb)
     6.62172537E-05    3     1000023         4        -4   # BR(~g -> ~chi_20 c  cb)
     1.36681414E-05    3     1000025         4        -4   # BR(~g -> ~chi_30 c  cb)
     2.78025651E-02    3     1000022         5        -5   # BR(~g -> ~chi_10 b  bb)
     4.32422360E-03    3     1000023         5        -5   # BR(~g -> ~chi_20 b  bb)
     4.26804823E-03    3     1000025         5        -5   # BR(~g -> ~chi_30 b  bb)
     9.28719008E-02    3     1000022         6        -6   # BR(~g -> ~chi_10 t  tb)
     1.53604284E-01    3     1000023         6        -6   # BR(~g -> ~chi_20 t  tb)
     1.34108511E-01    3     1000025         6        -6   # BR(~g -> ~chi_30 t  tb)
     5.95864371E-05    3     1000024         1        -2   # BR(~g -> ~chi_1+ d  ub)
     5.95864371E-05    3    -1000024         2        -1   # BR(~g -> ~chi_1- u  db)
     5.95864371E-05    3     1000024         3        -4   # BR(~g -> ~chi_1+ s  cb)
     5.95864371E-05    3    -1000024         4        -3   # BR(~g -> ~chi_1- c  sb)
     1.62472414E-01    3     1000024         5        -6   # BR(~g -> ~chi_1+ b  tb)
     1.62472414E-01    3    -1000024         6        -5   # BR(~g -> ~chi_1- t  bb)
#
#         PDG            Width
DECAY   1000006     3.23160877E+02   # stop1 decays
#          BR         NDA      ID1       ID2
     2.74322492E-02    2     1000022         6   # BR(~t_1 -> ~chi_10 t )
     9.42009207E-02    2     1000023         6   # BR(~t_1 -> ~chi_20 t )
     9.05186084E-02    2     1000025         6   # BR(~t_1 -> ~chi_30 t )
     6.38754808E-03    2     1000035         6   # BR(~t_1 -> ~chi_40 t )
     1.37524586E-01    2     1000024         5   # BR(~t_1 -> ~chi_1+ b )
     1.27256209E-02    2     1000037         5   # BR(~t_1 -> ~chi_2+ b )
     6.31210467E-01    2     1000021         6   # BR(~t_1 -> ~g      t )
#
#         PDG            Width
DECAY   2000006     3.31293752E+02   # stop2 decays
#          BR         NDA      ID1       ID2
     1.04472515E-02    2     1000022         6   # BR(~t_2 -> ~chi_10 t )
     9.41170966E-02    2     1000023         6   # BR(~t_2 -> ~chi_20 t )
     9.80648396E-02    2     1000025         6   # BR(~t_2 -> ~chi_30 t )
     1.68449840E-02    2     1000035         6   # BR(~t_2 -> ~chi_40 t )
     5.55191466E-02    2     1000024         5   # BR(~t_2 -> ~chi_1+ b )
     3.35141175E-02    2     1000037         5   # BR(~t_2 -> ~chi_2+ b )
     6.87740446E-01    2     1000021         6   # BR(~t_2 -> ~g      t )
     8.55375851E-04    2     1000006        25   # BR(~t_2 -> ~t_1    h )
     2.89674216E-03    2     1000006        23   # BR(~t_2 -> ~t_1    Z )
#
#         PDG            Width
DECAY   1000005     3.06361275E+02   # sbottom1 decays
#          BR         NDA      ID1       ID2
     2.52035597E-03    2     1000022         5   # BR(~b_1 -> ~chi_10 b )
     2.60745417E-03    2     1000023         5   # BR(~b_1 -> ~chi_20 b )
     2.53828334E-03    2     1000025         5   # BR(~b_1 -> ~chi_30 b )
     2.46571345E-02    2     1000035         5   # BR(~b_1 -> ~chi_40 b )
     2.01544762E-01    2    -1000024         6   # BR(~b_1 -> ~chi_1- t )
     4.95427951E-02    2    -1000037         6   # BR(~b_1 -> ~chi_2- t )
     7.14787604E-01    2     1000021         5   # BR(~b_1 -> ~g      b )
     1.80161070E-03    2     1000006       -24   # BR(~b_1 -> ~t_1    W-)
#
#         PDG            Width
DECAY   2000005     2.28350917E+02   # sbottom2 decays
#          BR         NDA      ID1       ID2
     1.28519635E-02    2     1000022         5   # BR(~b_2 -> ~chi_10 b )
     3.48524704E-03    2     1000023         5   # BR(~b_2 -> ~chi_20 b )
     3.57752134E-03    2     1000025         5   # BR(~b_2 -> ~chi_30 b )
     1.93179463E-04    2     1000035         5   # BR(~b_2 -> ~chi_40 b )
     8.45602837E-03    2    -1000024         6   # BR(~b_2 -> ~chi_1- t )
     3.88100884E-04    2    -1000037         6   # BR(~b_2 -> ~chi_2- t )
     9.70988311E-01    2     1000021         5   # BR(~b_2 -> ~g      b )
     5.96486549E-05    2     1000006       -24   # BR(~b_2 -> ~t_1    W-)
#
#         PDG            Width
DECAY   1000002     2.47632422E+02   # sup_L decays
#          BR         NDA      ID1       ID2
     3.01087656E-03    2     1000022         2   # BR(~u_L -> ~chi_10 u)
     6.29965119E-05    2     1000023         2   # BR(~u_L -> ~chi_20 u)
     5.26505578E-06    2     1000025         2   # BR(~u_L -> ~chi_30 u)
     3.17823952E-02    2     1000035         2   # BR(~u_L -> ~chi_40 u)
     2.15666062E-04    2     1000024         1   # BR(~u_L -> ~chi_1+ d)
     6.35221069E-02    2     1000037         1   # BR(~u_L -> ~chi_2+ d)
     9.01400694E-01    2     1000021         2   # BR(~u_L -> ~g      u)
#
#         PDG            Width
DECAY   2000002     2.33610820E+02   # sup_R decays
#          BR         NDA      ID1       ID2
     5.07896115E-02    2     1000022         2   # BR(~u_R -> ~chi_10 u)
     4.26511190E-05    2     1000023         2   # BR(~u_R -> ~chi_20 u)
     5.07928377E-05    2     1000025         2   # BR(~u_R -> ~chi_30 u)
     3.28668408E-09    2     1000035         2   # BR(~u_R -> ~chi_40 u)
     9.49116941E-01    2     1000021         2   # BR(~u_R -> ~g      u)
#
#         PDG            Width
DECAY   1000001     2.47647779E+02   # sdown_L decays
#          BR         NDA      ID1       ID2
     2.99960684E-03    2     1000022         1   # BR(~d_L -> ~chi_10 d)
     2.26489035E-05    2     1000023         1   # BR(~d_L -> ~chi_20 d)
     3.32105914E-05    2     1000025         1   # BR(~d_L -> ~chi_30 d)
     3.18001969E-02    2     1000035         1   # BR(~d_L -> ~chi_40 d)
     1.07857094E-05    2    -1000024         2   # BR(~d_L -> ~chi_1- u)
     6.36270023E-02    2    -1000037         2   # BR(~d_L -> ~chi_2- u)
     9.01506549E-01    2     1000021         1   # BR(~d_L -> ~g      d)
#
#         PDG            Width
DECAY   2000001     2.24720061E+02   # sdown_R decays
#          BR         NDA      ID1       ID2
     1.32005151E-02    2     1000022         1   # BR(~d_R -> ~chi_10 d)
     1.10853721E-05    2     1000023         1   # BR(~d_R -> ~chi_20 d)
     1.32014714E-05    2     1000025         1   # BR(~d_R -> ~chi_30 d)
     8.54339858E-10    2     1000035         1   # BR(~d_R -> ~chi_40 d)
     9.86775197E-01    2     1000021         1   # BR(~d_R -> ~g      d)
#
#         PDG            Width
DECAY   1000004     2.47632422E+02   # scharm_L decays
#          BR         NDA      ID1       ID2
     3.01087656E-03    2     1000022         4   # BR(~c_L -> ~chi_10 c)
     6.29965119E-05    2     1000023         4   # BR(~c_L -> ~chi_20 c)
     5.26505578E-06    2     1000025         4   # BR(~c_L -> ~chi_30 c)
     3.17823952E-02    2     1000035         4   # BR(~c_L -> ~chi_40 c)
     2.15666062E-04    2     1000024         3   # BR(~c_L -> ~chi_1+ s)
     6.35221069E-02    2     1000037         3   # BR(~c_L -> ~chi_2+ s)
     9.01400694E-01    2     1000021         4   # BR(~c_L -> ~g      c)
#
#         PDG            Width
DECAY   2000004     2.33610820E+02   # scharm_R decays
#          BR         NDA      ID1       ID2
     5.07896115E-02    2     1000022         4   # BR(~c_R -> ~chi_10 c)
     4.26511190E-05    2     1000023         4   # BR(~c_R -> ~chi_20 c)
     5.07928377E-05    2     1000025         4   # BR(~c_R -> ~chi_30 c)
     3.28668408E-09    2     1000035         4   # BR(~c_R -> ~chi_40 c)
     9.49116941E-01    2     1000021         4   # BR(~c_R -> ~g      c)
#
#         PDG            Width
DECAY   1000003     2.47647779E+02   # sstrange_L decays
#          BR         NDA      ID1       ID2
     2.99960684E-03    2     1000022         3   # BR(~s_L -> ~chi_10 s)
     2.26489035E-05    2     1000023         3   # BR(~s_L -> ~chi_20 s)
     3.32105914E-05    2     1000025         3   # BR(~s_L -> ~chi_30 s)
     3.18001969E-02    2     1000035         3   # BR(~s_L -> ~chi_40 s)
     1.07857094E-05    2    -1000024         4   # BR(~s_L -> ~chi_1- c)
     6.36270023E-02    2    -1000037         4   # BR(~s_L -> ~chi_2- c)
     9.01506549E-01    2     1000021         3   # BR(~s_L -> ~g      s)
#
#         PDG            Width
DECAY   2000003     2.24720061E+02   # sstrange_R decays
#          BR         NDA      ID1       ID2
     1.32005151E-02    2     1000022         3   # BR(~s_R -> ~chi_10 s)
     1.10853721E-05    2     1000023         3   # BR(~s_R -> ~chi_20 s)
     1.32014714E-05    2     1000025         3   # BR(~s_R -> ~chi_30 s)
     8.54339858E-10    2     1000035         3   # BR(~s_R -> ~chi_40 s)
     9.86775197E-01    2     1000021         3   # BR(~s_R -> ~g      s)
#
#         PDG            Width
DECAY   1000011     3.02702258E+01   # selectron_L decays
#          BR         NDA      ID1       ID2
     2.26390245E-01    2     1000022        11   # BR(~e_L -> ~chi_10 e-)
     1.02971128E-03    2     1000023        11   # BR(~e_L -> ~chi_20 e-)
     1.14792513E-05    2     1000025        11   # BR(~e_L -> ~chi_30 e-)
     2.57314205E-01    2     1000035        11   # BR(~e_L -> ~chi_40 e-)
     8.98910960E-05    2    -1000024        12   # BR(~e_L -> ~chi_1- nu_e)
     5.15164469E-01    2    -1000037        12   # BR(~e_L -> ~chi_2- nu_e)
#
#         PDG            Width
DECAY   2000011     2.73725637E+01   # selectron_R decays
#          BR         NDA      ID1       ID2
     9.98169957E-01    2     1000022        11   # BR(~e_R -> ~chi_10 e-)
     8.35272773E-04    2     1000023        11   # BR(~e_R -> ~chi_20 e-)
     9.94708048E-04    2     1000025        11   # BR(~e_R -> ~chi_30 e-)
     6.26411391E-08    2     1000035        11   # BR(~e_R -> ~chi_40 e-)
#
#         PDG            Width
DECAY   1000013     3.02702258E+01   # smuon_L decays
#          BR         NDA      ID1       ID2
     2.26390245E-01    2     1000022        13   # BR(~mu_L -> ~chi_10 mu-)
     1.02971128E-03    2     1000023        13   # BR(~mu_L -> ~chi_20 mu-)
     1.14792513E-05    2     1000025        13   # BR(~mu_L -> ~chi_30 mu-)
     2.57314205E-01    2     1000035        13   # BR(~mu_L -> ~chi_40 mu-)
     8.98910960E-05    2    -1000024        14   # BR(~mu_L -> ~chi_1- nu_mu)
     5.15164469E-01    2    -1000037        14   # BR(~mu_L -> ~chi_2- nu_mu)
#
#         PDG            Width
DECAY   2000013     2.73725637E+01   # smuon_R decays
#          BR         NDA      ID1       ID2
     9.98169957E-01    2     1000022        13   # BR(~mu_R -> ~chi_10 mu-)
     8.35272773E-04    2     1000023        13   # BR(~mu_R -> ~chi_20 mu-)
     9.94708048E-04    2     1000025        13   # BR(~mu_R -> ~chi_30 mu-)
     6.26411391E-08    2     1000035        13   # BR(~mu_R -> ~chi_40 mu-)
#
#         PDG            Width
DECAY   1000015     2.91218227E+01   # stau_1 decays
#          BR         NDA      ID1       ID2
     9.29776204E-01    2     1000022        15   # BR(~tau_1 -> ~chi_10  tau-)
     1.56798580E-02    2     1000023        15   # BR(~tau_1 -> ~chi_20  tau-)
     1.49109516E-02    2     1000025        15   # BR(~tau_1 -> ~chi_30  tau-)
     3.35827499E-03    2     1000035        15   # BR(~tau_1 -> ~chi_40  tau-)
     2.95514064E-02    2    -1000024        16   # BR(~tau_1 -> ~chi_1-  nu_tau)
     6.72330485E-03    2    -1000037        16   # BR(~tau_1 -> ~chi_2-  nu_tau)
#
#         PDG            Width
DECAY   2000015     3.10918235E+01   # stau_2 decays
#          BR         NDA      ID1       ID2
     2.28207029E-01    2     1000022        15   # BR(~tau_2 -> ~chi_10  tau-)
     1.47538012E-02    2     1000023        15   # BR(~tau_2 -> ~chi_20  tau-)
     1.45679413E-02    2     1000025        15   # BR(~tau_2 -> ~chi_30  tau-)
     2.47287223E-01    2     1000035        15   # BR(~tau_2 -> ~chi_40  tau-)
     9.39208399E-05    2    -1000024        16   # BR(~tau_2 -> ~chi_1-  nu_tau)
     4.95090085E-01    2    -1000037        16   # BR(~tau_2 -> ~chi_2-  nu_tau)
#
#         PDG            Width
DECAY   1000012     3.02730187E+01   # snu_eL decays
#          BR         NDA      ID1       ID2
     2.26041367E-01    2     1000022        12   # BR(~nu_eL -> ~chi_10 nu_e)
     2.08242917E-05    2     1000023        12   # BR(~nu_eL -> ~chi_20 nu_e)
     7.09961754E-04    2     1000025        12   # BR(~nu_eL -> ~chi_30 nu_e)
     2.57367472E-01    2     1000035        12   # BR(~nu_eL -> ~chi_40 nu_e)
     1.79694379E-03    2     1000024        11   # BR(~nu_eL -> ~chi_1+ e-)
     5.14063432E-01    2     1000037        11   # BR(~nu_eL -> ~chi_2+ e-)
#
#         PDG            Width
DECAY   1000014     3.02730187E+01   # snu_muL decays
#          BR         NDA      ID1       ID2
     2.26041367E-01    2     1000022        14   # BR(~nu_muL -> ~chi_10 nu_mu)
     2.08242917E-05    2     1000023        14   # BR(~nu_muL -> ~chi_20 nu_mu)
     7.09961754E-04    2     1000025        14   # BR(~nu_muL -> ~chi_30 nu_mu)
     2.57367472E-01    2     1000035        14   # BR(~nu_muL -> ~chi_40 nu_mu)
     1.79694379E-03    2     1000024        13   # BR(~nu_muL -> ~chi_1+ mu-)
     5.14063432E-01    2     1000037        13   # BR(~nu_muL -> ~chi_2+ mu-)
#
#         PDG            Width
DECAY   1000016     3.11270558E+01   # snu_tauL decays
#          BR         NDA      ID1       ID2
     2.19815503E-01    2     1000022        16   # BR(~nu_tauL -> ~chi_10 nu_tau)
     2.02503646E-05    2     1000023        16   # BR(~nu_tauL -> ~chi_20 nu_tau)
     6.90394821E-04    2     1000025        16   # BR(~nu_tauL -> ~chi_30 nu_tau)
     2.50213346E-01    2     1000035        16   # BR(~nu_tauL -> ~chi_40 nu_tau)
     2.94870506E-02    2     1000024        15   # BR(~nu_tauL -> ~chi_1+ tau-)
     4.99773455E-01    2     1000037        15   # BR(~nu_tauL -> ~chi_2+ tau-)
#
#         PDG            Width
DECAY   1000024     6.08936773E-01   # chargino1+ decays
#          BR         NDA      ID1       ID2
     1.00000000E+00    2     1000022        24   # BR(~chi_1+ -> ~chi_10  W+)
#
#         PDG            Width
DECAY   1000037     2.04120363E+01   # chargino2+ decays
#          BR         NDA      ID1       ID2
     2.53194691E-01    2     1000024        23   # BR(~chi_2+ -> ~chi_1+  Z )
     1.97856969E-04    2     1000022        24   # BR(~chi_2+ -> ~chi_10  W+)
     2.44150300E-01    2     1000023        24   # BR(~chi_2+ -> ~chi_20  W+)
     2.44101325E-01    2     1000025        24   # BR(~chi_2+ -> ~chi_30  W+)
     2.58354656E-01    2     1000024        25   # BR(~chi_2+ -> ~chi_1+  h )
     1.17024118E-06    2     1000022        37   # BR(~chi_2+ -> ~chi_10  H+)
#
#         PDG            Width
DECAY   1000022     0.00000000E+00   # neutralino1 decays
#
#         PDG            Width
DECAY   1000023     6.36008565E-01   # neutralino2 decays
#          BR         NDA      ID1       ID2
     5.40218112E-01    2     1000022        23   # BR(~chi_20 -> ~chi_10   Z )
     4.59781888E-01    2     1000022        25   # BR(~chi_20 -> ~chi_10   h )
#
#         PDG            Width
DECAY   1000025     6.39051984E-01   # neutralino3 decays
#          BR         NDA      ID1       ID2
     4.50290647E-01    2     1000022        23   # BR(~chi_30 -> ~chi_10   Z )
     5.49709353E-01    2     1000022        25   # BR(~chi_30 -> ~chi_10   h )
#
#         PDG            Width
DECAY   1000035     2.04270552E+01   # neutralino4 decays
#          BR         NDA      ID1       ID2
     4.77411377E-05    2     1000022        23   # BR(~chi_40 -> ~chi_10   Z )
     7.27272203E-02    2     1000023        23   # BR(~chi_40 -> ~chi_20   Z )
     1.79753364E-01    2     1000025        23   # BR(~chi_40 -> ~chi_30   Z )
     2.44780841E-01    2     1000024       -24   # BR(~chi_40 -> ~chi_1+   W-)
     2.44780841E-01    2    -1000024        24   # BR(~chi_40 -> ~chi_1-   W+)
     1.51075596E-04    2     1000022        25   # BR(~chi_40 -> ~chi_10   h )
     1.09464507E-06    2     1000022        35   # BR(~chi_40 -> ~chi_10   H )
     1.34375502E-07    2     1000022        36   # BR(~chi_40 -> ~chi_10   A )
     1.84831600E-01    2     1000023        25   # BR(~chi_40 -> ~chi_20   h )
     7.29260891E-02    2     1000025        25   # BR(~chi_40 -> ~chi_30   h )
#
#         PDG            Width
DECAY        25     4.05896471E-03   # h decays
#          BR         NDA      ID1       ID2
     6.07648945E-01    2           5        -5   # BR(h -> b       bb     )
     6.39130373E-02    2         -15        15   # BR(h -> tau+    tau-   )
     2.26275290E-04    2         -13        13   # BR(h -> mu+     mu-    )
     4.79673054E-04    2           3        -3   # BR(h -> s       sb     )
     2.07850342E-02    2           4        -4   # BR(h -> c       cb     )
     6.72610448E-02    2          21        21   # BR(h -> g       g      )
     2.31305631E-03    2          22        22   # BR(h -> gam     gam    )
     1.49340999E-03    2          22        23   # BR(h -> Z       gam    )
     2.10703756E-01    2          24       -24   # BR(h -> W+      W-     )
     2.51185097E-02    2          23        23   # BR(h -> Z       Z      )
     5.72575127E-05    2     1000022   1000022   # BR(h -> ~chi_10 ~chi_10)
#
#         PDG            Width
DECAY        35     8.10377074E+00   # H decays
#          BR         NDA      ID1       ID2
     3.98544648E-01    2           5        -5   # BR(H -> b       bb     )
     6.87418766E-02    2         -15        15   # BR(H -> tau+    tau-   )
     2.43076736E-04    2         -13        13   # BR(H -> mu+     mu-    )
     2.97974821E-04    2           3        -3   # BR(H -> s       sb     )
     1.66704152E-06    2           4        -4   # BR(H -> c       cb     )
     1.66550650E-01    2           6        -6   # BR(H -> t       tb     )
     5.53442606E-05    2          21        21   # BR(H -> g       g      )
     2.68915253E-07    2          22        22   # BR(H -> gam     gam    )
     9.83429097E-08    2          23        22   # BR(H -> Z       gam    )
     7.68188542E-05    2          24       -24   # BR(H -> W+      W-     )
     3.83608110E-05    2          23        23   # BR(H -> Z       Z      )
     2.84634480E-04    2          25        25   # BR(H -> h       h      )
    -2.86209288E-23    2          36        36   # BR(H -> A       A      )
     9.02940365E-19    2          23        36   # BR(H -> Z       A      )
     1.97444949E-03    2     1000024  -1000024   # BR(H -> ~chi_1+ ~chi_1-)
     1.78170897E-03    2     1000022   1000022   # BR(H -> ~chi_10 ~chi_10)
     3.94735255E-05    2     1000023   1000023   # BR(H -> ~chi_20 ~chi_20)
     5.44000958E-04    2     1000025   1000025   # BR(H -> ~chi_30 ~chi_30)
     2.16410485E-01    2     1000022   1000023   # BR(H -> ~chi_10 ~chi_20)
     1.43901972E-01    2     1000022   1000025   # BR(H -> ~chi_10 ~chi_30)
     5.12490191E-04    2     1000023   1000025   # BR(H -> ~chi_20 ~chi_30)
#
#         PDG            Width
DECAY        36     8.12007562E+00   # A decays
#          BR         NDA      ID1       ID2
     3.97878909E-01    2           5        -5   # BR(A -> b       bb     )
     6.86059012E-02    2         -15        15   # BR(A -> tau+    tau-   )
     2.42595577E-04    2         -13        13   # BR(A -> mu+     mu-    )
     2.97602351E-04    2           3        -3   # BR(A -> s       sb     )
     1.67050158E-06    2           4        -4   # BR(A -> c       cb     )
     1.66804254E-01    2           6        -6   # BR(A -> t       tb     )
     1.65063047E-04    2          21        21   # BR(A -> g       g      )
     5.74635381E-07    2          22        22   # BR(A -> gam     gam    )
     1.99914490E-07    2          23        22   # BR(A -> Z       gam    )
     7.63746269E-05    2          23        25   # BR(A -> Z       h      )
     3.22682952E-03    2     1000024  -1000024   # BR(A -> ~chi_1+ ~chi_1-)
     1.81454154E-03    2     1000022   1000022   # BR(A -> ~chi_10 ~chi_10)
     4.63616130E-05    2     1000023   1000023   # BR(A -> ~chi_20 ~chi_20)
     1.49969836E-03    2     1000025   1000025   # BR(A -> ~chi_30 ~chi_30)
     1.45671909E-01    2     1000022   1000023   # BR(A -> ~chi_10 ~chi_20)
     2.13521273E-01    2     1000022   1000025   # BR(A -> ~chi_10 ~chi_30)
     1.46242090E-04    2     1000023   1000025   # BR(A -> ~chi_20 ~chi_30)
#
#         PDG            Width
DECAY        37     8.08493361E+00   # H+ decays
#          BR         NDA      ID1       ID2
     6.40931085E-04    2           4        -5   # BR(H+ -> c       bb     )
     6.89301303E-02    2         -15        16   # BR(H+ -> tau+    nu_tau )
     2.43742075E-04    2         -13        14   # BR(H+ -> mu+     nu_mu  )
     4.10193773E-06    2           2        -5   # BR(H+ -> u       bb     )
     1.43021176E-05    2           2        -3   # BR(H+ -> u       sb     )
     2.95768921E-04    2           4        -3   # BR(H+ -> c       sb     )
     5.64622518E-01    2           6        -5   # BR(H+ -> t       bb     )
     7.68429205E-05    2          24        25   # BR(H+ -> W+      h      )
     3.03675122E-13    2          24        36   # BR(H+ -> W+      A      )
     3.64264476E-01    2     1000024   1000022   # BR(H+ -> ~chi_1+ ~chi_10)
     8.74424848E-04    2     1000024   1000023   # BR(H+ -> ~chi_1+ ~chi_20)
     3.27613125E-05    2     1000024   1000025   # BR(H+ -> ~chi_1+ ~chi_30)
