#
#                              ======================
#                              | THE SUSYHIT OUTPUT |
#                              ======================
#
#
#              ------------------------------------------------------
#              |     This is the output of the SUSY-HIT package     |
#              |  created by A.Djouadi, M.Muehlleitner and M.Spira. |
#              |  In case of problems with SUSY-HIT email to        |
#              |           margarete.muehlleitner@cern.ch           |
#              |           michael.spira@psi.ch                     |
#              |           abdelhak.djouadi@cern.ch                 |
#              ------------------------------------------------------
#
#              ------------------------------------------------------
#              |  SUSY Les Houches Accord - MSSM Spectrum + Decays  |
#              |              based on the decay programs           |
#              |                                                    |
#              |                     SDECAY 1.3b                    |
#              |                                                    |
#              |  Authors: M.Muhlleitner, A.Djouadi and Y.Mambrini  |
#              |  Ref.:    Comput.Phys.Commun.168(2005)46           |
#              |           [hep-ph/0311167]                         |
#              |                                                    |
#              |                     HDECAY 3.4                     |
#              |                                                    |
#              |  By: A.Djouadi,J.Kalinowski,M.Muhlleitner,M.Spira  |
#              |  Ref.:    Comput.Phys.Commun.108(1998)56           |
#              |           [hep-ph/9704448]                         |
#              |                                                    |
#              |                                                    |
#              |  If not stated otherwise all DRbar couplings and   |
#              |  soft SUSY breaking masses are given at the scale  |
#              |  Q=  0.50007002E+04
#              |                                                    |
#              ------------------------------------------------------
#
#
BLOCK DCINFO  # Decay Program information
     1   SDECAY/HDECAY # decay calculator
     2   1.3b  /3.4    # version number
#
BLOCK SPINFO  # Spectrum calculator information
     1    SOFTSUSY    # spectrum calculator                
     2    3.4.0       # version number                     
#
BLOCK MODSEL  # Model selection
     1     0   #  nonUniversal                                     
#
BLOCK SMINPUTS  # Standard Model inputs
         1     1.25778332E+02   # alpha_em^-1(M_Z)^MSbar
         2     1.16570000E-05   # G_F [GeV^-2]
         3     1.17200002E-01   # alpha_S(M_Z)^MSbar
         4     9.11876000E+01   # M_Z pole mass
         5     4.25000000E+00   # mb(mb)^MSbar
         6     1.72500000E+02   # mt pole mass
         7     1.77682000E+00   # mtau pole mass
#
BLOCK MINPAR  # Input parameters - minimal models
         3     1.00000000E+01   # tanb                
#
BLOCK EXTPAR  # Input parameters - non-minimal models
         0    -1.00000000E+00   # Set                 
         1     6.00000000E+01   # M_1(MX)             
         2     3.00000000E+03   # M_2(MX)             
         3     2.04382600E+03   # M_3(MX)             
        11     5.00000000E+03   # At(MX)              
        12     5.00000000E+03   # Ab(MX)              
        13     0.00000000E+00   # Atau(MX)            
        23    -1.93694200E+03   # mu(MX)              
        26     3.00000000E+03   # mA(pole)            
        31     5.00000000E+03   # meL(MX)             
        32     5.00000000E+03   # mmuL(MX)            
        33     5.00000000E+03   # mtauL(MX)           
        34     5.00000000E+03   # meR(MX)             
        35     5.00000000E+03   # mmuR(MX)            
        36     5.00000000E+03   # mtauR(MX)           
        41     5.00000000E+03   # mqL1(MX)            
        42     5.00000000E+03   # mqL2(MX)            
        43     5.00000000E+03   # mqL3(MX)            
        44     5.00000000E+03   # muR(MX)             
        45     5.00000000E+03   # mcR(MX)             
        46     5.00000000E+03   # mtR(MX)             
        47     5.00000000E+03   # mdR(MX)             
        48     5.00000000E+03   # msR(MX)             
        49     5.00000000E+03   # mbR(MX)             
#
BLOCK MASS  # Mass Spectrum
# PDG code           mass       particle
        24     8.00977115E+01   # W+
        25     1.24822834E+02   # h
        35     3.00007618E+03   # H
        36     2.99999995E+03   # A
        37     3.00087259E+03   # H+
         5     4.87878001E+00   # b-quark pole mass calculated from mb(mb)_Msbar
   1000001     5.07803617E+03   # ~d_L
   2000001     5.06029964E+03   # ~d_R
   1000002     5.07756434E+03   # ~u_L
   2000002     5.06003177E+03   # ~u_R
   1000003     5.07803617E+03   # ~s_L
   2000003     5.06029964E+03   # ~s_R
   1000004     5.07756434E+03   # ~c_L
   2000004     5.06003177E+03   # ~c_R
   1000005     5.02475061E+03   # ~b_1
   2000005     5.05953290E+03   # ~b_2
   1000006     4.91761462E+03   # ~t_1
   2000006     5.07139012E+03   # ~t_2
   1000011     5.01903165E+03   # ~e_L
   2000011     5.00590191E+03   # ~e_R
   1000012     5.01808396E+03   # ~nu_eL
   1000013     5.01903165E+03   # ~mu_L
   2000013     5.00590191E+03   # ~mu_R
   1000014     5.01808396E+03   # ~nu_muL
   1000015     5.00405777E+03   # ~tau_1
   2000015     5.01933087E+03   # ~tau_2
   1000016     5.01755577E+03   # ~nu_tauL
   1000021     2.40000069E+03   # ~g
   1000022     6.02993242E+01   # ~chi_10
   1000023     1.99938231E+03   # ~chi_20
   1000025    -2.00239654E+03   # ~chi_30
   1000035     3.07449592E+03   # ~chi_40
   1000024     2.00000000E+03   # ~chi_1+
   1000037     3.07466381E+03   # ~chi_2+
#
BLOCK NMIX  # Neutralino Mixing Matrix
  1  1     9.99749443E-01   # N_11
  1  2     1.11639880E-04   # N_12
  1  3    -2.23212102E-02   # N_13
  1  4     1.67378472E-03   # N_14
  2  1     1.45912116E-02   # N_21
  2  2     4.52819233E-02   # N_22
  2  3     7.06689847E-01   # N_23
  2  4     7.05922165E-01   # N_24
  3  1    -1.69653078E-02   # N_31
  3  2     1.19412751E-02   # N_32
  3  3    -7.06777918E-01   # N_33
  3  4     7.07131217E-01   # N_34
  4  1    -5.70368393E-04   # N_41
  4  2     9.98902869E-01   # N_42
  4  3    -2.35838286E-02   # N_43
  4  4    -4.04541321E-02   # N_44
#
BLOCK UMIX  # Chargino Mixing Matrix U
  1  1     3.32827515E-02   # U_11
  1  2     9.99445976E-01   # U_12
  2  1    -9.99445976E-01   # U_21
  2  2     3.32827515E-02   # U_22
#
BLOCK VMIX  # Chargino Mixing Matrix V
  1  1     5.71420734E-02   # V_11
  1  2    -9.98366057E-01   # V_12
  2  1    -9.98366057E-01   # V_21
  2  2    -5.71420734E-02   # V_22
#
BLOCK STOPMIX  # Stop Mixing Matrix
  1  1    -5.15081879E-01   # cos(theta_t)
  1  2     8.57140979E-01   # sin(theta_t)
  2  1    -8.57140979E-01   # -sin(theta_t)
  2  2    -5.15081879E-01   # cos(theta_t)
#
BLOCK SBOTMIX  # Sbottom Mixing Matrix
  1  1     9.90700124E-01   # cos(theta_b)
  1  2    -1.36063457E-01   # sin(theta_b)
  2  1     1.36063457E-01   # -sin(theta_b)
  2  2     9.90700124E-01   # cos(theta_b)
#
BLOCK STAUMIX  # Stau Mixing Matrix
  1  1    -2.18674536E-01   # cos(theta_tau)
  1  2     9.75797852E-01   # sin(theta_tau)
  2  1    -9.75797852E-01   # -sin(theta_tau)
  2  2    -2.18674536E-01   # cos(theta_tau)
#
BLOCK ALPHA  # Higgs mixing
          -1.05461753E-01   # Mixing angle in the neutral Higgs boson sector
#
BLOCK HMIX Q=  5.00070024E+03  # DRbar Higgs Parameters
         1    -1.97262615E+03   # mu(Q)MSSM           
         2     9.47026650E+00   # tan                 
         3     2.42056485E+02   # higgs               
         4     8.33052320E+06   # mA^2(Q)MSSM         
#
BLOCK GAUGE Q=  5.00070024E+03  # The gauge couplings
     1     3.70626658E-01   # gprime(Q) DRbar
     2     6.31740379E-01   # g(Q) DRbar
     3     9.95806872E-01   # g3(Q) DRbar
#
BLOCK AU Q=  5.00070024E+03  # The trilinear couplings
  1  1     5.00000002E+03   # A_u(Q) DRbar
  2  2     5.00000002E+03   # A_c(Q) DRbar
  3  3     5.00000002E+03   # A_t(Q) DRbar
#
BLOCK AD Q=  5.00070024E+03  # The trilinear couplings
  1  1     5.00000001E+03   # A_d(Q) DRbar
  2  2     5.00000001E+03   # A_s(Q) DRbar
  3  3     5.00000001E+03   # A_b(Q) DRbar
#
BLOCK AE Q=  5.00070024E+03  # The trilinear couplings
  1  1     0.00000000E+00   # A_e(Q) DRbar
  2  2     2.40975925E-07   # A_mu(Q) DRbar
  3  3     2.40858746E-07   # A_tau(Q) DRbar
#
BLOCK Yu Q=  5.00070024E+03  # The Yukawa couplings
  1  1     0.00000000E+00   # y_u(Q) DRbar
  2  2     0.00000000E+00   # y_c(Q) DRbar
  3  3     8.20310250E-01   # y_t(Q) DRbar
#
BLOCK Yd Q=  5.00070024E+03  # The Yukawa couplings
  1  1     0.00000000E+00   # y_d(Q) DRbar
  2  2     0.00000000E+00   # y_s(Q) DRbar
  3  3     1.32398251E-01   # y_b(Q) DRbar
#
BLOCK Ye Q=  5.00070024E+03  # The Yukawa couplings
  1  1     0.00000000E+00   # y_e(Q) DRbar
  2  2     0.00000000E+00   # y_mu(Q) DRbar
  3  3     9.64517666E-02   # y_tau(Q) DRbar
#
BLOCK MSOFT Q=  5.00070024E+03  # The soft SUSY breaking masses at the scale Q
         1     6.00000000E+01   # M_1(Q)              
         2     3.00000000E+03   # M_2(Q)              
         3     2.04382600E+03   # M_3(Q)              
        21     4.75188122E+06   # mH1^2(Q)            
        22    -3.35899339E+06   # mH2^2(Q)            
        31     5.00000000E+03   # meL(Q)              
        32     5.00000000E+03   # mmuL(Q)             
        33     5.00000000E+03   # mtauL(Q)            
        34     5.00000000E+03   # meR(Q)              
        35     5.00000000E+03   # mmuR(Q)             
        36     5.00000000E+03   # mtauR(Q)            
        41     5.00000000E+03   # mqL1(Q)             
        42     5.00000000E+03   # mqL2(Q)             
        43     4.99999999E+03   # mqL3(Q)             
        44     5.00000000E+03   # muR(Q)              
        45     5.00000000E+03   # mcR(Q)              
        46     4.99999999E+03   # mtR(Q)              
        47     5.00000000E+03   # mdR(Q)              
        48     5.00000000E+03   # msR(Q)              
        49     5.00000000E+03   # mbR(Q)              
#
#
#
#                             =================
#                             |The decay table|
#                             =================
#
# - The QCD corrections to the decays gluino -> squark  + quark
#                                     squark -> gaugino + quark_prime
#                                     squark -> squark_prime + Higgs
#                                     squark -> gluino  + quark
#   are included.
#
# - The multi-body decays for the inos, stops and sbottoms are included.
#
# - The loop induced decays for the gluino, neutralinos and stops
#   are included.
#
# - The SUSY decays of the top quark are included.
#
#
#         PDG            Width
DECAY         6     1.39844926E+00   # top decays
#          BR         NDA      ID1       ID2
     1.00000000E+00    2           5        24   # BR(t ->  b    W+)
#
#         PDG            Width
DECAY   1000021     8.12025671E-04   # gluino decays
#          BR         NDA      ID1       ID2
     6.69008859E-06    2     1000022        21   # BR(~g -> ~chi_10 g)
     1.14835218E-03    2     1000023        21   # BR(~g -> ~chi_20 g)
     1.14859910E-03    2     1000025        21   # BR(~g -> ~chi_30 g)
#           BR         NDA      ID1       ID2       ID3
     7.49654913E-02    3     1000022         1        -1   # BR(~g -> ~chi_10 d  db)
     1.62331883E-06    3     1000023         1        -1   # BR(~g -> ~chi_20 d  db)
     8.01464921E-08    3     1000025         1        -1   # BR(~g -> ~chi_30 d  db)
     2.55573637E-01    3     1000022         2        -2   # BR(~g -> ~chi_10 u  ub)
     2.16994564E-06    3     1000023         2        -2   # BR(~g -> ~chi_20 u  ub)
     7.32188255E-08    3     1000025         2        -2   # BR(~g -> ~chi_30 u  ub)
     7.49654913E-02    3     1000022         3        -3   # BR(~g -> ~chi_10 s  sb)
     1.62331883E-06    3     1000023         3        -3   # BR(~g -> ~chi_20 s  sb)
     8.01464921E-08    3     1000025         3        -3   # BR(~g -> ~chi_30 s  sb)
     2.55573637E-01    3     1000022         4        -4   # BR(~g -> ~chi_10 c  cb)
     2.16994564E-06    3     1000023         4        -4   # BR(~g -> ~chi_20 c  cb)
     7.32188255E-08    3     1000025         4        -4   # BR(~g -> ~chi_30 c  cb)
     7.58395185E-02    3     1000022         5        -5   # BR(~g -> ~chi_10 b  bb)
     8.30935694E-05    3     1000023         5        -5   # BR(~g -> ~chi_20 b  bb)
     7.77234028E-05    3     1000025         5        -5   # BR(~g -> ~chi_30 b  bb)
     2.57659021E-01    3     1000022         6        -6   # BR(~g -> ~chi_10 t  tb)
     2.61715547E-04    3     1000023         6        -6   # BR(~g -> ~chi_20 t  tb)
     7.77047884E-05    3     1000025         6        -6   # BR(~g -> ~chi_30 t  tb)
     3.67988411E-06    3     1000024         1        -2   # BR(~g -> ~chi_1+ d  ub)
     3.67988411E-06    3    -1000024         2        -1   # BR(~g -> ~chi_1- u  db)
     3.67988411E-06    3     1000024         3        -4   # BR(~g -> ~chi_1+ s  cb)
     3.67988411E-06    3    -1000024         4        -3   # BR(~g -> ~chi_1- c  sb)
     1.29835633E-03    3     1000024         5        -6   # BR(~g -> ~chi_1+ b  tb)
     1.29835633E-03    3    -1000024         6        -5   # BR(~g -> ~chi_1- t  bb)
#
#         PDG            Width
DECAY   1000006     2.78046930E+02   # stop1 decays
#          BR         NDA      ID1       ID2
     3.15480972E-02    2     1000022         6   # BR(~t_1 -> ~chi_10 t )
     8.22527615E-02    2     1000023         6   # BR(~t_1 -> ~chi_20 t )
     7.89308498E-02    2     1000025         6   # BR(~t_1 -> ~chi_30 t )
     8.30001297E-03    2     1000035         6   # BR(~t_1 -> ~chi_40 t )
     1.17418576E-01    2     1000024         5   # BR(~t_1 -> ~chi_1+ b )
     1.64433501E-02    2     1000037         5   # BR(~t_1 -> ~chi_2+ b )
     6.65106353E-01    2     1000021         6   # BR(~t_1 -> ~g      t )
#
#         PDG            Width
DECAY   2000006     2.95402069E+02   # stop2 decays
#          BR         NDA      ID1       ID2
     1.20593117E-02    2     1000022         6   # BR(~t_2 -> ~chi_10 t )
     8.17697566E-02    2     1000023         6   # BR(~t_2 -> ~chi_20 t )
     8.52478442E-02    2     1000025         6   # BR(~t_2 -> ~chi_30 t )
     1.82113960E-02    2     1000035         6   # BR(~t_2 -> ~chi_40 t )
     5.16076473E-02    2     1000024         5   # BR(~t_2 -> ~chi_1+ b )
     3.59896616E-02    2     1000037         5   # BR(~t_2 -> ~chi_2+ b )
     7.10794808E-01    2     1000021         6   # BR(~t_2 -> ~g      t )
     9.28375679E-04    2     1000006        25   # BR(~t_2 -> ~t_1    h )
     3.39119912E-03    2     1000006        23   # BR(~t_2 -> ~t_1    Z )
#
#         PDG            Width
DECAY   1000005     2.72133105E+02   # sbottom1 decays
#          BR         NDA      ID1       ID2
     2.92381306E-03    2     1000022         5   # BR(~b_1 -> ~chi_10 b )
     2.47653232E-03    2     1000023         5   # BR(~b_1 -> ~chi_20 b )
     2.23006149E-03    2     1000025         5   # BR(~b_1 -> ~chi_30 b )
     2.73310586E-02    2     1000035         5   # BR(~b_1 -> ~chi_40 b )
     1.71375609E-01    2    -1000024         6   # BR(~b_1 -> ~chi_1- t )
     5.52663852E-02    2    -1000037         6   # BR(~b_1 -> ~chi_2- t )
     7.36496085E-01    2     1000021         5   # BR(~b_1 -> ~g      b )
     1.90045580E-03    2     1000006       -24   # BR(~b_1 -> ~t_1    W-)
#
#         PDG            Width
DECAY   2000005     2.10024852E+02   # sbottom2 decays
#          BR         NDA      ID1       ID2
     1.38410001E-02    2     1000022         5   # BR(~b_2 -> ~chi_10 b )
     2.86143741E-03    2     1000023         5   # BR(~b_2 -> ~chi_20 b )
     3.07613848E-03    2     1000025         5   # BR(~b_2 -> ~chi_30 b )
     7.27719327E-04    2     1000035         5   # BR(~b_2 -> ~chi_40 b )
     9.96360256E-03    2    -1000024         6   # BR(~b_2 -> ~chi_1- t )
     1.46959819E-03    2    -1000037         6   # BR(~b_2 -> ~chi_2- t )
     9.67855403E-01    2     1000021         5   # BR(~b_2 -> ~g      b )
     2.05101290E-04    2     1000006       -24   # BR(~b_2 -> ~t_1    W-)
#
#         PDG            Width
DECAY   1000002     2.29133307E+02   # sup_L decays
#          BR         NDA      ID1       ID2
     3.25138820E-03    2     1000022         2   # BR(~u_L -> ~chi_10 u)
     1.41124303E-04    2     1000023         2   # BR(~u_L -> ~chi_20 u)
     4.52447800E-06    2     1000025         2   # BR(~u_L -> ~chi_30 u)
     3.42702141E-02    2     1000035         2   # BR(~u_L -> ~chi_40 u)
     3.97665010E-04    2     1000024         1   # BR(~u_L -> ~chi_1+ d)
     6.84734850E-02    2     1000037         1   # BR(~u_L -> ~chi_2+ d)
     8.93461599E-01    2     1000021         2   # BR(~u_L -> ~g      u)
#
#         PDG            Width
DECAY   2000002     2.15069691E+02   # sup_R decays
#          BR         NDA      ID1       ID2
     5.51662193E-02    2     1000022         2   # BR(~u_R -> ~chi_10 u)
     8.40274665E-06    2     1000023         2   # BR(~u_R -> ~chi_20 u)
     1.13469622E-05    2     1000025         2   # BR(~u_R -> ~chi_30 u)
     7.20250578E-09    2     1000035         2   # BR(~u_R -> ~chi_40 u)
     9.44814024E-01    2     1000021         2   # BR(~u_R -> ~g      u)
#
#         PDG            Width
DECAY   1000001     2.29152094E+02   # sdown_L decays
#          BR         NDA      ID1       ID2
     3.24401102E-03    2     1000022         1   # BR(~d_L -> ~chi_10 d)
     1.09653640E-04    2     1000023         1   # BR(~d_L -> ~chi_20 d)
     1.41670971E-05    2     1000025         1   # BR(~d_L -> ~chi_30 d)
     3.42932286E-02    2     1000035         1   # BR(~d_L -> ~chi_40 d)
     1.34920654E-04    2    -1000024         2   # BR(~d_L -> ~chi_1- u)
     6.86371211E-02    2    -1000037         2   # BR(~d_L -> ~chi_2- u)
     8.93566898E-01    2     1000021         1   # BR(~d_L -> ~g      d)
#
#         PDG            Width
DECAY   2000001     2.06191474E+02   # sdown_R decays
#          BR         NDA      ID1       ID2
     1.43861683E-02    2     1000022         1   # BR(~d_R -> ~chi_10 d)
     2.19134073E-06    2     1000023         1   # BR(~d_R -> ~chi_20 d)
     2.95915904E-06    2     1000025         1   # BR(~d_R -> ~chi_30 d)
     1.87848871E-09    2     1000035         1   # BR(~d_R -> ~chi_40 d)
     9.85608679E-01    2     1000021         1   # BR(~d_R -> ~g      d)
#
#         PDG            Width
DECAY   1000004     2.29133307E+02   # scharm_L decays
#          BR         NDA      ID1       ID2
     3.25138820E-03    2     1000022         4   # BR(~c_L -> ~chi_10 c)
     1.41124303E-04    2     1000023         4   # BR(~c_L -> ~chi_20 c)
     4.52447800E-06    2     1000025         4   # BR(~c_L -> ~chi_30 c)
     3.42702141E-02    2     1000035         4   # BR(~c_L -> ~chi_40 c)
     3.97665010E-04    2     1000024         3   # BR(~c_L -> ~chi_1+ s)
     6.84734850E-02    2     1000037         3   # BR(~c_L -> ~chi_2+ s)
     8.93461599E-01    2     1000021         4   # BR(~c_L -> ~g      c)
#
#         PDG            Width
DECAY   2000004     2.15069691E+02   # scharm_R decays
#          BR         NDA      ID1       ID2
     5.51662193E-02    2     1000022         4   # BR(~c_R -> ~chi_10 c)
     8.40274665E-06    2     1000023         4   # BR(~c_R -> ~chi_20 c)
     1.13469622E-05    2     1000025         4   # BR(~c_R -> ~chi_30 c)
     7.20250578E-09    2     1000035         4   # BR(~c_R -> ~chi_40 c)
     9.44814024E-01    2     1000021         4   # BR(~c_R -> ~g      c)
#
#         PDG            Width
DECAY   1000003     2.29152094E+02   # sstrange_L decays
#          BR         NDA      ID1       ID2
     3.24401102E-03    2     1000022         3   # BR(~s_L -> ~chi_10 s)
     1.09653640E-04    2     1000023         3   # BR(~s_L -> ~chi_20 s)
     1.41670971E-05    2     1000025         3   # BR(~s_L -> ~chi_30 s)
     3.42932286E-02    2     1000035         3   # BR(~s_L -> ~chi_40 s)
     1.34920654E-04    2    -1000024         4   # BR(~s_L -> ~chi_1- c)
     6.86371211E-02    2    -1000037         4   # BR(~s_L -> ~chi_2- c)
     8.93566898E-01    2     1000021         3   # BR(~s_L -> ~g      s)
#
#         PDG            Width
DECAY   2000003     2.06191474E+02   # sstrange_R decays
#          BR         NDA      ID1       ID2
     1.43861683E-02    2     1000022         3   # BR(~s_R -> ~chi_10 s)
     2.19134073E-06    2     1000023         3   # BR(~s_R -> ~chi_20 s)
     2.95915904E-06    2     1000025         3   # BR(~s_R -> ~chi_30 s)
     1.87848871E-09    2     1000035         3   # BR(~s_R -> ~chi_40 s)
     9.85608679E-01    2     1000021         3   # BR(~s_R -> ~g      s)
#
#         PDG            Width
DECAY   1000011     3.02174864E+01   # selectron_L decays
#          BR         NDA      ID1       ID2
     2.26859687E-01    2     1000022        11   # BR(~e_L -> ~chi_10 e-)
     1.35299553E-03    2     1000023        11   # BR(~e_L -> ~chi_20 e-)
     1.84268491E-06    2     1000025        11   # BR(~e_L -> ~chi_30 e-)
     2.56638817E-01    2     1000035        11   # BR(~e_L -> ~chi_40 e-)
     1.03375461E-03    2    -1000024        12   # BR(~e_L -> ~chi_1- nu_e)
     5.14112903E-01    2    -1000037        12   # BR(~e_L -> ~chi_2- nu_e)
#
#         PDG            Width
DECAY   2000011     2.73480112E+01   # selectron_R decays
#          BR         NDA      ID1       ID2
     9.99646240E-01    2     1000022        11   # BR(~e_R -> ~chi_10 e-)
     1.50460674E-04    2     1000023        11   # BR(~e_R -> ~chi_20 e-)
     2.03173088E-04    2     1000025        11   # BR(~e_R -> ~chi_30 e-)
     1.26236292E-07    2     1000035        11   # BR(~e_R -> ~chi_40 e-)
#
#         PDG            Width
DECAY   1000013     3.02174864E+01   # smuon_L decays
#          BR         NDA      ID1       ID2
     2.26859687E-01    2     1000022        13   # BR(~mu_L -> ~chi_10 mu-)
     1.35299553E-03    2     1000023        13   # BR(~mu_L -> ~chi_20 mu-)
     1.84268491E-06    2     1000025        13   # BR(~mu_L -> ~chi_30 mu-)
     2.56638817E-01    2     1000035        13   # BR(~mu_L -> ~chi_40 mu-)
     1.03375461E-03    2    -1000024        14   # BR(~mu_L -> ~chi_1- nu_mu)
     5.14112903E-01    2    -1000037        14   # BR(~mu_L -> ~chi_2- nu_mu)
#
#         PDG            Width
DECAY   2000013     2.73480112E+01   # smuon_R decays
#          BR         NDA      ID1       ID2
     9.99646240E-01    2     1000022        13   # BR(~mu_R -> ~chi_10 mu-)
     1.50460674E-04    2     1000023        13   # BR(~mu_R -> ~chi_20 mu-)
     2.03173088E-04    2     1000025        13   # BR(~mu_R -> ~chi_30 mu-)
     1.26236292E-07    2     1000035        13   # BR(~mu_R -> ~chi_40 mu-)
#
#         PDG            Width
DECAY   1000015     2.87874447E+01   # stau_1 decays
#          BR         NDA      ID1       ID2
     9.16116242E-01    2     1000022        15   # BR(~tau_1 -> ~chi_10  tau-)
     1.27161304E-02    2     1000023        15   # BR(~tau_1 -> ~chi_20  tau-)
     1.08251472E-02    2     1000025        15   # BR(~tau_1 -> ~chi_30  tau-)
     1.21772972E-02    2     1000035        15   # BR(~tau_1 -> ~chi_40  tau-)
     2.37676372E-02    2    -1000024        16   # BR(~tau_1 -> ~chi_1-  nu_tau)
     2.43975463E-02    2    -1000037        16   # BR(~tau_1 -> ~chi_2-  nu_tau)
#
#         PDG            Width
DECAY   2000015     3.07291266E+01   # stau_2 decays
#          BR         NDA      ID1       ID2
     2.54318585E-01    2     1000022        15   # BR(~tau_2 -> ~chi_10  tau-)
     1.08632260E-02    2     1000023        15   # BR(~tau_2 -> ~chi_20  tau-)
     1.13427880E-02    2     1000025        15   # BR(~tau_2 -> ~chi_30  tau-)
     2.40901110E-01    2     1000035        15   # BR(~tau_2 -> ~chi_40  tau-)
     7.28072922E-07    2    -1000024        16   # BR(~tau_2 -> ~chi_1-  nu_tau)
     4.82573563E-01    2    -1000037        16   # BR(~tau_2 -> ~chi_2-  nu_tau)
#
#         PDG            Width
DECAY   1000012     3.02185009E+01   # snu_eL decays
#          BR         NDA      ID1       ID2
     2.26636594E-01    2     1000022        12   # BR(~nu_eL -> ~chi_10 nu_e)
     6.29122691E-04    2     1000023        12   # BR(~nu_eL -> ~chi_20 nu_e)
     2.23389849E-04    2     1000025        12   # BR(~nu_eL -> ~chi_30 nu_e)
     2.56809214E-01    2     1000035        12   # BR(~nu_eL -> ~chi_40 nu_e)
     3.04601806E-03    2     1000024        11   # BR(~nu_eL -> ~chi_1+ e-)
     5.12655662E-01    2     1000037        11   # BR(~nu_eL -> ~chi_2+ e-)
#
#         PDG            Width
DECAY   1000014     3.02185009E+01   # snu_muL decays
#          BR         NDA      ID1       ID2
     2.26636594E-01    2     1000022        14   # BR(~nu_muL -> ~chi_10 nu_mu)
     6.29122691E-04    2     1000023        14   # BR(~nu_muL -> ~chi_20 nu_mu)
     2.23389849E-04    2     1000025        14   # BR(~nu_muL -> ~chi_30 nu_mu)
     2.56809214E-01    2     1000035        14   # BR(~nu_muL -> ~chi_40 nu_mu)
     3.04601806E-03    2     1000024        13   # BR(~nu_muL -> ~chi_1+ mu-)
     5.12655662E-01    2     1000037        13   # BR(~nu_muL -> ~chi_2+ mu-)
#
#         PDG            Width
DECAY   1000016     3.08661312E+01   # snu_tauL decays
#          BR         NDA      ID1       ID2
     2.21857958E-01    2     1000022        16   # BR(~nu_tauL -> ~chi_10 nu_tau)
     6.15808730E-04    2     1000023        16   # BR(~nu_tauL -> ~chi_20 nu_tau)
     2.18662245E-04    2     1000025        16   # BR(~nu_tauL -> ~chi_30 nu_tau)
     2.51330787E-01    2     1000035        16   # BR(~nu_tauL -> ~chi_40 nu_tau)
     2.42483329E-02    2     1000024        15   # BR(~nu_tauL -> ~chi_1+ tau-)
     5.01728451E-01    2     1000037        15   # BR(~nu_tauL -> ~chi_2+ tau-)
#
#         PDG            Width
DECAY   1000024     1.23490821E+00   # chargino1+ decays
#          BR         NDA      ID1       ID2
     1.00000000E+00    2     1000022        24   # BR(~chi_1+ -> ~chi_10  W+)
#
#         PDG            Width
DECAY   1000037     1.53616310E+01   # chargino2+ decays
#          BR         NDA      ID1       ID2
     2.51881306E-01    2     1000024        23   # BR(~chi_2+ -> ~chi_1+  Z )
     4.76622414E-04    2     1000022        24   # BR(~chi_2+ -> ~chi_10  W+)
     2.45382148E-01    2     1000023        24   # BR(~chi_2+ -> ~chi_20  W+)
     2.42769308E-01    2     1000025        24   # BR(~chi_2+ -> ~chi_30  W+)
     2.59490572E-01    2     1000024        25   # BR(~chi_2+ -> ~chi_1+  h )
     4.32234942E-08    2     1000022        37   # BR(~chi_2+ -> ~chi_10  H+)
#
#         PDG            Width
DECAY   1000022     0.00000000E+00   # neutralino1 decays
#
#         PDG            Width
DECAY   1000023     1.30077790E+00   # neutralino2 decays
#          BR         NDA      ID1       ID2
     5.65490993E-01    2     1000022        23   # BR(~chi_20 -> ~chi_10   Z )
     4.34509007E-01    2     1000022        25   # BR(~chi_20 -> ~chi_10   h )
#
#         PDG            Width
DECAY   1000025     1.31710442E+00   # neutralino3 decays
#          BR         NDA      ID1       ID2
     4.15219939E-01    2     1000022        23   # BR(~chi_30 -> ~chi_10   Z )
     5.84780061E-01    2     1000022        25   # BR(~chi_30 -> ~chi_10   h )
#
#         PDG            Width
DECAY   1000035     1.53150014E+01   # neutralino4 decays
#          BR         NDA      ID1       ID2
     2.14707851E-04    2     1000022        23   # BR(~chi_40 -> ~chi_10   Z )
     1.67164505E-02    2     1000023        23   # BR(~chi_40 -> ~chi_20   Z )
     2.35825896E-01    2     1000025        23   # BR(~chi_40 -> ~chi_30   Z )
     2.43572346E-01    2     1000024       -24   # BR(~chi_40 -> ~chi_1+   W-)
     2.43572346E-01    2    -1000024        24   # BR(~chi_40 -> ~chi_1-   W+)
     2.82180439E-04    2     1000022        25   # BR(~chi_40 -> ~chi_10   h )
     3.23291403E-08    2     1000022        35   # BR(~chi_40 -> ~chi_10   H )
     1.24531652E-08    2     1000022        36   # BR(~chi_40 -> ~chi_10   A )
     2.43352701E-01    2     1000023        25   # BR(~chi_40 -> ~chi_20   h )
     1.64633274E-02    2     1000025        25   # BR(~chi_40 -> ~chi_30   h )
#
#         PDG            Width
DECAY        25     4.03098146E-03   # h decays
#          BR         NDA      ID1       ID2
     6.04282252E-01    2           5        -5   # BR(h -> b       bb     )
     6.43610463E-02    2         -15        15   # BR(h -> tau+    tau-   )
     2.27861286E-04    2         -13        13   # BR(h -> mu+     mu-    )
     4.83016080E-04    2           3        -3   # BR(h -> s       sb     )
     2.09329388E-02    2           4        -4   # BR(h -> c       cb     )
     6.77694819E-02    2          21        21   # BR(h -> g       g      )
     2.33152293E-03    2          22        22   # BR(h -> gam     gam    )
     1.50750329E-03    2          22        23   # BR(h -> Z       gam    )
     2.12705766E-01    2          24       -24   # BR(h -> W+      W-     )
     2.53772899E-02    2          23        23   # BR(h -> Z       Z      )
     2.13214481E-05    2     1000022   1000022   # BR(h -> ~chi_10 ~chi_10)
#
#         PDG            Width
DECAY        35     6.36265982E+00   # H decays
#          BR         NDA      ID1       ID2
     5.19868095E-01    2           5        -5   # BR(H -> b       bb     )
     8.75673446E-02    2         -15        15   # BR(H -> tau+    tau-   )
     3.09645086E-04    2         -13        13   # BR(H -> mu+     mu-    )
     3.79577529E-04    2           3        -3   # BR(H -> s       sb     )
     2.12255247E-06    2           4        -4   # BR(H -> c       cb     )
     2.12059794E-01    2           6        -6   # BR(H -> t       tb     )
     7.03375821E-05    2          21        21   # BR(H -> g       g      )
     3.97801399E-07    2          22        22   # BR(H -> gam     gam    )
     1.25278984E-07    2          23        22   # BR(H -> Z       gam    )
     9.22196755E-05    2          24       -24   # BR(H -> W+      W-     )
     4.60514865E-05    2          23        23   # BR(H -> Z       Z      )
     3.52855371E-04    2          25        25   # BR(H -> h       h      )
    -2.96738264E-23    2          36        36   # BR(H -> A       A      )
     1.31114878E-18    2          23        36   # BR(H -> Z       A      )
     5.67881199E-04    2     1000022   1000022   # BR(H -> ~chi_10 ~chi_10)
     1.04359679E-01    2     1000022   1000023   # BR(H -> ~chi_10 ~chi_20)
     7.43238747E-02    2     1000022   1000025   # BR(H -> ~chi_10 ~chi_30)
#
#         PDG            Width
DECAY        36     6.36602157E+00   # A decays
#          BR         NDA      ID1       ID2
     5.19766151E-01    2           5        -5   # BR(A -> b       bb     )
     8.75237750E-02    2         -15        15   # BR(A -> tau+    tau-   )
     3.09490588E-04    2         -13        13   # BR(A -> mu+     mu-    )
     3.79665267E-04    2           3        -3   # BR(A -> s       sb     )
     2.13042683E-06    2           4        -4   # BR(A -> c       cb     )
     2.12729077E-01    2           6        -6   # BR(A -> t       tb     )
     2.10522969E-04    2          21        21   # BR(A -> g       g      )
     4.11503343E-07    2          22        22   # BR(A -> gam     gam    )
     2.55110809E-07    2          23        22   # BR(A -> Z       gam    )
     9.18227774E-05    2          23        25   # BR(A -> Z       h      )
     5.86834444E-04    2     1000022   1000022   # BR(A -> ~chi_10 ~chi_10)
     7.52514999E-02    2     1000022   1000023   # BR(A -> ~chi_10 ~chi_20)
     1.03148364E-01    2     1000022   1000025   # BR(A -> ~chi_10 ~chi_30)
#
#         PDG            Width
DECAY        37     6.39315617E+00   # H+ decays
#          BR         NDA      ID1       ID2
     8.39930062E-04    2           4        -5   # BR(H+ -> c       bb     )
     8.71776469E-02    2         -15        16   # BR(H+ -> tau+    nu_tau )
     3.08266653E-04    2         -13        14   # BR(H+ -> mu+     nu_mu  )
     5.37552536E-06    2           2        -5   # BR(H+ -> u       bb     )
     1.80884455E-05    2           2        -3   # BR(H+ -> u       sb     )
     3.74069803E-04    2           4        -3   # BR(H+ -> c       sb     )
     7.32328062E-01    2           6        -5   # BR(H+ -> t       bb     )
     9.15715683E-05    2          24        25   # BR(H+ -> W+      h      )
     1.04028480E-13    2          24        36   # BR(H+ -> W+      A      )
     1.78856989E-01    2     1000024   1000022   # BR(H+ -> ~chi_1+ ~chi_10)
