#
#                              ======================
#                              | THE SUSYHIT OUTPUT |
#                              ======================
#
#
#              ------------------------------------------------------
#              |     This is the output of the SUSY-HIT package     |
#              |  created by A.Djouadi, M.Muehlleitner and M.Spira. |
#              |  In case of problems with SUSY-HIT email to        |
#              |           margarete.muehlleitner@cern.ch           |
#              |           michael.spira@psi.ch                     |
#              |           abdelhak.djouadi@cern.ch                 |
#              ------------------------------------------------------
#
#              ------------------------------------------------------
#              |  SUSY Les Houches Accord - MSSM Spectrum + Decays  |
#              |              based on the decay programs           |
#              |                                                    |
#              |                     SDECAY 1.3b                    |
#              |                                                    |
#              |  Authors: M.Muhlleitner, A.Djouadi and Y.Mambrini  |
#              |  Ref.:    Comput.Phys.Commun.168(2005)46           |
#              |           [hep-ph/0311167]                         |
#              |                                                    |
#              |                     HDECAY 3.4                     |
#              |                                                    |
#              |  By: A.Djouadi,J.Kalinowski,M.Muhlleitner,M.Spira  |
#              |  Ref.:    Comput.Phys.Commun.108(1998)56           |
#              |           [hep-ph/9704448]                         |
#              |                                                    |
#              |                                                    |
#              |  If not stated otherwise all DRbar couplings and   |
#              |  soft SUSY breaking masses are given at the scale  |
#              |  Q=  0.50007041E+04
#              |                                                    |
#              ------------------------------------------------------
#
#
BLOCK DCINFO  # Decay Program information
     1   SDECAY/HDECAY # decay calculator
     2   1.3b  /3.4    # version number
#
BLOCK SPINFO  # Spectrum calculator information
     1    SOFTSUSY    # spectrum calculator                
     2    3.4.0       # version number                     
#
BLOCK MODSEL  # Model selection
     1     0   #  nonUniversal                                     
#
BLOCK SMINPUTS  # Standard Model inputs
         1     1.25778332E+02   # alpha_em^-1(M_Z)^MSbar
         2     1.16570000E-05   # G_F [GeV^-2]
         3     1.17200002E-01   # alpha_S(M_Z)^MSbar
         4     9.11876000E+01   # M_Z pole mass
         5     4.25000000E+00   # mb(mb)^MSbar
         6     1.72500000E+02   # mt pole mass
         7     1.77682000E+00   # mtau pole mass
#
BLOCK MINPAR  # Input parameters - minimal models
         3     1.00000000E+01   # tanb                
#
BLOCK EXTPAR  # Input parameters - non-minimal models
         0    -1.00000000E+00   # Set                 
         1     6.00000000E+01   # M_1(MX)             
         2     3.00000000E+03   # M_2(MX)             
         3     1.39220300E+03   # M_3(MX)             
        11     5.00000000E+03   # At(MX)              
        12     5.00000000E+03   # Ab(MX)              
        13     0.00000000E+00   # Atau(MX)            
        23    -1.74071600E+03   # mu(MX)              
        26     3.00000000E+03   # mA(pole)            
        31     5.00000000E+03   # meL(MX)             
        32     5.00000000E+03   # mmuL(MX)            
        33     5.00000000E+03   # mtauL(MX)           
        34     5.00000000E+03   # meR(MX)             
        35     5.00000000E+03   # mmuR(MX)            
        36     5.00000000E+03   # mtauR(MX)           
        41     5.00000000E+03   # mqL1(MX)            
        42     5.00000000E+03   # mqL2(MX)            
        43     5.00000000E+03   # mqL3(MX)            
        44     5.00000000E+03   # muR(MX)             
        45     5.00000000E+03   # mcR(MX)             
        46     5.00000000E+03   # mtR(MX)             
        47     5.00000000E+03   # mdR(MX)             
        48     5.00000000E+03   # msR(MX)             
        49     5.00000000E+03   # mbR(MX)             
#
BLOCK MASS  # Mass Spectrum
# PDG code           mass       particle
        24     8.00965148E+01   # W+
        25     1.24697045E+02   # h
        35     3.00007847E+03   # H
        36     2.99999995E+03   # A
        37     3.00087304E+03   # H+
         5     4.87878001E+00   # b-quark pole mass calculated from mb(mb)_Msbar
   1000001     5.06842851E+03   # ~d_L
   2000001     5.05064853E+03   # ~d_R
   1000002     5.06795355E+03   # ~u_L
   2000002     5.05037756E+03   # ~u_R
   1000003     5.06842851E+03   # ~s_L
   2000003     5.05064853E+03   # ~s_R
   1000004     5.06795355E+03   # ~c_L
   2000004     5.05037756E+03   # ~c_R
   1000005     5.01492942E+03   # ~b_1
   2000005     5.04975994E+03   # ~b_2
   1000006     4.90643983E+03   # ~t_1
   2000006     5.06207370E+03   # ~t_2
   1000011     5.01904013E+03   # ~e_L
   2000011     5.00590492E+03   # ~e_R
   1000012     5.01809216E+03   # ~nu_eL
   1000013     5.01904013E+03   # ~mu_L
   2000013     5.00590492E+03   # ~mu_R
   1000014     5.01809216E+03   # ~nu_muL
   1000015     5.00419075E+03   # ~tau_1
   2000015     5.01919151E+03   # ~tau_2
   1000016     5.01755909E+03   # ~nu_tauL
   1000021     1.70000078E+03   # ~g
   1000022     6.03010776E+01   # ~chi_10
   1000023     1.79939958E+03   # ~chi_20
   1000025    -1.80211975E+03   # ~chi_30
   1000035     3.07438892E+03   # ~chi_40
   1000024     1.80000000E+03   # ~chi_1+
   1000037     3.07455659E+03   # ~chi_2+
#
BLOCK NMIX  # Neutralino Mixing Matrix
  1  1     9.99691050E-01   # N_11
  1  2     1.21493117E-04   # N_12
  1  3    -2.47921490E-02   # N_13
  1  4     1.77178245E-03   # N_14
  2  1     1.62730134E-02   # N_21
  2  2     3.81641323E-02   # N_22
  2  3     7.06828493E-01   # N_23
  2  4     7.06167239E-01   # N_24
  3  1    -1.87812215E-02   # N_31
  3  2     1.24390880E-02   # N_32
  3  3    -7.06716158E-01   # N_33
  3  4     7.07138464E-01   # N_34
  4  1    -5.09290215E-04   # N_41
  4  2     9.99194052E-01   # N_42
  4  3    -1.81962448E-02   # N_43
  4  4    -3.57754660E-02   # N_44
#
BLOCK UMIX  # Chargino Mixing Matrix U
  1  1     2.57150538E-02   # U_11
  1  2     9.99669313E-01   # U_12
  2  1    -9.99669313E-01   # U_21
  2  2     2.57150538E-02   # U_22
#
BLOCK VMIX  # Chargino Mixing Matrix V
  1  1     5.05804815E-02   # V_11
  1  2    -9.98719988E-01   # V_12
  2  1    -9.98719988E-01   # V_21
  2  2    -5.05804815E-02   # V_22
#
BLOCK STOPMIX  # Stop Mixing Matrix
  1  1    -5.15142801E-01   # cos(theta_t)
  1  2     8.57104366E-01   # sin(theta_t)
  2  1    -8.57104366E-01   # -sin(theta_t)
  2  2    -5.15142801E-01   # cos(theta_t)
#
BLOCK SBOTMIX  # Sbottom Mixing Matrix
  1  1     9.92377972E-01   # cos(theta_b)
  1  2    -1.23231330E-01   # sin(theta_b)
  2  1     1.23231330E-01   # -sin(theta_b)
  2  2     9.92377972E-01   # cos(theta_b)
#
BLOCK STAUMIX  # Stau Mixing Matrix
  1  1    -1.98979069E-01   # cos(theta_tau)
  1  2     9.80003740E-01   # sin(theta_tau)
  2  1    -9.80003740E-01   # -sin(theta_tau)
  2  2    -1.98979069E-01   # cos(theta_tau)
#
BLOCK ALPHA  # Higgs mixing
          -1.05449746E-01   # Mixing angle in the neutral Higgs boson sector
#
BLOCK HMIX Q=  5.00070409E+03  # DRbar Higgs Parameters
         1    -1.77245899E+03   # mu(Q)MSSM           
         2     9.47142545E+00   # tan                 
         3     2.42028623E+02   # higgs               
         4     8.34998928E+06   # mA^2(Q)MSSM         
#
BLOCK GAUGE Q=  5.00070409E+03  # The gauge couplings
     1     3.70665201E-01   # gprime(Q) DRbar
     2     6.31900890E-01   # g(Q) DRbar
     3     1.00087281E+00   # g3(Q) DRbar
#
BLOCK AU Q=  5.00070409E+03  # The trilinear couplings
  1  1     5.00000001E+03   # A_u(Q) DRbar
  2  2     5.00000001E+03   # A_c(Q) DRbar
  3  3     5.00000001E+03   # A_t(Q) DRbar
#
BLOCK AD Q=  5.00070409E+03  # The trilinear couplings
  1  1     5.00000000E+03   # A_d(Q) DRbar
  2  2     5.00000000E+03   # A_s(Q) DRbar
  3  3     5.00000001E+03   # A_b(Q) DRbar
#
BLOCK AE Q=  5.00070409E+03  # The trilinear couplings
  1  1     0.00000000E+00   # A_e(Q) DRbar
  2  2     1.30786774E-07   # A_mu(Q) DRbar
  3  3     1.30249326E-07   # A_tau(Q) DRbar
#
BLOCK Yu Q=  5.00070409E+03  # The Yukawa couplings
  1  1     0.00000000E+00   # y_u(Q) DRbar
  2  2     0.00000000E+00   # y_c(Q) DRbar
  3  3     8.18268203E-01   # y_t(Q) DRbar
#
BLOCK Yd Q=  5.00070409E+03  # The Yukawa couplings
  1  1     0.00000000E+00   # y_d(Q) DRbar
  2  2     0.00000000E+00   # y_s(Q) DRbar
  3  3     1.31268372E-01   # y_b(Q) DRbar
#
BLOCK Ye Q=  5.00070409E+03  # The Yukawa couplings
  1  1     0.00000000E+00   # y_e(Q) DRbar
  2  2     0.00000000E+00   # y_mu(Q) DRbar
  3  3     9.65246070E-02   # y_tau(Q) DRbar
#
BLOCK MSOFT Q=  5.00070409E+03  # The soft SUSY breaking masses at the scale Q
         1     6.00000000E+01   # M_1(Q)              
         2     3.00000000E+03   # M_2(Q)              
         3     1.39220300E+03   # M_3(Q)              
        21     5.51205150E+06   # mH1^2(Q)            
        22    -2.60480971E+06   # mH2^2(Q)            
        31     5.00000000E+03   # meL(Q)              
        32     5.00000000E+03   # mmuL(Q)             
        33     5.00000000E+03   # mtauL(Q)            
        34     5.00000000E+03   # meR(Q)              
        35     5.00000000E+03   # mmuR(Q)             
        36     5.00000000E+03   # mtauR(Q)            
        41     5.00000000E+03   # mqL1(Q)             
        42     5.00000000E+03   # mqL2(Q)             
        43     5.00000000E+03   # mqL3(Q)             
        44     5.00000000E+03   # muR(Q)              
        45     5.00000000E+03   # mcR(Q)              
        46     4.99999999E+03   # mtR(Q)              
        47     5.00000000E+03   # mdR(Q)              
        48     5.00000000E+03   # msR(Q)              
        49     5.00000000E+03   # mbR(Q)              
#
#
#
#                             =================
#                             |The decay table|
#                             =================
#
# - The QCD corrections to the decays gluino -> squark  + quark
#                                     squark -> gaugino + quark_prime
#                                     squark -> squark_prime + Higgs
#                                     squark -> gluino  + quark
#   are included.
#
# - The multi-body decays for the inos, stops and sbottoms are included.
#
# - The loop induced decays for the gluino, neutralinos and stops
#   are included.
#
# - The SUSY decays of the top quark are included.
#
#
#         PDG            Width
DECAY         6     1.39921217E+00   # top decays
#          BR         NDA      ID1       ID2
     1.00000000E+00    2           5        24   # BR(t ->  b    W+)
#
#         PDG            Width
DECAY   1000021     1.31363342E-04   # gluino decays
#          BR         NDA      ID1       ID2
     9.69416716E-06    2     1000022        21   # BR(~g -> ~chi_10 g)
#           BR         NDA      ID1       ID2       ID3
     7.71083769E-02    3     1000022         1        -1   # BR(~g -> ~chi_10 d  db)
     2.62856560E-01    3     1000022         2        -2   # BR(~g -> ~chi_10 u  ub)
     7.71083769E-02    3     1000022         3        -3   # BR(~g -> ~chi_10 s  sb)
     2.62856560E-01    3     1000022         4        -4   # BR(~g -> ~chi_10 c  cb)
     7.80003729E-02    3     1000022         5        -5   # BR(~g -> ~chi_10 b  bb)
     2.42060060E-01    3     1000022         6        -6   # BR(~g -> ~chi_10 t  tb)
#
#         PDG            Width
DECAY   1000006     3.47101159E+02   # stop1 decays
#          BR         NDA      ID1       ID2
     2.52233954E-02    2     1000022         6   # BR(~t_1 -> ~chi_10 t )
     7.09992970E-02    2     1000023         6   # BR(~t_1 -> ~chi_20 t )
     6.81253291E-02    2     1000025         6   # BR(~t_1 -> ~chi_30 t )
     6.49769569E-03    2     1000035         6   # BR(~t_1 -> ~chi_40 t )
     1.01228279E-01    2     1000024         5   # BR(~t_1 -> ~chi_1+ b )
     1.28994540E-02    2     1000037         5   # BR(~t_1 -> ~chi_2+ b )
     7.15026550E-01    2     1000021         6   # BR(~t_1 -> ~g      t )
#
#         PDG            Width
DECAY   2000006     3.58957377E+02   # stop2 decays
#          BR         NDA      ID1       ID2
     1.00430822E-02    2     1000022         6   # BR(~t_2 -> ~chi_10 t )
     7.17954572E-02    2     1000023         6   # BR(~t_2 -> ~chi_20 t )
     7.48272999E-02    2     1000025         6   # BR(~t_2 -> ~chi_30 t )
     1.49565679E-02    2     1000035         6   # BR(~t_2 -> ~chi_40 t )
     4.51749981E-02    2     1000024         5   # BR(~t_2 -> ~chi_1+ b )
     2.96311472E-02    2     1000037         5   # BR(~t_2 -> ~chi_2+ b )
     7.49896808E-01    2     1000021         6   # BR(~t_2 -> ~g      t )
     7.94911319E-04    2     1000006        25   # BR(~t_2 -> ~t_1    h )
     2.87972862E-03    2     1000006        23   # BR(~t_2 -> ~t_1    Z )
#
#         PDG            Width
DECAY   1000005     3.36644971E+02   # sbottom1 decays
#          BR         NDA      ID1       ID2
     2.34917617E-03    2     1000022         5   # BR(~b_1 -> ~chi_10 b )
     2.06855756E-03    2     1000023         5   # BR(~b_1 -> ~chi_20 b )
     1.90837779E-03    2     1000025         5   # BR(~b_1 -> ~chi_30 b )
     2.20572122E-02    2     1000035         5   # BR(~b_1 -> ~chi_40 b )
     1.48869768E-01    2    -1000024         6   # BR(~b_1 -> ~chi_1- t )
     4.44967114E-02    2    -1000037         6   # BR(~b_1 -> ~chi_2- t )
     7.76625719E-01    2     1000021         5   # BR(~b_1 -> ~g      b )
     1.62447805E-03    2     1000006       -24   # BR(~b_1 -> ~t_1    W-)
#
#         PDG            Width
DECAY   2000005     2.70699673E+02   # sbottom2 decays
#          BR         NDA      ID1       ID2
     1.07857653E-02    2     1000022         5   # BR(~b_2 -> ~chi_10 b )
     2.37716023E-03    2     1000023         5   # BR(~b_2 -> ~chi_20 b )
     2.52026538E-03    2     1000025         5   # BR(~b_2 -> ~chi_30 b )
     4.58487200E-04    2     1000035         5   # BR(~b_2 -> ~chi_40 b )
     7.66275010E-03    2    -1000024         6   # BR(~b_2 -> ~chi_1- t )
     9.24151516E-04    2    -1000037         6   # BR(~b_2 -> ~chi_2- t )
     9.75139325E-01    2     1000021         5   # BR(~b_2 -> ~g      b )
     1.32094942E-04    2     1000006       -24   # BR(~b_2 -> ~t_1    W-)
#
#         PDG            Width
DECAY   1000002     2.89572770E+02   # sup_L decays
#          BR         NDA      ID1       ID2
     2.57827454E-03    2     1000022         2   # BR(~u_L -> ~chi_10 u)
     8.81447968E-05    2     1000023         2   # BR(~u_L -> ~chi_20 u)
     3.95944916E-06    2     1000025         2   # BR(~u_L -> ~chi_30 u)
     2.69849747E-02    2     1000035         2   # BR(~u_L -> ~chi_40 u)
     2.63780376E-04    2     1000024         1   # BR(~u_L -> ~chi_1+ d)
     5.39226921E-02    2     1000037         1   # BR(~u_L -> ~chi_2+ d)
     9.16158174E-01    2     1000021         2   # BR(~u_L -> ~g      u)
#
#         PDG            Width
DECAY   2000002     2.75801801E+02   # sup_R decays
#          BR         NDA      ID1       ID2
     4.31070508E-02    2     1000022         2   # BR(~u_R -> ~chi_10 u)
     8.72134479E-06    2     1000023         2   # BR(~u_R -> ~chi_20 u)
     1.16068283E-05    2     1000025         2   # BR(~u_R -> ~chi_30 u)
     4.45168622E-09    2     1000035         2   # BR(~u_R -> ~chi_40 u)
     9.56872617E-01    2     1000021         2   # BR(~u_R -> ~g      u)
#
#         PDG            Width
DECAY   1000001     2.89587398E+02   # sdown_L decays
#          BR         NDA      ID1       ID2
     2.57198559E-03    2     1000022         1   # BR(~d_L -> ~chi_10 d)
     6.31057181E-05    2     1000023         1   # BR(~d_L -> ~chi_20 d)
     1.33739153E-05    2     1000025         1   # BR(~d_L -> ~chi_30 d)
     2.70027539E-02    2     1000035         1   # BR(~d_L -> ~chi_40 d)
     6.81857772E-05    2    -1000024         2   # BR(~d_L -> ~chi_1- u)
     5.40393024E-02    2    -1000037         2   # BR(~d_L -> ~chi_2- u)
     9.16241293E-01    2     1000021         1   # BR(~d_L -> ~g      d)
#
#         PDG            Width
DECAY   2000001     2.66902401E+02   # sdown_R decays
#          BR         NDA      ID1       ID2
     1.11366979E-02    2     1000022         1   # BR(~d_R -> ~chi_10 d)
     2.25322722E-06    2     1000023         1   # BR(~d_R -> ~chi_20 d)
     2.99871464E-06    2     1000025         1   # BR(~d_R -> ~chi_30 d)
     1.15023604E-09    2     1000035         1   # BR(~d_R -> ~chi_40 d)
     9.88858049E-01    2     1000021         1   # BR(~d_R -> ~g      d)
#
#         PDG            Width
DECAY   1000004     2.89572770E+02   # scharm_L decays
#          BR         NDA      ID1       ID2
     2.57827454E-03    2     1000022         4   # BR(~c_L -> ~chi_10 c)
     8.81447968E-05    2     1000023         4   # BR(~c_L -> ~chi_20 c)
     3.95944916E-06    2     1000025         4   # BR(~c_L -> ~chi_30 c)
     2.69849747E-02    2     1000035         4   # BR(~c_L -> ~chi_40 c)
     2.63780376E-04    2     1000024         3   # BR(~c_L -> ~chi_1+ s)
     5.39226921E-02    2     1000037         3   # BR(~c_L -> ~chi_2+ s)
     9.16158174E-01    2     1000021         4   # BR(~c_L -> ~g      c)
#
#         PDG            Width
DECAY   2000004     2.75801801E+02   # scharm_R decays
#          BR         NDA      ID1       ID2
     4.31070508E-02    2     1000022         4   # BR(~c_R -> ~chi_10 c)
     8.72134479E-06    2     1000023         4   # BR(~c_R -> ~chi_20 c)
     1.16068283E-05    2     1000025         4   # BR(~c_R -> ~chi_30 c)
     4.45168622E-09    2     1000035         4   # BR(~c_R -> ~chi_40 c)
     9.56872617E-01    2     1000021         4   # BR(~c_R -> ~g      c)
#
#         PDG            Width
DECAY   1000003     2.89587398E+02   # sstrange_L decays
#          BR         NDA      ID1       ID2
     2.57198559E-03    2     1000022         3   # BR(~s_L -> ~chi_10 s)
     6.31057181E-05    2     1000023         3   # BR(~s_L -> ~chi_20 s)
     1.33739153E-05    2     1000025         3   # BR(~s_L -> ~chi_30 s)
     2.70027539E-02    2     1000035         3   # BR(~s_L -> ~chi_40 s)
     6.81857772E-05    2    -1000024         4   # BR(~s_L -> ~chi_1- c)
     5.40393024E-02    2    -1000037         4   # BR(~s_L -> ~chi_2- c)
     9.16241293E-01    2     1000021         3   # BR(~s_L -> ~g      s)
#
#         PDG            Width
DECAY   2000003     2.66902401E+02   # sstrange_R decays
#          BR         NDA      ID1       ID2
     1.11366979E-02    2     1000022         3   # BR(~s_R -> ~chi_10 s)
     2.25322722E-06    2     1000023         3   # BR(~s_R -> ~chi_20 s)
     2.99871464E-06    2     1000025         3   # BR(~s_R -> ~chi_30 s)
     1.15023604E-09    2     1000035         3   # BR(~s_R -> ~chi_40 s)
     9.88858049E-01    2     1000021         3   # BR(~s_R -> ~g      s)
#
#         PDG            Width
DECAY   1000011     3.02266408E+01   # selectron_L decays
#          BR         NDA      ID1       ID2
     2.26819673E-01    2     1000022        11   # BR(~e_L -> ~chi_10 e-)
     1.14010271E-03    2     1000023        11   # BR(~e_L -> ~chi_20 e-)
     1.01227732E-06    2     1000025        11   # BR(~e_L -> ~chi_30 e-)
     2.56882610E-01    2     1000035        11   # BR(~e_L -> ~chi_40 e-)
     6.62293264E-04    2    -1000024        12   # BR(~e_L -> ~chi_1- nu_e)
     5.14494309E-01    2    -1000037        12   # BR(~e_L -> ~chi_2- nu_e)
#
#         PDG            Width
DECAY   2000011     2.73536555E+01   # selectron_R decays
#          BR         NDA      ID1       ID2
     9.99531662E-01    2     1000022        11   # BR(~e_R -> ~chi_10 e-)
     2.00888757E-04    2     1000023        11   # BR(~e_R -> ~chi_20 e-)
     2.67348217E-04    2     1000025        11   # BR(~e_R -> ~chi_30 e-)
     1.00656587E-07    2     1000035        11   # BR(~e_R -> ~chi_40 e-)
#
#         PDG            Width
DECAY   1000013     3.02266408E+01   # smuon_L decays
#          BR         NDA      ID1       ID2
     2.26819673E-01    2     1000022        13   # BR(~mu_L -> ~chi_10 mu-)
     1.14010271E-03    2     1000023        13   # BR(~mu_L -> ~chi_20 mu-)
     1.01227732E-06    2     1000025        13   # BR(~mu_L -> ~chi_30 mu-)
     2.56882610E-01    2     1000035        13   # BR(~mu_L -> ~chi_40 mu-)
     6.62293264E-04    2    -1000024        14   # BR(~mu_L -> ~chi_1- nu_mu)
     5.14494309E-01    2    -1000037        14   # BR(~mu_L -> ~chi_2- nu_mu)
#
#         PDG            Width
DECAY   2000013     2.73536555E+01   # smuon_R decays
#          BR         NDA      ID1       ID2
     9.99531662E-01    2     1000022        13   # BR(~mu_R -> ~chi_10 mu-)
     2.00888757E-04    2     1000023        13   # BR(~mu_R -> ~chi_20 mu-)
     2.67348217E-04    2     1000025        13   # BR(~mu_R -> ~chi_30 mu-)
     1.00656587E-07    2     1000035        13   # BR(~mu_R -> ~chi_40 mu-)
#
#         PDG            Width
DECAY   1000015     2.88659061E+01   # stau_1 decays
#          BR         NDA      ID1       ID2
     9.19591687E-01    2     1000022        15   # BR(~tau_1 -> ~chi_10  tau-)
     1.32909040E-02    2     1000023        15   # BR(~tau_1 -> ~chi_20  tau-)
     1.16705443E-02    2     1000025        15   # BR(~tau_1 -> ~chi_30  tau-)
     1.01382096E-02    2     1000035        15   # BR(~tau_1 -> ~chi_40  tau-)
     2.50022734E-02    2    -1000024        16   # BR(~tau_1 -> ~chi_1-  nu_tau)
     2.03063821E-02    2    -1000037        16   # BR(~tau_1 -> ~chi_2-  nu_tau)
#
#         PDG            Width
DECAY   2000015     3.08128708E+01   # stau_2 decays
#          BR         NDA      ID1       ID2
     2.48153714E-01    2     1000022        15   # BR(~tau_2 -> ~chi_10  tau-)
     1.17009095E-02    2     1000023        15   # BR(~tau_2 -> ~chi_20  tau-)
     1.21398929E-02    2     1000025        15   # BR(~tau_2 -> ~chi_30  tau-)
     2.42432362E-01    2     1000035        15   # BR(~tau_2 -> ~chi_40  tau-)
     2.64018387E-05    2    -1000024        16   # BR(~tau_2 -> ~chi_1-  nu_tau)
     4.85546720E-01    2    -1000037        16   # BR(~tau_2 -> ~chi_2-  nu_tau)
#
#         PDG            Width
DECAY   1000012     3.02280987E+01   # snu_eL decays
#          BR         NDA      ID1       ID2
     2.26578021E-01    2     1000022        12   # BR(~nu_eL -> ~chi_10 nu_e)
     4.10086910E-04    2     1000023        12   # BR(~nu_eL -> ~chi_20 nu_e)
     2.75230539E-04    2     1000025        12   # BR(~nu_eL -> ~chi_30 nu_e)
     2.57012349E-01    2     1000035        12   # BR(~nu_eL -> ~chi_40 nu_e)
     2.56147402E-03    2     1000024        11   # BR(~nu_eL -> ~chi_1+ e-)
     5.13162839E-01    2     1000037        11   # BR(~nu_eL -> ~chi_2+ e-)
#
#         PDG            Width
DECAY   1000014     3.02280987E+01   # snu_muL decays
#          BR         NDA      ID1       ID2
     2.26578021E-01    2     1000022        14   # BR(~nu_muL -> ~chi_10 nu_mu)
     4.10086910E-04    2     1000023        14   # BR(~nu_muL -> ~chi_20 nu_mu)
     2.75230539E-04    2     1000025        14   # BR(~nu_muL -> ~chi_30 nu_mu)
     2.57012349E-01    2     1000035        14   # BR(~nu_muL -> ~chi_40 nu_mu)
     2.56147402E-03    2     1000024        13   # BR(~nu_muL -> ~chi_1+ mu-)
     5.13162839E-01    2     1000037        13   # BR(~nu_muL -> ~chi_2+ mu-)
#
#         PDG            Width
DECAY   1000016     3.09248070E+01   # snu_tauL decays
#          BR         NDA      ID1       ID2
     2.21449880E-01    2     1000022        16   # BR(~nu_tauL -> ~chi_10 nu_tau)
     4.00780303E-04    2     1000023        16   # BR(~nu_tauL -> ~chi_20 nu_tau)
     2.68984334E-04    2     1000025        16   # BR(~nu_tauL -> ~chi_30 nu_tau)
     2.51131257E-01    2     1000035        16   # BR(~nu_tauL -> ~chi_40 nu_tau)
     2.53240493E-02    2     1000024        15   # BR(~nu_tauL -> ~chi_1+ tau-)
     5.01425049E-01    2     1000037        15   # BR(~nu_tauL -> ~chi_2+ tau-)
#
#         PDG            Width
DECAY   1000024     1.11053391E+00   # chargino1+ decays
#          BR         NDA      ID1       ID2
     1.00000000E+00    2     1000022        24   # BR(~chi_1+ -> ~chi_10  W+)
#
#         PDG            Width
DECAY   1000037     1.67678586E+01   # chargino2+ decays
#          BR         NDA      ID1       ID2
     2.52289236E-01    2     1000024        23   # BR(~chi_2+ -> ~chi_1+  Z )
     3.54605875E-04    2     1000022        24   # BR(~chi_2+ -> ~chi_10  W+)
     2.44538850E-01    2     1000023        24   # BR(~chi_2+ -> ~chi_20  W+)
     2.43244117E-01    2     1000025        24   # BR(~chi_2+ -> ~chi_30  W+)
     2.59573051E-01    2     1000024        25   # BR(~chi_2+ -> ~chi_1+  h )
     1.39796520E-07    2     1000022        37   # BR(~chi_2+ -> ~chi_10  H+)
#
#         PDG            Width
DECAY   1000022     0.00000000E+00   # neutralino1 decays
#
#         PDG            Width
DECAY   1000023     1.16884315E+00   # neutralino2 decays
#          BR         NDA      ID1       ID2
     5.62418953E-01    2     1000022        23   # BR(~chi_20 -> ~chi_10   Z )
     4.37581047E-01    2     1000022        25   # BR(~chi_20 -> ~chi_10   h )
#
#         PDG            Width
DECAY   1000025     1.18221406E+00   # neutralino3 decays
#          BR         NDA      ID1       ID2
     4.18949071E-01    2     1000022        23   # BR(~chi_30 -> ~chi_10   Z )
     5.81050929E-01    2     1000022        25   # BR(~chi_30 -> ~chi_10   h )
#
#         PDG            Width
DECAY   1000035     1.67457357E+01   # neutralino4 decays
#          BR         NDA      ID1       ID2
     1.47307984E-04    2     1000022        23   # BR(~chi_40 -> ~chi_10   Z )
     2.45195839E-02    2     1000023        23   # BR(~chi_40 -> ~chi_20   Z )
     2.27743266E-01    2     1000025        23   # BR(~chi_40 -> ~chi_30   Z )
     2.43946608E-01    2     1000024       -24   # BR(~chi_40 -> ~chi_1+   W-)
     2.43946608E-01    2    -1000024        24   # BR(~chi_40 -> ~chi_1-   W+)
     2.19440893E-04    2     1000022        25   # BR(~chi_40 -> ~chi_10   h )
     1.20429324E-07    2     1000022        35   # BR(~chi_40 -> ~chi_10   H )
     2.46721107E-08    2     1000022        36   # BR(~chi_40 -> ~chi_10   A )
     2.35133303E-01    2     1000023        25   # BR(~chi_40 -> ~chi_20   h )
     2.43437374E-02    2     1000025        25   # BR(~chi_40 -> ~chi_30   h )
#
#         PDG            Width
DECAY        25     4.03434748E-03   # h decays
#          BR         NDA      ID1       ID2
     6.08170186E-01    2           5        -5   # BR(h -> b       bb     )
     6.42433589E-02    2         -15        15   # BR(h -> tau+    tau-   )
     2.27445187E-04    2         -13        13   # BR(h -> mu+     mu-    )
     4.82228664E-04    2           3        -3   # BR(h -> s       sb     )
     2.08985075E-02    2           4        -4   # BR(h -> c       cb     )
     6.75123321E-02    2          21        21   # BR(h -> g       g      )
     2.31973577E-03    2          22        22   # BR(h -> gam     gam    )
     1.48918790E-03    2          22        23   # BR(h -> Z       gam    )
     2.09674610E-01    2          24       -24   # BR(h -> W+      W-     )
     2.49582645E-02    2          23        23   # BR(h -> Z       Z      )
     2.41428463E-05    2     1000022   1000022   # BR(h -> ~chi_10 ~chi_10)
#
#         PDG            Width
DECAY        35     6.71429393E+00   # H decays
#          BR         NDA      ID1       ID2
     4.88882717E-01    2           5        -5   # BR(H -> b       bb     )
     8.30017191E-02    2         -15        15   # BR(H -> tau+    tau-   )
     2.93500672E-04    2         -13        13   # BR(H -> mu+     mu-    )
     3.59786933E-04    2           3        -3   # BR(H -> s       sb     )
     2.01093196E-06    2           4        -4   # BR(H -> c       cb     )
     2.00908024E-01    2           6        -6   # BR(H -> t       tb     )
     6.66500328E-05    2          21        21   # BR(H -> g       g      )
     3.86764874E-07    2          22        22   # BR(H -> gam     gam    )
     1.18642309E-07    2          23        22   # BR(H -> Z       gam    )
     8.79136174E-05    2          24       -24   # BR(H -> W+      W-     )
     4.39011765E-05    2          23        23   # BR(H -> Z       Z      )
     3.36353880E-04    2          25        25   # BR(H -> h       h      )
    -9.39166632E-24    2          36        36   # BR(H -> A       A      )
     5.36408831E-19    2          23        36   # BR(H -> Z       A      )
     6.64346206E-04    2     1000022   1000022   # BR(H -> ~chi_10 ~chi_10)
     1.32729307E-01    2     1000022   1000023   # BR(H -> ~chi_10 ~chi_20)
     9.26232631E-02    2     1000022   1000025   # BR(H -> ~chi_10 ~chi_30)
#
#         PDG            Width
DECAY        36     6.71739458E+00   # A decays
#          BR         NDA      ID1       ID2
     4.88820432E-01    2           5        -5   # BR(A -> b       bb     )
     8.29658900E-02    2         -15        15   # BR(A -> tau+    tau-   )
     2.93373567E-04    2         -13        13   # BR(A -> mu+     mu-    )
     3.59893794E-04    2           3        -3   # BR(A -> s       sb     )
     2.01849454E-06    2           4        -4   # BR(A -> c       cb     )
     2.01552325E-01    2           6        -6   # BR(A -> t       tb     )
     1.99482426E-04    2          21        21   # BR(A -> g       g      )
     3.72499443E-07    2          22        22   # BR(A -> gam     gam    )
     2.41656197E-07    2          23        22   # BR(A -> Z       gam    )
     8.75417832E-05    2          23        25   # BR(A -> Z       h      )
     6.85540294E-04    2     1000022   1000022   # BR(A -> ~chi_10 ~chi_10)
     9.37011022E-02    2     1000022   1000023   # BR(A -> ~chi_10 ~chi_20)
     1.31331787E-01    2     1000022   1000025   # BR(A -> ~chi_10 ~chi_30)
#
#         PDG            Width
DECAY        37     6.71968544E+00   # H+ decays
#          BR         NDA      ID1       ID2
     7.86941991E-04    2           4        -5   # BR(H+ -> c       bb     )
     8.29617428E-02    2         -15        16   # BR(H+ -> tau+    nu_tau )
     2.93358902E-04    2         -13        14   # BR(H+ -> mu+     nu_mu  )
     5.03640312E-06    2           2        -5   # BR(H+ -> u       bb     )
     1.72136894E-05    2           2        -3   # BR(H+ -> u       sb     )
     3.55978862E-04    2           4        -3   # BR(H+ -> c       sb     )
     6.89096494E-01    2           6        -5   # BR(H+ -> t       bb     )
     8.76445587E-05    2          24        25   # BR(H+ -> W+      h      )
     9.92266056E-14    2          24        36   # BR(H+ -> W+      A      )
     2.26395589E-01    2     1000024   1000022   # BR(H+ -> ~chi_1+ ~chi_10)
