#
#                              ======================
#                              | THE SUSYHIT OUTPUT |
#                              ======================
#
#
#              ------------------------------------------------------
#              |     This is the output of the SUSY-HIT package     |
#              |  created by A.Djouadi, M.Muehlleitner and M.Spira. |
#              |  In case of problems with SUSY-HIT email to        |
#              |           margarete.muehlleitner@kit.edu           |
#              |           michael.spira@psi.ch                     |
#              |           abdelhak.djouadi@cern.ch                 |
#              ------------------------------------------------------
#
#              ------------------------------------------------------
#              |  SUSY Les Houches Accord - MSSM Spectrum + Decays  |
#              |              based on the decay programs           |
#              |                                                    |
#              |                     SDECAY 1.5                     |
#              |                                                    |
#              |  Authors: M.Muhlleitner, A.Djouadi and Y.Mambrini  |
#              |  Ref.:    Comput.Phys.Commun.168(2005)46           |
#              |           [hep-ph/0311167]                         |
#              |                                                    |
#              |                     HDECAY 3.4                     |
#              |                                                    |
#              |  By: A.Djouadi,J.Kalinowski,M.Muhlleitner,M.Spira  |
#              |  Ref.:    Comput.Phys.Commun.108(1998)56           |
#              |           [hep-ph/9704448]                         |
#              |                                                    |
#              |                                                    |
#              |  If not stated otherwise all DRbar couplings and   |
#              |  soft SUSY breaking masses are given at the scale  |
#              |  Q=  0.91187600E+02
#              |                                                    |
#              ------------------------------------------------------
#
#
BLOCK DCINFO  # Decay Program information
     1   SDECAY/HDECAY # decay calculator
     2   1.5  /3.4    # version number
#
BLOCK SPINFO  # Spectrum calculator information
     1   SuSpect     # RGE +Spectrum calculator            
     2   2.43         # version number                     
#
BLOCK MODSEL  # Model selection
     1     2   # GMSB                                              
#
BLOCK SMINPUTS  # Standard Model inputs
         1     1.27932904E+02   # alpha_em^-1(M_Z)^MSbar
         2     1.16639000E-05   # G_F [GeV^-2]
         3     1.17200000E-01   # alpha_S(M_Z)^MSbar
         4     9.11870000E+01   # M_Z pole mass
         5     4.25000000E+00   # mb(mb)^MSbar
         6     1.72900000E+02   # mt pole mass
         7     1.77700000E+00   # mtau pole mass
#
BLOCK MINPAR  # Input parameters - minimal models
#
BLOCK EXTPAR  # Input parameters - non-minimal models
         0     9.11876000E+01   # EWSB                
         1     1.28800000E+03   # M_1                 
         2     3.00000000E+03   # M_2                 
         3     1.30000000E+03   # M_3                 
        11     0.00000000E+00   # A_t                 
        12     0.00000000E+00   # A_b                 
        13     0.00000000E+00   # A_tau               
        14     0.00000000E+00   # A_u                 
        15     0.00000000E+00   # A_d                 
        16     0.00000000E+00   # A_e                 
        23     1.29000000E+03   # mu(EWSB)            
        25     1.50000000E+00   # tanbeta(in)         
        26     2.00000000E+03   # MA_pole             
        31     5.00000000E+03   # M_eL                
        32     5.00000000E+03   # M_muL               
        33     5.00000000E+03   # M_tauL              
        34     5.00000000E+03   # M_eR                
        35     5.00000000E+03   # M_muR               
        36     5.00000000E+03   # M_tauR              
        41     5.00000000E+03   # M_q1L               
        42     5.00000000E+03   # M_q2L               
        43     5.00000000E+03   # M_q3L               
        44     5.00000000E+03   # M_uR                
        45     5.00000000E+03   # M_cR                
        46     5.00000000E+03   # M_tR                
        47     5.00000000E+03   # M_dR                
        48     5.00000000E+03   # M_sR                
        49     5.00000000E+03   # M_bR                
#
BLOCK MASS  # Mass Spectrum
# PDG code           mass       particle
        24     8.05410955E+01   # W+
        25     1.26000000E+02   # h
        35     2.00401911E+03   # H
        36     2.00000000E+03   # A
        37     2.00150695E+03   # H+
         5     4.87877839E+00   # b-quark pole mass calculated from mb(mb)_Msbar
   1000001     5.00370330E+03   # ~d_L
   2000001     5.00359399E+03   # ~d_R
   1000002     5.00345891E+03   # ~u_L
   2000002     5.00351666E+03   # ~u_R
   1000003     5.00370330E+03   # ~s_L
   2000003     5.00359399E+03   # ~s_R
   1000004     5.00345891E+03   # ~c_L
   2000004     5.00351666E+03   # ~c_R
   1000005     5.00311795E+03   # ~b_1
   2000005     5.00418075E+03   # ~b_2
   1000006     5.12325877E+03   # ~t_1
   2000006     5.41674669E+03   # ~t_2
   1000011     5.00008219E+03   # ~e_L
   2000011     5.00007609E+03   # ~e_R
   1000012     4.99984171E+03   # ~nu_eL
   1000013     5.00008219E+03   # ~mu_L
   2000013     5.00007609E+03   # ~mu_R
   1000014     4.99984171E+03   # ~nu_muL
   1000015     4.99973533E+03   # ~tau_1
   2000015     5.00042357E+03   # ~tau_2
   1000016     4.99984171E+03   # ~nu_tauL
   1000021     1.42934045E+03   # ~g
   1000022     1.32453197E+03   # ~chi_10
   1000023    -1.37349408E+03   # ~chi_20
   1000025     1.41175094E+03   # ~chi_30
   1000035     3.12812580E+03   # ~chi_40
   1000024     1.37003996E+03   # ~chi_1+
   1000037     3.12812378E+03   # ~chi_2+
   1000039     1.00000000E-09   # ~gravitino
#
BLOCK NMIX  # Neutralino Mixing Matrix
  1  1     7.21907274E-01   # N_11
  1  2    -2.97569437E-02   # N_12
  1  3     4.90626248E-01   # N_13
  1  4    -4.87083460E-01   # N_14
  2  1     3.18619679E-03   # N_21
  2  2    -3.45001725E-03   # N_22
  2  3    -7.06994343E-01   # N_23
  2  4    -7.07203609E-01   # N_24
  3  1     6.91981577E-01   # N_31
  3  2     3.26630042E-02   # N_32
  3  3    -5.08542515E-01   # N_33
  3  4     5.11350307E-01   # N_34
  4  1     1.11054183E-03   # N_41
  4  2    -9.99017392E-01   # N_42
  4  3    -2.87992196E-02   # N_43
  4  4     3.36693007E-02   # N_44
#
BLOCK UMIX  # Chargino Mixing Matrix U
  1  1    -4.07016398E-02   # U_11
  1  2     9.99171345E-01   # U_12
  2  1     9.99171345E-01   # U_21
  2  2     4.07016398E-02   # U_22
#
BLOCK VMIX  # Chargino Mixing Matrix V
  1  1    -4.75899287E-02   # V_11
  1  2     9.98866957E-01   # V_12
  2  1     9.98866957E-01   # V_21
  2  2     4.75899287E-02   # V_22
#
BLOCK STOPMIX  # Stop Mixing Matrix
  1  1     9.99958879E-01   # cos(theta_t)
  1  2     9.06864428E-03   # sin(theta_t)
  2  1    -9.06864428E-03   # -sin(theta_t)
  2  2     9.99958879E-01   # cos(theta_t)
#
BLOCK SBOTMIX  # Sbottom Mixing Matrix
  1  1     6.69759586E-01   # cos(theta_b)
  1  2     7.42578007E-01   # sin(theta_b)
  2  1    -7.42578007E-01   # -sin(theta_b)
  2  2     6.69759586E-01   # cos(theta_b)
#
BLOCK STAUMIX  # Stau Mixing Matrix
  1  1     7.03965731E-01   # cos(theta_tau)
  1  2     7.10233940E-01   # sin(theta_tau)
  2  1    -7.10233940E-01   # -sin(theta_tau)
  2  2     7.03965731E-01   # cos(theta_tau)
#
BLOCK ALPHA  # Higgs mixing
          -5.90201576E-01   # Mixing angle in the neutral Higgs boson sector
#
BLOCK HMIX Q=  9.11876000E+01  # DRbar Higgs Parameters
         1     1.29000000E+03   # mu(Q)               
         2     1.49999979E+00   # tanbeta(Q)          
         3     2.52164506E+02   # vev(Q)              
         4     3.42192998E+06   # MA^2(Q)             
#
BLOCK GAUGE Q=  9.11876000E+01  # The gauge couplings
     1     3.52778653E-01   # gprime(Q) DRbar
     2     6.27148649E-01   # g(Q) DRbar
     3     1.08739694E+00   # g3(Q) DRbar
#
BLOCK AU Q=  9.11876000E+01  # The trilinear couplings
  1  1     0.00000000E+00   # A_u(Q) DRbar
  2  2     0.00000000E+00   # A_c(Q) DRbar
  3  3     0.00000000E+00   # A_t(Q) DRbar
#
BLOCK AD Q=  9.11876000E+01  # The trilinear couplings
  1  1     0.00000000E+00   # A_d(Q) DRbar
  2  2     0.00000000E+00   # A_s(Q) DRbar
  3  3     0.00000000E+00   # A_b(Q) DRbar
#
BLOCK AE Q=  9.11876000E+01  # The trilinear couplings
  1  1     0.00000000E+00   # A_e(Q) DRbar
  2  2     0.00000000E+00   # A_mu(Q) DRbar
  3  3     0.00000000E+00   # A_tau(Q) DRbar
#
BLOCK Yu Q=  9.11876000E+01  # The Yukawa couplings
  1  1     0.00000000E+00   # y_u(Q) DRbar
  2  2     0.00000000E+00   # y_c(Q) DRbar
  3  3     1.02508685E+00   # y_t(Q) DRbar
#
BLOCK Yd Q=  9.11876000E+01  # The Yukawa couplings
  1  1     0.00000000E+00   # y_d(Q) DRbar
  2  2     0.00000000E+00   # y_s(Q) DRbar
  3  3     2.71776416E-02   # y_b(Q) DRbar
#
BLOCK Ye Q=  9.11876000E+01  # The Yukawa couplings
  1  1     0.00000000E+00   # y_e(Q) DRbar
  2  2     0.00000000E+00   # y_mu(Q) DRbar
  3  3     1.79801091E-02   # y_tau(Q) DRbar
#
BLOCK MSOFT Q=  9.11876000E+01  # The soft SUSY breaking masses at the scale Q
         1     1.28800000E+03   # M_1                 
         2     3.00000000E+03   # M_2                 
         3     1.30000000E+03   # M_3                 
        14     0.00000000E+00   # A_u                 
        15     0.00000000E+00   # A_d                 
        16     0.00000000E+00   # A_e                 
        21     1.18326827E+06   # M^2_Hd              
        22    -7.02545729E+06   # M^2_Hu              
        31     5.00000000E+03   # M_eL                
        32     5.00000000E+03   # M_muL               
        33     5.00000000E+03   # M_tauL              
        34     5.00000000E+03   # M_eR                
        35     5.00000000E+03   # M_muR               
        36     5.00000000E+03   # M_tauR              
        41     5.00000000E+03   # M_q1L               
        42     5.00000000E+03   # M_q2L               
        43     5.00000000E+03   # M_q3L               
        44     5.00000000E+03   # M_uR                
        45     5.00000000E+03   # M_cR                
        46     5.00000000E+03   # M_tR                
        47     5.00000000E+03   # M_dR                
        48     5.00000000E+03   # M_sR                
        49     5.00000000E+03   # M_bR                
#
#
#
#                             =================
#                             |The decay table|
#                             =================
#
# - The QCD corrections to the decays gluino -> squark  + quark
#                                     squark -> gaugino + quark_prime
#                                     squark -> squark_prime + Higgs
#                                     squark -> gluino  + quark
#   are included.
#
# - The multi-body decays for the inos, stops and sbottoms are included.
#
# - The loop induced decays for the gluino, neutralinos and stops
#   are included.
#
# - The SUSY decays of the top quark are included.
#
# - Possible decays of the NLSP in GMSB models are included.
#
#
#         PDG            Width
DECAY         6     1.37036865E+00   # top decays
#          BR         NDA      ID1       ID2
     1.00000000E+00    2           5        24   # BR(t ->  b    W+)
#
#         PDG            Width
DECAY   1000021     6.88762624E-06   # gluino decays
#          BR         NDA      ID1       ID2
     1.96349792E-03    2     1000022        21   # BR(~g -> ~chi_10 g)
     6.65199031E-04    2     1000023        21   # BR(~g -> ~chi_20 g)
     1.12744245E-05    2     1000025        21   # BR(~g -> ~chi_30 g)
#          BR         NDA      ID1       ID2
0.0E+00    2     1000039    21 # BR(~g -> ~G      g)
#           BR         NDA      ID1       ID2       ID3
     1.44346173E-05    3     1000022         1        -1   # BR(~g -> ~chi_10 d  db)
     3.88639080E-11    3     1000023         1        -1   # BR(~g -> ~chi_20 d  db)
     1.62962942E-09    3     1000025         1        -1   # BR(~g -> ~chi_30 d  db)
     4.36884801E-05    3     1000022         2        -2   # BR(~g -> ~chi_10 u  ub)
     3.02246335E-11    3     1000023         2        -2   # BR(~g -> ~chi_20 u  ub)
     6.27862067E-09    3     1000025         2        -2   # BR(~g -> ~chi_30 u  ub)
     1.44346173E-05    3     1000022         3        -3   # BR(~g -> ~chi_10 s  sb)
     3.88639080E-11    3     1000023         3        -3   # BR(~g -> ~chi_20 s  sb)
     1.62962942E-09    3     1000025         3        -3   # BR(~g -> ~chi_30 s  sb)
     4.36884801E-05    3     1000022         4        -4   # BR(~g -> ~chi_10 c  cb)
     3.02246335E-11    3     1000023         4        -4   # BR(~g -> ~chi_20 c  cb)
     6.27862067E-09    3     1000025         4        -4   # BR(~g -> ~chi_30 c  cb)
     1.37869564E-05    3     1000022         5        -5   # BR(~g -> ~chi_10 b  bb)
     2.25502905E-08    3     1000023         5        -5   # BR(~g -> ~chi_20 b  bb)
     9.17221113E-10    3     1000025         5        -5   # BR(~g -> ~chi_30 b  bb)
     3.43594042E-08    3     1000024         1        -2   # BR(~g -> ~chi_1+ d  ub)
     3.43594042E-08    3    -1000024         2        -1   # BR(~g -> ~chi_1- u  db)
     3.43594042E-08    3     1000024         3        -4   # BR(~g -> ~chi_1+ s  cb)
     3.43594042E-08    3    -1000024         4        -3   # BR(~g -> ~chi_1- c  sb)
#
#         PDG            Width
DECAY   1000006     3.15089504E+02   # stop1 decays
#          BR         NDA      ID1       ID2
     4.83029622E-02    2     1000022         6   # BR(~t_1 -> ~chi_10 t )
     1.00373859E-01    2     1000023         6   # BR(~t_1 -> ~chi_20 t )
     5.37650547E-02    2     1000025         6   # BR(~t_1 -> ~chi_30 t )
     2.44244845E-02    2     1000035         6   # BR(~t_1 -> ~chi_40 t )
     8.71096638E-05    2     1000024         5   # BR(~t_1 -> ~chi_1+ b )
     4.84685866E-02    2     1000037         5   # BR(~t_1 -> ~chi_2+ b )
     7.13382888E-01    2     1000021         6   # BR(~t_1 -> ~g      t )
     5.15620240E-03    2     1000005        24   # BR(~t_1 -> ~b_1    W+)
     6.03885287E-03    2     2000005        24   # BR(~t_1 -> ~b_2    W+)
#
#         PDG            Width
DECAY   2000006     3.85484637E+02   # stop2 decays
#          BR         NDA      ID1       ID2
     5.60467077E-02    2     1000022         6   # BR(~t_2 -> ~chi_10 t )
     8.85433293E-02    2     1000023         6   # BR(~t_2 -> ~chi_20 t )
     5.84563953E-02    2     1000025         6   # BR(~t_2 -> ~chi_30 t )
     4.62326022E-05    2     1000035         6   # BR(~t_2 -> ~chi_40 t )
     1.77353682E-01    2     1000024         5   # BR(~t_2 -> ~chi_1+ b )
     9.32278718E-05    2     1000037         5   # BR(~t_2 -> ~chi_2+ b )
     6.19389798E-01    2     1000021         6   # BR(~t_2 -> ~g      t )
    -1.47851220E-05    2     1000006        25   # BR(~t_2 -> ~t_1    h )
     1.19497054E-05    2     1000006        23   # BR(~t_2 -> ~t_1    Z )
     3.31159163E-05    2     1000005        24   # BR(~t_2 -> ~b_1    W+)
     4.03473156E-05    2     2000005        24   # BR(~t_2 -> ~b_2    W+)
#
#         PDG            Width
DECAY   1000005     2.55567721E+02   # sbottom1 decays
#          BR         NDA      ID1       ID2
     4.19293952E-03    2     1000022         5   # BR(~b_1 -> ~chi_10 b )
     7.33722112E-05    2     1000023         5   # BR(~b_1 -> ~chi_20 b )
     2.13378462E-03    2     1000025         5   # BR(~b_1 -> ~chi_30 b )
     1.16277854E-02    2     1000035         5   # BR(~b_1 -> ~chi_40 b )
     9.95758664E-02    2    -1000024         6   # BR(~b_1 -> ~chi_1- t )
     2.34385050E-02    2    -1000037         6   # BR(~b_1 -> ~chi_2- t )
     8.58957747E-01    2     1000021         5   # BR(~b_1 -> ~g      b )
#
#         PDG            Width
DECAY   2000005     2.68920096E+02   # sbottom2 decays
#          BR         NDA      ID1       ID2
     2.21081327E-03    2     1000022         5   # BR(~b_2 -> ~chi_10 b )
     9.29371880E-05    2     1000023         5   # BR(~b_2 -> ~chi_20 b )
     2.63040742E-03    2     1000025         5   # BR(~b_2 -> ~chi_30 b )
     1.50933462E-02    2     1000035         5   # BR(~b_2 -> ~chi_40 b )
     1.33444724E-01    2    -1000024         6   # BR(~b_2 -> ~chi_1- t )
     3.04296118E-02    2    -1000037         6   # BR(~b_2 -> ~chi_2- t )
     8.16098160E-01    2     1000021         5   # BR(~b_2 -> ~g      b )
#
#         PDG            Width
DECAY   1000002     2.41233173E+02   # sup_L decays
#          BR         NDA      ID1       ID2
     7.56304321E-04    2     1000022         2   # BR(~u_L -> ~chi_10 u)
     5.45600668E-07    2     1000023         2   # BR(~u_L -> ~chi_20 u)
     1.75236566E-03    2     1000025         2   # BR(~u_L -> ~chi_30 u)
     2.91142520E-02    2     1000035         2   # BR(~u_L -> ~chi_40 u)
     3.03956273E-04    2     1000024         1   # BR(~u_L -> ~chi_1+ d)
     5.82353387E-02    2     1000037         1   # BR(~u_L -> ~chi_2+ d)
     9.09837237E-01    2     1000021         2   # BR(~u_L -> ~g      u)
#
#         PDG            Width
DECAY   2000002     2.28599328E+02   # sup_R decays
#          BR         NDA      ID1       ID2
     2.09803141E-02    2     1000022         2   # BR(~u_R -> ~chi_10 u)
     4.04064238E-07    2     1000023         2   # BR(~u_R -> ~chi_20 u)
     1.88836427E-02    2     1000025         2   # BR(~u_R -> ~chi_30 u)
     2.13664014E-08    2     1000035         2   # BR(~u_R -> ~chi_40 u)
     9.60135618E-01    2     1000021         2   # BR(~u_R -> ~g      u)
#
#         PDG            Width
DECAY   1000001     2.41238172E+02   # sdown_L decays
#          BR         NDA      ID1       ID2
     1.84903046E-03    2     1000022         1   # BR(~d_L -> ~chi_10 d)
     1.09843873E-06    2     1000023         1   # BR(~d_L -> ~chi_20 d)
     6.26213498E-04    2     1000025         1   # BR(~d_L -> ~chi_30 d)
     2.91429781E-02    2     1000035         1   # BR(~d_L -> ~chi_40 d)
     2.22343262E-04    2    -1000024         2   # BR(~d_L -> ~chi_1- u)
     5.82797201E-02    2    -1000037         2   # BR(~d_L -> ~chi_2- u)
     9.09878616E-01    2     1000021         1   # BR(~d_L -> ~g      d)
#
#         PDG            Width
DECAY   2000001     2.21769244E+02   # sdown_R decays
#          BR         NDA      ID1       ID2
     5.40672629E-03    2     1000022         1   # BR(~d_R -> ~chi_10 d)
     1.04129307E-07    2     1000023         1   # BR(~d_R -> ~chi_20 d)
     4.86640749E-03    2     1000025         1   # BR(~d_R -> ~chi_30 d)
     5.50641350E-09    2     1000035         1   # BR(~d_R -> ~chi_40 d)
     9.89726757E-01    2     1000021         1   # BR(~d_R -> ~g      d)
#
#         PDG            Width
DECAY   1000004     2.41233173E+02   # scharm_L decays
#          BR         NDA      ID1       ID2
     7.56304321E-04    2     1000022         4   # BR(~c_L -> ~chi_10 c)
     5.45600668E-07    2     1000023         4   # BR(~c_L -> ~chi_20 c)
     1.75236566E-03    2     1000025         4   # BR(~c_L -> ~chi_30 c)
     2.91142520E-02    2     1000035         4   # BR(~c_L -> ~chi_40 c)
     3.03956273E-04    2     1000024         3   # BR(~c_L -> ~chi_1+ s)
     5.82353387E-02    2     1000037         3   # BR(~c_L -> ~chi_2+ s)
     9.09837237E-01    2     1000021         4   # BR(~c_L -> ~g      c)
#
#         PDG            Width
DECAY   2000004     2.28599328E+02   # scharm_R decays
#          BR         NDA      ID1       ID2
     2.09803141E-02    2     1000022         4   # BR(~c_R -> ~chi_10 c)
     4.04064238E-07    2     1000023         4   # BR(~c_R -> ~chi_20 c)
     1.88836427E-02    2     1000025         4   # BR(~c_R -> ~chi_30 c)
     2.13664014E-08    2     1000035         4   # BR(~c_R -> ~chi_40 c)
     9.60135618E-01    2     1000021         4   # BR(~c_R -> ~g      c)
#
#         PDG            Width
DECAY   1000003     2.41238172E+02   # sstrange_L decays
#          BR         NDA      ID1       ID2
     1.84903046E-03    2     1000022         3   # BR(~s_L -> ~chi_10 s)
     1.09843873E-06    2     1000023         3   # BR(~s_L -> ~chi_20 s)
     6.26213498E-04    2     1000025         3   # BR(~s_L -> ~chi_30 s)
     2.91429781E-02    2     1000035         3   # BR(~s_L -> ~chi_40 s)
     2.22343262E-04    2    -1000024         4   # BR(~s_L -> ~chi_1- c)
     5.82797201E-02    2    -1000037         4   # BR(~s_L -> ~chi_2- c)
     9.09878616E-01    2     1000021         3   # BR(~s_L -> ~g      s)
#
#         PDG            Width
DECAY   2000003     2.21769244E+02   # sstrange_R decays
#          BR         NDA      ID1       ID2
     5.40672629E-03    2     1000022         3   # BR(~s_R -> ~chi_10 s)
     1.04129307E-07    2     1000023         3   # BR(~s_R -> ~chi_20 s)
     4.86640749E-03    2     1000025         3   # BR(~s_R -> ~chi_30 s)
     5.50641350E-09    2     1000035         3   # BR(~s_R -> ~chi_40 s)
     9.89726757E-01    2     1000021         3   # BR(~s_R -> ~g      s)
#
#         PDG            Width
DECAY   1000011     2.70902670E+01   # selectron_L decays
#          BR         NDA      ID1       ID2
     8.84167137E-02    2     1000022        11   # BR(~e_L -> ~chi_10 e-)
     1.69626538E-06    2     1000023        11   # BR(~e_L -> ~chi_20 e-)
     1.08864806E-01    2     1000025        11   # BR(~e_L -> ~chi_30 e-)
     2.66612360E-01    2     1000035        11   # BR(~e_L -> ~chi_40 e-)
     2.04677027E-03    2    -1000024        12   # BR(~e_L -> ~chi_1- nu_e)
     5.34057654E-01    2    -1000037        12   # BR(~e_L -> ~chi_2- nu_e)
#
#         PDG            Width
DECAY   2000011     2.11970846E+01   # selectron_R decays
#          BR         NDA      ID1       ID2
     5.26298476E-01    2     1000022        11   # BR(~e_R -> ~chi_10 e-)
     1.01359510E-05    2     1000023        11   # BR(~e_R -> ~chi_20 e-)
     4.73690855E-01    2     1000025        11   # BR(~e_R -> ~chi_30 e-)
     5.33588170E-07    2     1000035        11   # BR(~e_R -> ~chi_40 e-)
#
#         PDG            Width
DECAY   1000013     2.70902670E+01   # smuon_L decays
#          BR         NDA      ID1       ID2
     8.84167137E-02    2     1000022        13   # BR(~mu_L -> ~chi_10 mu-)
     1.69626538E-06    2     1000023        13   # BR(~mu_L -> ~chi_20 mu-)
     1.08864806E-01    2     1000025        13   # BR(~mu_L -> ~chi_30 mu-)
     2.66612360E-01    2     1000035        13   # BR(~mu_L -> ~chi_40 mu-)
     2.04677027E-03    2    -1000024        14   # BR(~mu_L -> ~chi_1- nu_mu)
     5.34057654E-01    2    -1000037        14   # BR(~mu_L -> ~chi_2- nu_mu)
#
#         PDG            Width
DECAY   2000013     2.11970846E+01   # smuon_R decays
#          BR         NDA      ID1       ID2
     5.26298476E-01    2     1000022        13   # BR(~mu_R -> ~chi_10 mu-)
     1.01359510E-05    2     1000023        13   # BR(~mu_R -> ~chi_20 mu-)
     4.73690855E-01    2     1000025        13   # BR(~mu_R -> ~chi_30 mu-)
     5.33588170E-07    2     1000035        13   # BR(~mu_R -> ~chi_40 mu-)
#
#         PDG            Width
DECAY   1000015     2.41968279E+01   # stau_1 decays
#          BR         NDA      ID1       ID2
     2.87978102E-01    2     1000022        15   # BR(~tau_1 -> ~chi_10  tau-)
     4.69465844E-04    2     1000023        15   # BR(~tau_1 -> ~chi_20  tau-)
     2.65006240E-01    2     1000025        15   # BR(~tau_1 -> ~chi_30  tau-)
     1.47538265E-01    2     1000035        15   # BR(~tau_1 -> ~chi_40  tau-)
     3.32057824E-03    2    -1000024        16   # BR(~tau_1 -> ~chi_1-  nu_tau)
     2.95538699E-01    2    -1000037        16   # BR(~tau_1 -> ~chi_2-  nu_tau)
     1.48649360E-04    2     1000039        15   # BR(~tau_1 -> ~G       tau-)
#
#         PDG            Width
DECAY   2000015     2.41765785E+01   # stau_2 decays
#          BR         NDA      ID1       ID2
     2.72841171E-01    2     1000022        15   # BR(~tau_2 -> ~chi_10  tau-)
     6.77516991E-04    2     1000023        15   # BR(~tau_2 -> ~chi_20  tau-)
     2.72656091E-01    2     1000025        15   # BR(~tau_2 -> ~chi_30  tau-)
     1.51083673E-01    2     1000035        15   # BR(~tau_2 -> ~chi_40  tau-)
     1.05809129E-04    2    -1000024        16   # BR(~tau_2 -> ~chi_1-  nu_tau)
     3.02635738E-01    2    -1000037        16   # BR(~tau_2 -> ~chi_2-  nu_tau)
#
#         PDG            Width
DECAY   1000012     2.70911716E+01   # snu_eL decays
#          BR         NDA      ID1       ID2
     1.18581959E-01    2     1000022        12   # BR(~nu_eL -> ~chi_10 nu_e)
     1.69613079E-05    2     1000023        12   # BR(~nu_eL -> ~chi_20 nu_e)
     7.77551717E-02    2     1000025        12   # BR(~nu_eL -> ~chi_30 nu_e)
     2.67225208E-01    2     1000035        12   # BR(~nu_eL -> ~chi_40 nu_e)
     2.79790667E-03    2     1000024        11   # BR(~nu_eL -> ~chi_1+ e-)
     5.33622793E-01    2     1000037        11   # BR(~nu_eL -> ~chi_2+ e-)
#
#         PDG            Width
DECAY   1000014     2.70911716E+01   # snu_muL decays
#          BR         NDA      ID1       ID2
     1.18581959E-01    2     1000022        14   # BR(~nu_muL -> ~chi_10 nu_mu)
     1.69613079E-05    2     1000023        14   # BR(~nu_muL -> ~chi_20 nu_mu)
     7.77551717E-02    2     1000025        14   # BR(~nu_muL -> ~chi_30 nu_mu)
     2.67225208E-01    2     1000035        14   # BR(~nu_muL -> ~chi_40 nu_mu)
     2.79790667E-03    2     1000024        13   # BR(~nu_muL -> ~chi_1+ mu-)
     5.33622793E-01    2     1000037        13   # BR(~nu_muL -> ~chi_2+ mu-)
#
#         PDG            Width
DECAY   1000016     2.71186503E+01   # snu_tauL decays
#          BR         NDA      ID1       ID2
     1.18461803E-01    2     1000022        16   # BR(~nu_tauL -> ~chi_10 nu_tau)
     1.69441214E-05    2     1000023        16   # BR(~nu_tauL -> ~chi_20 nu_tau)
     7.76763842E-02    2     1000025        16   # BR(~nu_tauL -> ~chi_30 nu_tau)
     2.66954435E-01    2     1000035        16   # BR(~nu_tauL -> ~chi_40 nu_tau)
     3.80707500E-03    2     1000024        15   # BR(~nu_tauL -> ~chi_1+ tau-)
     5.33083359E-01    2     1000037        15   # BR(~nu_tauL -> ~chi_2+ tau-)
#
#         PDG            Width
DECAY   1000024     1.24971042E-04   # chargino1+ decays
#          BR         NDA      ID1       ID2
     2.19794532E-02    2     1000039        24   # BR(~chi_1+ -> ~G       W+)
#           BR         NDA      ID1       ID2       ID3
     3.26279070E-01    3     1000022         2        -1   # BR(~chi_1+ -> ~chi_10 u    db)
     3.26279070E-01    3     1000022         4        -3   # BR(~chi_1+ -> ~chi_10 c    sb)
     1.08759816E-01    3     1000022       -11        12   # BR(~chi_1+ -> ~chi_10 e+   nu_e)
     1.08759816E-01    3     1000022       -13        14   # BR(~chi_1+ -> ~chi_10 mu+  nu_mu)
     1.07942775E-01    3     1000022       -15        16   # BR(~chi_1+ -> ~chi_10 tau+ nu_tau)
#
#         PDG            Width
DECAY   1000037     3.85519539E+01   # chargino2+ decays
#          BR         NDA      ID1       ID2
     2.53124244E-01    2     1000024        23   # BR(~chi_2+ -> ~chi_1+  Z )
     1.11296060E-01    2     1000022        24   # BR(~chi_2+ -> ~chi_10  W+)
     2.46273320E-01    2     1000023        24   # BR(~chi_2+ -> ~chi_20  W+)
     1.35449528E-01    2     1000025        24   # BR(~chi_2+ -> ~chi_30  W+)
     2.53847933E-01    2     1000024        25   # BR(~chi_2+ -> ~chi_1+  h )
     8.91343041E-06    2     1000039        24   # BR(~chi_2+ -> ~G       W+)
     1.00324488E-09    2     1000039        37   # BR(~chi_2+ -> ~G       H+)
#
#         PDG            Width
DECAY   1000022    1.0E-05    # neutralino1 decays
#          BR         NDA      ID1       ID2
     5.01772227E-01    2     1000039        22   # BR(~chi_10 -> ~G        gam)
     4.87129941E-01    2     1000039        23   # BR(~chi_10 -> ~G        Z)
     1.10978320E-02    2     1000039        25   # BR(~chi_10 -> ~G        h)
#
#         PDG            Width
DECAY   1000023     1.45587880E-04   # neutralino2 decays
#          BR         NDA      ID1       ID2
     7.69472460E-04    2     1000022        22   # BR(~chi_20 -> ~chi_10 gam)
#          BR         NDA      ID1       ID2
     4.55514903E-08    2     1000039        22   # BR(~chi_20 -> ~G        gam)
     7.32185228E-04    2     1000039        23   # BR(~chi_20 -> ~G        Z)
     1.79823361E-02    2     1000039        25   # BR(~chi_20 -> ~G        h)
#           BR         NDA      ID1       ID2       ID3
     1.16333087E-01    3     1000022        -2         2   # BR(~chi_20 -> ~chi_10 ub      u)
     1.50631838E-01    3     1000022        -1         1   # BR(~chi_20 -> ~chi_10 db      d)
     1.16333087E-01    3     1000022        -4         4   # BR(~chi_20 -> ~chi_10 cb      c)
     1.50631838E-01    3     1000022        -3         3   # BR(~chi_20 -> ~chi_10 sb      s)
     1.37614188E-01    3     1000022        -5         5   # BR(~chi_20 -> ~chi_10 bb      b)
     3.44008843E-02    3     1000022       -11        11   # BR(~chi_20 -> ~chi_10 e+      e-)
     3.44008843E-02    3     1000022       -13        13   # BR(~chi_20 -> ~chi_10 mu+     mu-)
     3.40635227E-02    3     1000022       -15        15   # BR(~chi_20 -> ~chi_10 tau+    tau-)
     6.86999214E-02    3     1000022       -12        12   # BR(~chi_20 -> ~chi_10 nu_eb   nu_e)
     6.86999214E-02    3     1000022       -14        14   # BR(~chi_20 -> ~chi_10 nu_mub  nu_mu)
     6.86999214E-02    3     1000022       -16        16   # BR(~chi_20 -> ~chi_10 nu_taub nu_tau)
     1.24551991E-06    3     1000024        -2         1   # BR(~chi_20 -> ~chi_1+ ub      d)
     1.24551991E-06    3    -1000024        -1         2   # BR(~chi_20 -> ~chi_1- db      u)
     1.24551991E-06    3     1000024        -4         3   # BR(~chi_20 -> ~chi_1+ cb      s)
     1.24551991E-06    3    -1000024        -3         4   # BR(~chi_20 -> ~chi_1- sb      c)
     4.15173327E-07    3     1000024       -12        11   # BR(~chi_20 -> ~chi_1+ nu_eb   e-)
     4.15173327E-07    3    -1000024        12       -11   # BR(~chi_20 -> ~chi_1- nu_e    e+)
     4.15173327E-07    3     1000024       -14        13   # BR(~chi_20 -> ~chi_1+ nu_mub  mu-)
     4.15173327E-07    3    -1000024        14       -13   # BR(~chi_20 -> ~chi_1- nu_mu   mu+)
     1.12260220E-07    3     1000024       -16        15   # BR(~chi_20 -> ~chi_1+ nu_taub tau-)
     1.12260220E-07    3    -1000024        16       -15   # BR(~chi_20 -> ~chi_1- nu_tau  tau+)
#
#         PDG            Width
DECAY   1000025     2.13530675E-04   # neutralino3 decays
#          BR         NDA      ID1       ID2
     3.94196030E-04    2     1000022        22   # BR(~chi_30 -> ~chi_10 gam)
     8.86792122E-06    2     1000023        22   # BR(~chi_30 -> ~chi_20 gam)
#          BR         NDA      ID1       ID2
     1.15897198E-02    2     1000039        22   # BR(~chi_30 -> ~G        gam)
     1.03150006E-02    2     1000039        23   # BR(~chi_30 -> ~G        Z)
     2.94513388E-04    2     1000039        25   # BR(~chi_30 -> ~G        h)
#           BR         NDA      ID1       ID2       ID3
     1.13888764E-05    3     1000022        -2         2   # BR(~chi_30 -> ~chi_10 ub      u)
     1.35671815E-05    3     1000022        -1         1   # BR(~chi_30 -> ~chi_10 db      d)
     1.13888764E-05    3     1000022        -4         4   # BR(~chi_30 -> ~chi_10 cb      c)
     1.35671815E-05    3     1000022        -3         3   # BR(~chi_30 -> ~chi_10 sb      s)
     2.68780404E-05    3     1000022        -5         5   # BR(~chi_30 -> ~chi_10 bb      b)
     2.37236038E-06    3     1000022       -11        11   # BR(~chi_30 -> ~chi_10 e+      e-)
     2.37236038E-06    3     1000022       -13        13   # BR(~chi_30 -> ~chi_10 mu+     mu-)
     4.41121402E-06    3     1000022       -15        15   # BR(~chi_30 -> ~chi_10 tau+    tau-)
     6.63243693E-06    3     1000022       -12        12   # BR(~chi_30 -> ~chi_10 nu_eb   nu_e)
     6.63243693E-06    3     1000022       -14        14   # BR(~chi_30 -> ~chi_10 nu_mub  nu_mu)
     6.63243693E-06    3     1000022       -16        16   # BR(~chi_30 -> ~chi_10 nu_taub nu_tau)
     2.35446373E-02    3     1000023        -2         2   # BR(~chi_30 -> ~chi_20 ub      u)
     3.04863976E-02    3     1000023        -1         1   # BR(~chi_30 -> ~chi_20 db      d)
     2.35446373E-02    3     1000023        -4         4   # BR(~chi_30 -> ~chi_20 cb      c)
     3.04863976E-02    3     1000023        -3         3   # BR(~chi_30 -> ~chi_20 sb      s)
     2.63792207E-02    3     1000023        -5         5   # BR(~chi_30 -> ~chi_20 bb      b)
     6.96241325E-03    3     1000023       -11        11   # BR(~chi_30 -> ~chi_20 e+      e-)
     6.96241325E-03    3     1000023       -13        13   # BR(~chi_30 -> ~chi_20 mu+     mu-)
     6.86379391E-03    3     1000023       -15        15   # BR(~chi_30 -> ~chi_20 tau+    tau-)
     1.39041312E-02    3     1000023       -12        12   # BR(~chi_30 -> ~chi_20 nu_eb   nu_e)
     1.39041312E-02    3     1000023       -14        14   # BR(~chi_30 -> ~chi_20 nu_mub  nu_mu)
     1.39041312E-02    3     1000023       -16        16   # BR(~chi_30 -> ~chi_20 nu_taub nu_tau)
     1.30187968E-01    3     1000024        -2         1   # BR(~chi_30 -> ~chi_1+ ub      d)
     1.30187968E-01    3    -1000024        -1         2   # BR(~chi_30 -> ~chi_1- db      u)
     1.30187968E-01    3     1000024        -4         3   # BR(~chi_30 -> ~chi_1+ cb      s)
     1.30187968E-01    3    -1000024        -3         4   # BR(~chi_30 -> ~chi_1- sb      c)
     4.33959275E-02    3     1000024       -12        11   # BR(~chi_30 -> ~chi_1+ nu_eb   e-)
     4.33959275E-02    3    -1000024        12       -11   # BR(~chi_30 -> ~chi_1- nu_e    e+)
     4.33959275E-02    3     1000024       -14        13   # BR(~chi_30 -> ~chi_1+ nu_mub  mu-)
     4.33959275E-02    3    -1000024        14       -13   # BR(~chi_30 -> ~chi_1- nu_mu   mu+)
     4.30069866E-02    3     1000024       -16        15   # BR(~chi_30 -> ~chi_1+ nu_taub tau-)
     4.30069866E-02    3    -1000024        16       -15   # BR(~chi_30 -> ~chi_1- nu_tau  tau+)
#
#         PDG            Width
DECAY   1000035     3.85521840E+01   # neutralino4 decays
#          BR         NDA      ID1       ID2
     7.02726527E-04    2     1000022        23   # BR(~chi_40 -> ~chi_10   Z )
     2.51476142E-01    2     1000023        23   # BR(~chi_40 -> ~chi_20   Z )
     8.23826502E-04    2     1000025        23   # BR(~chi_40 -> ~chi_30   Z )
     2.46388250E-01    2     1000024       -24   # BR(~chi_40 -> ~chi_1+   W-)
     2.46388250E-01    2    -1000024        24   # BR(~chi_40 -> ~chi_1-   W+)
     1.13967117E-01    2     1000022        25   # BR(~chi_40 -> ~chi_10   h )
     1.50179965E-03    2     1000023        25   # BR(~chi_40 -> ~chi_20   h )
     1.38742973E-01    2     1000025        25   # BR(~chi_40 -> ~chi_30   h )
     2.13723222E-06    2     1000039        22   # BR(~chi_40 -> ~G        gam)
     6.77525506E-06    2     1000039        23   # BR(~chi_40 -> ~G        Z)
     6.34068762E-10    2     1000039        25   # BR(~chi_40 -> ~G        h)
     9.83610179E-10    2     1000039        35   # BR(~chi_40 -> ~G        H)
     1.52677397E-11    2     1000039        36   # BR(~chi_40 -> ~G        A)
#
#         PDG            Width
DECAY        25     4.21897737E-03   # h decays
#          BR         NDA      ID1       ID2
     6.01937742E-01    2           5        -5   # BR(h -> b       bb     )
     6.22295626E-02    2         -15        15   # BR(h -> tau+    tau-   )
     2.20265522E-04    2         -13        13   # BR(h -> mu+     mu-    )
     4.66039274E-04    2           3        -3   # BR(h -> s       sb     )
     2.01059044E-02    2           4        -4   # BR(h -> c       cb     )
     6.63981933E-02    2          21        21   # BR(h -> g       g      )
     2.30687686E-03    2          22        22   # BR(h -> gam     gam    )
     1.62639842E-03    2          22        23   # BR(h -> Z       gam    )
     2.16632184E-01    2          24       -24   # BR(h -> W+      W-     )
     2.80768337E-02    2          23        23   # BR(h -> Z       Z      )
#
#         PDG            Width
DECAY        35     3.78102520E+01   # H decays
#          BR         NDA      ID1       ID2
     1.47103035E-03    2           5        -5   # BR(H -> b       bb     )
     2.46428016E-04    2         -15        15   # BR(H -> tau+    tau-   )
     8.71214784E-07    2         -13        13   # BR(H -> mu+     mu-    )
     1.11547255E-06    2           3        -3   # BR(H -> s       sb     )
     1.00668068E-05    2           4        -4   # BR(H -> c       cb     )
     9.96064224E-01    2           6        -6   # BR(H -> t       tb     )
     7.97768079E-04    2          21        21   # BR(H -> g       g      )
     2.71298659E-06    2          22        22   # BR(H -> gam     gam    )
     1.16003019E-06    2          23        22   # BR(H -> Z       gam    )
     3.34494849E-04    2          24       -24   # BR(H -> W+      W-     )
     1.66791255E-04    2          23        23   # BR(H -> Z       Z      )
     9.03336728E-04    2          25        25   # BR(H -> h       h      )
     7.53405159E-24    2          36        36   # BR(H -> A       A      )
     2.99280463E-11    2          23        36   # BR(H -> Z       A      )
     6.95726479E-12    2          24       -37   # BR(H -> W+      H-     )
     6.95726479E-12    2         -24        37   # BR(H -> W-      H+     )
#
#         PDG            Width
DECAY        36     3.82382245E+01   # A decays
#          BR         NDA      ID1       ID2
     1.47392721E-03    2           5        -5   # BR(A -> b       bb     )
     2.43897736E-04    2         -15        15   # BR(A -> tau+    tau-   )
     8.62266603E-07    2         -13        13   # BR(A -> mu+     mu-    )
     1.13677403E-06    2           3        -3   # BR(A -> s       sb     )
     9.96176547E-06    2           4        -4   # BR(A -> c       cb     )
     9.96996056E-01    2           6        -6   # BR(A -> t       tb     )
     9.43675708E-04    2          21        21   # BR(A -> g       g      )
     3.16631892E-06    2          22        22   # BR(A -> gam     gam    )
     1.35260072E-06    2          23        22   # BR(A -> Z       gam    )
     3.25963769E-04    2          23        25   # BR(A -> Z       h      )
#
#         PDG            Width
DECAY        37     3.74472298E+01   # H+ decays
#          BR         NDA      ID1       ID2
     2.36409660E-06    2           4        -5   # BR(H+ -> c       bb     )
     2.49237221E-04    2         -15        16   # BR(H+ -> tau+    nu_tau )
     8.81143609E-07    2         -13        14   # BR(H+ -> mu+     nu_mu  )
     1.50303321E-08    2           2        -5   # BR(H+ -> u       bb     )
     5.45693586E-08    2           2        -3   # BR(H+ -> u       sb     )
     1.08731517E-05    2           4        -3   # BR(H+ -> c       sb     )
     9.99402500E-01    2           6        -5   # BR(H+ -> t       bb     )
     3.34074649E-04    2          24        25   # BR(H+ -> W+      h      )
     2.72916638E-13    2          24        36   # BR(H+ -> W+      A      )
