#
#                              ======================
#                              | THE SUSYHIT OUTPUT |
#                              ======================
#
#
#              ------------------------------------------------------
#              |     This is the output of the SUSY-HIT package     |
#              |  created by A.Djouadi, M.Muehlleitner and M.Spira. |
#              |  In case of problems with SUSY-HIT email to        |
#              |           margarete.muehlleitner@cern.ch           |
#              |           michael.spira@psi.ch                     |
#              |           abdelhak.djouadi@cern.ch                 |
#              ------------------------------------------------------
#
#              ------------------------------------------------------
#              |  SUSY Les Houches Accord - MSSM Spectrum + Decays  |
#              |              based on the decay programs           |
#              |                                                    |
#              |                     SDECAY 1.3b                    |
#              |                                                    |
#              |  Authors: M.Muhlleitner, A.Djouadi and Y.Mambrini  |
#              |  Ref.:    Comput.Phys.Commun.168(2005)46           |
#              |           [hep-ph/0311167]                         |
#              |                                                    |
#              |                     HDECAY 3.4                     |
#              |                                                    |
#              |  By: A.Djouadi,J.Kalinowski,M.Muhlleitner,M.Spira  |
#              |  Ref.:    Comput.Phys.Commun.108(1998)56           |
#              |           [hep-ph/9704448]                         |
#              |                                                    |
#              |                                                    |
#              |  If not stated otherwise all DRbar couplings and   |
#              |  soft SUSY breaking masses are given at the scale  |
#              |  Q=  0.50007323E+04
#              |                                                    |
#              ------------------------------------------------------
#
#
BLOCK DCINFO  # Decay Program information
     1   SDECAY/HDECAY # decay calculator
     2   1.3b  /3.4    # version number
#
BLOCK SPINFO  # Spectrum calculator information
     1    SOFTSUSY    # spectrum calculator                
     2    3.4.0       # version number                     
#
BLOCK MODSEL  # Model selection
     1     0   #  nonUniversal                                     
#
BLOCK SMINPUTS  # Standard Model inputs
         1     1.25778332E+02   # alpha_em^-1(M_Z)^MSbar
         2     1.16570000E-05   # G_F [GeV^-2]
         3     1.17200002E-01   # alpha_S(M_Z)^MSbar
         4     9.11876000E+01   # M_Z pole mass
         5     4.25000000E+00   # mb(mb)^MSbar
         6     1.72500000E+02   # mt pole mass
         7     1.77682000E+00   # mtau pole mass
#
BLOCK MINPAR  # Input parameters - minimal models
         3     1.00000000E+01   # tanb                
#
BLOCK EXTPAR  # Input parameters - non-minimal models
         0    -1.00000000E+00   # Set                 
         1     6.00000000E+01   # M_1(MX)             
         2     3.00000000E+03   # M_2(MX)             
         3     1.76109400E+03   # M_3(MX)             
        11     5.00000000E+03   # At(MX)              
        12     5.00000000E+03   # Ab(MX)              
        13     0.00000000E+00   # Atau(MX)            
        23    -1.15367300E+03   # mu(MX)              
        26     3.00000000E+03   # mA(pole)            
        31     5.00000000E+03   # meL(MX)             
        32     5.00000000E+03   # mmuL(MX)            
        33     5.00000000E+03   # mtauL(MX)           
        34     5.00000000E+03   # meR(MX)             
        35     5.00000000E+03   # mmuR(MX)            
        36     5.00000000E+03   # mtauR(MX)           
        41     5.00000000E+03   # mqL1(MX)            
        42     5.00000000E+03   # mqL2(MX)            
        43     5.00000000E+03   # mqL3(MX)            
        44     5.00000000E+03   # muR(MX)             
        45     5.00000000E+03   # mcR(MX)             
        46     5.00000000E+03   # mtR(MX)             
        47     5.00000000E+03   # mdR(MX)             
        48     5.00000000E+03   # msR(MX)             
        49     5.00000000E+03   # mbR(MX)             
#
BLOCK MASS  # Mass Spectrum
# PDG code           mass       particle
        24     8.00958206E+01   # W+
        25     1.24786418E+02   # h
        35     3.00008013E+03   # H
        36     2.99999986E+03   # A
        37     3.00086402E+03   # H+
         5     4.87878001E+00   # b-quark pole mass calculated from mb(mb)_Msbar
   1000001     5.07326635E+03   # ~d_L
   2000001     5.05548067E+03   # ~d_R
   1000002     5.07279313E+03   # ~u_L
   2000002     5.05519991E+03   # ~u_R
   1000003     5.07326635E+03   # ~s_L
   2000003     5.05548067E+03   # ~s_R
   1000004     5.07279313E+03   # ~c_L
   2000004     5.05519991E+03   # ~c_R
   1000005     5.01903995E+03   # ~b_1
   2000005     5.05411728E+03   # ~b_2
   1000006     4.91028772E+03   # ~t_1
   2000006     5.06425274E+03   # ~t_2
   1000011     5.01906070E+03   # ~e_L
   2000011     5.00591815E+03   # ~e_R
   1000012     5.01811242E+03   # ~nu_eL
   1000013     5.01906070E+03   # ~mu_L
   2000013     5.00591815E+03   # ~mu_R
   1000014     5.01811242E+03   # ~nu_muL
   1000015     5.00452474E+03   # ~tau_1
   2000015     5.01884875E+03   # ~tau_2
   1000016     5.01756890E+03   # ~nu_tauL
   1000021     2.10000037E+03   # ~g
   1000022     6.03023259E+01   # ~chi_10
   1000023     1.19954218E+03   # ~chi_20
   1000025    -1.20184431E+03   # ~chi_30
   1000035     3.07428873E+03   # ~chi_40
   1000024     1.20000078E+03   # ~chi_1+
   1000037     3.07445616E+03   # ~chi_2+
#
BLOCK NMIX  # Neutralino Mixing Matrix
  1  1     9.99308832E-01   # N_11
  1  2     1.64218801E-04   # N_12
  1  3    -3.71183959E-02   # N_13
  1  4     2.01401128E-03   # N_14
  2  1     2.48268571E-02   # N_21
  2  2     2.59744606E-02   # N_22
  2  3     7.06840387E-01   # N_23
  2  4     7.06459922E-01   # N_24
  3  1    -2.76642825E-02   # N_31
  3  2     1.42069542E-02   # N_32
  3  3    -7.06349511E-01   # N_33
  3  4     7.07179764E-01   # N_34
  4  1    -4.16126741E-04   # N_41
  4  2     9.99561635E-01   # N_42
  4  3    -8.32227532E-03   # N_43
  4  4    -2.84095704E-02   # N_44
#
BLOCK UMIX  # Chargino Mixing Matrix U
  1  1     1.17843297E-02   # U_11
  1  2     9.99930562E-01   # U_12
  2  1    -9.99930562E-01   # U_21
  2  2     1.17843297E-02   # U_22
#
BLOCK VMIX  # Chargino Mixing Matrix V
  1  1     4.02059349E-02   # V_11
  1  2    -9.99191414E-01   # V_12
  2  1    -9.99191414E-01   # V_21
  2  2    -4.02059349E-02   # V_22
#
BLOCK STOPMIX  # Stop Mixing Matrix
  1  1    -5.07975953E-01   # cos(theta_t)
  1  2     8.61371250E-01   # sin(theta_t)
  2  1    -8.61371250E-01   # -sin(theta_t)
  2  2    -5.07975953E-01   # cos(theta_t)
#
BLOCK SBOTMIX  # Sbottom Mixing Matrix
  1  1     9.96187185E-01   # cos(theta_b)
  1  2    -8.72415752E-02   # sin(theta_b)
  2  1     8.72415752E-02   # -sin(theta_b)
  2  2     9.96187185E-01   # cos(theta_b)
#
BLOCK STAUMIX  # Stau Mixing Matrix
  1  1    -1.36026186E-01   # cos(theta_tau)
  1  2     9.90705242E-01   # sin(theta_tau)
  2  1    -9.90705242E-01   # -sin(theta_tau)
  2  2    -1.36026186E-01   # cos(theta_tau)
#
BLOCK ALPHA  # Higgs mixing
          -1.05472428E-01   # Mixing angle in the neutral Higgs boson sector
#
BLOCK HMIX Q=  5.00073231E+03  # DRbar Higgs Parameters
         1    -1.17483773E+03   # mu(Q)MSSM           
         2     9.46984089E+00   # tan                 
         3     2.41894330E+02   # higgs               
         4     8.46451132E+06   # mA^2(Q)MSSM         
#
BLOCK GAUGE Q=  5.00073231E+03  # The gauge couplings
     1     3.70753171E-01   # gprime(Q) DRbar
     2     6.32341431E-01   # g(Q) DRbar
     3     9.97784980E-01   # g3(Q) DRbar
#
BLOCK AU Q=  5.00073231E+03  # The trilinear couplings
  1  1     5.00000001E+03   # A_u(Q) DRbar
  2  2     5.00000001E+03   # A_c(Q) DRbar
  3  3     5.00000002E+03   # A_t(Q) DRbar
#
BLOCK AD Q=  5.00073231E+03  # The trilinear couplings
  1  1     5.00000001E+03   # A_d(Q) DRbar
  2  2     5.00000001E+03   # A_s(Q) DRbar
  3  3     5.00000001E+03   # A_b(Q) DRbar
#
BLOCK AE Q=  5.00073231E+03  # The trilinear couplings
  1  1     0.00000000E+00   # A_e(Q) DRbar
  2  2     1.90635192E-07   # A_mu(Q) DRbar
  3  3     1.90334515E-07   # A_tau(Q) DRbar
#
BLOCK Yu Q=  5.00073231E+03  # The Yukawa couplings
  1  1     0.00000000E+00   # y_u(Q) DRbar
  2  2     0.00000000E+00   # y_c(Q) DRbar
  3  3     8.20061620E-01   # y_t(Q) DRbar
#
BLOCK Yd Q=  5.00073231E+03  # The Yukawa couplings
  1  1     0.00000000E+00   # y_d(Q) DRbar
  2  2     0.00000000E+00   # y_s(Q) DRbar
  3  3     1.30974274E-01   # y_b(Q) DRbar
#
BLOCK Ye Q=  5.00073231E+03  # The Yukawa couplings
  1  1     0.00000000E+00   # y_e(Q) DRbar
  2  2     0.00000000E+00   # y_mu(Q) DRbar
  3  3     9.67571673E-02   # y_tau(Q) DRbar
#
BLOCK MSOFT Q=  5.00073231E+03  # The soft SUSY breaking masses at the scale Q
         1     6.00000000E+01   # M_1(Q)              
         2     3.00000000E+03   # M_2(Q)              
         3     1.76109400E+03   # M_3(Q)              
        21     7.30490210E+06   # mH1^2(Q)            
        22    -8.21505699E+05   # mH2^2(Q)            
        31     5.00000000E+03   # meL(Q)              
        32     5.00000000E+03   # mmuL(Q)             
        33     5.00000000E+03   # mtauL(Q)            
        34     5.00000000E+03   # meR(Q)              
        35     5.00000000E+03   # mmuR(Q)             
        36     5.00000000E+03   # mtauR(Q)            
        41     5.00000000E+03   # mqL1(Q)             
        42     5.00000000E+03   # mqL2(Q)             
        43     4.99999999E+03   # mqL3(Q)             
        44     5.00000000E+03   # muR(Q)              
        45     5.00000000E+03   # mcR(Q)              
        46     4.99999999E+03   # mtR(Q)              
        47     5.00000000E+03   # mdR(Q)              
        48     5.00000000E+03   # msR(Q)              
        49     5.00000000E+03   # mbR(Q)              
#
#
#
#                             =================
#                             |The decay table|
#                             =================
#
# - The QCD corrections to the decays gluino -> squark  + quark
#                                     squark -> gaugino + quark_prime
#                                     squark -> squark_prime + Higgs
#                                     squark -> gluino  + quark
#   are included.
#
# - The multi-body decays for the inos, stops and sbottoms are included.
#
# - The loop induced decays for the gluino, neutralinos and stops
#   are included.
#
# - The SUSY decays of the top quark are included.
#
#
#         PDG            Width
DECAY         6     1.40119415E+00   # top decays
#          BR         NDA      ID1       ID2
     1.00000000E+00    2           5        24   # BR(t ->  b    W+)
#
#         PDG            Width
DECAY   1000021     6.49909177E-04   # gluino decays
#          BR         NDA      ID1       ID2
     4.91020025E-06    2     1000022        21   # BR(~g -> ~chi_10 g)
     9.16227185E-03    2     1000023        21   # BR(~g -> ~chi_20 g)
     9.05668685E-03    2     1000025        21   # BR(~g -> ~chi_30 g)
#           BR         NDA      ID1       ID2       ID3
     4.63478432E-02    3     1000022         1        -1   # BR(~g -> ~chi_10 d  db)
     1.72734207E-05    3     1000023         1        -1   # BR(~g -> ~chi_20 d  db)
     5.83984170E-06    3     1000025         1        -1   # BR(~g -> ~chi_30 d  db)
     1.58024919E-01    3     1000022         2        -2   # BR(~g -> ~chi_10 u  ub)
     4.25108277E-05    3     1000023         2        -2   # BR(~g -> ~chi_20 u  ub)
     6.41175577E-06    3     1000025         2        -2   # BR(~g -> ~chi_30 u  ub)
     4.63478432E-02    3     1000022         3        -3   # BR(~g -> ~chi_10 s  sb)
     1.72734207E-05    3     1000023         3        -3   # BR(~g -> ~chi_20 s  sb)
     5.83984170E-06    3     1000025         3        -3   # BR(~g -> ~chi_30 s  sb)
     1.58024919E-01    3     1000022         4        -4   # BR(~g -> ~chi_10 c  cb)
     4.25108277E-05    3     1000023         4        -4   # BR(~g -> ~chi_20 c  cb)
     6.41175577E-06    3     1000025         4        -4   # BR(~g -> ~chi_30 c  cb)
     4.69658379E-02    3     1000022         5        -5   # BR(~g -> ~chi_10 b  bb)
     2.91752247E-03    3     1000023         5        -5   # BR(~g -> ~chi_20 b  bb)
     2.86254309E-03    3     1000025         5        -5   # BR(~g -> ~chi_30 b  bb)
     1.55322079E-01    3     1000022         6        -6   # BR(~g -> ~chi_10 t  tb)
     9.12082414E-02    3     1000023         6        -6   # BR(~g -> ~chi_20 t  tb)
     7.21443050E-02    3     1000025         6        -6   # BR(~g -> ~chi_30 t  tb)
     4.77413242E-05    3     1000024         1        -2   # BR(~g -> ~chi_1+ d  ub)
     4.77413242E-05    3    -1000024         2        -1   # BR(~g -> ~chi_1- u  db)
     4.77413242E-05    3     1000024         3        -4   # BR(~g -> ~chi_1+ s  cb)
     4.77413242E-05    3    -1000024         4        -3   # BR(~g -> ~chi_1- c  sb)
     1.00637520E-01    3     1000024         5        -6   # BR(~g -> ~chi_1+ b  tb)
     1.00637520E-01    3    -1000024         6        -5   # BR(~g -> ~chi_1- t  bb)
#
#         PDG            Width
DECAY   1000006     3.28303809E+02   # stop1 decays
#          BR         NDA      ID1       ID2
     2.69441009E-02    2     1000022         6   # BR(~t_1 -> ~chi_10 t )
     8.90865745E-02    2     1000023         6   # BR(~t_1 -> ~chi_20 t )
     8.56693637E-02    2     1000025         6   # BR(~t_1 -> ~chi_30 t )
     6.38377968E-03    2     1000035         6   # BR(~t_1 -> ~chi_40 t )
     1.29561076E-01    2     1000024         5   # BR(~t_1 -> ~chi_1+ b )
     1.27119623E-02    2     1000037         5   # BR(~t_1 -> ~chi_2+ b )
     6.49643143E-01    2     1000021         6   # BR(~t_1 -> ~g      t )
#
#         PDG            Width
DECAY   2000006     3.37349225E+02   # stop2 decays
#          BR         NDA      ID1       ID2
     1.03457663E-02    2     1000022         6   # BR(~t_2 -> ~chi_10 t )
     8.92188302E-02    2     1000023         6   # BR(~t_2 -> ~chi_20 t )
     9.28479844E-02    2     1000025         6   # BR(~t_2 -> ~chi_30 t )
     1.64233359E-02    2     1000035         6   # BR(~t_2 -> ~chi_40 t )
     5.32447475E-02    2     1000024         5   # BR(~t_2 -> ~chi_1+ b )
     3.26559104E-02    2     1000037         5   # BR(~t_2 -> ~chi_2+ b )
     7.01516594E-01    2     1000021         6   # BR(~t_2 -> ~g      t )
     8.45683095E-04    2     1000006        25   # BR(~t_2 -> ~t_1    h )
     2.90114790E-03    2     1000006        23   # BR(~t_2 -> ~t_1    Z )
#
#         PDG            Width
DECAY   1000005     3.12866389E+02   # sbottom1 decays
#          BR         NDA      ID1       ID2
     2.47685569E-03    2     1000022         5   # BR(~b_1 -> ~chi_10 b )
     2.49022732E-03    2     1000023         5   # BR(~b_1 -> ~chi_20 b )
     2.40012377E-03    2     1000025         5   # BR(~b_1 -> ~chi_30 b )
     2.40573083E-02    2     1000035         5   # BR(~b_1 -> ~chi_40 b )
     1.89766711E-01    2    -1000024         6   # BR(~b_1 -> ~chi_1- t )
     4.83645440E-02    2    -1000037         6   # BR(~b_1 -> ~chi_2- t )
     7.28674534E-01    2     1000021         5   # BR(~b_1 -> ~g      b )
     1.76969601E-03    2     1000006       -24   # BR(~b_1 -> ~t_1    W-)
#
#         PDG            Width
DECAY   2000005     2.37346185E+02   # sbottom2 decays
#          BR         NDA      ID1       ID2
     1.23560715E-02    2     1000022         5   # BR(~b_2 -> ~chi_10 b )
     3.22637888E-03    2     1000023         5   # BR(~b_2 -> ~chi_20 b )
     3.33125958E-03    2     1000025         5   # BR(~b_2 -> ~chi_30 b )
     2.49117950E-04    2     1000035         5   # BR(~b_2 -> ~chi_40 b )
     8.31605967E-03    2    -1000024         6   # BR(~b_2 -> ~chi_1- t )
     5.00709987E-04    2    -1000037         6   # BR(~b_2 -> ~chi_2- t )
     9.71944609E-01    2     1000021         5   # BR(~b_2 -> ~g      b )
     7.57930735E-05    2     1000006       -24   # BR(~b_2 -> ~t_1    W-)
#
#         PDG            Width
DECAY   1000002     2.56522362E+02   # sup_L decays
#          BR         NDA      ID1       ID2
     2.90789311E-03    2     1000022         2   # BR(~u_L -> ~chi_10 u)
     6.46037836E-05    2     1000023         2   # BR(~u_L -> ~chi_20 u)
     5.26261348E-06    2     1000025         2   # BR(~u_L -> ~chi_30 u)
     3.06291812E-02    2     1000035         2   # BR(~u_L -> ~chi_40 u)
     2.19774728E-04    2     1000024         1   # BR(~u_L -> ~chi_1+ d)
     6.12152699E-02    2     1000037         1   # BR(~u_L -> ~chi_2+ d)
     9.04958015E-01    2     1000021         2   # BR(~u_L -> ~g      u)
#
#         PDG            Width
DECAY   2000002     2.42557920E+02   # sup_R decays
#          BR         NDA      ID1       ID2
     4.89495880E-02    2     1000022         2   # BR(~u_R -> ~chi_10 u)
     2.69665018E-05    2     1000023         2   # BR(~u_R -> ~chi_20 u)
     3.34673943E-05    2     1000025         2   # BR(~u_R -> ~chi_30 u)
     3.39222024E-09    2     1000035         2   # BR(~u_R -> ~chi_40 u)
     9.50989975E-01    2     1000021         2   # BR(~u_R -> ~g      u)
#
#         PDG            Width
DECAY   1000001     2.56537605E+02   # sdown_L decays
#          BR         NDA      ID1       ID2
     2.89823106E-03    2     1000022         1   # BR(~d_L -> ~chi_10 d)
     3.03329217E-05    2     1000023         1   # BR(~d_L -> ~chi_20 d)
     2.61427429E-05    2     1000025         1   # BR(~d_L -> ~chi_30 d)
     3.06467805E-02    2     1000035         1   # BR(~d_L -> ~chi_40 d)
     1.88812965E-05    2    -1000024         2   # BR(~d_L -> ~chi_1- u)
     6.13211389E-02    2    -1000037         2   # BR(~d_L -> ~chi_2- u)
     9.05058493E-01    2     1000021         1   # BR(~d_L -> ~g      d)
#
#         PDG            Width
DECAY   2000001     2.33665758E+02   # sdown_R decays
#          BR         NDA      ID1       ID2
     1.27038068E-02    2     1000022         1   # BR(~d_R -> ~chi_10 d)
     6.99866275E-06    2     1000023         1   # BR(~d_R -> ~chi_20 d)
     8.68585105E-06    2     1000025         1   # BR(~d_R -> ~chi_30 d)
     8.80490734E-10    2     1000035         1   # BR(~d_R -> ~chi_40 d)
     9.87280508E-01    2     1000021         1   # BR(~d_R -> ~g      d)
#
#         PDG            Width
DECAY   1000004     2.56522362E+02   # scharm_L decays
#          BR         NDA      ID1       ID2
     2.90789311E-03    2     1000022         4   # BR(~c_L -> ~chi_10 c)
     6.46037836E-05    2     1000023         4   # BR(~c_L -> ~chi_20 c)
     5.26261348E-06    2     1000025         4   # BR(~c_L -> ~chi_30 c)
     3.06291812E-02    2     1000035         4   # BR(~c_L -> ~chi_40 c)
     2.19774728E-04    2     1000024         3   # BR(~c_L -> ~chi_1+ s)
     6.12152699E-02    2     1000037         3   # BR(~c_L -> ~chi_2+ s)
     9.04958015E-01    2     1000021         4   # BR(~c_L -> ~g      c)
#
#         PDG            Width
DECAY   2000004     2.42557920E+02   # scharm_R decays
#          BR         NDA      ID1       ID2
     4.89495880E-02    2     1000022         4   # BR(~c_R -> ~chi_10 c)
     2.69665018E-05    2     1000023         4   # BR(~c_R -> ~chi_20 c)
     3.34673943E-05    2     1000025         4   # BR(~c_R -> ~chi_30 c)
     3.39222024E-09    2     1000035         4   # BR(~c_R -> ~chi_40 c)
     9.50989975E-01    2     1000021         4   # BR(~c_R -> ~g      c)
#
#         PDG            Width
DECAY   1000003     2.56537605E+02   # sstrange_L decays
#          BR         NDA      ID1       ID2
     2.89823106E-03    2     1000022         3   # BR(~s_L -> ~chi_10 s)
     3.03329217E-05    2     1000023         3   # BR(~s_L -> ~chi_20 s)
     2.61427429E-05    2     1000025         3   # BR(~s_L -> ~chi_30 s)
     3.06467805E-02    2     1000035         3   # BR(~s_L -> ~chi_40 s)
     1.88812965E-05    2    -1000024         4   # BR(~s_L -> ~chi_1- c)
     6.13211389E-02    2    -1000037         4   # BR(~s_L -> ~chi_2- c)
     9.05058493E-01    2     1000021         3   # BR(~s_L -> ~g      s)
#
#         PDG            Width
DECAY   2000003     2.33665758E+02   # sstrange_R decays
#          BR         NDA      ID1       ID2
     1.27038068E-02    2     1000022         3   # BR(~s_R -> ~chi_10 s)
     6.99866275E-06    2     1000023         3   # BR(~s_R -> ~chi_20 s)
     8.68585105E-06    2     1000025         3   # BR(~s_R -> ~chi_30 s)
     8.80490734E-10    2     1000035         3   # BR(~s_R -> ~chi_40 s)
     9.87280508E-01    2     1000021         3   # BR(~s_R -> ~g      s)
#
#         PDG            Width
DECAY   1000011     3.02547227E+01   # selectron_L decays
#          BR         NDA      ID1       ID2
     2.26577427E-01    2     1000022        11   # BR(~e_L -> ~chi_10 e-)
     9.63647412E-04    2     1000023        11   # BR(~e_L -> ~chi_20 e-)
     2.37618297E-06    2     1000025        11   # BR(~e_L -> ~chi_30 e-)
     2.57243244E-01    2     1000035        11   # BR(~e_L -> ~chi_40 e-)
     1.62909088E-04    2    -1000024        12   # BR(~e_L -> ~chi_1- nu_e)
     5.15050397E-01    2    -1000037        12   # BR(~e_L -> ~chi_2- nu_e)
#
#         PDG            Width
DECAY   2000011     2.73665855E+01   # selectron_R decays
#          BR         NDA      ID1       ID2
     9.98772137E-01    2     1000022        11   # BR(~e_R -> ~chi_10 e-)
     5.47864175E-04    2     1000023        11   # BR(~e_R -> ~chi_20 e-)
     6.79931121E-04    2     1000025        11   # BR(~e_R -> ~chi_30 e-)
     6.72050447E-08    2     1000035        11   # BR(~e_R -> ~chi_40 e-)
#
#         PDG            Width
DECAY   1000013     3.02547227E+01   # smuon_L decays
#          BR         NDA      ID1       ID2
     2.26577427E-01    2     1000022        13   # BR(~mu_L -> ~chi_10 mu-)
     9.63647412E-04    2     1000023        13   # BR(~mu_L -> ~chi_20 mu-)
     2.37618297E-06    2     1000025        13   # BR(~mu_L -> ~chi_30 mu-)
     2.57243244E-01    2     1000035        13   # BR(~mu_L -> ~chi_40 mu-)
     1.62909088E-04    2    -1000024        14   # BR(~mu_L -> ~chi_1- nu_mu)
     5.15050397E-01    2    -1000037        14   # BR(~mu_L -> ~chi_2- nu_mu)
#
#         PDG            Width
DECAY   2000013     2.73665855E+01   # smuon_R decays
#          BR         NDA      ID1       ID2
     9.98772137E-01    2     1000022        13   # BR(~mu_R -> ~chi_10 mu-)
     5.47864175E-04    2     1000023        13   # BR(~mu_R -> ~chi_20 mu-)
     6.79931121E-04    2     1000025        13   # BR(~mu_R -> ~chi_30 mu-)
     6.72050447E-08    2     1000035        13   # BR(~mu_R -> ~chi_40 mu-)
#
#         PDG            Width
DECAY   1000015     2.90658171E+01   # stau_1 decays
#          BR         NDA      ID1       ID2
     9.27987688E-01    2     1000022        15   # BR(~tau_1 -> ~chi_10  tau-)
     1.50446903E-02    2     1000023        15   # BR(~tau_1 -> ~chi_20  tau-)
     1.40738280E-02    2     1000025        15   # BR(~tau_1 -> ~chi_30  tau-)
     4.77778694E-03    2     1000035        15   # BR(~tau_1 -> ~chi_40  tau-)
     2.85501838E-02    2    -1000024        16   # BR(~tau_1 -> ~chi_1-  nu_tau)
     9.56582286E-03    2    -1000037        16   # BR(~tau_1 -> ~chi_2-  nu_tau)
#
#         PDG            Width
DECAY   2000015     3.10280417E+01   # stau_2 decays
#          BR         NDA      ID1       ID2
     2.32401890E-01    2     1000022        15   # BR(~tau_2 -> ~chi_10  tau-)
     1.40438291E-02    2     1000023        15   # BR(~tau_2 -> ~chi_20  tau-)
     1.40870902E-02    2     1000025        15   # BR(~tau_2 -> ~chi_30  tau-)
     2.46277264E-01    2     1000035        15   # BR(~tau_2 -> ~chi_40  tau-)
     9.55045129E-05    2    -1000024        16   # BR(~tau_2 -> ~chi_1-  nu_tau)
     4.93094422E-01    2    -1000037        16   # BR(~tau_2 -> ~chi_2-  nu_tau)
#
#         PDG            Width
DECAY   1000012     3.02572485E+01   # snu_eL decays
#          BR         NDA      ID1       ID2
     2.26261875E-01    2     1000022        12   # BR(~nu_eL -> ~chi_10 nu_e)
     7.64521534E-05    2     1000023        12   # BR(~nu_eL -> ~chi_20 nu_e)
     5.42655481E-04    2     1000025        12   # BR(~nu_eL -> ~chi_30 nu_e)
     2.57307547E-01    2     1000035        12   # BR(~nu_eL -> ~chi_40 nu_e)
     1.89573510E-03    2     1000024        11   # BR(~nu_eL -> ~chi_1+ e-)
     5.13915735E-01    2     1000037        11   # BR(~nu_eL -> ~chi_2+ e-)
#
#         PDG            Width
DECAY   1000014     3.02572485E+01   # snu_muL decays
#          BR         NDA      ID1       ID2
     2.26261875E-01    2     1000022        14   # BR(~nu_muL -> ~chi_10 nu_mu)
     7.64521534E-05    2     1000023        14   # BR(~nu_muL -> ~chi_20 nu_mu)
     5.42655481E-04    2     1000025        14   # BR(~nu_muL -> ~chi_30 nu_mu)
     2.57307547E-01    2     1000035        14   # BR(~nu_muL -> ~chi_40 nu_mu)
     1.89573510E-03    2     1000024        13   # BR(~nu_muL -> ~chi_1+ mu-)
     5.13915735E-01    2     1000037        13   # BR(~nu_muL -> ~chi_2+ mu-)
#
#         PDG            Width
DECAY   1000016     3.10785337E+01   # snu_tauL decays
#          BR         NDA      ID1       ID2
     2.20258778E-01    2     1000022        16   # BR(~nu_tauL -> ~chi_10 nu_tau)
     7.44218032E-05    2     1000023        16   # BR(~nu_tauL -> ~chi_20 nu_tau)
     5.28244048E-04    2     1000025        16   # BR(~nu_tauL -> ~chi_30 nu_tau)
     2.50415565E-01    2     1000035        16   # BR(~nu_tauL -> ~chi_40 nu_tau)
     2.85724598E-02    2     1000024        15   # BR(~nu_tauL -> ~chi_1+ tau-)
     5.00150532E-01    2     1000037        15   # BR(~nu_tauL -> ~chi_2+ tau-)
#
#         PDG            Width
DECAY   1000024     7.34483893E-01   # chargino1+ decays
#          BR         NDA      ID1       ID2
     1.00000000E+00    2     1000022        24   # BR(~chi_1+ -> ~chi_10  W+)
#
#         PDG            Width
DECAY   1000037     1.96725555E+01   # chargino2+ decays
#          BR         NDA      ID1       ID2
     2.53014823E-01    2     1000024        23   # BR(~chi_2+ -> ~chi_1+  Z )
     2.15538484E-04    2     1000022        24   # BR(~chi_2+ -> ~chi_10  W+)
     2.43995800E-01    2     1000023        24   # BR(~chi_2+ -> ~chi_20  W+)
     2.43958805E-01    2     1000025        24   # BR(~chi_2+ -> ~chi_30  W+)
     2.58814288E-01    2     1000024        25   # BR(~chi_2+ -> ~chi_1+  h )
     7.45650322E-07    2     1000022        37   # BR(~chi_2+ -> ~chi_10  H+)
#
#         PDG            Width
DECAY   1000022     0.00000000E+00   # neutralino1 decays
#
#         PDG            Width
DECAY   1000023     7.69725779E-01   # neutralino2 decays
#          BR         NDA      ID1       ID2
     5.48080028E-01    2     1000022        23   # BR(~chi_20 -> ~chi_10   Z )
     4.51919972E-01    2     1000022        25   # BR(~chi_20 -> ~chi_10   h )
#
#         PDG            Width
DECAY   1000025     7.75545308E-01   # neutralino3 decays
#          BR         NDA      ID1       ID2
     4.38113781E-01    2     1000022        23   # BR(~chi_30 -> ~chi_10   Z )
     5.61886219E-01    2     1000022        25   # BR(~chi_30 -> ~chi_10   h )
#
#         PDG            Width
DECAY   1000035     1.96841855E+01   # neutralino4 decays
#          BR         NDA      ID1       ID2
     6.35255321E-05    2     1000022        23   # BR(~chi_40 -> ~chi_10   Z )
     5.83469264E-02    2     1000023        23   # BR(~chi_40 -> ~chi_20   Z )
     1.93962922E-01    2     1000025        23   # BR(~chi_40 -> ~chi_30   Z )
     2.44609991E-01    2     1000024       -24   # BR(~chi_40 -> ~chi_1+   W-)
     2.44609991E-01    2    -1000024        24   # BR(~chi_40 -> ~chi_1-   W+)
     1.54936771E-04    2     1000022        25   # BR(~chi_40 -> ~chi_10   h )
     6.82617004E-07    2     1000022        35   # BR(~chi_40 -> ~chi_10   H )
     8.91925737E-08    2     1000022        36   # BR(~chi_40 -> ~chi_10   A )
     1.99793257E-01    2     1000023        25   # BR(~chi_40 -> ~chi_20   h )
     5.84576784E-02    2     1000025        25   # BR(~chi_40 -> ~chi_30   h )
#
#         PDG            Width
DECAY        25     4.05345676E-03   # h decays
#          BR         NDA      ID1       ID2
     6.07427654E-01    2           5        -5   # BR(h -> b       bb     )
     6.39926811E-02    2         -15        15   # BR(h -> tau+    tau-   )
     2.26557301E-04    2         -13        13   # BR(h -> mu+     mu-    )
     4.80278506E-04    2           3        -3   # BR(h -> s       sb     )
     2.08119577E-02    2           4        -4   # BR(h -> c       cb     )
     6.73365140E-02    2          21        21   # BR(h -> g       g      )
     2.31554742E-03    2          22        22   # BR(h -> gam     gam    )
     1.49413293E-03    2          22        23   # BR(h -> Z       gam    )
     2.10748024E-01    2          24       -24   # BR(h -> W+      W-     )
     2.51213978E-02    2          23        23   # BR(h -> Z       Z      )
     4.52549743E-05    2     1000022   1000022   # BR(h -> ~chi_10 ~chi_10)
#
#         PDG            Width
DECAY        35     7.79388096E+00   # H decays
#          BR         NDA      ID1       ID2
     4.16288036E-01    2           5        -5   # BR(H -> b       bb     )
     7.14805853E-02    2         -15        15   # BR(H -> tau+    tau-   )
     2.52761027E-04    2         -13        13   # BR(H -> mu+     mu-    )
     3.09846303E-04    2           3        -3   # BR(H -> s       sb     )
     1.73313298E-06    2           4        -4   # BR(H -> c       cb     )
     1.73153709E-01    2           6        -6   # BR(H -> t       tb     )
     5.75156853E-05    2          21        21   # BR(H -> g       g      )
     3.33369137E-07    2          22        22   # BR(H -> gam     gam    )
     1.02251156E-07    2          23        22   # BR(H -> Z       gam    )
     7.88172853E-05    2          24       -24   # BR(H -> W+      W-     )
     3.93587638E-05    2          23        23   # BR(H -> Z       Z      )
     2.94391977E-04    2          25        25   # BR(H -> h       h      )
     1.69967897E-23    2          36        36   # BR(H -> A       A      )
     6.27769556E-19    2          23        36   # BR(H -> Z       A      )
     1.18906899E-03    2     1000024  -1000024   # BR(H -> ~chi_1+ ~chi_1-)
     1.28648727E-03    2     1000022   1000022   # BR(H -> ~chi_10 ~chi_10)
     6.58212496E-05    2     1000023   1000023   # BR(H -> ~chi_20 ~chi_20)
     2.34375323E-04    2     1000025   1000025   # BR(H -> ~chi_30 ~chi_30)
     2.00446811E-01    2     1000022   1000023   # BR(H -> ~chi_10 ~chi_20)
     1.34604184E-01    2     1000022   1000025   # BR(H -> ~chi_10 ~chi_30)
     2.16061578E-04    2     1000023   1000025   # BR(H -> ~chi_20 ~chi_30)
#
#         PDG            Width
DECAY        36     7.81416937E+00   # A decays
#          BR         NDA      ID1       ID2
     4.15347333E-01    2           5        -5   # BR(A -> b       bb     )
     7.12971675E-02    2         -15        15   # BR(A -> tau+    tau-   )
     2.52112095E-04    2         -13        13   # BR(A -> mu+     mu-    )
     3.09276643E-04    2           3        -3   # BR(A -> s       sb     )
     1.73576503E-06    2           4        -4   # BR(A -> c       cb     )
     1.73320992E-01    2           6        -6   # BR(A -> t       tb     )
     1.71517161E-04    2          21        21   # BR(A -> g       g      )
     5.27303576E-07    2          22        22   # BR(A -> gam     gam    )
     2.07753511E-07    2          23        22   # BR(A -> Z       gam    )
     7.83155735E-05    2          23        25   # BR(A -> Z       h      )
     2.91016028E-03    2     1000024  -1000024   # BR(A -> ~chi_1+ ~chi_1-)
     1.31509670E-03    2     1000022   1000022   # BR(A -> ~chi_10 ~chi_10)
     1.19139963E-04    2     1000023   1000023   # BR(A -> ~chi_20 ~chi_20)
     9.98664012E-04    2     1000025   1000025   # BR(A -> ~chi_30 ~chi_30)
     1.35987323E-01    2     1000022   1000023   # BR(A -> ~chi_10 ~chi_20)
     1.97863995E-01    2     1000022   1000025   # BR(A -> ~chi_10 ~chi_30)
     2.64348654E-05    2     1000023   1000025   # BR(A -> ~chi_20 ~chi_30)
#
#         PDG            Width
DECAY        37     7.78545205E+00   # H+ decays
#          BR         NDA      ID1       ID2
     6.69610682E-04    2           4        -5   # BR(H+ -> c       bb     )
     7.15807665E-02    2         -15        16   # BR(H+ -> tau+    nu_tau )
     2.53114922E-04    2         -13        14   # BR(H+ -> mu+     nu_mu  )
     4.28548631E-06    2           2        -5   # BR(H+ -> u       bb     )
     1.48522623E-05    2           2        -3   # BR(H+ -> u       sb     )
     3.07145699E-04    2           4        -3   # BR(H+ -> c       sb     )
     5.88827009E-01    2           6        -5   # BR(H+ -> t       bb     )
     7.87228658E-05    2          24        25   # BR(H+ -> W+      h      )
     8.13514568E-14    2          24        36   # BR(H+ -> W+      A      )
     3.37699186E-01    2     1000024   1000022   # BR(H+ -> ~chi_1+ ~chi_10)
     5.04196667E-04    2     1000024   1000023   # BR(H+ -> ~chi_1+ ~chi_20)
     6.11095679E-05    2     1000024   1000025   # BR(H+ -> ~chi_1+ ~chi_30)
