#
#                              ======================
#                              | THE SUSYHIT OUTPUT |
#                              ======================
#
#
#              ------------------------------------------------------
#              |     This is the output of the SUSY-HIT package     |
#              |  created by A.Djouadi, M.Muehlleitner and M.Spira. |
#              |  In case of problems with SUSY-HIT email to        |
#              |           margarete.muehlleitner@cern.ch           |
#              |           michael.spira@psi.ch                     |
#              |           abdelhak.djouadi@cern.ch                 |
#              ------------------------------------------------------
#
#              ------------------------------------------------------
#              |  SUSY Les Houches Accord - MSSM Spectrum + Decays  |
#              |              based on the decay programs           |
#              |                                                    |
#              |                     SDECAY 1.3b                    |
#              |                                                    |
#              |  Authors: M.Muhlleitner, A.Djouadi and Y.Mambrini  |
#              |  Ref.:    Comput.Phys.Commun.168(2005)46           |
#              |           [hep-ph/0311167]                         |
#              |                                                    |
#              |                     HDECAY 3.4                     |
#              |                                                    |
#              |  By: A.Djouadi,J.Kalinowski,M.Muhlleitner,M.Spira  |
#              |  Ref.:    Comput.Phys.Commun.108(1998)56           |
#              |           [hep-ph/9704448]                         |
#              |                                                    |
#              |                                                    |
#              |  If not stated otherwise all DRbar couplings and   |
#              |  soft SUSY breaking masses are given at the scale  |
#              |  Q=  0.50007432E+04
#              |                                                    |
#              ------------------------------------------------------
#
#
BLOCK DCINFO  # Decay Program information
     1   SDECAY/HDECAY # decay calculator
     2   1.3b  /3.4    # version number
#
BLOCK SPINFO  # Spectrum calculator information
     1    SOFTSUSY    # spectrum calculator                
     2    3.4.0       # version number                     
#
BLOCK MODSEL  # Model selection
     1     0   #  nonUniversal                                     
#
BLOCK SMINPUTS  # Standard Model inputs
         1     1.25778332E+02   # alpha_em^-1(M_Z)^MSbar
         2     1.16570000E-05   # G_F [GeV^-2]
         3     1.17200002E-01   # alpha_S(M_Z)^MSbar
         4     9.11876000E+01   # M_Z pole mass
         5     4.25000000E+00   # mb(mb)^MSbar
         6     1.72500000E+02   # mt pole mass
         7     1.77682000E+00   # mtau pole mass
#
BLOCK MINPAR  # Input parameters - minimal models
         3     1.00000000E+01   # tanb                
#
BLOCK EXTPAR  # Input parameters - non-minimal models
         0    -1.00000000E+00   # Set                 
         1     6.00000000E+01   # M_1(MX)             
         2     3.00000000E+03   # M_2(MX)             
         3     2.33132400E+03   # M_3(MX)             
        11     5.00000000E+03   # At(MX)              
        12     5.00000000E+03   # Ab(MX)              
        13     0.00000000E+00   # Atau(MX)            
        23    -9.58924000E+02   # mu(MX)              
        26     3.00000000E+03   # mA(pole)            
        31     5.00000000E+03   # meL(MX)             
        32     5.00000000E+03   # mmuL(MX)            
        33     5.00000000E+03   # mtauL(MX)           
        34     5.00000000E+03   # meR(MX)             
        35     5.00000000E+03   # mmuR(MX)            
        36     5.00000000E+03   # mtauR(MX)           
        41     5.00000000E+03   # mqL1(MX)            
        42     5.00000000E+03   # mqL2(MX)            
        43     5.00000000E+03   # mqL3(MX)            
        44     5.00000000E+03   # muR(MX)             
        45     5.00000000E+03   # mcR(MX)             
        46     5.00000000E+03   # mtR(MX)             
        47     5.00000000E+03   # mdR(MX)             
        48     5.00000000E+03   # msR(MX)             
        49     5.00000000E+03   # mbR(MX)             
#
BLOCK MASS  # Mass Spectrum
# PDG code           mass       particle
        24     8.00955365E+01   # W+
        25     1.24821990E+02   # h
        35     3.00008151E+03   # H
        36     2.99999863E+03   # A
        37     3.00113526E+03   # H+
         5     4.87878001E+00   # b-quark pole mass calculated from mb(mb)_Msbar
   1000001     5.08402879E+03   # ~d_L
   2000001     5.06627327E+03   # ~d_R
   1000002     5.08355883E+03   # ~u_L
   2000002     5.06598904E+03   # ~u_R
   1000003     5.08402879E+03   # ~s_L
   2000003     5.06627327E+03   # ~s_R
   1000004     5.08355883E+03   # ~c_L
   2000004     5.06598904E+03   # ~c_R
   1000005     5.02972951E+03   # ~b_1
   2000005     5.06475506E+03   # ~b_2
   1000006     4.92193588E+03   # ~t_1
   2000006     5.07350876E+03   # ~t_2
   1000011     5.01906802E+03   # ~e_L
   2000011     5.00592399E+03   # ~e_R
   1000012     5.01811954E+03   # ~nu_eL
   1000013     5.01906802E+03   # ~mu_L
   2000013     5.00592399E+03   # ~mu_R
   1000014     5.01811954E+03   # ~nu_muL
   1000015     5.00461214E+03   # ~tau_1
   2000015     5.01876280E+03   # ~tau_2
   1000016     5.01757351E+03   # ~nu_tauL
   1000021     2.70000028E+03   # ~g
   1000022     6.02986881E+01   # ~chi_10
   1000023     9.99653039E+02   # ~chi_20
   1000025    -1.00190519E+03   # ~chi_30
   1000035     3.07424435E+03   # ~chi_40
   1000024     1.00000021E+03   # ~chi_1+
   1000037     3.07441178E+03   # ~chi_2+
#
BLOCK NMIX  # Neutralino Mixing Matrix
  1  1     9.99007077E-01   # N_11
  1  2     1.84603086E-04   # N_12
  1  3    -4.45082390E-02   # N_13
  1  4     1.96002715E-03   # N_14
  2  1     3.00948346E-02   # N_21
  2  2     2.34912879E-02   # N_22
  2  3     7.06700898E-01   # N_23
  2  4     7.06481636E-01   # N_24
  3  1    -3.28481151E-02   # N_31
  3  2     1.49111096E-02   # N_32
  3  3    -7.06085016E-01   # N_33
  3  4     7.07207615E-01   # N_34
  4  1    -4.01739916E-04   # N_41
  4  2     9.99612817E-01   # N_42
  4  3    -6.06693585E-03   # N_43
  4  4    -2.71522884E-02   # N_44
#
BLOCK UMIX  # Chargino Mixing Matrix U
  1  1     8.59362204E-03   # U_11
  1  2     9.99963074E-01   # U_12
  2  1    -9.99963074E-01   # U_21
  2  2     8.59362204E-03   # U_22
#
BLOCK VMIX  # Chargino Mixing Matrix V
  1  1     3.84289577E-02   # V_11
  1  2    -9.99261335E-01   # V_12
  2  1    -9.99261335E-01   # V_21
  2  2    -3.84289577E-02   # V_22
#
BLOCK STOPMIX  # Stop Mixing Matrix
  1  1    -5.04099145E-01   # cos(theta_t)
  1  2     8.63645791E-01   # sin(theta_t)
  2  1    -8.63645791E-01   # -sin(theta_t)
  2  2    -5.04099145E-01   # cos(theta_t)
#
BLOCK SBOTMIX  # Sbottom Mixing Matrix
  1  1     9.97119433E-01   # cos(theta_b)
  1  2    -7.58474544E-02   # sin(theta_b)
  2  1     7.58474544E-02   # -sin(theta_b)
  2  2     9.97119433E-01   # cos(theta_b)
#
BLOCK STAUMIX  # Stau Mixing Matrix
  1  1    -1.13923731E-01   # cos(theta_tau)
  1  2     9.93489498E-01   # sin(theta_tau)
  2  1    -9.93489498E-01   # -sin(theta_tau)
  2  2    -1.13923731E-01   # cos(theta_tau)
#
BLOCK ALPHA  # Higgs mixing
          -1.05482811E-01   # Mixing angle in the neutral Higgs boson sector
#
BLOCK HMIX Q=  5.00074321E+03  # DRbar Higgs Parameters
         1    -9.76579775E+02   # mu(Q)MSSM           
         2     9.46907792E+00   # tan                 
         3     2.41855686E+02   # higgs               
         4     8.51825011E+06   # mA^2(Q)MSSM         
#
BLOCK GAUGE Q=  5.00074321E+03  # The gauge couplings
     1     3.70783395E-01   # gprime(Q) DRbar
     2     6.32508170E-01   # g(Q) DRbar
     3     9.94064596E-01   # g3(Q) DRbar
#
BLOCK AU Q=  5.00074321E+03  # The trilinear couplings
  1  1     5.00000002E+03   # A_u(Q) DRbar
  2  2     5.00000002E+03   # A_c(Q) DRbar
  3  3     5.00000002E+03   # A_t(Q) DRbar
#
BLOCK AD Q=  5.00074321E+03  # The trilinear couplings
  1  1     5.00000001E+03   # A_d(Q) DRbar
  2  2     5.00000001E+03   # A_s(Q) DRbar
  3  3     5.00000001E+03   # A_b(Q) DRbar
#
BLOCK AE Q=  5.00074321E+03  # The trilinear couplings
  1  1     0.00000000E+00   # A_e(Q) DRbar
  2  2     2.79652625E-07   # A_mu(Q) DRbar
  3  3     2.79702631E-07   # A_tau(Q) DRbar
#
BLOCK Yu Q=  5.00074321E+03  # The Yukawa couplings
  1  1     0.00000000E+00   # y_u(Q) DRbar
  2  2     0.00000000E+00   # y_c(Q) DRbar
  3  3     8.21331458E-01   # y_t(Q) DRbar
#
BLOCK Yd Q=  5.00074321E+03  # The Yukawa couplings
  1  1     0.00000000E+00   # y_d(Q) DRbar
  2  2     0.00000000E+00   # y_s(Q) DRbar
  3  3     1.31087217E-01   # y_b(Q) DRbar
#
BLOCK Ye Q=  5.00074321E+03  # The Yukawa couplings
  1  1     0.00000000E+00   # y_e(Q) DRbar
  2  2     0.00000000E+00   # y_mu(Q) DRbar
  3  3     9.68469911E-02   # y_tau(Q) DRbar
#
BLOCK MSOFT Q=  5.00074321E+03  # The soft SUSY breaking masses at the scale Q
         1     6.00000000E+01   # M_1(Q)              
         2     3.00000000E+03   # M_2(Q)              
         3     2.33132400E+03   # M_3(Q)              
        21     7.74322619E+06   # mH1^2(Q)            
        22    -3.86885344E+05   # mH2^2(Q)            
        31     5.00000000E+03   # meL(Q)              
        32     5.00000000E+03   # mmuL(Q)             
        33     5.00000000E+03   # mtauL(Q)            
        34     5.00000000E+03   # meR(Q)              
        35     5.00000000E+03   # mmuR(Q)             
        36     5.00000000E+03   # mtauR(Q)            
        41     4.99999999E+03   # mqL1(Q)             
        42     4.99999999E+03   # mqL2(Q)             
        43     4.99999999E+03   # mqL3(Q)             
        44     4.99999999E+03   # muR(Q)              
        45     4.99999999E+03   # mcR(Q)              
        46     4.99999999E+03   # mtR(Q)              
        47     4.99999999E+03   # mdR(Q)              
        48     4.99999999E+03   # msR(Q)              
        49     4.99999999E+03   # mbR(Q)              
#
#
#
#                             =================
#                             |The decay table|
#                             =================
#
# - The QCD corrections to the decays gluino -> squark  + quark
#                                     squark -> gaugino + quark_prime
#                                     squark -> squark_prime + Higgs
#                                     squark -> gluino  + quark
#   are included.
#
# - The multi-body decays for the inos, stops and sbottoms are included.
#
# - The loop induced decays for the gluino, neutralinos and stops
#   are included.
#
# - The SUSY decays of the top quark are included.
#
#
#         PDG            Width
DECAY         6     1.40194561E+00   # top decays
#          BR         NDA      ID1       ID2
     1.00000000E+00    2           5        24   # BR(t ->  b    W+)
#
#         PDG            Width
DECAY   1000021     6.33694125E-03   # gluino decays
#          BR         NDA      ID1       ID2
     1.56040513E-06    2     1000022        21   # BR(~g -> ~chi_10 g)
     4.56806126E-03    2     1000023        21   # BR(~g -> ~chi_20 g)
     4.49923101E-03    2     1000025        21   # BR(~g -> ~chi_30 g)
#           BR         NDA      ID1       ID2       ID3
     1.80922602E-02    3     1000022         1        -1   # BR(~g -> ~chi_10 d  db)
     2.25949234E-05    3     1000023         1        -1   # BR(~g -> ~chi_20 d  db)
     1.36921497E-05    3     1000025         1        -1   # BR(~g -> ~chi_30 d  db)
     6.16977618E-02    3     1000022         2        -2   # BR(~g -> ~chi_10 u  ub)
     7.14664296E-05    3     1000023         2        -2   # BR(~g -> ~chi_20 u  ub)
     1.63344667E-05    3     1000025         2        -2   # BR(~g -> ~chi_30 u  ub)
     1.80922602E-02    3     1000022         3        -3   # BR(~g -> ~chi_10 s  sb)
     2.25949234E-05    3     1000023         3        -3   # BR(~g -> ~chi_20 s  sb)
     1.36921497E-05    3     1000025         3        -3   # BR(~g -> ~chi_30 s  sb)
     6.16977618E-02    3     1000022         4        -4   # BR(~g -> ~chi_10 c  cb)
     7.14664296E-05    3     1000023         4        -4   # BR(~g -> ~chi_20 c  cb)
     1.63344667E-05    3     1000025         4        -4   # BR(~g -> ~chi_30 c  cb)
     1.83605472E-02    3     1000022         5        -5   # BR(~g -> ~chi_10 b  bb)
     4.82678786E-03    3     1000023         5        -5   # BR(~g -> ~chi_20 b  bb)
     4.78022689E-03    3     1000025         5        -5   # BR(~g -> ~chi_30 b  bb)
     6.37314312E-02    3     1000022         6        -6   # BR(~g -> ~chi_10 t  tb)
     1.84627974E-01    3     1000023         6        -6   # BR(~g -> ~chi_20 t  tb)
     1.72197829E-01    3     1000025         6        -6   # BR(~g -> ~chi_30 t  tb)
     6.52396725E-05    3     1000024         1        -2   # BR(~g -> ~chi_1+ d  ub)
     6.52396725E-05    3    -1000024         2        -1   # BR(~g -> ~chi_1- u  db)
     6.52396725E-05    3     1000024         3        -4   # BR(~g -> ~chi_1+ s  cb)
     6.52396725E-05    3    -1000024         4        -3   # BR(~g -> ~chi_1- c  sb)
     1.91158586E-01    3     1000024         5        -6   # BR(~g -> ~chi_1+ b  tb)
     1.91158586E-01    3    -1000024         6        -5   # BR(~g -> ~chi_1- t  bb)
#
#         PDG            Width
DECAY   1000006     2.74476327E+02   # stop1 decays
#          BR         NDA      ID1       ID2
     3.24276117E-02    2     1000022         6   # BR(~t_1 -> ~chi_10 t )
     1.10718767E-01    2     1000023         6   # BR(~t_1 -> ~chi_20 t )
     1.06430602E-01    2     1000025         6   # BR(~t_1 -> ~chi_30 t )
     7.43460295E-03    2     1000035         6   # BR(~t_1 -> ~chi_40 t )
     1.62715343E-01    2     1000024         5   # BR(~t_1 -> ~chi_1+ b )
     1.48116189E-02    2     1000037         5   # BR(~t_1 -> ~chi_2+ b )
     5.65461454E-01    2     1000021         6   # BR(~t_1 -> ~g      t )
#
#         PDG            Width
DECAY   2000006     2.84141224E+02   # stop2 decays
#          BR         NDA      ID1       ID2
     1.19772542E-02    2     1000022         6   # BR(~t_2 -> ~chi_10 t )
     1.09636516E-01    2     1000023         6   # BR(~t_2 -> ~chi_20 t )
     1.14198939E-01    2     1000025         6   # BR(~t_2 -> ~chi_30 t )
     1.98740322E-02    2     1000035         6   # BR(~t_2 -> ~chi_40 t )
     6.36535488E-02    2     1000024         5   # BR(~t_2 -> ~chi_1+ b )
     3.95410521E-02    2     1000037         5   # BR(~t_2 -> ~chi_2+ b )
     6.36881911E-01    2     1000021         6   # BR(~t_2 -> ~g      t )
     9.66430570E-04    2     1000006        25   # BR(~t_2 -> ~t_1    h )
     3.27031581E-03    2     1000006        23   # BR(~t_2 -> ~t_1    Z )
#
#         PDG            Width
DECAY   1000005     2.58706572E+02   # sbottom1 decays
#          BR         NDA      ID1       ID2
     2.97727767E-03    2     1000022         5   # BR(~b_1 -> ~chi_10 b )
     3.09091931E-03    2     1000023         5   # BR(~b_1 -> ~chi_20 b )
     3.01012893E-03    2     1000025         5   # BR(~b_1 -> ~chi_30 b )
     2.93598852E-02    2     1000035         5   # BR(~b_1 -> ~chi_40 b )
     2.38415845E-01    2    -1000024         6   # BR(~b_1 -> ~chi_1- t )
     5.89918310E-02    2    -1000037         6   # BR(~b_1 -> ~chi_2- t )
     6.62081507E-01    2     1000021         5   # BR(~b_1 -> ~g      b )
     2.07260591E-03    2     1000006       -24   # BR(~b_1 -> ~t_1    W-)
#
#         PDG            Width
DECAY   2000005     1.80827945E+02   # sbottom2 decays
#          BR         NDA      ID1       ID2
     1.62059595E-02    2     1000022         5   # BR(~b_2 -> ~chi_10 b )
     4.40667856E-03    2     1000023         5   # BR(~b_2 -> ~chi_20 b )
     4.52149146E-03    2     1000025         5   # BR(~b_2 -> ~chi_30 b )
     2.38778718E-04    2     1000035         5   # BR(~b_2 -> ~chi_40 b )
     1.06369824E-02    2    -1000024         6   # BR(~b_2 -> ~chi_1- t )
     4.79719476E-04    2    -1000037         6   # BR(~b_2 -> ~chi_2- t )
     9.63435712E-01    2     1000021         5   # BR(~b_2 -> ~g      b )
     7.46774624E-05    2     1000006       -24   # BR(~b_2 -> ~t_1    W-)
#
#         PDG            Width
DECAY   1000002     2.00329459E+02   # sup_L decays
#          BR         NDA      ID1       ID2
     3.71572250E-03    2     1000022         2   # BR(~u_L -> ~chi_10 u)
     7.78193075E-05    2     1000023         2   # BR(~u_L -> ~chi_20 u)
     6.50330919E-06    2     1000025         2   # BR(~u_L -> ~chi_30 u)
     3.94902045E-02    2     1000035         2   # BR(~u_L -> ~chi_40 u)
     2.66406992E-04    2     1000024         1   # BR(~u_L -> ~chi_1+ d)
     7.89274486E-02    2     1000037         1   # BR(~u_L -> ~chi_2+ d)
     8.77515895E-01    2     1000021         2   # BR(~u_L -> ~g      u)
#
#         PDG            Width
DECAY   2000002     1.86096639E+02   # sup_R decays
#          BR         NDA      ID1       ID2
     6.36519435E-02    2     1000022         2   # BR(~u_R -> ~chi_10 u)
     5.35092120E-05    2     1000023         2   # BR(~u_R -> ~chi_20 u)
     6.37248684E-05    2     1000025         2   # BR(~u_R -> ~chi_30 u)
     4.14768784E-09    2     1000035         2   # BR(~u_R -> ~chi_40 u)
     9.36230818E-01    2     1000021         2   # BR(~u_R -> ~g      u)
#
#         PDG            Width
DECAY   1000001     2.00346676E+02   # sdown_L decays
#          BR         NDA      ID1       ID2
     3.70172536E-03    2     1000022         1   # BR(~d_L -> ~chi_10 d)
     2.79758160E-05    2     1000023         1   # BR(~d_L -> ~chi_20 d)
     4.10249936E-05    2     1000025         1   # BR(~d_L -> ~chi_30 d)
     3.95112410E-02    2     1000035         1   # BR(~d_L -> ~chi_40 d)
     1.33226561E-05    2    -1000024         2   # BR(~d_L -> ~chi_1- u)
     7.90556117E-02    2    -1000037         2   # BR(~d_L -> ~chi_2- u)
     8.77649098E-01    2     1000021         1   # BR(~d_L -> ~g      d)
#
#         PDG            Width
DECAY   2000001     1.77221675E+02   # sdown_R decays
#          BR         NDA      ID1       ID2
     1.67108398E-02    2     1000022         1   # BR(~d_R -> ~chi_10 d)
     1.40481440E-05    2     1000023         1   # BR(~d_R -> ~chi_20 d)
     1.67301318E-05    2     1000025         1   # BR(~d_R -> ~chi_30 d)
     1.08905196E-09    2     1000035         1   # BR(~d_R -> ~chi_40 d)
     9.83258381E-01    2     1000021         1   # BR(~d_R -> ~g      d)
#
#         PDG            Width
DECAY   1000004     2.00329459E+02   # scharm_L decays
#          BR         NDA      ID1       ID2
     3.71572250E-03    2     1000022         4   # BR(~c_L -> ~chi_10 c)
     7.78193075E-05    2     1000023         4   # BR(~c_L -> ~chi_20 c)
     6.50330919E-06    2     1000025         4   # BR(~c_L -> ~chi_30 c)
     3.94902045E-02    2     1000035         4   # BR(~c_L -> ~chi_40 c)
     2.66406992E-04    2     1000024         3   # BR(~c_L -> ~chi_1+ s)
     7.89274486E-02    2     1000037         3   # BR(~c_L -> ~chi_2+ s)
     8.77515895E-01    2     1000021         4   # BR(~c_L -> ~g      c)
#
#         PDG            Width
DECAY   2000004     1.86096639E+02   # scharm_R decays
#          BR         NDA      ID1       ID2
     6.36519435E-02    2     1000022         4   # BR(~c_R -> ~chi_10 c)
     5.35092120E-05    2     1000023         4   # BR(~c_R -> ~chi_20 c)
     6.37248684E-05    2     1000025         4   # BR(~c_R -> ~chi_30 c)
     4.14768784E-09    2     1000035         4   # BR(~c_R -> ~chi_40 c)
     9.36230818E-01    2     1000021         4   # BR(~c_R -> ~g      c)
#
#         PDG            Width
DECAY   1000003     2.00346676E+02   # sstrange_L decays
#          BR         NDA      ID1       ID2
     3.70172536E-03    2     1000022         3   # BR(~s_L -> ~chi_10 s)
     2.79758160E-05    2     1000023         3   # BR(~s_L -> ~chi_20 s)
     4.10249936E-05    2     1000025         3   # BR(~s_L -> ~chi_30 s)
     3.95112410E-02    2     1000035         3   # BR(~s_L -> ~chi_40 s)
     1.33226561E-05    2    -1000024         4   # BR(~s_L -> ~chi_1- c)
     7.90556117E-02    2    -1000037         4   # BR(~s_L -> ~chi_2- c)
     8.77649098E-01    2     1000021         3   # BR(~s_L -> ~g      s)
#
#         PDG            Width
DECAY   2000003     1.77221675E+02   # sstrange_R decays
#          BR         NDA      ID1       ID2
     1.67108398E-02    2     1000022         3   # BR(~s_R -> ~chi_10 s)
     1.40481440E-05    2     1000023         3   # BR(~s_R -> ~chi_20 s)
     1.67301318E-05    2     1000025         3   # BR(~s_R -> ~chi_30 s)
     1.08905196E-09    2     1000035         3   # BR(~s_R -> ~chi_40 s)
     9.83258381E-01    2     1000021         3   # BR(~s_R -> ~g      s)
#
#         PDG            Width
DECAY   1000011     3.02674624E+01   # selectron_L decays
#          BR         NDA      ID1       ID2
     2.26398362E-01    2     1000022        11   # BR(~e_L -> ~chi_10 e-)
     1.02969042E-03    2     1000023        11   # BR(~e_L -> ~chi_20 e-)
     1.14842836E-05    2     1000025        11   # BR(~e_L -> ~chi_30 e-)
     2.57311510E-01    2     1000035        11   # BR(~e_L -> ~chi_40 e-)
     8.98832703E-05    2    -1000024        12   # BR(~e_L -> ~chi_1- nu_e)
     5.15159070E-01    2    -1000037        12   # BR(~e_L -> ~chi_2- nu_e)
#
#         PDG            Width
DECAY   2000011     2.73710561E+01   # selectron_R decays
#          BR         NDA      ID1       ID2
     9.98169932E-01    2     1000022        11   # BR(~e_R -> ~chi_10 e-)
     8.35276814E-04    2     1000023        11   # BR(~e_R -> ~chi_20 e-)
     9.94728728E-04    2     1000025        11   # BR(~e_R -> ~chi_30 e-)
     6.26408117E-08    2     1000035        11   # BR(~e_R -> ~chi_40 e-)
#
#         PDG            Width
DECAY   1000013     3.02674624E+01   # smuon_L decays
#          BR         NDA      ID1       ID2
     2.26398362E-01    2     1000022        13   # BR(~mu_L -> ~chi_10 mu-)
     1.02969042E-03    2     1000023        13   # BR(~mu_L -> ~chi_20 mu-)
     1.14842836E-05    2     1000025        13   # BR(~mu_L -> ~chi_30 mu-)
     2.57311510E-01    2     1000035        13   # BR(~mu_L -> ~chi_40 mu-)
     8.98832703E-05    2    -1000024        14   # BR(~mu_L -> ~chi_1- nu_mu)
     5.15159070E-01    2    -1000037        14   # BR(~mu_L -> ~chi_2- nu_mu)
#
#         PDG            Width
DECAY   2000013     2.73710561E+01   # smuon_R decays
#          BR         NDA      ID1       ID2
     9.98169932E-01    2     1000022        13   # BR(~mu_R -> ~chi_10 mu-)
     8.35276814E-04    2     1000023        13   # BR(~mu_R -> ~chi_20 mu-)
     9.94728728E-04    2     1000025        13   # BR(~mu_R -> ~chi_30 mu-)
     6.26408117E-08    2     1000035        13   # BR(~mu_R -> ~chi_40 mu-)
#
#         PDG            Width
DECAY   1000015     2.91201192E+01   # stau_1 decays
#          BR         NDA      ID1       ID2
     9.29777634E-01    2     1000022        15   # BR(~tau_1 -> ~chi_10  tau-)
     1.56791054E-02    2     1000023        15   # BR(~tau_1 -> ~chi_20  tau-)
     1.49101947E-02    2     1000025        15   # BR(~tau_1 -> ~chi_30  tau-)
     3.35881018E-03    2     1000035        15   # BR(~tau_1 -> ~chi_40  tau-)
     2.95498795E-02    2    -1000024        16   # BR(~tau_1 -> ~chi_1-  nu_tau)
     6.72437633E-03    2    -1000037        16   # BR(~tau_1 -> ~chi_2-  nu_tau)
#
#         PDG            Width
DECAY   2000015     3.10889778E+01   # stau_2 decays
#          BR         NDA      ID1       ID2
     2.28216899E-01    2     1000022        15   # BR(~tau_2 -> ~chi_10  tau-)
     1.47535492E-02    2     1000023        15   # BR(~tau_2 -> ~chi_20  tau-)
     1.45677784E-02    2     1000025        15   # BR(~tau_2 -> ~chi_30  tau-)
     2.47284060E-01    2     1000035        15   # BR(~tau_2 -> ~chi_40  tau-)
     9.39621671E-05    2    -1000024        16   # BR(~tau_2 -> ~chi_1-  nu_tau)
     4.95083751E-01    2    -1000037        16   # BR(~tau_2 -> ~chi_2-  nu_tau)
#
#         PDG            Width
DECAY   1000012     3.02702549E+01   # snu_eL decays
#          BR         NDA      ID1       ID2
     2.26049469E-01    2     1000022        12   # BR(~nu_eL -> ~chi_10 nu_e)
     2.08162243E-05    2     1000023        12   # BR(~nu_eL -> ~chi_20 nu_e)
     7.09967495E-04    2     1000025        12   # BR(~nu_eL -> ~chi_30 nu_e)
     2.57364799E-01    2     1000035        12   # BR(~nu_eL -> ~chi_40 nu_e)
     1.79683360E-03    2     1000024        11   # BR(~nu_eL -> ~chi_1+ e-)
     5.14058115E-01    2     1000037        11   # BR(~nu_eL -> ~chi_2+ e-)
#
#         PDG            Width
DECAY   1000014     3.02702549E+01   # snu_muL decays
#          BR         NDA      ID1       ID2
     2.26049469E-01    2     1000022        14   # BR(~nu_muL -> ~chi_10 nu_mu)
     2.08162243E-05    2     1000023        14   # BR(~nu_muL -> ~chi_20 nu_mu)
     7.09967495E-04    2     1000025        14   # BR(~nu_muL -> ~chi_30 nu_mu)
     2.57364799E-01    2     1000035        14   # BR(~nu_muL -> ~chi_40 nu_mu)
     1.79683360E-03    2     1000024        13   # BR(~nu_muL -> ~chi_1+ mu-)
     5.14058115E-01    2     1000037        13   # BR(~nu_muL -> ~chi_2+ mu-)
#
#         PDG            Width
DECAY   1000016     3.11242000E+01   # snu_tauL decays
#          BR         NDA      ID1       ID2
     2.19823483E-01    2     1000022        16   # BR(~nu_tauL -> ~chi_10 nu_tau)
     2.02425289E-05    2     1000023        16   # BR(~nu_tauL -> ~chi_20 nu_tau)
     6.90400724E-04    2     1000025        16   # BR(~nu_tauL -> ~chi_30 nu_tau)
     2.50210871E-01    2     1000035        16   # BR(~nu_tauL -> ~chi_40 nu_tau)
     2.94864712E-02    2     1000024        15   # BR(~nu_tauL -> ~chi_1+ tau-)
     4.99768531E-01    2     1000037        15   # BR(~nu_tauL -> ~chi_2+ tau-)
#
#         PDG            Width
DECAY   1000024     6.08876261E-01   # chargino1+ decays
#          BR         NDA      ID1       ID2
     1.00000000E+00    2     1000022        24   # BR(~chi_1+ -> ~chi_10  W+)
#
#         PDG            Width
DECAY   1000037     2.04089986E+01   # chargino2+ decays
#          BR         NDA      ID1       ID2
     2.53194846E-01    2     1000024        23   # BR(~chi_2+ -> ~chi_1+  Z )
     1.97865787E-04    2     1000022        24   # BR(~chi_2+ -> ~chi_10  W+)
     2.44145982E-01    2     1000023        24   # BR(~chi_2+ -> ~chi_20  W+)
     2.44096945E-01    2     1000025        24   # BR(~chi_2+ -> ~chi_30  W+)
     2.58363192E-01    2     1000024        25   # BR(~chi_2+ -> ~chi_1+  h )
     1.16962550E-06    2     1000022        37   # BR(~chi_2+ -> ~chi_10  H+)
#
#         PDG            Width
DECAY   1000022     0.00000000E+00   # neutralino1 decays
#
#         PDG            Width
DECAY   1000023     6.35960317E-01   # neutralino2 decays
#          BR         NDA      ID1       ID2
     5.40219393E-01    2     1000022        23   # BR(~chi_20 -> ~chi_10   Z )
     4.59780607E-01    2     1000022        25   # BR(~chi_20 -> ~chi_10   h )
#
#         PDG            Width
DECAY   1000025     6.39004017E-01   # neutralino3 decays
#          BR         NDA      ID1       ID2
     4.50283948E-01    2     1000022        23   # BR(~chi_30 -> ~chi_10   Z )
     5.49716052E-01    2     1000022        25   # BR(~chi_30 -> ~chi_10   h )
#
#         PDG            Width
DECAY   1000035     2.04240188E+01   # neutralino4 decays
#          BR         NDA      ID1       ID2
     4.77422428E-05    2     1000022        23   # BR(~chi_40 -> ~chi_10   Z )
     7.27278792E-02    2     1000023        23   # BR(~chi_40 -> ~chi_20   Z )
     1.79752792E-01    2     1000025        23   # BR(~chi_40 -> ~chi_30   Z )
     2.44776508E-01    2     1000024       -24   # BR(~chi_40 -> ~chi_1+   W-)
     2.44776508E-01    2    -1000024        24   # BR(~chi_40 -> ~chi_1-   W+)
     1.51087417E-04    2     1000022        25   # BR(~chi_40 -> ~chi_10   h )
     1.09435524E-06    2     1000022        35   # BR(~chi_40 -> ~chi_10   H )
     1.34282486E-07    2     1000022        36   # BR(~chi_40 -> ~chi_10   A )
     1.84836961E-01    2     1000023        25   # BR(~chi_40 -> ~chi_20   h )
     7.29292923E-02    2     1000025        25   # BR(~chi_40 -> ~chi_30   h )
#
#         PDG            Width
DECAY        25     4.05647611E-03   # h decays
#          BR         NDA      ID1       ID2
     6.06679778E-01    2           5        -5   # BR(h -> b       bb     )
     6.39656748E-02    2         -15        15   # BR(h -> tau+    tau-   )
     2.26461532E-04    2         -13        13   # BR(h -> mu+     mu-    )
     4.80048598E-04    2           3        -3   # BR(h -> s       sb     )
     2.08012285E-02    2           4        -4   # BR(h -> c       cb     )
     6.73433668E-02    2          21        21   # BR(h -> g       g      )
     2.31646569E-03    2          22        22   # BR(h -> gam     gam    )
     1.49779865E-03    2          22        23   # BR(h -> Z       gam    )
     2.11416246E-01    2          24       -24   # BR(h -> W+      W-     )
     2.52151228E-02    2          23        23   # BR(h -> Z       Z      )
     5.78086625E-05    2     1000022   1000022   # BR(h -> ~chi_10 ~chi_10)
#
#         PDG            Width
DECAY        35     8.10556704E+00   # H decays
#          BR         NDA      ID1       ID2
     3.98675374E-01    2           5        -5   # BR(H -> b       bb     )
     6.87208463E-02    2         -15        15   # BR(H -> tau+    tau-   )
     2.43002371E-04    2         -13        13   # BR(H -> mu+     mu-    )
     2.97883651E-04    2           3        -3   # BR(H -> s       sb     )
     1.66681877E-06    2           4        -4   # BR(H -> c       cb     )
     1.66528396E-01    2           6        -6   # BR(H -> t       tb     )
     5.53406291E-05    2          21        21   # BR(H -> g       g      )
     2.68906615E-07    2          22        22   # BR(H -> gam     gam    )
     9.83386089E-08    2          23        22   # BR(H -> Z       gam    )
     7.69211462E-05    2          24       -24   # BR(H -> W+      W-     )
     3.84118931E-05    2          23        23   # BR(H -> Z       Z      )
     2.84606324E-04    2          25        25   # BR(H -> h       h      )
     5.20023015E-24    2          36        36   # BR(H -> A       A      )
     7.82053660E-19    2          23        36   # BR(H -> Z       A      )
     1.97393429E-03    2     1000024  -1000024   # BR(H -> ~chi_1+ ~chi_1-)
     1.78130184E-03    2     1000022   1000022   # BR(H -> ~chi_10 ~chi_10)
     3.94602863E-05    2     1000023   1000023   # BR(H -> ~chi_20 ~chi_20)
     5.43867741E-04    2     1000025   1000025   # BR(H -> ~chi_30 ~chi_30)
     2.16360267E-01    2     1000022   1000023   # BR(H -> ~chi_10 ~chi_20)
     1.43865965E-01    2     1000022   1000025   # BR(H -> ~chi_10 ~chi_30)
     5.12387056E-04    2     1000023   1000025   # BR(H -> ~chi_20 ~chi_30)
#
#         PDG            Width
DECAY        36     8.12186513E+00   # A decays
#          BR         NDA      ID1       ID2
     3.98009738E-01    2           5        -5   # BR(A -> b       bb     )
     6.85850030E-02    2         -15        15   # BR(A -> tau+    tau-   )
     2.42521679E-04    2         -13        13   # BR(A -> mu+     mu-    )
     2.97511709E-04    2           3        -3   # BR(A -> s       sb     )
     1.67027434E-06    2           4        -4   # BR(A -> c       cb     )
     1.66781564E-01    2           6        -6   # BR(A -> t       tb     )
     1.65034808E-04    2          21        21   # BR(A -> g       g      )
     5.74537866E-07    2          22        22   # BR(A -> gam     gam    )
     1.99892337E-07    2          23        22   # BR(A -> Z       gam    )
     7.64762608E-05    2          23        25   # BR(A -> Z       h      )
     3.22597929E-03    2     1000024  -1000024   # BR(A -> ~chi_1+ ~chi_1-)
     1.81413370E-03    2     1000022   1000022   # BR(A -> ~chi_10 ~chi_10)
     4.63452435E-05    2     1000023   1000023   # BR(A -> ~chi_20 ~chi_20)
     1.49935869E-03    2     1000025   1000025   # BR(A -> ~chi_30 ~chi_30)
     1.45635604E-01    2     1000022   1000023   # BR(A -> ~chi_10 ~chi_20)
     2.13472074E-01    2     1000022   1000025   # BR(A -> ~chi_10 ~chi_30)
     1.46211135E-04    2     1000023   1000025   # BR(A -> ~chi_20 ~chi_30)
#
#         PDG            Width
DECAY        37     8.09437695E+00   # H+ decays
#          BR         NDA      ID1       ID2
     6.42045543E-04    2           4        -5   # BR(H+ -> c       bb     )
     6.88439884E-02    2         -15        16   # BR(H+ -> tau+    nu_tau )
     2.43437471E-04    2         -13        14   # BR(H+ -> mu+     nu_mu  )
     4.10907028E-06    2           2        -5   # BR(H+ -> u       bb     )
     1.42842421E-05    2           2        -3   # BR(H+ -> u       sb     )
     2.95399525E-04    2           4        -3   # BR(H+ -> c       sb     )
     5.65139997E-01    2           6        -5   # BR(H+ -> t       bb     )
     7.68726146E-05    2          24        25   # BR(H+ -> W+      h      )
     3.08008488E-13    2          24        36   # BR(H+ -> W+      A      )
     3.63833760E-01    2     1000024   1000022   # BR(H+ -> ~chi_1+ ~chi_10)
     8.73386617E-04    2     1000024   1000023   # BR(H+ -> ~chi_1+ ~chi_20)
     3.27194284E-05    2     1000024   1000025   # BR(H+ -> ~chi_1+ ~chi_30)
