#
#                              ======================
#                              | THE SUSYHIT OUTPUT |
#                              ======================
#
#
#              ------------------------------------------------------
#              |     This is the output of the SUSY-HIT package     |
#              |  created by A.Djouadi, M.Muehlleitner and M.Spira. |
#              |  In case of problems with SUSY-HIT email to        |
#              |           margarete.muehlleitner@cern.ch           |
#              |           michael.spira@psi.ch                     |
#              |           abdelhak.djouadi@cern.ch                 |
#              ------------------------------------------------------
#
#              ------------------------------------------------------
#              |  SUSY Les Houches Accord - MSSM Spectrum + Decays  |
#              |              based on the decay programs           |
#              |                                                    |
#              |                     SDECAY 1.3b                    |
#              |                                                    |
#              |  Authors: M.Muhlleitner, A.Djouadi and Y.Mambrini  |
#              |  Ref.:    Comput.Phys.Commun.168(2005)46           |
#              |           [hep-ph/0311167]                         |
#              |                                                    |
#              |                     HDECAY 3.4                     |
#              |                                                    |
#              |  By: A.Djouadi,J.Kalinowski,M.Muhlleitner,M.Spira  |
#              |  Ref.:    Comput.Phys.Commun.108(1998)56           |
#              |           [hep-ph/9704448]                         |
#              |                                                    |
#              |                                                    |
#              |  If not stated otherwise all DRbar couplings and   |
#              |  soft SUSY breaking masses are given at the scale  |
#              |  Q=  0.50007462E+04
#              |                                                    |
#              ------------------------------------------------------
#
#
BLOCK DCINFO  # Decay Program information
     1   SDECAY/HDECAY # decay calculator
     2   1.3b  /3.4    # version number
#
BLOCK SPINFO  # Spectrum calculator information
     1    SOFTSUSY    # spectrum calculator                
     2    3.4.0       # version number                     
#
BLOCK MODSEL  # Model selection
     1     0   #  nonUniversal                                     
#
BLOCK SMINPUTS  # Standard Model inputs
         1     1.25778332E+02   # alpha_em^-1(M_Z)^MSbar
         2     1.16570000E-05   # G_F [GeV^-2]
         3     1.17200002E-01   # alpha_S(M_Z)^MSbar
         4     9.11876000E+01   # M_Z pole mass
         5     4.25000000E+00   # mb(mb)^MSbar
         6     1.72500000E+02   # mt pole mass
         7     1.77682000E+00   # mtau pole mass
#
BLOCK MINPAR  # Input parameters - minimal models
         3     1.00000000E+01   # tanb                
#
BLOCK EXTPAR  # Input parameters - non-minimal models
         0    -1.00000000E+00   # Set                 
         1     6.00000000E+01   # M_1(MX)             
         2     3.00000000E+03   # M_2(MX)             
         3     2.04381600E+03   # M_3(MX)             
        11     5.00000000E+03   # At(MX)              
        12     5.00000000E+03   # Ab(MX)              
        13     0.00000000E+00   # Atau(MX)            
        23    -8.61802000E+02   # mu(MX)              
        26     3.00000000E+03   # mA(pole)            
        31     5.00000000E+03   # meL(MX)             
        32     5.00000000E+03   # mmuL(MX)            
        33     5.00000000E+03   # mtauL(MX)           
        34     5.00000000E+03   # meR(MX)             
        35     5.00000000E+03   # mmuR(MX)            
        36     5.00000000E+03   # mtauR(MX)           
        41     5.00000000E+03   # mqL1(MX)            
        42     5.00000000E+03   # mqL2(MX)            
        43     5.00000000E+03   # mqL3(MX)            
        44     5.00000000E+03   # muR(MX)             
        45     5.00000000E+03   # mcR(MX)             
        46     5.00000000E+03   # mtR(MX)             
        47     5.00000000E+03   # mdR(MX)             
        48     5.00000000E+03   # msR(MX)             
        49     5.00000000E+03   # mbR(MX)             
#
BLOCK MASS  # Mass Spectrum
# PDG code           mass       particle
        24     8.00951210E+01   # W+
        25     1.24811755E+02   # h
        35     3.00007910E+03   # H
        36     2.99998880E+03   # A
        37     3.00140040E+03   # H+
         5     4.87878001E+00   # b-quark pole mass calculated from mb(mb)_Msbar
   1000001     5.07809289E+03   # ~d_L
   2000001     5.06030855E+03   # ~d_R
   1000002     5.07762105E+03   # ~u_L
   2000002     5.06002095E+03   # ~u_R
   1000003     5.07809289E+03   # ~s_L
   2000003     5.06030855E+03   # ~s_R
   1000004     5.07762105E+03   # ~c_L
   2000004     5.06002095E+03   # ~c_R
   1000005     5.02377722E+03   # ~b_1
   2000005     5.05874538E+03   # ~b_2
   1000006     4.91538502E+03   # ~t_1
   2000006     5.06787905E+03   # ~t_2
   1000011     5.01907489E+03   # ~e_L
   2000011     5.00592756E+03   # ~e_R
   1000012     5.01812616E+03   # ~nu_eL
   1000013     5.01907489E+03   # ~mu_L
   2000013     5.00592756E+03   # ~mu_R
   1000014     5.01812616E+03   # ~nu_muL
   1000015     5.00465126E+03   # ~tau_1
   2000015     5.01872832E+03   # ~tau_2
   1000016     5.01757891E+03   # ~nu_tauL
   1000021     2.40000047E+03   # ~g
   1000022     6.02945874E+01   # ~chi_10
   1000023     8.99734472E+02   # ~chi_20
   1000025    -9.01973164E+02   # ~chi_30
   1000035     3.07422842E+03   # ~chi_40
   1000024     9.00000576E+02   # ~chi_1+
   1000037     3.07439588E+03   # ~chi_2+
#
BLOCK NMIX  # Neutralino Mixing Matrix
  1  1     9.98775638E-01   # N_11
  1  2     1.96004429E-04   # N_12
  1  3    -4.94347885E-02   # N_13
  1  4     1.84063523E-03   # N_14
  2  1     3.36658513E-02   # N_21
  2  2     2.24241996E-02   # N_22
  2  3     7.06575305E-01   # N_23
  2  4     7.06480789E-01   # N_24
  3  1    -3.62446933E-02   # N_31
  3  2     1.52899128E-02   # N_32
  3  3    -7.05891000E-01   # N_33
  3  4     7.07227288E-01   # N_34
  4  1    -3.96662149E-04   # N_41
  4  2     9.99631600E-01   # N_42
  4  3    -5.04354245E-03   # N_43
  4  4    -2.66658943E-02   # N_44
#
BLOCK UMIX  # Chargino Mixing Matrix U
  1  1     7.14502560E-03   # U_11
  1  2     9.99974474E-01   # U_12
  2  1    -9.99974474E-01   # U_21
  2  2     7.14502560E-03   # U_22
#
BLOCK VMIX  # Chargino Mixing Matrix V
  1  1     3.77406097E-02   # V_11
  1  2    -9.99287569E-01   # V_12
  2  1    -9.99287569E-01   # V_21
  2  2    -3.77406097E-02   # V_22
#
BLOCK STOPMIX  # Stop Mixing Matrix
  1  1    -5.04631326E-01   # cos(theta_t)
  1  2     8.63334944E-01   # sin(theta_t)
  2  1    -8.63334944E-01   # -sin(theta_t)
  2  2    -5.04631326E-01   # cos(theta_t)
#
BLOCK SBOTMIX  # Sbottom Mixing Matrix
  1  1     9.97505368E-01   # cos(theta_b)
  1  2    -7.05906567E-02   # sin(theta_b)
  2  1     7.05906567E-02   # -sin(theta_b)
  2  2     9.97505368E-01   # cos(theta_b)
#
BLOCK STAUMIX  # Stau Mixing Matrix
  1  1    -1.02686866E-01   # cos(theta_tau)
  1  2     9.94713731E-01   # sin(theta_tau)
  2  1    -9.94713731E-01   # -sin(theta_tau)
  2  2    -1.02686866E-01   # cos(theta_tau)
#
BLOCK ALPHA  # Higgs mixing
          -1.05482915E-01   # Mixing angle in the neutral Higgs boson sector
#
BLOCK HMIX Q=  5.00074624E+03  # DRbar Higgs Parameters
         1    -8.77642298E+02   # mu(Q)MSSM           
         2     9.46913768E+00   # tan                 
         3     2.41831767E+02   # higgs               
         4     8.54685250E+06   # mA^2(Q)MSSM         
#
BLOCK GAUGE Q=  5.00074624E+03  # The gauge couplings
     1     3.70813954E-01   # gprime(Q) DRbar
     2     6.32647684E-01   # g(Q) DRbar
     3     9.95818158E-01   # g3(Q) DRbar
#
BLOCK AU Q=  5.00074624E+03  # The trilinear couplings
  1  1     5.00000002E+03   # A_u(Q) DRbar
  2  2     5.00000002E+03   # A_c(Q) DRbar
  3  3     5.00000002E+03   # A_t(Q) DRbar
#
BLOCK AD Q=  5.00074624E+03  # The trilinear couplings
  1  1     5.00000001E+03   # A_d(Q) DRbar
  2  2     5.00000001E+03   # A_s(Q) DRbar
  3  3     5.00000001E+03   # A_b(Q) DRbar
#
BLOCK AE Q=  5.00074624E+03  # The trilinear couplings
  1  1     0.00000000E+00   # A_e(Q) DRbar
  2  2     2.34401852E-07   # A_mu(Q) DRbar
  3  3     2.34275408E-07   # A_tau(Q) DRbar
#
BLOCK Yu Q=  5.00074624E+03  # The Yukawa couplings
  1  1     0.00000000E+00   # y_u(Q) DRbar
  2  2     0.00000000E+00   # y_c(Q) DRbar
  3  3     8.20937705E-01   # y_t(Q) DRbar
#
BLOCK Yd Q=  5.00074624E+03  # The Yukawa couplings
  1  1     0.00000000E+00   # y_d(Q) DRbar
  2  2     0.00000000E+00   # y_s(Q) DRbar
  3  3     1.30789493E-01   # y_b(Q) DRbar
#
BLOCK Ye Q=  5.00074624E+03  # The Yukawa couplings
  1  1     0.00000000E+00   # y_e(Q) DRbar
  2  2     0.00000000E+00   # y_mu(Q) DRbar
  3  3     9.69017670E-02   # y_tau(Q) DRbar
#
BLOCK MSOFT Q=  5.00074624E+03  # The soft SUSY breaking masses at the scale Q
         1     6.00000000E+01   # M_1(Q)              
         2     3.00000000E+03   # M_2(Q)              
         3     2.04381600E+03   # M_3(Q)              
        21     7.93273605E+06   # mH1^2(Q)            
        22    -2.01762311E+05   # mH2^2(Q)            
        31     5.00000000E+03   # meL(Q)              
        32     5.00000000E+03   # mmuL(Q)             
        33     5.00000000E+03   # mtauL(Q)            
        34     5.00000000E+03   # meR(Q)              
        35     5.00000000E+03   # mmuR(Q)             
        36     5.00000000E+03   # mtauR(Q)            
        41     5.00000000E+03   # mqL1(Q)             
        42     5.00000000E+03   # mqL2(Q)             
        43     4.99999999E+03   # mqL3(Q)             
        44     5.00000000E+03   # muR(Q)              
        45     5.00000000E+03   # mcR(Q)              
        46     4.99999999E+03   # mtR(Q)              
        47     5.00000000E+03   # mdR(Q)              
        48     5.00000000E+03   # msR(Q)              
        49     5.00000000E+03   # mbR(Q)              
#
#
#
#                             =================
#                             |The decay table|
#                             =================
#
# - The QCD corrections to the decays gluino -> squark  + quark
#                                     squark -> gaugino + quark_prime
#                                     squark -> squark_prime + Higgs
#                                     squark -> gluino  + quark
#   are included.
#
# - The multi-body decays for the inos, stops and sbottoms are included.
#
# - The loop induced decays for the gluino, neutralinos and stops
#   are included.
#
# - The SUSY decays of the top quark are included.
#
#
#         PDG            Width
DECAY         6     1.40258230E+00   # top decays
#          BR         NDA      ID1       ID2
     1.00000000E+00    2           5        24   # BR(t ->  b    W+)
#
#         PDG            Width
DECAY   1000021     3.19627979E-03   # gluino decays
#          BR         NDA      ID1       ID2
     1.70663514E-06    2     1000022        21   # BR(~g -> ~chi_10 g)
     5.93863353E-03    2     1000023        21   # BR(~g -> ~chi_20 g)
     5.83407664E-03    2     1000025        21   # BR(~g -> ~chi_30 g)
#           BR         NDA      ID1       ID2       ID3
     1.90241806E-02    3     1000022         1        -1   # BR(~g -> ~chi_10 d  db)
     2.16580418E-05    3     1000023         1        -1   # BR(~g -> ~chi_20 d  db)
     1.54214936E-05    3     1000025         1        -1   # BR(~g -> ~chi_30 d  db)
     6.48733554E-02    3     1000022         2        -2   # BR(~g -> ~chi_10 u  ub)
     7.83719011E-05    3     1000023         2        -2   # BR(~g -> ~chi_20 u  ub)
     1.93340594E-05    3     1000025         2        -2   # BR(~g -> ~chi_30 u  ub)
     1.90241806E-02    3     1000022         3        -3   # BR(~g -> ~chi_10 s  sb)
     2.16580418E-05    3     1000023         3        -3   # BR(~g -> ~chi_20 s  sb)
     1.54214936E-05    3     1000025         3        -3   # BR(~g -> ~chi_30 s  sb)
     6.48733554E-02    3     1000022         4        -4   # BR(~g -> ~chi_10 c  cb)
     7.83719011E-05    3     1000023         4        -4   # BR(~g -> ~chi_20 c  cb)
     1.93340594E-05    3     1000025         4        -4   # BR(~g -> ~chi_30 c  cb)
     1.93152122E-02    3     1000022         5        -5   # BR(~g -> ~chi_10 b  bb)
     4.83145932E-03    3     1000023         5        -5   # BR(~g -> ~chi_20 b  bb)
     4.78364948E-03    3     1000025         5        -5   # BR(~g -> ~chi_30 b  bb)
     6.56334652E-02    3     1000022         6        -6   # BR(~g -> ~chi_10 t  tb)
     1.81351490E-01    3     1000023         6        -6   # BR(~g -> ~chi_20 t  tb)
     1.66032966E-01    3     1000025         6        -6   # BR(~g -> ~chi_30 t  tb)
     6.13959684E-05    3     1000024         1        -2   # BR(~g -> ~chi_1+ d  ub)
     6.13959684E-05    3    -1000024         2        -1   # BR(~g -> ~chi_1- u  db)
     6.13959684E-05    3     1000024         3        -4   # BR(~g -> ~chi_1+ s  cb)
     6.13959684E-05    3    -1000024         4        -3   # BR(~g -> ~chi_1- c  sb)
     1.88983557E-01    3     1000024         5        -6   # BR(~g -> ~chi_1+ b  tb)
     1.88983557E-01    3    -1000024         6        -5   # BR(~g -> ~chi_1- t  bb)
#
#         PDG            Width
DECAY   1000006     3.05892964E+02   # stop1 decays
#          BR         NDA      ID1       ID2
     2.90348661E-02    2     1000022         6   # BR(~t_1 -> ~chi_10 t )
     1.01229231E-01    2     1000023         6   # BR(~t_1 -> ~chi_20 t )
     9.71832905E-02    2     1000025         6   # BR(~t_1 -> ~chi_30 t )
     6.68127613E-03    2     1000035         6   # BR(~t_1 -> ~chi_40 t )
     1.48276211E-01    2     1000024         5   # BR(~t_1 -> ~chi_1+ b )
     1.33132145E-02    2     1000037         5   # BR(~t_1 -> ~chi_2+ b )
     6.04281910E-01    2     1000021         6   # BR(~t_1 -> ~g      t )
#
#         PDG            Width
DECAY   2000006     3.14187398E+02   # stop2 decays
#          BR         NDA      ID1       ID2
     1.09213236E-02    2     1000022         6   # BR(~t_2 -> ~chi_10 t )
     1.00695665E-01    2     1000023         6   # BR(~t_2 -> ~chi_20 t )
     1.05045925E-01    2     1000025         6   # BR(~t_2 -> ~chi_30 t )
     1.78827821E-02    2     1000035         6   # BR(~t_2 -> ~chi_40 t )
     5.88329249E-02    2     1000024         5   # BR(~t_2 -> ~chi_1+ b )
     3.55870591E-02    2     1000037         5   # BR(~t_2 -> ~chi_2+ b )
     6.67149258E-01    2     1000021         6   # BR(~t_2 -> ~g      t )
     8.90297070E-04    2     1000006        25   # BR(~t_2 -> ~t_1    h )
     2.99476509E-03    2     1000006        23   # BR(~t_2 -> ~t_1    Z )
#
#         PDG            Width
DECAY   1000005     2.88866172E+02   # sbottom1 decays
#          BR         NDA      ID1       ID2
     2.66821968E-03    2     1000022         5   # BR(~b_1 -> ~chi_10 b )
     2.79408698E-03    2     1000023         5   # BR(~b_1 -> ~chi_20 b )
     2.73332753E-03    2     1000025         5   # BR(~b_1 -> ~chi_30 b )
     2.62368592E-02    2     1000035         5   # BR(~b_1 -> ~chi_40 b )
     2.17317407E-01    2    -1000024         6   # BR(~b_1 -> ~chi_1- t )
     5.27056652E-02    2    -1000037         6   # BR(~b_1 -> ~chi_2- t )
     6.93655404E-01    2     1000021         5   # BR(~b_1 -> ~g      b )
     1.88903061E-03    2     1000006       -24   # BR(~b_1 -> ~t_1    W-)
#
#         PDG            Width
DECAY   2000005     2.09796972E+02   # sbottom2 decays
#          BR         NDA      ID1       ID2
     1.39847932E-02    2     1000022         5   # BR(~b_2 -> ~chi_10 b )
     3.85817718E-03    2     1000023         5   # BR(~b_2 -> ~chi_20 b )
     3.94912801E-03    2     1000025         5   # BR(~b_2 -> ~chi_30 b )
     1.77810319E-04    2     1000035         5   # BR(~b_2 -> ~chi_40 b )
     9.08964922E-03    2    -1000024         6   # BR(~b_2 -> ~chi_1- t )
     3.57166634E-04    2    -1000037         6   # BR(~b_2 -> ~chi_2- t )
     9.68527698E-01    2     1000021         5   # BR(~b_2 -> ~g      b )
     5.55771877E-05    2     1000006       -24   # BR(~b_2 -> ~t_1    W-)
#
#         PDG            Width
DECAY   1000002     2.29201229E+02   # sup_L decays
#          BR         NDA      ID1       ID2
     3.25022367E-03    2     1000022         2   # BR(~u_L -> ~chi_10 u)
     6.73728604E-05    2     1000023         2   # BR(~u_L -> ~chi_20 u)
     5.39548964E-06    2     1000025         2   # BR(~u_L -> ~chi_30 u)
     3.44191600E-02    2     1000035         2   # BR(~u_L -> ~chi_40 u)
     2.28175344E-04    2     1000024         1   # BR(~u_L -> ~chi_1+ d)
     6.87930087E-02    2     1000037         1   # BR(~u_L -> ~chi_2+ d)
     8.93236664E-01    2     1000021         2   # BR(~u_L -> ~g      u)
#
#         PDG            Width
DECAY   2000002     2.15084845E+02   # sup_R decays
#          BR         NDA      ID1       ID2
     5.51104192E-02    2     1000022         2   # BR(~u_R -> ~chi_10 u)
     5.88527408E-05    2     1000023         2   # BR(~u_R -> ~chi_20 u)
     6.81925293E-05    2     1000025         2   # BR(~u_R -> ~chi_30 u)
     3.48744070E-09    2     1000035         2   # BR(~u_R -> ~chi_40 u)
     9.44762532E-01    2     1000021         2   # BR(~u_R -> ~g      u)
#
#         PDG            Width
DECAY   1000001     2.29217317E+02   # sdown_L decays
#          BR         NDA      ID1       ID2
     3.23727011E-03    2     1000022         1   # BR(~d_L -> ~chi_10 d)
     2.01154261E-05    2     1000023         1   # BR(~d_L -> ~chi_20 d)
     4.00770927E-05    2     1000025         1   # BR(~d_L -> ~chi_30 d)
     3.44379761E-02    2     1000035         1   # BR(~d_L -> ~chi_40 d)
     8.17850777E-06    2    -1000024         2   # BR(~d_L -> ~chi_1- u)
     6.89039077E-02    2    -1000037         2   # BR(~d_L -> ~chi_2- u)
     8.93352475E-01    2     1000021         1   # BR(~d_L -> ~g      d)
#
#         PDG            Width
DECAY   2000001     2.06199419E+02   # sdown_R decays
#          BR         NDA      ID1       ID2
     1.43721327E-02    2     1000022         1   # BR(~d_R -> ~chi_10 d)
     1.53481942E-05    2     1000023         1   # BR(~d_R -> ~chi_20 d)
     1.77839164E-05    2     1000025         1   # BR(~d_R -> ~chi_30 d)
     9.09601746E-10    2     1000035         1   # BR(~d_R -> ~chi_40 d)
     9.85594734E-01    2     1000021         1   # BR(~d_R -> ~g      d)
#
#         PDG            Width
DECAY   1000004     2.29201229E+02   # scharm_L decays
#          BR         NDA      ID1       ID2
     3.25022367E-03    2     1000022         4   # BR(~c_L -> ~chi_10 c)
     6.73728604E-05    2     1000023         4   # BR(~c_L -> ~chi_20 c)
     5.39548964E-06    2     1000025         4   # BR(~c_L -> ~chi_30 c)
     3.44191600E-02    2     1000035         4   # BR(~c_L -> ~chi_40 c)
     2.28175344E-04    2     1000024         3   # BR(~c_L -> ~chi_1+ s)
     6.87930087E-02    2     1000037         3   # BR(~c_L -> ~chi_2+ s)
     8.93236664E-01    2     1000021         4   # BR(~c_L -> ~g      c)
#
#         PDG            Width
DECAY   2000004     2.15084845E+02   # scharm_R decays
#          BR         NDA      ID1       ID2
     5.51104192E-02    2     1000022         4   # BR(~c_R -> ~chi_10 c)
     5.88527408E-05    2     1000023         4   # BR(~c_R -> ~chi_20 c)
     6.81925293E-05    2     1000025         4   # BR(~c_R -> ~chi_30 c)
     3.48744070E-09    2     1000035         4   # BR(~c_R -> ~chi_40 c)
     9.44762532E-01    2     1000021         4   # BR(~c_R -> ~g      c)
#
#         PDG            Width
DECAY   1000003     2.29217317E+02   # sstrange_L decays
#          BR         NDA      ID1       ID2
     3.23727011E-03    2     1000022         3   # BR(~s_L -> ~chi_10 s)
     2.01154261E-05    2     1000023         3   # BR(~s_L -> ~chi_20 s)
     4.00770927E-05    2     1000025         3   # BR(~s_L -> ~chi_30 s)
     3.44379761E-02    2     1000035         3   # BR(~s_L -> ~chi_40 s)
     8.17850777E-06    2    -1000024         4   # BR(~s_L -> ~chi_1- c)
     6.89039077E-02    2    -1000037         4   # BR(~s_L -> ~chi_2- c)
     8.93352475E-01    2     1000021         3   # BR(~s_L -> ~g      s)
#
#         PDG            Width
DECAY   2000003     2.06199419E+02   # sstrange_R decays
#          BR         NDA      ID1       ID2
     1.43721327E-02    2     1000022         3   # BR(~s_R -> ~chi_10 s)
     1.53481942E-05    2     1000023         3   # BR(~s_R -> ~chi_20 s)
     1.77839164E-05    2     1000025         3   # BR(~s_R -> ~chi_30 s)
     9.09601746E-10    2     1000035         3   # BR(~s_R -> ~chi_40 s)
     9.85594734E-01    2     1000021         3   # BR(~s_R -> ~g      s)
#
#         PDG            Width
DECAY   1000011     3.02787126E+01   # selectron_L decays
#          BR         NDA      ID1       ID2
     2.26255865E-01    2     1000022        11   # BR(~e_L -> ~chi_10 e-)
     1.09868797E-03    2     1000023        11   # BR(~e_L -> ~chi_20 e-)
     2.19100110E-05    2     1000025        11   # BR(~e_L -> ~chi_30 e-)
     2.57345010E-01    2     1000035        11   # BR(~e_L -> ~chi_40 e-)
     6.31190049E-05    2    -1000024        12   # BR(~e_L -> ~chi_1- nu_e)
     5.15215408E-01    2    -1000037        12   # BR(~e_L -> ~chi_2- nu_e)
#
#         PDG            Width
DECAY   2000011     2.73755801E+01   # selectron_R decays
#          BR         NDA      ID1       ID2
     9.97707807E-01    2     1000022        11   # BR(~e_R -> ~chi_10 e-)
     1.06181873E-03    2     1000023        11   # BR(~e_R -> ~chi_20 e-)
     1.23031283E-03    2     1000025        11   # BR(~e_R -> ~chi_30 e-)
     6.10682181E-08    2     1000035        11   # BR(~e_R -> ~chi_40 e-)
#
#         PDG            Width
DECAY   1000013     3.02787126E+01   # smuon_L decays
#          BR         NDA      ID1       ID2
     2.26255865E-01    2     1000022        13   # BR(~mu_L -> ~chi_10 mu-)
     1.09868797E-03    2     1000023        13   # BR(~mu_L -> ~chi_20 mu-)
     2.19100110E-05    2     1000025        13   # BR(~mu_L -> ~chi_30 mu-)
     2.57345010E-01    2     1000035        13   # BR(~mu_L -> ~chi_40 mu-)
     6.31190049E-05    2    -1000024        14   # BR(~mu_L -> ~chi_1- nu_mu)
     5.15215408E-01    2    -1000037        14   # BR(~mu_L -> ~chi_2- nu_mu)
#
#         PDG            Width
DECAY   2000013     2.73755801E+01   # smuon_R decays
#          BR         NDA      ID1       ID2
     9.97707807E-01    2     1000022        13   # BR(~mu_R -> ~chi_10 mu-)
     1.06181873E-03    2     1000023        13   # BR(~mu_R -> ~chi_20 mu-)
     1.23031283E-03    2     1000025        13   # BR(~mu_R -> ~chi_30 mu-)
     6.10682181E-08    2     1000035        13   # BR(~mu_R -> ~chi_40 mu-)
#
#         PDG            Width
DECAY   1000015     2.91471764E+01   # stau_1 decays
#          BR         NDA      ID1       ID2
     9.30372169E-01    2     1000022        15   # BR(~tau_1 -> ~chi_10  tau-)
     1.60468650E-02    2     1000023        15   # BR(~tau_1 -> ~chi_20  tau-)
     1.53748039E-02    2     1000025        15   # BR(~tau_1 -> ~chi_30  tau-)
     2.73263218E-03    2     1000035        15   # BR(~tau_1 -> ~chi_40  tau-)
     3.00029175E-02    2    -1000024        16   # BR(~tau_1 -> ~chi_1-  nu_tau)
     5.47061282E-03    2    -1000037        16   # BR(~tau_1 -> ~chi_2-  nu_tau)
#
#         PDG            Width
DECAY   2000015     3.11215107E+01   # stau_2 decays
#          BR         NDA      ID1       ID2
     2.26322801E-01    2     1000022        15   # BR(~tau_2 -> ~chi_10  tau-)
     1.51061173E-02    2     1000023        15   # BR(~tau_2 -> ~chi_20  tau-)
     1.47755995E-02    2     1000025        15   # BR(~tau_2 -> ~chi_30  tau-)
     2.47733251E-01    2     1000035        15   # BR(~tau_2 -> ~chi_40  tau-)
     8.93892375E-05    2    -1000024        16   # BR(~tau_2 -> ~chi_1-  nu_tau)
     4.95972842E-01    2    -1000037        16   # BR(~tau_2 -> ~chi_2-  nu_tau)
#
#         PDG            Width
DECAY   1000012     3.02816203E+01   # snu_eL decays
#          BR         NDA      ID1       ID2
     2.25888625E-01    2     1000022        12   # BR(~nu_eL -> ~chi_10 nu_e)
     4.47748482E-06    2     1000023        12   # BR(~nu_eL -> ~chi_20 nu_e)
     8.24624419E-04    2     1000025        12   # BR(~nu_eL -> ~chi_30 nu_e)
     2.57394191E-01    2     1000035        12   # BR(~nu_eL -> ~chi_40 nu_e)
     1.76049855E-03    2     1000024        11   # BR(~nu_eL -> ~chi_1+ e-)
     5.14127583E-01    2     1000037        11   # BR(~nu_eL -> ~chi_2+ e-)
#
#         PDG            Width
DECAY   1000014     3.02816203E+01   # snu_muL decays
#          BR         NDA      ID1       ID2
     2.25888625E-01    2     1000022        14   # BR(~nu_muL -> ~chi_10 nu_mu)
     4.47748482E-06    2     1000023        14   # BR(~nu_muL -> ~chi_20 nu_mu)
     8.24624419E-04    2     1000025        14   # BR(~nu_muL -> ~chi_30 nu_mu)
     2.57394191E-01    2     1000035        14   # BR(~nu_muL -> ~chi_40 nu_mu)
     1.76049855E-03    2     1000024        13   # BR(~nu_muL -> ~chi_1+ mu-)
     5.14127583E-01    2     1000037        13   # BR(~nu_muL -> ~chi_2+ mu-)
#
#         PDG            Width
DECAY   1000016     3.11501660E+01   # snu_tauL decays
#          BR         NDA      ID1       ID2
     2.19566316E-01    2     1000022        16   # BR(~nu_tauL -> ~chi_10 nu_tau)
     4.35210343E-06    2     1000023        16   # BR(~nu_tauL -> ~chi_20 nu_tau)
     8.01532702E-04    2     1000025        16   # BR(~nu_tauL -> ~chi_30 nu_tau)
     2.50124525E-01    2     1000035        16   # BR(~nu_tauL -> ~chi_40 nu_tau)
     2.98968643E-02    2     1000024        15   # BR(~nu_tauL -> ~chi_1+ tau-)
     4.99606410E-01    2     1000037        15   # BR(~nu_tauL -> ~chi_2+ tau-)
#
#         PDG            Width
DECAY   1000024     5.46117719E-01   # chargino1+ decays
#          BR         NDA      ID1       ID2
     1.00000000E+00    2     1000022        24   # BR(~chi_1+ -> ~chi_10  W+)
#
#         PDG            Width
DECAY   1000037     2.07642115E+01   # chargino2+ decays
#          BR         NDA      ID1       ID2
     2.53278389E-01    2     1000024        23   # BR(~chi_2+ -> ~chi_1+  Z )
     1.91046483E-04    2     1000022        24   # BR(~chi_2+ -> ~chi_10  W+)
     2.44263909E-01    2     1000023        24   # BR(~chi_2+ -> ~chi_20  W+)
     2.44161536E-01    2     1000025        24   # BR(~chi_2+ -> ~chi_30  W+)
     2.58103644E-01    2     1000024        25   # BR(~chi_2+ -> ~chi_1+  h )
     1.47419167E-06    2     1000022        37   # BR(~chi_2+ -> ~chi_10  H+)
#
#         PDG            Width
DECAY   1000022     0.00000000E+00   # neutralino1 decays
#
#         PDG            Width
DECAY   1000023     5.68935086E-01   # neutralino2 decays
#          BR         NDA      ID1       ID2
     5.35269046E-01    2     1000022        23   # BR(~chi_20 -> ~chi_10   Z )
     4.64730954E-01    2     1000022        25   # BR(~chi_20 -> ~chi_10   h )
#
#         PDG            Width
DECAY   1000025     5.70433395E-01   # neutralino3 decays
#          BR         NDA      ID1       ID2
     4.58686486E-01    2     1000022        23   # BR(~chi_30 -> ~chi_10   Z )
     5.41313514E-01    2     1000022        25   # BR(~chi_30 -> ~chi_10   h )
#
#         PDG            Width
DECAY   1000035     2.07799248E+01   # neutralino4 decays
#          BR         NDA      ID1       ID2
     4.00042123E-05    2     1000022        23   # BR(~chi_40 -> ~chi_10   Z )
     8.03615766E-02    2     1000023        23   # BR(~chi_40 -> ~chi_20   Z )
     1.72221986E-01    2     1000025        23   # BR(~chi_40 -> ~chi_30   Z )
     2.44860543E-01    2     1000024       -24   # BR(~chi_40 -> ~chi_1+   W-)
     2.44860543E-01    2    -1000024        24   # BR(~chi_40 -> ~chi_1-   W+)
     1.50916338E-04    2     1000022        25   # BR(~chi_40 -> ~chi_10   h )
     1.40415654E-06    2     1000022        35   # BR(~chi_40 -> ~chi_10   H )
     1.67969739E-07    2     1000022        36   # BR(~chi_40 -> ~chi_10   A )
     1.76904266E-01    2     1000023        25   # BR(~chi_40 -> ~chi_20   h )
     8.05985935E-02    2     1000025        25   # BR(~chi_40 -> ~chi_30   h )
#
#         PDG            Width
DECAY        25     4.06152757E-03   # h decays
#          BR         NDA      ID1       ID2
     6.07440743E-01    2           5        -5   # BR(h -> b       bb     )
     6.38817902E-02    2         -15        15   # BR(h -> tau+    tau-   )
     2.26164596E-04    2         -13        13   # BR(h -> mu+     mu-    )
     4.79426725E-04    2           3        -3   # BR(h -> s       sb     )
     2.07739831E-02    2           4        -4   # BR(h -> c       cb     )
     6.72432713E-02    2          21        21   # BR(h -> g       g      )
     2.31271459E-03    2          22        22   # BR(h -> gam     gam    )
     1.49453511E-03    2          22        23   # BR(h -> Z       gam    )
     2.10931127E-01    2          24       -24   # BR(h -> W+      W-     )
     2.51514113E-02    2          23        23   # BR(h -> Z       Z      )
     6.48333532E-05    2     1000022   1000022   # BR(h -> ~chi_10 ~chi_10)
#
#         PDG            Width
DECAY        35     8.24236649E+00   # H decays
#          BR         NDA      ID1       ID2
     3.90953199E-01    2           5        -5   # BR(H -> b       bb     )
     6.75810667E-02    2         -15        15   # BR(H -> tau+    tau-   )
     2.38972020E-04    2         -13        13   # BR(H -> mu+     mu-    )
     2.92943092E-04    2           3        -3   # BR(H -> s       sb     )
     1.63915625E-06    2           4        -4   # BR(H -> c       cb     )
     1.63764688E-01    2           6        -6   # BR(H -> t       tb     )
     5.44304822E-05    2          21        21   # BR(H -> g       g      )
     2.37968776E-07    2          22        22   # BR(H -> gam     gam    )
     9.66958059E-08    2          23        22   # BR(H -> Z       gam    )
     7.60791124E-05    2          24       -24   # BR(H -> W+      W-     )
     3.79914073E-05    2          23        23   # BR(H -> Z       Z      )
     2.80605423E-04    2          25        25   # BR(H -> h       h      )
     2.69202800E-23    2          36        36   # BR(H -> A       A      )
     9.41110460E-19    2          23        36   # BR(H -> Z       A      )
     2.29855267E-03    2     1000024  -1000024   # BR(H -> ~chi_1+ ~chi_1-)
     2.16310396E-03    2     1000022   1000022   # BR(H -> ~chi_10 ~chi_10)
     1.59501297E-05    2     1000023   1000023   # BR(H -> ~chi_20 ~chi_20)
     7.54390622E-04    2     1000025   1000025   # BR(H -> ~chi_30 ~chi_30)
     2.23109763E-01    2     1000022   1000023   # BR(H -> ~chi_10 ~chi_20)
     1.47633192E-01    2     1000022   1000025   # BR(H -> ~chi_10 ~chi_30)
     7.43098113E-04    2     1000023   1000025   # BR(H -> ~chi_20 ~chi_30)
#
#         PDG            Width
DECAY        36     8.25640226E+00   # A decays
#          BR         NDA      ID1       ID2
     3.90420003E-01    2           5        -5   # BR(A -> b       bb     )
     6.74680487E-02    2         -15        15   # BR(A -> tau+    tau-   )
     2.38572046E-04    2         -13        13   # BR(A -> mu+     mu-    )
     2.92666650E-04    2           3        -3   # BR(A -> s       sb     )
     1.64303200E-06    2           4        -4   # BR(A -> c       cb     )
     1.64061338E-01    2           6        -6   # BR(A -> t       tb     )
     1.62344495E-04    2          21        21   # BR(A -> g       g      )
     5.87932963E-07    2          22        22   # BR(A -> gam     gam    )
     1.96614031E-07    2          23        22   # BR(A -> Z       gam    )
     7.56618392E-05    2          23        25   # BR(A -> Z       h      )
     3.30956520E-03    2     1000024  -1000024   # BR(A -> ~chi_1+ ~chi_1-)
     2.19731166E-03    2     1000022   1000022   # BR(A -> ~chi_10 ~chi_10)
     1.62690433E-05    2     1000023   1000023   # BR(A -> ~chi_20 ~chi_20)
     1.80509149E-03    2     1000025   1000025   # BR(A -> ~chi_30 ~chi_30)
     1.49647252E-01    2     1000022   1000023   # BR(A -> ~chi_10 ~chi_20)
     2.20026598E-01    2     1000022   1000025   # BR(A -> ~chi_10 ~chi_30)
     2.76850218E-04    2     1000023   1000025   # BR(A -> ~chi_20 ~chi_30)
#
#         PDG            Width
DECAY        37     8.22118253E+00   # H+ decays
#          BR         NDA      ID1       ID2
     6.28843223E-04    2           4        -5   # BR(H+ -> c       bb     )
     6.77889655E-02    2         -15        16   # BR(H+ -> tau+    nu_tau )
     2.39706831E-04    2         -13        14   # BR(H+ -> mu+     nu_mu  )
     4.02457578E-06    2           2        -5   # BR(H+ -> u       bb     )
     1.40651774E-05    2           2        -3   # BR(H+ -> u       sb     )
     2.90869206E-04    2           4        -3   # BR(H+ -> c       sb     )
     5.54374790E-01    2           6        -5   # BR(H+ -> t       bb     )
     7.61423143E-05    2          24        25   # BR(H+ -> W+      h      )
     8.95861560E-13    2          24        36   # BR(H+ -> W+      A      )
     3.75439204E-01    2     1000024   1000022   # BR(H+ -> ~chi_1+ ~chi_10)
     1.12163977E-03    2     1000024   1000023   # BR(H+ -> ~chi_1+ ~chi_20)
     2.17499298E-05    2     1000024   1000025   # BR(H+ -> ~chi_1+ ~chi_30)
