#
#                              ======================
#                              | THE SUSYHIT OUTPUT |
#                              ======================
#
#
#              ------------------------------------------------------
#              |     This is the output of the SUSY-HIT package     |
#              |  created by A.Djouadi, M.Muehlleitner and M.Spira. |
#              |  In case of problems with SUSY-HIT email to        |
#              |           margarete.muehlleitner@cern.ch           |
#              |           michael.spira@psi.ch                     |
#              |           abdelhak.djouadi@cern.ch                 |
#              ------------------------------------------------------
#
#              ------------------------------------------------------
#              |  SUSY Les Houches Accord - MSSM Spectrum + Decays  |
#              |              based on the decay programs           |
#              |                                                    |
#              |                     SDECAY 1.3b                    |
#              |                                                    |
#              |  Authors: M.Muhlleitner, A.Djouadi and Y.Mambrini  |
#              |  Ref.:    Comput.Phys.Commun.168(2005)46           |
#              |           [hep-ph/0311167]                         |
#              |                                                    |
#              |                     HDECAY 3.4                     |
#              |                                                    |
#              |  By: A.Djouadi,J.Kalinowski,M.Muhlleitner,M.Spira  |
#              |  Ref.:    Comput.Phys.Commun.108(1998)56           |
#              |           [hep-ph/9704448]                         |
#              |                                                    |
#              |                                                    |
#              |  If not stated otherwise all DRbar couplings and   |
#              |  soft SUSY breaking masses are given at the scale  |
#              |  Q=  0.50007216E+04
#              |                                                    |
#              ------------------------------------------------------
#
#
BLOCK DCINFO  # Decay Program information
     1   SDECAY/HDECAY # decay calculator
     2   1.3b  /3.4    # version number
#
BLOCK SPINFO  # Spectrum calculator information
     1    SOFTSUSY    # spectrum calculator                
     2    3.4.0       # version number                     
#
BLOCK MODSEL  # Model selection
     1     0   #  nonUniversal                                     
#
BLOCK SMINPUTS  # Standard Model inputs
         1     1.25778332E+02   # alpha_em^-1(M_Z)^MSbar
         2     1.16570000E-05   # G_F [GeV^-2]
         3     1.17200002E-01   # alpha_S(M_Z)^MSbar
         4     9.11876000E+01   # M_Z pole mass
         5     4.25000000E+00   # mb(mb)^MSbar
         6     1.72500000E+02   # mt pole mass
         7     1.77682000E+00   # mtau pole mass
#
BLOCK MINPAR  # Input parameters - minimal models
         3     1.00000000E+01   # tanb                
#
BLOCK EXTPAR  # Input parameters - non-minimal models
         0    -1.00000000E+00   # Set                 
         1     6.00000000E+01   # M_1(MX)             
         2     3.00000000E+03   # M_2(MX)             
         3     1.12229800E+03   # M_3(MX)             
        11     5.00000000E+03   # At(MX)              
        12     5.00000000E+03   # Ab(MX)              
        13     0.00000000E+00   # Atau(MX)            
        23    -1.25149800E+03   # mu(MX)              
        26     3.00000000E+03   # mA(pole)            
        31     5.00000000E+03   # meL(MX)             
        32     5.00000000E+03   # mmuL(MX)            
        33     5.00000000E+03   # mtauL(MX)           
        34     5.00000000E+03   # meR(MX)             
        35     5.00000000E+03   # mmuR(MX)            
        36     5.00000000E+03   # mtauR(MX)           
        41     5.00000000E+03   # mqL1(MX)            
        42     5.00000000E+03   # mqL2(MX)            
        43     5.00000000E+03   # mqL3(MX)            
        44     5.00000000E+03   # muR(MX)             
        45     5.00000000E+03   # mcR(MX)             
        46     5.00000000E+03   # mtR(MX)             
        47     5.00000000E+03   # mdR(MX)             
        48     5.00000000E+03   # msR(MX)             
        49     5.00000000E+03   # mbR(MX)             
#
BLOCK MASS  # Mass Spectrum
# PDG code           mass       particle
        24     8.00947242E+01   # W+
        25     1.24575555E+02   # h
        35     3.00008140E+03   # H
        36     2.99999988E+03   # A
        37     3.00086928E+03   # H+
         5     4.87878001E+00   # b-quark pole mass calculated from mb(mb)_Msbar
   1000001     5.06591236E+03   # ~d_L
   2000001     5.04810279E+03   # ~d_R
   1000002     5.06543647E+03   # ~u_L
   2000002     5.04782340E+03   # ~u_R
   1000003     5.06591236E+03   # ~s_L
   2000003     5.04810279E+03   # ~s_R
   1000004     5.06543647E+03   # ~c_L
   2000004     5.04782340E+03   # ~c_R
   1000005     5.01203747E+03   # ~b_1
   2000005     5.04685350E+03   # ~b_2
   1000006     4.90270736E+03   # ~t_1
   2000006     5.05833016E+03   # ~t_2
   1000011     5.01905865E+03   # ~e_L
   2000011     5.00591554E+03   # ~e_R
   1000012     5.01811016E+03   # ~nu_eL
   1000013     5.01905865E+03   # ~mu_L
   2000013     5.00591554E+03   # ~mu_R
   1000014     5.01811016E+03   # ~nu_muL
   1000015     5.00447619E+03   # ~tau_1
   2000015     5.01889868E+03   # ~tau_2
   1000016     5.01756798E+03   # ~nu_tauL
   1000021     1.40000099E+03   # ~g
   1000022     6.03027981E+01   # ~chi_10
   1000023     1.29950305E+03   # ~chi_20
   1000025    -1.30184489E+03   # ~chi_30
   1000035     3.07430882E+03   # ~chi_40
   1000024     1.30000094E+03   # ~chi_1+
   1000037     3.07447630E+03   # ~chi_2+
#
BLOCK NMIX  # Neutralino Mixing Matrix
  1  1     9.99410308E-01   # N_11
  1  2     1.55314823E-04   # N_12
  1  3    -3.42787778E-02   # N_13
  1  4     1.99442377E-03   # N_14
  2  1     2.28310824E-02   # N_21
  2  2     2.74324392E-02   # N_22
  2  3     7.06875122E-01   # N_23
  2  4     7.06437375E-01   # N_24
  3  1    -2.56436508E-02   # N_31
  3  2     1.38801636E-02   # N_32
  3  3    -7.06442252E-01   # N_33
  3  4     7.07169774E-01   # N_34
  4  1    -4.25798730E-04   # N_41
  4  2     9.99527277E-01   # N_42
  4  3    -9.58498182E-03   # N_43
  4  4    -2.92090500E-02   # N_44
#
BLOCK UMIX  # Chargino Mixing Matrix U
  1  1     1.35695535E-02   # U_11
  1  2     9.99907929E-01   # U_12
  2  1    -9.99907929E-01   # U_21
  2  2     1.35695535E-02   # U_22
#
BLOCK VMIX  # Chargino Mixing Matrix V
  1  1     4.13346866E-02   # V_11
  1  2    -9.99145357E-01   # V_12
  2  1    -9.99145357E-01   # V_21
  2  2    -4.13346866E-02   # V_22
#
BLOCK STOPMIX  # Stop Mixing Matrix
  1  1    -5.11259036E-01   # cos(theta_t)
  1  2     8.59426668E-01   # sin(theta_t)
  2  1    -8.59426668E-01   # -sin(theta_t)
  2  2    -5.11259036E-01   # cos(theta_t)
#
BLOCK SBOTMIX  # Sbottom Mixing Matrix
  1  1     9.95622822E-01   # cos(theta_b)
  1  2    -9.34622721E-02   # sin(theta_b)
  2  1     9.34622721E-02   # -sin(theta_b)
  2  2     9.95622822E-01   # cos(theta_b)
#
BLOCK STAUMIX  # Stau Mixing Matrix
  1  1    -1.46897590E-01   # cos(theta_tau)
  1  2     9.89151706E-01   # sin(theta_tau)
  2  1    -9.89151706E-01   # -sin(theta_tau)
  2  2    -1.46897590E-01   # cos(theta_tau)
#
BLOCK ALPHA  # Higgs mixing
          -1.05445593E-01   # Mixing angle in the neutral Higgs boson sector
#
BLOCK HMIX Q=  5.00072161E+03  # DRbar Higgs Parameters
         1    -1.27412580E+03   # mu(Q)MSSM           
         2     9.47212241E+00   # tan                 
         3     2.41944651E+02   # higgs               
         4     8.43727777E+06   # mA^2(Q)MSSM         
#
BLOCK GAUGE Q=  5.00072161E+03  # The gauge couplings
     1     3.70747606E-01   # gprime(Q) DRbar
     2     6.32286038E-01   # g(Q) DRbar
     3     1.00371309E+00   # g3(Q) DRbar
#
BLOCK AU Q=  5.00072161E+03  # The trilinear couplings
  1  1     5.00000001E+03   # A_u(Q) DRbar
  2  2     5.00000001E+03   # A_c(Q) DRbar
  3  3     5.00000001E+03   # A_t(Q) DRbar
#
BLOCK AD Q=  5.00072161E+03  # The trilinear couplings
  1  1     5.00000000E+03   # A_d(Q) DRbar
  2  2     5.00000000E+03   # A_s(Q) DRbar
  3  3     5.00000001E+03   # A_b(Q) DRbar
#
BLOCK AE Q=  5.00072161E+03  # The trilinear couplings
  1  1     0.00000000E+00   # A_e(Q) DRbar
  2  2     8.19424315E-08   # A_mu(Q) DRbar
  3  3     8.12198198E-08   # A_tau(Q) DRbar
#
BLOCK Yu Q=  5.00072161E+03  # The Yukawa couplings
  1  1     0.00000000E+00   # y_u(Q) DRbar
  2  2     0.00000000E+00   # y_c(Q) DRbar
  3  3     8.17001208E-01   # y_t(Q) DRbar
#
BLOCK Yd Q=  5.00072161E+03  # The Yukawa couplings
  1  1     0.00000000E+00   # y_d(Q) DRbar
  2  2     0.00000000E+00   # y_s(Q) DRbar
  3  3     1.30270536E-01   # y_b(Q) DRbar
#
BLOCK Ye Q=  5.00072161E+03  # The Yukawa couplings
  1  1     0.00000000E+00   # y_e(Q) DRbar
  2  2     0.00000000E+00   # y_mu(Q) DRbar
  3  3     9.67223196E-02   # y_tau(Q) DRbar
#
BLOCK MSOFT Q=  5.00072161E+03  # The soft SUSY breaking masses at the scale Q
         1     6.00000000E+01   # M_1(Q)              
         2     3.00000000E+03   # M_2(Q)              
         3     1.12229800E+03   # M_3(Q)              
        21     7.05646018E+06   # mH1^2(Q)            
        22    -1.07077886E+06   # mH2^2(Q)            
        31     5.00000000E+03   # meL(Q)              
        32     5.00000000E+03   # mmuL(Q)             
        33     5.00000000E+03   # mtauL(Q)            
        34     5.00000000E+03   # meR(Q)              
        35     5.00000000E+03   # mmuR(Q)             
        36     5.00000000E+03   # mtauR(Q)            
        41     5.00000000E+03   # mqL1(Q)             
        42     5.00000000E+03   # mqL2(Q)             
        43     5.00000000E+03   # mqL3(Q)             
        44     5.00000000E+03   # muR(Q)              
        45     5.00000000E+03   # mcR(Q)              
        46     5.00000000E+03   # mtR(Q)              
        47     5.00000000E+03   # mdR(Q)              
        48     5.00000000E+03   # msR(Q)              
        49     5.00000000E+03   # mbR(Q)              
#
#
#
#                             =================
#                             |The decay table|
#                             =================
#
# - The QCD corrections to the decays gluino -> squark  + quark
#                                     squark -> gaugino + quark_prime
#                                     squark -> squark_prime + Higgs
#                                     squark -> gluino  + quark
#   are included.
#
# - The multi-body decays for the inos, stops and sbottoms are included.
#
# - The loop induced decays for the gluino, neutralinos and stops
#   are included.
#
# - The SUSY decays of the top quark are included.
#
#
#         PDG            Width
DECAY         6     1.40099655E+00   # top decays
#          BR         NDA      ID1       ID2
     1.00000000E+00    2           5        24   # BR(t ->  b    W+)
#
#         PDG            Width
DECAY   1000021     4.80851642E-05   # gluino decays
#          BR         NDA      ID1       ID2
     1.28613691E-05    2     1000022        21   # BR(~g -> ~chi_10 g)
     2.97944943E-04    2     1000023        21   # BR(~g -> ~chi_20 g)
     2.77797916E-04    2     1000025        21   # BR(~g -> ~chi_30 g)
#           BR         NDA      ID1       ID2       ID3
     7.86002666E-02    3     1000022         1        -1   # BR(~g -> ~chi_10 d  db)
     8.29426024E-09    3     1000023         1        -1   # BR(~g -> ~chi_20 d  db)
     1.86187628E-09    3     1000025         1        -1   # BR(~g -> ~chi_30 d  db)
     2.67959424E-01    3     1000022         2        -2   # BR(~g -> ~chi_10 u  ub)
     1.82823781E-08    3     1000023         2        -2   # BR(~g -> ~chi_20 u  ub)
     1.97514069E-09    3     1000025         2        -2   # BR(~g -> ~chi_30 u  ub)
     7.86002666E-02    3     1000022         3        -3   # BR(~g -> ~chi_10 s  sb)
     8.29426024E-09    3     1000023         3        -3   # BR(~g -> ~chi_20 s  sb)
     1.86187628E-09    3     1000025         3        -3   # BR(~g -> ~chi_30 s  sb)
     2.67959424E-01    3     1000022         4        -4   # BR(~g -> ~chi_10 c  cb)
     1.82823781E-08    3     1000023         4        -4   # BR(~g -> ~chi_20 c  cb)
     1.97514069E-09    3     1000025         4        -4   # BR(~g -> ~chi_30 c  cb)
     7.96027464E-02    3     1000022         5        -5   # BR(~g -> ~chi_10 b  bb)
     1.19848630E-06    3     1000023         5        -5   # BR(~g -> ~chi_20 b  bb)
     1.02088265E-06    3     1000025         5        -5   # BR(~g -> ~chi_30 b  bb)
     2.26686900E-01    3     1000022         6        -6   # BR(~g -> ~chi_10 t  tb)
     2.17729957E-08    3     1000024         1        -2   # BR(~g -> ~chi_1+ d  ub)
     2.17729957E-08    3    -1000024         2        -1   # BR(~g -> ~chi_1- u  db)
     2.17729957E-08    3     1000024         3        -4   # BR(~g -> ~chi_1+ s  cb)
     2.17729957E-08    3    -1000024         4        -3   # BR(~g -> ~chi_1- c  sb)
#
#         PDG            Width
DECAY   1000006     3.83403187E+02   # stop1 decays
#          BR         NDA      ID1       ID2
     2.29320970E-02    2     1000022         6   # BR(~t_1 -> ~chi_10 t )
     7.42810365E-02    2     1000023         6   # BR(~t_1 -> ~chi_20 t )
     7.14004606E-02    2     1000025         6   # BR(~t_1 -> ~chi_30 t )
     5.59174744E-03    2     1000035         6   # BR(~t_1 -> ~chi_40 t )
     1.06945156E-01    2     1000024         5   # BR(~t_1 -> ~chi_1+ b )
     1.11314515E-02    2     1000037         5   # BR(~t_1 -> ~chi_2+ b )
     7.07718051E-01    2     1000021         6   # BR(~t_1 -> ~g      t )
#
#         PDG            Width
DECAY   2000006     3.89124570E+02   # stop2 decays
#          BR         NDA      ID1       ID2
     9.17658184E-03    2     1000022         6   # BR(~t_2 -> ~chi_10 t )
     7.54171449E-02    2     1000023         6   # BR(~t_2 -> ~chi_20 t )
     7.84987851E-02    2     1000025         6   # BR(~t_2 -> ~chi_30 t )
     1.40089116E-02    2     1000035         6   # BR(~t_2 -> ~chi_40 t )
     4.61068760E-02    2     1000024         5   # BR(~t_2 -> ~chi_1+ b )
     2.78448624E-02    2     1000037         5   # BR(~t_2 -> ~chi_2+ b )
     7.45581915E-01    2     1000021         6   # BR(~t_2 -> ~g      t )
     7.46283339E-04    2     1000006        25   # BR(~t_2 -> ~t_1    h )
     2.61863969E-03    2     1000006        23   # BR(~t_2 -> ~t_1    Z )
#
#         PDG            Width
DECAY   1000005     3.66572325E+02   # sbottom1 decays
#          BR         NDA      ID1       ID2
     2.12466899E-03    2     1000022         5   # BR(~b_1 -> ~chi_10 b )
     2.07506655E-03    2     1000023         5   # BR(~b_1 -> ~chi_20 b )
     1.98758771E-03    2     1000025         5   # BR(~b_1 -> ~chi_30 b )
     2.03936529E-02    2     1000035         5   # BR(~b_1 -> ~chi_40 b )
     1.57621906E-01    2    -1000024         6   # BR(~b_1 -> ~chi_1- t )
     4.10130035E-02    2    -1000037         6   # BR(~b_1 -> ~chi_2- t )
     7.73238671E-01    2     1000021         5   # BR(~b_1 -> ~g      b )
     1.54544383E-03    2     1000006       -24   # BR(~b_1 -> ~t_1    W-)
#
#         PDG            Width
DECAY   2000005     2.92492037E+02   # sbottom2 decays
#          BR         NDA      ID1       ID2
     1.00344202E-02    2     1000022         5   # BR(~b_2 -> ~chi_10 b )
     2.53527723E-03    2     1000023         5   # BR(~b_2 -> ~chi_20 b )
     2.62824916E-03    2     1000025         5   # BR(~b_2 -> ~chi_30 b )
     2.37083922E-04    2     1000035         5   # BR(~b_2 -> ~chi_40 b )
     6.81015097E-03    2    -1000024         6   # BR(~b_2 -> ~chi_1- t )
     4.76647924E-04    2    -1000037         6   # BR(~b_2 -> ~chi_2- t )
     9.77207610E-01    2     1000021         5   # BR(~b_2 -> ~g      b )
     7.05606531E-05    2     1000006       -24   # BR(~b_2 -> ~t_1    W-)
#
#         PDG            Width
DECAY   1000002     3.11379270E+02   # sup_L decays
#          BR         NDA      ID1       ID2
     2.39970689E-03    2     1000022         2   # BR(~u_L -> ~chi_10 u)
     5.57957160E-05    2     1000023         2   # BR(~u_L -> ~chi_20 u)
     4.31114069E-06    2     1000025         2   # BR(~u_L -> ~chi_30 u)
     2.50948898E-02    2     1000035         2   # BR(~u_L -> ~chi_40 u)
     1.87401027E-04    2     1000024         1   # BR(~u_L -> ~chi_1+ d)
     5.01534473E-02    2     1000037         1   # BR(~u_L -> ~chi_2+ d)
     9.22104448E-01    2     1000021         2   # BR(~u_L -> ~g      u)
#
#         PDG            Width
DECAY   2000002     2.97702110E+02   # sup_R decays
#          BR         NDA      ID1       ID2
     3.99552858E-02    2     1000022         2   # BR(~u_R -> ~chi_10 u)
     1.81962817E-05    2     1000023         2   # BR(~u_R -> ~chi_20 u)
     2.29438777E-05    2     1000025         2   # BR(~u_R -> ~chi_30 u)
     2.87841623E-09    2     1000035         2   # BR(~u_R -> ~chi_40 u)
     9.60003571E-01    2     1000021         2   # BR(~u_R -> ~g      u)
#
#         PDG            Width
DECAY   1000001     3.11390955E+02   # sdown_L decays
#          BR         NDA      ID1       ID2
     2.39222316E-03    2     1000022         1   # BR(~d_L -> ~chi_10 d)
     2.89413372E-05    2     1000023         1   # BR(~d_L -> ~chi_20 d)
     1.95679254E-05    2     1000025         1   # BR(~d_L -> ~chi_30 d)
     2.51101317E-02    2     1000035         1   # BR(~d_L -> ~chi_40 d)
     2.01980714E-05    2    -1000024         2   # BR(~d_L -> ~chi_1- u)
     5.02438067E-02    2    -1000037         2   # BR(~d_L -> ~chi_2- u)
     9.22185131E-01    2     1000021         1   # BR(~d_L -> ~g      d)
#
#         PDG            Width
DECAY   2000001     2.88793100E+02   # sdown_R decays
#          BR         NDA      ID1       ID2
     1.02975409E-02    2     1000022         1   # BR(~d_R -> ~chi_10 d)
     4.68973914E-06    2     1000023         1   # BR(~d_R -> ~chi_20 d)
     5.91334041E-06    2     1000025         1   # BR(~d_R -> ~chi_30 d)
     7.41940473E-10    2     1000035         1   # BR(~d_R -> ~chi_40 d)
     9.89691855E-01    2     1000021         1   # BR(~d_R -> ~g      d)
#
#         PDG            Width
DECAY   1000004     3.11379270E+02   # scharm_L decays
#          BR         NDA      ID1       ID2
     2.39970689E-03    2     1000022         4   # BR(~c_L -> ~chi_10 c)
     5.57957160E-05    2     1000023         4   # BR(~c_L -> ~chi_20 c)
     4.31114069E-06    2     1000025         4   # BR(~c_L -> ~chi_30 c)
     2.50948898E-02    2     1000035         4   # BR(~c_L -> ~chi_40 c)
     1.87401027E-04    2     1000024         3   # BR(~c_L -> ~chi_1+ s)
     5.01534473E-02    2     1000037         3   # BR(~c_L -> ~chi_2+ s)
     9.22104448E-01    2     1000021         4   # BR(~c_L -> ~g      c)
#
#         PDG            Width
DECAY   2000004     2.97702110E+02   # scharm_R decays
#          BR         NDA      ID1       ID2
     3.99552858E-02    2     1000022         4   # BR(~c_R -> ~chi_10 c)
     1.81962817E-05    2     1000023         4   # BR(~c_R -> ~chi_20 c)
     2.29438777E-05    2     1000025         4   # BR(~c_R -> ~chi_30 c)
     2.87841623E-09    2     1000035         4   # BR(~c_R -> ~chi_40 c)
     9.60003571E-01    2     1000021         4   # BR(~c_R -> ~g      c)
#
#         PDG            Width
DECAY   1000003     3.11390955E+02   # sstrange_L decays
#          BR         NDA      ID1       ID2
     2.39222316E-03    2     1000022         3   # BR(~s_L -> ~chi_10 s)
     2.89413372E-05    2     1000023         3   # BR(~s_L -> ~chi_20 s)
     1.95679254E-05    2     1000025         3   # BR(~s_L -> ~chi_30 s)
     2.51101317E-02    2     1000035         3   # BR(~s_L -> ~chi_40 s)
     2.01980714E-05    2    -1000024         4   # BR(~s_L -> ~chi_1- c)
     5.02438067E-02    2    -1000037         4   # BR(~s_L -> ~chi_2- c)
     9.22185131E-01    2     1000021         3   # BR(~s_L -> ~g      s)
#
#         PDG            Width
DECAY   2000003     2.88793100E+02   # sstrange_R decays
#          BR         NDA      ID1       ID2
     1.02975409E-02    2     1000022         3   # BR(~s_R -> ~chi_10 s)
     4.68973914E-06    2     1000023         3   # BR(~s_R -> ~chi_20 s)
     5.91334041E-06    2     1000025         3   # BR(~s_R -> ~chi_30 s)
     7.41940473E-10    2     1000035         3   # BR(~s_R -> ~chi_40 s)
     9.89691855E-01    2     1000021         3   # BR(~s_R -> ~g      s)
#
#         PDG            Width
DECAY   1000011     3.02510881E+01   # selectron_L decays
#          BR         NDA      ID1       ID2
     2.26636869E-01    2     1000022        11   # BR(~e_L -> ~chi_10 e-)
     9.56923913E-04    2     1000023        11   # BR(~e_L -> ~chi_20 e-)
     7.67406780E-07    2     1000025        11   # BR(~e_L -> ~chi_30 e-)
     2.57204068E-01    2     1000035        11   # BR(~e_L -> ~chi_40 e-)
     2.11471267E-04    2    -1000024        12   # BR(~e_L -> ~chi_1- nu_e)
     5.14989901E-01    2    -1000037        12   # BR(~e_L -> ~chi_2- nu_e)
#
#         PDG            Width
DECAY   2000011     2.73657645E+01   # selectron_R decays
#          BR         NDA      ID1       ID2
     9.98974447E-01    2     1000022        11   # BR(~e_R -> ~chi_10 e-)
     4.53572862E-04    2     1000023        11   # BR(~e_R -> ~chi_20 e-)
     5.71909519E-04    2     1000025        11   # BR(~e_R -> ~chi_30 e-)
     7.03641897E-08    2     1000035        11   # BR(~e_R -> ~chi_40 e-)
#
#         PDG            Width
DECAY   1000013     3.02510881E+01   # smuon_L decays
#          BR         NDA      ID1       ID2
     2.26636869E-01    2     1000022        13   # BR(~mu_L -> ~chi_10 mu-)
     9.56923913E-04    2     1000023        13   # BR(~mu_L -> ~chi_20 mu-)
     7.67406780E-07    2     1000025        13   # BR(~mu_L -> ~chi_30 mu-)
     2.57204068E-01    2     1000035        13   # BR(~mu_L -> ~chi_40 mu-)
     2.11471267E-04    2    -1000024        14   # BR(~mu_L -> ~chi_1- nu_mu)
     5.14989901E-01    2    -1000037        14   # BR(~mu_L -> ~chi_2- nu_mu)
#
#         PDG            Width
DECAY   2000013     2.73657645E+01   # smuon_R decays
#          BR         NDA      ID1       ID2
     9.98974447E-01    2     1000022        13   # BR(~mu_R -> ~chi_10 mu-)
     4.53572862E-04    2     1000023        13   # BR(~mu_R -> ~chi_20 mu-)
     5.71909519E-04    2     1000025        13   # BR(~mu_R -> ~chi_30 mu-)
     7.03641897E-08    2     1000035        13   # BR(~mu_R -> ~chi_40 mu-)
#
#         PDG            Width
DECAY   1000015     2.90378267E+01   # stau_1 decays
#          BR         NDA      ID1       ID2
     9.26852344E-01    2     1000022        15   # BR(~tau_1 -> ~chi_10  tau-)
     1.47503016E-02    2     1000023        15   # BR(~tau_1 -> ~chi_20  tau-)
     1.36768988E-02    2     1000025        15   # BR(~tau_1 -> ~chi_30  tau-)
     5.56608888E-03    2     1000035        15   # BR(~tau_1 -> ~chi_40  tau-)
     2.80097801E-02    2    -1000024        16   # BR(~tau_1 -> ~chi_1-  nu_tau)
     1.11445868E-02    2    -1000037        16   # BR(~tau_1 -> ~chi_2-  nu_tau)
#
#         PDG            Width
DECAY   2000015     3.09975918E+01   # stau_2 decays
#          BR         NDA      ID1       ID2
     2.34703297E-01    2     1000022        15   # BR(~tau_2 -> ~chi_10  tau-)
     1.36792952E-02    2     1000023        15   # BR(~tau_2 -> ~chi_20  tau-)
     1.38150983E-02    2     1000025        15   # BR(~tau_2 -> ~chi_30  tau-)
     2.45718386E-01    2     1000035        15   # BR(~tau_2 -> ~chi_40  tau-)
     9.17300135E-05    2    -1000024        16   # BR(~tau_2 -> ~chi_1-  nu_tau)
     4.91992193E-01    2    -1000037        16   # BR(~tau_2 -> ~chi_2-  nu_tau)
#
#         PDG            Width
DECAY   1000012     3.02534636E+01   # snu_eL decays
#          BR         NDA      ID1       ID2
     2.26336147E-01    2     1000022        12   # BR(~nu_eL -> ~chi_10 nu_e)
     1.13254042E-04    2     1000023        12   # BR(~nu_eL -> ~chi_20 nu_e)
     4.79807672E-04    2     1000025        12   # BR(~nu_eL -> ~chi_30 nu_e)
     2.57275464E-01    2     1000035        12   # BR(~nu_eL -> ~chi_40 nu_e)
     1.96159684E-03    2     1000024        11   # BR(~nu_eL -> ~chi_1+ e-)
     5.13833731E-01    2     1000037        11   # BR(~nu_eL -> ~chi_2+ e-)
#
#         PDG            Width
DECAY   1000014     3.02534636E+01   # snu_muL decays
#          BR         NDA      ID1       ID2
     2.26336147E-01    2     1000022        14   # BR(~nu_muL -> ~chi_10 nu_mu)
     1.13254042E-04    2     1000023        14   # BR(~nu_muL -> ~chi_20 nu_mu)
     4.79807672E-04    2     1000025        14   # BR(~nu_muL -> ~chi_30 nu_mu)
     2.57275464E-01    2     1000035        14   # BR(~nu_muL -> ~chi_40 nu_mu)
     1.96159684E-03    2     1000024        13   # BR(~nu_muL -> ~chi_1+ mu-)
     5.13833731E-01    2     1000037        13   # BR(~nu_muL -> ~chi_2+ mu-)
#
#         PDG            Width
DECAY   1000016     3.10567656E+01   # snu_tauL decays
#          BR         NDA      ID1       ID2
     2.20457990E-01    2     1000022        16   # BR(~nu_tauL -> ~chi_10 nu_tau)
     1.10309310E-04    2     1000023        16   # BR(~nu_tauL -> ~chi_20 nu_tau)
     4.67332081E-04    2     1000025        16   # BR(~nu_tauL -> ~chi_30 nu_tau)
     2.50528722E-01    2     1000035        16   # BR(~nu_tauL -> ~chi_40 nu_tau)
     2.80762224E-02    2     1000024        15   # BR(~nu_tauL -> ~chi_1+ tau-)
     5.00359425E-01    2     1000037        15   # BR(~nu_tauL -> ~chi_2+ tau-)
#
#         PDG            Width
DECAY   1000024     7.97485542E-01   # chargino1+ decays
#          BR         NDA      ID1       ID2
     1.00000000E+00    2     1000022        24   # BR(~chi_1+ -> ~chi_10  W+)
#
#         PDG            Width
DECAY   1000037     1.92825418E+01   # chargino2+ decays
#          BR         NDA      ID1       ID2
     2.52926358E-01    2     1000024        23   # BR(~chi_2+ -> ~chi_1+  Z )
     2.27546318E-04    2     1000022        24   # BR(~chi_2+ -> ~chi_10  W+)
     2.43982247E-01    2     1000023        24   # BR(~chi_2+ -> ~chi_20  W+)
     2.43894358E-01    2     1000025        24   # BR(~chi_2+ -> ~chi_30  W+)
     2.58968898E-01    2     1000024        25   # BR(~chi_2+ -> ~chi_1+  h )
     5.92110434E-07    2     1000022        37   # BR(~chi_2+ -> ~chi_10  H+)
#
#         PDG            Width
DECAY   1000022     0.00000000E+00   # neutralino1 decays
#
#         PDG            Width
DECAY   1000023     8.36613535E-01   # neutralino2 decays
#          BR         NDA      ID1       ID2
     5.51258552E-01    2     1000022        23   # BR(~chi_20 -> ~chi_10   Z )
     4.48741448E-01    2     1000022        25   # BR(~chi_20 -> ~chi_10   h )
#
#         PDG            Width
DECAY   1000025     8.43708127E-01   # neutralino3 decays
#          BR         NDA      ID1       ID2
     4.33622607E-01    2     1000022        23   # BR(~chi_30 -> ~chi_10   Z )
     5.66377393E-01    2     1000022        25   # BR(~chi_30 -> ~chi_10   h )
#
#         PDG            Width
DECAY   1000035     1.92913324E+01   # neutralino4 decays
#          BR         NDA      ID1       ID2
     7.23435257E-05    2     1000022        23   # BR(~chi_40 -> ~chi_10   Z )
     5.16757409E-02    2     1000023        23   # BR(~chi_40 -> ~chi_20   Z )
     2.00578440E-01    2     1000025        23   # BR(~chi_40 -> ~chi_30   Z )
     2.44537927E-01    2     1000024       -24   # BR(~chi_40 -> ~chi_1+   W-)
     2.44537927E-01    2    -1000024        24   # BR(~chi_40 -> ~chi_1-   W+)
     1.59101647E-04    2     1000022        25   # BR(~chi_40 -> ~chi_10   h )
     5.39891863E-07    2     1000022        35   # BR(~chi_40 -> ~chi_10   H )
     7.33236736E-08    2     1000022        36   # BR(~chi_40 -> ~chi_10   A )
     2.06710285E-01    2     1000023        25   # BR(~chi_40 -> ~chi_20   h )
     5.17276231E-02    2     1000025        25   # BR(~chi_40 -> ~chi_30   h )
#
#         PDG            Width
DECAY        25     4.03620596E-03   # h decays
#          BR         NDA      ID1       ID2
     6.11716773E-01    2           5        -5   # BR(h -> b       bb     )
     6.41553656E-02    2         -15        15   # BR(h -> tau+    tau-   )
     2.27134197E-04    2         -13        13   # BR(h -> mu+     mu-    )
     4.81660361E-04    2           3        -3   # BR(h -> s       sb     )
     2.08724914E-02    2           4        -4   # BR(h -> c       cb     )
     6.72885263E-02    2          21        21   # BR(h -> g       g      )
     2.30909495E-03    2          22        22   # BR(h -> gam     gam    )
     1.47213453E-03    2          22        23   # BR(h -> Z       gam    )
     2.06871382E-01    2          24       -24   # BR(h -> W+      W-     )
     2.45677269E-02    2          23        23   # BR(h -> Z       Z      )
     3.77110448E-05    2     1000022   1000022   # BR(h -> ~chi_10 ~chi_10)
#
#         PDG            Width
DECAY        35     7.62019054E+00   # H decays
#          BR         NDA      ID1       ID2
     4.26104733E-01    2           5        -5   # BR(H -> b       bb     )
     7.31451645E-02    2         -15        15   # BR(H -> tau+    tau-   )
     2.58647112E-04    2         -13        13   # BR(H -> mu+     mu-    )
     3.17061769E-04    2           3        -3   # BR(H -> s       sb     )
     1.77172974E-06    2           4        -4   # BR(H -> c       cb     )
     1.77009833E-01    2           6        -6   # BR(H -> t       tb     )
     5.87695626E-05    2          21        21   # BR(H -> g       g      )
     3.62502879E-07    2          22        22   # BR(H -> gam     gam    )
     1.04476848E-07    2          23        22   # BR(H -> Z       gam    )
     7.95907707E-05    2          24       -24   # BR(H -> W+      W-     )
     3.97450124E-05    2          23        23   # BR(H -> Z       Z      )
     3.00240345E-04    2          25        25   # BR(H -> h       h      )
     5.57086954E-25    2          36        36   # BR(H -> A       A      )
     7.91157992E-19    2          23        36   # BR(H -> Z       A      )
     7.44277796E-04    2     1000024  -1000024   # BR(H -> ~chi_1+ ~chi_1-)
     1.12162941E-03    2     1000022   1000022   # BR(H -> ~chi_10 ~chi_10)
     5.61910974E-05    2     1000023   1000023   # BR(H -> ~chi_20 ~chi_20)
     1.24173559E-04    2     1000025   1000025   # BR(H -> ~chi_30 ~chi_30)
     1.91344512E-01    2     1000022   1000023   # BR(H -> ~chi_10 ~chi_20)
     1.29170138E-01    2     1000022   1000025   # BR(H -> ~chi_10 ~chi_30)
     1.23054495E-04    2     1000023   1000025   # BR(H -> ~chi_20 ~chi_30)
#
#         PDG            Width
DECAY        36     7.64125129E+00   # A decays
#          BR         NDA      ID1       ID2
     4.25073644E-01    2           5        -5   # BR(A -> b       bb     )
     7.29457270E-02    2         -15        15   # BR(A -> tau+    tau-   )
     2.57941524E-04    2         -13        13   # BR(A -> mu+     mu-    )
     3.16427785E-04    2           3        -3   # BR(A -> s       sb     )
     1.77418962E-06    2           4        -4   # BR(A -> c       cb     )
     1.77157795E-01    2           6        -6   # BR(A -> t       tb     )
     1.75349159E-04    2          21        21   # BR(A -> g       g      )
     4.87503026E-07    2          22        22   # BR(A -> gam     gam    )
     2.12327136E-07    2          23        22   # BR(A -> Z       gam    )
     7.90727461E-05    2          23        25   # BR(A -> Z       h      )
     2.59525504E-03    2     1000024  -1000024   # BR(A -> ~chi_1+ ~chi_1-)
     1.14828490E-03    2     1000022   1000022   # BR(A -> ~chi_10 ~chi_10)
     1.46956980E-04    2     1000023   1000023   # BR(A -> ~chi_20 ~chi_20)
     7.67364663E-04    2     1000025   1000025   # BR(A -> ~chi_30 ~chi_30)
     1.30416833E-01    2     1000022   1000023   # BR(A -> ~chi_10 ~chi_20)
     1.88909897E-01    2     1000022   1000025   # BR(A -> ~chi_10 ~chi_30)
     6.97722118E-06    2     1000023   1000025   # BR(A -> ~chi_20 ~chi_30)
#
#         PDG            Width
DECAY        37     7.60153793E+00   # H+ decays
#          BR         NDA      ID1       ID2
     6.83502026E-04    2           4        -5   # BR(H+ -> c       bb     )
     7.33480737E-02    2         -15        16   # BR(H+ -> tau+    nu_tau )
     2.59364252E-04    2         -13        14   # BR(H+ -> mu+     nu_mu  )
     4.37439040E-06    2           2        -5   # BR(H+ -> u       bb     )
     1.52189566E-05    2           2        -3   # BR(H+ -> u       sb     )
     3.14727312E-04    2           4        -3   # BR(H+ -> c       sb     )
     6.01547939E-01    2           6        -5   # BR(H+ -> t       bb     )
     7.96060210E-05    2          24        25   # BR(H+ -> W+      h      )
     8.58807984E-14    2          24        36   # BR(H+ -> W+      A      )
     3.23323898E-01    2     1000024   1000022   # BR(H+ -> ~chi_1+ ~chi_10)
     3.56949194E-04    2     1000024   1000023   # BR(H+ -> ~chi_1+ ~chi_20)
     6.63463778E-05    2     1000024   1000025   # BR(H+ -> ~chi_1+ ~chi_30)
