#
#                              ======================
#                              | THE SUSYHIT OUTPUT |
#                              ======================
#
#
#              ------------------------------------------------------
#              |     This is the output of the SUSY-HIT package     |
#              |  created by A.Djouadi, M.Muehlleitner and M.Spira. |
#              |  In case of problems with SUSY-HIT email to        |
#              |           margarete.muehlleitner@kit.edu           |
#              |           michael.spira@psi.ch                     |
#              |           abdelhak.djouadi@cern.ch                 |
#              ------------------------------------------------------
#
#              ------------------------------------------------------
#              |  SUSY Les Houches Accord - MSSM Spectrum + Decays  |
#              |              based on the decay programs           |
#              |                                                    |
#              |                     SDECAY 1.5                     |
#              |                                                    |
#              |  Authors: M.Muhlleitner, A.Djouadi and Y.Mambrini  |
#              |  Ref.:    Comput.Phys.Commun.168(2005)46           |
#              |           [hep-ph/0311167]                         |
#              |                                                    |
#              |                     HDECAY 3.4                     |
#              |                                                    |
#              |  By: A.Djouadi,J.Kalinowski,M.Muhlleitner,M.Spira  |
#              |  Ref.:    Comput.Phys.Commun.108(1998)56           |
#              |           [hep-ph/9704448]                         |
#              |                                                    |
#              |                                                    |
#              |  If not stated otherwise all DRbar couplings and   |
#              |  soft SUSY breaking masses are given at the scale  |
#              |  Q=  0.91187600E+02
#              |                                                    |
#              ------------------------------------------------------
#
#
BLOCK DCINFO  # Decay Program information
     1   SDECAY/HDECAY # decay calculator
     2   1.5  /3.4    # version number
#
BLOCK SPINFO  # Spectrum calculator information
     1   SuSpect     # RGE +Spectrum calculator            
     2   2.43         # version number                     
#
BLOCK MODSEL  # Model selection
     1     2   # GMSB                                              
#
BLOCK SMINPUTS  # Standard Model inputs
         1     1.27932904E+02   # alpha_em^-1(M_Z)^MSbar
         2     1.16639000E-05   # G_F [GeV^-2]
         3     1.17200000E-01   # alpha_S(M_Z)^MSbar
         4     9.11870000E+01   # M_Z pole mass
         5     4.25000000E+00   # mb(mb)^MSbar
         6     1.72900000E+02   # mt pole mass
         7     1.77700000E+00   # mtau pole mass
#
BLOCK MINPAR  # Input parameters - minimal models
#
BLOCK EXTPAR  # Input parameters - non-minimal models
         0     9.11876000E+01   # EWSB                
         1     2.24700000E+03   # M_1                 
         2     3.00000000E+03   # M_2                 
         3     2.40000000E+03   # M_3                 
        11     0.00000000E+00   # A_t                 
        12     0.00000000E+00   # A_b                 
        13     0.00000000E+00   # A_tau               
        14     0.00000000E+00   # A_u                 
        15     0.00000000E+00   # A_d                 
        16     0.00000000E+00   # A_e                 
        23     2.27500000E+03   # mu(EWSB)            
        25     1.50000000E+00   # tanbeta(in)         
        26     2.00000000E+03   # MA_pole             
        31     5.00000000E+03   # M_eL                
        32     5.00000000E+03   # M_muL               
        33     5.00000000E+03   # M_tauL              
        34     5.00000000E+03   # M_eR                
        35     5.00000000E+03   # M_muR               
        36     5.00000000E+03   # M_tauR              
        41     5.00000000E+03   # M_q1L               
        42     5.00000000E+03   # M_q2L               
        43     5.00000000E+03   # M_q3L               
        44     5.00000000E+03   # M_uR                
        45     5.00000000E+03   # M_cR                
        46     5.00000000E+03   # M_tR                
        47     5.00000000E+03   # M_dR                
        48     5.00000000E+03   # M_sR                
        49     5.00000000E+03   # M_bR                
#
BLOCK MASS  # Mass Spectrum
# PDG code           mass       particle
        24     8.05424628E+01   # W+
        25     1.26000000E+02   # h
        35     2.00398273E+03   # H
        36     2.00000000E+03   # A
        37     2.00152315E+03   # H+
         5     4.87877839E+00   # b-quark pole mass calculated from mb(mb)_Msbar
   1000001     4.89730068E+03   # ~d_L
   2000001     4.89718994E+03   # ~d_R
   1000002     4.89705304E+03   # ~u_L
   2000002     4.89711147E+03   # ~u_R
   1000003     4.89730068E+03   # ~s_L
   2000003     4.89718994E+03   # ~s_R
   1000004     4.89705304E+03   # ~c_L
   2000004     4.89711147E+03   # ~c_R
   1000005     4.89630111E+03   # ~b_1
   2000005     4.89819081E+03   # ~b_2
   1000006     5.00086418E+03   # ~t_1
   2000006     5.28642120E+03   # ~t_2
   1000011     5.00008213E+03   # ~e_L
   2000011     5.00007619E+03   # ~e_R
   1000012     4.99984167E+03   # ~nu_eL
   1000013     5.00008213E+03   # ~mu_L
   2000013     5.00007619E+03   # ~mu_R
   1000014     4.99984167E+03   # ~nu_muL
   1000015     4.99947237E+03   # ~tau_1
   2000015     5.00068651E+03   # ~tau_2
   1000016     4.99984167E+03   # ~nu_tauL
   1000021     2.41235510E+03   # ~g
   1000022     2.34740703E+03   # ~chi_10
   1000023    -2.40614676E+03   # ~chi_20
   1000025     2.43513716E+03   # ~chi_30
   1000035     3.12491116E+03   # ~chi_40
   1000024     2.39776710E+03   # ~chi_1+
   1000037     3.12488171E+03   # ~chi_2+
   1000039     1.00000000E-09   # ~gravitino
#
BLOCK NMIX  # Neutralino Mixing Matrix
  1  1     7.57311070E-01   # N_11
  1  2    -6.54733925E-02   # N_12
  1  3     4.60585441E-01   # N_13
  1  4    -4.58316735E-01   # N_14
  2  1     1.82246089E-03   # N_21
  2  2    -2.80870267E-03   # N_22
  2  3    -7.07059130E-01   # N_23
  2  4    -7.07146503E-01   # N_24
  3  1     6.53020615E-01   # N_31
  3  2     8.56499217E-02   # N_32
  3  3    -5.31445719E-01   # N_33
  3  4     5.32722831E-01   # N_34
  4  1     6.37952814E-03   # N_41
  4  2    -9.94167711E-01   # N_42
  4  3    -7.41207504E-02   # N_43
  4  4     7.80767508E-02   # N_44
#
BLOCK UMIX  # Chargino Mixing Matrix U
  1  1    -1.04458304E-01   # U_11
  1  2     9.94529267E-01   # U_12
  2  1     9.94529267E-01   # U_21
  2  2     1.04458304E-01   # U_22
#
BLOCK VMIX  # Chargino Mixing Matrix V
  1  1    -1.10041609E-01   # V_11
  1  2     9.93926981E-01   # V_12
  2  1     9.93926981E-01   # V_21
  2  2     1.10041609E-01   # V_22
#
BLOCK STOPMIX  # Stop Mixing Matrix
  1  1     9.99650628E-01   # cos(theta_t)
  1  2     2.64314574E-02   # sin(theta_t)
  2  1    -2.64314574E-02   # -sin(theta_t)
  2  2     9.99650628E-01   # cos(theta_t)
#
BLOCK SBOTMIX  # Sbottom Mixing Matrix
  1  1     6.86074658E-01   # cos(theta_b)
  1  2     7.27531143E-01   # sin(theta_b)
  2  1    -7.27531143E-01   # -sin(theta_b)
  2  2     6.86074658E-01   # cos(theta_b)
#
BLOCK STAUMIX  # Stau Mixing Matrix
  1  1     7.05374152E-01   # cos(theta_tau)
  1  2     7.08835175E-01   # sin(theta_tau)
  2  1    -7.08835175E-01   # -sin(theta_tau)
  2  2     7.05374152E-01   # cos(theta_tau)
#
BLOCK ALPHA  # Higgs mixing
          -5.90192610E-01   # Mixing angle in the neutral Higgs boson sector
#
BLOCK HMIX Q=  9.11876000E+01  # DRbar Higgs Parameters
         1     2.27500000E+03   # mu(Q)               
         2     1.49999979E+00   # tanbeta(Q)          
         3     2.52395943E+02   # vev(Q)              
         4     2.85670789E+06   # MA^2(Q)             
#
BLOCK GAUGE Q=  9.11876000E+01  # The gauge couplings
     1     3.52683706E-01   # gprime(Q) DRbar
     2     6.26547149E-01   # g(Q) DRbar
     3     1.07754712E+00   # g3(Q) DRbar
#
BLOCK AU Q=  9.11876000E+01  # The trilinear couplings
  1  1     0.00000000E+00   # A_u(Q) DRbar
  2  2     0.00000000E+00   # A_c(Q) DRbar
  3  3     0.00000000E+00   # A_t(Q) DRbar
#
BLOCK AD Q=  9.11876000E+01  # The trilinear couplings
  1  1     0.00000000E+00   # A_d(Q) DRbar
  2  2     0.00000000E+00   # A_s(Q) DRbar
  3  3     0.00000000E+00   # A_b(Q) DRbar
#
BLOCK AE Q=  9.11876000E+01  # The trilinear couplings
  1  1     0.00000000E+00   # A_e(Q) DRbar
  2  2     0.00000000E+00   # A_mu(Q) DRbar
  3  3     0.00000000E+00   # A_tau(Q) DRbar
#
BLOCK Yu Q=  9.11876000E+01  # The Yukawa couplings
  1  1     0.00000000E+00   # y_u(Q) DRbar
  2  2     0.00000000E+00   # y_c(Q) DRbar
  3  3     1.02437580E+00   # y_t(Q) DRbar
#
BLOCK Yd Q=  9.11876000E+01  # The Yukawa couplings
  1  1     0.00000000E+00   # y_d(Q) DRbar
  2  2     0.00000000E+00   # y_s(Q) DRbar
  3  3     2.71103546E-02   # y_b(Q) DRbar
#
BLOCK Ye Q=  9.11876000E+01  # The Yukawa couplings
  1  1     0.00000000E+00   # y_e(Q) DRbar
  2  2     0.00000000E+00   # y_mu(Q) DRbar
  3  3     1.79696426E-02   # y_tau(Q) DRbar
#
BLOCK MSOFT Q=  9.11876000E+01  # The soft SUSY breaking masses at the scale Q
         1     2.24700000E+03   # M_1                 
         2     3.00000000E+03   # M_2                 
         3     2.40000000E+03   # M_3                 
        14     0.00000000E+00   # A_u                 
        15     0.00000000E+00   # A_d                 
        16     0.00000000E+00   # A_e                 
        21    -2.74137009E+06   # M^2_Hd              
        22    -1.01282190E+07   # M^2_Hu              
        31     5.00000000E+03   # M_eL                
        32     5.00000000E+03   # M_muL               
        33     5.00000000E+03   # M_tauL              
        34     5.00000000E+03   # M_eR                
        35     5.00000000E+03   # M_muR               
        36     5.00000000E+03   # M_tauR              
        41     5.00000000E+03   # M_q1L               
        42     5.00000000E+03   # M_q2L               
        43     5.00000000E+03   # M_q3L               
        44     5.00000000E+03   # M_uR                
        45     5.00000000E+03   # M_cR                
        46     5.00000000E+03   # M_tR                
        47     5.00000000E+03   # M_dR                
        48     5.00000000E+03   # M_sR                
        49     5.00000000E+03   # M_bR                
#
#
#
#                             =================
#                             |The decay table|
#                             =================
#
# - The QCD corrections to the decays gluino -> squark  + quark
#                                     squark -> gaugino + quark_prime
#                                     squark -> squark_prime + Higgs
#                                     squark -> gluino  + quark
#   are included.
#
# - The multi-body decays for the inos, stops and sbottoms are included.
#
# - The loop induced decays for the gluino, neutralinos and stops
#   are included.
#
# - The SUSY decays of the top quark are included.
#
# - Possible decays of the NLSP in GMSB models are included.
#
#
#         PDG            Width
DECAY         6     1.36768314E+00   # top decays
#          BR         NDA      ID1       ID2
     1.00000000E+00    2           5        24   # BR(t ->  b    W+)
#
#         PDG            Width
DECAY   1000021     9.40615847E-05   # gluino decays
#          BR         NDA      ID1       ID2
     4.36258715E-05    2     1000022        21   # BR(~g -> ~chi_10 g)
     9.47416073E-08    2     1000023        21   # BR(~g -> ~chi_20 g)
#          BR         NDA      ID1       ID2
0.0E+00    2     1000039    21 # BR(~g -> ~G      g)
#           BR         NDA      ID1       ID2       ID3
     1.99987737E-07    3     1000022         1        -1   # BR(~g -> ~chi_10 d  db)
     4.70441253E-17    3     1000023         1        -1   # BR(~g -> ~chi_20 d  db)
     5.31211784E-07    3     1000022         2        -2   # BR(~g -> ~chi_10 u  ub)
     3.60160949E-17    3     1000023         2        -2   # BR(~g -> ~chi_20 u  ub)
     1.99987737E-07    3     1000022         3        -3   # BR(~g -> ~chi_10 s  sb)
     4.70441253E-17    3     1000023         3        -3   # BR(~g -> ~chi_20 s  sb)
     5.31211784E-07    3     1000022         4        -4   # BR(~g -> ~chi_10 c  cb)
     3.60160949E-17    3     1000023         4        -4   # BR(~g -> ~chi_20 c  cb)
     1.81576985E-07    3     1000022         5        -5   # BR(~g -> ~chi_10 b  bb)
     2.22165086E-11    3     1000024         1        -2   # BR(~g -> ~chi_1+ d  ub)
     2.22165086E-11    3    -1000024         2        -1   # BR(~g -> ~chi_1- u  db)
     2.22165086E-11    3     1000024         3        -4   # BR(~g -> ~chi_1+ s  cb)
     2.22165086E-11    3    -1000024         4        -3   # BR(~g -> ~chi_1- c  sb)
#
#         PDG            Width
DECAY   1000006     2.22115784E+02   # stop1 decays
#          BR         NDA      ID1       ID2
     4.10255607E-02    2     1000022         6   # BR(~t_1 -> ~chi_10 t )
     9.48239248E-02    2     1000023         6   # BR(~t_1 -> ~chi_20 t )
     5.50565628E-02    2     1000025         6   # BR(~t_1 -> ~chi_30 t )
     3.25812482E-02    2     1000035         6   # BR(~t_1 -> ~chi_40 t )
     5.40112942E-04    2     1000024         5   # BR(~t_1 -> ~chi_1+ b )
     6.29229421E-02    2     1000037         5   # BR(~t_1 -> ~chi_2+ b )
     7.06440158E-01    2     1000021         6   # BR(~t_1 -> ~g      t )
     3.33827690E-03    2     1000005        24   # BR(~t_1 -> ~b_1    W+)
     3.27121357E-03    2     2000005        24   # BR(~t_1 -> ~b_2    W+)
#
#         PDG            Width
DECAY   2000006     2.77169649E+02   # stop2 decays
#          BR         NDA      ID1       ID2
     5.12056188E-02    2     1000022         6   # BR(~t_2 -> ~chi_10 t )
     8.63157543E-02    2     1000023         6   # BR(~t_2 -> ~chi_20 t )
     5.98799784E-02    2     1000025         6   # BR(~t_2 -> ~chi_30 t )
     5.20076514E-04    2     1000035         6   # BR(~t_2 -> ~chi_40 t )
     1.72111752E-01    2     1000024         5   # BR(~t_2 -> ~chi_1+ b )
     1.04101837E-03    2     1000037         5   # BR(~t_2 -> ~chi_2+ b )
     6.28042787E-01    2     1000021         6   # BR(~t_2 -> ~g      t )
     2.52457345E-05    2     1000006        25   # BR(~t_2 -> ~t_1    h )
     1.30847119E-04    2     1000006        23   # BR(~t_2 -> ~t_1    Z )
     3.44897407E-04    2     1000005        24   # BR(~t_2 -> ~b_1    W+)
     3.82024106E-04    2     2000005        24   # BR(~t_2 -> ~b_2    W+)
#
#         PDG            Width
DECAY   1000005     1.79529984E+02   # sbottom1 decays
#          BR         NDA      ID1       ID2
     4.62715671E-03    2     1000022         5   # BR(~b_1 -> ~chi_10 b )
     7.12573851E-05    2     1000023         5   # BR(~b_1 -> ~chi_20 b )
     1.52084937E-03    2     1000025         5   # BR(~b_1 -> ~chi_30 b )
     1.63218843E-02    2     1000035         5   # BR(~b_1 -> ~chi_40 b )
     1.01014818E-01    2    -1000024         6   # BR(~b_1 -> ~chi_1- t )
     3.38325631E-02    2    -1000037         6   # BR(~b_1 -> ~chi_2- t )
     8.42611471E-01    2     1000021         5   # BR(~b_1 -> ~g      b )
#
#         PDG            Width
DECAY   2000005     1.84815506E+02   # sbottom2 decays
#          BR         NDA      ID1       ID2
     2.91080040E-03    2     1000022         5   # BR(~b_2 -> ~chi_10 b )
     8.53330561E-05    2     1000023         5   # BR(~b_2 -> ~chi_20 b )
     2.08654447E-03    2     1000025         5   # BR(~b_2 -> ~chi_30 b )
     1.90981053E-02    2     1000035         5   # BR(~b_2 -> ~chi_40 b )
     1.18219822E-01    2    -1000024         6   # BR(~b_2 -> ~chi_1- t )
     3.95910750E-02    2    -1000037         6   # BR(~b_2 -> ~chi_2- t )
     8.18008320E-01    2     1000021         5   # BR(~b_2 -> ~g      b )
#
#         PDG            Width
DECAY   1000002     1.71297789E+02   # sup_L decays
#          BR         NDA      ID1       ID2
     3.75373264E-04    2     1000022         2   # BR(~u_L -> ~chi_10 u)
     3.77449131E-07    2     1000023         2   # BR(~u_L -> ~chi_20 u)
     2.64731252E-03    2     1000025         2   # BR(~u_L -> ~chi_30 u)
     3.75207234E-02    2     1000035         2   # BR(~u_L -> ~chi_40 u)
     1.50889122E-03    2     1000024         1   # BR(~u_L -> ~chi_1+ d)
     7.51879800E-02    2     1000037         1   # BR(~u_L -> ~chi_2+ d)
     8.82759342E-01    2     1000021         2   # BR(~u_L -> ~g      u)
#
#         PDG            Width
DECAY   2000002     1.57270859E+02   # sup_R decays
#          BR         NDA      ID1       ID2
     2.24979628E-02    2     1000022         2   # BR(~u_R -> ~chi_10 u)
     1.26409972E-07    2     1000023         2   # BR(~u_R -> ~chi_20 u)
     1.59824599E-02    2     1000025         2   # BR(~u_R -> ~chi_30 u)
     9.50252434E-07    2     1000035         2   # BR(~u_R -> ~chi_40 u)
     9.61518501E-01    2     1000021         2   # BR(~u_R -> ~g      u)
#
#         PDG            Width
DECAY   1000001     1.71308402E+02   # sdown_L decays
#          BR         NDA      ID1       ID2
     2.75480433E-03    2     1000022         1   # BR(~d_L -> ~chi_10 d)
     6.15792281E-07    2     1000023         1   # BR(~d_L -> ~chi_20 d)
     8.30819890E-05    2     1000025         1   # BR(~d_L -> ~chi_30 d)
     3.77066263E-02    2     1000035         1   # BR(~d_L -> ~chi_40 d)
     1.35973026E-03    2    -1000024         2   # BR(~d_L -> ~chi_1- u)
     7.52886381E-02    2    -1000037         2   # BR(~d_L -> ~chi_2- u)
     8.82806503E-01    2     1000021         1   # BR(~d_L -> ~g      d)
#
#         PDG            Width
DECAY   2000001     1.52737428E+02   # sdown_R decays
#          BR         NDA      ID1       ID2
     5.79163598E-03    2     1000022         1   # BR(~d_R -> ~chi_10 d)
     3.25416781E-08    2     1000023         1   # BR(~d_R -> ~chi_20 d)
     4.11436212E-03    2     1000025         1   # BR(~d_R -> ~chi_30 d)
     2.44628860E-07    2     1000035         1   # BR(~d_R -> ~chi_40 d)
     9.90093725E-01    2     1000021         1   # BR(~d_R -> ~g      d)
#
#         PDG            Width
DECAY   1000004     1.71297789E+02   # scharm_L decays
#          BR         NDA      ID1       ID2
     3.75373264E-04    2     1000022         4   # BR(~c_L -> ~chi_10 c)
     3.77449131E-07    2     1000023         4   # BR(~c_L -> ~chi_20 c)
     2.64731252E-03    2     1000025         4   # BR(~c_L -> ~chi_30 c)
     3.75207234E-02    2     1000035         4   # BR(~c_L -> ~chi_40 c)
     1.50889122E-03    2     1000024         3   # BR(~c_L -> ~chi_1+ s)
     7.51879800E-02    2     1000037         3   # BR(~c_L -> ~chi_2+ s)
     8.82759342E-01    2     1000021         4   # BR(~c_L -> ~g      c)
#
#         PDG            Width
DECAY   2000004     1.57270859E+02   # scharm_R decays
#          BR         NDA      ID1       ID2
     2.24979628E-02    2     1000022         4   # BR(~c_R -> ~chi_10 c)
     1.26409972E-07    2     1000023         4   # BR(~c_R -> ~chi_20 c)
     1.59824599E-02    2     1000025         4   # BR(~c_R -> ~chi_30 c)
     9.50252434E-07    2     1000035         4   # BR(~c_R -> ~chi_40 c)
     9.61518501E-01    2     1000021         4   # BR(~c_R -> ~g      c)
#
#         PDG            Width
DECAY   1000003     1.71308402E+02   # sstrange_L decays
#          BR         NDA      ID1       ID2
     2.75480433E-03    2     1000022         3   # BR(~s_L -> ~chi_10 s)
     6.15792281E-07    2     1000023         3   # BR(~s_L -> ~chi_20 s)
     8.30819890E-05    2     1000025         3   # BR(~s_L -> ~chi_30 s)
     3.77066263E-02    2     1000035         3   # BR(~s_L -> ~chi_40 s)
     1.35973026E-03    2    -1000024         4   # BR(~s_L -> ~chi_1- c)
     7.52886381E-02    2    -1000037         4   # BR(~s_L -> ~chi_2- c)
     8.82806503E-01    2     1000021         3   # BR(~s_L -> ~g      s)
#
#         PDG            Width
DECAY   2000003     1.52737428E+02   # sstrange_R decays
#          BR         NDA      ID1       ID2
     5.79163598E-03    2     1000022         3   # BR(~s_R -> ~chi_10 s)
     3.25416781E-08    2     1000023         3   # BR(~s_R -> ~chi_20 s)
     4.11436212E-03    2     1000025         3   # BR(~s_R -> ~chi_30 s)
     2.44628860E-07    2     1000035         3   # BR(~s_R -> ~chi_40 s)
     9.90093725E-01    2     1000021         3   # BR(~s_R -> ~g      s)
#
#         PDG            Width
DECAY   1000011     2.55907963E+01   # selectron_L decays
#          BR         NDA      ID1       ID2
     6.03689196E-02    2     1000022        11   # BR(~e_L -> ~chi_10 e-)
     1.43195388E-06    2     1000023        11   # BR(~e_L -> ~chi_20 e-)
     9.11977371E-02    2     1000025        11   # BR(~e_L -> ~chi_30 e-)
     2.78033039E-01    2     1000035        11   # BR(~e_L -> ~chi_40 e-)
     9.87277137E-03    2    -1000024        12   # BR(~e_L -> ~chi_1- nu_e)
     5.60526101E-01    2    -1000037        12   # BR(~e_L -> ~chi_2- nu_e)
#
#         PDG            Width
DECAY   2000011     1.47664849E+01   # selectron_R decays
#          BR         NDA      ID1       ID2
     5.84138638E-01    2     1000022        11   # BR(~e_R -> ~chi_10 e-)
     3.28662573E-06    2     1000023        11   # BR(~e_R -> ~chi_20 e-)
     4.15832746E-01    2     1000025        11   # BR(~e_R -> ~chi_30 e-)
     2.53294310E-05    2     1000035        11   # BR(~e_R -> ~chi_40 e-)
#
#         PDG            Width
DECAY   1000013     2.55907963E+01   # smuon_L decays
#          BR         NDA      ID1       ID2
     6.03689196E-02    2     1000022        13   # BR(~mu_L -> ~chi_10 mu-)
     1.43195388E-06    2     1000023        13   # BR(~mu_L -> ~chi_20 mu-)
     9.11977371E-02    2     1000025        13   # BR(~mu_L -> ~chi_30 mu-)
     2.78033039E-01    2     1000035        13   # BR(~mu_L -> ~chi_40 mu-)
     9.87277137E-03    2    -1000024        14   # BR(~mu_L -> ~chi_1- nu_mu)
     5.60526101E-01    2    -1000037        14   # BR(~mu_L -> ~chi_2- nu_mu)
#
#         PDG            Width
DECAY   2000013     1.47664849E+01   # smuon_R decays
#          BR         NDA      ID1       ID2
     5.84138638E-01    2     1000022        13   # BR(~mu_R -> ~chi_10 mu-)
     3.28662573E-06    2     1000023        13   # BR(~mu_R -> ~chi_20 mu-)
     4.15832746E-01    2     1000025        13   # BR(~mu_R -> ~chi_30 mu-)
     2.53294310E-05    2     1000035        13   # BR(~mu_R -> ~chi_40 mu-)
#
#         PDG            Width
DECAY   1000015     2.02230629E+01   # stau_1 decays
#          BR         NDA      ID1       ID2
     2.57920051E-01    2     1000022        15   # BR(~tau_1 -> ~chi_10  tau-)
     4.08359947E-04    2     1000023        15   # BR(~tau_1 -> ~chi_20  tau-)
     2.06856189E-01    2     1000025        15   # BR(~tau_1 -> ~chi_30  tau-)
     1.73914328E-01    2     1000035        15   # BR(~tau_1 -> ~chi_40  tau-)
     1.00927874E-02    2    -1000024        16   # BR(~tau_1 -> ~chi_1-  nu_tau)
     3.50630473E-01    2    -1000037        16   # BR(~tau_1 -> ~chi_2-  nu_tau)
     1.77811701E-04    2     1000039        15   # BR(~tau_1 -> ~G       tau-)
#
#         PDG            Width
DECAY   2000015     2.01947137E+01   # stau_2 decays
#          BR         NDA      ID1       ID2
     2.45745489E-01    2     1000022        15   # BR(~tau_2 -> ~chi_10  tau-)
     5.34322089E-04    2     1000023        15   # BR(~tau_2 -> ~chi_20  tau-)
     2.13006259E-01    2     1000025        15   # BR(~tau_2 -> ~chi_30  tau-)
     1.78193105E-01    2     1000035        15   # BR(~tau_2 -> ~chi_40  tau-)
     3.33486294E-03    2    -1000024        16   # BR(~tau_2 -> ~chi_1-  nu_tau)
     3.59185962E-01    2    -1000037        16   # BR(~tau_2 -> ~chi_2-  nu_tau)
#
#         PDG            Width
DECAY   1000012     2.55947788E+01   # snu_eL decays
#          BR         NDA      ID1       ID2
     1.12108920E-01    2     1000022        12   # BR(~nu_eL -> ~chi_10 nu_e)
     6.62253083E-06    2     1000023        12   # BR(~nu_eL -> ~chi_20 nu_e)
     3.52794538E-02    2     1000025        12   # BR(~nu_eL -> ~chi_30 nu_e)
     2.81987131E-01    2     1000035        12   # BR(~nu_eL -> ~chi_40 nu_e)
     1.09535170E-02    2     1000024        11   # BR(~nu_eL -> ~chi_1+ e-)
     5.59664356E-01    2     1000037        11   # BR(~nu_eL -> ~chi_2+ e-)
#
#         PDG            Width
DECAY   1000014     2.55947788E+01   # snu_muL decays
#          BR         NDA      ID1       ID2
     1.12108920E-01    2     1000022        14   # BR(~nu_muL -> ~chi_10 nu_mu)
     6.62253083E-06    2     1000023        14   # BR(~nu_muL -> ~chi_20 nu_mu)
     3.52794538E-02    2     1000025        14   # BR(~nu_muL -> ~chi_30 nu_mu)
     2.81987131E-01    2     1000035        14   # BR(~nu_muL -> ~chi_40 nu_mu)
     1.09535170E-02    2     1000024        13   # BR(~nu_muL -> ~chi_1+ mu-)
     5.59664356E-01    2     1000037        13   # BR(~nu_muL -> ~chi_2+ mu-)
#
#         PDG            Width
DECAY   1000016     2.56137341E+01   # snu_tauL decays
#          BR         NDA      ID1       ID2
     1.12025955E-01    2     1000022        16   # BR(~nu_tauL -> ~chi_10 nu_tau)
     6.61762987E-06    2     1000023        16   # BR(~nu_tauL -> ~chi_20 nu_tau)
     3.52533455E-02    2     1000025        16   # BR(~nu_tauL -> ~chi_30 nu_tau)
     2.81778448E-01    2     1000035        16   # BR(~nu_tauL -> ~chi_40 nu_tau)
     1.16782957E-02    2     1000024        15   # BR(~nu_tauL -> ~chi_1+ tau-)
     5.59257339E-01    2     1000037        15   # BR(~nu_tauL -> ~chi_2+ tau-)
#
#         PDG            Width
DECAY   1000024     2.43826249E-04   # chargino1+ decays
#          BR         NDA      ID1       ID2
     1.88404945E-01    2     1000039        24   # BR(~chi_1+ -> ~G       W+)
     1.56354113E-03    2     1000039        37   # BR(~chi_1+ -> ~G       H+)
#           BR         NDA      ID1       ID2       ID3
     2.70193521E-01    3     1000022         2        -1   # BR(~chi_1+ -> ~chi_10 u    db)
     2.70193521E-01    3     1000022         4        -3   # BR(~chi_1+ -> ~chi_10 c    sb)
     9.00645696E-02    3     1000022       -11        12   # BR(~chi_1+ -> ~chi_10 e+   nu_e)
     9.00645696E-02    3     1000022       -13        14   # BR(~chi_1+ -> ~chi_10 mu+  nu_mu)
     8.95153318E-02    3     1000022       -15        16   # BR(~chi_1+ -> ~chi_10 tau+ nu_tau)
#
#         PDG            Width
DECAY   1000037     2.85027382E+01   # chargino2+ decays
#          BR         NDA      ID1       ID2
     2.55870199E-01    2     1000024        23   # BR(~chi_2+ -> ~chi_1+  Z )
     9.61151833E-02    2     1000022        24   # BR(~chi_2+ -> ~chi_10  W+)
     2.45625540E-01    2     1000023        24   # BR(~chi_2+ -> ~chi_20  W+)
     1.53663800E-01    2     1000025        24   # BR(~chi_2+ -> ~chi_30  W+)
     2.48713333E-01    2     1000024        25   # BR(~chi_2+ -> ~chi_1+  h )
     1.19369565E-05    2     1000039        24   # BR(~chi_2+ -> ~G       W+)
     8.21106624E-09    2     1000039        37   # BR(~chi_2+ -> ~G       H+)
#
#         PDG            Width
DECAY   1000022    1.0E-05    # neutralino1 decays
#          BR         NDA      ID1       ID2
     5.00805745E-01    2     1000039        22   # BR(~chi_10 -> ~G        gam)
     4.88009426E-01    2     1000039        23   # BR(~chi_10 -> ~G        Z)
     9.72760768E-03    2     1000039        25   # BR(~chi_10 -> ~G        h)
     1.39755577E-03    2     1000039        35   # BR(~chi_10 -> ~G        H)
     5.96654687E-05    2     1000039        36   # BR(~chi_10 -> ~G        A)
#
#         PDG            Width
DECAY   1000023     3.99013862E-04   # neutralino2 decays
#          BR         NDA      ID1       ID2
     1.11265610E-04    2     1000022        22   # BR(~chi_20 -> ~chi_10 gam)
#          BR         NDA      ID1       ID2
     1.03012871E-08    2     1000039        22   # BR(~chi_20 -> ~G        gam)
     4.45475619E-03    2     1000039        23   # BR(~chi_20 -> ~G        Z)
     1.10754011E-01    2     1000039        25   # BR(~chi_20 -> ~G        h)
     3.85305360E-05    2     1000039        35   # BR(~chi_20 -> ~G        H)
     1.02122388E-03    2     1000039        36   # BR(~chi_20 -> ~G        A)
#           BR         NDA      ID1       ID2       ID3
     1.04398128E-01    3     1000022        -2         2   # BR(~chi_20 -> ~chi_10 ub      u)
     1.35193586E-01    3     1000022        -1         1   # BR(~chi_20 -> ~chi_10 db      d)
     1.04398128E-01    3     1000022        -4         4   # BR(~chi_20 -> ~chi_10 cb      c)
     1.35193586E-01    3     1000022        -3         3   # BR(~chi_20 -> ~chi_10 sb      s)
     1.26769352E-01    3     1000022        -5         5   # BR(~chi_20 -> ~chi_10 bb      b)
     3.08824499E-02    3     1000022       -11        11   # BR(~chi_20 -> ~chi_10 e+      e-)
     3.08824499E-02    3     1000022       -13        13   # BR(~chi_20 -> ~chi_10 mu+     mu-)
     3.06460722E-02    3     1000022       -15        15   # BR(~chi_20 -> ~chi_10 tau+    tau-)
     6.16781550E-02    3     1000022       -12        12   # BR(~chi_20 -> ~chi_10 nu_eb   nu_e)
     6.16781550E-02    3     1000022       -14        14   # BR(~chi_20 -> ~chi_10 nu_mub  nu_mu)
     6.16781550E-02    3     1000022       -16        16   # BR(~chi_20 -> ~chi_10 nu_taub nu_tau)
     3.78153544E-05    3     1000024        -2         1   # BR(~chi_20 -> ~chi_1+ ub      d)
     3.78153544E-05    3    -1000024        -1         2   # BR(~chi_20 -> ~chi_1- db      u)
     3.78153544E-05    3     1000024        -4         3   # BR(~chi_20 -> ~chi_1+ cb      s)
     3.78153544E-05    3    -1000024        -3         4   # BR(~chi_20 -> ~chi_1- sb      c)
     1.26051194E-05    3     1000024       -12        11   # BR(~chi_20 -> ~chi_1+ nu_eb   e-)
     1.26051194E-05    3    -1000024        12       -11   # BR(~chi_20 -> ~chi_1- nu_e    e+)
     1.26051194E-05    3     1000024       -14        13   # BR(~chi_20 -> ~chi_1+ nu_mub  mu-)
     1.26051194E-05    3    -1000024        14       -13   # BR(~chi_20 -> ~chi_1- nu_mu   mu+)
     1.01515244E-05    3     1000024       -16        15   # BR(~chi_20 -> ~chi_1+ nu_taub tau-)
     1.01515244E-05    3    -1000024        16       -15   # BR(~chi_20 -> ~chi_1- nu_tau  tau+)
#
#         PDG            Width
DECAY   1000025     1.87781112E-04   # neutralino3 decays
#          BR         NDA      ID1       ID2
     4.49944827E-04    2     1000022        22   # BR(~chi_30 -> ~chi_10 gam)
     2.60355855E-06    2     1000023        22   # BR(~chi_30 -> ~chi_20 gam)
#          BR         NDA      ID1       ID2
     1.96036853E-01    2     1000039        22   # BR(~chi_30 -> ~G        gam)
     1.73695728E-01    2     1000039        23   # BR(~chi_30 -> ~G        Z)
     5.59979867E-03    2     1000039        25   # BR(~chi_30 -> ~G        h)
     1.55161075E-03    2     1000039        35   # BR(~chi_30 -> ~G        H)
     6.33660543E-05    2     1000039        36   # BR(~chi_30 -> ~G        A)
#           BR         NDA      ID1       ID2       ID3
     3.07430763E-05    3     1000022        -2         2   # BR(~chi_30 -> ~chi_10 ub      u)
     3.73115581E-05    3     1000022        -1         1   # BR(~chi_30 -> ~chi_10 db      d)
     3.07430763E-05    3     1000022        -4         4   # BR(~chi_30 -> ~chi_10 cb      c)
     3.73115581E-05    3     1000022        -3         3   # BR(~chi_30 -> ~chi_10 sb      s)
     1.61897206E-04    3     1000022        -5         5   # BR(~chi_30 -> ~chi_10 bb      b)
     6.88936442E-06    3     1000022       -11        11   # BR(~chi_30 -> ~chi_10 e+      e-)
     6.88936442E-06    3     1000022       -13        13   # BR(~chi_30 -> ~chi_10 mu+     mu-)
     2.58223303E-05    3     1000022       -15        15   # BR(~chi_30 -> ~chi_10 tau+    tau-)
     1.78459388E-05    3     1000022       -12        12   # BR(~chi_30 -> ~chi_10 nu_eb   nu_e)
     1.78459388E-05    3     1000022       -14        14   # BR(~chi_30 -> ~chi_10 nu_mub  nu_mu)
     1.78459388E-05    3     1000022       -16        16   # BR(~chi_30 -> ~chi_10 nu_taub nu_tau)
     7.07803983E-03    3     1000023        -2         2   # BR(~chi_30 -> ~chi_20 ub      u)
     9.16593464E-03    3     1000023        -1         1   # BR(~chi_30 -> ~chi_20 db      d)
     7.07803983E-03    3     1000023        -4         4   # BR(~chi_30 -> ~chi_20 cb      c)
     9.16593464E-03    3     1000023        -3         3   # BR(~chi_30 -> ~chi_20 sb      s)
     7.13007444E-03    3     1000023        -5         5   # BR(~chi_30 -> ~chi_20 bb      b)
     2.09378767E-03    3     1000023       -11        11   # BR(~chi_30 -> ~chi_20 e+      e-)
     2.09378767E-03    3     1000023       -13        13   # BR(~chi_30 -> ~chi_20 mu+     mu-)
     2.04681918E-03    3     1000023       -15        15   # BR(~chi_30 -> ~chi_20 tau+    tau-)
     4.18167765E-03    3     1000023       -12        12   # BR(~chi_30 -> ~chi_20 nu_eb   nu_e)
     4.18167765E-03    3     1000023       -14        14   # BR(~chi_30 -> ~chi_20 nu_mub  nu_mu)
     4.18167765E-03    3     1000023       -16        16   # BR(~chi_30 -> ~chi_20 nu_taub nu_tau)
     9.40854179E-02    3     1000024        -2         1   # BR(~chi_30 -> ~chi_1+ ub      d)
     9.40854179E-02    3    -1000024        -1         2   # BR(~chi_30 -> ~chi_1- db      u)
     9.40854179E-02    3     1000024        -4         3   # BR(~chi_30 -> ~chi_1+ cb      s)
     9.40854179E-02    3    -1000024        -3         4   # BR(~chi_30 -> ~chi_1- sb      c)
     3.13617502E-02    3     1000024       -12        11   # BR(~chi_30 -> ~chi_1+ nu_eb   e-)
     3.13617502E-02    3    -1000024        12       -11   # BR(~chi_30 -> ~chi_1- nu_e    e+)
     3.13617502E-02    3     1000024       -14        13   # BR(~chi_30 -> ~chi_1+ nu_mub  mu-)
     3.13617502E-02    3    -1000024        14       -13   # BR(~chi_30 -> ~chi_1- nu_mu   mu+)
     3.10114002E-02    3     1000024       -16        15   # BR(~chi_30 -> ~chi_1+ nu_taub tau-)
     3.10114002E-02    3    -1000024        16       -15   # BR(~chi_30 -> ~chi_1- nu_tau  tau+)
     1.02424592E-08    3     1000021        -2         2   # BR(~chi_30 -> ~g      ub      u)
     2.21815801E-09    3     1000021        -1         1   # BR(~chi_30 -> ~g      db      d)
     1.02424592E-08    3     1000021        -4         4   # BR(~chi_30 -> ~g      cb      c)
     2.21815801E-09    3     1000021        -3         3   # BR(~chi_30 -> ~g      sb      s)
     1.12999258E-09    3     1000021        -5         5   # BR(~chi_30 -> ~g      bb      b)
#
#         PDG            Width
DECAY   1000035     2.84980354E+01   # neutralino4 decays
#          BR         NDA      ID1       ID2
     7.55855338E-05    2     1000022        23   # BR(~chi_40 -> ~chi_10   Z )
     2.52632869E-01    2     1000023        23   # BR(~chi_40 -> ~chi_20   Z )
     9.97399500E-05    2     1000025        23   # BR(~chi_40 -> ~chi_30   Z )
     2.48645733E-01    2     1000024       -24   # BR(~chi_40 -> ~chi_1+   W-)
     2.48645733E-01    2    -1000024        24   # BR(~chi_40 -> ~chi_1-   W+)
     9.60316261E-02    2     1000022        25   # BR(~chi_40 -> ~chi_10   h )
     1.64178986E-04    2     1000023        25   # BR(~chi_40 -> ~chi_20   h )
     1.53692587E-01    2     1000025        25   # BR(~chi_40 -> ~chi_30   h )
     2.79795054E-06    2     1000039        22   # BR(~chi_40 -> ~G        gam)
     9.13708195E-06    2     1000039        23   # BR(~chi_40 -> ~G        Z)
     3.33596815E-09    2     1000039        25   # BR(~chi_40 -> ~G        h)
     7.97781897E-09    2     1000039        35   # BR(~chi_40 -> ~G        H)
     2.46563416E-10    2     1000039        36   # BR(~chi_40 -> ~G        A)
#
#         PDG            Width
DECAY        25     4.22409144E-03   # h decays
#          BR         NDA      ID1       ID2
     6.02461099E-01    2           5        -5   # BR(h -> b       bb     )
     6.21525580E-02    2         -15        15   # BR(h -> tau+    tau-   )
     2.19992959E-04    2         -13        13   # BR(h -> mu+     mu-    )
     4.65462818E-04    2           3        -3   # BR(h -> s       sb     )
     2.00818036E-02    2           4        -4   # BR(h -> c       cb     )
     6.63216780E-02    2          21        21   # BR(h -> g       g      )
     2.30290884E-03    2          22        22   # BR(h -> gam     gam    )
     1.62450652E-03    2          22        23   # BR(h -> Z       gam    )
     2.16327148E-01    2          24       -24   # BR(h -> W+      W-     )
     2.80428424E-02    2          23        23   # BR(h -> Z       Z      )
#
#         PDG            Width
DECAY        35     3.78080137E+01   # H decays
#          BR         NDA      ID1       ID2
     1.46292078E-03    2           5        -5   # BR(H -> b       bb     )
     2.46441092E-04    2         -15        15   # BR(H -> tau+    tau-   )
     8.71261011E-07    2         -13        13   # BR(H -> mu+     mu-    )
     1.11553480E-06    2           3        -3   # BR(H -> s       sb     )
     1.00669759E-05    2           4        -4   # BR(H -> c       cb     )
     9.96079946E-01    2           6        -6   # BR(H -> t       tb     )
     7.97734756E-04    2          21        21   # BR(H -> g       g      )
     2.71901897E-06    2          22        22   # BR(H -> gam     gam    )
     1.16049384E-06    2          23        22   # BR(H -> Z       gam    )
     3.31773970E-04    2          24       -24   # BR(H -> W+      W-     )
     1.65434564E-04    2          23        23   # BR(H -> Z       Z      )
     8.99815905E-04    2          25        25   # BR(H -> h       h      )
     7.10602641E-24    2          36        36   # BR(H -> A       A      )
     2.86005864E-11    2          23        36   # BR(H -> Z       A      )
     6.25950000E-12    2          24       -37   # BR(H -> W+      H-     )
     6.25950000E-12    2         -24        37   # BR(H -> W-      H+     )
#
#         PDG            Width
DECAY        36     3.82378109E+01   # A decays
#          BR         NDA      ID1       ID2
     1.46581985E-03    2           5        -5   # BR(A -> b       bb     )
     2.43900375E-04    2         -15        15   # BR(A -> tau+    tau-   )
     8.62275932E-07    2         -13        13   # BR(A -> mu+     mu-    )
     1.13678633E-06    2           3        -3   # BR(A -> s       sb     )
     9.96187324E-06    2           4        -4   # BR(A -> c       cb     )
     9.97006842E-01    2           6        -6   # BR(A -> t       tb     )
     9.43685917E-04    2          21        21   # BR(A -> g       g      )
     3.12348101E-06    2          22        22   # BR(A -> gam     gam    )
     1.35307612E-06    2          23        22   # BR(A -> Z       gam    )
     3.23314470E-04    2          23        25   # BR(A -> Z       h      )
#
#         PDG            Width
DECAY        37     3.74469765E+01   # H+ decays
#          BR         NDA      ID1       ID2
     2.34618317E-06    2           4        -5   # BR(H+ -> c       bb     )
     2.49240924E-04    2         -15        16   # BR(H+ -> tau+    nu_tau )
     8.81156701E-07    2         -13        14   # BR(H+ -> mu+     nu_mu  )
     1.49156850E-08    2           2        -5   # BR(H+ -> u       bb     )
     5.45701096E-08    2           2        -3   # BR(H+ -> u       sb     )
     1.08733012E-05    2           4        -3   # BR(H+ -> c       sb     )
     9.99405223E-01    2           6        -5   # BR(H+ -> t       bb     )
     3.31366166E-04    2          24        25   # BR(H+ -> W+      h      )
     2.87904693E-13    2          24        36   # BR(H+ -> W+      A      )
