#
#                              ======================
#                              | THE SUSYHIT OUTPUT |
#                              ======================
#
#
#              ------------------------------------------------------
#              |     This is the output of the SUSY-HIT package     |
#              |  created by A.Djouadi, M.Muehlleitner and M.Spira. |
#              |  In case of problems with SUSY-HIT email to        |
#              |           margarete.muehlleitner@cern.ch           |
#              |           michael.spira@psi.ch                     |
#              |           abdelhak.djouadi@cern.ch                 |
#              ------------------------------------------------------
#
#              ------------------------------------------------------
#              |  SUSY Les Houches Accord - MSSM Spectrum + Decays  |
#              |              based on the decay programs           |
#              |                                                    |
#              |                     SDECAY 1.3b                    |
#              |                                                    |
#              |  Authors: M.Muhlleitner, A.Djouadi and Y.Mambrini  |
#              |  Ref.:    Comput.Phys.Commun.168(2005)46           |
#              |           [hep-ph/0311167]                         |
#              |                                                    |
#              |                     HDECAY 3.4                     |
#              |                                                    |
#              |  By: A.Djouadi,J.Kalinowski,M.Muhlleitner,M.Spira  |
#              |  Ref.:    Comput.Phys.Commun.108(1998)56           |
#              |           [hep-ph/9704448]                         |
#              |                                                    |
#              |                                                    |
#              |  If not stated otherwise all DRbar couplings and   |
#              |  soft SUSY breaking masses are given at the scale  |
#              |  Q=  0.50007393E+04
#              |                                                    |
#              ------------------------------------------------------
#
#
BLOCK DCINFO  # Decay Program information
     1   SDECAY/HDECAY # decay calculator
     2   1.3b  /3.4    # version number
#
BLOCK SPINFO  # Spectrum calculator information
     1    SOFTSUSY    # spectrum calculator                
     2    3.4.0       # version number                     
#
BLOCK MODSEL  # Model selection
     1     0   #  nonUniversal                                     
#
BLOCK SMINPUTS  # Standard Model inputs
         1     1.25778332E+02   # alpha_em^-1(M_Z)^MSbar
         2     1.16570000E-05   # G_F [GeV^-2]
         3     1.17200002E-01   # alpha_S(M_Z)^MSbar
         4     9.11876000E+01   # M_Z pole mass
         5     4.25000000E+00   # mb(mb)^MSbar
         6     1.72500000E+02   # mt pole mass
         7     1.77682000E+00   # mtau pole mass
#
BLOCK MINPAR  # Input parameters - minimal models
         3     1.00000000E+01   # tanb                
#
BLOCK EXTPAR  # Input parameters - non-minimal models
         0    -1.00000000E+00   # Set                 
         1     6.00000000E+01   # M_1(MX)             
         2     3.00000000E+03   # M_2(MX)             
         3     2.42818200E+03   # M_3(MX)             
        11     5.00000000E+03   # At(MX)              
        12     5.00000000E+03   # Ab(MX)              
        13     0.00000000E+00   # Atau(MX)            
        23    -1.05619600E+03   # mu(MX)              
        26     3.00000000E+03   # mA(pole)            
        31     5.00000000E+03   # meL(MX)             
        32     5.00000000E+03   # mmuL(MX)            
        33     5.00000000E+03   # mtauL(MX)           
        34     5.00000000E+03   # meR(MX)             
        35     5.00000000E+03   # mmuR(MX)            
        36     5.00000000E+03   # mtauR(MX)           
        41     5.00000000E+03   # mqL1(MX)            
        42     5.00000000E+03   # mqL2(MX)            
        43     5.00000000E+03   # mqL3(MX)            
        44     5.00000000E+03   # muR(MX)             
        45     5.00000000E+03   # mcR(MX)             
        46     5.00000000E+03   # mtR(MX)             
        47     5.00000000E+03   # mdR(MX)             
        48     5.00000000E+03   # msR(MX)             
        49     5.00000000E+03   # mbR(MX)             
#
BLOCK MASS  # Mass Spectrum
# PDG code           mass       particle
        24     8.00958463E+01   # W+
        25     1.24822466E+02   # h
        35     3.00008315E+03   # H
        36     2.99999760E+03   # A
        37     3.00103437E+03   # H+
         5     4.87878001E+00   # b-quark pole mass calculated from mb(mb)_Msbar
   1000001     5.08627073E+03   # ~d_L
   2000001     5.06852935E+03   # ~d_R
   1000002     5.08580147E+03   # ~u_L
   2000002     5.06824779E+03   # ~u_R
   1000003     5.08627073E+03   # ~s_L
   2000003     5.06852935E+03   # ~s_R
   1000004     5.08580147E+03   # ~c_L
   2000004     5.06824779E+03   # ~c_R
   1000005     5.03200404E+03   # ~b_1
   2000005     5.06706648E+03   # ~b_2
   1000006     4.92446099E+03   # ~t_1
   2000006     5.07580691E+03   # ~t_2
   1000011     5.01906249E+03   # ~e_L
   2000011     5.00592082E+03   # ~e_R
   1000012     5.01811420E+03   # ~nu_eL
   1000013     5.01906249E+03   # ~mu_L
   2000013     5.00592082E+03   # ~mu_R
   1000014     5.01811420E+03   # ~nu_muL
   1000015     5.00456994E+03   # ~tau_1
   2000015     5.01880218E+03   # ~tau_2
   1000016     5.01756941E+03   # ~nu_tauL
   1000021     2.80000085E+03   # ~g
   1000022     6.03010752E+01   # ~chi_10
   1000023     1.09959091E+03   # ~chi_20
   1000025    -1.10186365E+03   # ~chi_30
   1000035     3.07426241E+03   # ~chi_40
   1000024     1.10000043E+03   # ~chi_1+
   1000037     3.07442982E+03   # ~chi_2+
#
BLOCK NMIX  # Neutralino Mixing Matrix
  1  1     9.99178405E-01   # N_11
  1  2     1.73978638E-04   # N_12
  1  3    -4.04778001E-02   # N_13
  1  4     2.00815438E-03   # N_14
  2  1     2.72084482E-02   # N_21
  2  2     2.46686588E-02   # N_22
  2  3     7.06784847E-01   # N_23
  2  4     7.06474584E-01   # N_24
  3  1    -3.00341303E-02   # N_31
  3  2     1.45504387E-02   # N_32
  3  3    -7.06233339E-01   # N_33
  3  4     7.07192128E-01   # N_34
  4  1    -4.08189302E-04   # N_41
  4  2     9.99589772E-01   # N_42
  4  3    -7.15532233E-03   # N_43
  4  4    -2.77294610E-02   # N_44
#
BLOCK UMIX  # Chargino Mixing Matrix U
  1  1     1.01337129E-02   # U_11
  1  2     9.99948653E-01   # U_12
  2  1    -9.99948653E-01   # U_21
  2  2     1.01337129E-02   # U_22
#
BLOCK VMIX  # Chargino Mixing Matrix V
  1  1     3.92450385E-02   # V_11
  1  2    -9.99229617E-01   # V_12
  2  1    -9.99229617E-01   # V_21
  2  2    -3.92450385E-02   # V_22
#
BLOCK STOPMIX  # Stop Mixing Matrix
  1  1    -5.04421663E-01   # cos(theta_t)
  1  2     8.63457460E-01   # sin(theta_t)
  2  1    -8.63457460E-01   # -sin(theta_t)
  2  2    -5.04421663E-01   # cos(theta_t)
#
BLOCK SBOTMIX  # Sbottom Mixing Matrix
  1  1     9.96689685E-01   # cos(theta_b)
  1  2    -8.12998882E-02   # sin(theta_b)
  2  1     8.12998882E-02   # -sin(theta_b)
  2  2     9.96689685E-01   # cos(theta_b)
#
BLOCK STAUMIX  # Stau Mixing Matrix
  1  1    -1.25047137E-01   # cos(theta_tau)
  1  2     9.92150802E-01   # sin(theta_tau)
  2  1    -9.92150802E-01   # -sin(theta_tau)
  2  2    -1.25047137E-01   # cos(theta_tau)
#
BLOCK ALPHA  # Higgs mixing
          -1.05480946E-01   # Mixing angle in the neutral Higgs boson sector
#
BLOCK HMIX Q=  5.00073934E+03  # DRbar Higgs Parameters
         1    -1.07565275E+03   # mu(Q)MSSM           
         2     9.46917182E+00   # tan                 
         3     2.41878180E+02   # higgs               
         4     8.49182931E+06   # mA^2(Q)MSSM         
#
BLOCK GAUGE Q=  5.00073934E+03  # The gauge couplings
     1     3.70759143E-01   # gprime(Q) DRbar
     2     6.32393202E-01   # g(Q) DRbar
     3     9.93518603E-01   # g3(Q) DRbar
#
BLOCK AU Q=  5.00073934E+03  # The trilinear couplings
  1  1     5.00000002E+03   # A_u(Q) DRbar
  2  2     5.00000002E+03   # A_c(Q) DRbar
  3  3     5.00000003E+03   # A_t(Q) DRbar
#
BLOCK AD Q=  5.00073934E+03  # The trilinear couplings
  1  1     5.00000001E+03   # A_d(Q) DRbar
  2  2     5.00000001E+03   # A_s(Q) DRbar
  3  3     5.00000001E+03   # A_b(Q) DRbar
#
BLOCK AE Q=  5.00073934E+03  # The trilinear couplings
  1  1     0.00000000E+00   # A_e(Q) DRbar
  2  2     2.95178346E-07   # A_mu(Q) DRbar
  3  3     2.95287720E-07   # A_tau(Q) DRbar
#
BLOCK Yu Q=  5.00073934E+03  # The Yukawa couplings
  1  1     0.00000000E+00   # y_u(Q) DRbar
  2  2     0.00000000E+00   # y_c(Q) DRbar
  3  3     8.21378909E-01   # y_t(Q) DRbar
#
BLOCK Yd Q=  5.00073934E+03  # The Yukawa couplings
  1  1     0.00000000E+00   # y_d(Q) DRbar
  2  2     0.00000000E+00   # y_s(Q) DRbar
  3  3     1.31281663E-01   # y_b(Q) DRbar
#
BLOCK Ye Q=  5.00073934E+03  # The Yukawa couplings
  1  1     0.00000000E+00   # y_e(Q) DRbar
  2  2     0.00000000E+00   # y_mu(Q) DRbar
  3  3     9.67967921E-02   # y_tau(Q) DRbar
#
BLOCK MSOFT Q=  5.00073934E+03  # The soft SUSY breaking masses at the scale Q
         1     6.00000000E+01   # M_1(Q)              
         2     3.00000000E+03   # M_2(Q)              
         3     2.42818200E+03   # M_3(Q)              
        21     7.53451958E+06   # mH1^2(Q)            
        22    -5.92737804E+05   # mH2^2(Q)            
        31     5.00000000E+03   # meL(Q)              
        32     5.00000000E+03   # mmuL(Q)             
        33     5.00000000E+03   # mtauL(Q)            
        34     5.00000000E+03   # meR(Q)              
        35     5.00000000E+03   # mmuR(Q)             
        36     5.00000000E+03   # mtauR(Q)            
        41     4.99999999E+03   # mqL1(Q)             
        42     4.99999999E+03   # mqL2(Q)             
        43     4.99999999E+03   # mqL3(Q)             
        44     4.99999999E+03   # muR(Q)              
        45     4.99999999E+03   # mcR(Q)              
        46     4.99999999E+03   # mtR(Q)              
        47     4.99999999E+03   # mdR(Q)              
        48     4.99999999E+03   # msR(Q)              
        49     4.99999999E+03   # mbR(Q)              
#
#
#
#                             =================
#                             |The decay table|
#                             =================
#
# - The QCD corrections to the decays gluino -> squark  + quark
#                                     squark -> gaugino + quark_prime
#                                     squark -> squark_prime + Higgs
#                                     squark -> gluino  + quark
#   are included.
#
# - The multi-body decays for the inos, stops and sbottoms are included.
#
# - The loop induced decays for the gluino, neutralinos and stops
#   are included.
#
# - The SUSY decays of the top quark are included.
#
#
#         PDG            Width
DECAY         6     1.40142247E+00   # top decays
#          BR         NDA      ID1       ID2
     1.00000000E+00    2           5        24   # BR(t ->  b    W+)
#
#         PDG            Width
DECAY   1000021     7.14247492E-03   # gluino decays
#          BR         NDA      ID1       ID2
     1.68494562E-06    2     1000022        21   # BR(~g -> ~chi_10 g)
     4.36281452E-03    2     1000023        21   # BR(~g -> ~chi_20 g)
     4.30811160E-03    2     1000025        21   # BR(~g -> ~chi_30 g)
#           BR         NDA      ID1       ID2       ID3
     1.95915411E-02    3     1000022         1        -1   # BR(~g -> ~chi_10 d  db)
     2.39855707E-05    3     1000023         1        -1   # BR(~g -> ~chi_20 d  db)
     1.17309585E-05    3     1000025         1        -1   # BR(~g -> ~chi_30 d  db)
     6.68103309E-02    3     1000022         2        -2   # BR(~g -> ~chi_10 u  ub)
     6.66271571E-05    3     1000023         2        -2   # BR(~g -> ~chi_20 u  ub)
     1.33967741E-05    3     1000025         2        -2   # BR(~g -> ~chi_30 u  ub)
     1.95915411E-02    3     1000022         3        -3   # BR(~g -> ~chi_10 s  sb)
     2.39855707E-05    3     1000023         3        -3   # BR(~g -> ~chi_20 s  sb)
     1.17309585E-05    3     1000025         3        -3   # BR(~g -> ~chi_30 s  sb)
     6.68103309E-02    3     1000022         4        -4   # BR(~g -> ~chi_10 c  cb)
     6.66271571E-05    3     1000023         4        -4   # BR(~g -> ~chi_20 c  cb)
     1.33967741E-05    3     1000025         4        -4   # BR(~g -> ~chi_30 c  cb)
     1.98732498E-02    3     1000022         5        -5   # BR(~g -> ~chi_10 b  bb)
     4.70993453E-03    3     1000023         5        -5   # BR(~g -> ~chi_20 b  bb)
     4.66031925E-03    3     1000025         5        -5   # BR(~g -> ~chi_30 b  bb)
     6.94052000E-02    3     1000022         6        -6   # BR(~g -> ~chi_10 t  tb)
     1.79776580E-01    3     1000023         6        -6   # BR(~g -> ~chi_20 t  tb)
     1.67631031E-01    3     1000025         6        -6   # BR(~g -> ~chi_30 t  tb)
     6.86814097E-05    3     1000024         1        -2   # BR(~g -> ~chi_1+ d  ub)
     6.86814097E-05    3    -1000024         2        -1   # BR(~g -> ~chi_1- u  db)
     6.86814097E-05    3     1000024         3        -4   # BR(~g -> ~chi_1+ s  cb)
     6.86814097E-05    3    -1000024         4        -3   # BR(~g -> ~chi_1- c  sb)
     1.85980562E-01    3     1000024         5        -6   # BR(~g -> ~chi_1+ b  tb)
     1.85980562E-01    3    -1000024         6        -5   # BR(~g -> ~chi_1- t  bb)
#
#         PDG            Width
DECAY   1000006     2.62506134E+02   # stop1 decays
#          BR         NDA      ID1       ID2
     3.39141697E-02    2     1000022         6   # BR(~t_1 -> ~chi_10 t )
     1.13517052E-01    2     1000023         6   # BR(~t_1 -> ~chi_20 t )
     1.09194618E-01    2     1000025         6   # BR(~t_1 -> ~chi_30 t )
     7.80463413E-03    2     1000035         6   # BR(~t_1 -> ~chi_40 t )
     1.66870635E-01    2     1000024         5   # BR(~t_1 -> ~chi_1+ b )
     1.55454615E-02    2     1000037         5   # BR(~t_1 -> ~chi_2+ b )
     5.53153429E-01    2     1000021         6   # BR(~t_1 -> ~g      t )
#
#         PDG            Width
DECAY   2000006     2.72964944E+02   # stop2 decays
#          BR         NDA      ID1       ID2
     1.24556222E-02    2     1000022         6   # BR(~t_2 -> ~chi_10 t )
     1.12203538E-01    2     1000023         6   # BR(~t_2 -> ~chi_20 t )
     1.16768217E-01    2     1000025         6   # BR(~t_2 -> ~chi_30 t )
     2.06904589E-02    2     1000035         6   # BR(~t_2 -> ~chi_40 t )
     6.51997252E-02    2     1000024         5   # BR(~t_2 -> ~chi_1+ b )
     4.11545619E-02    2     1000037         5   # BR(~t_2 -> ~chi_2+ b )
     6.27121766E-01    2     1000021         6   # BR(~t_2 -> ~g      t )
     9.99725289E-04    2     1000006        25   # BR(~t_2 -> ~t_1    h )
     3.40638610E-03    2     1000006        23   # BR(~t_2 -> ~t_1    Z )
#
#         PDG            Width
DECAY   1000005     2.47634346E+02   # sbottom1 decays
#          BR         NDA      ID1       ID2
     3.11310463E-03    2     1000022         5   # BR(~b_1 -> ~chi_10 b )
     3.19333829E-03    2     1000023         5   # BR(~b_1 -> ~chi_20 b )
     3.09516245E-03    2     1000025         5   # BR(~b_1 -> ~chi_30 b )
     3.06716727E-02    2     1000035         5   # BR(~b_1 -> ~chi_40 b )
     2.44398858E-01    2    -1000024         6   # BR(~b_1 -> ~chi_1- t )
     6.16430343E-02    2    -1000037         6   # BR(~b_1 -> ~chi_2- t )
     6.51733494E-01    2     1000021         5   # BR(~b_1 -> ~g      b )
     2.15133570E-03    2     1000006       -24   # BR(~b_1 -> ~t_1    W-)
#
#         PDG            Width
DECAY   2000005     1.70980223E+02   # sbottom2 decays
#          BR         NDA      ID1       ID2
     1.71267932E-02    2     1000022         5   # BR(~b_2 -> ~chi_10 b )
     4.57906430E-03    2     1000023         5   # BR(~b_2 -> ~chi_20 b )
     4.71109026E-03    2     1000025         5   # BR(~b_2 -> ~chi_30 b )
     2.92611295E-04    2     1000035         5   # BR(~b_2 -> ~chi_40 b )
     1.13623453E-02    2    -1000024         6   # BR(~b_2 -> ~chi_1- t )
     5.87992729E-04    2    -1000037         6   # BR(~b_2 -> ~chi_2- t )
     9.61249057E-01    2     1000021         5   # BR(~b_2 -> ~g      b )
     9.10463660E-05    2     1000006       -24   # BR(~b_2 -> ~t_1    W-)
#
#         PDG            Width
DECAY   1000002     1.90490565E+02   # sup_L decays
#          BR         NDA      ID1       ID2
     3.90677981E-03    2     1000022         2   # BR(~u_L -> ~chi_10 u)
     8.38423034E-05    2     1000023         2   # BR(~u_L -> ~chi_20 u)
     7.02411537E-06    2     1000025         2   # BR(~u_L -> ~chi_30 u)
     4.15619647E-02    2     1000035         2   # BR(~u_L -> ~chi_40 u)
     2.87208254E-04    2     1000024         1   # BR(~u_L -> ~chi_1+ d)
     8.30669769E-02    2     1000037         1   # BR(~u_L -> ~chi_2+ d)
     8.71086204E-01    2     1000021         2   # BR(~u_L -> ~g      u)
#
#         PDG            Width
DECAY   2000002     1.76226201E+02   # sup_R decays
#          BR         NDA      ID1       ID2
     6.72096129E-02    2     1000022         2   # BR(~u_R -> ~chi_10 u)
     4.54050958E-05    2     1000023         2   # BR(~u_R -> ~chi_20 u)
     5.53034072E-05    2     1000025         2   # BR(~u_R -> ~chi_30 u)
     4.52663646E-09    2     1000035         2   # BR(~u_R -> ~chi_40 u)
     9.32689674E-01    2     1000021         2   # BR(~u_R -> ~g      u)
#
#         PDG            Width
DECAY   1000001     1.90508144E+02   # sdown_L decays
#          BR         NDA      ID1       ID2
     3.89288947E-03    2     1000022         1   # BR(~d_L -> ~chi_10 d)
     3.49190436E-05    2     1000023         1   # BR(~d_L -> ~chi_20 d)
     3.88660675E-05    2     1000025         1   # BR(~d_L -> ~chi_30 d)
     4.15840183E-02    2     1000035         1   # BR(~d_L -> ~chi_40 d)
     1.91501904E-05    2    -1000024         2   # BR(~d_L -> ~chi_1- u)
     8.32041474E-02    2    -1000037         2   # BR(~d_L -> ~chi_2- u)
     8.71226010E-01    2     1000021         1   # BR(~d_L -> ~g      d)
#
#         PDG            Width
DECAY   2000001     1.67355163E+02   # sdown_R decays
#          BR         NDA      ID1       ID2
     1.76940587E-02    2     1000022         1   # BR(~d_R -> ~chi_10 d)
     1.19537798E-05    2     1000023         1   # BR(~d_R -> ~chi_20 d)
     1.45597047E-05    2     1000025         1   # BR(~d_R -> ~chi_30 d)
     1.19186473E-09    2     1000035         1   # BR(~d_R -> ~chi_40 d)
     9.82279427E-01    2     1000021         1   # BR(~d_R -> ~g      d)
#
#         PDG            Width
DECAY   1000004     1.90490565E+02   # scharm_L decays
#          BR         NDA      ID1       ID2
     3.90677981E-03    2     1000022         4   # BR(~c_L -> ~chi_10 c)
     8.38423034E-05    2     1000023         4   # BR(~c_L -> ~chi_20 c)
     7.02411537E-06    2     1000025         4   # BR(~c_L -> ~chi_30 c)
     4.15619647E-02    2     1000035         4   # BR(~c_L -> ~chi_40 c)
     2.87208254E-04    2     1000024         3   # BR(~c_L -> ~chi_1+ s)
     8.30669769E-02    2     1000037         3   # BR(~c_L -> ~chi_2+ s)
     8.71086204E-01    2     1000021         4   # BR(~c_L -> ~g      c)
#
#         PDG            Width
DECAY   2000004     1.76226201E+02   # scharm_R decays
#          BR         NDA      ID1       ID2
     6.72096129E-02    2     1000022         4   # BR(~c_R -> ~chi_10 c)
     4.54050958E-05    2     1000023         4   # BR(~c_R -> ~chi_20 c)
     5.53034072E-05    2     1000025         4   # BR(~c_R -> ~chi_30 c)
     4.52663646E-09    2     1000035         4   # BR(~c_R -> ~chi_40 c)
     9.32689674E-01    2     1000021         4   # BR(~c_R -> ~g      c)
#
#         PDG            Width
DECAY   1000003     1.90508144E+02   # sstrange_L decays
#          BR         NDA      ID1       ID2
     3.89288947E-03    2     1000022         3   # BR(~s_L -> ~chi_10 s)
     3.49190436E-05    2     1000023         3   # BR(~s_L -> ~chi_20 s)
     3.88660675E-05    2     1000025         3   # BR(~s_L -> ~chi_30 s)
     4.15840183E-02    2     1000035         3   # BR(~s_L -> ~chi_40 s)
     1.91501904E-05    2    -1000024         4   # BR(~s_L -> ~chi_1- c)
     8.32041474E-02    2    -1000037         4   # BR(~s_L -> ~chi_2- c)
     8.71226010E-01    2     1000021         3   # BR(~s_L -> ~g      s)
#
#         PDG            Width
DECAY   2000003     1.67355163E+02   # sstrange_R decays
#          BR         NDA      ID1       ID2
     1.76940587E-02    2     1000022         3   # BR(~s_R -> ~chi_10 s)
     1.19537798E-05    2     1000023         3   # BR(~s_R -> ~chi_20 s)
     1.45597047E-05    2     1000025         3   # BR(~s_R -> ~chi_30 s)
     1.19186473E-09    2     1000035         3   # BR(~s_R -> ~chi_40 s)
     9.82279427E-01    2     1000021         3   # BR(~s_R -> ~g      s)
#
#         PDG            Width
DECAY   1000011     3.02583842E+01   # selectron_L decays
#          BR         NDA      ID1       ID2
     2.26505827E-01    2     1000022        11   # BR(~e_L -> ~chi_10 e-)
     9.86771070E-04    2     1000023        11   # BR(~e_L -> ~chi_20 e-)
     5.58995945E-06    2     1000025        11   # BR(~e_L -> ~chi_30 e-)
     2.57276728E-01    2     1000035        11   # BR(~e_L -> ~chi_40 e-)
     1.22818079E-04    2    -1000024        12   # BR(~e_L -> ~chi_1- nu_e)
     5.15102266E-01    2    -1000037        12   # BR(~e_L -> ~chi_2- nu_e)
#
#         PDG            Width
DECAY   2000011     2.73674687E+01   # selectron_R decays
#          BR         NDA      ID1       ID2
     9.98511930E-01    2     1000022        11   # BR(~e_R -> ~chi_10 e-)
     6.70883090E-04    2     1000023        11   # BR(~e_R -> ~chi_20 e-)
     8.17122533E-04    2     1000025        11   # BR(~e_R -> ~chi_30 e-)
     6.46671371E-08    2     1000035        11   # BR(~e_R -> ~chi_40 e-)
#
#         PDG            Width
DECAY   1000013     3.02583842E+01   # smuon_L decays
#          BR         NDA      ID1       ID2
     2.26505827E-01    2     1000022        13   # BR(~mu_L -> ~chi_10 mu-)
     9.86771070E-04    2     1000023        13   # BR(~mu_L -> ~chi_20 mu-)
     5.58995945E-06    2     1000025        13   # BR(~mu_L -> ~chi_30 mu-)
     2.57276728E-01    2     1000035        13   # BR(~mu_L -> ~chi_40 mu-)
     1.22818079E-04    2    -1000024        14   # BR(~mu_L -> ~chi_1- nu_mu)
     5.15102266E-01    2    -1000037        14   # BR(~mu_L -> ~chi_2- nu_mu)
#
#         PDG            Width
DECAY   2000013     2.73674687E+01   # smuon_R decays
#          BR         NDA      ID1       ID2
     9.98511930E-01    2     1000022        13   # BR(~mu_R -> ~chi_10 mu-)
     6.70883090E-04    2     1000023        13   # BR(~mu_R -> ~chi_20 mu-)
     8.17122533E-04    2     1000025        13   # BR(~mu_R -> ~chi_30 mu-)
     6.46671371E-08    2     1000035        13   # BR(~mu_R -> ~chi_40 mu-)
#
#         PDG            Width
DECAY   1000015     2.90923163E+01   # stau_1 decays
#          BR         NDA      ID1       ID2
     9.28969516E-01    2     1000022        15   # BR(~tau_1 -> ~chi_10  tau-)
     1.53507387E-02    2     1000023        15   # BR(~tau_1 -> ~chi_20  tau-)
     1.44814407E-02    2     1000025        15   # BR(~tau_1 -> ~chi_30  tau-)
     4.04189722E-03    2     1000035        15   # BR(~tau_1 -> ~chi_40  tau-)
     2.90642330E-02    2    -1000024        16   # BR(~tau_1 -> ~chi_1-  nu_tau)
     8.09217479E-03    2    -1000037        16   # BR(~tau_1 -> ~chi_2-  nu_tau)
#
#         PDG            Width
DECAY   2000015     3.10566948E+01   # stau_2 decays
#          BR         NDA      ID1       ID2
     2.30247550E-01    2     1000022        15   # BR(~tau_2 -> ~chi_10  tau-)
     1.44011712E-02    2     1000023        15   # BR(~tau_2 -> ~chi_20  tau-)
     1.43383779E-02    2     1000025        15   # BR(~tau_2 -> ~chi_30  tau-)
     2.46796661E-01    2     1000035        15   # BR(~tau_2 -> ~chi_40  tau-)
     9.61716835E-05    2    -1000024        16   # BR(~tau_2 -> ~chi_1-  nu_tau)
     4.94120068E-01    2    -1000037        16   # BR(~tau_2 -> ~chi_2-  nu_tau)
#
#         PDG            Width
DECAY   1000012     3.02610490E+01   # snu_eL decays
#          BR         NDA      ID1       ID2
     2.26174214E-01    2     1000022        12   # BR(~nu_eL -> ~chi_10 nu_e)
     4.54271467E-05    2     1000023        12   # BR(~nu_eL -> ~chi_20 nu_e)
     6.18030793E-04    2     1000025        12   # BR(~nu_eL -> ~chi_30 nu_e)
     2.57335046E-01    2     1000035        12   # BR(~nu_eL -> ~chi_40 nu_e)
     1.84144076E-03    2     1000024        11   # BR(~nu_eL -> ~chi_1+ e-)
     5.13985841E-01    2     1000037        11   # BR(~nu_eL -> ~chi_2+ e-)
#
#         PDG            Width
DECAY   1000014     3.02610490E+01   # snu_muL decays
#          BR         NDA      ID1       ID2
     2.26174214E-01    2     1000022        14   # BR(~nu_muL -> ~chi_10 nu_mu)
     4.54271467E-05    2     1000023        14   # BR(~nu_muL -> ~chi_20 nu_mu)
     6.18030793E-04    2     1000025        14   # BR(~nu_muL -> ~chi_30 nu_mu)
     2.57335046E-01    2     1000035        14   # BR(~nu_muL -> ~chi_40 nu_mu)
     1.84144076E-03    2     1000024        13   # BR(~nu_muL -> ~chi_1+ mu-)
     5.13985841E-01    2     1000037        13   # BR(~nu_muL -> ~chi_2+ mu-)
#
#         PDG            Width
DECAY   1000016     3.10991942E+01   # snu_tauL decays
#          BR         NDA      ID1       ID2
     2.20054753E-01    2     1000022        16   # BR(~nu_tauL -> ~chi_10 nu_tau)
     4.41970859E-05    2     1000023        16   # BR(~nu_tauL -> ~chi_20 nu_tau)
     6.01295909E-04    2     1000025        16   # BR(~nu_tauL -> ~chi_30 nu_tau)
     2.50307169E-01    2     1000035        16   # BR(~nu_tauL -> ~chi_40 nu_tau)
     2.90440283E-02    2     1000024        15   # BR(~nu_tauL -> ~chi_1+ tau-)
     4.99948557E-01    2     1000037        15   # BR(~nu_tauL -> ~chi_2+ tau-)
#
#         PDG            Width
DECAY   1000024     6.71633622E-01   # chargino1+ decays
#          BR         NDA      ID1       ID2
     1.00000000E+00    2     1000022        24   # BR(~chi_1+ -> ~chi_10  W+)
#
#         PDG            Width
DECAY   1000037     2.00455789E+01   # chargino2+ decays
#          BR         NDA      ID1       ID2
     2.53107283E-01    2     1000024        23   # BR(~chi_2+ -> ~chi_1+  Z )
     2.05848687E-04    2     1000022        24   # BR(~chi_2+ -> ~chi_10  W+)
     2.44054094E-01    2     1000023        24   # BR(~chi_2+ -> ~chi_20  W+)
     2.44028134E-01    2     1000025        24   # BR(~chi_2+ -> ~chi_30  W+)
     2.58603711E-01    2     1000024        25   # BR(~chi_2+ -> ~chi_1+  h )
     9.29420764E-07    2     1000022        37   # BR(~chi_2+ -> ~chi_10  H+)
#
#         PDG            Width
DECAY   1000022     0.00000000E+00   # neutralino1 decays
#
#         PDG            Width
DECAY   1000023     7.02856010E-01   # neutralino2 decays
#          BR         NDA      ID1       ID2
     5.44442183E-01    2     1000022        23   # BR(~chi_20 -> ~chi_10   Z )
     4.55557817E-01    2     1000022        25   # BR(~chi_20 -> ~chi_10   h )
#
#         PDG            Width
DECAY   1000025     7.07330000E-01   # neutralino3 decays
#          BR         NDA      ID1       ID2
     4.43577094E-01    2     1000022        23   # BR(~chi_30 -> ~chi_10   Z )
     5.56422906E-01    2     1000022        25   # BR(~chi_30 -> ~chi_10   h )
#
#         PDG            Width
DECAY   1000035     2.00592550E+01   # neutralino4 decays
#          BR         NDA      ID1       ID2
     5.54585843E-05    2     1000022        23   # BR(~chi_40 -> ~chi_10   Z )
     6.53760833E-02    2     1000023        23   # BR(~chi_40 -> ~chi_20   Z )
     1.87013129E-01    2     1000025        23   # BR(~chi_40 -> ~chi_30   Z )
     2.44691534E-01    2     1000024       -24   # BR(~chi_40 -> ~chi_1+   W-)
     2.44691534E-01    2    -1000024        24   # BR(~chi_40 -> ~chi_1-   W+)
     1.52349571E-04    2     1000022        25   # BR(~chi_40 -> ~chi_10   h )
     8.62002266E-07    2     1000022        35   # BR(~chi_40 -> ~chi_10   H )
     1.08940767E-07    2     1000022        36   # BR(~chi_40 -> ~chi_10   A )
     1.92483534E-01    2     1000023        25   # BR(~chi_40 -> ~chi_20   h )
     6.55354074E-02    2     1000025        25   # BR(~chi_40 -> ~chi_30   h )
#
#         PDG            Width
DECAY        25     4.05225340E-03   # h decays
#          BR         NDA      ID1       ID2
     6.06273176E-01    2           5        -5   # BR(h -> b       bb     )
     6.40315760E-02    2         -15        15   # BR(h -> tau+    tau-   )
     2.26694844E-04    2         -13        13   # BR(h -> mu+     mu-    )
     4.80542909E-04    2           3        -3   # BR(h -> s       sb     )
     2.08229723E-02    2           4        -4   # BR(h -> c       cb     )
     6.74142882E-02    2          21        21   # BR(h -> g       g      )
     2.31897906E-03    2          22        22   # BR(h -> gam     gam    )
     1.49944032E-03    2          22        23   # BR(h -> Z       gam    )
     2.11637995E-01    2          24       -24   # BR(h -> W+      W-     )
     2.52429074E-02    2          23        23   # BR(h -> Z       Z      )
     5.14278898E-05    2     1000022   1000022   # BR(h -> ~chi_10 ~chi_10)
#
#         PDG            Width
DECAY        35     7.95709718E+00   # H decays
#          BR         NDA      ID1       ID2
     4.07219515E-01    2           5        -5   # BR(H -> b       bb     )
     7.00045335E-02    2         -15        15   # BR(H -> tau+    tau-   )
     2.47541591E-04    2         -13        13   # BR(H -> mu+     mu-    )
     3.03448020E-04    2           3        -3   # BR(H -> s       sb     )
     1.69786022E-06    2           4        -4   # BR(H -> c       cb     )
     1.69629685E-01    2           6        -6   # BR(H -> t       tb     )
     5.63613067E-05    2          21        21   # BR(H -> g       g      )
     3.01248125E-07    2          22        22   # BR(H -> gam     gam    )
     1.00176981E-07    2          23        22   # BR(H -> Z       gam    )
     7.78685313E-05    2          24       -24   # BR(H -> W+      W-     )
     3.88849874E-05    2          23        23   # BR(H -> Z       Z      )
     2.89140629E-04    2          25        25   # BR(H -> h       h      )
    -5.32437178E-23    2          36        36   # BR(H -> A       A      )
     7.71672956E-19    2          23        36   # BR(H -> Z       A      )
     1.60288540E-03    2     1000024  -1000024   # BR(H -> ~chi_1+ ~chi_1-)
     1.49954372E-03    2     1000022   1000022   # BR(H -> ~chi_10 ~chi_10)
     5.86714351E-05    2     1000023   1000023   # BR(H -> ~chi_20 ~chi_20)
     3.73003002E-04    2     1000025   1000025   # BR(H -> ~chi_30 ~chi_30)
     2.08763295E-01    2     1000022   1000023   # BR(H -> ~chi_10 ~chi_20)
     1.39491226E-01    2     1000022   1000025   # BR(H -> ~chi_10 ~chi_30)
     3.42297745E-04    2     1000023   1000025   # BR(H -> ~chi_20 ~chi_30)
#
#         PDG            Width
DECAY        36     7.97556772E+00   # A decays
#          BR         NDA      ID1       ID2
     4.06412957E-01    2           5        -5   # BR(A -> b       bb     )
     6.98444324E-02    2         -15        15   # BR(A -> tau+    tau-   )
     2.46975115E-04    2         -13        13   # BR(A -> mu+     mu-    )
     3.02974941E-04    2           3        -3   # BR(A -> s       sb     )
     1.70087827E-06    2           4        -4   # BR(A -> c       cb     )
     1.69837452E-01    2           6        -6   # BR(A -> t       tb     )
     1.68060138E-04    2          21        21   # BR(A -> g       g      )
     5.54928700E-07    2          22        22   # BR(A -> gam     gam    )
     2.03570988E-07    2          23        22   # BR(A -> Z       gam    )
     7.73939729E-05    2          23        25   # BR(A -> Z       h      )
     3.10175235E-03    2     1000024  -1000024   # BR(A -> ~chi_1+ ~chi_1-)
     1.53031102E-03    2     1000022   1000022   # BR(A -> ~chi_10 ~chi_10)
     8.27734707E-05    2     1000023   1000023   # BR(A -> ~chi_20 ~chi_20)
     1.23650578E-03    2     1000025   1000025   # BR(A -> ~chi_30 ~chi_30)
     1.41050447E-01    2     1000022   1000023   # BR(A -> ~chi_10 ~chi_20)
     2.06036828E-01    2     1000022   1000025   # BR(A -> ~chi_10 ~chi_30)
     6.86775872E-05    2     1000023   1000025   # BR(A -> ~chi_20 ~chi_30)
#
#         PDG            Width
DECAY        37     7.95395071E+00   # H+ decays
#          BR         NDA      ID1       ID2
     6.56211178E-04    2           4        -5   # BR(H+ -> c       bb     )
     7.00584567E-02    2         -15        16   # BR(H+ -> tau+    nu_tau )
     2.47731921E-04    2         -13        14   # BR(H+ -> mu+     nu_mu  )
     4.19972995E-06    2           2        -5   # BR(H+ -> u       bb     )
     1.45362920E-05    2           2        -3   # BR(H+ -> u       sb     )
     3.00611876E-04    2           4        -3   # BR(H+ -> c       sb     )
     5.76875559E-01    2           6        -5   # BR(H+ -> t       bb     )
     7.77347023E-05    2          24        25   # BR(H+ -> W+      h      )
     1.97920527E-13    2          24        36   # BR(H+ -> W+      A      )
     3.51044658E-01    2     1000024   1000022   # BR(H+ -> ~chi_1+ ~chi_10)
     6.72308570E-04    2     1000024   1000023   # BR(H+ -> ~chi_1+ ~chi_20)
     4.79914304E-05    2     1000024   1000025   # BR(H+ -> ~chi_1+ ~chi_30)
