#
#                              ======================
#                              | THE SUSYHIT OUTPUT |
#                              ======================
#
#
#              ------------------------------------------------------
#              |     This is the output of the SUSY-HIT package     |
#              |  created by A.Djouadi, M.Muehlleitner and M.Spira. |
#              |  In case of problems with SUSY-HIT email to        |
#              |           margarete.muehlleitner@cern.ch           |
#              |           michael.spira@psi.ch                     |
#              |           abdelhak.djouadi@cern.ch                 |
#              ------------------------------------------------------
#
#              ------------------------------------------------------
#              |  SUSY Les Houches Accord - MSSM Spectrum + Decays  |
#              |              based on the decay programs           |
#              |                                                    |
#              |                     SDECAY 1.3b                    |
#              |                                                    |
#              |  Authors: M.Muhlleitner, A.Djouadi and Y.Mambrini  |
#              |  Ref.:    Comput.Phys.Commun.168(2005)46           |
#              |           [hep-ph/0311167]                         |
#              |                                                    |
#              |                     HDECAY 3.4                     |
#              |                                                    |
#              |  By: A.Djouadi,J.Kalinowski,M.Muhlleitner,M.Spira  |
#              |  Ref.:    Comput.Phys.Commun.108(1998)56           |
#              |           [hep-ph/9704448]                         |
#              |                                                    |
#              |                                                    |
#              |  If not stated otherwise all DRbar couplings and   |
#              |  soft SUSY breaking masses are given at the scale  |
#              |  Q=  0.50007167E+04
#              |                                                    |
#              ------------------------------------------------------
#
#
BLOCK DCINFO  # Decay Program information
     1   SDECAY/HDECAY # decay calculator
     2   1.3b  /3.4    # version number
#
BLOCK SPINFO  # Spectrum calculator information
     1    SOFTSUSY    # spectrum calculator                
     2    3.4.0       # version number                     
#
BLOCK MODSEL  # Model selection
     1     0   #  nonUniversal                                     
#
BLOCK SMINPUTS  # Standard Model inputs
         1     1.25778332E+02   # alpha_em^-1(M_Z)^MSbar
         2     1.16570000E-05   # G_F [GeV^-2]
         3     1.17200002E-01   # alpha_S(M_Z)^MSbar
         4     9.11876000E+01   # M_Z pole mass
         5     4.25000000E+00   # mb(mb)^MSbar
         6     1.72500000E+02   # mt pole mass
         7     1.77682000E+00   # mtau pole mass
#
BLOCK MINPAR  # Input parameters - minimal models
         3     1.00000000E+01   # tanb                
#
BLOCK EXTPAR  # Input parameters - non-minimal models
         0    -1.00000000E+00   # Set                 
         1     6.00000000E+01   # M_1(MX)             
         2     3.00000000E+03   # M_2(MX)             
         3     1.94903400E+03   # M_3(MX)             
        11     5.00000000E+03   # At(MX)              
        12     5.00000000E+03   # Ab(MX)              
        13     0.00000000E+00   # Atau(MX)            
        23    -1.54441000E+03   # mu(MX)              
        26     3.00000000E+03   # mA(pole)            
        31     5.00000000E+03   # meL(MX)             
        32     5.00000000E+03   # mmuL(MX)            
        33     5.00000000E+03   # mtauL(MX)           
        34     5.00000000E+03   # meR(MX)             
        35     5.00000000E+03   # mmuR(MX)            
        36     5.00000000E+03   # mtauR(MX)           
        41     5.00000000E+03   # mqL1(MX)            
        42     5.00000000E+03   # mqL2(MX)            
        43     5.00000000E+03   # mqL3(MX)            
        44     5.00000000E+03   # muR(MX)             
        45     5.00000000E+03   # mcR(MX)             
        46     5.00000000E+03   # mtR(MX)             
        47     5.00000000E+03   # mdR(MX)             
        48     5.00000000E+03   # msR(MX)             
        49     5.00000000E+03   # mbR(MX)             
#
BLOCK MASS  # Mass Spectrum
# PDG code           mass       particle
        24     8.00969302E+01   # W+
        25     1.24814280E+02   # h
        35     3.00008274E+03   # H
        36     2.99999995E+03   # A
        37     3.00087347E+03   # H+
         5     4.87878001E+00   # b-quark pole mass calculated from mb(mb)_Msbar
   1000001     5.07632839E+03   # ~d_L
   2000001     5.05857173E+03   # ~d_R
   1000002     5.07585616E+03   # ~u_L
   2000002     5.05829864E+03   # ~u_R
   1000003     5.07632839E+03   # ~s_L
   2000003     5.05857173E+03   # ~s_R
   1000004     5.07585616E+03   # ~c_L
   2000004     5.05829864E+03   # ~c_R
   1000005     5.02239467E+03   # ~b_1
   2000005     5.05747841E+03   # ~b_2
   1000006     4.91434835E+03   # ~t_1
   2000006     5.06820237E+03   # ~t_2
   1000011     5.01904448E+03   # ~e_L
   2000011     5.00590864E+03   # ~e_R
   1000012     5.01809662E+03   # ~nu_eL
   1000013     5.01904448E+03   # ~mu_L
   2000013     5.00590864E+03   # ~mu_R
   1000014     5.01809662E+03   # ~nu_muL
   1000015     5.00431357E+03   # ~tau_1
   2000015     5.01906116E+03   # ~tau_2
   1000016     5.01755953E+03   # ~nu_tauL
   1000021     2.30000012E+03   # ~g
   1000022     6.03026486E+01   # ~chi_10
   1000023     1.59942882E+03   # ~chi_20
   1000025    -1.60194936E+03   # ~chi_30
   1000035     3.07433967E+03   # ~chi_40
   1000024     1.60000023E+03   # ~chi_1+
   1000037     3.07450718E+03   # ~chi_2+
#
BLOCK NMIX  # Neutralino Mixing Matrix
  1  1     9.99609642E-01   # N_11
  1  2     1.33220482E-04   # N_12
  1  3    -2.78755063E-02   # N_13
  1  4     1.87155738E-03   # N_14
  2  1     1.83857508E-02   # N_21
  2  2     3.29862058E-02   # N_22
  2  3     7.06888653E-01   # N_23
  2  4     7.06316011E-01   # N_24
  3  1    -2.10311770E-02   # N_31
  3  2     1.29776264E-02   # N_32
  3  3    -7.06633639E-01   # N_33
  3  4     7.07147913E-01   # N_34
  4  1    -4.67003373E-04   # N_41
  4  2     9.99371539E-01   # N_42
  4  3    -1.41523278E-02   # N_43
  4  4    -3.24964588E-02   # N_44
#
BLOCK UMIX  # Chargino Mixing Matrix U
  1  1     2.00182928E-02   # U_11
  1  2     9.99799614E-01   # U_12
  2  1    -9.99799614E-01   # U_21
  2  2     2.00182928E-02   # U_22
#
BLOCK VMIX  # Chargino Mixing Matrix V
  1  1     4.59688561E-02   # V_11
  1  2    -9.98942873E-01   # V_12
  2  1    -9.98942873E-01   # V_21
  2  2    -4.59688561E-02   # V_22
#
BLOCK STOPMIX  # Stop Mixing Matrix
  1  1    -5.10840195E-01   # cos(theta_t)
  1  2     8.59675692E-01   # sin(theta_t)
  2  1    -8.59675692E-01   # -sin(theta_t)
  2  2    -5.10840195E-01   # cos(theta_t)
#
BLOCK SBOTMIX  # Sbottom Mixing Matrix
  1  1     9.93880291E-01   # cos(theta_b)
  1  2    -1.10462515E-01   # sin(theta_b)
  2  1     1.10462515E-01   # -sin(theta_b)
  2  2     9.93880291E-01   # cos(theta_b)
#
BLOCK STAUMIX  # Stau Mixing Matrix
  1  1    -1.78626487E-01   # cos(theta_tau)
  1  2     9.83916957E-01   # sin(theta_tau)
  2  1    -9.83916957E-01   # -sin(theta_tau)
  2  2    -1.78626487E-01   # cos(theta_tau)
#
BLOCK ALPHA  # Higgs mixing
          -1.05468081E-01   # Mixing angle in the neutral Higgs boson sector
#
BLOCK HMIX Q=  5.00071674E+03  # DRbar Higgs Parameters
         1    -1.57282516E+03   # mu(Q)MSSM           
         2     9.46995507E+00   # tan                 
         3     2.41974657E+02   # higgs               
         4     8.38516044E+06   # mA^2(Q)MSSM         
#
BLOCK GAUGE Q=  5.00071674E+03  # The gauge couplings
     1     3.70681719E-01   # gprime(Q) DRbar
     2     6.32002250E-01   # g(Q) DRbar
     3     9.96441042E-01   # g3(Q) DRbar
#
BLOCK AU Q=  5.00071674E+03  # The trilinear couplings
  1  1     5.00000001E+03   # A_u(Q) DRbar
  2  2     5.00000001E+03   # A_c(Q) DRbar
  3  3     5.00000002E+03   # A_t(Q) DRbar
#
BLOCK AD Q=  5.00071674E+03  # The trilinear couplings
  1  1     5.00000001E+03   # A_d(Q) DRbar
  2  2     5.00000001E+03   # A_s(Q) DRbar
  3  3     5.00000001E+03   # A_b(Q) DRbar
#
BLOCK AE Q=  5.00071674E+03  # The trilinear couplings
  1  1     0.00000000E+00   # A_e(Q) DRbar
  2  2     2.23235974E-07   # A_mu(Q) DRbar
  3  3     2.23056849E-07   # A_tau(Q) DRbar
#
BLOCK Yu Q=  5.00071674E+03  # The Yukawa couplings
  1  1     0.00000000E+00   # y_u(Q) DRbar
  2  2     0.00000000E+00   # y_c(Q) DRbar
  3  3     8.20332171E-01   # y_t(Q) DRbar
#
BLOCK Yd Q=  5.00071674E+03  # The Yukawa couplings
  1  1     0.00000000E+00   # y_d(Q) DRbar
  2  2     0.00000000E+00   # y_s(Q) DRbar
  3  3     1.31704223E-01   # y_b(Q) DRbar
#
BLOCK Ye Q=  5.00071674E+03  # The Yukawa couplings
  1  1     0.00000000E+00   # y_e(Q) DRbar
  2  2     0.00000000E+00   # y_mu(Q) DRbar
  3  3     9.65886930E-02   # y_tau(Q) DRbar
#
BLOCK MSOFT Q=  5.00071674E+03  # The soft SUSY breaking masses at the scale Q
         1     6.00000000E+01   # M_1(Q)              
         2     3.00000000E+03   # M_2(Q)              
         3     1.94903400E+03   # M_3(Q)              
        21     6.19103426E+06   # mH1^2(Q)            
        22    -1.92761700E+06   # mH2^2(Q)            
        31     5.00000000E+03   # meL(Q)              
        32     5.00000000E+03   # mmuL(Q)             
        33     5.00000000E+03   # mtauL(Q)            
        34     5.00000000E+03   # meR(Q)              
        35     5.00000000E+03   # mmuR(Q)             
        36     5.00000000E+03   # mtauR(Q)            
        41     5.00000000E+03   # mqL1(Q)             
        42     5.00000000E+03   # mqL2(Q)             
        43     4.99999999E+03   # mqL3(Q)             
        44     5.00000000E+03   # muR(Q)              
        45     5.00000000E+03   # mcR(Q)              
        46     4.99999999E+03   # mtR(Q)              
        47     5.00000000E+03   # mdR(Q)              
        48     5.00000000E+03   # msR(Q)              
        49     5.00000000E+03   # mbR(Q)              
#
#
#
#                             =================
#                             |The decay table|
#                             =================
#
# - The QCD corrections to the decays gluino -> squark  + quark
#                                     squark -> gaugino + quark_prime
#                                     squark -> squark_prime + Higgs
#                                     squark -> gluino  + quark
#   are included.
#
# - The multi-body decays for the inos, stops and sbottoms are included.
#
# - The loop induced decays for the gluino, neutralinos and stops
#   are included.
#
# - The SUSY decays of the top quark are included.
#
#
#         PDG            Width
DECAY         6     1.39964296E+00   # top decays
#          BR         NDA      ID1       ID2
     1.00000000E+00    2           5        24   # BR(t ->  b    W+)
#
#         PDG            Width
DECAY   1000021     7.31327036E-04   # gluino decays
#          BR         NDA      ID1       ID2
     6.40256390E-06    2     1000022        21   # BR(~g -> ~chi_10 g)
     5.10221087E-03    2     1000023        21   # BR(~g -> ~chi_20 g)
     5.08945195E-03    2     1000025        21   # BR(~g -> ~chi_30 g)
#           BR         NDA      ID1       ID2       ID3
     6.64206130E-02    3     1000022         1        -1   # BR(~g -> ~chi_10 d  db)
     1.04671770E-05    3     1000023         1        -1   # BR(~g -> ~chi_20 d  db)
     1.41621329E-06    3     1000025         1        -1   # BR(~g -> ~chi_30 d  db)
     2.26451845E-01    3     1000022         2        -2   # BR(~g -> ~chi_10 u  ub)
     1.76920631E-05    3     1000023         2        -2   # BR(~g -> ~chi_20 u  ub)
     1.38847274E-06    3     1000025         2        -2   # BR(~g -> ~chi_30 u  ub)
     6.64206130E-02    3     1000022         3        -3   # BR(~g -> ~chi_10 s  sb)
     1.04671770E-05    3     1000023         3        -3   # BR(~g -> ~chi_20 s  sb)
     1.41621329E-06    3     1000025         3        -3   # BR(~g -> ~chi_30 s  sb)
     2.26451845E-01    3     1000022         4        -4   # BR(~g -> ~chi_10 c  cb)
     1.76920631E-05    3     1000023         4        -4   # BR(~g -> ~chi_20 c  cb)
     1.38847274E-06    3     1000025         4        -4   # BR(~g -> ~chi_30 c  cb)
     6.72374365E-02    3     1000022         5        -5   # BR(~g -> ~chi_10 b  bb)
     1.05170280E-03    3     1000023         5        -5   # BR(~g -> ~chi_20 b  bb)
     1.01987726E-03    3     1000025         5        -5   # BR(~g -> ~chi_30 b  bb)
     2.26848082E-01    3     1000022         6        -6   # BR(~g -> ~chi_10 t  tb)
     2.62963821E-02    3     1000023         6        -6   # BR(~g -> ~chi_20 t  tb)
     1.80572697E-02    3     1000025         6        -6   # BR(~g -> ~chi_30 t  tb)
     2.61268939E-05    3     1000024         1        -2   # BR(~g -> ~chi_1+ d  ub)
     2.61268939E-05    3    -1000024         2        -1   # BR(~g -> ~chi_1- u  db)
     2.61268939E-05    3     1000024         3        -4   # BR(~g -> ~chi_1+ s  cb)
     2.61268939E-05    3    -1000024         4        -3   # BR(~g -> ~chi_1- c  sb)
     3.16899163E-02    3     1000024         5        -6   # BR(~g -> ~chi_1+ b  tb)
     3.16899163E-02    3    -1000024         6        -5   # BR(~g -> ~chi_1- t  bb)
#
#         PDG            Width
DECAY   1000006     2.99611671E+02   # stop1 decays
#          BR         NDA      ID1       ID2
     2.94346528E-02    2     1000022         6   # BR(~t_1 -> ~chi_10 t )
     8.79955833E-02    2     1000023         6   # BR(~t_1 -> ~chi_20 t )
     8.45475563E-02    2     1000025         6   # BR(~t_1 -> ~chi_30 t )
     7.23535475E-03    2     1000035         6   # BR(~t_1 -> ~chi_40 t )
     1.27185176E-01    2     1000024         5   # BR(~t_1 -> ~chi_1+ b )
     1.43840176E-02    2     1000037         5   # BR(~t_1 -> ~chi_2+ b )
     6.49217660E-01    2     1000021         6   # BR(~t_1 -> ~g      t )
#
#         PDG            Width
DECAY   2000006     3.12802463E+02   # stop2 decays
#          BR         NDA      ID1       ID2
     1.12356417E-02    2     1000022         6   # BR(~t_2 -> ~chi_10 t )
     8.76252028E-02    2     1000023         6   # BR(~t_2 -> ~chi_20 t )
     9.12191127E-02    2     1000025         6   # BR(~t_2 -> ~chi_30 t )
     1.75479162E-02    2     1000035         6   # BR(~t_2 -> ~chi_40 t )
     5.33196445E-02    2     1000024         5   # BR(~t_2 -> ~chi_1+ b )
     3.48232105E-02    2     1000037         5   # BR(~t_2 -> ~chi_2+ b )
     7.00167164E-01    2     1000021         6   # BR(~t_2 -> ~g      t )
     8.98544947E-04    2     1000006        25   # BR(~t_2 -> ~t_1    h )
     3.16356316E-03    2     1000006        23   # BR(~t_2 -> ~t_1    Z )
#
#         PDG            Width
DECAY   1000005     2.88715635E+02   # sbottom1 decays
#          BR         NDA      ID1       ID2
     2.71109858E-03    2     1000022         5   # BR(~b_1 -> ~chi_10 b )
     2.53006566E-03    2     1000023         5   # BR(~b_1 -> ~chi_20 b )
     2.37878539E-03    2     1000025         5   # BR(~b_1 -> ~chi_30 b )
     2.59574495E-02    2     1000035         5   # BR(~b_1 -> ~chi_40 b )
     1.85656126E-01    2    -1000024         6   # BR(~b_1 -> ~chi_1- t )
     5.22824774E-02    2    -1000037         6   # BR(~b_1 -> ~chi_2- t )
     7.26617062E-01    2     1000021         5   # BR(~b_1 -> ~g      b )
     1.86693553E-03    2     1000006       -24   # BR(~b_1 -> ~t_1    W-)
#
#         PDG            Width
DECAY   2000005     2.19310532E+02   # sbottom2 decays
#          BR         NDA      ID1       ID2
     1.33223046E-02    2     1000022         5   # BR(~b_2 -> ~chi_10 b )
     3.16212601E-03    2     1000023         5   # BR(~b_2 -> ~chi_20 b )
     3.31384737E-03    2     1000025         5   # BR(~b_2 -> ~chi_30 b )
     4.44269573E-04    2     1000035         5   # BR(~b_2 -> ~chi_40 b )
     9.33014498E-03    2    -1000024         6   # BR(~b_2 -> ~chi_1- t )
     8.94347184E-04    2    -1000037         6   # BR(~b_2 -> ~chi_2- t )
     9.69401521E-01    2     1000021         5   # BR(~b_2 -> ~g      b )
     1.31439100E-04    2     1000006       -24   # BR(~b_2 -> ~t_1    W-)
#
#         PDG            Width
DECAY   1000002     2.38467057E+02   # sup_L decays
#          BR         NDA      ID1       ID2
     3.12586045E-03    2     1000022         2   # BR(~u_L -> ~chi_10 u)
     8.90088287E-05    2     1000023         2   # BR(~u_L -> ~chi_20 u)
     5.22483544E-06    2     1000025         2   # BR(~u_L -> ~chi_30 u)
     3.29595554E-02    2     1000035         2   # BR(~u_L -> ~chi_40 u)
     2.81071890E-04    2     1000024         1   # BR(~u_L -> ~chi_1+ d)
     6.58663559E-02    2     1000037         1   # BR(~u_L -> ~chi_2+ d)
     8.97672923E-01    2     1000021         2   # BR(~u_L -> ~g      u)
#
#         PDG            Width
DECAY   2000002     2.24435123E+02   # sup_R decays
#          BR         NDA      ID1       ID2
     5.28817684E-02    2     1000022         2   # BR(~u_R -> ~chi_10 u)
     1.45374671E-05    2     1000023         2   # BR(~u_R -> ~chi_20 u)
     1.90086082E-05    2     1000025         2   # BR(~u_R -> ~chi_30 u)
     4.62421784E-09    2     1000035         2   # BR(~u_R -> ~chi_40 u)
     9.47084681E-01    2     1000021         2   # BR(~u_R -> ~g      u)
#
#         PDG            Width
DECAY   1000001     2.38484220E+02   # sdown_L decays
#          BR         NDA      ID1       ID2
     3.11741907E-03    2     1000022         1   # BR(~d_L -> ~chi_10 d)
     5.74650686E-05    2     1000023         1   # BR(~d_L -> ~chi_20 d)
     1.94136163E-05    2     1000025         1   # BR(~d_L -> ~chi_30 d)
     3.29793590E-02    2     1000035         1   # BR(~d_L -> ~chi_40 d)
     5.33054200E-05    2    -1000024         2   # BR(~d_L -> ~chi_1- u)
     6.59949090E-02    2    -1000037         2   # BR(~d_L -> ~chi_2- u)
     8.97778129E-01    2     1000021         1   # BR(~d_L -> ~g      d)
#
#         PDG            Width
DECAY   2000001     2.15551683E+02   # sdown_R decays
#          BR         NDA      ID1       ID2
     1.37660458E-02    2     1000022         1   # BR(~d_R -> ~chi_10 d)
     3.78444500E-06    2     1000023         1   # BR(~d_R -> ~chi_20 d)
     4.94838871E-06    2     1000025         1   # BR(~d_R -> ~chi_30 d)
     1.20391469E-09    2     1000035         1   # BR(~d_R -> ~chi_40 d)
     9.86225220E-01    2     1000021         1   # BR(~d_R -> ~g      d)
#
#         PDG            Width
DECAY   1000004     2.38467057E+02   # scharm_L decays
#          BR         NDA      ID1       ID2
     3.12586045E-03    2     1000022         4   # BR(~c_L -> ~chi_10 c)
     8.90088287E-05    2     1000023         4   # BR(~c_L -> ~chi_20 c)
     5.22483544E-06    2     1000025         4   # BR(~c_L -> ~chi_30 c)
     3.29595554E-02    2     1000035         4   # BR(~c_L -> ~chi_40 c)
     2.81071890E-04    2     1000024         3   # BR(~c_L -> ~chi_1+ s)
     6.58663559E-02    2     1000037         3   # BR(~c_L -> ~chi_2+ s)
     8.97672923E-01    2     1000021         4   # BR(~c_L -> ~g      c)
#
#         PDG            Width
DECAY   2000004     2.24435123E+02   # scharm_R decays
#          BR         NDA      ID1       ID2
     5.28817684E-02    2     1000022         4   # BR(~c_R -> ~chi_10 c)
     1.45374671E-05    2     1000023         4   # BR(~c_R -> ~chi_20 c)
     1.90086082E-05    2     1000025         4   # BR(~c_R -> ~chi_30 c)
     4.62421784E-09    2     1000035         4   # BR(~c_R -> ~chi_40 c)
     9.47084681E-01    2     1000021         4   # BR(~c_R -> ~g      c)
#
#         PDG            Width
DECAY   1000003     2.38484220E+02   # sstrange_L decays
#          BR         NDA      ID1       ID2
     3.11741907E-03    2     1000022         3   # BR(~s_L -> ~chi_10 s)
     5.74650686E-05    2     1000023         3   # BR(~s_L -> ~chi_20 s)
     1.94136163E-05    2     1000025         3   # BR(~s_L -> ~chi_30 s)
     3.29793590E-02    2     1000035         3   # BR(~s_L -> ~chi_40 s)
     5.33054200E-05    2    -1000024         4   # BR(~s_L -> ~chi_1- c)
     6.59949090E-02    2    -1000037         4   # BR(~s_L -> ~chi_2- c)
     8.97778129E-01    2     1000021         3   # BR(~s_L -> ~g      s)
#
#         PDG            Width
DECAY   2000003     2.15551683E+02   # sstrange_R decays
#          BR         NDA      ID1       ID2
     1.37660458E-02    2     1000022         3   # BR(~s_R -> ~chi_10 s)
     3.78444500E-06    2     1000023         3   # BR(~s_R -> ~chi_20 s)
     4.94838871E-06    2     1000025         3   # BR(~s_R -> ~chi_30 s)
     1.20391469E-09    2     1000035         3   # BR(~s_R -> ~chi_40 s)
     9.86225220E-01    2     1000021         3   # BR(~s_R -> ~g      s)
#
#         PDG            Width
DECAY   1000011     3.02313008E+01   # selectron_L decays
#          BR         NDA      ID1       ID2
     2.26777268E-01    2     1000022        11   # BR(~e_L -> ~chi_10 e-)
     1.02008645E-03    2     1000023        11   # BR(~e_L -> ~chi_20 e-)
     2.19597554E-07    2     1000025        11   # BR(~e_L -> ~chi_30 e-)
     2.57040156E-01    2     1000035        11   # BR(~e_L -> ~chi_40 e-)
     4.26679299E-04    2    -1000024        12   # BR(~e_L -> ~chi_1- nu_e)
     5.14735591E-01    2    -1000037        12   # BR(~e_L -> ~chi_2- nu_e)
#
#         PDG            Width
DECAY   2000011     2.73560625E+01   # selectron_R decays
#          BR         NDA      ID1       ID2
     9.99370739E-01    2     1000022        11   # BR(~e_R -> ~chi_10 e-)
     2.72661947E-04    2     1000023        11   # BR(~e_R -> ~chi_20 e-)
     3.56514669E-04    2     1000025        11   # BR(~e_R -> ~chi_30 e-)
     8.46389020E-08    2     1000035        11   # BR(~e_R -> ~chi_40 e-)
#
#         PDG            Width
DECAY   1000013     3.02313008E+01   # smuon_L decays
#          BR         NDA      ID1       ID2
     2.26777268E-01    2     1000022        13   # BR(~mu_L -> ~chi_10 mu-)
     1.02008645E-03    2     1000023        13   # BR(~mu_L -> ~chi_20 mu-)
     2.19597554E-07    2     1000025        13   # BR(~mu_L -> ~chi_30 mu-)
     2.57040156E-01    2     1000035        13   # BR(~mu_L -> ~chi_40 mu-)
     4.26679299E-04    2    -1000024        14   # BR(~mu_L -> ~chi_1- nu_mu)
     5.14735591E-01    2    -1000037        14   # BR(~mu_L -> ~chi_2- nu_mu)
#
#         PDG            Width
DECAY   2000013     2.73560625E+01   # smuon_R decays
#          BR         NDA      ID1       ID2
     9.99370739E-01    2     1000022        13   # BR(~mu_R -> ~chi_10 mu-)
     2.72661947E-04    2     1000023        13   # BR(~mu_R -> ~chi_20 mu-)
     3.56514669E-04    2     1000025        13   # BR(~mu_R -> ~chi_30 mu-)
     8.46389020E-08    2     1000035        13   # BR(~mu_R -> ~chi_40 mu-)
#
#         PDG            Width
DECAY   1000015     2.89359888E+01   # stau_1 decays
#          BR         NDA      ID1       ID2
     9.22780156E-01    2     1000022        15   # BR(~tau_1 -> ~chi_10  tau-)
     1.38740259E-02    2     1000023        15   # BR(~tau_1 -> ~chi_20  tau-)
     1.24852077E-02    2     1000025        15   # BR(~tau_1 -> ~chi_30  tau-)
     8.19937940E-03    2     1000035        15   # BR(~tau_1 -> ~chi_40  tau-)
     2.62412921E-02    2    -1000024        16   # BR(~tau_1 -> ~chi_1-  nu_tau)
     1.64199394E-02    2    -1000037        16   # BR(~tau_1 -> ~chi_2-  nu_tau)
#
#         PDG            Width
DECAY   2000015     3.08863340E+01   # stau_2 decays
#          BR         NDA      ID1       ID2
     2.42426427E-01    2     1000022        15   # BR(~tau_2 -> ~chi_10  tau-)
     1.25189704E-02    2     1000023        15   # BR(~tau_2 -> ~chi_20  tau-)
     1.28671614E-02    2     1000025        15   # BR(~tau_2 -> ~chi_30  tau-)
     2.43836120E-01    2     1000035        15   # BR(~tau_2 -> ~chi_40  tau-)
     6.01582233E-05    2    -1000024        16   # BR(~tau_2 -> ~chi_1-  nu_tau)
     4.88291163E-01    2    -1000037        16   # BR(~tau_2 -> ~chi_2-  nu_tau)
#
#         PDG            Width
DECAY   1000012     3.02331575E+01   # snu_eL decays
#          BR         NDA      ID1       ID2
     2.26514517E-01    2     1000022        12   # BR(~nu_eL -> ~chi_10 nu_e)
     2.62391422E-04    2     1000023        12   # BR(~nu_eL -> ~chi_20 nu_e)
     3.40810701E-04    2     1000025        12   # BR(~nu_eL -> ~chi_30 nu_e)
     2.57140991E-01    2     1000035        12   # BR(~nu_eL -> ~chi_40 nu_e)
     2.24920516E-03    2     1000024        11   # BR(~nu_eL -> ~chi_1+ e-)
     5.13492084E-01    2     1000037        11   # BR(~nu_eL -> ~chi_2+ e-)
#
#         PDG            Width
DECAY   1000014     3.02331575E+01   # snu_muL decays
#          BR         NDA      ID1       ID2
     2.26514517E-01    2     1000022        14   # BR(~nu_muL -> ~chi_10 nu_mu)
     2.62391422E-04    2     1000023        14   # BR(~nu_muL -> ~chi_20 nu_mu)
     3.40810701E-04    2     1000025        14   # BR(~nu_muL -> ~chi_30 nu_mu)
     2.57140991E-01    2     1000035        14   # BR(~nu_muL -> ~chi_40 nu_mu)
     2.24920516E-03    2     1000024        13   # BR(~nu_muL -> ~chi_1+ mu-)
     5.13492084E-01    2     1000037        13   # BR(~nu_muL -> ~chi_2+ mu-)
#
#         PDG            Width
DECAY   1000016     3.09753116E+01   # snu_tauL decays
#          BR         NDA      ID1       ID2
     2.21063658E-01    2     1000022        16   # BR(~nu_tauL -> ~chi_10 nu_tau)
     2.56064835E-04    2     1000023        16   # BR(~nu_tauL -> ~chi_20 nu_tau)
     3.32593271E-04    2     1000025        16   # BR(~nu_tauL -> ~chi_30 nu_tau)
     2.50888587E-01    2     1000035        16   # BR(~nu_tauL -> ~chi_40 nu_tau)
     2.64503925E-02    2     1000024        15   # BR(~nu_tauL -> ~chi_1+ tau-)
     5.01008705E-01    2     1000037        15   # BR(~nu_tauL -> ~chi_2+ tau-)
#
#         PDG            Width
DECAY   1000024     9.85215090E-01   # chargino1+ decays
#          BR         NDA      ID1       ID2
     1.00000000E+00    2     1000022        24   # BR(~chi_1+ -> ~chi_10  W+)
#
#         PDG            Width
DECAY   1000037     1.79029948E+01   # chargino2+ decays
#          BR         NDA      ID1       ID2
     2.52579529E-01    2     1000024        23   # BR(~chi_2+ -> ~chi_1+  Z )
     2.84939677E-04    2     1000022        24   # BR(~chi_2+ -> ~chi_10  W+)
     2.44111028E-01    2     1000023        24   # BR(~chi_2+ -> ~chi_20  W+)
     2.43547781E-01    2     1000025        24   # BR(~chi_2+ -> ~chi_30  W+)
     2.59476446E-01    2     1000024        25   # BR(~chi_2+ -> ~chi_1+  h )
     2.76903350E-07    2     1000022        37   # BR(~chi_2+ -> ~chi_10  H+)
#
#         PDG            Width
DECAY   1000022     0.00000000E+00   # neutralino1 decays
#
#         PDG            Width
DECAY   1000023     1.03603196E+00   # neutralino2 decays
#          BR         NDA      ID1       ID2
     5.58671204E-01    2     1000022        23   # BR(~chi_20 -> ~chi_10   Z )
     4.41328796E-01    2     1000022        25   # BR(~chi_20 -> ~chi_10   h )
#
#         PDG            Width
DECAY   1000025     1.04684980E+00   # neutralino3 decays
#          BR         NDA      ID1       ID2
     4.23585841E-01    2     1000022        23   # BR(~chi_30 -> ~chi_10   Z )
     5.76414159E-01    2     1000022        25   # BR(~chi_30 -> ~chi_10   h )
#
#         PDG            Width
DECAY   1000035     1.78973731E+01   # neutralino4 decays
#          BR         NDA      ID1       ID2
     1.07965117E-04    2     1000022        23   # BR(~chi_40 -> ~chi_10   Z )
     3.40853412E-02    2     1000023        23   # BR(~chi_40 -> ~chi_20   Z )
     2.18081368E-01    2     1000025        23   # BR(~chi_40 -> ~chi_30   Z )
     2.44203330E-01    2     1000024       -24   # BR(~chi_40 -> ~chi_1+   W-)
     2.44203330E-01    2    -1000024        24   # BR(~chi_40 -> ~chi_1-   W+)
     1.84769924E-04    2     1000022        25   # BR(~chi_40 -> ~chi_10   h )
     2.47233889E-07    2     1000022        35   # BR(~chi_40 -> ~chi_10   H )
     3.99462767E-08    2     1000022        36   # BR(~chi_40 -> ~chi_10   A )
     2.25130334E-01    2     1000023        25   # BR(~chi_40 -> ~chi_20   h )
     3.40032739E-02    2     1000025        25   # BR(~chi_40 -> ~chi_30   h )
#
#         PDG            Width
DECAY        25     4.04281502E-03   # h decays
#          BR         NDA      ID1       ID2
     6.05649259E-01    2           5        -5   # BR(h -> b       bb     )
     6.41717472E-02    2         -15        15   # BR(h -> tau+    tau-   )
     2.27191137E-04    2         -13        13   # BR(h -> mu+     mu-    )
     4.81601595E-04    2           3        -3   # BR(h -> s       sb     )
     2.08705030E-02    2           4        -4   # BR(h -> c       cb     )
     6.75578441E-02    2          21        21   # BR(h -> g       g      )
     2.32395242E-03    2          22        22   # BR(h -> gam     gam    )
     1.50189126E-03    2          22        23   # BR(h -> Z       gam    )
     2.11909994E-01    2          24       -24   # BR(h -> W+      W-     )
     2.52758416E-02    2          23        23   # BR(h -> Z       Z      )
     3.01741230E-05    2     1000022   1000022   # BR(h -> ~chi_10 ~chi_10)
#
#         PDG            Width
DECAY        35     7.09069646E+00   # H decays
#          BR         NDA      ID1       ID2
     4.62053513E-01    2           5        -5   # BR(H -> b       bb     )
     7.85713307E-02    2         -15        15   # BR(H -> tau+    tau-   )
     2.77834466E-04    2         -13        13   # BR(H -> mu+     mu-    )
     3.40582466E-04    2           3        -3   # BR(H -> s       sb     )
     1.90485230E-06    2           4        -4   # BR(H -> c       cb     )
     1.90309833E-01    2           6        -6   # BR(H -> t       tb     )
     6.31696378E-05    2          21        21   # BR(H -> g       g      )
     3.82322821E-07    2          22        22   # BR(H -> gam     gam    )
     1.12411730E-07    2          23        22   # BR(H -> Z       gam    )
     8.46185945E-05    2          24       -24   # BR(H -> W+      W-     )
     4.22557522E-05    2          23        23   # BR(H -> Z       Z      )
     3.20139796E-04    2          25        25   # BR(H -> h       h      )
     9.61115101E-24    2          36        36   # BR(H -> A       A      )
     9.57828142E-19    2          23        36   # BR(H -> Z       A      )
     7.95823567E-04    2     1000022   1000022   # BR(H -> ~chi_10 ~chi_10)
     1.58336673E-01    2     1000022   1000023   # BR(H -> ~chi_10 ~chi_20)
     1.08801827E-01    2     1000022   1000025   # BR(H -> ~chi_10 ~chi_30)
#
#         PDG            Width
DECAY        36     7.09345242E+00   # A decays
#          BR         NDA      ID1       ID2
     4.62027992E-01    2           5        -5   # BR(A -> b       bb     )
     7.85430790E-02    2         -15        15   # BR(A -> tau+    tau-   )
     2.77734178E-04    2         -13        13   # BR(A -> mu+     mu-    )
     3.40708339E-04    2           3        -3   # BR(A -> s       sb     )
     1.91207812E-06    2           4        -4   # BR(A -> c       cb     )
     1.90926348E-01    2           6        -6   # BR(A -> t       tb     )
     1.88941178E-04    2          21        21   # BR(A -> g       g      )
     3.23232111E-07    2          22        22   # BR(A -> gam     gam    )
     2.28917856E-07    2          23        22   # BR(A -> Z       gam    )
     8.42656735E-05    2          23        25   # BR(A -> Z       h      )
     8.19774317E-04    2     1000022   1000022   # BR(A -> ~chi_10 ~chi_10)
     1.10047979E-01    2     1000022   1000023   # BR(A -> ~chi_10 ~chi_20)
     1.56740714E-01    2     1000022   1000025   # BR(A -> ~chi_10 ~chi_30)
#
#         PDG            Width
DECAY        37     7.10629850E+00   # H+ decays
#          BR         NDA      ID1       ID2
     7.44820846E-04    2           4        -5   # BR(H+ -> c       bb     )
     7.84239248E-02    2         -15        16   # BR(H+ -> tau+    nu_tau )
     2.77312840E-04    2         -13        14   # BR(H+ -> mu+     nu_mu  )
     4.76682917E-06    2           2        -5   # BR(H+ -> u       bb     )
     1.62721396E-05    2           2        -3   # BR(H+ -> u       sb     )
     3.36508761E-04    2           4        -3   # BR(H+ -> c       sb     )
     6.52096652E-01    2           6        -5   # BR(H+ -> t       bb     )
     8.42408513E-05    2          24        25   # BR(H+ -> W+      h      )
     9.40586819E-14    2          24        36   # BR(H+ -> W+      A      )
     2.68015501E-01    2     1000024   1000022   # BR(H+ -> ~chi_1+ ~chi_10)
