#
#                              ======================
#                              | THE SUSYHIT OUTPUT |
#                              ======================
#
#
#              ------------------------------------------------------
#              |     This is the output of the SUSY-HIT package     |
#              |  created by A.Djouadi, M.Muehlleitner and M.Spira. |
#              |  In case of problems with SUSY-HIT email to        |
#              |           margarete.muehlleitner@cern.ch           |
#              |           michael.spira@psi.ch                     |
#              |           abdelhak.djouadi@cern.ch                 |
#              ------------------------------------------------------
#
#              ------------------------------------------------------
#              |  SUSY Les Houches Accord - MSSM Spectrum + Decays  |
#              |              based on the decay programs           |
#              |                                                    |
#              |                     SDECAY 1.3b                    |
#              |                                                    |
#              |  Authors: M.Muhlleitner, A.Djouadi and Y.Mambrini  |
#              |  Ref.:    Comput.Phys.Commun.168(2005)46           |
#              |           [hep-ph/0311167]                         |
#              |                                                    |
#              |                     HDECAY 3.4                     |
#              |                                                    |
#              |  By: A.Djouadi,J.Kalinowski,M.Muhlleitner,M.Spira  |
#              |  Ref.:    Comput.Phys.Commun.108(1998)56           |
#              |           [hep-ph/9704448]                         |
#              |                                                    |
#              |                                                    |
#              |  If not stated otherwise all DRbar couplings and   |
#              |  soft SUSY breaking masses are given at the scale  |
#              |  Q=  0.50007588E+04
#              |                                                    |
#              ------------------------------------------------------
#
#
BLOCK DCINFO  # Decay Program information
     1   SDECAY/HDECAY # decay calculator
     2   1.3b  /3.4    # version number
#
BLOCK SPINFO  # Spectrum calculator information
     1    SOFTSUSY    # spectrum calculator                
     2    3.4.0       # version number                     
#
BLOCK MODSEL  # Model selection
     1     0   #  nonUniversal                                     
#
BLOCK SMINPUTS  # Standard Model inputs
         1     1.25778332E+02   # alpha_em^-1(M_Z)^MSbar
         2     1.16570000E-05   # G_F [GeV^-2]
         3     1.17200002E-01   # alpha_S(M_Z)^MSbar
         4     9.11876000E+01   # M_Z pole mass
         5     4.25000000E+00   # mb(mb)^MSbar
         6     1.72500000E+02   # mt pole mass
         7     1.77682000E+00   # mtau pole mass
#
BLOCK MINPAR  # Input parameters - minimal models
         3     1.00000000E+01   # tanb                
#
BLOCK EXTPAR  # Input parameters - non-minimal models
         0    -1.00000000E+00   # Set                 
         1     6.00000000E+01   # M_1(MX)             
         2     3.00000000E+03   # M_2(MX)             
         3     2.13913200E+03   # M_3(MX)             
        11     5.00000000E+03   # At(MX)              
        12     5.00000000E+03   # Ab(MX)              
        13     0.00000000E+00   # Atau(MX)            
        23    -5.71318000E+02   # mu(MX)              
        26     3.00000000E+03   # mA(pole)            
        31     5.00000000E+03   # meL(MX)             
        32     5.00000000E+03   # mmuL(MX)            
        33     5.00000000E+03   # mtauL(MX)           
        34     5.00000000E+03   # meR(MX)             
        35     5.00000000E+03   # mmuR(MX)            
        36     5.00000000E+03   # mtauR(MX)           
        41     5.00000000E+03   # mqL1(MX)            
        42     5.00000000E+03   # mqL2(MX)            
        43     5.00000000E+03   # mqL3(MX)            
        44     5.00000000E+03   # muR(MX)             
        45     5.00000000E+03   # mcR(MX)             
        46     5.00000000E+03   # mtR(MX)             
        47     5.00000000E+03   # mdR(MX)             
        48     5.00000000E+03   # msR(MX)             
        49     5.00000000E+03   # mbR(MX)             
#
BLOCK MASS  # Mass Spectrum
# PDG code           mass       particle
        24     8.00938738E+01   # W+
        25     1.24806795E+02   # h
        35     3.00008471E+03   # H
        36     2.99999920E+03   # A
        37     3.00140503E+03   # H+
         5     4.87878001E+00   # b-quark pole mass calculated from mb(mb)_Msbar
   1000001     5.07997102E+03   # ~d_L
   2000001     5.06216957E+03   # ~d_R
   1000002     5.07949937E+03   # ~u_L
   2000002     5.06187346E+03   # ~u_R
   1000003     5.07997102E+03   # ~s_L
   2000003     5.06216957E+03   # ~s_R
   1000004     5.07949937E+03   # ~c_L
   2000004     5.06187346E+03   # ~c_R
   1000005     5.02572585E+03   # ~b_1
   2000005     5.06043814E+03   # ~b_2
   1000006     4.91753014E+03   # ~t_1
   2000006     5.06907344E+03   # ~t_2
   1000011     5.01909676E+03   # ~e_L
   2000011     5.00593920E+03   # ~e_R
   1000012     5.01814712E+03   # ~nu_eL
   1000013     5.01909676E+03   # ~mu_L
   2000013     5.00593920E+03   # ~mu_R
   1000014     5.01814712E+03   # ~nu_muL
   1000015     5.00474859E+03   # ~tau_1
   2000015     5.01864791E+03   # ~tau_2
   1000016     5.01759657E+03   # ~nu_tauL
   1000021     2.50000076E+03   # ~g
   1000022     6.02510553E+01   # ~chi_10
   1000023     6.00199685E+02   # ~chi_20
   1000025    -6.02417105E+02   # ~chi_30
   1000035     3.07417744E+03   # ~chi_40
   1000024     6.00000816E+02   # ~chi_1+
   1000037     3.07434505E+03   # ~chi_2+
#
BLOCK NMIX  # Neutralino Mixing Matrix
  1  1     9.97249234E-01   # N_11
  1  2     2.27069201E-04   # N_12
  1  3    -7.41205393E-02   # N_13
  1  4     2.42731409E-04   # N_14
  2  1     5.22668079E-02   # N_21
  2  2     1.97522390E-02   # N_22
  2  3     7.05593722E-01   # N_23
  2  4     7.06410312E-01   # N_24
  3  1    -5.25546771E-02   # N_31
  3  2     1.65482269E-02   # N_32
  3  3    -7.04725863E-01   # N_33
  3  4     7.07336992E-01   # N_34
  4  1    -3.89273616E-04   # N_41
  4  2     9.99667922E-01   # N_42
  4  3    -2.25901204E-03   # N_43
  4  4    -2.56669369E-02   # N_44
#
BLOCK UMIX  # Chargino Mixing Matrix U
  1  1     3.20184630E-03   # U_11
  1  2     9.99994874E-01   # U_12
  2  1    -9.99994874E-01   # U_21
  2  2     3.20184630E-03   # U_22
#
BLOCK VMIX  # Chargino Mixing Matrix V
  1  1     3.63224335E-02   # V_11
  1  2    -9.99340123E-01   # V_12
  2  1    -9.99340123E-01   # V_21
  2  2    -3.63224335E-02   # V_22
#
BLOCK STOPMIX  # Stop Mixing Matrix
  1  1    -5.02402446E-01   # cos(theta_t)
  1  2     8.64633901E-01   # sin(theta_t)
  2  1    -8.64633901E-01   # -sin(theta_t)
  2  2    -5.02402446E-01   # cos(theta_t)
#
BLOCK SBOTMIX  # Sbottom Mixing Matrix
  1  1     9.98504009E-01   # cos(theta_b)
  1  2    -5.46785517E-02   # sin(theta_b)
  2  1     5.46785517E-02   # -sin(theta_b)
  2  2     9.98504009E-01   # cos(theta_b)
#
BLOCK STAUMIX  # Stau Mixing Matrix
  1  1    -6.84608628E-02   # cos(theta_tau)
  1  2     9.97653803E-01   # sin(theta_tau)
  2  1    -9.97653803E-01   # -sin(theta_tau)
  2  2    -6.84608628E-02   # cos(theta_tau)
#
BLOCK ALPHA  # Higgs mixing
          -1.05490202E-01   # Mixing angle in the neutral Higgs boson sector
#
BLOCK HMIX Q=  5.00075882E+03  # DRbar Higgs Parameters
         1    -5.81809291E+02   # mu(Q)MSSM           
         2     9.46873762E+00   # tan                 
         3     2.41769818E+02   # higgs               
         4     8.64382789E+06   # mA^2(Q)MSSM         
#
BLOCK GAUGE Q=  5.00075882E+03  # The gauge couplings
     1     3.70904700E-01   # gprime(Q) DRbar
     2     6.33095734E-01   # g(Q) DRbar
     3     9.95214769E-01   # g3(Q) DRbar
#
BLOCK AU Q=  5.00075882E+03  # The trilinear couplings
  1  1     5.00000002E+03   # A_u(Q) DRbar
  2  2     5.00000002E+03   # A_c(Q) DRbar
  3  3     5.00000002E+03   # A_t(Q) DRbar
#
BLOCK AD Q=  5.00075882E+03  # The trilinear couplings
  1  1     5.00000001E+03   # A_d(Q) DRbar
  2  2     5.00000001E+03   # A_s(Q) DRbar
  3  3     5.00000001E+03   # A_b(Q) DRbar
#
BLOCK AE Q=  5.00075882E+03  # The trilinear couplings
  1  1     0.00000000E+00   # A_e(Q) DRbar
  2  2     2.47508373E-07   # A_mu(Q) DRbar
  3  3     2.47436139E-07   # A_tau(Q) DRbar
#
BLOCK Yu Q=  5.00075882E+03  # The Yukawa couplings
  1  1     0.00000000E+00   # y_u(Q) DRbar
  2  2     0.00000000E+00   # y_c(Q) DRbar
  3  3     8.21296911E-01   # y_t(Q) DRbar
#
BLOCK Yd Q=  5.00075882E+03  # The Yukawa couplings
  1  1     0.00000000E+00   # y_d(Q) DRbar
  2  2     0.00000000E+00   # y_s(Q) DRbar
  3  3     1.30442993E-01   # y_b(Q) DRbar
#
BLOCK Ye Q=  5.00075882E+03  # The Yukawa couplings
  1  1     0.00000000E+00   # y_e(Q) DRbar
  2  2     0.00000000E+00   # y_mu(Q) DRbar
  3  3     9.70720073E-02   # y_tau(Q) DRbar
#
BLOCK MSOFT Q=  5.00075882E+03  # The soft SUSY breaking masses at the scale Q
         1     6.00000000E+01   # M_1(Q)              
         2     3.00000000E+03   # M_2(Q)              
         3     2.13913200E+03   # M_3(Q)              
        21     8.38118337E+06   # mH1^2(Q)            
        22     2.37316381E+05   # mH2^2(Q)            
        31     5.00000000E+03   # meL(Q)              
        32     5.00000000E+03   # mmuL(Q)             
        33     5.00000000E+03   # mtauL(Q)            
        34     5.00000000E+03   # meR(Q)              
        35     5.00000000E+03   # mmuR(Q)             
        36     5.00000000E+03   # mtauR(Q)            
        41     4.99999999E+03   # mqL1(Q)             
        42     4.99999999E+03   # mqL2(Q)             
        43     4.99999999E+03   # mqL3(Q)             
        44     4.99999999E+03   # muR(Q)              
        45     4.99999999E+03   # mcR(Q)              
        46     4.99999999E+03   # mtR(Q)              
        47     4.99999999E+03   # mdR(Q)              
        48     4.99999999E+03   # msR(Q)              
        49     4.99999999E+03   # mbR(Q)              
#
#
#
#                             =================
#                             |The decay table|
#                             =================
#
# - The QCD corrections to the decays gluino -> squark  + quark
#                                     squark -> gaugino + quark_prime
#                                     squark -> squark_prime + Higgs
#                                     squark -> gluino  + quark
#   are included.
#
# - The multi-body decays for the inos, stops and sbottoms are included.
#
# - The loop induced decays for the gluino, neutralinos and stops
#   are included.
#
# - The SUSY decays of the top quark are included.
#
#
#         PDG            Width
DECAY         6     1.40462427E+00   # top decays
#          BR         NDA      ID1       ID2
     1.00000000E+00    2           5        24   # BR(t ->  b    W+)
#
#         PDG            Width
DECAY   1000021     6.37967315E-03   # gluino decays
#          BR         NDA      ID1       ID2
     6.85765435E-07    2     1000022        21   # BR(~g -> ~chi_10 g)
     4.46225857E-03    2     1000023        21   # BR(~g -> ~chi_20 g)
     4.35131072E-03    2     1000025        21   # BR(~g -> ~chi_30 g)
#           BR         NDA      ID1       ID2       ID3
     1.18217368E-02    3     1000022         1        -1   # BR(~g -> ~chi_10 d  db)
     2.68748198E-05    3     1000023         1        -1   # BR(~g -> ~chi_20 d  db)
     3.14228164E-05    3     1000025         1        -1   # BR(~g -> ~chi_30 d  db)
     4.03172966E-02    3     1000022         2        -2   # BR(~g -> ~chi_10 u  ub)
     1.35390042E-04    3     1000023         2        -2   # BR(~g -> ~chi_20 u  ub)
     4.80146760E-05    3     1000025         2        -2   # BR(~g -> ~chi_30 u  ub)
     1.18217368E-02    3     1000022         3        -3   # BR(~g -> ~chi_10 s  sb)
     2.68748198E-05    3     1000023         3        -3   # BR(~g -> ~chi_20 s  sb)
     3.14228164E-05    3     1000025         3        -3   # BR(~g -> ~chi_30 s  sb)
     4.03172966E-02    3     1000022         4        -4   # BR(~g -> ~chi_10 c  cb)
     1.35390042E-04    3     1000023         4        -4   # BR(~g -> ~chi_20 c  cb)
     4.80146760E-05    3     1000025         4        -4   # BR(~g -> ~chi_30 c  cb)
     1.20580880E-02    3     1000022         5        -5   # BR(~g -> ~chi_10 b  bb)
     5.24165108E-03    3     1000023         5        -5   # BR(~g -> ~chi_20 b  bb)
     5.21217218E-03    3     1000025         5        -5   # BR(~g -> ~chi_30 b  bb)
     4.10072209E-02    3     1000022         6        -6   # BR(~g -> ~chi_10 t  tb)
     2.04800639E-01    3     1000023         6        -6   # BR(~g -> ~chi_20 t  tb)
     1.93766557E-01    3     1000025         6        -6   # BR(~g -> ~chi_30 t  tb)
     5.59217966E-05    3     1000024         1        -2   # BR(~g -> ~chi_1+ d  ub)
     5.59217966E-05    3    -1000024         2        -1   # BR(~g -> ~chi_1- u  db)
     5.59217966E-05    3     1000024         3        -4   # BR(~g -> ~chi_1+ s  cb)
     5.59217966E-05    3    -1000024         4        -3   # BR(~g -> ~chi_1- c  sb)
     2.12057129E-01    3     1000024         5        -6   # BR(~g -> ~chi_1+ b  tb)
     2.12057129E-01    3    -1000024         6        -5   # BR(~g -> ~chi_1- t  bb)
#
#         PDG            Width
DECAY   1000006     3.00518339E+02   # stop1 decays
#          BR         NDA      ID1       ID2
     2.94776572E-02    2     1000022         6   # BR(~t_1 -> ~chi_10 t )
     1.07666947E-01    2     1000023         6   # BR(~t_1 -> ~chi_20 t )
     1.02513669E-01    2     1000025         6   # BR(~t_1 -> ~chi_30 t )
     6.70382203E-03    2     1000035         6   # BR(~t_1 -> ~chi_40 t )
     1.57658143E-01    2     1000024         5   # BR(~t_1 -> ~chi_1+ b )
     1.33629456E-02    2     1000037         5   # BR(~t_1 -> ~chi_2+ b )
     5.82616816E-01    2     1000021         6   # BR(~t_1 -> ~g      t )
#
#         PDG            Width
DECAY   2000006     3.07581882E+02   # stop2 decays
#          BR         NDA      ID1       ID2
     1.11133707E-02    2     1000022         6   # BR(~t_2 -> ~chi_10 t )
     1.06053768E-01    2     1000023         6   # BR(~t_2 -> ~chi_20 t )
     1.11687751E-01    2     1000025         6   # BR(~t_2 -> ~chi_30 t )
     1.84176093E-02    2     1000035         6   # BR(~t_2 -> ~chi_40 t )
     6.14570909E-02    2     1000024         5   # BR(~t_2 -> ~chi_1+ b )
     3.66688686E-02    2     1000037         5   # BR(~t_2 -> ~chi_2+ b )
     6.50732942E-01    2     1000021         6   # BR(~t_2 -> ~g      t )
     8.95414843E-04    2     1000006        25   # BR(~t_2 -> ~t_1    h )
     2.97318379E-03    2     1000006        23   # BR(~t_2 -> ~t_1    Z )
#
#         PDG            Width
DECAY   1000005     2.81945857E+02   # sbottom1 decays
#          BR         NDA      ID1       ID2
     2.73972103E-03    2     1000022         5   # BR(~b_1 -> ~chi_10 b )
     2.91202593E-03    2     1000023         5   # BR(~b_1 -> ~chi_20 b )
     2.89345082E-03    2     1000025         5   # BR(~b_1 -> ~chi_30 b )
     2.70086409E-02    2     1000035         5   # BR(~b_1 -> ~chi_40 b )
     2.31498459E-01    2    -1000024         6   # BR(~b_1 -> ~chi_1- t )
     5.42320099E-02    2    -1000037         6   # BR(~b_1 -> ~chi_2- t )
     6.76800536E-01    2     1000021         5   # BR(~b_1 -> ~g      b )
     1.91515671E-03    2     1000006       -24   # BR(~b_1 -> ~t_1    W-)
#
#         PDG            Width
DECAY   2000005     2.00189123E+02   # sbottom2 decays
#          BR         NDA      ID1       ID2
     1.46444139E-02    2     1000022         5   # BR(~b_2 -> ~chi_10 b )
     4.20755075E-03    2     1000023         5   # BR(~b_2 -> ~chi_20 b )
     4.27156675E-03    2     1000025         5   # BR(~b_2 -> ~chi_30 b )
     1.06517658E-04    2     1000035         5   # BR(~b_2 -> ~chi_40 b )
     9.19594437E-03    2    -1000024         6   # BR(~b_2 -> ~chi_1- t )
     2.13896227E-04    2    -1000037         6   # BR(~b_2 -> ~chi_2- t )
     9.67325672E-01    2     1000021         5   # BR(~b_2 -> ~g      b )
     3.44386698E-05    2     1000006       -24   # BR(~b_2 -> ~t_1    W-)
#
#         PDG            Width
DECAY   1000002     2.19752550E+02   # sup_L decays
#          BR         NDA      ID1       ID2
     3.38130306E-03    2     1000022         2   # BR(~u_L -> ~chi_10 u)
     7.77569570E-05    2     1000023         2   # BR(~u_L -> ~chi_20 u)
     3.42138987E-06    2     1000025         2   # BR(~u_L -> ~chi_30 u)
     3.59924480E-02    2     1000035         2   # BR(~u_L -> ~chi_40 u)
     2.28594524E-04    2     1000024         1   # BR(~u_L -> ~chi_1+ d)
     7.19396442E-02    2     1000037         1   # BR(~u_L -> ~chi_2+ d)
     8.88376832E-01    2     1000021         2   # BR(~u_L -> ~g      u)
#
#         PDG            Width
DECAY   2000002     2.05561647E+02   # sup_R decays
#          BR         NDA      ID1       ID2
     5.74970044E-02    2     1000022         2   # BR(~u_R -> ~chi_10 u)
     1.53803719E-04    2     1000023         2   # BR(~u_R -> ~chi_20 u)
     1.55470566E-04    2     1000025         2   # BR(~u_R -> ~chi_30 u)
     3.51993014E-09    2     1000035         2   # BR(~u_R -> ~chi_40 u)
     9.42193718E-01    2     1000021         2   # BR(~u_R -> ~g      u)
#
#         PDG            Width
DECAY   1000001     2.19768603E+02   # sdown_L decays
#          BR         NDA      ID1       ID2
     3.36564257E-03    2     1000022         1   # BR(~d_L -> ~chi_10 d)
     7.89339903E-06    2     1000023         1   # BR(~d_L -> ~chi_20 d)
     6.22645361E-05    2     1000025         1   # BR(~d_L -> ~chi_30 d)
     3.60117911E-02    2     1000035         1   # BR(~d_L -> ~chi_40 d)
     1.77634943E-06    2    -1000024         2   # BR(~d_L -> ~chi_1- u)
     7.20507379E-02    2    -1000037         2   # BR(~d_L -> ~chi_2- u)
     8.88499894E-01    2     1000021         1   # BR(~d_L -> ~g      d)
#
#         PDG            Width
DECAY   2000001     1.96675709E+02   # sdown_R decays
#          BR         NDA      ID1       ID2
     1.50245850E-02    2     1000022         1   # BR(~d_R -> ~chi_10 d)
     4.01906889E-05    2     1000023         1   # BR(~d_R -> ~chi_20 d)
     4.06262563E-05    2     1000025         1   # BR(~d_R -> ~chi_30 d)
     9.19919501E-10    2     1000035         1   # BR(~d_R -> ~chi_40 d)
     9.84894597E-01    2     1000021         1   # BR(~d_R -> ~g      d)
#
#         PDG            Width
DECAY   1000004     2.19752550E+02   # scharm_L decays
#          BR         NDA      ID1       ID2
     3.38130306E-03    2     1000022         4   # BR(~c_L -> ~chi_10 c)
     7.77569570E-05    2     1000023         4   # BR(~c_L -> ~chi_20 c)
     3.42138987E-06    2     1000025         4   # BR(~c_L -> ~chi_30 c)
     3.59924480E-02    2     1000035         4   # BR(~c_L -> ~chi_40 c)
     2.28594524E-04    2     1000024         3   # BR(~c_L -> ~chi_1+ s)
     7.19396442E-02    2     1000037         3   # BR(~c_L -> ~chi_2+ s)
     8.88376832E-01    2     1000021         4   # BR(~c_L -> ~g      c)
#
#         PDG            Width
DECAY   2000004     2.05561647E+02   # scharm_R decays
#          BR         NDA      ID1       ID2
     5.74970044E-02    2     1000022         4   # BR(~c_R -> ~chi_10 c)
     1.53803719E-04    2     1000023         4   # BR(~c_R -> ~chi_20 c)
     1.55470566E-04    2     1000025         4   # BR(~c_R -> ~chi_30 c)
     3.51993014E-09    2     1000035         4   # BR(~c_R -> ~chi_40 c)
     9.42193718E-01    2     1000021         4   # BR(~c_R -> ~g      c)
#
#         PDG            Width
DECAY   1000003     2.19768603E+02   # sstrange_L decays
#          BR         NDA      ID1       ID2
     3.36564257E-03    2     1000022         3   # BR(~s_L -> ~chi_10 s)
     7.89339903E-06    2     1000023         3   # BR(~s_L -> ~chi_20 s)
     6.22645361E-05    2     1000025         3   # BR(~s_L -> ~chi_30 s)
     3.60117911E-02    2     1000035         3   # BR(~s_L -> ~chi_40 s)
     1.77634943E-06    2    -1000024         4   # BR(~s_L -> ~chi_1- c)
     7.20507379E-02    2    -1000037         4   # BR(~s_L -> ~chi_2- c)
     8.88499894E-01    2     1000021         3   # BR(~s_L -> ~g      s)
#
#         PDG            Width
DECAY   2000003     1.96675709E+02   # sstrange_R decays
#          BR         NDA      ID1       ID2
     1.50245850E-02    2     1000022         3   # BR(~s_R -> ~chi_10 s)
     4.01906889E-05    2     1000023         3   # BR(~s_R -> ~chi_20 s)
     4.06262563E-05    2     1000025         3   # BR(~s_R -> ~chi_30 s)
     9.19919501E-10    2     1000035         3   # BR(~s_R -> ~chi_40 s)
     9.84894597E-01    2     1000021         3   # BR(~s_R -> ~g      s)
#
#         PDG            Width
DECAY   1000011     3.03154323E+01   # selectron_L decays
#          BR         NDA      ID1       ID2
     2.25427235E-01    2     1000022        11   # BR(~e_L -> ~chi_10 e-)
     1.62738133E-03    2     1000023        11   # BR(~e_L -> ~chi_20 e-)
     1.30047421E-04    2     1000025        11   # BR(~e_L -> ~chi_30 e-)
     2.57432561E-01    2     1000035        11   # BR(~e_L -> ~chi_40 e-)
     1.31501110E-05    2    -1000024        12   # BR(~e_L -> ~chi_1- nu_e)
     5.15369624E-01    2    -1000037        12   # BR(~e_L -> ~chi_2- nu_e)
#
#         PDG            Width
DECAY   2000011     2.73890405E+01   # selectron_R decays
#          BR         NDA      ID1       ID2
     9.94661145E-01    2     1000022        11   # BR(~e_R -> ~chi_10 e-)
     2.65502476E-03    2     1000023        11   # BR(~e_R -> ~chi_20 e-)
     2.68377178E-03    2     1000025        11   # BR(~e_R -> ~chi_30 e-)
     5.88171006E-08    2     1000035        11   # BR(~e_R -> ~chi_40 e-)
#
#         PDG            Width
DECAY   1000013     3.03154323E+01   # smuon_L decays
#          BR         NDA      ID1       ID2
     2.25427235E-01    2     1000022        13   # BR(~mu_L -> ~chi_10 mu-)
     1.62738133E-03    2     1000023        13   # BR(~mu_L -> ~chi_20 mu-)
     1.30047421E-04    2     1000025        13   # BR(~mu_L -> ~chi_30 mu-)
     2.57432561E-01    2     1000035        13   # BR(~mu_L -> ~chi_40 mu-)
     1.31501110E-05    2    -1000024        14   # BR(~mu_L -> ~chi_1- nu_mu)
     5.15369624E-01    2    -1000037        14   # BR(~mu_L -> ~chi_2- nu_mu)
#
#         PDG            Width
DECAY   2000013     2.73890405E+01   # smuon_R decays
#          BR         NDA      ID1       ID2
     9.94661145E-01    2     1000022        13   # BR(~mu_R -> ~chi_10 mu-)
     2.65502476E-03    2     1000023        13   # BR(~mu_R -> ~chi_20 mu-)
     2.68377178E-03    2     1000025        13   # BR(~mu_R -> ~chi_30 mu-)
     5.88171006E-08    2     1000035        13   # BR(~mu_R -> ~chi_40 mu-)
#
#         PDG            Width
DECAY   1000015     2.92167799E+01   # stau_1 decays
#          BR         NDA      ID1       ID2
     9.29990561E-01    2     1000022        15   # BR(~tau_1 -> ~chi_10  tau-)
     1.78637417E-02    2     1000023        15   # BR(~tau_1 -> ~chi_20  tau-)
     1.73388416E-02    2     1000025        15   # BR(~tau_1 -> ~chi_30  tau-)
     1.22216812E-03    2     1000035        15   # BR(~tau_1 -> ~chi_40  tau-)
     3.11381324E-02    2    -1000024        16   # BR(~tau_1 -> ~chi_1-  nu_tau)
     2.44655567E-03    2    -1000037        16   # BR(~tau_1 -> ~chi_2-  nu_tau)
#
#         PDG            Width
DECAY   2000015     3.12097165E+01   # stau_2 decays
#          BR         NDA      ID1       ID2
     2.21367724E-01    2     1000022        15   # BR(~tau_2 -> ~chi_10  tau-)
     1.63081195E-02    2     1000023        15   # BR(~tau_2 -> ~chi_20  tau-)
     1.52949513E-02    2     1000025        15   # BR(~tau_2 -> ~chi_30  tau-)
     2.48824850E-01    2     1000035        15   # BR(~tau_2 -> ~chi_40  tau-)
     6.64389751E-05    2    -1000024        16   # BR(~tau_2 -> ~chi_1-  nu_tau)
     4.98137916E-01    2    -1000037        16   # BR(~tau_2 -> ~chi_2-  nu_tau)
#
#         PDG            Width
DECAY   1000012     3.03185898E+01   # snu_eL decays
#          BR         NDA      ID1       ID2
     2.25011009E-01    2     1000022        12   # BR(~nu_eL -> ~chi_10 nu_e)
     7.57382934E-05    2     1000023        12   # BR(~nu_eL -> ~chi_20 nu_e)
     1.43642052E-03    2     1000025        12   # BR(~nu_eL -> ~chi_30 nu_e)
     2.57474938E-01    2     1000035        12   # BR(~nu_eL -> ~chi_40 nu_e)
     1.69178884E-03    2     1000024        11   # BR(~nu_eL -> ~chi_1+ e-)
     5.14310105E-01    2     1000037        11   # BR(~nu_eL -> ~chi_2+ e-)
#
#         PDG            Width
DECAY   1000014     3.03185898E+01   # snu_muL decays
#          BR         NDA      ID1       ID2
     2.25011009E-01    2     1000022        14   # BR(~nu_muL -> ~chi_10 nu_mu)
     7.57382934E-05    2     1000023        14   # BR(~nu_muL -> ~chi_20 nu_mu)
     1.43642052E-03    2     1000025        14   # BR(~nu_muL -> ~chi_30 nu_mu)
     2.57474938E-01    2     1000035        14   # BR(~nu_muL -> ~chi_40 nu_mu)
     1.69178884E-03    2     1000024        13   # BR(~nu_muL -> ~chi_1+ mu-)
     5.14310105E-01    2     1000037        13   # BR(~nu_muL -> ~chi_2+ mu-)
#
#         PDG            Width
DECAY   1000016     3.12230150E+01   # snu_tauL decays
#          BR         NDA      ID1       ID2
     2.18469216E-01    2     1000022        16   # BR(~nu_tauL -> ~chi_10 nu_tau)
     7.35358741E-05    2     1000023        16   # BR(~nu_tauL -> ~chi_20 nu_tau)
     1.39465030E-03    2     1000025        16   # BR(~nu_tauL -> ~chi_30 nu_tau)
     2.49923417E-01    2     1000035        16   # BR(~nu_tauL -> ~chi_40 nu_tau)
     3.09139177E-02    2     1000024        15   # BR(~nu_tauL -> ~chi_1+ tau-)
     4.99225263E-01    2     1000037        15   # BR(~nu_tauL -> ~chi_2+ tau-)
#
#         PDG            Width
DECAY   1000024     3.57382194E-01   # chargino1+ decays
#          BR         NDA      ID1       ID2
     1.00000000E+00    2     1000022        24   # BR(~chi_1+ -> ~chi_10  W+)
#
#         PDG            Width
DECAY   1000037     2.18071310E+01   # chargino2+ decays
#          BR         NDA      ID1       ID2
     2.53500507E-01    2     1000024        23   # BR(~chi_2+ -> ~chi_1+  Z )
     1.69255788E-04    2     1000022        24   # BR(~chi_2+ -> ~chi_10  W+)
     2.44750021E-01    2     1000023        24   # BR(~chi_2+ -> ~chi_20  W+)
     2.44321334E-01    2     1000025        24   # BR(~chi_2+ -> ~chi_30  W+)
     2.57255336E-01    2     1000024        25   # BR(~chi_2+ -> ~chi_1+  h )
     3.54659730E-06    2     1000022        37   # BR(~chi_2+ -> ~chi_10  H+)
#
#         PDG            Width
DECAY   1000022     0.00000000E+00   # neutralino1 decays
#
#         PDG            Width
DECAY   1000023     3.66146306E-01   # neutralino2 decays
#          BR         NDA      ID1       ID2
     5.14073204E-01    2     1000022        23   # BR(~chi_20 -> ~chi_10   Z )
     4.85926796E-01    2     1000022        25   # BR(~chi_20 -> ~chi_10   h )
#
#         PDG            Width
DECAY   1000025     3.61772871E-01   # neutralino3 decays
#          BR         NDA      ID1       ID2
     5.03966321E-01    2     1000022        23   # BR(~chi_30 -> ~chi_10   Z )
     4.96033679E-01    2     1000022        25   # BR(~chi_30 -> ~chi_10   h )
#
#         PDG            Width
DECAY   1000035     2.18207047E+01   # neutralino4 decays
#          BR         NDA      ID1       ID2
     1.29180126E-05    2     1000022        23   # BR(~chi_40 -> ~chi_10   Z )
     1.04469512E-01    2     1000023        23   # BR(~chi_40 -> ~chi_20   Z )
     1.48494712E-01    2     1000025        23   # BR(~chi_40 -> ~chi_30   Z )
     2.45084874E-01    2     1000024       -24   # BR(~chi_40 -> ~chi_1+   W-)
     2.45084874E-01    2    -1000024        24   # BR(~chi_40 -> ~chi_1-   W+)
     1.51395223E-04    2     1000022        25   # BR(~chi_40 -> ~chi_10   h )
     3.40101147E-06    2     1000022        35   # BR(~chi_40 -> ~chi_10   H )
     3.78943553E-07    2     1000022        36   # BR(~chi_40 -> ~chi_10   A )
     1.51937190E-01    2     1000023        25   # BR(~chi_40 -> ~chi_20   h )
     1.04760745E-01    2     1000025        25   # BR(~chi_40 -> ~chi_30   h )
#
#         PDG            Width
DECAY        25     4.06916669E-03   # h decays
#          BR         NDA      ID1       ID2
     6.08255530E-01    2           5        -5   # BR(h -> b       bb     )
     6.37627718E-02    2         -15        15   # BR(h -> tau+    tau-   )
     2.25743249E-04    2         -13        13   # BR(h -> mu+     mu-    )
     4.78536914E-04    2           3        -3   # BR(h -> s       sb     )
     2.07343079E-02    2           4        -4   # BR(h -> c       cb     )
     6.71094698E-02    2          21        21   # BR(h -> g       g      )
     2.30758349E-03    2          22        22   # BR(h -> gam     gam    )
     1.49099649E-03    2          22        23   # BR(h -> Z       gam    )
     2.10459692E-01    2          24       -24   # BR(h -> W+      W-     )
     2.50885586E-02    2          23        23   # BR(h -> Z       Z      )
     8.68101913E-05    2     1000022   1000022   # BR(h -> ~chi_10 ~chi_10)
#
#         PDG            Width
DECAY        35     8.57751015E+00   # H decays
#          BR         NDA      ID1       ID2
     3.72821021E-01    2           5        -5   # BR(H -> b       bb     )
     6.49351088E-02    2         -15        15   # BR(H -> tau+    tau-   )
     2.29615702E-04    2         -13        13   # BR(H -> mu+     mu-    )
     2.81473601E-04    2           3        -3   # BR(H -> s       sb     )
     1.57533138E-06    2           4        -4   # BR(H -> c       cb     )
     1.57388085E-01    2           6        -6   # BR(H -> t       tb     )
     5.23404332E-05    2          21        21   # BR(H -> g       g      )
     1.64460068E-07    2          22        22   # BR(H -> gam     gam    )
     9.29037513E-08    2          23        22   # BR(H -> Z       gam    )
     7.46913999E-05    2          24       -24   # BR(H -> W+      W-     )
     3.72984245E-05    2          23        23   # BR(H -> Z       Z      )
     2.71776805E-04    2          25        25   # BR(H -> h       h      )
    -1.92990656E-23    2          36        36   # BR(H -> A       A      )
     7.15993377E-19    2          23        36   # BR(H -> Z       A      )
     3.01200853E-03    2     1000024  -1000024   # BR(H -> ~chi_1+ ~chi_1-)
     4.69221786E-03    2     1000022   1000022   # BR(H -> ~chi_10 ~chi_10)
     1.03133524E-04    2     1000023   1000023   # BR(H -> ~chi_20 ~chi_20)
     1.80810679E-03    2     1000025   1000025   # BR(H -> ~chi_30 ~chi_30)
     2.37472736E-01    2     1000022   1000023   # BR(H -> ~chi_10 ~chi_20)
     1.54608653E-01    2     1000022   1000025   # BR(H -> ~chi_10 ~chi_30)
     2.20990173E-03    2     1000023   1000025   # BR(H -> ~chi_20 ~chi_30)
#
#         PDG            Width
DECAY        36     8.58587575E+00   # A decays
#          BR         NDA      ID1       ID2
     3.72584646E-01    2           5        -5   # BR(A -> b       bb     )
     6.48737798E-02    2         -15        15   # BR(A -> tau+    tau-   )
     2.29398517E-04    2         -13        13   # BR(A -> mu+     mu-    )
     2.81412967E-04    2           3        -3   # BR(A -> s       sb     )
     1.58012073E-06    2           4        -4   # BR(A -> c       cb     )
     1.57779474E-01    2           6        -6   # BR(A -> t       tb     )
     1.56122303E-04    2          21        21   # BR(A -> g       g      )
     5.99290477E-07    2          22        22   # BR(A -> gam     gam    )
     1.89025025E-07    2          23        22   # BR(A -> Z       gam    )
     7.43361115E-05    2          23        25   # BR(A -> Z       h      )
     3.45124719E-03    2     1000024  -1000024   # BR(A -> ~chi_1+ ~chi_1-)
     4.70186313E-03    2     1000022   1000022   # BR(A -> ~chi_10 ~chi_10)
     8.02005431E-05    2     1000023   1000023   # BR(A -> ~chi_20 ~chi_20)
     3.29837204E-03    2     1000025   1000025   # BR(A -> ~chi_30 ~chi_30)
     1.57608616E-01    2     1000022   1000023   # BR(A -> ~chi_10 ~chi_20)
     2.33487682E-01    2     1000022   1000025   # BR(A -> ~chi_10 ~chi_30)
     1.39048107E-03    2     1000023   1000025   # BR(A -> ~chi_20 ~chi_30)
#
#         PDG            Width
DECAY        37     8.54021524E+00   # H+ decays
#          BR         NDA      ID1       ID2
     5.98901169E-04    2           4        -5   # BR(H+ -> c       bb     )
     6.52511924E-02    2         -15        16   # BR(H+ -> tau+    nu_tau )
     2.30733077E-04    2         -13        14   # BR(H+ -> mu+     nu_mu  )
     3.83294746E-06    2           2        -5   # BR(H+ -> u       bb     )
     1.35386255E-05    2           2        -3   # BR(H+ -> u       sb     )
     2.79980319E-04    2           4        -3   # BR(H+ -> c       sb     )
     5.29652949E-01    2           6        -5   # BR(H+ -> t       bb     )
     7.48868832E-05    2          24        25   # BR(H+ -> W+      h      )
     8.44909699E-13    2          24        36   # BR(H+ -> W+      A      )
     4.01267617E-01    2     1000024   1000022   # BR(H+ -> ~chi_1+ ~chi_10)
     2.48763148E-03    2     1000024   1000023   # BR(H+ -> ~chi_1+ ~chi_20)
     1.38737544E-04    2     1000024   1000025   # BR(H+ -> ~chi_1+ ~chi_30)
