#
#                              ======================
#                              | THE SUSYHIT OUTPUT |
#                              ======================
#
#
#              ------------------------------------------------------
#              |     This is the output of the SUSY-HIT package     |
#              |  created by A.Djouadi, M.Muehlleitner and M.Spira. |
#              |  In case of problems with SUSY-HIT email to        |
#              |           margarete.muehlleitner@cern.ch           |
#              |           michael.spira@psi.ch                     |
#              |           abdelhak.djouadi@cern.ch                 |
#              ------------------------------------------------------
#
#              ------------------------------------------------------
#              |  SUSY Les Houches Accord - MSSM Spectrum + Decays  |
#              |              based on the decay programs           |
#              |                                                    |
#              |                     SDECAY 1.3b                    |
#              |                                                    |
#              |  Authors: M.Muhlleitner, A.Djouadi and Y.Mambrini  |
#              |  Ref.:    Comput.Phys.Commun.168(2005)46           |
#              |           [hep-ph/0311167]                         |
#              |                                                    |
#              |                     HDECAY 3.4                     |
#              |                                                    |
#              |  By: A.Djouadi,J.Kalinowski,M.Muhlleitner,M.Spira  |
#              |  Ref.:    Comput.Phys.Commun.108(1998)56           |
#              |           [hep-ph/9704448]                         |
#              |                                                    |
#              |                                                    |
#              |  If not stated otherwise all DRbar couplings and   |
#              |  soft SUSY breaking masses are given at the scale  |
#              |  Q=  0.50007521E+04
#              |                                                    |
#              ------------------------------------------------------
#
#
BLOCK DCINFO  # Decay Program information
     1   SDECAY/HDECAY # decay calculator
     2   1.3b  /3.4    # version number
#
BLOCK SPINFO  # Spectrum calculator information
     1    SOFTSUSY    # spectrum calculator                
     2    3.4.0       # version number                     
#
BLOCK MODSEL  # Model selection
     1     0   #  nonUniversal                                     
#
BLOCK SMINPUTS  # Standard Model inputs
         1     1.25778332E+02   # alpha_em^-1(M_Z)^MSbar
         2     1.16570000E-05   # G_F [GeV^-2]
         3     1.17200002E-01   # alpha_S(M_Z)^MSbar
         4     9.11876000E+01   # M_Z pole mass
         5     4.25000000E+00   # mb(mb)^MSbar
         6     1.72500000E+02   # mt pole mass
         7     1.77682000E+00   # mtau pole mass
#
BLOCK MINPAR  # Input parameters - minimal models
         3     1.00000000E+01   # tanb                
#
BLOCK EXTPAR  # Input parameters - non-minimal models
         0    -1.00000000E+00   # Set                 
         1     6.00000000E+01   # M_1(MX)             
         2     3.00000000E+03   # M_2(MX)             
         3     1.66796900E+03   # M_3(MX)             
        11     5.00000000E+03   # At(MX)              
        12     5.00000000E+03   # Ab(MX)              
        13     0.00000000E+00   # Atau(MX)            
        23    -6.68017000E+02   # mu(MX)              
        26     3.00000000E+03   # mA(pole)            
        31     5.00000000E+03   # meL(MX)             
        32     5.00000000E+03   # mmuL(MX)            
        33     5.00000000E+03   # mtauL(MX)           
        34     5.00000000E+03   # meR(MX)             
        35     5.00000000E+03   # mmuR(MX)            
        36     5.00000000E+03   # mtauR(MX)           
        41     5.00000000E+03   # mqL1(MX)            
        42     5.00000000E+03   # mqL2(MX)            
        43     5.00000000E+03   # mqL3(MX)            
        44     5.00000000E+03   # muR(MX)             
        45     5.00000000E+03   # mcR(MX)             
        46     5.00000000E+03   # mtR(MX)             
        47     5.00000000E+03   # mdR(MX)             
        48     5.00000000E+03   # msR(MX)             
        49     5.00000000E+03   # mbR(MX)             
#
BLOCK MASS  # Mass Spectrum
# PDG code           mass       particle
        24     8.00939724E+01   # W+
        25     1.24757561E+02   # h
        35     3.00008365E+03   # H
        36     2.99999871E+03   # A
        37     3.00137774E+03   # H+
         5     4.87878001E+00   # b-quark pole mass calculated from mb(mb)_Msbar
   1000001     5.07193786E+03   # ~d_L
   2000001     5.05411484E+03   # ~d_R
   1000002     5.07146380E+03   # ~u_L
   2000002     5.05382075E+03   # ~u_R
   1000003     5.07193786E+03   # ~s_L
   2000003     5.05411484E+03   # ~s_R
   1000004     5.07146380E+03   # ~c_L
   2000004     5.05382075E+03   # ~c_R
   1000005     5.01771350E+03   # ~b_1
   2000005     5.05245657E+03   # ~b_2
   1000006     4.90871121E+03   # ~t_1
   2000006     5.06203147E+03   # ~t_2
   1000011     5.01909003E+03   # ~e_L
   2000011     5.00593529E+03   # ~e_R
   1000012     5.01814064E+03   # ~nu_eL
   1000013     5.01909003E+03   # ~mu_L
   2000013     5.00593529E+03   # ~mu_R
   1000014     5.01814064E+03   # ~nu_muL
   1000015     5.00471958E+03   # ~tau_1
   2000015     5.01867160E+03   # ~tau_2
   1000016     5.01759110E+03   # ~nu_tauL
   1000021     2.00000073E+03   # ~g
   1000022     6.02748490E+01   # ~chi_10
   1000023     6.99989410E+02   # ~chi_20
   1000025    -7.02215166E+02   # ~chi_30
   1000035     3.07419597E+03   # ~chi_40
   1000024     7.00000271E+02   # ~chi_1+
   1000037     3.07436353E+03   # ~chi_2+
#
BLOCK NMIX  # Neutralino Mixing Matrix
  1  1     9.97979470E-01   # N_11
  1  2     2.19035536E-04   # N_12
  1  3    -6.35267576E-02   # N_13
  1  4     1.13198995E-03   # N_14
  2  1     4.41403761E-02   # N_21
  2  2     2.05660268E-02   # N_22
  2  3     7.06086521E-01   # N_23
  2  4     7.06449213E-01   # N_24
  3  1    -4.56995960E-02   # N_31
  3  2     1.61073457E-02   # N_32
  3  3    -7.05263257E-01   # N_33
  3  4     7.07287663E-01   # N_34
  4  1    -3.90419179E-04   # N_41
  4  2     9.99658714E-01   # N_42
  4  3    -3.14863518E-03   # N_43
  4  4    -2.59304781E-02   # N_44
#
BLOCK UMIX  # Chargino Mixing Matrix U
  1  1     4.46184697E-03   # U_11
  1  2     9.99990046E-01   # U_12
  2  1    -9.99990046E-01   # U_21
  2  2     4.46184697E-03   # U_22
#
BLOCK VMIX  # Chargino Mixing Matrix V
  1  1     3.66977116E-02   # V_11
  1  2    -9.99326412E-01   # V_12
  2  1    -9.99326412E-01   # V_21
  2  2    -3.66977116E-02   # V_22
#
BLOCK STOPMIX  # Stop Mixing Matrix
  1  1    -5.04947310E-01   # cos(theta_t)
  1  2     8.63150169E-01   # sin(theta_t)
  2  1    -8.63150169E-01   # -sin(theta_t)
  2  2    -5.04947310E-01   # cos(theta_t)
#
BLOCK SBOTMIX  # Sbottom Mixing Matrix
  1  1     9.98184567E-01   # cos(theta_b)
  1  2    -6.02293135E-02   # sin(theta_b)
  2  1     6.02293135E-02   # -sin(theta_b)
  2  2     9.98184567E-01   # cos(theta_b)
#
BLOCK STAUMIX  # Stau Mixing Matrix
  1  1    -7.99412942E-02   # cos(theta_tau)
  1  2     9.96799573E-01   # sin(theta_tau)
  2  1    -9.96799573E-01   # -sin(theta_tau)
  2  2    -7.99412942E-02   # cos(theta_tau)
#
BLOCK ALPHA  # Higgs mixing
          -1.05480255E-01   # Mixing angle in the neutral Higgs boson sector
#
BLOCK HMIX Q=  5.00075209E+03  # DRbar Higgs Parameters
         1    -6.80234204E+02   # mu(Q)MSSM           
         2     9.46952596E+00   # tan                 
         3     2.41793636E+02   # higgs               
         4     8.60924066E+06   # mA^2(Q)MSSM         
#
BLOCK GAUGE Q=  5.00075209E+03  # The gauge couplings
     1     3.70879493E-01   # gprime(Q) DRbar
     2     6.32954400E-01   # g(Q) DRbar
     3     9.98505200E-01   # g3(Q) DRbar
#
BLOCK AU Q=  5.00075209E+03  # The trilinear couplings
  1  1     5.00000001E+03   # A_u(Q) DRbar
  2  2     5.00000001E+03   # A_c(Q) DRbar
  3  3     5.00000002E+03   # A_t(Q) DRbar
#
BLOCK AD Q=  5.00075209E+03  # The trilinear couplings
  1  1     5.00000001E+03   # A_d(Q) DRbar
  2  2     5.00000001E+03   # A_s(Q) DRbar
  3  3     5.00000001E+03   # A_b(Q) DRbar
#
BLOCK AE Q=  5.00075209E+03  # The trilinear couplings
  1  1     0.00000000E+00   # A_e(Q) DRbar
  2  2     1.73294256E-07   # A_mu(Q) DRbar
  3  3     1.72929064E-07   # A_tau(Q) DRbar
#
BLOCK Yu Q=  5.00075209E+03  # The Yukawa couplings
  1  1     0.00000000E+00   # y_u(Q) DRbar
  2  2     0.00000000E+00   # y_c(Q) DRbar
  3  3     8.20062454E-01   # y_t(Q) DRbar
#
BLOCK Yd Q=  5.00075209E+03  # The Yukawa couplings
  1  1     0.00000000E+00   # y_d(Q) DRbar
  2  2     0.00000000E+00   # y_s(Q) DRbar
  3  3     1.30277182E-01   # y_b(Q) DRbar
#
BLOCK Ye Q=  5.00075209E+03  # The Yukawa couplings
  1  1     0.00000000E+00   # y_e(Q) DRbar
  2  2     0.00000000E+00   # y_mu(Q) DRbar
  3  3     9.70179390E-02   # y_tau(Q) DRbar
#
BLOCK MSOFT Q=  5.00075209E+03  # The soft SUSY breaking masses at the scale Q
         1     6.00000000E+01   # M_1(Q)              
         2     3.00000000E+03   # M_2(Q)              
         3     1.66796900E+03   # M_3(Q)              
        21     8.25191764E+06   # mH1^2(Q)            
        22     1.09236412E+05   # mH2^2(Q)            
        31     5.00000000E+03   # meL(Q)              
        32     5.00000000E+03   # mmuL(Q)             
        33     5.00000000E+03   # mtauL(Q)            
        34     5.00000000E+03   # meR(Q)              
        35     5.00000000E+03   # mmuR(Q)             
        36     5.00000000E+03   # mtauR(Q)            
        41     5.00000000E+03   # mqL1(Q)             
        42     5.00000000E+03   # mqL2(Q)             
        43     5.00000000E+03   # mqL3(Q)             
        44     5.00000000E+03   # muR(Q)              
        45     5.00000000E+03   # mcR(Q)              
        46     4.99999999E+03   # mtR(Q)              
        47     5.00000000E+03   # mdR(Q)              
        48     5.00000000E+03   # msR(Q)              
        49     5.00000000E+03   # mbR(Q)              
#
#
#
#                             =================
#                             |The decay table|
#                             =================
#
# - The QCD corrections to the decays gluino -> squark  + quark
#                                     squark -> gaugino + quark_prime
#                                     squark -> squark_prime + Higgs
#                                     squark -> gluino  + quark
#   are included.
#
# - The multi-body decays for the inos, stops and sbottoms are included.
#
# - The loop induced decays for the gluino, neutralinos and stops
#   are included.
#
# - The SUSY decays of the top quark are included.
#
#
#         PDG            Width
DECAY         6     1.40399288E+00   # top decays
#          BR         NDA      ID1       ID2
     1.00000000E+00    2           5        24   # BR(t ->  b    W+)
#
#         PDG            Width
DECAY   1000021     1.28723937E-03   # gluino decays
#          BR         NDA      ID1       ID2
     1.53300761E-06    2     1000022        21   # BR(~g -> ~chi_10 g)
     8.52922766E-03    2     1000023        21   # BR(~g -> ~chi_20 g)
     8.33553027E-03    2     1000025        21   # BR(~g -> ~chi_30 g)
#           BR         NDA      ID1       ID2       ID3
     1.81162665E-02    3     1000022         1        -1   # BR(~g -> ~chi_10 d  db)
     2.36538943E-05    3     1000023         1        -1   # BR(~g -> ~chi_20 d  db)
     2.22032366E-05    3     1000025         1        -1   # BR(~g -> ~chi_30 d  db)
     6.17769806E-02    3     1000022         2        -2   # BR(~g -> ~chi_10 u  ub)
     1.09612153E-04    3     1000023         2        -2   # BR(~g -> ~chi_20 u  ub)
     3.14600648E-05    3     1000025         2        -2   # BR(~g -> ~chi_30 u  ub)
     1.81162665E-02    3     1000022         3        -3   # BR(~g -> ~chi_10 s  sb)
     2.36538943E-05    3     1000023         3        -3   # BR(~g -> ~chi_20 s  sb)
     2.22032366E-05    3     1000025         3        -3   # BR(~g -> ~chi_30 s  sb)
     6.17769806E-02    3     1000022         4        -4   # BR(~g -> ~chi_10 c  cb)
     1.09612153E-04    3     1000023         4        -4   # BR(~g -> ~chi_20 c  cb)
     3.14600648E-05    3     1000025         4        -4   # BR(~g -> ~chi_30 c  cb)
     1.84342960E-02    3     1000022         5        -5   # BR(~g -> ~chi_10 b  bb)
     5.03725401E-03    3     1000023         5        -5   # BR(~g -> ~chi_20 b  bb)
     4.98847561E-03    3     1000025         5        -5   # BR(~g -> ~chi_30 b  bb)
     5.99122214E-02    3     1000022         6        -6   # BR(~g -> ~chi_10 t  tb)
     1.83471452E-01    3     1000023         6        -6   # BR(~g -> ~chi_20 t  tb)
     1.63625290E-01    3     1000025         6        -6   # BR(~g -> ~chi_30 t  tb)
     5.73063591E-05    3     1000024         1        -2   # BR(~g -> ~chi_1+ d  ub)
     5.73063591E-05    3    -1000024         2        -1   # BR(~g -> ~chi_1- u  db)
     5.73063591E-05    3     1000024         3        -4   # BR(~g -> ~chi_1+ s  cb)
     5.73063591E-05    3    -1000024         4        -3   # BR(~g -> ~chi_1- c  sb)
     1.93637571E-01    3     1000024         5        -6   # BR(~g -> ~chi_1+ b  tb)
     1.93637571E-01    3    -1000024         6        -5   # BR(~g -> ~chi_1- t  bb)
#
#         PDG            Width
DECAY   1000006     3.46360617E+02   # stop1 decays
#          BR         NDA      ID1       ID2
     2.55342397E-02    2     1000022         6   # BR(~t_1 -> ~chi_10 t )
     9.22262660E-02    2     1000023         6   # BR(~t_1 -> ~chi_20 t )
     8.81313831E-02    2     1000025         6   # BR(~t_1 -> ~chi_30 t )
     5.90570113E-03    2     1000035         6   # BR(~t_1 -> ~chi_40 t )
     1.34360510E-01    2     1000024         5   # BR(~t_1 -> ~chi_1+ b )
     1.17709766E-02    2     1000037         5   # BR(~t_1 -> ~chi_2+ b )
     6.42070924E-01    2     1000021         6   # BR(~t_1 -> ~g      t )
#
#         PDG            Width
DECAY   2000006     3.51864620E+02   # stop2 decays
#          BR         NDA      ID1       ID2
     9.86152967E-03    2     1000022         6   # BR(~t_2 -> ~chi_10 t )
     9.19787424E-02    2     1000023         6   # BR(~t_2 -> ~chi_20 t )
     9.64625517E-02    2     1000025         6   # BR(~t_2 -> ~chi_30 t )
     1.58912438E-02    2     1000035         6   # BR(~t_2 -> ~chi_40 t )
     5.41783061E-02    2     1000024         5   # BR(~t_2 -> ~chi_1+ b )
     3.16346107E-02    2     1000037         5   # BR(~t_2 -> ~chi_2+ b )
     6.96483622E-01    2     1000021         6   # BR(~t_2 -> ~g      t )
     8.06912795E-04    2     1000006        25   # BR(~t_2 -> ~t_1    h )
     2.70248118E-03    2     1000006        23   # BR(~t_2 -> ~t_1    Z )
#
#         PDG            Width
DECAY   1000005     3.27018321E+02   # sbottom1 decays
#          BR         NDA      ID1       ID2
     2.36298959E-03    2     1000022         5   # BR(~b_1 -> ~chi_10 b )
     2.49864921E-03    2     1000023         5   # BR(~b_1 -> ~chi_20 b )
     2.46780530E-03    2     1000025         5   # BR(~b_1 -> ~chi_30 b )
     2.31430152E-02    2     1000035         5   # BR(~b_1 -> ~chi_40 b )
     1.97391695E-01    2    -1000024         6   # BR(~b_1 -> ~chi_1- t )
     4.64754951E-02    2    -1000037         6   # BR(~b_1 -> ~chi_2- t )
     7.23959490E-01    2     1000021         5   # BR(~b_1 -> ~g      b )
     1.70086073E-03    2     1000006       -24   # BR(~b_1 -> ~t_1    W-)
#
#         PDG            Width
DECAY   2000005     2.45941641E+02   # sbottom2 decays
#          BR         NDA      ID1       ID2
     1.19421115E-02    2     1000022         5   # BR(~b_2 -> ~chi_10 b )
     3.37902574E-03    2     1000023         5   # BR(~b_2 -> ~chi_20 b )
     3.44166310E-03    2     1000025         5   # BR(~b_2 -> ~chi_30 b )
     1.09255685E-04    2     1000035         5   # BR(~b_2 -> ~chi_40 b )
     7.59393284E-03    2    -1000024         6   # BR(~b_2 -> ~chi_1- t )
     2.19404159E-04    2    -1000037         6   # BR(~b_2 -> ~chi_2- t )
     9.73280335E-01    2     1000021         5   # BR(~b_2 -> ~g      b )
     3.42720502E-05    2     1000006       -24   # BR(~b_2 -> ~t_1    W-)
#
#         PDG            Width
DECAY   1000002     2.65242862E+02   # sup_L decays
#          BR         NDA      ID1       ID2
     2.80912106E-03    2     1000022         2   # BR(~u_L -> ~chi_10 u)
     6.05615368E-05    2     1000023         2   # BR(~u_L -> ~chi_20 u)
     3.66543661E-06    2     1000025         2   # BR(~u_L -> ~chi_30 u)
     2.96627212E-02    2     1000035         2   # BR(~u_L -> ~chi_40 u)
     1.91475964E-04    2     1000024         1   # BR(~u_L -> ~chi_1+ d)
     5.92875973E-02    2     1000037         1   # BR(~u_L -> ~chi_2+ d)
     9.07984857E-01    2     1000021         2   # BR(~u_L -> ~g      u)
#
#         PDG            Width
DECAY   2000002     2.51280016E+02   # sup_R decays
#          BR         NDA      ID1       ID2
     4.71703205E-02    2     1000022         2   # BR(~u_R -> ~chi_10 u)
     8.89034031E-05    2     1000023         2   # BR(~u_R -> ~chi_20 u)
     9.52717517E-05    2     1000025         2   # BR(~u_R -> ~chi_30 u)
     2.88200120E-09    2     1000035         2   # BR(~u_R -> ~chi_40 u)
     9.52645501E-01    2     1000021         2   # BR(~u_R -> ~g      u)
#
#         PDG            Width
DECAY   1000001     2.65256717E+02   # sdown_L decays
#          BR         NDA      ID1       ID2
     2.79664134E-03    2     1000022         1   # BR(~d_L -> ~chi_10 d)
     1.01432514E-05    2     1000023         1   # BR(~d_L -> ~chi_20 d)
     4.45406001E-05    2     1000025         1   # BR(~d_L -> ~chi_30 d)
     2.96793984E-02    2     1000035         1   # BR(~d_L -> ~chi_40 d)
     2.83065572E-06    2    -1000024         2   # BR(~d_L -> ~chi_1- u)
     5.93816249E-02    2    -1000037         2   # BR(~d_L -> ~chi_2- u)
     9.08084821E-01    2     1000021         1   # BR(~d_L -> ~g      d)
#
#         PDG            Width
DECAY   2000001     2.42380039E+02   # sdown_R decays
#          BR         NDA      ID1       ID2
     1.22263132E-02    2     1000022         1   # BR(~d_R -> ~chi_10 d)
     2.30434214E-05    2     1000023         1   # BR(~d_R -> ~chi_20 d)
     2.46940737E-05    2     1000025         1   # BR(~d_R -> ~chi_30 d)
     7.47101320E-10    2     1000035         1   # BR(~d_R -> ~chi_40 d)
     9.87725949E-01    2     1000021         1   # BR(~d_R -> ~g      d)
#
#         PDG            Width
DECAY   1000004     2.65242862E+02   # scharm_L decays
#          BR         NDA      ID1       ID2
     2.80912106E-03    2     1000022         4   # BR(~c_L -> ~chi_10 c)
     6.05615368E-05    2     1000023         4   # BR(~c_L -> ~chi_20 c)
     3.66543661E-06    2     1000025         4   # BR(~c_L -> ~chi_30 c)
     2.96627212E-02    2     1000035         4   # BR(~c_L -> ~chi_40 c)
     1.91475964E-04    2     1000024         3   # BR(~c_L -> ~chi_1+ s)
     5.92875973E-02    2     1000037         3   # BR(~c_L -> ~chi_2+ s)
     9.07984857E-01    2     1000021         4   # BR(~c_L -> ~g      c)
#
#         PDG            Width
DECAY   2000004     2.51280016E+02   # scharm_R decays
#          BR         NDA      ID1       ID2
     4.71703205E-02    2     1000022         4   # BR(~c_R -> ~chi_10 c)
     8.89034031E-05    2     1000023         4   # BR(~c_R -> ~chi_20 c)
     9.52717517E-05    2     1000025         4   # BR(~c_R -> ~chi_30 c)
     2.88200120E-09    2     1000035         4   # BR(~c_R -> ~chi_40 c)
     9.52645501E-01    2     1000021         4   # BR(~c_R -> ~g      c)
#
#         PDG            Width
DECAY   1000003     2.65256717E+02   # sstrange_L decays
#          BR         NDA      ID1       ID2
     2.79664134E-03    2     1000022         3   # BR(~s_L -> ~chi_10 s)
     1.01432514E-05    2     1000023         3   # BR(~s_L -> ~chi_20 s)
     4.45406001E-05    2     1000025         3   # BR(~s_L -> ~chi_30 s)
     2.96793984E-02    2     1000035         3   # BR(~s_L -> ~chi_40 s)
     2.83065572E-06    2    -1000024         4   # BR(~s_L -> ~chi_1- c)
     5.93816249E-02    2    -1000037         4   # BR(~s_L -> ~chi_2- c)
     9.08084821E-01    2     1000021         3   # BR(~s_L -> ~g      s)
#
#         PDG            Width
DECAY   2000003     2.42380039E+02   # sstrange_R decays
#          BR         NDA      ID1       ID2
     1.22263132E-02    2     1000022         3   # BR(~s_R -> ~chi_10 s)
     2.30434214E-05    2     1000023         3   # BR(~s_R -> ~chi_20 s)
     2.46940737E-05    2     1000025         3   # BR(~s_R -> ~chi_30 s)
     7.47101320E-10    2     1000035         3   # BR(~s_R -> ~chi_40 s)
     9.87725949E-01    2     1000021         3   # BR(~s_R -> ~g      s)
#
#         PDG            Width
DECAY   1000011     3.03038376E+01   # selectron_L decays
#          BR         NDA      ID1       ID2
     2.25806464E-01    2     1000022        11   # BR(~e_L -> ~chi_10 e-)
     1.36807528E-03    2     1000023        11   # BR(~e_L -> ~chi_20 e-)
     7.22364941E-05    2     1000025        11   # BR(~e_L -> ~chi_30 e-)
     2.57406080E-01    2     1000035        11   # BR(~e_L -> ~chi_40 e-)
     2.52679560E-05    2    -1000024        12   # BR(~e_L -> ~chi_1- nu_e)
     5.15321876E-01    2    -1000037        12   # BR(~e_L -> ~chi_2- nu_e)
#
#         PDG            Width
DECAY   2000011     2.73852942E+01   # selectron_R decays
#          BR         NDA      ID1       ID2
     9.96118215E-01    2     1000022        11   # BR(~e_R -> ~chi_10 e-)
     1.87375991E-03    2     1000023        11   # BR(~e_R -> ~chi_20 e-)
     2.00796558E-03    2     1000025        11   # BR(~e_R -> ~chi_30 e-)
     5.91628159E-08    2     1000035        11   # BR(~e_R -> ~chi_40 e-)
#
#         PDG            Width
DECAY   1000013     3.03038376E+01   # smuon_L decays
#          BR         NDA      ID1       ID2
     2.25806464E-01    2     1000022        13   # BR(~mu_L -> ~chi_10 mu-)
     1.36807528E-03    2     1000023        13   # BR(~mu_L -> ~chi_20 mu-)
     7.22364941E-05    2     1000025        13   # BR(~mu_L -> ~chi_30 mu-)
     2.57406080E-01    2     1000035        13   # BR(~mu_L -> ~chi_40 mu-)
     2.52679560E-05    2    -1000024        14   # BR(~mu_L -> ~chi_1- nu_mu)
     5.15321876E-01    2    -1000037        14   # BR(~mu_L -> ~chi_2- nu_mu)
#
#         PDG            Width
DECAY   2000013     2.73852942E+01   # smuon_R decays
#          BR         NDA      ID1       ID2
     9.96118215E-01    2     1000022        13   # BR(~mu_R -> ~chi_10 mu-)
     1.87375991E-03    2     1000023        13   # BR(~mu_R -> ~chi_20 mu-)
     2.00796558E-03    2     1000025        13   # BR(~mu_R -> ~chi_30 mu-)
     5.91628159E-08    2     1000035        13   # BR(~mu_R -> ~chi_40 mu-)
#
#         PDG            Width
DECAY   1000015     2.91964186E+01   # stau_1 decays
#          BR         NDA      ID1       ID2
     9.30628482E-01    2     1000022        15   # BR(~tau_1 -> ~chi_10  tau-)
     1.70521664E-02    2     1000023        15   # BR(~tau_1 -> ~chi_20  tau-)
     1.65294718E-02    2     1000025        15   # BR(~tau_1 -> ~chi_30  tau-)
     1.66213225E-03    2     1000035        15   # BR(~tau_1 -> ~chi_40  tau-)
     3.08003865E-02    2    -1000024        16   # BR(~tau_1 -> ~chi_1-  nu_tau)
     3.32736140E-03    2    -1000037        16   # BR(~tau_1 -> ~chi_2-  nu_tau)
#
#         PDG            Width
DECAY   2000015     3.11831310E+01   # stau_2 decays
#          BR         NDA      ID1       ID2
     2.22922911E-01    2     1000022        15   # BR(~tau_2 -> ~chi_10  tau-)
     1.58580340E-02    2     1000023        15   # BR(~tau_2 -> ~chi_20  tau-)
     1.51341854E-02    2     1000025        15   # BR(~tau_2 -> ~chi_30  tau-)
     2.48505671E-01    2     1000035        15   # BR(~tau_2 -> ~chi_40  tau-)
     7.51426083E-05    2    -1000024        16   # BR(~tau_2 -> ~chi_1-  nu_tau)
     4.97504056E-01    2    -1000037        16   # BR(~tau_2 -> ~chi_2-  nu_tau)
#
#         PDG            Width
DECAY   1000012     3.03069311E+01   # snu_eL decays
#          BR         NDA      ID1       ID2
     2.25402713E-01    2     1000022        12   # BR(~nu_eL -> ~chi_10 nu_e)
     1.78075836E-05    2     1000023        12   # BR(~nu_eL -> ~chi_20 nu_e)
     1.16648624E-03    2     1000025        12   # BR(~nu_eL -> ~chi_30 nu_e)
     2.57449757E-01    2     1000035        12   # BR(~nu_eL -> ~chi_40 nu_e)
     1.70877833E-03    2     1000024        11   # BR(~nu_eL -> ~chi_1+ e-)
     5.14254458E-01    2     1000037        11   # BR(~nu_eL -> ~chi_2+ e-)
#
#         PDG            Width
DECAY   1000014     3.03069311E+01   # snu_muL decays
#          BR         NDA      ID1       ID2
     2.25402713E-01    2     1000022        14   # BR(~nu_muL -> ~chi_10 nu_mu)
     1.78075836E-05    2     1000023        14   # BR(~nu_muL -> ~chi_20 nu_mu)
     1.16648624E-03    2     1000025        14   # BR(~nu_muL -> ~chi_30 nu_mu)
     2.57449757E-01    2     1000035        14   # BR(~nu_muL -> ~chi_40 nu_mu)
     1.70877833E-03    2     1000024        13   # BR(~nu_muL -> ~chi_1+ mu-)
     5.14254458E-01    2     1000037        13   # BR(~nu_muL -> ~chi_2+ mu-)
#
#         PDG            Width
DECAY   1000016     3.12008167E+01   # snu_tauL decays
#          BR         NDA      ID1       ID2
     2.18921064E-01    2     1000022        16   # BR(~nu_tauL -> ~chi_10 nu_tau)
     1.72953619E-05    2     1000023        16   # BR(~nu_tauL -> ~chi_20 nu_tau)
     1.13293308E-03    2     1000025        16   # BR(~nu_tauL -> ~chi_30 nu_tau)
     2.49980774E-01    2     1000035        16   # BR(~nu_tauL -> ~chi_40 nu_tau)
     3.06133122E-02    2     1000024        15   # BR(~nu_tauL -> ~chi_1+ tau-)
     4.99334621E-01    2     1000037        15   # BR(~nu_tauL -> ~chi_2+ tau-)
#
#         PDG            Width
DECAY   1000024     4.20453406E-01   # chargino1+ decays
#          BR         NDA      ID1       ID2
     1.00000000E+00    2     1000022        24   # BR(~chi_1+ -> ~chi_10  W+)
#
#         PDG            Width
DECAY   1000037     2.14621970E+01   # chargino2+ decays
#          BR         NDA      ID1       ID2
     2.53434167E-01    2     1000024        23   # BR(~chi_2+ -> ~chi_1+  Z )
     1.77976801E-04    2     1000022        24   # BR(~chi_2+ -> ~chi_10  W+)
     2.44569956E-01    2     1000023        24   # BR(~chi_2+ -> ~chi_20  W+)
     2.44277932E-01    2     1000025        24   # BR(~chi_2+ -> ~chi_30  W+)
     2.57537403E-01    2     1000024        25   # BR(~chi_2+ -> ~chi_1+  h )
     2.56537203E-06    2     1000022        37   # BR(~chi_2+ -> ~chi_10  H+)
#
#         PDG            Width
DECAY   1000022     0.00000000E+00   # neutralino1 decays
#
#         PDG            Width
DECAY   1000023     4.34183625E-01   # neutralino2 decays
#          BR         NDA      ID1       ID2
     5.22412354E-01    2     1000022        23   # BR(~chi_20 -> ~chi_10   Z )
     4.77587646E-01    2     1000022        25   # BR(~chi_20 -> ~chi_10   h )
#
#         PDG            Width
DECAY   1000025     4.32055690E-01   # neutralino3 decays
#          BR         NDA      ID1       ID2
     4.83903883E-01    2     1000022        23   # BR(~chi_30 -> ~chi_10   Z )
     5.16096117E-01    2     1000022        25   # BR(~chi_30 -> ~chi_10   h )
#
#         PDG            Width
DECAY   1000035     2.14772889E+01   # neutralino4 decays
#          BR         NDA      ID1       ID2
     2.28865932E-05    2     1000022        23   # BR(~chi_40 -> ~chi_10   Z )
     9.62851298E-02    2     1000023        23   # BR(~chi_40 -> ~chi_20   Z )
     1.56540577E-01    2     1000025        23   # BR(~chi_40 -> ~chi_30   Z )
     2.45021031E-01    2     1000024       -24   # BR(~chi_40 -> ~chi_1+   W-)
     2.45021031E-01    2    -1000024        24   # BR(~chi_40 -> ~chi_1-   W+)
     1.52137209E-04    2     1000022        25   # BR(~chi_40 -> ~chi_10   h )
     2.45111979E-06    2     1000022        35   # BR(~chi_40 -> ~chi_10   H )
     2.79322524E-07    2     1000022        36   # BR(~chi_40 -> ~chi_10   A )
     1.60389944E-01    2     1000023        25   # BR(~chi_40 -> ~chi_20   h )
     9.65645329E-02    2     1000025        25   # BR(~chi_40 -> ~chi_30   h )
#
#         PDG            Width
DECAY        25     4.06477559E-03   # h decays
#          BR         NDA      ID1       ID2
     6.09245386E-01    2           5        -5   # BR(h -> b       bb     )
     6.38049301E-02    2         -15        15   # BR(h -> tau+    tau-   )
     2.25892721E-04    2         -13        13   # BR(h -> mu+     mu-    )
     4.78890726E-04    2           3        -3   # BR(h -> s       sb     )
     2.07501230E-02    2           4        -4   # BR(h -> c       cb     )
     6.71037109E-02    2          21        21   # BR(h -> g       g      )
     2.30644234E-03    2          22        22   # BR(h -> gam     gam    )
     1.48600199E-03    2          22        23   # BR(h -> Z       gam    )
     2.09558482E-01    2          24       -24   # BR(h -> W+      W-     )
     2.49607412E-02    2          23        23   # BR(h -> Z       Z      )
     7.93988889E-05    2     1000022   1000022   # BR(h -> ~chi_10 ~chi_10)
#
#         PDG            Width
DECAY        35     8.47990354E+00   # H decays
#          BR         NDA      ID1       ID2
     3.78100255E-01    2           5        -5   # BR(H -> b       bb     )
     6.56934663E-02    2         -15        15   # BR(H -> tau+    tau-   )
     2.32297315E-04    2         -13        13   # BR(H -> mu+     mu-    )
     2.84760874E-04    2           3        -3   # BR(H -> s       sb     )
     1.59316119E-06    2           4        -4   # BR(H -> c       cb     )
     1.59169423E-01    2           6        -6   # BR(H -> t       tb     )
     5.29185323E-05    2          21        21   # BR(H -> g       g      )
     1.84835303E-07    2          22        22   # BR(H -> gam     gam    )
     9.39512802E-08    2          23        22   # BR(H -> Z       gam    )
     7.48508963E-05    2          24       -24   # BR(H -> W+      W-     )
     3.73780722E-05    2          23        23   # BR(H -> Z       Z      )
     2.74094182E-04    2          25        25   # BR(H -> h       h      )
     2.23883754E-23    2          36        36   # BR(H -> A       A      )
     1.01014039E-18    2          23        36   # BR(H -> Z       A      )
     2.81429610E-03    2     1000024  -1000024   # BR(H -> ~chi_1+ ~chi_1-)
     3.48089561E-03    2     1000022   1000022   # BR(H -> ~chi_10 ~chi_10)
     1.48449916E-05    2     1000023   1000023   # BR(H -> ~chi_20 ~chi_20)
     1.35573846E-03    2     1000025   1000025   # BR(H -> ~chi_30 ~chi_30)
     2.33785304E-01    2     1000022   1000023   # BR(H -> ~chi_10 ~chi_20)
     1.53107205E-01    2     1000022   1000025   # BR(H -> ~chi_10 ~chi_30)
     1.52040025E-03    2     1000023   1000025   # BR(H -> ~chi_20 ~chi_30)
#
#         PDG            Width
DECAY        36     8.48991984E+00   # A decays
#          BR         NDA      ID1       ID2
     3.77782666E-01    2           5        -5   # BR(A -> b       bb     )
     6.56179192E-02    2         -15        15   # BR(A -> tau+    tau-   )
     2.32029850E-04    2         -13        13   # BR(A -> mu+     mu-    )
     2.84640921E-04    2           3        -3   # BR(A -> s       sb     )
     1.59771350E-06    2           4        -4   # BR(A -> c       cb     )
     1.59536161E-01    2           6        -6   # BR(A -> t       tb     )
     1.57871495E-04    2          21        21   # BR(A -> g       g      )
     5.99883098E-07    2          22        22   # BR(A -> gam     gam    )
     1.91143230E-07    2          23        22   # BR(A -> Z       gam    )
     7.44798796E-05    2          23        25   # BR(A -> Z       h      )
     3.41357998E-03    2     1000024  -1000024   # BR(A -> ~chi_1+ ~chi_1-)
     3.50885594E-03    2     1000022   1000022   # BR(A -> ~chi_10 ~chi_10)
     1.23962784E-05    2     1000023   1000023   # BR(A -> ~chi_20 ~chi_20)
     2.65481974E-03    2     1000025   1000025   # BR(A -> ~chi_30 ~chi_30)
     1.55731955E-01    2     1000022   1000023   # BR(A -> ~chi_10 ~chi_20)
     2.30160719E-01    2     1000022   1000025   # BR(A -> ~chi_10 ~chi_30)
     8.29516927E-04    2     1000023   1000025   # BR(A -> ~chi_20 ~chi_30)
#
#         PDG            Width
DECAY        37     8.44128260E+00   # H+ decays
#          BR         NDA      ID1       ID2
     6.06936975E-04    2           4        -5   # BR(H+ -> c       bb     )
     6.60263354E-02    2         -15        16   # BR(H+ -> tau+    nu_tau )
     2.33474040E-04    2         -13        14   # BR(H+ -> mu+     nu_mu  )
     3.88437638E-06    2           2        -5   # BR(H+ -> u       bb     )
     1.36994720E-05    2           2        -3   # BR(H+ -> u       sb     )
     2.83306129E-04    2           4        -3   # BR(H+ -> c       sb     )
     5.36467450E-01    2           6        -5   # BR(H+ -> t       bb     )
     7.50606900E-05    2          24        25   # BR(H+ -> W+      h      )
     7.76387024E-13    2          24        36   # BR(H+ -> W+      A      )
     3.94365352E-01    2     1000024   1000022   # BR(H+ -> ~chi_1+ ~chi_10)
     1.87003015E-03    2     1000024   1000023   # BR(H+ -> ~chi_1+ ~chi_20)
     5.44706242E-05    2     1000024   1000025   # BR(H+ -> ~chi_1+ ~chi_30)
