#
#                              ======================
#                              | THE SUSYHIT OUTPUT |
#                              ======================
#
#
#              ------------------------------------------------------
#              |     This is the output of the SUSY-HIT package     |
#              |  created by A.Djouadi, M.Muehlleitner and M.Spira. |
#              |  In case of problems with SUSY-HIT email to        |
#              |           margarete.muehlleitner@cern.ch           |
#              |           michael.spira@psi.ch                     |
#              |           abdelhak.djouadi@cern.ch                 |
#              ------------------------------------------------------
#
#              ------------------------------------------------------
#              |  SUSY Les Houches Accord - MSSM Spectrum + Decays  |
#              |              based on the decay programs           |
#              |                                                    |
#              |                     SDECAY 1.3b                    |
#              |                                                    |
#              |  Authors: M.Muhlleitner, A.Djouadi and Y.Mambrini  |
#              |  Ref.:    Comput.Phys.Commun.168(2005)46           |
#              |           [hep-ph/0311167]                         |
#              |                                                    |
#              |                     HDECAY 3.4                     |
#              |                                                    |
#              |  By: A.Djouadi,J.Kalinowski,M.Muhlleitner,M.Spira  |
#              |  Ref.:    Comput.Phys.Commun.108(1998)56           |
#              |           [hep-ph/9704448]                         |
#              |                                                    |
#              |                                                    |
#              |  If not stated otherwise all DRbar couplings and   |
#              |  soft SUSY breaking masses are given at the scale  |
#              |  Q=  0.50007480E+04
#              |                                                    |
#              ------------------------------------------------------
#
#
BLOCK DCINFO  # Decay Program information
     1   SDECAY/HDECAY # decay calculator
     2   1.3b  /3.4    # version number
#
BLOCK SPINFO  # Spectrum calculator information
     1    SOFTSUSY    # spectrum calculator                
     2    3.4.0       # version number                     
#
BLOCK MODSEL  # Model selection
     1     0   #  nonUniversal                                     
#
BLOCK SMINPUTS  # Standard Model inputs
         1     1.25778332E+02   # alpha_em^-1(M_Z)^MSbar
         2     1.16570000E-05   # G_F [GeV^-2]
         3     1.17200002E-01   # alpha_S(M_Z)^MSbar
         4     9.11876000E+01   # M_Z pole mass
         5     4.25000000E+00   # mb(mb)^MSbar
         6     1.72500000E+02   # mt pole mass
         7     1.77682000E+00   # mtau pole mass
#
BLOCK MINPAR  # Input parameters - minimal models
         3     1.00000000E+01   # tanb                
#
BLOCK EXTPAR  # Input parameters - non-minimal models
         0    -1.00000000E+00   # Set                 
         1     6.00000000E+01   # M_1(MX)             
         2     3.00000000E+03   # M_2(MX)             
         3     1.66796900E+03   # M_3(MX)             
        11     5.00000000E+03   # At(MX)              
        12     5.00000000E+03   # Ab(MX)              
        13     0.00000000E+00   # Atau(MX)            
        23    -7.64857000E+02   # mu(MX)              
        26     3.00000000E+03   # mA(pole)            
        31     5.00000000E+03   # meL(MX)             
        32     5.00000000E+03   # mmuL(MX)            
        33     5.00000000E+03   # mtauL(MX)           
        34     5.00000000E+03   # meR(MX)             
        35     5.00000000E+03   # mmuR(MX)            
        36     5.00000000E+03   # mtauR(MX)           
        41     5.00000000E+03   # mqL1(MX)            
        42     5.00000000E+03   # mqL2(MX)            
        43     5.00000000E+03   # mqL3(MX)            
        44     5.00000000E+03   # muR(MX)             
        45     5.00000000E+03   # mcR(MX)             
        46     5.00000000E+03   # mtR(MX)             
        47     5.00000000E+03   # mdR(MX)             
        48     5.00000000E+03   # msR(MX)             
        49     5.00000000E+03   # mbR(MX)             
#
BLOCK MASS  # Mass Spectrum
# PDG code           mass       particle
        24     8.00943978E+01   # W+
        25     1.24760723E+02   # h
        35     3.00008284E+03   # H
        36     2.99999753E+03   # A
        37     3.00136091E+03   # H+
         5     4.87878001E+00   # b-quark pole mass calculated from mb(mb)_Msbar
   1000001     5.07192867E+03   # ~d_L
   2000001     5.05411362E+03   # ~d_R
   1000002     5.07145474E+03   # ~u_L
   2000002     5.05382246E+03   # ~u_R
   1000003     5.07192867E+03   # ~s_L
   2000003     5.05411362E+03   # ~s_R
   1000004     5.07145474E+03   # ~c_L
   2000004     5.05382246E+03   # ~c_R
   1000005     5.01767992E+03   # ~b_1
   2000005     5.05251146E+03   # ~b_2
   1000006     4.90867206E+03   # ~t_1
   2000006     5.06219392E+03   # ~t_2
   1000011     5.01908271E+03   # ~e_L
   2000011     5.00593141E+03   # ~e_R
   1000012     5.01813362E+03   # ~nu_eL
   1000013     5.01908271E+03   # ~mu_L
   2000013     5.00593141E+03   # ~mu_R
   1000014     5.01813362E+03   # ~nu_muL
   1000015     5.00468713E+03   # ~tau_1
   2000015     5.01869838E+03   # ~tau_2
   1000016     5.01758518E+03   # ~nu_tauL
   1000021     2.00000007E+03   # ~g
   1000022     6.02874813E+01   # ~chi_10
   1000023     7.99842393E+02   # ~chi_20
   1000025    -8.02073437E+02   # ~chi_30
   1000035     3.07421350E+03   # ~chi_40
   1000024     8.00000812E+02   # ~chi_1+
   1000037     3.07438102E+03   # ~chi_2+
#
BLOCK NMIX  # Neutralino Mixing Matrix
  1  1     9.98452000E-01   # N_11
  1  2     2.07813449E-04   # N_12
  1  3    -5.55968406E-02   # N_13
  1  4     1.59751115E-03   # N_14
  2  1     3.81988471E-02   # N_21
  2  2     2.14534981E-02   # N_22
  2  3     7.06384898E-01   # N_23
  2  4     7.06470786E-01   # N_24
  3  1    -4.04264470E-02   # N_31
  3  2     1.56884108E-02   # N_32
  3  3    -7.05629342E-01   # N_33
  3  4     7.07253001E-01   # N_34
  4  1    -3.92902744E-04   # N_41
  4  2     9.99646727E-01   # N_42
  4  3    -4.07410961E-03   # N_43
  4  4    -2.62615547E-02   # N_44
#
BLOCK UMIX  # Chargino Mixing Matrix U
  1  1     5.77244838E-03   # U_11
  1  2     9.99983339E-01   # U_12
  2  1    -9.99983339E-01   # U_21
  2  2     5.77244838E-03   # U_22
#
BLOCK VMIX  # Chargino Mixing Matrix V
  1  1     3.71676880E-02   # V_11
  1  2    -9.99309043E-01   # V_12
  2  1    -9.99309043E-01   # V_21
  2  2    -3.71676880E-02   # V_22
#
BLOCK STOPMIX  # Stop Mixing Matrix
  1  1    -5.05545709E-01   # cos(theta_t)
  1  2     8.62799824E-01   # sin(theta_t)
  2  1    -8.62799824E-01   # -sin(theta_t)
  2  2    -5.05545709E-01   # cos(theta_t)
#
BLOCK SBOTMIX  # Sbottom Mixing Matrix
  1  1     9.97852107E-01   # cos(theta_b)
  1  2    -6.55070420E-02   # sin(theta_b)
  2  1     6.55070420E-02   # -sin(theta_b)
  2  2     9.97852107E-01   # cos(theta_b)
#
BLOCK STAUMIX  # Stau Mixing Matrix
  1  1    -9.13549517E-02   # cos(theta_tau)
  1  2     9.95818393E-01   # sin(theta_tau)
  2  1    -9.95818393E-01   # -sin(theta_tau)
  2  2    -9.13549517E-02   # cos(theta_tau)
#
BLOCK ALPHA  # Higgs mixing
          -1.05478140E-01   # Mixing angle in the neutral Higgs boson sector
#
BLOCK HMIX Q=  5.00074804E+03  # DRbar Higgs Parameters
         1    -7.78851861E+02   # mu(Q)MSSM           
         2     9.46963056E+00   # tan                 
         3     2.41814399E+02   # higgs               
         4     8.57697025E+06   # mA^2(Q)MSSM         
#
BLOCK GAUGE Q=  5.00074804E+03  # The gauge couplings
     1     3.70848903E-01   # gprime(Q) DRbar
     2     6.32804538E-01   # g(Q) DRbar
     3     9.98504491E-01   # g3(Q) DRbar
#
BLOCK AU Q=  5.00074804E+03  # The trilinear couplings
  1  1     5.00000001E+03   # A_u(Q) DRbar
  2  2     5.00000001E+03   # A_c(Q) DRbar
  3  3     5.00000002E+03   # A_t(Q) DRbar
#
BLOCK AD Q=  5.00074804E+03  # The trilinear couplings
  1  1     5.00000001E+03   # A_d(Q) DRbar
  2  2     5.00000001E+03   # A_s(Q) DRbar
  3  3     5.00000001E+03   # A_b(Q) DRbar
#
BLOCK AE Q=  5.00074804E+03  # The trilinear couplings
  1  1     0.00000000E+00   # A_e(Q) DRbar
  2  2     1.73696154E-07   # A_mu(Q) DRbar
  3  3     1.73332183E-07   # A_tau(Q) DRbar
#
BLOCK Yu Q=  5.00074804E+03  # The Yukawa couplings
  1  1     0.00000000E+00   # y_u(Q) DRbar
  2  2     0.00000000E+00   # y_c(Q) DRbar
  3  3     8.19999828E-01   # y_t(Q) DRbar
#
BLOCK Yd Q=  5.00074804E+03  # The Yukawa couplings
  1  1     0.00000000E+00   # y_d(Q) DRbar
  2  2     0.00000000E+00   # y_s(Q) DRbar
  3  3     1.30393587E-01   # y_b(Q) DRbar
#
BLOCK Ye Q=  5.00074804E+03  # The Yukawa couplings
  1  1     0.00000000E+00   # y_e(Q) DRbar
  2  2     0.00000000E+00   # y_mu(Q) DRbar
  3  3     9.69608579E-02   # y_tau(Q) DRbar
#
BLOCK MSOFT Q=  5.00074804E+03  # The soft SUSY breaking masses at the scale Q
         1     6.00000000E+01   # M_1(Q)              
         2     3.00000000E+03   # M_2(Q)              
         3     1.66796900E+03   # M_3(Q)              
        21     8.10260587E+06   # mH1^2(Q)            
        22    -3.69880824E+04   # mH2^2(Q)            
        31     5.00000000E+03   # meL(Q)              
        32     5.00000000E+03   # mmuL(Q)             
        33     5.00000000E+03   # mtauL(Q)            
        34     5.00000000E+03   # meR(Q)              
        35     5.00000000E+03   # mmuR(Q)             
        36     5.00000000E+03   # mtauR(Q)            
        41     5.00000000E+03   # mqL1(Q)             
        42     5.00000000E+03   # mqL2(Q)             
        43     5.00000000E+03   # mqL3(Q)             
        44     5.00000000E+03   # muR(Q)              
        45     5.00000000E+03   # mcR(Q)              
        46     4.99999999E+03   # mtR(Q)              
        47     5.00000000E+03   # mdR(Q)              
        48     5.00000000E+03   # msR(Q)              
        49     5.00000000E+03   # mbR(Q)              
#
#
#
#                             =================
#                             |The decay table|
#                             =================
#
# - The QCD corrections to the decays gluino -> squark  + quark
#                                     squark -> gaugino + quark_prime
#                                     squark -> squark_prime + Higgs
#                                     squark -> gluino  + quark
#   are included.
#
# - The multi-body decays for the inos, stops and sbottoms are included.
#
# - The loop induced decays for the gluino, neutralinos and stops
#   are included.
#
# - The SUSY decays of the top quark are included.
#
#
#         PDG            Width
DECAY         6     1.40330952E+00   # top decays
#          BR         NDA      ID1       ID2
     1.00000000E+00    2           5        24   # BR(t ->  b    W+)
#
#         PDG            Width
DECAY   1000021     1.04951777E-03   # gluino decays
#          BR         NDA      ID1       ID2
     2.15046894E-06    2     1000022        21   # BR(~g -> ~chi_10 g)
     9.20730911E-03    2     1000023        21   # BR(~g -> ~chi_20 g)
     9.01859492E-03    2     1000025        21   # BR(~g -> ~chi_30 g)
#           BR         NDA      ID1       ID2       ID3
     2.22377460E-02    3     1000022         1        -1   # BR(~g -> ~chi_10 d  db)
     2.15670077E-05    3     1000023         1        -1   # BR(~g -> ~chi_20 d  db)
     1.71836581E-05    3     1000025         1        -1   # BR(~g -> ~chi_30 d  db)
     7.58288366E-02    3     1000022         2        -2   # BR(~g -> ~chi_10 u  ub)
     8.90092865E-05    3     1000023         2        -2   # BR(~g -> ~chi_20 u  ub)
     2.28032268E-05    3     1000025         2        -2   # BR(~g -> ~chi_30 u  ub)
     2.22377460E-02    3     1000022         3        -3   # BR(~g -> ~chi_10 s  sb)
     2.15670077E-05    3     1000023         3        -3   # BR(~g -> ~chi_20 s  sb)
     1.71836581E-05    3     1000025         3        -3   # BR(~g -> ~chi_30 s  sb)
     7.58288366E-02    3     1000022         4        -4   # BR(~g -> ~chi_10 c  cb)
     8.90092865E-05    3     1000023         4        -4   # BR(~g -> ~chi_20 c  cb)
     2.28032268E-05    3     1000025         4        -4   # BR(~g -> ~chi_30 c  cb)
     2.25957578E-02    3     1000022         5        -5   # BR(~g -> ~chi_10 b  bb)
     4.77599963E-03    3     1000023         5        -5   # BR(~g -> ~chi_20 b  bb)
     4.72201280E-03    3     1000025         5        -5   # BR(~g -> ~chi_30 b  bb)
     7.35974820E-02    3     1000022         6        -6   # BR(~g -> ~chi_10 t  tb)
     1.69995814E-01    3     1000023         6        -6   # BR(~g -> ~chi_20 t  tb)
     1.48627947E-01    3     1000025         6        -6   # BR(~g -> ~chi_30 t  tb)
     5.76550554E-05    3     1000024         1        -2   # BR(~g -> ~chi_1+ d  ub)
     5.76550554E-05    3    -1000024         2        -1   # BR(~g -> ~chi_1- u  db)
     5.76550554E-05    3     1000024         3        -4   # BR(~g -> ~chi_1+ s  cb)
     5.76550554E-05    3    -1000024         4        -3   # BR(~g -> ~chi_1- c  sb)
     1.80396011E-01    3     1000024         5        -6   # BR(~g -> ~chi_1+ b  tb)
     1.80396011E-01    3    -1000024         6        -5   # BR(~g -> ~chi_1- t  bb)
#
#         PDG            Width
DECAY   1000006     3.44893043E+02   # stop1 decays
#          BR         NDA      ID1       ID2
     2.56673537E-02    2     1000022         6   # BR(~t_1 -> ~chi_10 t )
     9.12659885E-02    2     1000023         6   # BR(~t_1 -> ~chi_20 t )
     8.74440157E-02    2     1000025         6   # BR(~t_1 -> ~chi_30 t )
     5.95386994E-03    2     1000035         6   # BR(~t_1 -> ~chi_40 t )
     1.33023433E-01    2     1000024         5   # BR(~t_1 -> ~chi_1+ b )
     1.18656122E-02    2     1000037         5   # BR(~t_1 -> ~chi_2+ b )
     6.44779727E-01    2     1000021         6   # BR(~t_1 -> ~g      t )
#
#         PDG            Width
DECAY   2000006     3.50902501E+02   # stop2 decays
#          BR         NDA      ID1       ID2
     9.89221872E-03    2     1000022         6   # BR(~t_2 -> ~chi_10 t )
     9.12775049E-02    2     1000023         6   # BR(~t_2 -> ~chi_20 t )
     9.54377840E-02    2     1000025         6   # BR(~t_2 -> ~chi_30 t )
     1.59040453E-02    2     1000035         6   # BR(~t_2 -> ~chi_40 t )
     5.38531282E-02    2     1000024         5   # BR(~t_2 -> ~chi_1+ b )
     3.16552465E-02    2     1000037         5   # BR(~t_2 -> ~chi_2+ b )
     6.98439157E-01    2     1000021         6   # BR(~t_2 -> ~g      t )
     8.11452357E-04    2     1000006        25   # BR(~t_2 -> ~t_1    h )
     2.72946328E-03    2     1000006        23   # BR(~t_2 -> ~t_1    Z )
#
#         PDG            Width
DECAY   1000005     3.26134557E+02   # sbottom1 decays
#          BR         NDA      ID1       ID2
     2.36752812E-03    2     1000022         5   # BR(~b_1 -> ~chi_10 b )
     2.49036282E-03    2     1000023         5   # BR(~b_1 -> ~chi_20 b )
     2.44716128E-03    2     1000025         5   # BR(~b_1 -> ~chi_30 b )
     2.31775203E-02    2     1000035         5   # BR(~b_1 -> ~chi_40 b )
     1.95347880E-01    2    -1000024         6   # BR(~b_1 -> ~chi_1- t )
     4.65514234E-02    2    -1000037         6   # BR(~b_1 -> ~chi_2- t )
     7.25910048E-01    2     1000021         5   # BR(~b_1 -> ~g      b )
     1.70807625E-03    2     1000006       -24   # BR(~b_1 -> ~t_1    W-)
#
#         PDG            Width
DECAY   2000005     2.45966833E+02   # sbottom2 decays
#          BR         NDA      ID1       ID2
     1.19425494E-02    2     1000022         5   # BR(~b_2 -> ~chi_10 b )
     3.33356003E-03    2     1000023         5   # BR(~b_2 -> ~chi_20 b )
     3.40439793E-03    2     1000025         5   # BR(~b_2 -> ~chi_30 b )
     1.30842900E-04    2     1000035         5   # BR(~b_2 -> ~chi_40 b )
     7.68098793E-03    2    -1000024         6   # BR(~b_2 -> ~chi_1- t )
     2.62781683E-04    2    -1000037         6   # BR(~b_2 -> ~chi_2- t )
     9.73204150E-01    2     1000021         5   # BR(~b_2 -> ~g      b )
     4.07299975E-05    2     1000006       -24   # BR(~b_2 -> ~t_1    W-)
#
#         PDG            Width
DECAY   1000002     2.65230273E+02   # sup_L decays
#          BR         NDA      ID1       ID2
     2.81111919E-03    2     1000022         2   # BR(~u_L -> ~chi_10 u)
     5.87175106E-05    2     1000023         2   # BR(~u_L -> ~chi_20 u)
     4.26182722E-06    2     1000025         2   # BR(~u_L -> ~chi_30 u)
     2.96487793E-02    2     1000035         2   # BR(~u_L -> ~chi_40 u)
     1.94025170E-04    2     1000024         1   # BR(~u_L -> ~chi_1+ d)
     5.92591530E-02    2     1000037         1   # BR(~u_L -> ~chi_2+ d)
     9.08023944E-01    2     1000021         2   # BR(~u_L -> ~g      u)
#
#         PDG            Width
DECAY   2000002     2.51277876E+02   # sup_R decays
#          BR         NDA      ID1       ID2
     4.72076283E-02    2     1000022         2   # BR(~u_R -> ~chi_10 u)
     6.57850817E-05    2     1000023         2   # BR(~u_R -> ~chi_20 u)
     7.36604873E-05    2     1000025         2   # BR(~u_R -> ~chi_30 u)
     2.91829223E-09    2     1000035         2   # BR(~u_R -> ~chi_40 u)
     9.52652923E-01    2     1000021         2   # BR(~u_R -> ~g      u)
#
#         PDG            Width
DECAY   1000001     2.65244271E+02   # sdown_L decays
#          BR         NDA      ID1       ID2
     2.79928106E-03    2     1000022         1   # BR(~d_L -> ~chi_10 d)
     1.37484899E-05    2     1000023         1   # BR(~d_L -> ~chi_20 d)
     3.90569708E-05    2     1000025         1   # BR(~d_L -> ~chi_30 d)
     2.96654892E-02    2     1000035         1   # BR(~d_L -> ~chi_40 d)
     4.68025194E-06    2    -1000024         2   # BR(~d_L -> ~chi_1- u)
     5.93543656E-02    2    -1000037         2   # BR(~d_L -> ~chi_2- u)
     9.08123378E-01    2     1000021         1   # BR(~d_L -> ~g      d)
#
#         PDG            Width
DECAY   2000001     2.42379130E+02   # sdown_R decays
#          BR         NDA      ID1       ID2
     1.22359177E-02    2     1000022         1   # BR(~d_R -> ~chi_10 d)
     1.70511728E-05    2     1000023         1   # BR(~d_R -> ~chi_20 d)
     1.90924402E-05    2     1000025         1   # BR(~d_R -> ~chi_30 d)
     7.56503979E-10    2     1000035         1   # BR(~d_R -> ~chi_40 d)
     9.87727938E-01    2     1000021         1   # BR(~d_R -> ~g      d)
#
#         PDG            Width
DECAY   1000004     2.65230273E+02   # scharm_L decays
#          BR         NDA      ID1       ID2
     2.81111919E-03    2     1000022         4   # BR(~c_L -> ~chi_10 c)
     5.87175106E-05    2     1000023         4   # BR(~c_L -> ~chi_20 c)
     4.26182722E-06    2     1000025         4   # BR(~c_L -> ~chi_30 c)
     2.96487793E-02    2     1000035         4   # BR(~c_L -> ~chi_40 c)
     1.94025170E-04    2     1000024         3   # BR(~c_L -> ~chi_1+ s)
     5.92591530E-02    2     1000037         3   # BR(~c_L -> ~chi_2+ s)
     9.08023944E-01    2     1000021         4   # BR(~c_L -> ~g      c)
#
#         PDG            Width
DECAY   2000004     2.51277876E+02   # scharm_R decays
#          BR         NDA      ID1       ID2
     4.72076283E-02    2     1000022         4   # BR(~c_R -> ~chi_10 c)
     6.57850817E-05    2     1000023         4   # BR(~c_R -> ~chi_20 c)
     7.36604873E-05    2     1000025         4   # BR(~c_R -> ~chi_30 c)
     2.91829223E-09    2     1000035         4   # BR(~c_R -> ~chi_40 c)
     9.52652923E-01    2     1000021         4   # BR(~c_R -> ~g      c)
#
#         PDG            Width
DECAY   1000003     2.65244271E+02   # sstrange_L decays
#          BR         NDA      ID1       ID2
     2.79928106E-03    2     1000022         3   # BR(~s_L -> ~chi_10 s)
     1.37484899E-05    2     1000023         3   # BR(~s_L -> ~chi_20 s)
     3.90569708E-05    2     1000025         3   # BR(~s_L -> ~chi_30 s)
     2.96654892E-02    2     1000035         3   # BR(~s_L -> ~chi_40 s)
     4.68025194E-06    2    -1000024         4   # BR(~s_L -> ~chi_1- c)
     5.93543656E-02    2    -1000037         4   # BR(~s_L -> ~chi_2- c)
     9.08123378E-01    2     1000021         3   # BR(~s_L -> ~g      s)
#
#         PDG            Width
DECAY   2000003     2.42379130E+02   # sstrange_R decays
#          BR         NDA      ID1       ID2
     1.22359177E-02    2     1000022         3   # BR(~s_R -> ~chi_10 s)
     1.70511728E-05    2     1000023         3   # BR(~s_R -> ~chi_20 s)
     1.90924402E-05    2     1000025         3   # BR(~s_R -> ~chi_30 s)
     7.56503979E-10    2     1000035         3   # BR(~s_R -> ~chi_40 s)
     9.87727938E-01    2     1000021         3   # BR(~s_R -> ~g      s)
#
#         PDG            Width
DECAY   1000011     3.02915350E+01   # selectron_L decays
#          BR         NDA      ID1       ID2
     2.26065714E-01    2     1000022        11   # BR(~e_L -> ~chi_10 e-)
     1.20484556E-03    2     1000023        11   # BR(~e_L -> ~chi_20 e-)
     4.01412086E-05    2     1000025        11   # BR(~e_L -> ~chi_30 e-)
     2.57376954E-01    2     1000035        11   # BR(~e_L -> ~chi_40 e-)
     4.17772822E-05    2    -1000024        12   # BR(~e_L -> ~chi_1- nu_e)
     5.15270568E-01    2    -1000037        12   # BR(~e_L -> ~chi_2- nu_e)
#
#         PDG            Width
DECAY   2000011     2.73807570E+01   # selectron_R decays
#          BR         NDA      ID1       ID2
     9.97061566E-01    2     1000022        11   # BR(~e_R -> ~chi_10 e-)
     1.38621839E-03    2     1000023        11   # BR(~e_R -> ~chi_20 e-)
     1.55215526E-03    2     1000025        11   # BR(~e_R -> ~chi_30 e-)
     5.99169694E-08    2     1000035        11   # BR(~e_R -> ~chi_40 e-)
#
#         PDG            Width
DECAY   1000013     3.02915350E+01   # smuon_L decays
#          BR         NDA      ID1       ID2
     2.26065714E-01    2     1000022        13   # BR(~mu_L -> ~chi_10 mu-)
     1.20484556E-03    2     1000023        13   # BR(~mu_L -> ~chi_20 mu-)
     4.01412086E-05    2     1000025        13   # BR(~mu_L -> ~chi_30 mu-)
     2.57376954E-01    2     1000035        13   # BR(~mu_L -> ~chi_40 mu-)
     4.17772822E-05    2    -1000024        14   # BR(~mu_L -> ~chi_1- nu_mu)
     5.15270568E-01    2    -1000037        14   # BR(~mu_L -> ~chi_2- nu_mu)
#
#         PDG            Width
DECAY   2000013     2.73807570E+01   # smuon_R decays
#          BR         NDA      ID1       ID2
     9.97061566E-01    2     1000022        13   # BR(~mu_R -> ~chi_10 mu-)
     1.38621839E-03    2     1000023        13   # BR(~mu_R -> ~chi_20 mu-)
     1.55215526E-03    2     1000025        13   # BR(~mu_R -> ~chi_30 mu-)
     5.99169694E-08    2     1000035        13   # BR(~mu_R -> ~chi_40 mu-)
#
#         PDG            Width
DECAY   1000015     2.91731374E+01   # stau_1 decays
#          BR         NDA      ID1       ID2
     9.30689552E-01    2     1000022        15   # BR(~tau_1 -> ~chi_10  tau-)
     1.64855459E-02    2     1000023        15   # BR(~tau_1 -> ~chi_20  tau-)
     1.59006133E-02    2     1000025        15   # BR(~tau_1 -> ~chi_30  tau-)
     2.16631012E-03    2     1000035        15   # BR(~tau_1 -> ~chi_40  tau-)
     3.04212236E-02    2    -1000024        16   # BR(~tau_1 -> ~chi_1-  nu_tau)
     4.33675532E-03    2    -1000037        16   # BR(~tau_1 -> ~chi_2-  nu_tau)
#
#         PDG            Width
DECAY   2000015     3.11536440E+01   # stau_2 decays
#          BR         NDA      ID1       ID2
     2.24561951E-01    2     1000022        15   # BR(~tau_2 -> ~chi_10  tau-)
     1.54687366E-02    2     1000023        15   # BR(~tau_2 -> ~chi_20  tau-)
     1.49635460E-02    2     1000025        15   # BR(~tau_2 -> ~chi_30  tau-)
     2.48141358E-01    2     1000035        15   # BR(~tau_2 -> ~chi_40  tau-)
     8.29511825E-05    2    -1000024        16   # BR(~tau_2 -> ~chi_1-  nu_tau)
     4.96781457E-01    2    -1000037        16   # BR(~tau_2 -> ~chi_2-  nu_tau)
#
#         PDG            Width
DECAY   1000012     3.02945439E+01   # snu_eL decays
#          BR         NDA      ID1       ID2
     2.25679658E-01    2     1000022        12   # BR(~nu_eL -> ~chi_10 nu_e)
     5.45030518E-07    2     1000023        12   # BR(~nu_eL -> ~chi_20 nu_e)
     9.71602632E-04    2     1000025        12   # BR(~nu_eL -> ~chi_30 nu_e)
     2.57422922E-01    2     1000035        12   # BR(~nu_eL -> ~chi_40 nu_e)
     1.73147940E-03    2     1000024        11   # BR(~nu_eL -> ~chi_1+ e-)
     5.14193792E-01    2     1000037        11   # BR(~nu_eL -> ~chi_2+ e-)
#
#         PDG            Width
DECAY   1000014     3.02945439E+01   # snu_muL decays
#          BR         NDA      ID1       ID2
     2.25679658E-01    2     1000022        14   # BR(~nu_muL -> ~chi_10 nu_mu)
     5.45030518E-07    2     1000023        14   # BR(~nu_muL -> ~chi_20 nu_mu)
     9.71602632E-04    2     1000025        14   # BR(~nu_muL -> ~chi_30 nu_mu)
     2.57422922E-01    2     1000035        14   # BR(~nu_muL -> ~chi_40 nu_mu)
     1.73147940E-03    2     1000024        13   # BR(~nu_muL -> ~chi_1+ mu-)
     5.14193792E-01    2     1000037        13   # BR(~nu_muL -> ~chi_2+ mu-)
#
#         PDG            Width
DECAY   1000016     3.11764523E+01   # snu_tauL decays
#          BR         NDA      ID1       ID2
     2.19271732E-01    2     1000022        16   # BR(~nu_tauL -> ~chi_10 nu_tau)
     5.29548971E-07    2     1000023        16   # BR(~nu_tauL -> ~chi_20 nu_tau)
     9.44004277E-04    2     1000025        16   # BR(~nu_tauL -> ~chi_30 nu_tau)
     2.50047999E-01    2     1000035        16   # BR(~nu_tauL -> ~chi_40 nu_tau)
     3.02736749E-02    2     1000024        15   # BR(~nu_tauL -> ~chi_1+ tau-)
     4.99462060E-01    2     1000037        15   # BR(~nu_tauL -> ~chi_2+ tau-)
#
#         PDG            Width
DECAY   1000024     4.83347048E-01   # chargino1+ decays
#          BR         NDA      ID1       ID2
     1.00000000E+00    2     1000022        24   # BR(~chi_1+ -> ~chi_10  W+)
#
#         PDG            Width
DECAY   1000037     2.11154024E+01   # chargino2+ decays
#          BR         NDA      ID1       ID2
     2.53359545E-01    2     1000024        23   # BR(~chi_2+ -> ~chi_1+  Z )
     1.84733287E-04    2     1000022        24   # BR(~chi_2+ -> ~chi_10  W+)
     2.44408297E-01    2     1000023        24   # BR(~chi_2+ -> ~chi_20  W+)
     2.44224705E-01    2     1000025        24   # BR(~chi_2+ -> ~chi_30  W+)
     2.57820797E-01    2     1000024        25   # BR(~chi_2+ -> ~chi_1+  h )
     1.92349766E-06    2     1000022        37   # BR(~chi_2+ -> ~chi_10  H+)
#
#         PDG            Width
DECAY   1000022     0.00000000E+00   # neutralino1 decays
#
#         PDG            Width
DECAY   1000023     5.01728308E-01   # neutralino2 decays
#          BR         NDA      ID1       ID2
     5.29406276E-01    2     1000022        23   # BR(~chi_20 -> ~chi_10   Z )
     4.70593724E-01    2     1000022        25   # BR(~chi_20 -> ~chi_10   h )
#
#         PDG            Width
DECAY   1000025     5.01524056E-01   # neutralino3 decays
#          BR         NDA      ID1       ID2
     4.69505306E-01    2     1000022        23   # BR(~chi_30 -> ~chi_10   Z )
     5.30494694E-01    2     1000022        25   # BR(~chi_30 -> ~chi_10   h )
#
#         PDG            Width
DECAY   1000035     2.11311582E+01   # neutralino4 decays
#          BR         NDA      ID1       ID2
     3.18522556E-05    2     1000022        23   # BR(~chi_40 -> ~chi_10   Z )
     8.82306207E-02    2     1000023        23   # BR(~chi_40 -> ~chi_20   Z )
     1.64468830E-01    2     1000025        23   # BR(~chi_40 -> ~chi_30   Z )
     2.44945408E-01    2     1000024       -24   # BR(~chi_40 -> ~chi_1+   W-)
     2.44945408E-01    2    -1000024        24   # BR(~chi_40 -> ~chi_1-   W+)
     1.51482826E-04    2     1000022        25   # BR(~chi_40 -> ~chi_10   h )
     1.83201498E-06    2     1000022        35   # BR(~chi_40 -> ~chi_10   H )
     2.13701180E-07    2     1000022        36   # BR(~chi_40 -> ~chi_10   A )
     1.68732702E-01    2     1000023        25   # BR(~chi_40 -> ~chi_20   h )
     8.84916514E-02    2     1000025        25   # BR(~chi_40 -> ~chi_30   h )
#
#         PDG            Width
DECAY        25     4.06243650E-03   # h decays
#          BR         NDA      ID1       ID2
     6.08952471E-01    2           5        -5   # BR(h -> b       bb     )
     6.38421340E-02    2         -15        15   # BR(h -> tau+    tau-   )
     2.26024423E-04    2         -13        13   # BR(h -> mu+     mu-    )
     4.79167680E-04    2           3        -3   # BR(h -> s       sb     )
     2.07624983E-02    2           4        -4   # BR(h -> c       cb     )
     6.71472805E-02    2          21        21   # BR(h -> g       g      )
     2.30814483E-03    2          22        22   # BR(h -> gam     gam    )
     1.48730439E-03    2          22        23   # BR(h -> Z       gam    )
     2.09738362E-01    2          24       -24   # BR(h -> W+      W-     )
     2.49850441E-02    2          23        23   # BR(h -> Z       Z      )
     7.15688791E-05    2     1000022   1000022   # BR(h -> ~chi_10 ~chi_10)
#
#         PDG            Width
DECAY        35     8.36740957E+00   # H decays
#          BR         NDA      ID1       ID2
     3.84099441E-01    2           5        -5   # BR(H -> b       bb     )
     6.65781355E-02    2         -15        15   # BR(H -> tau+    tau-   )
     2.35425575E-04    2         -13        13   # BR(H -> mu+     mu-    )
     2.88595654E-04    2           3        -3   # BR(H -> s       sb     )
     1.61451485E-06    2           4        -4   # BR(H -> c       cb     )
     1.61302822E-01    2           6        -6   # BR(H -> t       tb     )
     5.36178562E-05    2          21        21   # BR(H -> g       g      )
     2.09611243E-07    2          22        22   # BR(H -> gam     gam    )
     9.52201565E-08    2          23        22   # BR(H -> Z       gam    )
     7.53144658E-05    2          24       -24   # BR(H -> W+      W-     )
     3.76095652E-05    2          23        23   # BR(H -> Z       Z      )
     2.77068257E-04    2          25        25   # BR(H -> h       h      )
    -1.06905699E-23    2          36        36   # BR(H -> A       A      )
     4.99146141E-19    2          23        36   # BR(H -> Z       A      )
     2.57780083E-03    2     1000024  -1000024   # BR(H -> ~chi_1+ ~chi_1-)
     2.69826693E-03    2     1000022   1000022   # BR(H -> ~chi_10 ~chi_10)
     4.86901313E-07    2     1000023   1000023   # BR(H -> ~chi_20 ~chi_20)
     1.01763827E-03    2     1000025   1000025   # BR(H -> ~chi_30 ~chi_30)
     2.28950381E-01    2     1000022   1000023   # BR(H -> ~chi_10 ~chi_20)
     1.50742855E-01    2     1000022   1000025   # BR(H -> ~chi_10 ~chi_30)
     1.06262191E-03    2     1000023   1000025   # BR(H -> ~chi_20 ~chi_30)
#
#         PDG            Width
DECAY        36     8.37933884E+00   # A decays
#          BR         NDA      ID1       ID2
     3.83682756E-01    2           5        -5   # BR(A -> b       bb     )
     6.64853126E-02    2         -15        15   # BR(A -> tau+    tau-   )
     2.35097017E-04    2         -13        13   # BR(A -> mu+     mu-    )
     2.88403558E-04    2           3        -3   # BR(A -> s       sb     )
     1.61876200E-06    2           4        -4   # BR(A -> c       cb     )
     1.61637912E-01    2           6        -6   # BR(A -> t       tb     )
     1.59952852E-04    2          21        21   # BR(A -> g       g      )
     5.96169693E-07    2          22        22   # BR(A -> gam     gam    )
     1.93682094E-07    2          23        22   # BR(A -> Z       gam    )
     7.49228096E-05    2          23        25   # BR(A -> Z       h      )
     3.36880071E-03    2     1000024  -1000024   # BR(A -> ~chi_1+ ~chi_1-)
     2.73185958E-03    2     1000022   1000022   # BR(A -> ~chi_10 ~chi_10)
     4.44365072E-07    2     1000023   1000023   # BR(A -> ~chi_20 ~chi_20)
     2.17795988E-03    2     1000025   1000025   # BR(A -> ~chi_30 ~chi_30)
     1.53040010E-01    2     1000022   1000023   # BR(A -> ~chi_10 ~chi_20)
     2.25625556E-01    2     1000022   1000025   # BR(A -> ~chi_10 ~chi_30)
     4.88605187E-04    2     1000023   1000025   # BR(A -> ~chi_20 ~chi_30)
#
#         PDG            Width
DECAY        37     8.33409197E+00   # H+ decays
#          BR         NDA      ID1       ID2
     6.16843424E-04    2           4        -5   # BR(H+ -> c       bb     )
     6.68766490E-02    2         -15        16   # BR(H+ -> tau+    nu_tau )
     2.36480812E-04    2         -13        14   # BR(H+ -> mu+     nu_mu  )
     3.94777738E-06    2           2        -5   # BR(H+ -> u       bb     )
     1.38759093E-05    2           2        -3   # BR(H+ -> u       sb     )
     2.86954799E-04    2           4        -3   # BR(H+ -> c       sb     )
     5.44673705E-01    2           6        -5   # BR(H+ -> t       bb     )
     7.54809087E-05    2          24        25   # BR(H+ -> W+      h      )
     7.42754858E-13    2          24        36   # BR(H+ -> W+      A      )
     3.85751277E-01    2     1000024   1000022   # BR(H+ -> ~chi_1+ ~chi_10)
     1.44062228E-03    2     1000024   1000023   # BR(H+ -> ~chi_1+ ~chi_20)
     2.41629736E-05    2     1000024   1000025   # BR(H+ -> ~chi_1+ ~chi_30)
