#
#                              ======================
#                              | THE SUSYHIT OUTPUT |
#                              ======================
#
#
#              ------------------------------------------------------
#              |     This is the output of the SUSY-HIT package     |
#              |  created by A.Djouadi, M.Muehlleitner and M.Spira. |
#              |  In case of problems with SUSY-HIT email to        |
#              |           margarete.muehlleitner@cern.ch           |
#              |           michael.spira@psi.ch                     |
#              |           abdelhak.djouadi@cern.ch                 |
#              ------------------------------------------------------
#
#              ------------------------------------------------------
#              |  SUSY Les Houches Accord - MSSM Spectrum + Decays  |
#              |              based on the decay programs           |
#              |                                                    |
#              |                     SDECAY 1.3b                    |
#              |                                                    |
#              |  Authors: M.Muhlleitner, A.Djouadi and Y.Mambrini  |
#              |  Ref.:    Comput.Phys.Commun.168(2005)46           |
#              |           [hep-ph/0311167]                         |
#              |                                                    |
#              |                     HDECAY 3.4                     |
#              |                                                    |
#              |  By: A.Djouadi,J.Kalinowski,M.Muhlleitner,M.Spira  |
#              |  Ref.:    Comput.Phys.Commun.108(1998)56           |
#              |           [hep-ph/9704448]                         |
#              |                                                    |
#              |                                                    |
#              |  If not stated otherwise all DRbar couplings and   |
#              |  soft SUSY breaking masses are given at the scale  |
#              |  Q=  0.50007505E+04
#              |                                                    |
#              ------------------------------------------------------
#
#
BLOCK DCINFO  # Decay Program information
     1   SDECAY/HDECAY # decay calculator
     2   1.3b  /3.4    # version number
#
BLOCK SPINFO  # Spectrum calculator information
     1    SOFTSUSY    # spectrum calculator                
     2    3.4.0       # version number                     
#
BLOCK MODSEL  # Model selection
     1     0   #  nonUniversal                                     
#
BLOCK SMINPUTS  # Standard Model inputs
         1     1.25778332E+02   # alpha_em^-1(M_Z)^MSbar
         2     1.16570000E-05   # G_F [GeV^-2]
         3     1.17200002E-01   # alpha_S(M_Z)^MSbar
         4     9.11876000E+01   # M_Z pole mass
         5     4.25000000E+00   # mb(mb)^MSbar
         6     1.72500000E+02   # mt pole mass
         7     1.77682000E+00   # mtau pole mass
#
BLOCK MINPAR  # Input parameters - minimal models
         3     1.00000000E+01   # tanb                
#
BLOCK EXTPAR  # Input parameters - non-minimal models
         0    -1.00000000E+00   # Set                 
         1     6.00000000E+01   # M_1(MX)             
         2     3.00000000E+03   # M_2(MX)             
         3     1.48350100E+03   # M_3(MX)             
        11     5.00000000E+03   # At(MX)              
        12     5.00000000E+03   # Ab(MX)              
        13     0.00000000E+00   # Atau(MX)            
        23    -6.68052000E+02   # mu(MX)              
        26     3.00000000E+03   # mA(pole)            
        31     5.00000000E+03   # meL(MX)             
        32     5.00000000E+03   # mmuL(MX)            
        33     5.00000000E+03   # mtauL(MX)           
        34     5.00000000E+03   # meR(MX)             
        35     5.00000000E+03   # mmuR(MX)            
        36     5.00000000E+03   # mtauR(MX)           
        41     5.00000000E+03   # mqL1(MX)            
        42     5.00000000E+03   # mqL2(MX)            
        43     5.00000000E+03   # mqL3(MX)            
        44     5.00000000E+03   # muR(MX)             
        45     5.00000000E+03   # mcR(MX)             
        46     5.00000000E+03   # mtR(MX)             
        47     5.00000000E+03   # mdR(MX)             
        48     5.00000000E+03   # msR(MX)             
        49     5.00000000E+03   # mbR(MX)             
#
BLOCK MASS  # Mass Spectrum
# PDG code           mass       particle
        24     8.00936728E+01   # W+
        25     1.24712455E+02   # h
        35     3.00008358E+03   # H
        36     2.99999870E+03   # A
        37     3.00137731E+03   # H+
         5     4.87878001E+00   # b-quark pole mass calculated from mb(mb)_Msbar
   1000001     5.06953722E+03   # ~d_L
   2000001     5.05170488E+03   # ~d_R
   1000002     5.06906233E+03   # ~u_L
   2000002     5.05141050E+03   # ~u_R
   1000003     5.06953722E+03   # ~s_L
   2000003     5.05170488E+03   # ~s_R
   1000004     5.06906233E+03   # ~c_L
   2000004     5.05141050E+03   # ~c_R
   1000005     5.01537676E+03   # ~b_1
   2000005     5.05005586E+03   # ~b_2
   1000006     4.90614679E+03   # ~t_1
   2000006     5.05995924E+03   # ~t_2
   1000011     5.01909069E+03   # ~e_L
   2000011     5.00593536E+03   # ~e_R
   1000012     5.01814121E+03   # ~nu_eL
   1000013     5.01909069E+03   # ~mu_L
   2000013     5.00593536E+03   # ~mu_R
   1000014     5.01814121E+03   # ~nu_muL
   1000015     5.00471959E+03   # ~tau_1
   2000015     5.01867224E+03   # ~tau_2
   1000016     5.01759165E+03   # ~nu_tauL
   1000021     1.80000060E+03   # ~g
   1000022     6.02748147E+01   # ~chi_10
   1000023     6.99989217E+02   # ~chi_20
   1000025    -7.02215399E+02   # ~chi_30
   1000035     3.07419792E+03   # ~chi_40
   1000024     7.00000259E+02   # ~chi_1+
   1000037     3.07436549E+03   # ~chi_2+
#
BLOCK NMIX  # Neutralino Mixing Matrix
  1  1     9.97979396E-01   # N_11
  1  2     2.19027236E-04   # N_12
  1  3    -6.35279254E-02   # N_13
  1  4     1.13171482E-03   # N_14
  2  1     4.41414036E-02   # N_21
  2  2     2.05667091E-02   # N_22
  2  3     7.06086568E-01   # N_23
  2  4     7.06449082E-01   # N_24
  3  1    -4.57002201E-02   # N_31
  3  2     1.61077346E-02   # N_32
  3  3    -7.05263104E-01   # N_33
  3  4     7.07287766E-01   # N_34
  4  1    -3.90434316E-04   # N_41
  4  2     9.99658693E-01   # N_42
  4  3    -3.14884648E-03   # N_43
  4  4    -2.59312348E-02   # N_44
#
BLOCK UMIX  # Chargino Mixing Matrix U
  1  1     4.46214572E-03   # U_11
  1  2     9.99990045E-01   # U_12
  2  1    -9.99990045E-01   # U_21
  2  2     4.46214572E-03   # U_22
#
BLOCK VMIX  # Chargino Mixing Matrix V
  1  1     3.66987825E-02   # V_11
  1  2    -9.99326373E-01   # V_12
  2  1    -9.99326373E-01   # V_21
  2  2    -3.66987825E-02   # V_22
#
BLOCK STOPMIX  # Stop Mixing Matrix
  1  1    -5.05691979E-01   # cos(theta_t)
  1  2     8.62714102E-01   # sin(theta_t)
  2  1    -8.62714102E-01   # -sin(theta_t)
  2  2    -5.05691979E-01   # cos(theta_t)
#
BLOCK SBOTMIX  # Sbottom Mixing Matrix
  1  1     9.98175421E-01   # cos(theta_b)
  1  2    -6.03806998E-02   # sin(theta_b)
  2  1     6.03806998E-02   # -sin(theta_b)
  2  2     9.98175421E-01   # cos(theta_b)
#
BLOCK STAUMIX  # Stau Mixing Matrix
  1  1    -7.99413991E-02   # cos(theta_tau)
  1  2     9.96799565E-01   # sin(theta_tau)
  2  1    -9.96799565E-01   # -sin(theta_tau)
  2  2    -7.99413991E-02   # cos(theta_tau)
#
BLOCK ALPHA  # Higgs mixing
          -1.05474583E-01   # Mixing angle in the neutral Higgs boson sector
#
BLOCK HMIX Q=  5.00075049E+03  # DRbar Higgs Parameters
         1    -6.80229797E+02   # mu(Q)MSSM           
         2     9.47002501E+00   # tan                 
         3     2.41799395E+02   # higgs               
         4     8.60855803E+06   # mA^2(Q)MSSM         
#
BLOCK GAUGE Q=  5.00075049E+03  # The gauge couplings
     1     3.70883283E-01   # gprime(Q) DRbar
     2     6.32965260E-01   # g(Q) DRbar
     3     1.00004792E+00   # g3(Q) DRbar
#
BLOCK AU Q=  5.00075049E+03  # The trilinear couplings
  1  1     5.00000001E+03   # A_u(Q) DRbar
  2  2     5.00000001E+03   # A_c(Q) DRbar
  3  3     5.00000002E+03   # A_t(Q) DRbar
#
BLOCK AD Q=  5.00075049E+03  # The trilinear couplings
  1  1     5.00000001E+03   # A_d(Q) DRbar
  2  2     5.00000001E+03   # A_s(Q) DRbar
  3  3     5.00000001E+03   # A_b(Q) DRbar
#
BLOCK AE Q=  5.00075049E+03  # The trilinear couplings
  1  1     0.00000000E+00   # A_e(Q) DRbar
  2  2     1.42848298E-07   # A_mu(Q) DRbar
  3  3     1.42363437E-07   # A_tau(Q) DRbar
#
BLOCK Yu Q=  5.00075049E+03  # The Yukawa couplings
  1  1     0.00000000E+00   # y_u(Q) DRbar
  2  2     0.00000000E+00   # y_c(Q) DRbar
  3  3     8.19352771E-01   # y_t(Q) DRbar
#
BLOCK Yd Q=  5.00075049E+03  # The Yukawa couplings
  1  1     0.00000000E+00   # y_d(Q) DRbar
  2  2     0.00000000E+00   # y_s(Q) DRbar
  3  3     1.30119489E-01   # y_b(Q) DRbar
#
BLOCK Ye Q=  5.00075049E+03  # The Yukawa couplings
  1  1     0.00000000E+00   # y_e(Q) DRbar
  2  2     0.00000000E+00   # y_mu(Q) DRbar
  3  3     9.70206682E-02   # y_tau(Q) DRbar
#
BLOCK MSOFT Q=  5.00075049E+03  # The soft SUSY breaking masses at the scale Q
         1     6.00000000E+01   # M_1(Q)              
         2     3.00000000E+03   # M_2(Q)              
         3     1.48350100E+03   # M_3(Q)              
        21     8.25183063E+06   # mH1^2(Q)            
        22     1.08483171E+05   # mH2^2(Q)            
        31     5.00000000E+03   # meL(Q)              
        32     5.00000000E+03   # mmuL(Q)             
        33     5.00000000E+03   # mtauL(Q)            
        34     5.00000000E+03   # meR(Q)              
        35     5.00000000E+03   # mmuR(Q)             
        36     5.00000000E+03   # mtauR(Q)            
        41     5.00000000E+03   # mqL1(Q)             
        42     5.00000000E+03   # mqL2(Q)             
        43     5.00000000E+03   # mqL3(Q)             
        44     5.00000000E+03   # muR(Q)              
        45     5.00000000E+03   # mcR(Q)              
        46     4.99999999E+03   # mtR(Q)              
        47     5.00000000E+03   # mdR(Q)              
        48     5.00000000E+03   # msR(Q)              
        49     5.00000000E+03   # mbR(Q)              
#
#
#
#                             =================
#                             |The decay table|
#                             =================
#
# - The QCD corrections to the decays gluino -> squark  + quark
#                                     squark -> gaugino + quark_prime
#                                     squark -> squark_prime + Higgs
#                                     squark -> gluino  + quark
#   are included.
#
# - The multi-body decays for the inos, stops and sbottoms are included.
#
# - The loop induced decays for the gluino, neutralinos and stops
#   are included.
#
# - The SUSY decays of the top quark are included.
#
#
#         PDG            Width
DECAY         6     1.40405418E+00   # top decays
#          BR         NDA      ID1       ID2
     1.00000000E+00    2           5        24   # BR(t ->  b    W+)
#
#         PDG            Width
DECAY   1000021     6.17216260E-04   # gluino decays
#          BR         NDA      ID1       ID2
     2.02781156E-06    2     1000022        21   # BR(~g -> ~chi_10 g)
     1.14713926E-02    2     1000023        21   # BR(~g -> ~chi_20 g)
     1.12055673E-02    2     1000025        21   # BR(~g -> ~chi_30 g)
#           BR         NDA      ID1       ID2       ID3
     2.19383059E-02    3     1000022         1        -1   # BR(~g -> ~chi_10 d  db)
     2.35127937E-05    3     1000023         1        -1   # BR(~g -> ~chi_20 d  db)
     2.10088747E-05    3     1000025         1        -1   # BR(~g -> ~chi_30 d  db)
     7.48080496E-02    3     1000022         2        -2   # BR(~g -> ~chi_10 u  ub)
     1.08958836E-04    3     1000023         2        -2   # BR(~g -> ~chi_20 u  ub)
     2.97629971E-05    3     1000025         2        -2   # BR(~g -> ~chi_30 u  ub)
     2.19383059E-02    3     1000022         3        -3   # BR(~g -> ~chi_10 s  sb)
     2.35127937E-05    3     1000023         3        -3   # BR(~g -> ~chi_20 s  sb)
     2.10088747E-05    3     1000025         3        -3   # BR(~g -> ~chi_30 s  sb)
     7.48080496E-02    3     1000022         4        -4   # BR(~g -> ~chi_10 c  cb)
     1.08958836E-04    3     1000023         4        -4   # BR(~g -> ~chi_20 c  cb)
     2.97629971E-05    3     1000025         4        -4   # BR(~g -> ~chi_30 c  cb)
     2.23226667E-02    3     1000022         5        -5   # BR(~g -> ~chi_10 b  bb)
     4.92224917E-03    3     1000023         5        -5   # BR(~g -> ~chi_20 b  bb)
     4.86570615E-03    3     1000025         5        -5   # BR(~g -> ~chi_30 b  bb)
     7.03300027E-02    3     1000022         6        -6   # BR(~g -> ~chi_10 t  tb)
     1.70052856E-01    3     1000023         6        -6   # BR(~g -> ~chi_20 t  tb)
     1.45289675E-01    3     1000025         6        -6   # BR(~g -> ~chi_30 t  tb)
     5.64028032E-05    3     1000024         1        -2   # BR(~g -> ~chi_1+ d  ub)
     5.64028032E-05    3    -1000024         2        -1   # BR(~g -> ~chi_1- u  db)
     5.64028032E-05    3     1000024         3        -4   # BR(~g -> ~chi_1+ s  cb)
     5.64028032E-05    3    -1000024         4        -3   # BR(~g -> ~chi_1- c  sb)
     1.82726523E-01    3     1000024         5        -6   # BR(~g -> ~chi_1+ b  tb)
     1.82726523E-01    3    -1000024         6        -5   # BR(~g -> ~chi_1- t  bb)
#
#         PDG            Width
DECAY   1000006     3.63646829E+02   # stop1 decays
#          BR         NDA      ID1       ID2
     2.42836336E-02    2     1000022         6   # BR(~t_1 -> ~chi_10 t )
     8.77995586E-02    2     1000023         6   # BR(~t_1 -> ~chi_20 t )
     8.38890176E-02    2     1000025         6   # BR(~t_1 -> ~chi_30 t )
     5.65111664E-03    2     1000035         6   # BR(~t_1 -> ~chi_40 t )
     1.27596394E-01    2     1000024         5   # BR(~t_1 -> ~chi_1+ b )
     1.12636059E-02    2     1000037         5   # BR(~t_1 -> ~chi_2+ b )
     6.59516674E-01    2     1000021         6   # BR(~t_1 -> ~g      t )
#
#         PDG            Width
DECAY   2000006     3.68073418E+02   # stop2 decays
#          BR         NDA      ID1       ID2
     9.48474988E-03    2     1000022         6   # BR(~t_2 -> ~chi_10 t )
     8.78549786E-02    2     1000023         6   # BR(~t_2 -> ~chi_20 t )
     9.21499738E-02    2     1000025         6   # BR(~t_2 -> ~chi_30 t )
     1.51305930E-02    2     1000035         6   # BR(~t_2 -> ~chi_40 t )
     5.20547745E-02    2     1000024         5   # BR(~t_2 -> ~chi_1+ b )
     3.01204368E-02    2     1000037         5   # BR(~t_2 -> ~chi_2+ b )
     7.09815482E-01    2     1000021         6   # BR(~t_2 -> ~g      t )
     7.76829912E-04    2     1000006        25   # BR(~t_2 -> ~t_1    h )
     2.61218142E-03    2     1000006        23   # BR(~t_2 -> ~t_1    Z )
#
#         PDG            Width
DECAY   1000005     3.43671596E+02   # sbottom1 decays
#          BR         NDA      ID1       ID2
     2.25051423E-03    2     1000022         5   # BR(~b_1 -> ~chi_10 b )
     2.37425835E-03    2     1000023         5   # BR(~b_1 -> ~chi_20 b )
     2.34459519E-03    2     1000025         5   # BR(~b_1 -> ~chi_30 b )
     2.19855337E-02    2     1000035         5   # BR(~b_1 -> ~chi_40 b )
     1.87685778E-01    2    -1000024         6   # BR(~b_1 -> ~chi_1- t )
     4.41508363E-02    2    -1000037         6   # BR(~b_1 -> ~chi_2- t )
     7.37575732E-01    2     1000021         5   # BR(~b_1 -> ~g      b )
     1.63275184E-03    2     1000006       -24   # BR(~b_1 -> ~t_1    W-)
#
#         PDG            Width
DECAY   2000005     2.62581691E+02   # sbottom2 decays
#          BR         NDA      ID1       ID2
     1.11903825E-02    2     1000022         5   # BR(~b_2 -> ~chi_10 b )
     3.16050349E-03    2     1000023         5   # BR(~b_2 -> ~chi_20 b )
     3.21964075E-03    2     1000025         5   # BR(~b_2 -> ~chi_30 b )
     1.03654713E-04    2     1000035         5   # BR(~b_2 -> ~chi_40 b )
     7.11516629E-03    2    -1000024         6   # BR(~b_2 -> ~chi_1- t )
     2.08153304E-04    2    -1000037         6   # BR(~b_2 -> ~chi_2- t )
     9.74970225E-01    2     1000021         5   # BR(~b_2 -> ~g      b )
     3.22744661E-05    2     1000006       -24   # BR(~b_2 -> ~t_1    W-)
#
#         PDG            Width
DECAY   1000002     2.81799741E+02   # sup_L decays
#          BR         NDA      ID1       ID2
     2.64550030E-03    2     1000022         2   # BR(~u_L -> ~chi_10 u)
     5.70240802E-05    2     1000023         2   # BR(~u_L -> ~chi_20 u)
     3.45145297E-06    2     1000025         2   # BR(~u_L -> ~chi_30 u)
     2.78759243E-02    2     1000035         2   # BR(~u_L -> ~chi_40 u)
     1.80292021E-04    2     1000024         1   # BR(~u_L -> ~chi_1+ d)
     5.57162671E-02    2     1000037         1   # BR(~u_L -> ~chi_2+ d)
     9.13521541E-01    2     1000021         2   # BR(~u_L -> ~g      u)
#
#         PDG            Width
DECAY   2000002     2.67921385E+02   # sup_R decays
#          BR         NDA      ID1       ID2
     4.42645309E-02    2     1000022         2   # BR(~u_R -> ~chi_10 u)
     8.34100155E-05    2     1000023         2   # BR(~u_R -> ~chi_20 u)
     8.93830486E-05    2     1000025         2   # BR(~u_R -> ~chi_30 u)
     2.69884092E-09    2     1000035         2   # BR(~u_R -> ~chi_40 u)
     9.55562673E-01    2     1000021         2   # BR(~u_R -> ~g      u)
#
#         PDG            Width
DECAY   1000001     2.81812491E+02   # sdown_L decays
#          BR         NDA      ID1       ID2
     2.63376620E-03    2     1000022         1   # BR(~d_L -> ~chi_10 d)
     9.55116878E-06    2     1000023         1   # BR(~d_L -> ~chi_20 d)
     4.19383323E-05    2     1000025         1   # BR(~d_L -> ~chi_30 d)
     2.78918204E-02    2     1000035         1   # BR(~d_L -> ~chi_40 d)
     2.66553972E-06    2    -1000024         2   # BR(~d_L -> ~chi_1- u)
     5.58050817E-02    2    -1000037         2   # BR(~d_L -> ~chi_2- u)
     9.13615177E-01    2     1000021         1   # BR(~d_L -> ~g      d)
#
#         PDG            Width
DECAY   2000001     2.59015877E+02   # sdown_R decays
#          BR         NDA      ID1       ID2
     1.14472831E-02    2     1000022         1   # BR(~d_R -> ~chi_10 d)
     2.15708204E-05    2     1000023         1   # BR(~d_R -> ~chi_20 d)
     2.31155184E-05    2     1000025         1   # BR(~d_R -> ~chi_30 d)
     6.98043905E-10    2     1000035         1   # BR(~d_R -> ~chi_40 d)
     9.88508030E-01    2     1000021         1   # BR(~d_R -> ~g      d)
#
#         PDG            Width
DECAY   1000004     2.81799741E+02   # scharm_L decays
#          BR         NDA      ID1       ID2
     2.64550030E-03    2     1000022         4   # BR(~c_L -> ~chi_10 c)
     5.70240802E-05    2     1000023         4   # BR(~c_L -> ~chi_20 c)
     3.45145297E-06    2     1000025         4   # BR(~c_L -> ~chi_30 c)
     2.78759243E-02    2     1000035         4   # BR(~c_L -> ~chi_40 c)
     1.80292021E-04    2     1000024         3   # BR(~c_L -> ~chi_1+ s)
     5.57162671E-02    2     1000037         3   # BR(~c_L -> ~chi_2+ s)
     9.13521541E-01    2     1000021         4   # BR(~c_L -> ~g      c)
#
#         PDG            Width
DECAY   2000004     2.67921385E+02   # scharm_R decays
#          BR         NDA      ID1       ID2
     4.42645309E-02    2     1000022         4   # BR(~c_R -> ~chi_10 c)
     8.34100155E-05    2     1000023         4   # BR(~c_R -> ~chi_20 c)
     8.93830486E-05    2     1000025         4   # BR(~c_R -> ~chi_30 c)
     2.69884092E-09    2     1000035         4   # BR(~c_R -> ~chi_40 c)
     9.55562673E-01    2     1000021         4   # BR(~c_R -> ~g      c)
#
#         PDG            Width
DECAY   1000003     2.81812491E+02   # sstrange_L decays
#          BR         NDA      ID1       ID2
     2.63376620E-03    2     1000022         3   # BR(~s_L -> ~chi_10 s)
     9.55116878E-06    2     1000023         3   # BR(~s_L -> ~chi_20 s)
     4.19383323E-05    2     1000025         3   # BR(~s_L -> ~chi_30 s)
     2.78918204E-02    2     1000035         3   # BR(~s_L -> ~chi_40 s)
     2.66553972E-06    2    -1000024         4   # BR(~s_L -> ~chi_1- c)
     5.58050817E-02    2    -1000037         4   # BR(~s_L -> ~chi_2- c)
     9.13615177E-01    2     1000021         3   # BR(~s_L -> ~g      s)
#
#         PDG            Width
DECAY   2000003     2.59015877E+02   # sstrange_R decays
#          BR         NDA      ID1       ID2
     1.14472831E-02    2     1000022         3   # BR(~s_R -> ~chi_10 s)
     2.15708204E-05    2     1000023         3   # BR(~s_R -> ~chi_20 s)
     2.31155184E-05    2     1000025         3   # BR(~s_R -> ~chi_30 s)
     6.98043905E-10    2     1000035         3   # BR(~s_R -> ~chi_40 s)
     9.88508030E-01    2     1000021         3   # BR(~s_R -> ~g      s)
#
#         PDG            Width
DECAY   1000011     3.03047585E+01   # selectron_L decays
#          BR         NDA      ID1       ID2
     2.25804209E-01    2     1000022        11   # BR(~e_L -> ~chi_10 e-)
     1.36814599E-03    2     1000023        11   # BR(~e_L -> ~chi_20 e-)
     7.22339562E-05    2     1000025        11   # BR(~e_L -> ~chi_30 e-)
     2.57406799E-01    2     1000035        11   # BR(~e_L -> ~chi_40 e-)
     2.52714427E-05    2    -1000024        12   # BR(~e_L -> ~chi_1- nu_e)
     5.15323341E-01    2    -1000037        12   # BR(~e_L -> ~chi_2- nu_e)
#
#         PDG            Width
DECAY   2000011     2.73858541E+01   # selectron_R decays
#          BR         NDA      ID1       ID2
     9.96118073E-01    2     1000022        11   # BR(~e_R -> ~chi_10 e-)
     1.87384720E-03    2     1000023        11   # BR(~e_R -> ~chi_20 e-)
     2.00802038E-03    2     1000025        11   # BR(~e_R -> ~chi_30 e-)
     5.91673150E-08    2     1000035        11   # BR(~e_R -> ~chi_40 e-)
#
#         PDG            Width
DECAY   1000013     3.03047585E+01   # smuon_L decays
#          BR         NDA      ID1       ID2
     2.25804209E-01    2     1000022        13   # BR(~mu_L -> ~chi_10 mu-)
     1.36814599E-03    2     1000023        13   # BR(~mu_L -> ~chi_20 mu-)
     7.22339562E-05    2     1000025        13   # BR(~mu_L -> ~chi_30 mu-)
     2.57406799E-01    2     1000035        13   # BR(~mu_L -> ~chi_40 mu-)
     2.52714427E-05    2    -1000024        14   # BR(~mu_L -> ~chi_1- nu_mu)
     5.15323341E-01    2    -1000037        14   # BR(~mu_L -> ~chi_2- nu_mu)
#
#         PDG            Width
DECAY   2000013     2.73858541E+01   # smuon_R decays
#          BR         NDA      ID1       ID2
     9.96118073E-01    2     1000022        13   # BR(~mu_R -> ~chi_10 mu-)
     1.87384720E-03    2     1000023        13   # BR(~mu_R -> ~chi_20 mu-)
     2.00802038E-03    2     1000025        13   # BR(~mu_R -> ~chi_30 mu-)
     5.91673150E-08    2     1000035        13   # BR(~mu_R -> ~chi_40 mu-)
#
#         PDG            Width
DECAY   1000015     2.91970818E+01   # stau_1 decays
#          BR         NDA      ID1       ID2
     9.30626257E-01    2     1000022        15   # BR(~tau_1 -> ~chi_10  tau-)
     1.70527648E-02    2     1000023        15   # BR(~tau_1 -> ~chi_20  tau-)
     1.65300009E-02    2     1000025        15   # BR(~tau_1 -> ~chi_30  tau-)
     1.66215107E-03    2     1000035        15   # BR(~tau_1 -> ~chi_40  tau-)
     3.08014275E-02    2    -1000024        16   # BR(~tau_1 -> ~chi_1-  nu_tau)
     3.32739922E-03    2    -1000037        16   # BR(~tau_1 -> ~chi_2-  nu_tau)
#
#         PDG            Width
DECAY   2000015     3.11840998E+01   # stau_2 decays
#          BR         NDA      ID1       ID2
     2.22920521E-01    2     1000022        15   # BR(~tau_2 -> ~chi_10  tau-)
     1.58584674E-02    2     1000023        15   # BR(~tau_2 -> ~chi_20  tau-)
     1.51345600E-02    2     1000025        15   # BR(~tau_2 -> ~chi_30  tau-)
     2.48506191E-01    2     1000035        15   # BR(~tau_2 -> ~chi_40  tau-)
     7.51400280E-05    2    -1000024        16   # BR(~tau_2 -> ~chi_1-  nu_tau)
     4.97505120E-01    2    -1000037        16   # BR(~tau_2 -> ~chi_2-  nu_tau)
#
#         PDG            Width
DECAY   1000012     3.03078520E+01   # snu_eL decays
#          BR         NDA      ID1       ID2
     2.25400469E-01    2     1000022        12   # BR(~nu_eL -> ~chi_10 nu_e)
     1.78059104E-05    2     1000023        12   # BR(~nu_eL -> ~chi_20 nu_e)
     1.16652188E-03    2     1000025        12   # BR(~nu_eL -> ~chi_30 nu_e)
     2.57450469E-01    2     1000035        12   # BR(~nu_eL -> ~chi_40 nu_e)
     1.70888499E-03    2     1000024        11   # BR(~nu_eL -> ~chi_1+ e-)
     5.14255850E-01    2     1000037        11   # BR(~nu_eL -> ~chi_2+ e-)
#
#         PDG            Width
DECAY   1000014     3.03078520E+01   # snu_muL decays
#          BR         NDA      ID1       ID2
     2.25400469E-01    2     1000022        14   # BR(~nu_muL -> ~chi_10 nu_mu)
     1.78059104E-05    2     1000023        14   # BR(~nu_muL -> ~chi_20 nu_mu)
     1.16652188E-03    2     1000025        14   # BR(~nu_muL -> ~chi_30 nu_mu)
     2.57450469E-01    2     1000035        14   # BR(~nu_muL -> ~chi_40 nu_mu)
     1.70888499E-03    2     1000024        13   # BR(~nu_muL -> ~chi_1+ mu-)
     5.14255850E-01    2     1000037        13   # BR(~nu_muL -> ~chi_2+ mu-)
#
#         PDG            Width
DECAY   1000016     3.12017878E+01   # snu_tauL decays
#          BR         NDA      ID1       ID2
     2.18918721E-01    2     1000022        16   # BR(~nu_tauL -> ~chi_10 nu_tau)
     1.72937239E-05    2     1000023        16   # BR(~nu_tauL -> ~chi_20 nu_tau)
     1.13296685E-03    2     1000025        16   # BR(~nu_tauL -> ~chi_30 nu_tau)
     2.49981276E-01    2     1000035        16   # BR(~nu_tauL -> ~chi_40 nu_tau)
     3.06141458E-02    2     1000024        15   # BR(~nu_tauL -> ~chi_1+ tau-)
     4.99335596E-01    2     1000037        15   # BR(~nu_tauL -> ~chi_2+ tau-)
#
#         PDG            Width
DECAY   1000024     4.20486332E-01   # chargino1+ decays
#          BR         NDA      ID1       ID2
     1.00000000E+00    2     1000022        24   # BR(~chi_1+ -> ~chi_10  W+)
#
#         PDG            Width
DECAY   1000037     2.14640209E+01   # chargino2+ decays
#          BR         NDA      ID1       ID2
     2.53436015E-01    2     1000024        23   # BR(~chi_2+ -> ~chi_1+  Z )
     1.77975018E-04    2     1000022        24   # BR(~chi_2+ -> ~chi_10  W+)
     2.44574421E-01    2     1000023        24   # BR(~chi_2+ -> ~chi_20  W+)
     2.44282466E-01    2     1000025        24   # BR(~chi_2+ -> ~chi_30  W+)
     2.57526557E-01    2     1000024        25   # BR(~chi_2+ -> ~chi_1+  h )
     2.56569197E-06    2     1000022        37   # BR(~chi_2+ -> ~chi_10  H+)
#
#         PDG            Width
DECAY   1000022     0.00000000E+00   # neutralino1 decays
#
#         PDG            Width
DECAY   1000023     4.34212849E-01   # neutralino2 decays
#          BR         NDA      ID1       ID2
     5.22407329E-01    2     1000022        23   # BR(~chi_20 -> ~chi_10   Z )
     4.77592671E-01    2     1000022        25   # BR(~chi_20 -> ~chi_10   h )
#
#         PDG            Width
DECAY   1000025     4.32086314E-01   # neutralino3 decays
#          BR         NDA      ID1       ID2
     4.83907160E-01    2     1000022        23   # BR(~chi_30 -> ~chi_10   Z )
     5.16092840E-01    2     1000022        25   # BR(~chi_30 -> ~chi_10   h )
#
#         PDG            Width
DECAY   1000035     2.14791128E+01   # neutralino4 decays
#          BR         NDA      ID1       ID2
     2.28875571E-05    2     1000022        23   # BR(~chi_40 -> ~chi_10   Z )
     9.62846955E-02    2     1000023        23   # BR(~chi_40 -> ~chi_20   Z )
     1.56542866E-01    2     1000025        23   # BR(~chi_40 -> ~chi_30   Z )
     2.45025548E-01    2     1000024       -24   # BR(~chi_40 -> ~chi_1+   W-)
     2.45025548E-01    2    -1000024        24   # BR(~chi_40 -> ~chi_1-   W+)
     1.52127728E-04    2     1000022        25   # BR(~chi_40 -> ~chi_10   h )
     2.45132526E-06    2     1000022        35   # BR(~chi_40 -> ~chi_10   H )
     2.79378945E-07    2     1000022        36   # BR(~chi_40 -> ~chi_10   A )
     1.60384416E-01    2     1000023        25   # BR(~chi_40 -> ~chi_20   h )
     9.65591800E-02    2     1000025        25   # BR(~chi_40 -> ~chi_30   h )
#
#         PDG            Width
DECAY        25     4.06129733E-03   # h decays
#          BR         NDA      ID1       ID2
     6.10182444E-01    2           5        -5   # BR(h -> b       bb     )
     6.38362446E-02    2         -15        15   # BR(h -> tau+    tau-   )
     2.26003784E-04    2         -13        13   # BR(h -> mu+     mu-    )
     4.79159956E-04    2           3        -3   # BR(h -> s       sb     )
     2.07618527E-02    2           4        -4   # BR(h -> c       cb     )
     6.70897174E-02    2          21        21   # BR(h -> g       g      )
     2.30492737E-03    2          22        22   # BR(h -> gam     gam    )
     1.48121598E-03    2          22        23   # BR(h -> Z       gam    )
     2.08719434E-01    2          24       -24   # BR(h -> W+      W-     )
     2.48407787E-02    2          23        23   # BR(h -> Z       Z      )
     7.82212386E-05    2     1000022   1000022   # BR(h -> ~chi_10 ~chi_10)
#
#         PDG            Width
DECAY        35     8.48011977E+00   # H decays
#          BR         NDA      ID1       ID2
     3.78116456E-01    2           5        -5   # BR(H -> b       bb     )
     6.56987165E-02    2         -15        15   # BR(H -> tau+    tau-   )
     2.32315880E-04    2         -13        13   # BR(H -> mu+     mu-    )
     2.84783641E-04    2           3        -3   # BR(H -> s       sb     )
     1.59294799E-06    2           4        -4   # BR(H -> c       cb     )
     1.59148123E-01    2           6        -6   # BR(H -> t       tb     )
     5.29083252E-05    2          21        21   # BR(H -> g       g      )
     1.84797195E-07    2          22        22   # BR(H -> gam     gam    )
     9.39272863E-08    2          23        22   # BR(H -> Z       gam    )
     7.47550649E-05    2          24       -24   # BR(H -> W+      W-     )
     3.73302159E-05    2          23        23   # BR(H -> Z       Z      )
     2.74033014E-04    2          25        25   # BR(H -> h       h      )
    -9.78693441E-24    2          36        36   # BR(H -> A       A      )
     9.15696417E-19    2          23        36   # BR(H -> Z       A      )
     2.81436965E-03    2     1000024  -1000024   # BR(H -> ~chi_1+ ~chi_1-)
     3.48103064E-03    2     1000022   1000022   # BR(H -> ~chi_10 ~chi_10)
     1.48466901E-05    2     1000023   1000023   # BR(H -> ~chi_20 ~chi_20)
     1.35578683E-03    2     1000025   1000025   # BR(H -> ~chi_30 ~chi_30)
     2.33783087E-01    2     1000022   1000023   # BR(H -> ~chi_10 ~chi_20)
     1.53109154E-01    2     1000022   1000025   # BR(H -> ~chi_10 ~chi_30)
     1.52043247E-03    2     1000023   1000025   # BR(H -> ~chi_20 ~chi_30)
#
#         PDG            Width
DECAY        36     8.49014122E+00   # A decays
#          BR         NDA      ID1       ID2
     3.77798686E-01    2           5        -5   # BR(A -> b       bb     )
     6.56231242E-02    2         -15        15   # BR(A -> tau+    tau-   )
     2.32048255E-04    2         -13        13   # BR(A -> mu+     mu-    )
     2.84663486E-04    2           3        -3   # BR(A -> s       sb     )
     1.59750345E-06    2           4        -4   # BR(A -> c       cb     )
     1.59515187E-01    2           6        -6   # BR(A -> t       tb     )
     1.57857657E-04    2          21        21   # BR(A -> g       g      )
     5.99831269E-07    2          22        22   # BR(A -> gam     gam    )
     1.91110403E-07    2          23        22   # BR(A -> Z       gam    )
     7.43847626E-05    2          23        25   # BR(A -> Z       h      )
     3.41366995E-03    2     1000024  -1000024   # BR(A -> ~chi_1+ ~chi_1-)
     3.50898164E-03    2     1000022   1000022   # BR(A -> ~chi_10 ~chi_10)
     1.23979720E-05    2     1000023   1000023   # BR(A -> ~chi_20 ~chi_20)
     2.65485287E-03    2     1000025   1000025   # BR(A -> ~chi_30 ~chi_30)
     1.55733955E-01    2     1000022   1000023   # BR(A -> ~chi_10 ~chi_20)
     2.30158251E-01    2     1000022   1000025   # BR(A -> ~chi_10 ~chi_30)
     8.29552584E-04    2     1000023   1000025   # BR(A -> ~chi_20 ~chi_30)
#
#         PDG            Width
DECAY        37     8.43835943E+00   # H+ decays
#          BR         NDA      ID1       ID2
     6.06592591E-04    2           4        -5   # BR(H+ -> c       bb     )
     6.60561602E-02    2         -15        16   # BR(H+ -> tau+    nu_tau )
     2.33579503E-04    2         -13        14   # BR(H+ -> mu+     nu_mu  )
     3.88217232E-06    2           2        -5   # BR(H+ -> u       bb     )
     1.37056604E-05    2           2        -3   # BR(H+ -> u       sb     )
     2.83433782E-04    2           4        -3   # BR(H+ -> c       sb     )
     5.36290505E-01    2           6        -5   # BR(H+ -> t       bb     )
     7.49927248E-05    2          24        25   # BR(H+ -> W+      h      )
     7.75479938E-13    2          24        36   # BR(H+ -> W+      A      )
     3.94511869E-01    2     1000024   1000022   # BR(H+ -> ~chi_1+ ~chi_10)
     1.87079053E-03    2     1000024   1000023   # BR(H+ -> ~chi_1+ ~chi_20)
     5.44885701E-05    2     1000024   1000025   # BR(H+ -> ~chi_1+ ~chi_30)
