#
#                              ======================
#                              | THE SUSYHIT OUTPUT |
#                              ======================
#
#
#              ------------------------------------------------------
#              |     This is the output of the SUSY-HIT package     |
#              |  created by A.Djouadi, M.Muehlleitner and M.Spira. |
#              |  In case of problems with SUSY-HIT email to        |
#              |           margarete.muehlleitner@cern.ch           |
#              |           michael.spira@psi.ch                     |
#              |           abdelhak.djouadi@cern.ch                 |
#              ------------------------------------------------------
#
#              ------------------------------------------------------
#              |  SUSY Les Houches Accord - MSSM Spectrum + Decays  |
#              |              based on the decay programs           |
#              |                                                    |
#              |                     SDECAY 1.3b                    |
#              |                                                    |
#              |  Authors: M.Muhlleitner, A.Djouadi and Y.Mambrini  |
#              |  Ref.:    Comput.Phys.Commun.168(2005)46           |
#              |           [hep-ph/0311167]                         |
#              |                                                    |
#              |                     HDECAY 3.4                     |
#              |                                                    |
#              |  By: A.Djouadi,J.Kalinowski,M.Muhlleitner,M.Spira  |
#              |  Ref.:    Comput.Phys.Commun.108(1998)56           |
#              |           [hep-ph/9704448]                         |
#              |                                                    |
#              |                                                    |
#              |  If not stated otherwise all DRbar couplings and   |
#              |  soft SUSY breaking masses are given at the scale  |
#              |  Q=  0.50007424E+04
#              |                                                    |
#              ------------------------------------------------------
#
#
BLOCK DCINFO  # Decay Program information
     1   SDECAY/HDECAY # decay calculator
     2   1.3b  /3.4    # version number
#
BLOCK SPINFO  # Spectrum calculator information
     1    SOFTSUSY    # spectrum calculator                
     2    3.4.0       # version number                     
#
BLOCK MODSEL  # Model selection
     1     0   #  nonUniversal                                     
#
BLOCK SMINPUTS  # Standard Model inputs
         1     1.25778332E+02   # alpha_em^-1(M_Z)^MSbar
         2     1.16570000E-05   # G_F [GeV^-2]
         3     1.17200002E-01   # alpha_S(M_Z)^MSbar
         4     9.11876000E+01   # M_Z pole mass
         5     4.25000000E+00   # mb(mb)^MSbar
         6     1.72500000E+02   # mt pole mass
         7     1.77682000E+00   # mtau pole mass
#
BLOCK MINPAR  # Input parameters - minimal models
         3     1.00000000E+01   # tanb                
#
BLOCK EXTPAR  # Input parameters - non-minimal models
         0    -1.00000000E+00   # Set                 
         1     6.00000000E+01   # M_1(MX)             
         2     3.00000000E+03   # M_2(MX)             
         3     1.48350200E+03   # M_3(MX)             
        11     5.00000000E+03   # At(MX)              
        12     5.00000000E+03   # Ab(MX)              
        13     0.00000000E+00   # Atau(MX)            
        23    -8.61903000E+02   # mu(MX)              
        26     3.00000000E+03   # mA(pole)            
        31     5.00000000E+03   # meL(MX)             
        32     5.00000000E+03   # mmuL(MX)            
        33     5.00000000E+03   # mtauL(MX)           
        34     5.00000000E+03   # meR(MX)             
        35     5.00000000E+03   # mmuR(MX)            
        36     5.00000000E+03   # mtauR(MX)           
        41     5.00000000E+03   # mqL1(MX)            
        42     5.00000000E+03   # mqL2(MX)            
        43     5.00000000E+03   # mqL3(MX)            
        44     5.00000000E+03   # muR(MX)             
        45     5.00000000E+03   # mcR(MX)             
        46     5.00000000E+03   # mtR(MX)             
        47     5.00000000E+03   # mdR(MX)             
        48     5.00000000E+03   # msR(MX)             
        49     5.00000000E+03   # mbR(MX)             
#
BLOCK MASS  # Mass Spectrum
# PDG code           mass       particle
        24     8.00944716E+01   # W+
        25     1.24718208E+02   # h
        35     3.00007631E+03   # H
        36     2.99998395E+03   # A
        37     3.00135215E+03   # H+
         5     4.87878001E+00   # b-quark pole mass calculated from mb(mb)_Msbar
   1000001     5.06951986E+03   # ~d_L
   2000001     5.05170250E+03   # ~d_R
   1000002     5.06904519E+03   # ~u_L
   2000002     5.05141392E+03   # ~u_R
   1000003     5.06951986E+03   # ~s_L
   2000003     5.05170250E+03   # ~s_R
   1000004     5.06904519E+03   # ~c_L
   2000004     5.05141392E+03   # ~c_R
   1000005     5.01532371E+03   # ~b_1
   2000005     5.05016877E+03   # ~b_2
   1000006     4.90609590E+03   # ~t_1
   2000006     5.06030366E+03   # ~t_2
   1000011     5.01907705E+03   # ~e_L
   2000011     5.00592773E+03   # ~e_R
   1000012     5.01812813E+03   # ~nu_eL
   1000013     5.01907705E+03   # ~mu_L
   2000013     5.00592773E+03   # ~mu_R
   1000014     5.01812813E+03   # ~nu_muL
   1000015     5.00465129E+03   # ~tau_1
   2000015     5.01873042E+03   # ~tau_2
   1000016     5.01758080E+03   # ~nu_tauL
   1000021     1.80000042E+03   # ~g
   1000022     6.02944936E+01   # ~chi_10
   1000023     8.99733645E+02   # ~chi_20
   1000025    -9.01973367E+02   # ~chi_30
   1000035     3.07423469E+03   # ~chi_40
   1000024     9.00000249E+02   # ~chi_1+
   1000037     3.07440218E+03   # ~chi_2+
#
BLOCK NMIX  # Neutralino Mixing Matrix
  1  1     9.98775565E-01   # N_11
  1  2     1.95987430E-04   # N_12
  1  3    -4.94362907E-02   # N_13
  1  4     1.84016580E-03   # N_14
  2  1     3.36672556E-02   # N_21
  2  2     2.24258043E-02   # N_22
  2  3     7.06575438E-01   # N_23
  2  4     7.06480538E-01   # N_24
  3  1    -3.62454134E-02   # N_31
  3  2     1.52907132E-02   # N_32
  3  3    -7.05890757E-01   # N_33
  3  4     7.07227476E-01   # N_34
  4  1    -3.96690680E-04   # N_41
  4  2     9.99631552E-01   # N_42
  4  3    -5.04411897E-03   # N_43
  4  4    -2.66675931E-02   # N_44
#
BLOCK UMIX  # Chargino Mixing Matrix U
  1  1     7.14584235E-03   # U_11
  1  2     9.99974468E-01   # U_12
  2  1    -9.99974468E-01   # U_21
  2  2     7.14584235E-03   # U_22
#
BLOCK VMIX  # Chargino Mixing Matrix V
  1  1     3.77430099E-02   # V_11
  1  2    -9.99287479E-01   # V_12
  2  1    -9.99287479E-01   # V_21
  2  2    -3.77430099E-02   # V_22
#
BLOCK STOPMIX  # Stop Mixing Matrix
  1  1    -5.06919584E-01   # cos(theta_t)
  1  2     8.61993350E-01   # sin(theta_t)
  2  1    -8.61993350E-01   # -sin(theta_t)
  2  2    -5.06919584E-01   # cos(theta_t)
#
BLOCK SBOTMIX  # Sbottom Mixing Matrix
  1  1     9.97476546E-01   # cos(theta_b)
  1  2    -7.09967618E-02   # sin(theta_b)
  2  1     7.09967618E-02   # -sin(theta_b)
  2  2     9.97476546E-01   # cos(theta_b)
#
BLOCK STAUMIX  # Stau Mixing Matrix
  1  1    -1.02681729E-01   # cos(theta_tau)
  1  2     9.94714262E-01   # sin(theta_tau)
  2  1    -9.94714262E-01   # -sin(theta_tau)
  2  2    -1.02681729E-01   # cos(theta_tau)
#
BLOCK ALPHA  # Higgs mixing
          -1.05470465E-01   # Mixing angle in the neutral Higgs boson sector
#
BLOCK HMIX Q=  5.00074238E+03  # DRbar Higgs Parameters
         1    -8.77627631E+02   # mu(Q)MSSM           
         2     9.47022964E+00   # tan                 
         3     2.41840647E+02   # higgs               
         4     8.54447499E+06   # mA^2(Q)MSSM         
#
BLOCK GAUGE Q=  5.00074238E+03  # The gauge couplings
     1     3.70825586E-01   # gprime(Q) DRbar
     2     6.32682868E-01   # g(Q) DRbar
     3     1.00004645E+00   # g3(Q) DRbar
#
BLOCK AU Q=  5.00074238E+03  # The trilinear couplings
  1  1     5.00000001E+03   # A_u(Q) DRbar
  2  2     5.00000001E+03   # A_c(Q) DRbar
  3  3     5.00000002E+03   # A_t(Q) DRbar
#
BLOCK AD Q=  5.00074238E+03  # The trilinear couplings
  1  1     5.00000001E+03   # A_d(Q) DRbar
  2  2     5.00000001E+03   # A_s(Q) DRbar
  3  3     5.00000001E+03   # A_b(Q) DRbar
#
BLOCK AE Q=  5.00074238E+03  # The trilinear couplings
  1  1     0.00000000E+00   # A_e(Q) DRbar
  2  2     1.43504926E-07   # A_mu(Q) DRbar
  3  3     1.43022457E-07   # A_tau(Q) DRbar
#
BLOCK Yu Q=  5.00074238E+03  # The Yukawa couplings
  1  1     0.00000000E+00   # y_u(Q) DRbar
  2  2     0.00000000E+00   # y_c(Q) DRbar
  3  3     8.19227769E-01   # y_t(Q) DRbar
#
BLOCK Yd Q=  5.00074238E+03  # The Yukawa couplings
  1  1     0.00000000E+00   # y_d(Q) DRbar
  2  2     0.00000000E+00   # y_s(Q) DRbar
  3  3     1.30337199E-01   # y_b(Q) DRbar
#
BLOCK Ye Q=  5.00074238E+03  # The Yukawa couplings
  1  1     0.00000000E+00   # y_e(Q) DRbar
  2  2     0.00000000E+00   # y_mu(Q) DRbar
  3  3     9.69091829E-02   # y_tau(Q) DRbar
#
BLOCK MSOFT Q=  5.00074238E+03  # The soft SUSY breaking masses at the scale Q
         1     6.00000000E+01   # M_1(Q)              
         2     3.00000000E+03   # M_2(Q)              
         3     1.48350200E+03   # M_3(Q)              
        21     7.93224224E+06   # mH1^2(Q)            
        22    -2.03925905E+05   # mH2^2(Q)            
        31     5.00000000E+03   # meL(Q)              
        32     5.00000000E+03   # mmuL(Q)             
        33     5.00000000E+03   # mtauL(Q)            
        34     5.00000000E+03   # meR(Q)              
        35     5.00000000E+03   # mmuR(Q)             
        36     5.00000000E+03   # mtauR(Q)            
        41     5.00000000E+03   # mqL1(Q)             
        42     5.00000000E+03   # mqL2(Q)             
        43     5.00000000E+03   # mqL3(Q)             
        44     5.00000000E+03   # muR(Q)              
        45     5.00000000E+03   # mcR(Q)              
        46     4.99999999E+03   # mtR(Q)              
        47     5.00000000E+03   # mdR(Q)              
        48     5.00000000E+03   # msR(Q)              
        49     5.00000000E+03   # mbR(Q)              
#
#
#
#                             =================
#                             |The decay table|
#                             =================
#
# - The QCD corrections to the decays gluino -> squark  + quark
#                                     squark -> gaugino + quark_prime
#                                     squark -> squark_prime + Higgs
#                                     squark -> gluino  + quark
#   are included.
#
# - The multi-body decays for the inos, stops and sbottoms are included.
#
# - The loop induced decays for the gluino, neutralinos and stops
#   are included.
#
# - The SUSY decays of the top quark are included.
#
#
#         PDG            Width
DECAY         6     1.40276671E+00   # top decays
#          BR         NDA      ID1       ID2
     1.00000000E+00    2           5        24   # BR(t ->  b    W+)
#
#         PDG            Width
DECAY   1000021     3.77458517E-04   # gluino decays
#          BR         NDA      ID1       ID2
     4.12086411E-06    2     1000022        21   # BR(~g -> ~chi_10 g)
     1.30382355E-02    2     1000023        21   # BR(~g -> ~chi_20 g)
     1.27878652E-02    2     1000025        21   # BR(~g -> ~chi_30 g)
#           BR         NDA      ID1       ID2       ID3
     3.59215594E-02    3     1000022         1        -1   # BR(~g -> ~chi_10 d  db)
     1.85025615E-05    3     1000023         1        -1   # BR(~g -> ~chi_20 d  db)
     1.15627424E-05    3     1000025         1        -1   # BR(~g -> ~chi_30 d  db)
     1.22481700E-01    3     1000022         2        -2   # BR(~g -> ~chi_10 u  ub)
     6.69476305E-05    3     1000023         2        -2   # BR(~g -> ~chi_20 u  ub)
     1.44878431E-05    3     1000025         2        -2   # BR(~g -> ~chi_30 u  ub)
     3.59215594E-02    3     1000022         3        -3   # BR(~g -> ~chi_10 s  sb)
     1.85025615E-05    3     1000023         3        -3   # BR(~g -> ~chi_20 s  sb)
     1.15627424E-05    3     1000025         3        -3   # BR(~g -> ~chi_30 s  sb)
     1.22481700E-01    3     1000022         4        -4   # BR(~g -> ~chi_10 c  cb)
     6.69476305E-05    3     1000023         4        -4   # BR(~g -> ~chi_20 c  cb)
     1.44878431E-05    3     1000025         4        -4   # BR(~g -> ~chi_30 c  cb)
     3.64610601E-02    3     1000022         5        -5   # BR(~g -> ~chi_10 b  bb)
     3.95031879E-03    3     1000023         5        -5   # BR(~g -> ~chi_20 b  bb)
     3.88809029E-03    3     1000025         5        -5   # BR(~g -> ~chi_30 b  bb)
     1.15293414E-01    3     1000022         6        -6   # BR(~g -> ~chi_10 t  tb)
     1.24005490E-01    3     1000023         6        -6   # BR(~g -> ~chi_20 t  tb)
     9.82505467E-02    3     1000025         6        -6   # BR(~g -> ~chi_30 t  tb)
     5.13948056E-05    3     1000024         1        -2   # BR(~g -> ~chi_1+ d  ub)
     5.13948056E-05    3    -1000024         2        -1   # BR(~g -> ~chi_1- u  db)
     5.13948056E-05    3     1000024         3        -4   # BR(~g -> ~chi_1+ s  cb)
     5.13948056E-05    3    -1000024         4        -3   # BR(~g -> ~chi_1- c  sb)
     1.37542880E-01    3     1000024         5        -6   # BR(~g -> ~chi_1+ b  tb)
     1.37542880E-01    3    -1000024         6        -5   # BR(~g -> ~chi_1- t  bb)
#
#         PDG            Width
DECAY   1000006     3.60539588E+02   # stop1 decays
#          BR         NDA      ID1       ID2
     2.45210975E-02    2     1000022         6   # BR(~t_1 -> ~chi_10 t )
     8.58745403E-02    2     1000023         6   # BR(~t_1 -> ~chi_20 t )
     8.24081768E-02    2     1000025         6   # BR(~t_1 -> ~chi_30 t )
     5.74746424E-03    2     1000035         6   # BR(~t_1 -> ~chi_40 t )
     1.24832612E-01    2     1000024         5   # BR(~t_1 -> ~chi_1+ b )
     1.14525474E-02    2     1000037         5   # BR(~t_1 -> ~chi_2+ b )
     6.65163562E-01    2     1000021         6   # BR(~t_1 -> ~g      t )
#
#         PDG            Width
DECAY   2000006     3.66021947E+02   # stop2 decays
#          BR         NDA      ID1       ID2
     9.55424276E-03    2     1000022         6   # BR(~t_2 -> ~chi_10 t )
     8.63380344E-02    2     1000023         6   # BR(~t_2 -> ~chi_20 t )
     9.01005092E-02    2     1000025         6   # BR(~t_2 -> ~chi_30 t )
     1.51547591E-02    2     1000035         6   # BR(~t_2 -> ~chi_40 t )
     5.13638051E-02    2     1000024         5   # BR(~t_2 -> ~chi_1+ b )
     3.01580756E-02    2     1000037         5   # BR(~t_2 -> ~chi_2+ b )
     7.13881077E-01    2     1000021         6   # BR(~t_2 -> ~g      t )
     7.85181110E-04    2     1000006        25   # BR(~t_2 -> ~t_1    h )
     2.66431598E-03    2     1000006        23   # BR(~t_2 -> ~t_1    Z )
#
#         PDG            Width
DECAY   1000005     3.41798349E+02   # sbottom1 decays
#          BR         NDA      ID1       ID2
     2.26129806E-03    2     1000022         5   # BR(~b_1 -> ~chi_10 b )
     2.35334919E-03    2     1000023         5   # BR(~b_1 -> ~chi_20 b )
     2.30102843E-03    2     1000025         5   # BR(~b_1 -> ~chi_30 b )
     2.20516022E-02    2     1000035         5   # BR(~b_1 -> ~chi_40 b )
     1.83492901E-01    2    -1000024         6   # BR(~b_1 -> ~chi_1- t )
     4.42979064E-02    2    -1000037         6   # BR(~b_1 -> ~chi_2- t )
     7.41596326E-01    2     1000021         5   # BR(~b_1 -> ~g      b )
     1.64558946E-03    2     1000006       -24   # BR(~b_1 -> ~t_1    W-)
#
#         PDG            Width
DECAY   2000005     2.62629791E+02   # sbottom2 decays
#          BR         NDA      ID1       ID2
     1.11887315E-02    2     1000022         5   # BR(~b_2 -> ~chi_10 b )
     3.07089271E-03    2     1000023         5   # BR(~b_2 -> ~chi_20 b )
     3.14494000E-03    2     1000025         5   # BR(~b_2 -> ~chi_30 b )
     1.46407328E-04    2     1000035         5   # BR(~b_2 -> ~chi_40 b )
     7.27831916E-03    2    -1000024         6   # BR(~b_2 -> ~chi_1- t )
     2.94078870E-04    2    -1000037         6   # BR(~b_2 -> ~chi_2- t )
     9.74831619E-01    2     1000021         5   # BR(~b_2 -> ~g      b )
     4.50112042E-05    2     1000006       -24   # BR(~b_2 -> ~t_1    W-)
#
#         PDG            Width
DECAY   1000002     2.81775940E+02   # sup_L decays
#          BR         NDA      ID1       ID2
     2.64848196E-03    2     1000022         2   # BR(~u_L -> ~chi_10 u)
     5.48513093E-05    2     1000023         2   # BR(~u_L -> ~chi_20 u)
     4.39306689E-06    2     1000025         2   # BR(~u_L -> ~chi_30 u)
     2.78507475E-02    2     1000035         2   # BR(~u_L -> ~chi_40 u)
     1.85769435E-04    2     1000024         1   # BR(~u_L -> ~chi_1+ d)
     5.56647772E-02    2     1000037         1   # BR(~u_L -> ~chi_2+ d)
     9.13590980E-01    2     1000021         2   # BR(~u_L -> ~g      u)
#
#         PDG            Width
DECAY   2000002     2.67917154E+02   # sup_R decays
#          BR         NDA      ID1       ID2
     4.43221207E-02    2     1000022         2   # BR(~u_R -> ~chi_10 u)
     4.72858742E-05    2     1000023         2   # BR(~u_R -> ~chi_20 u)
     5.47874405E-05    2     1000025         2   # BR(~u_R -> ~chi_30 u)
     2.78513285E-09    2     1000035         2   # BR(~u_R -> ~chi_40 u)
     9.55575803E-01    2     1000021         2   # BR(~u_R -> ~g      u)
#
#         PDG            Width
DECAY   1000001     2.81788997E+02   # sdown_L decays
#          BR         NDA      ID1       ID2
     2.63799014E-03    2     1000022         1   # BR(~d_L -> ~chi_10 d)
     1.63784155E-05    2     1000023         1   # BR(~d_L -> ~chi_20 d)
     3.26276313E-05    2     1000025         1   # BR(~d_L -> ~chi_30 d)
     2.78667342E-02    2     1000035         1   # BR(~d_L -> ~chi_40 d)
     6.65938526E-06    2    -1000024         2   # BR(~d_L -> ~chi_1- u)
     5.57560446E-02    2    -1000037         2   # BR(~d_L -> ~chi_2- u)
     9.13683566E-01    2     1000021         1   # BR(~d_L -> ~g      d)
#
#         PDG            Width
DECAY   2000001     2.59013957E+02   # sdown_R decays
#          BR         NDA      ID1       ID2
     1.14620671E-02    2     1000022         1   # BR(~d_R -> ~chi_10 d)
     1.22286073E-05    2     1000023         1   # BR(~d_R -> ~chi_20 d)
     1.41685890E-05    2     1000025         1   # BR(~d_R -> ~chi_30 d)
     7.20354160E-10    2     1000035         1   # BR(~d_R -> ~chi_40 d)
     9.88511535E-01    2     1000021         1   # BR(~d_R -> ~g      d)
#
#         PDG            Width
DECAY   1000004     2.81775940E+02   # scharm_L decays
#          BR         NDA      ID1       ID2
     2.64848196E-03    2     1000022         4   # BR(~c_L -> ~chi_10 c)
     5.48513093E-05    2     1000023         4   # BR(~c_L -> ~chi_20 c)
     4.39306689E-06    2     1000025         4   # BR(~c_L -> ~chi_30 c)
     2.78507475E-02    2     1000035         4   # BR(~c_L -> ~chi_40 c)
     1.85769435E-04    2     1000024         3   # BR(~c_L -> ~chi_1+ s)
     5.56647772E-02    2     1000037         3   # BR(~c_L -> ~chi_2+ s)
     9.13590980E-01    2     1000021         4   # BR(~c_L -> ~g      c)
#
#         PDG            Width
DECAY   2000004     2.67917154E+02   # scharm_R decays
#          BR         NDA      ID1       ID2
     4.43221207E-02    2     1000022         4   # BR(~c_R -> ~chi_10 c)
     4.72858742E-05    2     1000023         4   # BR(~c_R -> ~chi_20 c)
     5.47874405E-05    2     1000025         4   # BR(~c_R -> ~chi_30 c)
     2.78513285E-09    2     1000035         4   # BR(~c_R -> ~chi_40 c)
     9.55575803E-01    2     1000021         4   # BR(~c_R -> ~g      c)
#
#         PDG            Width
DECAY   1000003     2.81788997E+02   # sstrange_L decays
#          BR         NDA      ID1       ID2
     2.63799014E-03    2     1000022         3   # BR(~s_L -> ~chi_10 s)
     1.63784155E-05    2     1000023         3   # BR(~s_L -> ~chi_20 s)
     3.26276313E-05    2     1000025         3   # BR(~s_L -> ~chi_30 s)
     2.78667342E-02    2     1000035         3   # BR(~s_L -> ~chi_40 s)
     6.65938526E-06    2    -1000024         4   # BR(~s_L -> ~chi_1- c)
     5.57560446E-02    2    -1000037         4   # BR(~s_L -> ~chi_2- c)
     9.13683566E-01    2     1000021         3   # BR(~s_L -> ~g      s)
#
#         PDG            Width
DECAY   2000003     2.59013957E+02   # sstrange_R decays
#          BR         NDA      ID1       ID2
     1.14620671E-02    2     1000022         3   # BR(~s_R -> ~chi_10 s)
     1.22286073E-05    2     1000023         3   # BR(~s_R -> ~chi_20 s)
     1.41685890E-05    2     1000025         3   # BR(~s_R -> ~chi_30 s)
     7.20354160E-10    2     1000035         3   # BR(~s_R -> ~chi_40 s)
     9.88511535E-01    2     1000021         3   # BR(~s_R -> ~g      s)
#
#         PDG            Width
DECAY   1000011     3.02816715E+01   # selectron_L decays
#          BR         NDA      ID1       ID2
     2.26248006E-01    2     1000022        11   # BR(~e_L -> ~chi_10 e-)
     1.09880509E-03    2     1000023        11   # BR(~e_L -> ~chi_20 e-)
     2.19037426E-05    2     1000025        11   # BR(~e_L -> ~chi_30 e-)
     2.57347572E-01    2     1000035        11   # BR(~e_L -> ~chi_40 e-)
     6.31343226E-05    2    -1000024        12   # BR(~e_L -> ~chi_1- nu_e)
     5.15220580E-01    2    -1000037        12   # BR(~e_L -> ~chi_2- nu_e)
#
#         PDG            Width
DECAY   2000011     2.73772983E+01   # selectron_R decays
#          BR         NDA      ID1       ID2
     9.97707670E-01    2     1000022        11   # BR(~e_R -> ~chi_10 e-)
     1.06190746E-03    2     1000023        11   # BR(~e_R -> ~chi_20 e-)
     1.23036170E-03    2     1000025        11   # BR(~e_R -> ~chi_30 e-)
     6.10767072E-08    2     1000035        11   # BR(~e_R -> ~chi_40 e-)
#
#         PDG            Width
DECAY   1000013     3.02816715E+01   # smuon_L decays
#          BR         NDA      ID1       ID2
     2.26248006E-01    2     1000022        13   # BR(~mu_L -> ~chi_10 mu-)
     1.09880509E-03    2     1000023        13   # BR(~mu_L -> ~chi_20 mu-)
     2.19037426E-05    2     1000025        13   # BR(~mu_L -> ~chi_30 mu-)
     2.57347572E-01    2     1000035        13   # BR(~mu_L -> ~chi_40 mu-)
     6.31343226E-05    2    -1000024        14   # BR(~mu_L -> ~chi_1- nu_mu)
     5.15220580E-01    2    -1000037        14   # BR(~mu_L -> ~chi_2- nu_mu)
#
#         PDG            Width
DECAY   2000013     2.73772983E+01   # smuon_R decays
#          BR         NDA      ID1       ID2
     9.97707670E-01    2     1000022        13   # BR(~mu_R -> ~chi_10 mu-)
     1.06190746E-03    2     1000023        13   # BR(~mu_R -> ~chi_20 mu-)
     1.23036170E-03    2     1000025        13   # BR(~mu_R -> ~chi_30 mu-)
     6.10767072E-08    2     1000035        13   # BR(~mu_R -> ~chi_40 mu-)
#
#         PDG            Width
DECAY   1000015     2.91491722E+01   # stau_1 decays
#          BR         NDA      ID1       ID2
     9.30367478E-01    2     1000022        15   # BR(~tau_1 -> ~chi_10  tau-)
     1.60482451E-02    2     1000023        15   # BR(~tau_1 -> ~chi_20  tau-)
     1.53760745E-02    2     1000025        15   # BR(~tau_1 -> ~chi_30  tau-)
     2.73245096E-03    2     1000035        15   # BR(~tau_1 -> ~chi_40  tau-)
     3.00055009E-02    2    -1000024        16   # BR(~tau_1 -> ~chi_1-  nu_tau)
     5.47025044E-03    2    -1000037        16   # BR(~tau_1 -> ~chi_2-  nu_tau)
#
#         PDG            Width
DECAY   2000015     3.11245918E+01   # stau_2 decays
#          BR         NDA      ID1       ID2
     2.26313941E-01    2     1000022        15   # BR(~tau_2 -> ~chi_10  tau-)
     1.51069818E-02    2     1000023        15   # BR(~tau_2 -> ~chi_20  tau-)
     1.47763509E-02    2     1000025        15   # BR(~tau_2 -> ~chi_30  tau-)
     2.47735659E-01    2     1000035        15   # BR(~tau_2 -> ~chi_40  tau-)
     8.93639546E-05    2    -1000024        16   # BR(~tau_2 -> ~chi_1-  nu_tau)
     4.95977703E-01    2    -1000037        16   # BR(~tau_2 -> ~chi_2-  nu_tau)
#
#         PDG            Width
DECAY   1000012     3.02845797E+01   # snu_eL decays
#          BR         NDA      ID1       ID2
     2.25880787E-01    2     1000022        12   # BR(~nu_eL -> ~chi_10 nu_e)
     4.48174086E-06    2     1000023        12   # BR(~nu_eL -> ~chi_20 nu_e)
     8.24667831E-04    2     1000025        12   # BR(~nu_eL -> ~chi_30 nu_e)
     2.57396729E-01    2     1000035        12   # BR(~nu_eL -> ~chi_40 nu_e)
     1.76074712E-03    2     1000024        11   # BR(~nu_eL -> ~chi_1+ e-)
     5.14132587E-01    2     1000037        11   # BR(~nu_eL -> ~chi_2+ e-)
#
#         PDG            Width
DECAY   1000014     3.02845797E+01   # snu_muL decays
#          BR         NDA      ID1       ID2
     2.25880787E-01    2     1000022        14   # BR(~nu_muL -> ~chi_10 nu_mu)
     4.48174086E-06    2     1000023        14   # BR(~nu_muL -> ~chi_20 nu_mu)
     8.24667831E-04    2     1000025        14   # BR(~nu_muL -> ~chi_30 nu_mu)
     2.57396729E-01    2     1000035        14   # BR(~nu_muL -> ~chi_40 nu_mu)
     1.76074712E-03    2     1000024        13   # BR(~nu_muL -> ~chi_1+ mu-)
     5.14132587E-01    2     1000037        13   # BR(~nu_muL -> ~chi_2+ mu-)
#
#         PDG            Width
DECAY   1000016     3.11532578E+01   # snu_tauL decays
#          BR         NDA      ID1       ID2
     2.19558359E-01    2     1000022        16   # BR(~nu_tauL -> ~chi_10 nu_tau)
     4.35623357E-06    2     1000023        16   # BR(~nu_tauL -> ~chi_20 nu_tau)
     8.01573660E-04    2     1000025        16   # BR(~nu_tauL -> ~chi_30 nu_tau)
     2.50126596E-01    2     1000035        16   # BR(~nu_tauL -> ~chi_40 nu_tau)
     2.98986329E-02    2     1000024        15   # BR(~nu_tauL -> ~chi_1+ tau-)
     4.99610482E-01    2     1000037        15   # BR(~nu_tauL -> ~chi_2+ tau-)
#
#         PDG            Width
DECAY   1000024     5.46219462E-01   # chargino1+ decays
#          BR         NDA      ID1       ID2
     1.00000000E+00    2     1000022        24   # BR(~chi_1+ -> ~chi_10  W+)
#
#         PDG            Width
DECAY   1000037     2.07688728E+01   # chargino2+ decays
#          BR         NDA      ID1       ID2
     2.53281524E-01    2     1000024        23   # BR(~chi_2+ -> ~chi_1+  Z )
     1.91041993E-04    2     1000022        24   # BR(~chi_2+ -> ~chi_10  W+)
     2.44273968E-01    2     1000023        24   # BR(~chi_2+ -> ~chi_20  W+)
     2.44171691E-01    2     1000025        24   # BR(~chi_2+ -> ~chi_30  W+)
     2.58080297E-01    2     1000024        25   # BR(~chi_2+ -> ~chi_1+  h )
     1.47873154E-06    2     1000022        37   # BR(~chi_2+ -> ~chi_10  H+)
#
#         PDG            Width
DECAY   1000022     0.00000000E+00   # neutralino1 decays
#
#         PDG            Width
DECAY   1000023     5.69015612E-01   # neutralino2 decays
#          BR         NDA      ID1       ID2
     5.35266468E-01    2     1000022        23   # BR(~chi_20 -> ~chi_10   Z )
     4.64733532E-01    2     1000022        25   # BR(~chi_20 -> ~chi_10   h )
#
#         PDG            Width
DECAY   1000025     5.70513962E-01   # neutralino3 decays
#          BR         NDA      ID1       ID2
     4.58705058E-01    2     1000022        23   # BR(~chi_30 -> ~chi_10   Z )
     5.41294942E-01    2     1000022        25   # BR(~chi_30 -> ~chi_10   h )
#
#         PDG            Width
DECAY   1000035     2.07845835E+01   # neutralino4 decays
#          BR         NDA      ID1       ID2
     4.00065979E-05    2     1000022        23   # BR(~chi_40 -> ~chi_10   Z )
     8.03603925E-02    2     1000023        23   # BR(~chi_40 -> ~chi_20   Z )
     1.72226401E-01    2     1000025        23   # BR(~chi_40 -> ~chi_30   Z )
     2.44870633E-01    2     1000024       -24   # BR(~chi_40 -> ~chi_1+   W-)
     2.44870633E-01    2    -1000024        24   # BR(~chi_40 -> ~chi_1-   W+)
     1.50896547E-04    2     1000022        25   # BR(~chi_40 -> ~chi_10   h )
     1.40468945E-06    2     1000022        35   # BR(~chi_40 -> ~chi_10   H )
     1.68166987E-07    2     1000022        36   # BR(~chi_40 -> ~chi_10   A )
     1.76890609E-01    2     1000023        25   # BR(~chi_40 -> ~chi_20   h )
     8.05888558E-02    2     1000025        25   # BR(~chi_40 -> ~chi_30   h )
#
#         PDG            Width
DECAY        25     4.05691000E-03   # h decays
#          BR         NDA      ID1       ID2
     6.09639695E-01    2           5        -5   # BR(h -> b       bb     )
     6.39059948E-02    2         -15        15   # BR(h -> tau+    tau-   )
     2.26250700E-04    2         -13        13   # BR(h -> mu+     mu-    )
     4.79679362E-04    2           3        -3   # BR(h -> s       sb     )
     2.07850853E-02    2           4        -4   # BR(h -> c       cb     )
     6.71712308E-02    2          21        21   # BR(h -> g       g      )
     2.30809477E-03    2          22        22   # BR(h -> gam     gam    )
     1.48363081E-03    2          22        23   # BR(h -> Z       gam    )
     2.09051875E-01    2          24       -24   # BR(h -> W+      W-     )
     2.48856514E-02    2          23        23   # BR(h -> Z       Z      )
     6.28117025E-05    2     1000022   1000022   # BR(h -> ~chi_10 ~chi_10)
#
#         PDG            Width
DECAY        35     8.24114846E+00   # H decays
#          BR         NDA      ID1       ID2
     3.90866583E-01    2           5        -5   # BR(H -> b       bb     )
     6.76065884E-02    2         -15        15   # BR(H -> tau+    tau-   )
     2.39062267E-04    2         -13        13   # BR(H -> mu+     mu-    )
     2.93053775E-04    2           3        -3   # BR(H -> s       sb     )
     1.63900749E-06    2           4        -4   # BR(H -> c       cb     )
     1.63749823E-01    2           6        -6   # BR(H -> t       tb     )
     5.44179336E-05    2          21        21   # BR(H -> g       g      )
     2.37912571E-07    2          22        22   # BR(H -> gam     gam    )
     9.66614874E-08    2          23        22   # BR(H -> Z       gam    )
     7.58578249E-05    2          24       -24   # BR(H -> W+      W-     )
     3.78809009E-05    2          23        23   # BR(H -> Z       Z      )
     2.80549014E-04    2          25        25   # BR(H -> h       h      )
     4.23088473E-23    2          36        36   # BR(H -> A       A      )
     1.06284594E-18    2          23        36   # BR(H -> Z       A      )
     2.29914305E-03    2     1000024  -1000024   # BR(H -> ~chi_1+ ~chi_1-)
     2.16368411E-03    2     1000022   1000022   # BR(H -> ~chi_10 ~chi_10)
     1.59533766E-05    2     1000023   1000023   # BR(H -> ~chi_20 ~chi_20)
     7.54591906E-04    2     1000025   1000025   # BR(H -> ~chi_30 ~chi_30)
     2.23150317E-01    2     1000022   1000023   # BR(H -> ~chi_10 ~chi_20)
     1.47667263E-01    2     1000022   1000025   # BR(H -> ~chi_10 ~chi_30)
     7.43257837E-04    2     1000023   1000025   # BR(H -> ~chi_20 ~chi_30)
#
#         PDG            Width
DECAY        36     8.25519063E+00   # A decays
#          BR         NDA      ID1       ID2
     3.90333067E-01    2           5        -5   # BR(A -> b       bb     )
     6.74934057E-02    2         -15        15   # BR(A -> tau+    tau-   )
     2.38661710E-04    2         -13        13   # BR(A -> mu+     mu-    )
     2.92776678E-04    2           3        -3   # BR(A -> s       sb     )
     1.64289191E-06    2           4        -4   # BR(A -> c       cb     )
     1.64047349E-01    2           6        -6   # BR(A -> t       tb     )
     1.62346500E-04    2          21        21   # BR(A -> g       g      )
     5.87939645E-07    2          22        22   # BR(A -> gam     gam    )
     1.96580476E-07    2          23        22   # BR(A -> Z       gam    )
     7.54421155E-05    2          23        25   # BR(A -> Z       h      )
     3.31042773E-03    2     1000024  -1000024   # BR(A -> ~chi_1+ ~chi_1-)
     2.19788306E-03    2     1000022   1000022   # BR(A -> ~chi_10 ~chi_10)
     1.62731368E-05    2     1000023   1000023   # BR(A -> ~chi_20 ~chi_20)
     1.80548119E-03    2     1000025   1000025   # BR(A -> ~chi_30 ~chi_30)
     1.49681657E-01    2     1000022   1000023   # BR(A -> ~chi_10 ~chi_20)
     2.20065876E-01    2     1000022   1000025   # BR(A -> ~chi_10 ~chi_30)
     2.76926706E-04    2     1000023   1000025   # BR(A -> ~chi_20 ~chi_30)
#
#         PDG            Width
DECAY        37     8.20991100E+00   # H+ decays
#          BR         NDA      ID1       ID2
     6.27530854E-04    2           4        -5   # BR(H+ -> c       bb     )
     6.78965995E-02    2         -15        16   # BR(H+ -> tau+    nu_tau )
     2.40087433E-04    2         -13        14   # BR(H+ -> mu+     nu_mu  )
     4.01617661E-06    2           2        -5   # BR(H+ -> u       bb     )
     1.40875392E-05    2           2        -3   # BR(H+ -> u       sb     )
     2.91330919E-04    2           4        -3   # BR(H+ -> c       sb     )
     5.53738371E-01    2           6        -5   # BR(H+ -> t       bb     )
     7.60109605E-05    2          24        25   # BR(H+ -> W+      h      )
     7.67417895E-13    2          24        36   # BR(H+ -> W+      A      )
     3.75966912E-01    2     1000024   1000022   # BR(H+ -> ~chi_1+ ~chi_10)
     1.12327579E-03    2     1000024   1000023   # BR(H+ -> ~chi_1+ ~chi_20)
     2.17786168E-05    2     1000024   1000025   # BR(H+ -> ~chi_1+ ~chi_30)
