#
#                              ======================
#                              | THE SUSYHIT OUTPUT |
#                              ======================
#
#
#              ------------------------------------------------------
#              |     This is the output of the SUSY-HIT package     |
#              |  created by A.Djouadi, M.Muehlleitner and M.Spira. |
#              |  In case of problems with SUSY-HIT email to        |
#              |           margarete.muehlleitner@cern.ch           |
#              |           michael.spira@psi.ch                     |
#              |           abdelhak.djouadi@cern.ch                 |
#              ------------------------------------------------------
#
#              ------------------------------------------------------
#              |  SUSY Les Houches Accord - MSSM Spectrum + Decays  |
#              |              based on the decay programs           |
#              |                                                    |
#              |                     SDECAY 1.3b                    |
#              |                                                    |
#              |  Authors: M.Muhlleitner, A.Djouadi and Y.Mambrini  |
#              |  Ref.:    Comput.Phys.Commun.168(2005)46           |
#              |           [hep-ph/0311167]                         |
#              |                                                    |
#              |                     HDECAY 3.4                     |
#              |                                                    |
#              |  By: A.Djouadi,J.Kalinowski,M.Muhlleitner,M.Spira  |
#              |  Ref.:    Comput.Phys.Commun.108(1998)56           |
#              |           [hep-ph/9704448]                         |
#              |                                                    |
#              |                                                    |
#              |  If not stated otherwise all DRbar couplings and   |
#              |  soft SUSY breaking masses are given at the scale  |
#              |  Q=  0.50007175E+04
#              |                                                    |
#              ------------------------------------------------------
#
#
BLOCK DCINFO  # Decay Program information
     1   SDECAY/HDECAY # decay calculator
     2   1.3b  /3.4    # version number
#
BLOCK SPINFO  # Spectrum calculator information
     1    SOFTSUSY    # spectrum calculator                
     2    3.4.0       # version number                     
#
BLOCK MODSEL  # Model selection
     1     0   #  nonUniversal                                     
#
BLOCK SMINPUTS  # Standard Model inputs
         1     1.25778332E+02   # alpha_em^-1(M_Z)^MSbar
         2     1.16570000E-05   # G_F [GeV^-2]
         3     1.17200002E-01   # alpha_S(M_Z)^MSbar
         4     9.11876000E+01   # M_Z pole mass
         5     4.25000000E+00   # mb(mb)^MSbar
         6     1.72500000E+02   # mt pole mass
         7     1.77682000E+00   # mtau pole mass
#
BLOCK MINPAR  # Input parameters - minimal models
         3     1.00000000E+01   # tanb                
#
BLOCK EXTPAR  # Input parameters - non-minimal models
         0    -1.00000000E+00   # Set                 
         1     6.00000000E+01   # M_1(MX)             
         2     3.00000000E+03   # M_2(MX)             
         3     1.12229800E+03   # M_3(MX)             
        11     5.00000000E+03   # At(MX)              
        12     5.00000000E+03   # Ab(MX)              
        13     0.00000000E+00   # Atau(MX)            
        23    -1.34916500E+03   # mu(MX)              
        26     3.00000000E+03   # mA(pole)            
        31     5.00000000E+03   # meL(MX)             
        32     5.00000000E+03   # mmuL(MX)            
        33     5.00000000E+03   # mtauL(MX)           
        34     5.00000000E+03   # meR(MX)             
        35     5.00000000E+03   # mmuR(MX)            
        36     5.00000000E+03   # mtauR(MX)           
        41     5.00000000E+03   # mqL1(MX)            
        42     5.00000000E+03   # mqL2(MX)            
        43     5.00000000E+03   # mqL3(MX)            
        44     5.00000000E+03   # muR(MX)             
        45     5.00000000E+03   # mcR(MX)             
        46     5.00000000E+03   # mtR(MX)             
        47     5.00000000E+03   # mdR(MX)             
        48     5.00000000E+03   # msR(MX)             
        49     5.00000000E+03   # mbR(MX)             
#
BLOCK MASS  # Mass Spectrum
# PDG code           mass       particle
        24     8.00949599E+01   # W+
        25     1.24576114E+02   # h
        35     3.00008390E+03   # H
        36     2.99999991E+03   # A
        37     3.00087378E+03   # H+
         5     4.87878001E+00   # b-quark pole mass calculated from mb(mb)_Msbar
   1000001     5.06590709E+03   # ~d_L
   2000001     5.04810195E+03   # ~d_R
   1000002     5.06543121E+03   # ~u_L
   2000002     5.04782451E+03   # ~u_R
   1000003     5.06590709E+03   # ~s_L
   2000003     5.04810195E+03   # ~s_R
   1000004     5.06543121E+03   # ~c_L
   2000004     5.04782451E+03   # ~c_R
   1000005     5.01210169E+03   # ~b_1
   2000005     5.04692399E+03   # ~b_2
   1000006     4.90286022E+03   # ~t_1
   2000006     5.05862848E+03   # ~t_2
   1000011     5.01905469E+03   # ~e_L
   2000011     5.00591305E+03   # ~e_R
   1000012     5.01810630E+03   # ~nu_eL
   1000013     5.01905469E+03   # ~mu_L
   2000013     5.00591305E+03   # ~mu_R
   1000014     5.01810630E+03   # ~nu_muL
   1000015     5.00442479E+03   # ~tau_1
   2000015     5.01895017E+03   # ~tau_2
   1000016     5.01756565E+03   # ~nu_tauL
   1000021     1.40000028E+03   # ~g
   1000022     6.03029755E+01   # ~chi_10
   1000023     1.39947194E+03   # ~chi_20
   1000025    -1.40186180E+03   # ~chi_30
   1000035     3.07432157E+03   # ~chi_40
   1000024     1.40000038E+03   # ~chi_1+
   1000037     3.07448907E+03   # ~chi_2+
#
BLOCK NMIX  # Neutralino Mixing Matrix
  1  1     9.99491006E-01   # N_11
  1  2     1.47237474E-04   # N_12
  1  3    -3.18412239E-02   # N_13
  1  4     1.96059739E-03   # N_14
  2  1     2.11298460E-02   # N_21
  2  2     2.90621404E-02   # N_22
  2  3     7.06893353E-01   # N_23
  2  4     7.06406900E-01   # N_24
  3  1    -2.38970201E-02   # N_31
  3  2     1.35664670E-02   # N_32
  3  3    -7.06518086E-01   # N_33
  3  4     7.07161281E-01   # N_34
  4  1    -4.37267908E-04   # N_41
  4  2     9.99485528E-01   # N_42
  4  3    -1.09598299E-02   # N_43
  4  4    -3.01391711E-02   # N_44
#
BLOCK UMIX  # Chargino Mixing Matrix U
  1  1     1.55122223E-02   # U_11
  1  2     9.99879678E-01   # U_12
  2  1    -9.99879678E-01   # U_21
  2  2     1.55122223E-02   # U_22
#
BLOCK VMIX  # Chargino Mixing Matrix V
  1  1     4.26469789E-02   # V_11
  1  2    -9.99090204E-01   # V_12
  2  1    -9.99090204E-01   # V_21
  2  2    -4.26469789E-02   # V_22
#
BLOCK STOPMIX  # Stop Mixing Matrix
  1  1    -5.12116814E-01   # cos(theta_t)
  1  2     8.58915810E-01   # sin(theta_t)
  2  1    -8.58915810E-01   # -sin(theta_t)
  2  2    -5.12116814E-01   # cos(theta_t)
#
BLOCK SBOTMIX  # Sbottom Mixing Matrix
  1  1     9.95065947E-01   # cos(theta_b)
  1  2    -9.92157302E-02   # sin(theta_b)
  2  1     9.92157302E-02   # -sin(theta_b)
  2  2     9.95065947E-01   # cos(theta_b)
#
BLOCK STAUMIX  # Stau Mixing Matrix
  1  1    -1.57623757E-01   # cos(theta_tau)
  1  2     9.87499241E-01   # sin(theta_tau)
  2  1    -9.87499241E-01   # -sin(theta_tau)
  2  2    -1.57623757E-01   # cos(theta_tau)
#
BLOCK ALPHA  # Higgs mixing
          -1.05443699E-01   # Mixing angle in the neutral Higgs boson sector
#
BLOCK HMIX Q=  5.00071747E+03  # DRbar Higgs Parameters
         1    -1.37356182E+03   # mu(Q)MSSM           
         2     9.47221837E+00   # tan                 
         3     2.41965096E+02   # higgs               
         4     8.41602746E+06   # mA^2(Q)MSSM         
#
BLOCK GAUGE Q=  5.00071747E+03  # The gauge couplings
     1     3.70730222E-01   # gprime(Q) DRbar
     2     6.32201749E-01   # g(Q) DRbar
     3     1.00371209E+00   # g3(Q) DRbar
#
BLOCK AU Q=  5.00071747E+03  # The trilinear couplings
  1  1     5.00000001E+03   # A_u(Q) DRbar
  2  2     5.00000001E+03   # A_c(Q) DRbar
  3  3     5.00000001E+03   # A_t(Q) DRbar
#
BLOCK AD Q=  5.00071747E+03  # The trilinear couplings
  1  1     5.00000000E+03   # A_d(Q) DRbar
  2  2     5.00000000E+03   # A_s(Q) DRbar
  3  3     5.00000001E+03   # A_b(Q) DRbar
#
BLOCK AE Q=  5.00071747E+03  # The trilinear couplings
  1  1     0.00000000E+00   # A_e(Q) DRbar
  2  2     8.21370589E-08   # A_mu(Q) DRbar
  3  3     8.14150168E-08   # A_tau(Q) DRbar
#
BLOCK Yu Q=  5.00071747E+03  # The Yukawa couplings
  1  1     0.00000000E+00   # y_u(Q) DRbar
  2  2     0.00000000E+00   # y_c(Q) DRbar
  3  3     8.16940017E-01   # y_t(Q) DRbar
#
BLOCK Yd Q=  5.00071747E+03  # The Yukawa couplings
  1  1     0.00000000E+00   # y_d(Q) DRbar
  2  2     0.00000000E+00   # y_s(Q) DRbar
  3  3     1.30368329E-01   # y_b(Q) DRbar
#
BLOCK Ye Q=  5.00071747E+03  # The Yukawa couplings
  1  1     0.00000000E+00   # y_e(Q) DRbar
  2  2     0.00000000E+00   # y_mu(Q) DRbar
  3  3     9.66797092E-02   # y_tau(Q) DRbar
#
BLOCK MSOFT Q=  5.00071747E+03  # The soft SUSY breaking masses at the scale Q
         1     6.00000000E+01   # M_1(Q)              
         2     3.00000000E+03   # M_2(Q)              
         3     1.12229800E+03   # M_3(Q)              
        21     6.78811531E+06   # mH1^2(Q)            
        22    -1.33734627E+06   # mH2^2(Q)            
        31     5.00000000E+03   # meL(Q)              
        32     5.00000000E+03   # mmuL(Q)             
        33     5.00000000E+03   # mtauL(Q)            
        34     5.00000000E+03   # meR(Q)              
        35     5.00000000E+03   # mmuR(Q)             
        36     5.00000000E+03   # mtauR(Q)            
        41     5.00000000E+03   # mqL1(Q)             
        42     5.00000000E+03   # mqL2(Q)             
        43     5.00000000E+03   # mqL3(Q)             
        44     5.00000000E+03   # muR(Q)              
        45     5.00000000E+03   # mcR(Q)              
        46     5.00000000E+03   # mtR(Q)              
        47     5.00000000E+03   # mdR(Q)              
        48     5.00000000E+03   # msR(Q)              
        49     5.00000000E+03   # mbR(Q)              
#
#
#
#                             =================
#                             |The decay table|
#                             =================
#
# - The QCD corrections to the decays gluino -> squark  + quark
#                                     squark -> gaugino + quark_prime
#                                     squark -> squark_prime + Higgs
#                                     squark -> gluino  + quark
#   are included.
#
# - The multi-body decays for the inos, stops and sbottoms are included.
#
# - The loop induced decays for the gluino, neutralinos and stops
#   are included.
#
# - The SUSY decays of the top quark are included.
#
#
#         PDG            Width
DECAY         6     1.40061276E+00   # top decays
#          BR         NDA      ID1       ID2
     1.00000000E+00    2           5        24   # BR(t ->  b    W+)
#
#         PDG            Width
DECAY   1000021     4.80558889E-05   # gluino decays
#          BR         NDA      ID1       ID2
     1.28312214E-05    2     1000022        21   # BR(~g -> ~chi_10 g)
     4.88520263E-11    2     1000023        21   # BR(~g -> ~chi_20 g)
#           BR         NDA      ID1       ID2       ID3
     7.86545235E-02    3     1000022         1        -1   # BR(~g -> ~chi_10 d  db)
     4.27229304E-20    3     1000023         1        -1   # BR(~g -> ~chi_20 d  db)
     2.68138169E-01    3     1000022         2        -2   # BR(~g -> ~chi_10 u  ub)
     8.52988243E-20    3     1000023         2        -2   # BR(~g -> ~chi_20 u  ub)
     7.86545235E-02    3     1000022         3        -3   # BR(~g -> ~chi_10 s  sb)
     4.27229304E-20    3     1000023         3        -3   # BR(~g -> ~chi_20 s  sb)
     2.68138169E-01    3     1000022         4        -4   # BR(~g -> ~chi_10 c  cb)
     8.52988243E-20    3     1000023         4        -4   # BR(~g -> ~chi_20 c  cb)
     7.96318293E-02    3     1000022         5        -5   # BR(~g -> ~chi_10 b  bb)
     2.26769954E-01    3     1000022         6        -6   # BR(~g -> ~chi_10 t  tb)
#
#         PDG            Width
DECAY   1000006     3.80979350E+02   # stop1 decays
#          BR         NDA      ID1       ID2
     2.30532583E-02    2     1000022         6   # BR(~t_1 -> ~chi_10 t )
     7.29121402E-02    2     1000023         6   # BR(~t_1 -> ~chi_20 t )
     7.00696923E-02    2     1000025         6   # BR(~t_1 -> ~chi_30 t )
     5.67589856E-03    2     1000035         6   # BR(~t_1 -> ~chi_40 t )
     1.04759567E-01    2     1000024         5   # BR(~t_1 -> ~chi_1+ b )
     1.12947459E-02    2     1000037         5   # BR(~t_1 -> ~chi_2+ b )
     7.12234698E-01    2     1000021         6   # BR(~t_1 -> ~g      t )
#
#         PDG            Width
DECAY   2000006     3.87474658E+02   # stop2 decays
#          BR         NDA      ID1       ID2
     9.24404388E-03    2     1000022         6   # BR(~t_2 -> ~chi_10 t )
     7.40496773E-02    2     1000023         6   # BR(~t_2 -> ~chi_20 t )
     7.70791490E-02    2     1000025         6   # BR(~t_2 -> ~chi_30 t )
     1.40233389E-02    2     1000035         6   # BR(~t_2 -> ~chi_40 t )
     4.55299982E-02    2     1000024         5   # BR(~t_2 -> ~chi_1+ b )
     2.78610741E-02    2     1000037         5   # BR(~t_2 -> ~chi_2+ b )
     7.48817851E-01    2     1000021         6   # BR(~t_2 -> ~g      t )
     7.48812419E-04    2     1000006        25   # BR(~t_2 -> ~t_1    h )
     2.64605487E-03    2     1000006        23   # BR(~t_2 -> ~t_1    Z )
#
#         PDG            Width
DECAY   1000005     3.65111455E+02   # sbottom1 decays
#          BR         NDA      ID1       ID2
     2.13864534E-03    2     1000022         5   # BR(~b_1 -> ~chi_10 b )
     2.04930128E-03    2     1000023         5   # BR(~b_1 -> ~chi_20 b )
     1.95131121E-03    2     1000025         5   # BR(~b_1 -> ~chi_30 b )
     2.04439764E-02    2     1000035         5   # BR(~b_1 -> ~chi_40 b )
     1.54400197E-01    2    -1000024         6   # BR(~b_1 -> ~chi_1- t )
     4.11316467E-02    2    -1000037         6   # BR(~b_1 -> ~chi_2- t )
     7.76338380E-01    2     1000021         5   # BR(~b_1 -> ~g      b )
     1.54654200E-03    2     1000006       -24   # BR(~b_1 -> ~t_1    W-)
#
#         PDG            Width
DECAY   2000005     2.92509767E+02   # sbottom2 decays
#          BR         NDA      ID1       ID2
     1.00262681E-02    2     1000022         5   # BR(~b_2 -> ~chi_10 b )
     2.47316704E-03    2     1000023         5   # BR(~b_2 -> ~chi_20 b )
     2.57304150E-03    2     1000025         5   # BR(~b_2 -> ~chi_30 b )
     2.68839454E-04    2     1000035         5   # BR(~b_2 -> ~chi_40 b )
     6.87360910E-03    2    -1000024         6   # BR(~b_2 -> ~chi_1- t )
     5.40683915E-04    2    -1000037         6   # BR(~b_2 -> ~chi_2- t )
     9.77164830E-01    2     1000021         5   # BR(~b_2 -> ~g      b )
     7.95606210E-05    2     1000006       -24   # BR(~b_2 -> ~t_1    W-)
#
#         PDG            Width
DECAY   1000002     3.11372733E+02   # sup_L decays
#          BR         NDA      ID1       ID2
     2.39971848E-03    2     1000022         2   # BR(~u_L -> ~chi_10 u)
     5.90597856E-05    2     1000023         2   # BR(~u_L -> ~chi_20 u)
     4.23926780E-06    2     1000025         2   # BR(~u_L -> ~chi_30 u)
     2.50861910E-02    2     1000035         2   # BR(~u_L -> ~chi_40 u)
     1.94969572E-04    2     1000024         1   # BR(~u_L -> ~chi_1+ d)
     5.01349407E-02    2     1000037         1   # BR(~u_L -> ~chi_2+ d)
     9.22120881E-01    2     1000021         2   # BR(~u_L -> ~g      u)
#
#         PDG            Width
DECAY   2000002     2.97700575E+02   # sup_R decays
#          BR         NDA      ID1       ID2
     3.99582084E-02    2     1000022         2   # BR(~u_R -> ~chi_10 u)
     1.52325431E-05    2     1000023         2   # BR(~u_R -> ~chi_20 u)
     1.94724175E-05    2     1000025         2   # BR(~u_R -> ~chi_30 u)
     3.03527267E-09    2     1000035         2   # BR(~u_R -> ~chi_40 u)
     9.60007084E-01    2     1000021         2   # BR(~u_R -> ~g      u)
#
#         PDG            Width
DECAY   1000001     3.11384655E+02   # sdown_L decays
#          BR         NDA      ID1       ID2
     2.39262980E-03    2     1000022         1   # BR(~d_L -> ~chi_10 d)
     3.33244033E-05    2     1000023         1   # BR(~d_L -> ~chi_20 d)
     1.78214695E-05    2     1000025         1   # BR(~d_L -> ~chi_30 d)
     2.51016346E-02    2     1000035         1   # BR(~d_L -> ~chi_40 d)
     2.57974099E-05    2    -1000024         2   # BR(~d_L -> ~chi_1- u)
     5.02279350E-02    2    -1000037         2   # BR(~d_L -> ~chi_2- u)
     9.22200857E-01    2     1000021         1   # BR(~d_L -> ~g      d)
#
#         PDG            Width
DECAY   2000001     2.88792247E+02   # sdown_R decays
#          BR         NDA      ID1       ID2
     1.02982674E-02    2     1000022         1   # BR(~d_R -> ~chi_10 d)
     3.92589290E-06    2     1000023         1   # BR(~d_R -> ~chi_20 d)
     5.01863871E-06    2     1000025         1   # BR(~d_R -> ~chi_30 d)
     7.82369051E-10    2     1000035         1   # BR(~d_R -> ~chi_40 d)
     9.89692787E-01    2     1000021         1   # BR(~d_R -> ~g      d)
#
#         PDG            Width
DECAY   1000004     3.11372733E+02   # scharm_L decays
#          BR         NDA      ID1       ID2
     2.39971848E-03    2     1000022         4   # BR(~c_L -> ~chi_10 c)
     5.90597856E-05    2     1000023         4   # BR(~c_L -> ~chi_20 c)
     4.23926780E-06    2     1000025         4   # BR(~c_L -> ~chi_30 c)
     2.50861910E-02    2     1000035         4   # BR(~c_L -> ~chi_40 c)
     1.94969572E-04    2     1000024         3   # BR(~c_L -> ~chi_1+ s)
     5.01349407E-02    2     1000037         3   # BR(~c_L -> ~chi_2+ s)
     9.22120881E-01    2     1000021         4   # BR(~c_L -> ~g      c)
#
#         PDG            Width
DECAY   2000004     2.97700575E+02   # scharm_R decays
#          BR         NDA      ID1       ID2
     3.99582084E-02    2     1000022         4   # BR(~c_R -> ~chi_10 c)
     1.52325431E-05    2     1000023         4   # BR(~c_R -> ~chi_20 c)
     1.94724175E-05    2     1000025         4   # BR(~c_R -> ~chi_30 c)
     3.03527267E-09    2     1000035         4   # BR(~c_R -> ~chi_40 c)
     9.60007084E-01    2     1000021         4   # BR(~c_R -> ~g      c)
#
#         PDG            Width
DECAY   1000003     3.11384655E+02   # sstrange_L decays
#          BR         NDA      ID1       ID2
     2.39262980E-03    2     1000022         3   # BR(~s_L -> ~chi_10 s)
     3.33244033E-05    2     1000023         3   # BR(~s_L -> ~chi_20 s)
     1.78214695E-05    2     1000025         3   # BR(~s_L -> ~chi_30 s)
     2.51016346E-02    2     1000035         3   # BR(~s_L -> ~chi_40 s)
     2.57974099E-05    2    -1000024         4   # BR(~s_L -> ~chi_1- c)
     5.02279350E-02    2    -1000037         4   # BR(~s_L -> ~chi_2- c)
     9.22200857E-01    2     1000021         3   # BR(~s_L -> ~g      s)
#
#         PDG            Width
DECAY   2000003     2.88792247E+02   # sstrange_R decays
#          BR         NDA      ID1       ID2
     1.02982674E-02    2     1000022         3   # BR(~s_R -> ~chi_10 s)
     3.92589290E-06    2     1000023         3   # BR(~s_R -> ~chi_20 s)
     5.01863871E-06    2     1000025         3   # BR(~s_R -> ~chi_30 s)
     7.82369051E-10    2     1000035         3   # BR(~s_R -> ~chi_40 s)
     9.89692787E-01    2     1000021         3   # BR(~s_R -> ~g      s)
#
#         PDG            Width
DECAY   1000011     3.02451646E+01   # selectron_L decays
#          BR         NDA      ID1       ID2
     2.26690157E-01    2     1000022        11   # BR(~e_L -> ~chi_10 e-)
     9.64245826E-04    2     1000023        11   # BR(~e_L -> ~chi_20 e-)
     1.12065146E-07    2     1000025        11   # BR(~e_L -> ~chi_30 e-)
     2.57157643E-01    2     1000035        11   # BR(~e_L -> ~chi_40 e-)
     2.70022676E-04    2    -1000024        12   # BR(~e_L -> ~chi_1- nu_e)
     5.14917820E-01    2    -1000037        12   # BR(~e_L -> ~chi_2- nu_e)
#
#         PDG            Width
DECAY   2000011     2.73632025E+01   # selectron_R decays
#          BR         NDA      ID1       ID2
     9.99135124E-01    2     1000022        11   # BR(~e_R -> ~chi_10 e-)
     3.79577203E-04    2     1000023        11   # BR(~e_R -> ~chi_20 e-)
     4.85225027E-04    2     1000025        11   # BR(~e_R -> ~chi_30 e-)
     7.42049721E-08    2     1000035        11   # BR(~e_R -> ~chi_40 e-)
#
#         PDG            Width
DECAY   1000013     3.02451646E+01   # smuon_L decays
#          BR         NDA      ID1       ID2
     2.26690157E-01    2     1000022        13   # BR(~mu_L -> ~chi_10 mu-)
     9.64245826E-04    2     1000023        13   # BR(~mu_L -> ~chi_20 mu-)
     1.12065146E-07    2     1000025        13   # BR(~mu_L -> ~chi_30 mu-)
     2.57157643E-01    2     1000035        13   # BR(~mu_L -> ~chi_40 mu-)
     2.70022676E-04    2    -1000024        14   # BR(~mu_L -> ~chi_1- nu_mu)
     5.14917820E-01    2    -1000037        14   # BR(~mu_L -> ~chi_2- nu_mu)
#
#         PDG            Width
DECAY   2000013     2.73632025E+01   # smuon_R decays
#          BR         NDA      ID1       ID2
     9.99135124E-01    2     1000022        13   # BR(~mu_R -> ~chi_10 mu-)
     3.79577203E-04    2     1000023        13   # BR(~mu_R -> ~chi_20 mu-)
     4.85225027E-04    2     1000025        13   # BR(~mu_R -> ~chi_30 mu-)
     7.42049721E-08    2     1000035        13   # BR(~mu_R -> ~chi_40 mu-)
#
#         PDG            Width
DECAY   1000015     2.90061620E+01   # stau_1 decays
#          BR         NDA      ID1       ID2
     9.25599382E-01    2     1000022        15   # BR(~tau_1 -> ~chi_10  tau-)
     1.44584320E-02    2     1000023        15   # BR(~tau_1 -> ~chi_20  tau-)
     1.32818848E-02    2     1000025        15   # BR(~tau_1 -> ~chi_30  tau-)
     6.40142787E-03    2     1000035        15   # BR(~tau_1 -> ~chi_40  tau-)
     2.74411154E-02    2    -1000024        16   # BR(~tau_1 -> ~chi_1-  nu_tau)
     1.28177578E-02    2    -1000037        16   # BR(~tau_1 -> ~chi_2-  nu_tau)
#
#         PDG            Width
DECAY   2000015     3.09629212E+01   # stau_2 decays
#          BR         NDA      ID1       ID2
     2.37146382E-01    2     1000022        15   # BR(~tau_2 -> ~chi_10  tau-)
     1.33033476E-02    2     1000023        15   # BR(~tau_2 -> ~chi_20  tau-)
     1.35201610E-02    2     1000025        15   # BR(~tau_2 -> ~chi_30  tau-)
     2.45124039E-01    2     1000035        15   # BR(~tau_2 -> ~chi_40  tau-)
     8.45641465E-05    2    -1000024        16   # BR(~tau_2 -> ~chi_1-  nu_tau)
     4.90821507E-01    2    -1000037        16   # BR(~tau_2 -> ~chi_2-  nu_tau)
#
#         PDG            Width
DECAY   1000012     3.02473782E+01   # snu_eL decays
#          BR         NDA      ID1       ID2
     2.26403098E-01    2     1000022        12   # BR(~nu_eL -> ~chi_10 nu_e)
     1.55911475E-04    2     1000023        12   # BR(~nu_eL -> ~chi_20 nu_e)
     4.26454248E-04    2     1000025        12   # BR(~nu_eL -> ~chi_30 nu_e)
     2.57237372E-01    2     1000035        12   # BR(~nu_eL -> ~chi_40 nu_e)
     2.04026783E-03    2     1000024        11   # BR(~nu_eL -> ~chi_1+ e-)
     5.13736897E-01    2     1000037        11   # BR(~nu_eL -> ~chi_2+ e-)
#
#         PDG            Width
DECAY   1000014     3.02473782E+01   # snu_muL decays
#          BR         NDA      ID1       ID2
     2.26403098E-01    2     1000022        14   # BR(~nu_muL -> ~chi_10 nu_mu)
     1.55911475E-04    2     1000023        14   # BR(~nu_muL -> ~chi_20 nu_mu)
     4.26454248E-04    2     1000025        14   # BR(~nu_muL -> ~chi_30 nu_mu)
     2.57237372E-01    2     1000035        14   # BR(~nu_muL -> ~chi_40 nu_mu)
     2.04026783E-03    2     1000024        13   # BR(~nu_muL -> ~chi_1+ mu-)
     5.13736897E-01    2     1000037        13   # BR(~nu_muL -> ~chi_2+ mu-)
#
#         PDG            Width
DECAY   1000016     3.10314120E+01   # snu_tauL decays
#          BR         NDA      ID1       ID2
     2.20659050E-01    2     1000022        16   # BR(~nu_tauL -> ~chi_10 nu_tau)
     1.51950348E-04    2     1000023        16   # BR(~nu_tauL -> ~chi_20 nu_tau)
     4.15619585E-04    2     1000025        16   # BR(~nu_tauL -> ~chi_30 nu_tau)
     2.50646119E-01    2     1000035        16   # BR(~nu_tauL -> ~chi_40 nu_tau)
     2.75531373E-02    2     1000024        15   # BR(~nu_tauL -> ~chi_1+ tau-)
     5.00574124E-01    2     1000037        15   # BR(~nu_tauL -> ~chi_2+ tau-)
#
#         PDG            Width
DECAY   1000024     8.60221476E-01   # chargino1+ decays
#          BR         NDA      ID1       ID2
     1.00000000E+00    2     1000022        24   # BR(~chi_1+ -> ~chi_10  W+)
#
#         PDG            Width
DECAY   1000037     1.88599566E+01   # chargino2+ decays
#          BR         NDA      ID1       ID2
     2.52822835E-01    2     1000024        23   # BR(~chi_2+ -> ~chi_1+  Z )
     2.42491551E-04    2     1000022        24   # BR(~chi_2+ -> ~chi_10  W+)
     2.43985617E-01    2     1000023        24   # BR(~chi_2+ -> ~chi_20  W+)
     2.43800046E-01    2     1000025        24   # BR(~chi_2+ -> ~chi_30  W+)
     2.59148544E-01    2     1000024        25   # BR(~chi_2+ -> ~chi_1+  h )
     4.67228989E-07    2     1000022        37   # BR(~chi_2+ -> ~chi_10  H+)
#
#         PDG            Width
DECAY   1000022     0.00000000E+00   # neutralino1 decays
#
#         PDG            Width
DECAY   1000023     9.03247924E-01   # neutralino2 decays
#          BR         NDA      ID1       ID2
     5.54038653E-01    2     1000022        23   # BR(~chi_20 -> ~chi_10   Z )
     4.45961347E-01    2     1000022        25   # BR(~chi_20 -> ~chi_10   h )
#
#         PDG            Width
DECAY   1000025     9.11588502E-01   # neutralino3 decays
#          BR         NDA      ID1       ID2
     4.29783647E-01    2     1000022        23   # BR(~chi_30 -> ~chi_10   Z )
     5.70216353E-01    2     1000022        25   # BR(~chi_30 -> ~chi_10   h )
#
#         PDG            Width
DECAY   1000035     1.88650313E+01   # neutralino4 decays
#          BR         NDA      ID1       ID2
     8.23117533E-05    2     1000022        23   # BR(~chi_40 -> ~chi_10   Z )
     4.53948830E-02    2     1000023        23   # BR(~chi_40 -> ~chi_20   Z )
     2.06811462E-01    2     1000025        23   # BR(~chi_40 -> ~chi_30   Z )
     2.44441397E-01    2     1000024       -24   # BR(~chi_40 -> ~chi_1+   W-)
     2.44441397E-01    2    -1000024        24   # BR(~chi_40 -> ~chi_1-   W+)
     1.65173097E-04    2     1000022        25   # BR(~chi_40 -> ~chi_10   h )
     4.23872598E-07    2     1000022        35   # BR(~chi_40 -> ~chi_10   H )
     6.02605714E-08    2     1000022        36   # BR(~chi_40 -> ~chi_10   A )
     2.13263398E-01    2     1000023        25   # BR(~chi_40 -> ~chi_20   h )
     4.53994938E-02    2     1000025        25   # BR(~chi_40 -> ~chi_30   h )
#
#         PDG            Width
DECAY        25     4.03422266E-03   # h decays
#          BR         NDA      ID1       ID2
     6.11522107E-01    2           5        -5   # BR(h -> b       bb     )
     6.41861832E-02    2         -15        15   # BR(h -> tau+    tau-   )
     2.27243300E-04    2         -13        13   # BR(h -> mu+     mu-    )
     4.81891404E-04    2           3        -3   # BR(h -> s       sb     )
     2.08828318E-02    2           4        -4   # BR(h -> c       cb     )
     6.73224018E-02    2          21        21   # BR(h -> g       g      )
     2.31031054E-03    2          22        22   # BR(h -> gam     gam    )
     1.47294531E-03    2          22        23   # BR(h -> Z       gam    )
     2.06978624E-01    2          24       -24   # BR(h -> W+      W-     )
     2.45815386E-02    2          23        23   # BR(h -> Z       Z      )
     3.39223240E-05    2     1000022   1000022   # BR(h -> ~chi_10 ~chi_10)
#
#         PDG            Width
DECAY        35     7.44347813E+00   # H decays
#          BR         NDA      ID1       ID2
     4.37072619E-01    2           5        -5   # BR(H -> b       bb     )
     7.48832653E-02    2         -15        15   # BR(H -> tau+    tau-   )
     2.64793174E-04    2         -13        13   # BR(H -> mu+     mu-    )
     3.24595867E-04    2           3        -3   # BR(H -> s       sb     )
     1.81372761E-06    2           4        -4   # BR(H -> c       cb     )
     1.81205756E-01    2           6        -6   # BR(H -> t       tb     )
     6.01511387E-05    2          21        21   # BR(H -> g       g      )
     3.84238729E-07    2          22        22   # BR(H -> gam     gam    )
     1.06958513E-07    2          23        22   # BR(H -> Z       gam    )
     8.09616955E-05    2          24       -24   # BR(H -> W+      W-     )
     4.04296083E-05    2          23        23   # BR(H -> Z       Z      )
     3.06584022E-04    2          25        25   # BR(H -> h       h      )
    -4.34260881E-23    2          36        36   # BR(H -> A       A      )
     9.23000369E-19    2          23        36   # BR(H -> Z       A      )
     3.04541022E-04    2     1000024  -1000024   # BR(H -> ~chi_1+ ~chi_1-)
     9.90214806E-04    2     1000022   1000022   # BR(H -> ~chi_10 ~chi_10)
     2.94939110E-05    2     1000023   1000023   # BR(H -> ~chi_20 ~chi_20)
     4.25786958E-05    2     1000025   1000025   # BR(H -> ~chi_30 ~chi_30)
     1.81284345E-01    2     1000022   1000023   # BR(H -> ~chi_10 ~chi_20)
     1.23051165E-01    2     1000022   1000025   # BR(H -> ~chi_10 ~chi_30)
     5.62011321E-05    2     1000023   1000025   # BR(H -> ~chi_20 ~chi_30)
#
#         PDG            Width
DECAY        36     7.46266413E+00   # A decays
#          BR         NDA      ID1       ID2
     4.36095389E-01    2           5        -5   # BR(A -> b       bb     )
     7.46928871E-02    2         -15        15   # BR(A -> tau+    tau-   )
     2.64119613E-04    2         -13        13   # BR(A -> mu+     mu-    )
     3.24006704E-04    2           3        -3   # BR(A -> s       sb     )
     1.81661052E-06    2           4        -4   # BR(A -> c       cb     )
     1.81393641E-01    2           6        -6   # BR(A -> t       tb     )
     1.79543271E-04    2          21        21   # BR(A -> g       g      )
     4.26449694E-07    2          22        22   # BR(A -> gam     gam    )
     2.17417228E-07    2          23        22   # BR(A -> Z       gam    )
     8.04494895E-05    2          23        25   # BR(A -> Z       h      )
     2.01981216E-03    2     1000024  -1000024   # BR(A -> ~chi_1+ ~chi_1-)
     1.01538938E-03    2     1000022   1000022   # BR(A -> ~chi_10 ~chi_10)
     1.48523330E-04    2     1000023   1000023   # BR(A -> ~chi_20 ~chi_20)
     5.12874839E-04    2     1000025   1000025   # BR(A -> ~chi_30 ~chi_30)
     1.24221800E-01    2     1000022   1000023   # BR(A -> ~chi_10 ~chi_20)
     1.79048376E-01    2     1000022   1000025   # BR(A -> ~chi_10 ~chi_30)
     7.28154387E-07    2     1000023   1000025   # BR(A -> ~chi_20 ~chi_30)
#
#         PDG            Width
DECAY        37     7.43014223E+00   # H+ decays
#          BR         NDA      ID1       ID2
     7.01171720E-04    2           4        -5   # BR(H+ -> c       bb     )
     7.50416722E-02    2         -15        16   # BR(H+ -> tau+    nu_tau )
     2.65352942E-04    2         -13        14   # BR(H+ -> mu+     nu_mu  )
     4.48747591E-06    2           2        -5   # BR(H+ -> u       bb     )
     1.55703575E-05    2           2        -3   # BR(H+ -> u       sb     )
     3.21994195E-04    2           4        -3   # BR(H+ -> c       sb     )
     6.16608405E-01    2           6        -5   # BR(H+ -> t       bb     )
     8.09241389E-05    2          24        25   # BR(H+ -> W+      h      )
     9.01420007E-14    2          24        36   # BR(H+ -> W+      A      )
     3.06686112E-01    2     1000024   1000022   # BR(H+ -> ~chi_1+ ~chi_10)
     2.17469583E-04    2     1000024   1000023   # BR(H+ -> ~chi_1+ ~chi_20)
     5.68401886E-05    2     1000024   1000025   # BR(H+ -> ~chi_1+ ~chi_30)
