#
#                              ======================
#                              | THE SUSYHIT OUTPUT |
#                              ======================
#
#
#              ------------------------------------------------------
#              |     This is the output of the SUSY-HIT package     |
#              |  created by A.Djouadi, M.Muehlleitner and M.Spira. |
#              |  In case of problems with SUSY-HIT email to        |
#              |           margarete.muehlleitner@kit.edu           |
#              |           michael.spira@psi.ch                     |
#              |           abdelhak.djouadi@cern.ch                 |
#              ------------------------------------------------------
#
#              ------------------------------------------------------
#              |  SUSY Les Houches Accord - MSSM Spectrum + Decays  |
#              |              based on the decay programs           |
#              |                                                    |
#              |                     SDECAY 1.5a                    |
#              |                                                    |
#              |  Authors: M.Muhlleitner, A.Djouadi and Y.Mambrini  |
#              |  Ref.:    Comput.Phys.Commun.168(2005)46           |
#              |           [hep-ph/0311167]                         |
#              |                                                    |
#              |                     HDECAY 3.4                     |
#              |                                                    |
#              |  By: A.Djouadi,J.Kalinowski,M.Muhlleitner,M.Spira  |
#              |  Ref.:    Comput.Phys.Commun.108(1998)56           |
#              |           [hep-ph/9704448]                         |
#              |                                                    |
#              |                                                    |
#              |  If not stated otherwise all DRbar couplings and   |
#              |  soft SUSY breaking masses are given at the scale  |
#              |  Q=  0.91187600E+02
#              |                                                    |
#              ------------------------------------------------------
#
#
BLOCK DCINFO  # Decay Program information
     1   SDECAY/HDECAY # decay calculator
     2   1.5a /3.4    # version number
#
BLOCK SPINFO  # Spectrum calculator information
     1   SuSpect     # RGE +Spectrum calculator            
     2   2.43         # version number                     
#
BLOCK MODSEL  # Model selection
     1     2   # GMSB                                              
#
BLOCK SMINPUTS  # Standard Model inputs
         1     1.27932904E+02   # alpha_em^-1(M_Z)^MSbar
         2     1.16639000E-05   # G_F [GeV^-2]
         3     1.17200000E-01   # alpha_S(M_Z)^MSbar
         4     9.11870000E+01   # M_Z pole mass
         5     4.25000000E+00   # mb(mb)^MSbar
         6     1.72900000E+02   # mt pole mass
         7     1.77700000E+00   # mtau pole mass
#
BLOCK MINPAR  # Input parameters - minimal models
#
BLOCK EXTPAR  # Input parameters - non-minimal models
         0     9.11876000E+01   # EWSB                
         1     2.23000000E+03   # M_1                 
         2     3.00000000E+03   # M_2                 
         3     3.00000000E+03   # M_3                 
        11     0.00000000E+00   # A_t                 
        12     0.00000000E+00   # A_b                 
        13     0.00000000E+00   # A_tau               
        14     0.00000000E+00   # A_u                 
        15     0.00000000E+00   # A_d                 
        16     0.00000000E+00   # A_e                 
        23     2.25000000E+03   # mu(EWSB)            
        25     1.50000000E+00   # tanbeta(in)         
        26     2.00000000E+03   # MA_pole             
        31     5.00000000E+03   # M_eL                
        32     5.00000000E+03   # M_muL               
        33     5.00000000E+03   # M_tauL              
        34     5.00000000E+03   # M_eR                
        35     5.00000000E+03   # M_muR               
        36     5.00000000E+03   # M_tauR              
        41     5.00000000E+03   # M_q1L               
        42     5.00000000E+03   # M_q2L               
        43     5.00000000E+03   # M_q3L               
        44     5.00000000E+03   # M_uR                
        45     5.00000000E+03   # M_cR                
        46     5.00000000E+03   # M_tR                
        47     5.00000000E+03   # M_dR                
        48     5.00000000E+03   # M_sR                
        49     5.00000000E+03   # M_bR                
#
BLOCK MASS  # Mass Spectrum
# PDG code           mass       particle
        24     8.05424305E+01   # W+
        25     1.25000000E+02   # h
        35     2.00397724E+03   # H
        36     2.00000000E+03   # A
        37     2.00152531E+03   # H+
         5     4.87877839E+00   # b-quark pole mass calculated from mb(mb)_Msbar
   1000001     5.00013292E+03   # ~d_L
   2000001     5.00002540E+03   # ~d_R
   1000002     4.99989247E+03   # ~u_L
   2000002     4.99994921E+03   # ~u_R
   1000003     5.00013292E+03   # ~s_L
   2000003     5.00002540E+03   # ~s_R
   1000004     4.99989247E+03   # ~c_L
   2000004     4.99994921E+03   # ~c_R
   1000005     4.99917308E+03   # ~b_1
   2000005     5.00098652E+03   # ~b_2
   1000006     4.97937972E+03   # ~t_1
   2000006     5.02498239E+03   # ~t_2
   1000011     5.00008213E+03   # ~e_L
   2000011     5.00007619E+03   # ~e_R
   1000012     4.99984168E+03   # ~nu_eL
   1000013     5.00008213E+03   # ~mu_L
   2000013     5.00007619E+03   # ~mu_R
   1000014     4.99984168E+03   # ~nu_muL
   1000015     4.99947905E+03   # ~tau_1
   2000015     5.00067983E+03   # ~tau_2
   1000016     4.99984168E+03   # ~nu_tauL
   1000021     3.00000000E+03   # ~g
   1000022     2.19219992E+03   # ~chi_10
   1000023    -2.25006283E+03   # ~chi_20
   1000025     2.27986061E+03   # ~chi_30
   1000035     3.00800230E+03   # ~chi_40
   1000024     2.24211449E+03   # ~chi_1+
   1000037     3.00797712E+03   # ~chi_2+
   1000039     1.00000000E-09   # ~gravitino
#
BLOCK NMIX  # Neutralino Mixing Matrix
  1  1     7.54234848E-01   # N_11
  1  2    -6.27004865E-02   # N_12
  1  3     4.63369096E-01   # N_13
  1  4    -4.60963689E-01   # N_14
  2  1     1.94897689E-03   # N_21
  2  2    -2.95462065E-03   # N_22
  2  3    -7.07052988E-01   # N_23
  2  4    -7.07151712E-01   # N_24
  3  1     6.56576595E-01   # N_31
  3  2     8.07610384E-02   # N_32
  3  3    -5.29576221E-01   # N_33
  3  4     5.30974440E-01   # N_34
  4  1     5.75936486E-03   # N_41
  4  2    -9.94755032E-01   # N_42
  4  3    -7.01011985E-02   # N_43
  4  4     7.42635698E-02   # N_44
#
BLOCK UMIX  # Chargino Mixing Matrix U
  1  1    -9.88259887E-02   # U_11
  1  2     9.95104730E-01   # U_12
  2  1     9.95104730E-01   # U_21
  2  2     9.88259887E-02   # U_22
#
BLOCK VMIX  # Chargino Mixing Matrix V
  1  1    -1.04702531E-01   # V_11
  1  2     9.94503585E-01   # V_12
  2  1     9.94503585E-01   # V_21
  2  2     1.04702531E-01   # V_22
#
BLOCK STOPMIX  # Stop Mixing Matrix
  1  1     7.07546339E-01   # cos(theta_t)
  1  2     7.06666950E-01   # sin(theta_t)
  2  1    -7.06666950E-01   # -sin(theta_t)
  2  2     7.07546339E-01   # cos(theta_t)
#
BLOCK SBOTMIX  # Sbottom Mixing Matrix
  1  1     6.85822408E-01   # cos(theta_b)
  1  2     7.27768936E-01   # sin(theta_b)
  2  1    -7.27768936E-01   # -sin(theta_b)
  2  2     6.85822408E-01   # cos(theta_b)
#
BLOCK STAUMIX  # Stau Mixing Matrix
  1  1     7.05353783E-01   # cos(theta_tau)
  1  2     7.08855444E-01   # sin(theta_tau)
  2  1    -7.08855444E-01   # -sin(theta_tau)
  2  2     7.05353783E-01   # cos(theta_tau)
#
BLOCK ALPHA  # Higgs mixing
          -5.90187566E-01   # Mixing angle in the neutral Higgs boson sector
#
BLOCK HMIX Q=  9.11876000E+01  # DRbar Higgs Parameters
         1     2.25000000E+03   # mu(Q)               
         2     1.49999979E+00   # tanbeta(Q)          
         3     2.52389105E+02   # vev(Q)              
         4     2.81499604E+06   # MA^2(Q)             
#
BLOCK GAUGE Q=  9.11876000E+01  # The gauge couplings
     1     3.52685950E-01   # gprime(Q) DRbar
     2     6.26561341E-01   # g(Q) DRbar
     3     1.07402993E+00   # g3(Q) DRbar
#
BLOCK AU Q=  9.11876000E+01  # The trilinear couplings
  1  1     0.00000000E+00   # A_u(Q) DRbar
  2  2     0.00000000E+00   # A_c(Q) DRbar
  3  3     0.00000000E+00   # A_t(Q) DRbar
#
BLOCK AD Q=  9.11876000E+01  # The trilinear couplings
  1  1     0.00000000E+00   # A_d(Q) DRbar
  2  2     0.00000000E+00   # A_s(Q) DRbar
  3  3     0.00000000E+00   # A_b(Q) DRbar
#
BLOCK AE Q=  9.11876000E+01  # The trilinear couplings
  1  1     0.00000000E+00   # A_e(Q) DRbar
  2  2     0.00000000E+00   # A_mu(Q) DRbar
  3  3     0.00000000E+00   # A_tau(Q) DRbar
#
BLOCK Yu Q=  9.11876000E+01  # The Yukawa couplings
  1  1     0.00000000E+00   # y_u(Q) DRbar
  2  2     0.00000000E+00   # y_c(Q) DRbar
  3  3     1.02412465E+00   # y_t(Q) DRbar
#
BLOCK Yd Q=  9.11876000E+01  # The Yukawa couplings
  1  1     0.00000000E+00   # y_d(Q) DRbar
  2  2     0.00000000E+00   # y_s(Q) DRbar
  3  3     2.70911080E-02   # y_b(Q) DRbar
#
BLOCK Ye Q=  9.11876000E+01  # The Yukawa couplings
  1  1     0.00000000E+00   # y_e(Q) DRbar
  2  2     0.00000000E+00   # y_mu(Q) DRbar
  3  3     1.79700156E-02   # y_tau(Q) DRbar
#
BLOCK MSOFT Q=  9.11876000E+01  # The soft SUSY breaking masses at the scale Q
         1     2.23000000E+03   # M_1                 
         2     3.00000000E+03   # M_2                 
         3     3.00000000E+03   # M_3                 
        14     0.00000000E+00   # A_u                 
        15     0.00000000E+00   # A_d                 
        16     0.00000000E+00   # A_e                 
        21    -2.61051232E+06   # M^2_Hd              
        22    -9.90009096E+06   # M^2_Hu              
        31     5.00000000E+03   # M_eL                
        32     5.00000000E+03   # M_muL               
        33     5.00000000E+03   # M_tauL              
        34     5.00000000E+03   # M_eR                
        35     5.00000000E+03   # M_muR               
        36     5.00000000E+03   # M_tauR              
        41     5.00000000E+03   # M_q1L               
        42     5.00000000E+03   # M_q2L               
        43     5.00000000E+03   # M_q3L               
        44     5.00000000E+03   # M_uR                
        45     5.00000000E+03   # M_cR                
        46     5.00000000E+03   # M_tR                
        47     5.00000000E+03   # M_dR                
        48     5.00000000E+03   # M_sR                
        49     5.00000000E+03   # M_bR                
#
#
#
#                             =================
#                             |The decay table|
#                             =================
#
# - The QCD corrections to the decays gluino -> squark  + quark
#                                     squark -> gaugino + quark_prime
#                                     squark -> squark_prime + Higgs
#                                     squark -> gluino  + quark
#   are included.
#
# - The multi-body decays for the inos, stops and sbottoms are included.
#
# - The loop induced decays for the gluino, neutralinos and stops
#   are included.
#
# - The SUSY decays of the top quark are included.
#
# - Possible decays of the NLSP in GMSB models are included.
#
#
#         PDG            Width
DECAY         6     1.36774647E+00   # top decays
#          BR         NDA      ID1       ID2
     1.00000000E+00    2           5        24   # BR(t ->  b    W+)
#
#         PDG            Width
DECAY   1000021     6.68699444E-04   # gluino decays
#          BR         NDA      ID1       ID2
     9.77830346E-03    2     1000022        21   # BR(~g -> ~chi_10 g)
     1.87865201E-02    2     1000023        21   # BR(~g -> ~chi_20 g)
     9.71268416E-03    2     1000025        21   # BR(~g -> ~chi_30 g)
#          BR         NDA      ID1       ID2
     0.00000000E+00    2     1000039        21   # BR(~g -> ~G      g)
#           BR         NDA      ID1       ID2       ID3
     5.51086098E-03    3     1000022         1        -1   # BR(~g -> ~chi_10 d  db)
     1.31603312E-07    3     1000023         1        -1   # BR(~g -> ~chi_20 d  db)
     1.72142200E-03    3     1000025         1        -1   # BR(~g -> ~chi_30 d  db)
     1.47793967E-02    3     1000022         2        -2   # BR(~g -> ~chi_10 u  ub)
     1.00693678E-07    3     1000023         2        -2   # BR(~g -> ~chi_20 u  ub)
     7.83368637E-03    3     1000025         2        -2   # BR(~g -> ~chi_30 u  ub)
     5.51086098E-03    3     1000022         3        -3   # BR(~g -> ~chi_10 s  sb)
     1.31603312E-07    3     1000023         3        -3   # BR(~g -> ~chi_20 s  sb)
     1.72142200E-03    3     1000025         3        -3   # BR(~g -> ~chi_30 s  sb)
     1.47793967E-02    3     1000022         4        -4   # BR(~g -> ~chi_10 c  cb)
     1.00693678E-07    3     1000023         4        -4   # BR(~g -> ~chi_20 c  cb)
     7.83368637E-03    3     1000025         4        -4   # BR(~g -> ~chi_30 c  cb)
     5.55380171E-03    3     1000022         5        -5   # BR(~g -> ~chi_10 b  bb)
     1.24057159E-04    3     1000023         5        -5   # BR(~g -> ~chi_20 b  bb)
     1.79191099E-03    3     1000025         5        -5   # BR(~g -> ~chi_30 b  bb)
     5.88357425E-02    3     1000022         6        -6   # BR(~g -> ~chi_10 t  tb)
     8.39836138E-02    3     1000023         6        -6   # BR(~g -> ~chi_20 t  tb)
     6.24508203E-02    3     1000025         6        -6   # BR(~g -> ~chi_30 t  tb)
     7.12369001E-04    3     1000024         1        -2   # BR(~g -> ~chi_1+ d  ub)
     7.12369001E-04    3    -1000024         2        -1   # BR(~g -> ~chi_1- u  db)
     7.12369001E-04    3     1000024         3        -4   # BR(~g -> ~chi_1+ s  cb)
     7.12369001E-04    3    -1000024         4        -3   # BR(~g -> ~chi_1- c  sb)
     1.34035367E-01    3     1000024         5        -6   # BR(~g -> ~chi_1+ b  tb)
     1.34035367E-01    3    -1000024         6        -5   # BR(~g -> ~chi_1- t  bb)
#
#         PDG            Width
DECAY   1000006     2.00912373E+02   # stop1 decays
#          BR         NDA      ID1       ID2
     8.32442661E-02    2     1000022         6   # BR(~t_1 -> ~chi_10 t )
     1.15802182E-01    2     1000023         6   # BR(~t_1 -> ~chi_20 t )
     5.16457889E-02    2     1000025         6   # BR(~t_1 -> ~chi_30 t )
     1.41510626E-02    2     1000035         6   # BR(~t_1 -> ~chi_40 t )
     1.29016218E-01    2     1000024         5   # BR(~t_1 -> ~chi_1+ b )
     2.72424936E-02    2     1000037         5   # BR(~t_1 -> ~chi_2+ b )
     5.78897989E-01    2     1000021         6   # BR(~t_1 -> ~g      t )
#
#         PDG            Width
DECAY   2000006     1.89190270E+02   # stop2 decays
#          BR         NDA      ID1       ID2
     3.47413366E-02    2     1000022         6   # BR(~t_2 -> ~chi_10 t )
     1.16206012E-01    2     1000023         6   # BR(~t_2 -> ~chi_20 t )
     9.73529779E-02    2     1000025         6   # BR(~t_2 -> ~chi_30 t )
     2.74787191E-02    2     1000035         6   # BR(~t_2 -> ~chi_40 t )
     1.02093095E-01    2     1000024         5   # BR(~t_2 -> ~chi_1+ b )
     5.35378049E-02    2     1000037         5   # BR(~t_2 -> ~chi_2+ b )
     5.68590054E-01    2     1000021         6   # BR(~t_2 -> ~g      t )
#
#         PDG            Width
DECAY   1000005     1.44096531E+02   # sbottom1 decays
#          BR         NDA      ID1       ID2
     6.36975654E-03    2     1000022         5   # BR(~b_1 -> ~chi_10 b )
     9.82160711E-05    2     1000023         5   # BR(~b_1 -> ~chi_20 b )
     2.18168182E-03    2     1000025         5   # BR(~b_1 -> ~chi_30 b )
     2.38791650E-02    2     1000035         5   # BR(~b_1 -> ~chi_40 b )
     1.40303333E-01    2    -1000024         6   # BR(~b_1 -> ~chi_1- t )
     4.92533041E-02    2    -1000037         6   # BR(~b_1 -> ~chi_2- t )
     7.77914543E-01    2     1000021         5   # BR(~b_1 -> ~g      b )
#
#         PDG            Width
DECAY   2000005     1.50538028E+02   # sbottom2 decays
#          BR         NDA      ID1       ID2
     3.91245543E-03    2     1000022         5   # BR(~b_2 -> ~chi_10 b )
     1.17386846E-04    2     1000023         5   # BR(~b_2 -> ~chi_20 b )
     2.92514102E-03    2     1000025         5   # BR(~b_2 -> ~chi_30 b )
     2.77868827E-02    2     1000035         5   # BR(~b_2 -> ~chi_40 b )
     1.64072354E-01    2    -1000024         6   # BR(~b_2 -> ~chi_1- t )
     5.73277317E-02    2    -1000037         6   # BR(~b_2 -> ~chi_2- t )
     7.43858048E-01    2     1000021         5   # BR(~b_2 -> ~g      b )
#
#         PDG            Width
DECAY   1000002     1.35646696E+02   # sup_L decays
#          BR         NDA      ID1       ID2
     5.61314004E-04    2     1000022         2   # BR(~u_L -> ~chi_10 u)
     5.90460179E-07    2     1000023         2   # BR(~u_L -> ~chi_20 u)
     3.61554695E-03    2     1000025         2   # BR(~u_L -> ~chi_30 u)
     5.59482381E-02    2     1000035         2   # BR(~u_L -> ~chi_40 u)
     1.93834997E-03    2     1000024         1   # BR(~u_L -> ~chi_1+ d)
     1.12085405E-01    2     1000037         1   # BR(~u_L -> ~chi_2+ d)
     8.25850555E-01    2     1000021         2   # BR(~u_L -> ~g      u)
#
#         PDG            Width
DECAY   2000002     1.18818795E+02   # sup_R decays
#          BR         NDA      ID1       ID2
     3.30552422E-02    2     1000022         2   # BR(~u_R -> ~chi_10 u)
     2.15190426E-07    2     1000023         2   # BR(~u_R -> ~chi_20 u)
     2.40956017E-02    2     1000025         2   # BR(~u_R -> ~chi_30 u)
     1.20868776E-06    2     1000035         2   # BR(~u_R -> ~chi_40 u)
     9.42847732E-01    2     1000021         2   # BR(~u_R -> ~g      u)
#
#         PDG            Width
DECAY   1000001     1.35656476E+02   # sdown_L decays
#          BR         NDA      ID1       ID2
     3.76846181E-03    2     1000022         1   # BR(~d_L -> ~chi_10 d)
     9.71217834E-07    2     1000023         1   # BR(~d_L -> ~chi_20 d)
     1.56501892E-04    2     1000025         1   # BR(~d_L -> ~chi_30 d)
     5.61966280E-02    2     1000035         1   # BR(~d_L -> ~chi_40 d)
     1.72691502E-03    2    -1000024         2   # BR(~d_L -> ~chi_1- u)
     1.12230432E-01    2    -1000037         2   # BR(~d_L -> ~chi_2- u)
     8.25920090E-01    2     1000021         1   # BR(~d_L -> ~g      d)
#
#         PDG            Width
DECAY   2000001     1.13731322E+02   # sdown_R decays
#          BR         NDA      ID1       ID2
     8.63372863E-03    2     1000022         1   # BR(~d_R -> ~chi_10 d)
     5.62058360E-08    2     1000023         1   # BR(~d_R -> ~chi_20 d)
     6.29356125E-03    2     1000025         1   # BR(~d_R -> ~chi_30 d)
     3.15704473E-07    2     1000035         1   # BR(~d_R -> ~chi_40 d)
     9.85072338E-01    2     1000021         1   # BR(~d_R -> ~g      d)
#
#         PDG            Width
DECAY   1000004     1.35646696E+02   # scharm_L decays
#          BR         NDA      ID1       ID2
     5.61314004E-04    2     1000022         4   # BR(~c_L -> ~chi_10 c)
     5.90460179E-07    2     1000023         4   # BR(~c_L -> ~chi_20 c)
     3.61554695E-03    2     1000025         4   # BR(~c_L -> ~chi_30 c)
     5.59482381E-02    2     1000035         4   # BR(~c_L -> ~chi_40 c)
     1.93834997E-03    2     1000024         3   # BR(~c_L -> ~chi_1+ s)
     1.12085405E-01    2     1000037         3   # BR(~c_L -> ~chi_2+ s)
     8.25850555E-01    2     1000021         4   # BR(~c_L -> ~g      c)
#
#         PDG            Width
DECAY   2000004     1.18818795E+02   # scharm_R decays
#          BR         NDA      ID1       ID2
     3.30552422E-02    2     1000022         4   # BR(~c_R -> ~chi_10 c)
     2.15190426E-07    2     1000023         4   # BR(~c_R -> ~chi_20 c)
     2.40956017E-02    2     1000025         4   # BR(~c_R -> ~chi_30 c)
     1.20868776E-06    2     1000035         4   # BR(~c_R -> ~chi_40 c)
     9.42847732E-01    2     1000021         4   # BR(~c_R -> ~g      c)
#
#         PDG            Width
DECAY   1000003     1.35656476E+02   # sstrange_L decays
#          BR         NDA      ID1       ID2
     3.76846181E-03    2     1000022         3   # BR(~s_L -> ~chi_10 s)
     9.71217834E-07    2     1000023         3   # BR(~s_L -> ~chi_20 s)
     1.56501892E-04    2     1000025         3   # BR(~s_L -> ~chi_30 s)
     5.61966280E-02    2     1000035         3   # BR(~s_L -> ~chi_40 s)
     1.72691502E-03    2    -1000024         4   # BR(~s_L -> ~chi_1- c)
     1.12230432E-01    2    -1000037         4   # BR(~s_L -> ~chi_2- c)
     8.25920090E-01    2     1000021         3   # BR(~s_L -> ~g      s)
#
#         PDG            Width
DECAY   2000003     1.13731322E+02   # sstrange_R decays
#          BR         NDA      ID1       ID2
     8.63372863E-03    2     1000022         3   # BR(~s_R -> ~chi_10 s)
     5.62058360E-08    2     1000023         3   # BR(~s_R -> ~chi_20 s)
     6.29356125E-03    2     1000025         3   # BR(~s_R -> ~chi_30 s)
     3.15704473E-07    2     1000035         3   # BR(~s_R -> ~chi_40 s)
     9.85072338E-01    2     1000021         3   # BR(~s_R -> ~g      s)
#
#         PDG            Width
DECAY   1000011     2.79568393E+01   # selectron_L decays
#          BR         NDA      ID1       ID2
     5.96706074E-02    2     1000022        11   # BR(~e_L -> ~chi_10 e-)
     1.53270189E-06    2     1000023        11   # BR(~e_L -> ~chi_20 e-)
     8.88705437E-02    2     1000025        11   # BR(~e_L -> ~chi_30 e-)
     2.79560341E-01    2     1000035        11   # BR(~e_L -> ~chi_40 e-)
     8.70761345E-03    2    -1000024        12   # BR(~e_L -> ~chi_1- nu_e)
     5.63189361E-01    2    -1000037        12   # BR(~e_L -> ~chi_2- nu_e)
#
#         PDG            Width
DECAY   2000011     1.58792968E+01   # selectron_R decays
#          BR         NDA      ID1       ID2
     5.78465086E-01    2     1000022        11   # BR(~e_R -> ~chi_10 e-)
     3.76487864E-06    2     1000023        11   # BR(~e_R -> ~chi_20 e-)
     4.21510102E-01    2     1000025        11   # BR(~e_R -> ~chi_30 e-)
     2.10470891E-05    2     1000035        11   # BR(~e_R -> ~chi_40 e-)
#
#         PDG            Width
DECAY   1000013     2.79568393E+01   # smuon_L decays
#          BR         NDA      ID1       ID2
     5.96706074E-02    2     1000022        13   # BR(~mu_L -> ~chi_10 mu-)
     1.53270189E-06    2     1000023        13   # BR(~mu_L -> ~chi_20 mu-)
     8.88705437E-02    2     1000025        13   # BR(~mu_L -> ~chi_30 mu-)
     2.79560341E-01    2     1000035        13   # BR(~mu_L -> ~chi_40 mu-)
     8.70761345E-03    2    -1000024        14   # BR(~mu_L -> ~chi_1- nu_mu)
     5.63189361E-01    2    -1000037        14   # BR(~mu_L -> ~chi_2- nu_mu)
#
#         PDG            Width
DECAY   2000013     1.58792968E+01   # smuon_R decays
#          BR         NDA      ID1       ID2
     5.78465086E-01    2     1000022        13   # BR(~mu_R -> ~chi_10 mu-)
     3.76487864E-06    2     1000023        13   # BR(~mu_R -> ~chi_20 mu-)
     4.21510102E-01    2     1000025        13   # BR(~mu_R -> ~chi_30 mu-)
     2.10470891E-05    2     1000035        13   # BR(~mu_R -> ~chi_40 mu-)
#
#         PDG            Width
DECAY   1000015     2.19606620E+01   # stau_1 decays
#          BR         NDA      ID1       ID2
     2.53492171E-01    2     1000022        15   # BR(~tau_1 -> ~chi_10  tau-)
     4.01767825E-04    2     1000023        15   # BR(~tau_1 -> ~chi_20  tau-)
     2.06258355E-01    2     1000025        15   # BR(~tau_1 -> ~chi_30  tau-)
     1.75977732E-01    2     1000035        15   # BR(~tau_1 -> ~chi_40  tau-)
     9.17869230E-03    2    -1000024        16   # BR(~tau_1 -> ~chi_1-  nu_tau)
     3.54527538E-01    2    -1000037        16   # BR(~tau_1 -> ~chi_2-  nu_tau)
     1.63743754E-04    2     1000039        15   # BR(~tau_1 -> ~G       tau-)
#
#         PDG            Width
DECAY   2000015     2.19403582E+01   # stau_2 decays
#          BR         NDA      ID1       ID2
     2.41373336E-01    2     1000022        15   # BR(~tau_2 -> ~chi_10  tau-)
     5.33518119E-04    2     1000023        15   # BR(~tau_2 -> ~chi_20  tau-)
     2.12378254E-01    2     1000025        15   # BR(~tau_2 -> ~chi_30  tau-)
     1.80103867E-01    2     1000035        15   # BR(~tau_2 -> ~chi_40  tau-)
     2.83203742E-03    2    -1000024        16   # BR(~tau_2 -> ~chi_1-  nu_tau)
     3.62778988E-01    2    -1000037        16   # BR(~tau_2 -> ~chi_2-  nu_tau)
#
#         PDG            Width
DECAY   1000012     2.79601881E+01   # snu_eL decays
#          BR         NDA      ID1       ID2
     1.08171999E-01    2     1000022        12   # BR(~nu_eL -> ~chi_10 nu_e)
     7.29036860E-06    2     1000023        12   # BR(~nu_eL -> ~chi_20 nu_e)
     3.65454014E-02    2     1000025        12   # BR(~nu_eL -> ~chi_30 nu_e)
     2.83150111E-01    2     1000035        12   # BR(~nu_eL -> ~chi_40 nu_e)
     9.77185996E-03    2     1000024        11   # BR(~nu_eL -> ~chi_1+ e-)
     5.62353339E-01    2     1000037        11   # BR(~nu_eL -> ~chi_2+ e-)
#
#         PDG            Width
DECAY   1000014     2.79601881E+01   # snu_muL decays
#          BR         NDA      ID1       ID2
     1.08171999E-01    2     1000022        14   # BR(~nu_muL -> ~chi_10 nu_mu)
     7.29036860E-06    2     1000023        14   # BR(~nu_muL -> ~chi_20 nu_mu)
     3.65454014E-02    2     1000025        14   # BR(~nu_muL -> ~chi_30 nu_mu)
     2.83150111E-01    2     1000035        14   # BR(~nu_muL -> ~chi_40 nu_mu)
     9.77185996E-03    2     1000024        13   # BR(~nu_muL -> ~chi_1+ mu-)
     5.62353339E-01    2     1000037        13   # BR(~nu_muL -> ~chi_2+ mu-)
#
#         PDG            Width
DECAY   1000016     2.79806073E+01   # snu_tauL decays
#          BR         NDA      ID1       ID2
     1.08093059E-01    2     1000022        16   # BR(~nu_tauL -> ~chi_10 nu_tau)
     7.28504838E-06    2     1000023        16   # BR(~nu_tauL -> ~chi_20 nu_tau)
     3.65187320E-02    2     1000025        16   # BR(~nu_tauL -> ~chi_30 nu_tau)
     2.82943479E-01    2     1000035        16   # BR(~nu_tauL -> ~chi_40 nu_tau)
     1.04881269E-02    2     1000024        15   # BR(~nu_tauL -> ~chi_1+ tau-)
     5.61949318E-01    2     1000037        15   # BR(~nu_tauL -> ~chi_2+ tau-)
#
#         PDG            Width
DECAY   1000024     2.21761884E-04   # chargino1+ decays
#          BR         NDA      ID1       ID2
     1.47834541E-01    2     1000039        24   # BR(~chi_1+ -> ~G       W+)
     2.47702690E-04    2     1000039        37   # BR(~chi_1+ -> ~G       H+)
#           BR         NDA      ID1       ID2       ID3
     2.84542760E-01    3     1000022         2        -1   # BR(~chi_1+ -> ~chi_10 u    db)
     2.83423223E-01    3     1000022         4        -3   # BR(~chi_1+ -> ~chi_10 c    sb)
     9.48476862E-02    3     1000022       -11        12   # BR(~chi_1+ -> ~chi_10 e+   nu_e)
     9.48455907E-02    3     1000022       -13        14   # BR(~chi_1+ -> ~chi_10 mu+  nu_mu)
     9.42584966E-02    3     1000022       -15        16   # BR(~chi_1+ -> ~chi_10 tau+ nu_tau)
#
#         PDG            Width
DECAY   1000037     2.90343317E+01   # chargino2+ decays
#          BR         NDA      ID1       ID2
     2.55507189E-01    2     1000024        23   # BR(~chi_2+ -> ~chi_1+  Z )
     9.73264117E-02    2     1000022        24   # BR(~chi_2+ -> ~chi_10  W+)
     2.45736211E-01    2     1000023        24   # BR(~chi_2+ -> ~chi_20  W+)
     1.52071040E-01    2     1000025        24   # BR(~chi_2+ -> ~chi_30  W+)
     2.49349455E-01    2     1000024        25   # BR(~chi_2+ -> ~chi_1+  h )
     9.68804082E-06    2     1000039        24   # BR(~chi_2+ -> ~G       W+)
     4.77060279E-09    2     1000039        37   # BR(~chi_2+ -> ~G       H+)
#
#         PDG            Width
DECAY   1000022    1.0E-05    # neutralino1 decays
#          BR         NDA      ID1       ID2
     5.01168363E-01    2     1000039        22   # BR(~chi_10 -> ~G        gam)
     4.88767584E-01    2     1000039        23   # BR(~chi_10 -> ~G        Z)
     9.86386550E-03    2     1000039        25   # BR(~chi_10 -> ~G        h)
     1.91682043E-04    2     1000039        35   # BR(~chi_10 -> ~G        H)
     8.50596157E-06    2     1000039        36   # BR(~chi_10 -> ~G        A)
#
#         PDG            Width
DECAY   1000023     3.59508322E-04   # neutralino2 decays
#          BR         NDA      ID1       ID2
     1.35535770E-04    2     1000022        22   # BR(~chi_20 -> ~chi_10 gam)
#          BR         NDA      ID1       ID2
     1.14599129E-08    2     1000039        22   # BR(~chi_20 -> ~G        gam)
     3.53321866E-03    2     1000039        23   # BR(~chi_20 -> ~G        Z)
     8.77812289E-02    2     1000039        25   # BR(~chi_20 -> ~G        h)
     6.34724976E-06    2     1000039        35   # BR(~chi_20 -> ~G        H)
     1.72421174E-04    2     1000039        36   # BR(~chi_20 -> ~G        A)
#           BR         NDA      ID1       ID2       ID3
     1.07423188E-01    3     1000022        -2         2   # BR(~chi_20 -> ~chi_10 ub      u)
     1.39110613E-01    3     1000022        -1         1   # BR(~chi_20 -> ~chi_10 db      d)
     1.06880644E-01    3     1000022        -4         4   # BR(~chi_20 -> ~chi_10 cb      c)
     1.39096702E-01    3     1000022        -3         3   # BR(~chi_20 -> ~chi_10 sb      s)
     1.30204120E-01    3     1000022        -5         5   # BR(~chi_20 -> ~chi_10 bb      b)
     3.17770414E-02    3     1000022       -11        11   # BR(~chi_20 -> ~chi_10 e+      e-)
     3.17761613E-02    3     1000022       -13        13   # BR(~chi_20 -> ~chi_10 mu+     mu-)
     3.15289393E-02    3     1000022       -15        15   # BR(~chi_20 -> ~chi_10 tau+    tau-)
     6.34647150E-02    3     1000022       -12        12   # BR(~chi_20 -> ~chi_10 nu_eb   nu_e)
     6.34647150E-02    3     1000022       -14        14   # BR(~chi_20 -> ~chi_10 nu_mub  nu_mu)
     6.34647150E-02    3     1000022       -16        16   # BR(~chi_20 -> ~chi_10 nu_taub nu_tau)
     3.22431415E-05    3     1000024        -2         1   # BR(~chi_20 -> ~chi_1+ ub      d)
     3.22431415E-05    3    -1000024        -1         2   # BR(~chi_20 -> ~chi_1- db      u)
     2.76599610E-05    3     1000024        -4         3   # BR(~chi_20 -> ~chi_1+ cb      s)
     2.76599610E-05    3    -1000024        -3         4   # BR(~chi_20 -> ~chi_1- sb      c)
     1.07477149E-05    3     1000024       -12        11   # BR(~chi_20 -> ~chi_1+ nu_eb   e-)
     1.07477149E-05    3    -1000024        12       -11   # BR(~chi_20 -> ~chi_1- nu_e    e+)
     1.07382301E-05    3     1000024       -14        13   # BR(~chi_20 -> ~chi_1+ nu_mub  mu-)
     1.07382301E-05    3    -1000024        14       -13   # BR(~chi_20 -> ~chi_1- nu_mu   mu+)
     8.45236148E-06    3     1000024       -16        15   # BR(~chi_20 -> ~chi_1+ nu_taub tau-)
     8.45236148E-06    3    -1000024        16       -15   # BR(~chi_20 -> ~chi_1- nu_tau  tau+)
#
#         PDG            Width
DECAY   1000025     1.73569652E-04   # neutralino3 decays
#          BR         NDA      ID1       ID2
     4.80772068E-04    2     1000022        22   # BR(~chi_30 -> ~chi_10 gam)
     3.06609131E-06    2     1000023        22   # BR(~chi_30 -> ~chi_20 gam)
#          BR         NDA      ID1       ID2
     1.52910745E-01    2     1000039        22   # BR(~chi_30 -> ~G        gam)
     1.35532824E-01    2     1000039        23   # BR(~chi_30 -> ~G        Z)
     4.32795128E-03    2     1000039        25   # BR(~chi_30 -> ~G        h)
     2.95353673E-04    2     1000039        35   # BR(~chi_30 -> ~G        H)
     1.22958315E-05    2     1000039        36   # BR(~chi_30 -> ~G        A)
#           BR         NDA      ID1       ID2       ID3
     3.33134132E-05    3     1000022        -2         2   # BR(~chi_30 -> ~chi_10 ub      u)
     4.06625456E-05    3     1000022        -1         1   # BR(~chi_30 -> ~chi_10 db      d)
     6.82781588E-05    3     1000022        -4         4   # BR(~chi_30 -> ~chi_10 cb      c)
     4.13164117E-05    3     1000022        -3         3   # BR(~chi_30 -> ~chi_10 sb      s)
     1.65600077E-04    3     1000022        -5         5   # BR(~chi_30 -> ~chi_10 bb      b)
     7.56903467E-06    3     1000022       -11        11   # BR(~chi_30 -> ~chi_10 e+      e-)
     7.56894855E-06    3     1000022       -13        13   # BR(~chi_30 -> ~chi_10 mu+     mu-)
     2.65903246E-05    3     1000022       -15        15   # BR(~chi_30 -> ~chi_10 tau+    tau-)
     1.94226287E-05    3     1000022       -12        12   # BR(~chi_30 -> ~chi_10 nu_eb   nu_e)
     1.94226287E-05    3     1000022       -14        14   # BR(~chi_30 -> ~chi_10 nu_mub  nu_mu)
     1.94226287E-05    3     1000022       -16        16   # BR(~chi_30 -> ~chi_10 nu_taub nu_tau)
     8.74168734E-03    3     1000023        -2         2   # BR(~chi_30 -> ~chi_20 ub      u)
     1.13202982E-02    3     1000023        -1         1   # BR(~chi_30 -> ~chi_20 db      d)
     8.60902773E-03    3     1000023        -4         4   # BR(~chi_30 -> ~chi_20 cb      c)
     1.13163795E-02    3     1000023        -3         3   # BR(~chi_30 -> ~chi_20 sb      s)
     8.92696213E-03    3     1000023        -5         5   # BR(~chi_30 -> ~chi_20 bb      b)
     2.58589767E-03    3     1000023       -11        11   # BR(~chi_30 -> ~chi_20 e+      e-)
     2.58570380E-03    3     1000023       -13        13   # BR(~chi_30 -> ~chi_20 mu+     mu-)
     2.53058529E-03    3     1000023       -15        15   # BR(~chi_30 -> ~chi_20 tau+    tau-)
     5.16450181E-03    3     1000023       -12        12   # BR(~chi_30 -> ~chi_20 nu_eb   nu_e)
     5.16450181E-03    3     1000023       -14        14   # BR(~chi_30 -> ~chi_20 nu_mub  nu_mu)
     5.16450181E-03    3     1000023       -16        16   # BR(~chi_30 -> ~chi_20 nu_taub nu_tau)
     1.06021313E-01    3     1000024        -2         1   # BR(~chi_30 -> ~chi_1+ ub      d)
     1.06021313E-01    3    -1000024        -1         2   # BR(~chi_30 -> ~chi_1- db      u)
     1.05284772E-01    3     1000024        -4         3   # BR(~chi_30 -> ~chi_1+ cb      s)
     1.05284772E-01    3    -1000024        -3         4   # BR(~chi_30 -> ~chi_1- sb      c)
     3.53403896E-02    3     1000024       -12        11   # BR(~chi_30 -> ~chi_1+ nu_eb   e-)
     3.53403896E-02    3    -1000024        12       -11   # BR(~chi_30 -> ~chi_1- nu_e    e+)
     3.53390070E-02    3     1000024       -14        13   # BR(~chi_30 -> ~chi_1+ nu_mub  mu-)
     3.53390070E-02    3    -1000024        14       -13   # BR(~chi_30 -> ~chi_1- nu_mu   mu+)
     3.49534078E-02    3     1000024       -16        15   # BR(~chi_30 -> ~chi_1+ nu_taub tau-)
     3.49534078E-02    3    -1000024        16       -15   # BR(~chi_30 -> ~chi_1- nu_tau  tau+)
#
#         PDG            Width
DECAY   1000035     2.90304781E+01   # neutralino4 decays
#          BR         NDA      ID1       ID2
     9.31737289E-05    2     1000022        23   # BR(~chi_40 -> ~chi_10   Z )
     2.52663081E-01    2     1000023        23   # BR(~chi_40 -> ~chi_20   Z )
     1.21722006E-04    2     1000025        23   # BR(~chi_40 -> ~chi_30   Z )
     2.48328109E-01    2     1000024       -24   # BR(~chi_40 -> ~chi_1+   W-)
     2.48328109E-01    2    -1000024        24   # BR(~chi_40 -> ~chi_1-   W+)
     9.76015738E-02    2     1000022        25   # BR(~chi_40 -> ~chi_10   h )
     2.02655255E-04    2     1000023        25   # BR(~chi_40 -> ~chi_20   h )
     1.52651882E-01    2     1000025        25   # BR(~chi_40 -> ~chi_30   h )
     2.27763816E-06    2     1000039        22   # BR(~chi_40 -> ~G        gam)
     7.40875259E-06    2     1000039        23   # BR(~chi_40 -> ~G        Z)
     2.49627802E-09    2     1000039        25   # BR(~chi_40 -> ~G        h)
     4.63179606E-09    2     1000039        35   # BR(~chi_40 -> ~G        H)
     1.38889684E-10    2     1000039        36   # BR(~chi_40 -> ~G        A)
#
#         PDG            Width
DECAY        25     4.09079579E-03   # h decays
#          BR         NDA      ID1       ID2
     6.18282950E-01    2           5        -5   # BR(h -> b       bb     )
     6.36662269E-02    2         -15        15   # BR(h -> tau+    tau-   )
     2.25354995E-04    2         -13        13   # BR(h -> mu+     mu-    )
     4.77547960E-04    2           3        -3   # BR(h -> s       sb     )
     2.06037208E-02    2           4        -4   # BR(h -> c       cb     )
     6.68986093E-02    2          21        21   # BR(h -> g       g      )
     2.29980928E-03    2          22        22   # BR(h -> gam     gam    )
     1.53565411E-03    2          22        23   # BR(h -> Z       gam    )
     2.00424969E-01    2          24       -24   # BR(h -> W+      W-     )
     2.55851582E-02    2          23        23   # BR(h -> Z       Z      )
#
#         PDG            Width
DECAY        35     3.78072366E+01   # H decays
#          BR         NDA      ID1       ID2
     1.46180189E-03    2           5        -5   # BR(H -> b       bb     )
     2.46447147E-04    2         -15        15   # BR(H -> tau+    tau-   )
     8.71282418E-07    2         -13        13   # BR(H -> mu+     mu-    )
     1.11556278E-06    2           3        -3   # BR(H -> s       sb     )
     1.00670074E-05    2           4        -4   # BR(H -> c       cb     )
     9.96082913E-01    2           6        -6   # BR(H -> t       tb     )
     7.97645178E-04    2          21        21   # BR(H -> g       g      )
     2.71752923E-06    2          22        22   # BR(H -> gam     gam    )
     1.16050977E-06    2          23        22   # BR(H -> Z       gam    )
     3.30251469E-04    2          24       -24   # BR(H -> W+      W-     )
     1.64675386E-04    2          23        23   # BR(H -> Z       Z      )
     9.00333542E-04    2          25        25   # BR(H -> h       h      )
     6.90981894E-24    2          36        36   # BR(H -> A       A      )
     2.84046023E-11    2          23        36   # BR(H -> Z       A      )
     6.16290243E-12    2          24       -37   # BR(H -> W+      H-     )
     6.16290243E-12    2         -24        37   # BR(H -> W-      H+     )
#
#         PDG            Width
DECAY        36     3.82377127E+01   # A decays
#          BR         NDA      ID1       ID2
     1.46467780E-03    2           5        -5   # BR(A -> b       bb     )
     2.43901001E-04    2         -15        15   # BR(A -> tau+    tau-   )
     8.62278146E-07    2         -13        13   # BR(A -> mu+     mu-    )
     1.13678925E-06    2           3        -3   # BR(A -> s       sb     )
     9.96189882E-06    2           4        -4   # BR(A -> c       cb     )
     9.97009402E-01    2           6        -6   # BR(A -> t       tb     )
     9.43688340E-04    2          21        21   # BR(A -> g       g      )
     3.12831310E-06    2          22        22   # BR(A -> gam     gam    )
     1.35306871E-06    2          23        22   # BR(A -> Z       gam    )
     3.21888874E-04    2          23        25   # BR(A -> Z       h      )
#
#         PDG            Width
DECAY        37     3.74468971E+01   # H+ decays
#          BR         NDA      ID1       ID2
     2.34360642E-06    2           4        -5   # BR(H+ -> c       bb     )
     2.49241721E-04    2         -15        16   # BR(H+ -> tau+    nu_tau )
     8.81159520E-07    2         -13        14   # BR(H+ -> mu+     nu_mu  )
     1.48991936E-08    2           2        -5   # BR(H+ -> u       bb     )
     5.45702762E-08    2           2        -3   # BR(H+ -> u       sb     )
     1.08733344E-05    2           4        -3   # BR(H+ -> c       sb     )
     9.99406685E-01    2           6        -5   # BR(H+ -> t       bb     )
     3.29905819E-04    2          24        25   # BR(H+ -> W+      h      )
     2.89952161E-13    2          24        36   # BR(H+ -> W+      A      )
