#
#                              ======================
#                              | THE SUSYHIT OUTPUT |
#                              ======================
#
#
#              ------------------------------------------------------
#              |     This is the output of the SUSY-HIT package     |
#              |  created by A.Djouadi, M.Muehlleitner and M.Spira. |
#              |  In case of problems with SUSY-HIT email to        |
#              |           margarete.muehlleitner@kit.edu           |
#              |           michael.spira@psi.ch                     |
#              |           abdelhak.djouadi@cern.ch                 |
#              ------------------------------------------------------
#
#              ------------------------------------------------------
#              |  SUSY Les Houches Accord - MSSM Spectrum + Decays  |
#              |              based on the decay programs           |
#              |                                                    |
#              |                     SDECAY 1.5a                    |
#              |                                                    |
#              |  Authors: M.Muhlleitner, A.Djouadi and Y.Mambrini  |
#              |  Ref.:    Comput.Phys.Commun.168(2005)46           |
#              |           [hep-ph/0311167]                         |
#              |                                                    |
#              |                     HDECAY 3.4                     |
#              |                                                    |
#              |  By: A.Djouadi,J.Kalinowski,M.Muhlleitner,M.Spira  |
#              |  Ref.:    Comput.Phys.Commun.108(1998)56           |
#              |           [hep-ph/9704448]                         |
#              |                                                    |
#              |                                                    |
#              |  If not stated otherwise all DRbar couplings and   |
#              |  soft SUSY breaking masses are given at the scale  |
#              |  Q=  0.91187600E+02
#              |                                                    |
#              ------------------------------------------------------
#
#
BLOCK DCINFO  # Decay Program information
     1   SDECAY/HDECAY # decay calculator
     2   1.5a /3.4    # version number
#
BLOCK SPINFO  # Spectrum calculator information
     1   SuSpect     # RGE +Spectrum calculator            
     2   2.43         # version number                     
#
BLOCK MODSEL  # Model selection
     1     2   # GMSB                                              
#
BLOCK SMINPUTS  # Standard Model inputs
         1     1.27932904E+02   # alpha_em^-1(M_Z)^MSbar
         2     1.16639000E-05   # G_F [GeV^-2]
         3     1.17200000E-01   # alpha_S(M_Z)^MSbar
         4     9.11870000E+01   # M_Z pole mass
         5     4.25000000E+00   # mb(mb)^MSbar
         6     1.72900000E+02   # mt pole mass
         7     1.77700000E+00   # mtau pole mass
#
BLOCK MINPAR  # Input parameters - minimal models
#
BLOCK EXTPAR  # Input parameters - non-minimal models
         0     9.11876000E+01   # EWSB                
         1     4.59000000E+02   # M_1                 
         2     3.00000000E+03   # M_2                 
         3     2.60000000E+03   # M_3                 
        11     0.00000000E+00   # A_t                 
        12     0.00000000E+00   # A_b                 
        13     0.00000000E+00   # A_tau               
        14     0.00000000E+00   # A_u                 
        15     0.00000000E+00   # A_d                 
        16     0.00000000E+00   # A_e                 
        23     4.50000000E+02   # mu(EWSB)            
        25     1.50000000E+00   # tanbeta(in)         
        26     2.00000000E+03   # MA_pole             
        31     5.00000000E+03   # M_eL                
        32     5.00000000E+03   # M_muL               
        33     5.00000000E+03   # M_tauL              
        34     5.00000000E+03   # M_eR                
        35     5.00000000E+03   # M_muR               
        36     5.00000000E+03   # M_tauR              
        41     5.00000000E+03   # M_q1L               
        42     5.00000000E+03   # M_q2L               
        43     5.00000000E+03   # M_q3L               
        44     5.00000000E+03   # M_uR                
        45     5.00000000E+03   # M_cR                
        46     5.00000000E+03   # M_tR                
        47     5.00000000E+03   # M_dR                
        48     5.00000000E+03   # M_sR                
        49     5.00000000E+03   # M_bR                
#
BLOCK MASS  # Mass Spectrum
# PDG code           mass       particle
        24     8.05385962E+01   # W+
        25     1.25000000E+02   # h
        35     2.00424152E+03   # H
        36     2.00000000E+03   # A
        37     2.00200701E+03   # H+
         5     4.87877839E+00   # b-quark pole mass calculated from mb(mb)_Msbar
   1000001     5.00013309E+03   # ~d_L
   2000001     5.00002534E+03   # ~d_R
   1000002     4.99989224E+03   # ~u_L
   2000002     4.99994933E+03   # ~u_R
   1000003     5.00013309E+03   # ~s_L
   2000003     5.00002534E+03   # ~s_R
   1000004     4.99989224E+03   # ~c_L
   2000004     4.99994933E+03   # ~c_R
   1000005     4.99989063E+03   # ~b_1
   2000005     5.00026924E+03   # ~b_2
   1000006     4.99767063E+03   # ~t_1
   2000006     5.00679723E+03   # ~t_2
   1000011     5.00008242E+03   # ~e_L
   2000011     5.00007601E+03   # ~e_R
   1000012     4.99984157E+03   # ~nu_eL
   1000013     5.00008242E+03   # ~mu_L
   2000013     5.00007601E+03   # ~mu_R
   1000014     4.99984157E+03   # ~nu_muL
   1000015     4.99995950E+03   # ~tau_1
   2000015     5.00019955E+03   # ~tau_2
   1000016     4.99984157E+03   # ~nu_tauL
   1000021     2.60000000E+03   # ~g
   1000022     4.09424109E+02   # ~chi_10
   1000023    -4.50154065E+02   # ~chi_20
   1000025     4.97300465E+02   # ~chi_30
   1000035     3.00242949E+03   # ~chi_40
   1000024     4.47710747E+02   # ~chi_1+
   1000037     3.00242887E+03   # ~chi_2+
   1000039     1.00000000E-09   # ~gravitino
#
BLOCK NMIX  # Neutralino Mixing Matrix
  1  1     6.59434091E-01   # N_11
  1  2    -2.24641817E-02   # N_12
  1  3     5.36332190E-01   # N_13
  1  4    -5.26298224E-01   # N_14
  2  1     9.62980712E-03   # N_21
  2  2    -4.51711952E-03   # N_22
  2  3    -7.06461433E-01   # N_23
  2  4    -7.07671609E-01   # N_24
  3  1     7.51700511E-01   # N_31
  3  2     2.04778887E-02   # N_32
  3  3    -4.61437521E-01   # N_33
  3  4     4.70746654E-01   # N_34
  4  1     5.36346528E-04   # N_41
  4  2    -9.99527695E-01   # N_42
  4  3    -1.83150095E-02   # N_43
  4  4     2.46710460E-02   # N_44
#
BLOCK UMIX  # Chargino Mixing Matrix U
  1  1    -2.58913047E-02   # U_11
  1  2     9.99664764E-01   # U_12
  2  1     9.99664764E-01   # U_21
  2  2     2.58913047E-02   # U_22
#
BLOCK VMIX  # Chargino Mixing Matrix V
  1  1    -3.48835384E-02   # V_11
  1  2     9.99391384E-01   # V_12
  2  1     9.99391384E-01   # V_21
  2  2     3.48835384E-02   # V_22
#
BLOCK STOPMIX  # Stop Mixing Matrix
  1  1     7.09313739E-01   # cos(theta_t)
  1  2     7.04892914E-01   # sin(theta_t)
  2  1    -7.04892914E-01   # -sin(theta_t)
  2  2     7.09313739E-01   # cos(theta_t)
#
BLOCK SBOTMIX  # Sbottom Mixing Matrix
  1  1     5.98078688E-01   # cos(theta_b)
  1  2     8.01437386E-01   # sin(theta_b)
  2  1    -8.01437386E-01   # -sin(theta_b)
  2  2     5.98078688E-01   # cos(theta_b)
#
BLOCK STAUMIX  # Stau Mixing Matrix
  1  1     6.97596783E-01   # cos(theta_tau)
  1  2     7.16490564E-01   # sin(theta_tau)
  2  1    -7.16490564E-01   # -sin(theta_tau)
  2  2     6.97596783E-01   # cos(theta_tau)
#
BLOCK ALPHA  # Higgs mixing
          -5.90209287E-01   # Mixing angle in the neutral Higgs boson sector
#
BLOCK HMIX Q=  9.11876000E+01  # DRbar Higgs Parameters
         1     4.50000000E+02   # mu(Q)               
         2     1.49999979E+00   # tanbeta(Q)          
         3     2.51892953E+02   # vev(Q)              
         4     3.74388677E+06   # MA^2(Q)             
#
BLOCK GAUGE Q=  9.11876000E+01  # The gauge couplings
     1     3.52960632E-01   # gprime(Q) DRbar
     2     6.28306086E-01   # g(Q) DRbar
     3     1.07627883E+00   # g3(Q) DRbar
#
BLOCK AU Q=  9.11876000E+01  # The trilinear couplings
  1  1     0.00000000E+00   # A_u(Q) DRbar
  2  2     0.00000000E+00   # A_c(Q) DRbar
  3  3     0.00000000E+00   # A_t(Q) DRbar
#
BLOCK AD Q=  9.11876000E+01  # The trilinear couplings
  1  1     0.00000000E+00   # A_d(Q) DRbar
  2  2     0.00000000E+00   # A_s(Q) DRbar
  3  3     0.00000000E+00   # A_b(Q) DRbar
#
BLOCK AE Q=  9.11876000E+01  # The trilinear couplings
  1  1     0.00000000E+00   # A_e(Q) DRbar
  2  2     0.00000000E+00   # A_mu(Q) DRbar
  3  3     0.00000000E+00   # A_tau(Q) DRbar
#
BLOCK Yu Q=  9.11876000E+01  # The Yukawa couplings
  1  1     0.00000000E+00   # y_u(Q) DRbar
  2  2     0.00000000E+00   # y_c(Q) DRbar
  3  3     1.02681619E+00   # y_t(Q) DRbar
#
BLOCK Yd Q=  9.11876000E+01  # The Yukawa couplings
  1  1     0.00000000E+00   # y_d(Q) DRbar
  2  2     0.00000000E+00   # y_s(Q) DRbar
  3  3     2.72122490E-02   # y_b(Q) DRbar
#
BLOCK Ye Q=  9.11876000E+01  # The Yukawa couplings
  1  1     0.00000000E+00   # y_e(Q) DRbar
  2  2     0.00000000E+00   # y_mu(Q) DRbar
  3  3     1.79911752E-02   # y_tau(Q) DRbar
#
BLOCK MSOFT Q=  9.11876000E+01  # The soft SUSY breaking masses at the scale Q
         1     4.59000000E+02   # M_1                 
         2     3.00000000E+03   # M_2                 
         3     2.60000000E+03   # M_3                 
        14     0.00000000E+00   # A_u                 
        15     0.00000000E+00   # A_d                 
        16     0.00000000E+00   # A_e                 
        21     2.83404622E+06   # M^2_Hd              
        22    -5.49912151E+06   # M^2_Hu              
        31     5.00000000E+03   # M_eL                
        32     5.00000000E+03   # M_muL               
        33     5.00000000E+03   # M_tauL              
        34     5.00000000E+03   # M_eR                
        35     5.00000000E+03   # M_muR               
        36     5.00000000E+03   # M_tauR              
        41     5.00000000E+03   # M_q1L               
        42     5.00000000E+03   # M_q2L               
        43     5.00000000E+03   # M_q3L               
        44     5.00000000E+03   # M_uR                
        45     5.00000000E+03   # M_cR                
        46     5.00000000E+03   # M_tR                
        47     5.00000000E+03   # M_dR                
        48     5.00000000E+03   # M_sR                
        49     5.00000000E+03   # M_bR                
#
#
#
#                             =================
#                             |The decay table|
#                             =================
#
# - The QCD corrections to the decays gluino -> squark  + quark
#                                     squark -> gaugino + quark_prime
#                                     squark -> squark_prime + Higgs
#                                     squark -> gluino  + quark
#   are included.
#
# - The multi-body decays for the inos, stops and sbottoms are included.
#
# - The loop induced decays for the gluino, neutralinos and stops
#   are included.
#
# - The SUSY decays of the top quark are included.
#
# - Possible decays of the NLSP in GMSB models are included.
#
#
#         PDG            Width
DECAY         6     1.37553834E+00   # top decays
#          BR         NDA      ID1       ID2
     1.00000000E+00    2           5        24   # BR(t ->  b    W+)
#
#         PDG            Width
DECAY   1000021     1.56645179E-02   # gluino decays
#          BR         NDA      ID1       ID2
     2.57145348E-03    2     1000022        21   # BR(~g -> ~chi_10 g)
     4.59240846E-03    2     1000023        21   # BR(~g -> ~chi_20 g)
     1.97370561E-03    2     1000025        21   # BR(~g -> ~chi_30 g)
#          BR         NDA      ID1       ID2
     0.00000000E+00    2     1000039        21   # BR(~g -> ~G      g)
#           BR         NDA      ID1       ID2       ID3
     3.15816686E-03    3     1000022         1        -1   # BR(~g -> ~chi_10 d  db)
     1.19877457E-06    3     1000023         1        -1   # BR(~g -> ~chi_20 d  db)
     3.41457934E-03    3     1000025         1        -1   # BR(~g -> ~chi_30 d  db)
     9.75540794E-03    3     1000022         2        -2   # BR(~g -> ~chi_10 u  ub)
     1.34472602E-06    3     1000023         2        -2   # BR(~g -> ~chi_20 u  ub)
     1.24981638E-02    3     1000025         2        -2   # BR(~g -> ~chi_30 u  ub)
     3.15816686E-03    3     1000022         3        -3   # BR(~g -> ~chi_10 s  sb)
     1.19877457E-06    3     1000023         3        -3   # BR(~g -> ~chi_20 s  sb)
     3.41457934E-03    3     1000025         3        -3   # BR(~g -> ~chi_30 s  sb)
     9.75540794E-03    3     1000022         4        -4   # BR(~g -> ~chi_10 c  cb)
     1.34472602E-06    3     1000023         4        -4   # BR(~g -> ~chi_20 c  cb)
     1.24981638E-02    3     1000025         4        -4   # BR(~g -> ~chi_30 c  cb)
     3.24779964E-03    3     1000022         5        -5   # BR(~g -> ~chi_10 b  bb)
     1.70152945E-04    3     1000023         5        -5   # BR(~g -> ~chi_20 b  bb)
     3.49239803E-03    3     1000025         5        -5   # BR(~g -> ~chi_30 b  bb)
     1.24570930E-01    3     1000022         6        -6   # BR(~g -> ~chi_10 t  tb)
     2.17906376E-01    3     1000023         6        -6   # BR(~g -> ~chi_20 t  tb)
     1.16242526E-01    3     1000025         6        -6   # BR(~g -> ~chi_30 t  tb)
     7.03717400E-05    3     1000024         1        -2   # BR(~g -> ~chi_1+ d  ub)
     7.03717400E-05    3    -1000024         2        -1   # BR(~g -> ~chi_1- u  db)
     7.03717400E-05    3     1000024         3        -4   # BR(~g -> ~chi_1+ s  cb)
     7.03717400E-05    3    -1000024         4        -3   # BR(~g -> ~chi_1- c  sb)
     2.29280295E-01    3     1000024         5        -6   # BR(~g -> ~chi_1+ b  tb)
     2.29280295E-01    3    -1000024         6        -5   # BR(~g -> ~chi_1- t  bb)
#
#         PDG            Width
DECAY   1000006     2.73055181E+02   # stop1 decays
#          BR         NDA      ID1       ID2
     1.08118080E-01    2     1000022         6   # BR(~t_1 -> ~chi_10 t )
     1.31723136E-01    2     1000023         6   # BR(~t_1 -> ~chi_20 t )
     4.32612885E-02    2     1000025         6   # BR(~t_1 -> ~chi_30 t )
     1.32019546E-02    2     1000035         6   # BR(~t_1 -> ~chi_40 t )
     1.33317876E-01    2     1000024         5   # BR(~t_1 -> ~chi_1+ b )
     2.62970904E-02    2     1000037         5   # BR(~t_1 -> ~chi_2+ b )
     5.44080574E-01    2     1000021         6   # BR(~t_1 -> ~g      t )
#
#         PDG            Width
DECAY   2000006     2.60602978E+02   # stop2 decays
#          BR         NDA      ID1       ID2
     5.55514817E-02    2     1000022         6   # BR(~t_2 -> ~chi_10 t )
     1.34176352E-01    2     1000023         6   # BR(~t_2 -> ~chi_20 t )
     9.92262699E-02    2     1000025         6   # BR(~t_2 -> ~chi_30 t )
     1.61767258E-02    2     1000035         6   # BR(~t_2 -> ~chi_40 t )
     1.32497494E-01    2     1000024         5   # BR(~t_2 -> ~chi_1+ b )
     3.22486989E-02    2     1000037         5   # BR(~t_2 -> ~chi_2+ b )
     5.30122978E-01    2     1000021         6   # BR(~t_2 -> ~g      t )
#
#         PDG            Width
DECAY   1000005     1.52400432E+02   # sbottom1 decays
#          BR         NDA      ID1       ID2
     7.96946632E-03    2     1000022         5   # BR(~b_1 -> ~chi_10 b )
     1.29110578E-04    2     1000023         5   # BR(~b_1 -> ~chi_20 b )
     7.67298875E-03    2     1000025         5   # BR(~b_1 -> ~chi_30 b )
     6.90071725E-03    2     1000035         5   # BR(~b_1 -> ~chi_40 b )
     2.17470440E-02    2    -1000024         6   # BR(~b_1 -> ~chi_1- t )
     1.38248827E-02    2    -1000037         6   # BR(~b_1 -> ~chi_2- t )
     9.41755790E-01    2     1000021         5   # BR(~b_1 -> ~g      b )
#
#         PDG            Width
DECAY   2000005     2.32025037E+02   # sbottom2 decays
#          BR         NDA      ID1       ID2
     1.48204848E-03    2     1000022         5   # BR(~b_2 -> ~chi_10 b )
     1.33570666E-04    2     1000023         5   # BR(~b_2 -> ~chi_20 b )
     2.51398219E-03    2     1000025         5   # BR(~b_2 -> ~chi_30 b )
     2.89459033E-02    2     1000035         5   # BR(~b_2 -> ~chi_40 b )
     2.90768765E-01    2    -1000024         6   # BR(~b_2 -> ~chi_1- t )
     5.81197250E-02    2    -1000037         6   # BR(~b_2 -> ~chi_2- t )
     6.18036005E-01    2     1000021         5   # BR(~b_2 -> ~g      b )
#
#         PDG            Width
DECAY   1000002     1.67452935E+02   # sup_L decays
#          BR         NDA      ID1       ID2
     1.13280338E-03    2     1000022         2   # BR(~u_L -> ~chi_10 u)
     8.15403495E-07    2     1000023         2   # BR(~u_L -> ~chi_20 u)
     2.86828373E-03    2     1000025         2   # BR(~u_L -> ~chi_30 u)
     4.63597650E-02    2     1000035         2   # BR(~u_L -> ~chi_40 u)
     2.69483957E-04    2     1000024         1   # BR(~u_L -> ~chi_1+ d)
     9.27129159E-02    2     1000037         1   # BR(~u_L -> ~chi_2+ d)
     8.56655933E-01    2     1000021         2   # BR(~u_L -> ~g      u)
#
#         PDG            Width
DECAY   2000002     1.53846496E+02   # sup_R decays
#          BR         NDA      ID1       ID2
     2.94778328E-02    2     1000022         2   # BR(~u_R -> ~chi_10 u)
     6.26933617E-06    2     1000023         2   # BR(~u_R -> ~chi_20 u)
     3.80694542E-02    2     1000025         2   # BR(~u_R -> ~chi_30 u)
     8.15339517E-09    2     1000035         2   # BR(~u_R -> ~chi_40 u)
     9.32446436E-01    2     1000021         2   # BR(~u_R -> ~g      u)
#
#         PDG            Width
DECAY   1000001     1.67458957E+02   # sdown_L decays
#          BR         NDA      ID1       ID2
     2.36455400E-03    2     1000022         1   # BR(~d_L -> ~chi_10 d)
     4.42259594E-06    2     1000023         1   # BR(~d_L -> ~chi_20 d)
     1.59623257E-03    2     1000025         1   # BR(~d_L -> ~chi_30 d)
     4.63839736E-02    2     1000035         1   # BR(~d_L -> ~chi_40 d)
     1.48458869E-04    2    -1000024         2   # BR(~d_L -> ~chi_1- u)
     9.27747898E-02    2    -1000037         2   # BR(~d_L -> ~chi_2- u)
     8.56727569E-01    2     1000021         1   # BR(~d_L -> ~g      d)
#
#         PDG            Width
DECAY   2000001     1.46057292E+02   # sdown_R decays
#          BR         NDA      ID1       ID2
     7.76259353E-03    2     1000022         1   # BR(~d_R -> ~chi_10 d)
     1.65094608E-06    2     1000023         1   # BR(~d_R -> ~chi_20 d)
     1.00250841E-02    2     1000025         1   # BR(~d_R -> ~chi_30 d)
     2.14715926E-09    2     1000035         1   # BR(~d_R -> ~chi_40 d)
     9.82210669E-01    2     1000021         1   # BR(~d_R -> ~g      d)
#
#         PDG            Width
DECAY   1000004     1.67452935E+02   # scharm_L decays
#          BR         NDA      ID1       ID2
     1.13280338E-03    2     1000022         4   # BR(~c_L -> ~chi_10 c)
     8.15403495E-07    2     1000023         4   # BR(~c_L -> ~chi_20 c)
     2.86828373E-03    2     1000025         4   # BR(~c_L -> ~chi_30 c)
     4.63597650E-02    2     1000035         4   # BR(~c_L -> ~chi_40 c)
     2.69483957E-04    2     1000024         3   # BR(~c_L -> ~chi_1+ s)
     9.27129159E-02    2     1000037         3   # BR(~c_L -> ~chi_2+ s)
     8.56655933E-01    2     1000021         4   # BR(~c_L -> ~g      c)
#
#         PDG            Width
DECAY   2000004     1.53846496E+02   # scharm_R decays
#          BR         NDA      ID1       ID2
     2.94778328E-02    2     1000022         4   # BR(~c_R -> ~chi_10 c)
     6.26933617E-06    2     1000023         4   # BR(~c_R -> ~chi_20 c)
     3.80694542E-02    2     1000025         4   # BR(~c_R -> ~chi_30 c)
     8.15339517E-09    2     1000035         4   # BR(~c_R -> ~chi_40 c)
     9.32446436E-01    2     1000021         4   # BR(~c_R -> ~g      c)
#
#         PDG            Width
DECAY   1000003     1.67458957E+02   # sstrange_L decays
#          BR         NDA      ID1       ID2
     2.36455400E-03    2     1000022         3   # BR(~s_L -> ~chi_10 s)
     4.42259594E-06    2     1000023         3   # BR(~s_L -> ~chi_20 s)
     1.59623257E-03    2     1000025         3   # BR(~s_L -> ~chi_30 s)
     4.63839736E-02    2     1000035         3   # BR(~s_L -> ~chi_40 s)
     1.48458869E-04    2    -1000024         4   # BR(~s_L -> ~chi_1- c)
     9.27747898E-02    2    -1000037         4   # BR(~s_L -> ~chi_2- c)
     8.56727569E-01    2     1000021         3   # BR(~s_L -> ~g      s)
#
#         PDG            Width
DECAY   2000003     1.46057292E+02   # sstrange_R decays
#          BR         NDA      ID1       ID2
     7.76259353E-03    2     1000022         3   # BR(~s_R -> ~chi_10 s)
     1.65094608E-06    2     1000023         3   # BR(~s_R -> ~chi_20 s)
     1.00250841E-02    2     1000025         3   # BR(~s_R -> ~chi_30 s)
     2.14715926E-09    2     1000035         3   # BR(~s_R -> ~chi_40 s)
     9.82210669E-01    2     1000021         3   # BR(~s_R -> ~g      s)
#
#         PDG            Width
DECAY   1000011     3.02056226E+01   # selectron_L decays
#          BR         NDA      ID1       ID2
     7.76613453E-02    2     1000022        11   # BR(~e_L -> ~chi_10 e-)
     5.09507773E-07    2     1000023        11   # BR(~e_L -> ~chi_20 e-)
     1.24919015E-01    2     1000025        11   # BR(~e_L -> ~chi_30 e-)
     2.65365174E-01    2     1000035        11   # BR(~e_L -> ~chi_40 e-)
     8.57586455E-04    2    -1000024        12   # BR(~e_L -> ~chi_1- nu_e)
     5.31196370E-01    2    -1000037        12   # BR(~e_L -> ~chi_2- nu_e)
#
#         PDG            Width
DECAY   2000011     2.43652324E+01   # selectron_R decays
#          BR         NDA      ID1       ID2
     4.36433506E-01    2     1000022        11   # BR(~e_R -> ~chi_10 e-)
     9.28079204E-05    2     1000023        11   # BR(~e_R -> ~chi_20 e-)
     5.63473567E-01    2     1000025        11   # BR(~e_R -> ~chi_30 e-)
     1.19644433E-07    2     1000035        11   # BR(~e_R -> ~chi_40 e-)
#
#         PDG            Width
DECAY   1000013     3.02056226E+01   # smuon_L decays
#          BR         NDA      ID1       ID2
     7.76613453E-02    2     1000022        13   # BR(~mu_L -> ~chi_10 mu-)
     5.09507773E-07    2     1000023        13   # BR(~mu_L -> ~chi_20 mu-)
     1.24919015E-01    2     1000025        13   # BR(~mu_L -> ~chi_30 mu-)
     2.65365174E-01    2     1000035        13   # BR(~mu_L -> ~chi_40 mu-)
     8.57586455E-04    2    -1000024        14   # BR(~mu_L -> ~chi_1- nu_mu)
     5.31196370E-01    2    -1000037        14   # BR(~mu_L -> ~chi_2- nu_mu)
#
#         PDG            Width
DECAY   2000013     2.43652324E+01   # smuon_R decays
#          BR         NDA      ID1       ID2
     4.36433506E-01    2     1000022        13   # BR(~mu_R -> ~chi_10 mu-)
     9.28079204E-05    2     1000023        13   # BR(~mu_R -> ~chi_20 mu-)
     5.63473567E-01    2     1000025        13   # BR(~mu_R -> ~chi_30 mu-)
     1.19644433E-07    2     1000035        13   # BR(~mu_R -> ~chi_40 mu-)
#
#         PDG            Width
DECAY   1000015     2.72845118E+01   # stau_1 decays
#          BR         NDA      ID1       ID2
     2.48310548E-01    2     1000022        15   # BR(~tau_1 -> ~chi_10  tau-)
     4.21293351E-04    2     1000023        15   # BR(~tau_1 -> ~chi_20  tau-)
     3.20576533E-01    2     1000025        15   # BR(~tau_1 -> ~chi_30  tau-)
     1.42733890E-01    2     1000035        15   # BR(~tau_1 -> ~chi_40  tau-)
     2.10695204E-03    2    -1000024        16   # BR(~tau_1 -> ~chi_1-  nu_tau)
     2.85718927E-01    2    -1000037        16   # BR(~tau_1 -> ~chi_2-  nu_tau)
     1.31856837E-04    2     1000039        15   # BR(~tau_1 -> ~G       tau-)
#
#         PDG            Width
DECAY   2000015     2.73849618E+01   # stau_2 decays
#          BR         NDA      ID1       ID2
     2.27235189E-01    2     1000022        15   # BR(~tau_2 -> ~chi_10  tau-)
     8.18026241E-04    2     1000023        15   # BR(~tau_2 -> ~chi_20  tau-)
     3.20216362E-01    2     1000025        15   # BR(~tau_2 -> ~chi_30  tau-)
     1.50488182E-01    2     1000035        15   # BR(~tau_2 -> ~chi_40  tau-)
     2.83612824E-06    2    -1000024        16   # BR(~tau_2 -> ~chi_1-  nu_tau)
     3.01239405E-01    2    -1000037        16   # BR(~tau_2 -> ~chi_2-  nu_tau)
#
#         PDG            Width
DECAY   1000012     3.02045087E+01   # snu_eL decays
#          BR         NDA      ID1       ID2
     9.90085130E-02    2     1000022        12   # BR(~nu_eL -> ~chi_10 nu_e)
     6.30198303E-05    2     1000023        12   # BR(~nu_eL -> ~chi_20 nu_e)
     1.02876101E-01    2     1000025        12   # BR(~nu_eL -> ~chi_30 nu_e)
     2.65653469E-01    2     1000035        12   # BR(~nu_eL -> ~chi_40 nu_e)
     1.55670214E-03    2     1000024        11   # BR(~nu_eL -> ~chi_1+ e-)
     5.30842195E-01    2     1000037        11   # BR(~nu_eL -> ~chi_2+ e-)
#
#         PDG            Width
DECAY   1000014     3.02045087E+01   # snu_muL decays
#          BR         NDA      ID1       ID2
     9.90085130E-02    2     1000022        14   # BR(~nu_muL -> ~chi_10 nu_mu)
     6.30198303E-05    2     1000023        14   # BR(~nu_muL -> ~chi_20 nu_mu)
     1.02876101E-01    2     1000025        14   # BR(~nu_muL -> ~chi_30 nu_mu)
     2.65653469E-01    2     1000035        14   # BR(~nu_muL -> ~chi_40 nu_mu)
     1.55670214E-03    2     1000024        13   # BR(~nu_muL -> ~chi_1+ mu-)
     5.30842195E-01    2     1000037        13   # BR(~nu_muL -> ~chi_2+ mu-)
#
#         PDG            Width
DECAY   1000016     3.02361793E+01   # snu_tauL decays
#          BR         NDA      ID1       ID2
     9.89048075E-02    2     1000022        16   # BR(~nu_tauL -> ~chi_10 nu_tau)
     6.29538207E-05    2     1000023        16   # BR(~nu_tauL -> ~chi_20 nu_tau)
     1.02768344E-01    2     1000025        16   # BR(~nu_tauL -> ~chi_30 nu_tau)
     2.65375213E-01    2     1000035        16   # BR(~nu_tauL -> ~chi_40 nu_tau)
     2.60202275E-03    2     1000024        15   # BR(~nu_tauL -> ~chi_1+ tau-)
     5.30286659E-01    2     1000037        15   # BR(~nu_tauL -> ~chi_2+ tau-)
#
#         PDG            Width
DECAY   1000024     5.26171715E-05   # chargino1+ decays
#          BR         NDA      ID1       ID2
     1.73477924E-04    2     1000039        24   # BR(~chi_1+ -> ~G       W+)
#           BR         NDA      ID1       ID2       ID3
     3.34426282E-01    3     1000022         2        -1   # BR(~chi_1+ -> ~chi_10 u    db)
     3.32165653E-01    3     1000022         4        -3   # BR(~chi_1+ -> ~chi_10 c    sb)
     1.11475556E-01    3     1000022       -11        12   # BR(~chi_1+ -> ~chi_10 e+   nu_e)
     1.11471313E-01    3     1000022       -13        14   # BR(~chi_1+ -> ~chi_10 mu+  nu_mu)
     1.10287719E-01    3     1000022       -15        16   # BR(~chi_1+ -> ~chi_10 tau+ nu_tau)
#
#         PDG            Width
DECAY   1000037     3.27844266E+01   # chargino2+ decays
#          BR         NDA      ID1       ID2
     2.25788693E-01    2     1000024        23   # BR(~chi_2+ -> ~chi_1+  Z )
     1.17733756E-01    2     1000022        24   # BR(~chi_2+ -> ~chi_10  W+)
     2.20183012E-01    2     1000023        24   # BR(~chi_2+ -> ~chi_20  W+)
     1.02428304E-01    2     1000025        24   # BR(~chi_2+ -> ~chi_30  W+)
     2.26659843E-01    2     1000024        25   # BR(~chi_2+ -> ~chi_1+  h )
     2.66826141E-02    2     1000024        35   # BR(~chi_2+ -> ~chi_1+  H )
     2.69382505E-02    2     1000024        36   # BR(~chi_2+ -> ~chi_1+  A )
     1.63100110E-02    2     1000022        37   # BR(~chi_2+ -> ~chi_10  H+)
     2.66855389E-02    2     1000023        37   # BR(~chi_2+ -> ~chi_20  H+)
     1.05814359E-02    2     1000025        37   # BR(~chi_2+ -> ~chi_30  H+)
     8.54062128E-06    2     1000039        24   # BR(~chi_2+ -> ~G       W+)
     3.41767269E-10    2     1000039        37   # BR(~chi_2+ -> ~G       H+)
#
#         PDG            Width
DECAY   1000022    1.0E-05    # neutralino1 decays
#          BR         NDA      ID1       ID2
     4.96208490E-01    2     1000039        22   # BR(~chi_10 -> ~G        gam)
     4.93633022E-01    2     1000039        23   # BR(~chi_10 -> ~G        Z)
     1.01584880E-02    2     1000039        25   # BR(~chi_10 -> ~G        h)
#
#         PDG            Width
DECAY   1000023     5.80653814E-05   # neutralino2 decays
#          BR         NDA      ID1       ID2
     8.96101797E-04    2     1000022        22   # BR(~chi_20 -> ~chi_10 gam)
#          BR         NDA      ID1       ID2
     1.40128072E-08    2     1000039        22   # BR(~chi_20 -> ~G        gam)
     6.03417103E-06    2     1000039        23   # BR(~chi_20 -> ~G        Z)
     1.27965947E-04    2     1000039        25   # BR(~chi_20 -> ~G        h)
#           BR         NDA      ID1       ID2       ID3
     1.19333211E-01    3     1000022        -2         2   # BR(~chi_20 -> ~chi_10 ub      u)
     1.54481993E-01    3     1000022        -1         1   # BR(~chi_20 -> ~chi_10 db      d)
     1.18275072E-01    3     1000022        -4         4   # BR(~chi_20 -> ~chi_10 cb      c)
     1.54452335E-01    3     1000022        -3         3   # BR(~chi_20 -> ~chi_10 sb      s)
     1.35848920E-01    3     1000022        -5         5   # BR(~chi_20 -> ~chi_10 bb      b)
     3.52642534E-02    3     1000022       -11        11   # BR(~chi_20 -> ~chi_10 e+      e-)
     3.52626421E-02    3     1000022       -13        13   # BR(~chi_20 -> ~chi_10 mu+     mu-)
     3.48084752E-02    3     1000022       -15        15   # BR(~chi_20 -> ~chi_10 tau+    tau-)
     7.04136412E-02    3     1000022       -12        12   # BR(~chi_20 -> ~chi_10 nu_eb   nu_e)
     7.04136412E-02    3     1000022       -14        14   # BR(~chi_20 -> ~chi_10 nu_mub  nu_mu)
     7.04136412E-02    3     1000022       -16        16   # BR(~chi_20 -> ~chi_10 nu_taub nu_tau)
     5.55032162E-07    3     1000024        -2         1   # BR(~chi_20 -> ~chi_1+ ub      d)
     5.55032162E-07    3    -1000024        -1         2   # BR(~chi_20 -> ~chi_1- db      u)
     9.63719007E-08    3     1000024        -4         3   # BR(~chi_20 -> ~chi_1+ cb      s)
     9.63719007E-08    3    -1000024        -3         4   # BR(~chi_20 -> ~chi_1- sb      c)
     1.85010742E-07    3     1000024       -12        11   # BR(~chi_20 -> ~chi_1+ nu_eb   e-)
     1.85010742E-07    3    -1000024        12       -11   # BR(~chi_20 -> ~chi_1- nu_e    e+)
     1.83298376E-07    3     1000024       -14        13   # BR(~chi_20 -> ~chi_1+ nu_mub  mu-)
     1.83298376E-07    3    -1000024        14       -13   # BR(~chi_20 -> ~chi_1- nu_mu   mu+)
     9.11872891E-09    3     1000024       -16        15   # BR(~chi_20 -> ~chi_1+ nu_taub tau-)
     9.11872891E-09    3    -1000024        16       -15   # BR(~chi_20 -> ~chi_1- nu_tau  tau+)
#
#         PDG            Width
DECAY   1000025     4.21840841E-04   # neutralino3 decays
#          BR         NDA      ID1       ID2
     1.87535081E-04    2     1000022        22   # BR(~chi_30 -> ~chi_10 gam)
     4.81531192E-04    2     1000023        22   # BR(~chi_30 -> ~chi_20 gam)
#          BR         NDA      ID1       ID2
     3.67532979E-05    2     1000039        22   # BR(~chi_30 -> ~G        gam)
     2.40675244E-05    2     1000039        23   # BR(~chi_30 -> ~G        Z)
     5.76618509E-07    2     1000039        25   # BR(~chi_30 -> ~G        h)
#           BR         NDA      ID1       ID2       ID3
     1.86921491E-06    3     1000022        -2         2   # BR(~chi_30 -> ~chi_10 ub      u)
     2.67008022E-06    3     1000022        -1         1   # BR(~chi_30 -> ~chi_10 db      d)
     2.52545343E-06    3     1000022        -4         4   # BR(~chi_30 -> ~chi_10 cb      c)
     2.68235178E-06    3     1000022        -3         3   # BR(~chi_30 -> ~chi_10 sb      s)
     5.00108073E-06    3     1000022        -5         5   # BR(~chi_30 -> ~chi_10 bb      b)
     8.80008500E-07    3     1000022       -11        11   # BR(~chi_30 -> ~chi_10 e+      e-)
     8.79994584E-07    3     1000022       -13        13   # BR(~chi_30 -> ~chi_10 mu+     mu-)
     1.23482597E-06    3     1000022       -15        15   # BR(~chi_30 -> ~chi_10 tau+    tau-)
     1.10122379E-06    3     1000022       -12        12   # BR(~chi_30 -> ~chi_10 nu_eb   nu_e)
     1.10122379E-06    3     1000022       -14        14   # BR(~chi_30 -> ~chi_10 nu_mub  nu_mu)
     1.10122379E-06    3     1000022       -16        16   # BR(~chi_30 -> ~chi_10 nu_taub nu_tau)
     2.73606782E-02    3     1000023        -2         2   # BR(~chi_30 -> ~chi_20 ub      u)
     3.54197174E-02    3     1000023        -1         1   # BR(~chi_30 -> ~chi_20 db      d)
     2.71696809E-02    3     1000023        -4         4   # BR(~chi_30 -> ~chi_20 cb      c)
     3.54145372E-02    3     1000023        -3         3   # BR(~chi_30 -> ~chi_20 sb      s)
     3.21358969E-02    3     1000023        -5         5   # BR(~chi_30 -> ~chi_20 bb      b)
     8.08548863E-03    3     1000023       -11        11   # BR(~chi_30 -> ~chi_20 e+      e-)
     8.08519066E-03    3     1000023       -13        13   # BR(~chi_30 -> ~chi_20 mu+     mu-)
     8.00136952E-03    3     1000023       -15        15   # BR(~chi_30 -> ~chi_20 tau+    tau-)
     1.61443677E-02    3     1000023       -12        12   # BR(~chi_30 -> ~chi_20 nu_eb   nu_e)
     1.61443677E-02    3     1000023       -14        14   # BR(~chi_30 -> ~chi_20 nu_mub  nu_mu)
     1.61443677E-02    3     1000023       -16        16   # BR(~chi_30 -> ~chi_20 nu_taub nu_tau)
     1.28451879E-01    3     1000024        -2         1   # BR(~chi_30 -> ~chi_1+ ub      d)
     1.28451879E-01    3    -1000024        -1         2   # BR(~chi_30 -> ~chi_1- db      u)
     1.27938870E-01    3     1000024        -4         3   # BR(~chi_30 -> ~chi_1+ cb      s)
     1.27938870E-01    3    -1000024        -3         4   # BR(~chi_30 -> ~chi_1- sb      c)
     4.28172009E-02    3     1000024       -12        11   # BR(~chi_30 -> ~chi_1+ nu_eb   e-)
     4.28172009E-02    3    -1000024        12       -11   # BR(~chi_30 -> ~chi_1- nu_e    e+)
     4.28162406E-02    3     1000024       -14        13   # BR(~chi_30 -> ~chi_1+ nu_mub  mu-)
     4.28162406E-02    3    -1000024        14       -13   # BR(~chi_30 -> ~chi_1- nu_mu   mu+)
     4.25472229E-02    3     1000024       -16        15   # BR(~chi_30 -> ~chi_1+ nu_taub tau-)
     4.25472229E-02    3    -1000024        16       -15   # BR(~chi_30 -> ~chi_1- nu_tau  tau+)
#
#         PDG            Width
DECAY   1000035     3.27848361E+01   # neutralino4 decays
#          BR         NDA      ID1       ID2
     2.42464185E-03    2     1000022        23   # BR(~chi_40 -> ~chi_10   Z )
     2.21152451E-01    2     1000023        23   # BR(~chi_40 -> ~chi_20   Z )
     2.36191870E-03    2     1000025        23   # BR(~chi_40 -> ~chi_30   Z )
     2.19968041E-01    2     1000024       -24   # BR(~chi_40 -> ~chi_1+   W-)
     2.19968041E-01    2    -1000024        24   # BR(~chi_40 -> ~chi_1-   W+)
     1.18923157E-01    2     1000022        25   # BR(~chi_40 -> ~chi_10   h )
     1.77239289E-03    2     1000022        35   # BR(~chi_40 -> ~chi_10   H )
     1.45188353E-02    2     1000022        36   # BR(~chi_40 -> ~chi_10   A )
     4.78163619E-03    2     1000023        25   # BR(~chi_40 -> ~chi_20   h )
     2.36047616E-02    2     1000023        35   # BR(~chi_40 -> ~chi_20   H )
     2.98954510E-03    2     1000023        36   # BR(~chi_40 -> ~chi_20   A )
     1.03215054E-01    2     1000025        25   # BR(~chi_40 -> ~chi_30   h )
     1.16812737E-03    2     1000025        35   # BR(~chi_40 -> ~chi_30   H )
     9.40429630E-03    2     1000025        36   # BR(~chi_40 -> ~chi_30   A )
     2.68692801E-02    2     1000024       -37   # BR(~chi_40 -> ~chi_1+   H-)
     2.68692801E-02    2    -1000024        37   # BR(~chi_40 -> ~chi_1-   H+)
     2.04939640E-06    2     1000039        22   # BR(~chi_40 -> ~G        gam)
     6.49043402E-06    2     1000039        23   # BR(~chi_40 -> ~G        Z)
     4.51722971E-10    2     1000039        25   # BR(~chi_40 -> ~G        h)
     3.39085689E-10    2     1000039        35   # BR(~chi_40 -> ~G        H)
     9.90575120E-13    2     1000039        36   # BR(~chi_40 -> ~G        A)
#
#         PDG            Width
DECAY        25     4.08384913E-03   # h decays
#          BR         NDA      ID1       ID2
     6.17510389E-01    2           5        -5   # BR(h -> b       bb     )
     6.37786599E-02    2         -15        15   # BR(h -> tau+    tau-   )
     2.25752967E-04    2         -13        13   # BR(h -> mu+     mu-    )
     4.78390715E-04    2           3        -3   # BR(h -> s       sb     )
     2.06381673E-02    2           4        -4   # BR(h -> c       cb     )
     6.70133687E-02    2          21        21   # BR(h -> g       g      )
     2.31042754E-03    2          22        22   # BR(h -> gam     gam    )
     1.53805747E-03    2          22        23   # BR(h -> Z       gam    )
     2.00878111E-01    2          24       -24   # BR(h -> W+      W-     )
     2.56286763E-02    2          23        23   # BR(h -> Z       Z      )
#
#         PDG            Width
DECAY        35     3.99485458E+01   # H decays
#          BR         NDA      ID1       ID2
     1.39449074E-03    2           5        -5   # BR(H -> b       bb     )
     2.33261137E-04    2         -15        15   # BR(H -> tau+    tau-   )
     8.24664962E-07    2         -13        13   # BR(H -> mu+     mu-    )
     1.05585531E-06    2           3        -3   # BR(H -> s       sb     )
     9.52909935E-06    2           4        -4   # BR(H -> c       cb     )
     9.42866345E-01    2           6        -6   # BR(H -> t       tb     )
     7.55012428E-04    2          21        21   # BR(H -> g       g      )
     2.64078667E-06    2          22        22   # BR(H -> gam     gam    )
     1.09728248E-06    2          23        22   # BR(H -> Z       gam    )
     3.18921940E-04    2          24       -24   # BR(H -> W+      W-     )
     1.59026039E-04    2          23        23   # BR(H -> Z       Z      )
     8.56746192E-04    2          25        25   # BR(H -> h       h      )
     9.30783713E-24    2          36        36   # BR(H -> A       A      )
     3.70769693E-11    2          23        36   # BR(H -> Z       A      )
     3.66658822E-12    2          24       -37   # BR(H -> W+      H-     )
     3.66658822E-12    2         -24        37   # BR(H -> W-      H+     )
     6.49517589E-05    2     1000024  -1000024   # BR(H -> ~chi_1+ ~chi_1-)
     1.05135912E-03    2     1000022   1000022   # BR(H -> ~chi_10 ~chi_10)
     2.71769395E-05    2     1000023   1000023   # BR(H -> ~chi_20 ~chi_20)
     5.90512640E-04    2     1000025   1000025   # BR(H -> ~chi_30 ~chi_30)
     2.55438242E-02    2     1000022   1000023   # BR(H -> ~chi_10 ~chi_20)
     2.39841532E-05    2     1000022   1000025   # BR(H -> ~chi_10 ~chi_30)
     2.60992402E-02    2     1000023   1000025   # BR(H -> ~chi_20 ~chi_30)
#
#         PDG            Width
DECAY        36     4.03997033E+01   # A decays
#          BR         NDA      ID1       ID2
     1.39713138E-03    2           5        -5   # BR(A -> b       bb     )
     2.30848636E-04    2         -15        15   # BR(A -> tau+    tau-   )
     8.16133321E-07    2         -13        13   # BR(A -> mu+     mu-    )
     1.07595396E-06    2           3        -3   # BR(A -> s       sb     )
     9.42878769E-06    2           4        -4   # BR(A -> c       cb     )
     9.43654432E-01    2           6        -6   # BR(A -> t       tb     )
     8.93186847E-04    2          21        21   # BR(A -> g       g      )
     2.64847914E-06    2          22        22   # BR(A -> gam     gam    )
     1.27943643E-06    2          23        22   # BR(A -> Z       gam    )
     3.10750657E-04    2          23        25   # BR(A -> Z       h      )
     7.08888336E-04    2     1000024  -1000024   # BR(A -> ~chi_1+ ~chi_1-)
     2.90921283E-02    2     1000022   1000022   # BR(A -> ~chi_10 ~chi_10)
     1.33091253E-06    2     1000023   1000023   # BR(A -> ~chi_20 ~chi_20)
     2.18158838E-02    2     1000025   1000025   # BR(A -> ~chi_30 ~chi_30)
     6.68439989E-04    2     1000022   1000023   # BR(A -> ~chi_10 ~chi_20)
     2.87291277E-04    2     1000022   1000025   # BR(A -> ~chi_10 ~chi_30)
     9.24439206E-04    2     1000023   1000025   # BR(A -> ~chi_20 ~chi_30)
#
#         PDG            Width
DECAY        37     3.95877864E+01   # H+ decays
#          BR         NDA      ID1       ID2
     2.24136484E-06    2           4        -5   # BR(H+ -> c       bb     )
     2.35819584E-04    2         -15        16   # BR(H+ -> tau+    nu_tau )
     8.33707415E-07    2         -13        14   # BR(H+ -> mu+     nu_mu  )
     1.42502293E-08    2           2        -5   # BR(H+ -> u       bb     )
     5.16298819E-08    2           2        -3   # BR(H+ -> u       sb     )
     1.02874487E-05    2           4        -3   # BR(H+ -> c       sb     )
     9.45574883E-01    2           6        -5   # BR(H+ -> t       bb     )
     3.18532812E-04    2          24        25   # BR(H+ -> W+      h      )
     1.08154985E-12    2          24        36   # BR(H+ -> W+      A      )
     2.35484311E-02    2     1000024   1000022   # BR(H+ -> ~chi_1+ ~chi_10)
     1.59695663E-04    2     1000024   1000023   # BR(H+ -> ~chi_1+ ~chi_20)
     3.01492096E-02    2     1000024   1000025   # BR(H+ -> ~chi_1+ ~chi_30)
