#
#                              ======================
#                              | THE SUSYHIT OUTPUT |
#                              ======================
#
#
#              ------------------------------------------------------
#              |     This is the output of the SUSY-HIT package     |
#              |  created by A.Djouadi, M.Muehlleitner and M.Spira. |
#              |  In case of problems with SUSY-HIT email to        |
#              |           margarete.muehlleitner@kit.edu           |
#              |           michael.spira@psi.ch                     |
#              |           abdelhak.djouadi@cern.ch                 |
#              ------------------------------------------------------
#
#              ------------------------------------------------------
#              |  SUSY Les Houches Accord - MSSM Spectrum + Decays  |
#              |              based on the decay programs           |
#              |                                                    |
#              |                     SDECAY 1.5a                    |
#              |                                                    |
#              |  Authors: M.Muhlleitner, A.Djouadi and Y.Mambrini  |
#              |  Ref.:    Comput.Phys.Commun.168(2005)46           |
#              |           [hep-ph/0311167]                         |
#              |                                                    |
#              |                     HDECAY 3.4                     |
#              |                                                    |
#              |  By: A.Djouadi,J.Kalinowski,M.Muhlleitner,M.Spira  |
#              |  Ref.:    Comput.Phys.Commun.108(1998)56           |
#              |           [hep-ph/9704448]                         |
#              |                                                    |
#              |                                                    |
#              |  If not stated otherwise all DRbar couplings and   |
#              |  soft SUSY breaking masses are given at the scale  |
#              |  Q=  0.91187600E+02
#              |                                                    |
#              ------------------------------------------------------
#
#
BLOCK DCINFO  # Decay Program information
     1   SDECAY/HDECAY # decay calculator
     2   1.5a /3.4    # version number
#
BLOCK SPINFO  # Spectrum calculator information
     1   SuSpect     # RGE +Spectrum calculator            
     2   2.43         # version number                     
#
BLOCK MODSEL  # Model selection
     1     2   # GMSB                                              
#
BLOCK SMINPUTS  # Standard Model inputs
         1     1.27932904E+02   # alpha_em^-1(M_Z)^MSbar
         2     1.16639000E-05   # G_F [GeV^-2]
         3     1.17200000E-01   # alpha_S(M_Z)^MSbar
         4     9.11870000E+01   # M_Z pole mass
         5     4.25000000E+00   # mb(mb)^MSbar
         6     1.72900000E+02   # mt pole mass
         7     1.77700000E+00   # mtau pole mass
#
BLOCK MINPAR  # Input parameters - minimal models
#
BLOCK EXTPAR  # Input parameters - non-minimal models
         0     9.11876000E+01   # EWSB                
         1     8.48000000E+02   # M_1                 
         2     3.00000000E+03   # M_2                 
         3     1.60000000E+03   # M_3                 
        11     0.00000000E+00   # A_t                 
        12     0.00000000E+00   # A_b                 
        13     0.00000000E+00   # A_tau               
        14     0.00000000E+00   # A_u                 
        15     0.00000000E+00   # A_d                 
        16     0.00000000E+00   # A_e                 
        23     8.50000000E+02   # mu(EWSB)            
        25     1.50000000E+00   # tanbeta(in)         
        26     2.00000000E+03   # MA_pole             
        31     5.00000000E+03   # M_eL                
        32     5.00000000E+03   # M_muL               
        33     5.00000000E+03   # M_tauL              
        34     5.00000000E+03   # M_eR                
        35     5.00000000E+03   # M_muR               
        36     5.00000000E+03   # M_tauR              
        41     5.00000000E+03   # M_q1L               
        42     5.00000000E+03   # M_q2L               
        43     5.00000000E+03   # M_q3L               
        44     5.00000000E+03   # M_uR                
        45     5.00000000E+03   # M_cR                
        46     5.00000000E+03   # M_tR                
        47     5.00000000E+03   # M_dR                
        48     5.00000000E+03   # M_sR                
        49     5.00000000E+03   # M_bR                
#
BLOCK MASS  # Mass Spectrum
# PDG code           mass       particle
        24     8.05400801E+01   # W+
        25     1.25000000E+02   # h
        35     2.00404135E+03   # H
        36     2.00000000E+03   # A
        37     2.00148063E+03   # H+
         5     4.87877839E+00   # b-quark pole mass calculated from mb(mb)_Msbar
   1000001     5.00013296E+03   # ~d_L
   2000001     5.00002535E+03   # ~d_R
   1000002     4.99989238E+03   # ~u_L
   2000002     4.99994930E+03   # ~u_R
   1000003     5.00013296E+03   # ~s_L
   2000003     5.00002535E+03   # ~s_R
   1000004     4.99989238E+03   # ~c_L
   2000004     4.99994930E+03   # ~c_R
   1000005     4.99973289E+03   # ~b_1
   2000005     5.00042685E+03   # ~b_2
   1000006     4.99361046E+03   # ~t_1
   2000006     5.01084388E+03   # ~t_2
   1000011     5.00008227E+03   # ~e_L
   2000011     5.00007605E+03   # ~e_R
   1000012     4.99984168E+03   # ~nu_eL
   1000013     5.00008227E+03   # ~mu_L
   2000013     5.00007605E+03   # ~mu_R
   1000014     4.99984168E+03   # ~nu_muL
   1000015     4.99985276E+03   # ~tau_1
   2000015     5.00030618E+03   # ~tau_2
   1000016     4.99984168E+03   # ~nu_tauL
   1000021     1.60000000E+03   # ~g
   1000022     8.04052534E+02   # ~chi_10
   1000023    -8.50107440E+02   # ~chi_20
   1000025     8.91197494E+02   # ~chi_30
   1000035     3.00285741E+03   # ~chi_40
   1000024     8.47268634E+02   # ~chi_1+
   1000037     3.00285634E+03   # ~chi_2+
   1000039     1.00000000E-09   # ~gravitino
#
BLOCK NMIX  # Neutralino Mixing Matrix
  1  1     7.03691572E-01   # N_11
  1  2    -2.50489235E-02   # N_12
  1  3     5.04872686E-01   # N_13
  1  4    -4.99293795E-01   # N_14
  2  1     5.14338801E-03   # N_21
  2  2    -4.03493390E-03   # N_22
  2  3    -7.06868210E-01   # N_23
  2  4    -7.07315063E-01   # N_24
  3  1     7.10486567E-01   # N_31
  3  2     2.58865000E-02   # N_32
  3  3    -4.94903239E-01   # N_33
  3  4     4.99609358E-01   # N_34
  4  1     7.45030499E-04   # N_41
  4  2    -9.99342864E-01   # N_42
  4  3    -2.26205283E-02   # N_43
  4  4     2.83124844E-02   # N_44
#
BLOCK UMIX  # Chargino Mixing Matrix U
  1  1    -3.19750217E-02   # U_11
  1  2     9.99488668E-01   # U_12
  2  1     9.99488668E-01   # U_21
  2  2     3.19750217E-02   # U_22
#
BLOCK VMIX  # Chargino Mixing Matrix V
  1  1    -4.00271381E-02   # V_11
  1  2     9.99198593E-01   # V_12
  2  1     9.99198593E-01   # V_21
  2  2     4.00271381E-02   # V_22
#
BLOCK STOPMIX  # Stop Mixing Matrix
  1  1     7.08273048E-01   # cos(theta_t)
  1  2     7.05938588E-01   # sin(theta_t)
  2  1    -7.05938588E-01   # -sin(theta_t)
  2  2     7.08273048E-01   # cos(theta_t)
#
BLOCK SBOTMIX  # Sbottom Mixing Matrix
  1  1     6.49971006E-01   # cos(theta_b)
  1  2     7.59959006E-01   # sin(theta_b)
  2  1    -7.59959006E-01   # -sin(theta_b)
  2  2     6.49971006E-01   # cos(theta_b)
#
BLOCK STAUMIX  # Stau Mixing Matrix
  1  1     7.02237871E-01   # cos(theta_tau)
  1  2     7.11942394E-01   # sin(theta_tau)
  2  1    -7.11942394E-01   # -sin(theta_tau)
  2  2     7.02237871E-01   # cos(theta_tau)
#
BLOCK ALPHA  # Higgs mixing
          -5.90206689E-01   # Mixing angle in the neutral Higgs boson sector
#
BLOCK HMIX Q=  9.11876000E+01  # DRbar Higgs Parameters
         1     8.50000000E+02   # mu(Q)               
         2     1.49999979E+00   # tanbeta(Q)          
         3     2.52037026E+02   # vev(Q)              
         4     3.59720417E+06   # MA^2(Q)             
#
BLOCK GAUGE Q=  9.11876000E+01  # The gauge couplings
     1     3.52850402E-01   # gprime(Q) DRbar
     2     6.27603616E-01   # g(Q) DRbar
     3     1.08402973E+00   # g3(Q) DRbar
#
BLOCK AU Q=  9.11876000E+01  # The trilinear couplings
  1  1     0.00000000E+00   # A_u(Q) DRbar
  2  2     0.00000000E+00   # A_c(Q) DRbar
  3  3     0.00000000E+00   # A_t(Q) DRbar
#
BLOCK AD Q=  9.11876000E+01  # The trilinear couplings
  1  1     0.00000000E+00   # A_d(Q) DRbar
  2  2     0.00000000E+00   # A_s(Q) DRbar
  3  3     0.00000000E+00   # A_b(Q) DRbar
#
BLOCK AE Q=  9.11876000E+01  # The trilinear couplings
  1  1     0.00000000E+00   # A_e(Q) DRbar
  2  2     0.00000000E+00   # A_mu(Q) DRbar
  3  3     0.00000000E+00   # A_tau(Q) DRbar
#
BLOCK Yu Q=  9.11876000E+01  # The Yukawa couplings
  1  1     0.00000000E+00   # y_u(Q) DRbar
  2  2     0.00000000E+00   # y_c(Q) DRbar
  3  3     1.02590242E+00   # y_t(Q) DRbar
#
BLOCK Yd Q=  9.11876000E+01  # The Yukawa couplings
  1  1     0.00000000E+00   # y_d(Q) DRbar
  2  2     0.00000000E+00   # y_s(Q) DRbar
  3  3     2.71960789E-02   # y_b(Q) DRbar
#
BLOCK Ye Q=  9.11876000E+01  # The Yukawa couplings
  1  1     0.00000000E+00   # y_e(Q) DRbar
  2  2     0.00000000E+00   # y_mu(Q) DRbar
  3  3     1.79853192E-02   # y_tau(Q) DRbar
#
BLOCK MSOFT Q=  9.11876000E+01  # The soft SUSY breaking masses at the scale Q
         1     8.48000000E+02   # M_1                 
         2     3.00000000E+03   # M_2                 
         3     1.60000000E+03   # M_3                 
        14     0.00000000E+00   # A_u                 
        15     0.00000000E+00   # A_d                 
        16     0.00000000E+00   # A_e                 
        21     2.24365884E+06   # M^2_Hd              
        22    -6.12819771E+06   # M^2_Hu              
        31     5.00000000E+03   # M_eL                
        32     5.00000000E+03   # M_muL               
        33     5.00000000E+03   # M_tauL              
        34     5.00000000E+03   # M_eR                
        35     5.00000000E+03   # M_muR               
        36     5.00000000E+03   # M_tauR              
        41     5.00000000E+03   # M_q1L               
        42     5.00000000E+03   # M_q2L               
        43     5.00000000E+03   # M_q3L               
        44     5.00000000E+03   # M_uR                
        45     5.00000000E+03   # M_cR                
        46     5.00000000E+03   # M_tR                
        47     5.00000000E+03   # M_dR                
        48     5.00000000E+03   # M_sR                
        49     5.00000000E+03   # M_bR                
#
#
#
#                             =================
#                             |The decay table|
#                             =================
#
# - The QCD corrections to the decays gluino -> squark  + quark
#                                     squark -> gaugino + quark_prime
#                                     squark -> squark_prime + Higgs
#                                     squark -> gluino  + quark
#   are included.
#
# - The multi-body decays for the inos, stops and sbottoms are included.
#
# - The loop induced decays for the gluino, neutralinos and stops
#   are included.
#
# - The SUSY decays of the top quark are included.
#
# - Possible decays of the NLSP in GMSB models are included.
#
#
#         PDG            Width
DECAY         6     1.37240095E+00   # top decays
#          BR         NDA      ID1       ID2
     1.00000000E+00    2           5        24   # BR(t ->  b    W+)
#
#         PDG            Width
DECAY   1000021     1.63084047E-04   # gluino decays
#          BR         NDA      ID1       ID2
     2.10341193E-02    2     1000022        21   # BR(~g -> ~chi_10 g)
     3.75234018E-02    2     1000023        21   # BR(~g -> ~chi_20 g)
     1.65614545E-02    2     1000025        21   # BR(~g -> ~chi_30 g)
#          BR         NDA      ID1       ID2
     0.00000000E+00    2     1000039        21   # BR(~g -> ~G      g)
#           BR         NDA      ID1       ID2       ID3
     6.09658824E-03    3     1000022         1        -1   # BR(~g -> ~chi_10 d  db)
     5.54722916E-07    3     1000023         1        -1   # BR(~g -> ~chi_20 d  db)
     3.42385983E-03    3     1000025         1        -1   # BR(~g -> ~chi_30 d  db)
     1.87510755E-02    3     1000022         2        -2   # BR(~g -> ~chi_10 u  ub)
     4.69618299E-07    3     1000023         2        -2   # BR(~g -> ~chi_20 u  ub)
     1.28353796E-02    3     1000025         2        -2   # BR(~g -> ~chi_30 u  ub)
     6.09658824E-03    3     1000022         3        -3   # BR(~g -> ~chi_10 s  sb)
     5.54722916E-07    3     1000023         3        -3   # BR(~g -> ~chi_20 s  sb)
     3.42385983E-03    3     1000025         3        -3   # BR(~g -> ~chi_30 s  sb)
     1.87510755E-02    3     1000022         4        -4   # BR(~g -> ~chi_10 c  cb)
     4.69618299E-07    3     1000023         4        -4   # BR(~g -> ~chi_20 c  cb)
     1.28353796E-02    3     1000025         4        -4   # BR(~g -> ~chi_30 c  cb)
     6.18101646E-03    3     1000022         5        -5   # BR(~g -> ~chi_10 b  bb)
     2.00693248E-04    3     1000023         5        -5   # BR(~g -> ~chi_20 b  bb)
     3.52650527E-03    3     1000025         5        -5   # BR(~g -> ~chi_30 b  bb)
     1.01077658E-01    3     1000022         6        -6   # BR(~g -> ~chi_10 t  tb)
     1.35122202E-01    3     1000023         6        -6   # BR(~g -> ~chi_20 t  tb)
     8.84163288E-02    3     1000025         6        -6   # BR(~g -> ~chi_30 t  tb)
     1.36575234E-04    3     1000024         1        -2   # BR(~g -> ~chi_1+ d  ub)
     1.36575234E-04    3    -1000024         2        -1   # BR(~g -> ~chi_1- u  db)
     1.36575234E-04    3     1000024         3        -4   # BR(~g -> ~chi_1+ s  cb)
     1.36575234E-04    3    -1000024         4        -3   # BR(~g -> ~chi_1- c  sb)
     2.16785037E-01    3     1000024         5        -6   # BR(~g -> ~chi_1+ b  tb)
     2.16785037E-01    3    -1000024         6        -5   # BR(~g -> ~chi_1- t  bb)
#
#         PDG            Width
DECAY   1000006     3.33897853E+02   # stop1 decays
#          BR         NDA      ID1       ID2
     8.07748481E-02    2     1000022         6   # BR(~t_1 -> ~chi_10 t )
     1.03843688E-01    2     1000023         6   # BR(~t_1 -> ~chi_20 t )
     3.89976629E-02    2     1000025         6   # BR(~t_1 -> ~chi_30 t )
     1.04253331E-02    2     1000035         6   # BR(~t_1 -> ~chi_40 t )
     1.07680662E-01    2     1000024         5   # BR(~t_1 -> ~chi_1+ b )
     2.07325391E-02    2     1000037         5   # BR(~t_1 -> ~chi_2+ b )
     6.37545267E-01    2     1000021         6   # BR(~t_1 -> ~g      t )
#
#         PDG            Width
DECAY   2000006     3.24631885E+02   # stop2 decays
#          BR         NDA      ID1       ID2
     3.80491837E-02    2     1000022         6   # BR(~t_2 -> ~chi_10 t )
     1.03803455E-01    2     1000023         6   # BR(~t_2 -> ~chi_20 t )
     8.16586774E-02    2     1000025         6   # BR(~t_2 -> ~chi_30 t )
     1.33771947E-02    2     1000035         6   # BR(~t_2 -> ~chi_40 t )
     1.00058089E-01    2     1000024         5   # BR(~t_2 -> ~chi_1+ b )
     2.66312770E-02    2     1000037         5   # BR(~t_2 -> ~chi_2+ b )
     6.36422123E-01    2     1000021         6   # BR(~t_2 -> ~g      t )
#
#         PDG            Width
DECAY   1000005     2.44265453E+02   # sbottom1 decays
#          BR         NDA      ID1       ID2
     4.73779244E-03    2     1000022         5   # BR(~b_1 -> ~chi_10 b )
     8.09759874E-05    2     1000023         5   # BR(~b_1 -> ~chi_20 b )
     2.91813343E-03    2     1000025         5   # BR(~b_1 -> ~chi_30 b )
     1.16999569E-02    2     1000035         5   # BR(~b_1 -> ~chi_40 b )
     9.77368000E-02    2    -1000024         6   # BR(~b_1 -> ~chi_1- t )
     2.35143513E-02    2    -1000037         6   # BR(~b_1 -> ~chi_2- t )
     8.59311990E-01    2     1000021         5   # BR(~b_1 -> ~g      b )
#
#         PDG            Width
DECAY   2000005     2.70301832E+02   # sbottom2 decays
#          BR         NDA      ID1       ID2
     2.06719265E-03    2     1000022         5   # BR(~b_2 -> ~chi_10 b )
     1.06390224E-04    2     1000023         5   # BR(~b_2 -> ~chi_20 b )
     2.85967463E-03    2     1000025         5   # BR(~b_2 -> ~chi_30 b )
     1.81018261E-02    2     1000035         5   # BR(~b_2 -> ~chi_40 b )
     1.64247069E-01    2    -1000024         6   # BR(~b_2 -> ~chi_1- t )
     3.63938911E-02    2    -1000037         6   # BR(~b_2 -> ~chi_2- t )
     7.76223956E-01    2     1000021         5   # BR(~b_2 -> ~g      b )
#
#         PDG            Width
DECAY   1000002     2.33793682E+02   # sup_L decays
#          BR         NDA      ID1       ID2
     8.76550729E-04    2     1000022         2   # BR(~u_L -> ~chi_10 u)
     7.19902475E-07    2     1000023         2   # BR(~u_L -> ~chi_20 u)
     1.91930434E-03    2     1000025         2   # BR(~u_L -> ~chi_30 u)
     3.31279677E-02    2     1000035         2   # BR(~u_L -> ~chi_40 u)
     2.44689807E-04    2     1000024         1   # BR(~u_L -> ~chi_1+ d)
     6.62553718E-02    2     1000037         1   # BR(~u_L -> ~chi_2+ d)
     8.97575396E-01    2     1000021         2   # BR(~u_L -> ~g      u)
#
#         PDG            Width
DECAY   2000002     2.19880719E+02   # sup_R decays
#          BR         NDA      ID1       ID2
     2.27256736E-02    2     1000022         2   # BR(~u_R -> ~chi_10 u)
     1.20654302E-06    2     1000023         2   # BR(~u_R -> ~chi_20 u)
     2.28877629E-02    2     1000025         2   # BR(~u_R -> ~chi_30 u)
     1.10048646E-08    2     1000035         2   # BR(~u_R -> ~chi_40 u)
     9.54385346E-01    2     1000021         2   # BR(~u_R -> ~g      u)
#
#         PDG            Width
DECAY   1000001     2.33797629E+02   # sdown_L decays
#          BR         NDA      ID1       ID2
     1.89153213E-03    2     1000022         1   # BR(~d_L -> ~chi_10 d)
     1.90747686E-06    2     1000023         1   # BR(~d_L -> ~chi_20 d)
     8.73111012E-04    2     1000025         1   # BR(~d_L -> ~chi_30 d)
     3.31510946E-02    2     1000035         1   # BR(~d_L -> ~chi_40 d)
     1.56150957E-04    2    -1000024         2   # BR(~d_L -> ~chi_1- u)
     6.63030621E-02    2    -1000037         2   # BR(~d_L -> ~chi_2- u)
     8.97623142E-01    2     1000021         1   # BR(~d_L -> ~g      d)
#
#         PDG            Width
DECAY   2000001     2.12363073E+02   # sdown_R decays
#          BR         NDA      ID1       ID2
     5.88263991E-03    2     1000022         1   # BR(~d_R -> ~chi_10 d)
     3.12318993E-07    2     1000023         1   # BR(~d_R -> ~chi_20 d)
     5.92459967E-03    2     1000025         1   # BR(~d_R -> ~chi_30 d)
     2.84874948E-09    2     1000035         1   # BR(~d_R -> ~chi_40 d)
     9.88192445E-01    2     1000021         1   # BR(~d_R -> ~g      d)
#
#         PDG            Width
DECAY   1000004     2.33793682E+02   # scharm_L decays
#          BR         NDA      ID1       ID2
     8.76550729E-04    2     1000022         4   # BR(~c_L -> ~chi_10 c)
     7.19902475E-07    2     1000023         4   # BR(~c_L -> ~chi_20 c)
     1.91930434E-03    2     1000025         4   # BR(~c_L -> ~chi_30 c)
     3.31279677E-02    2     1000035         4   # BR(~c_L -> ~chi_40 c)
     2.44689807E-04    2     1000024         3   # BR(~c_L -> ~chi_1+ s)
     6.62553718E-02    2     1000037         3   # BR(~c_L -> ~chi_2+ s)
     8.97575396E-01    2     1000021         4   # BR(~c_L -> ~g      c)
#
#         PDG            Width
DECAY   2000004     2.19880719E+02   # scharm_R decays
#          BR         NDA      ID1       ID2
     2.27256736E-02    2     1000022         4   # BR(~c_R -> ~chi_10 c)
     1.20654302E-06    2     1000023         4   # BR(~c_R -> ~chi_20 c)
     2.28877629E-02    2     1000025         4   # BR(~c_R -> ~chi_30 c)
     1.10048646E-08    2     1000035         4   # BR(~c_R -> ~chi_40 c)
     9.54385346E-01    2     1000021         4   # BR(~c_R -> ~g      c)
#
#         PDG            Width
DECAY   1000003     2.33797629E+02   # sstrange_L decays
#          BR         NDA      ID1       ID2
     1.89153213E-03    2     1000022         3   # BR(~s_L -> ~chi_10 s)
     1.90747686E-06    2     1000023         3   # BR(~s_L -> ~chi_20 s)
     8.73111012E-04    2     1000025         3   # BR(~s_L -> ~chi_30 s)
     3.31510946E-02    2     1000035         3   # BR(~s_L -> ~chi_40 s)
     1.56150957E-04    2    -1000024         4   # BR(~s_L -> ~chi_1- c)
     6.63030621E-02    2    -1000037         4   # BR(~s_L -> ~chi_2- c)
     8.97623142E-01    2     1000021         3   # BR(~s_L -> ~g      s)
#
#         PDG            Width
DECAY   2000003     2.12363073E+02   # sstrange_R decays
#          BR         NDA      ID1       ID2
     5.88263991E-03    2     1000022         3   # BR(~s_R -> ~chi_10 s)
     3.12318993E-07    2     1000023         3   # BR(~s_R -> ~chi_20 s)
     5.92459967E-03    2     1000025         3   # BR(~s_R -> ~chi_30 s)
     2.84874948E-09    2     1000035         3   # BR(~s_R -> ~chi_40 s)
     9.88192445E-01    2     1000021         3   # BR(~s_R -> ~g      s)
#
#         PDG            Width
DECAY   1000011     2.99020475E+01   # selectron_L decays
#          BR         NDA      ID1       ID2
     8.53795020E-02    2     1000022        11   # BR(~e_L -> ~chi_10 e-)
     8.07483067E-07    2     1000023        11   # BR(~e_L -> ~chi_20 e-)
     1.11113951E-01    2     1000025        11   # BR(~e_L -> ~chi_30 e-)
     2.67212364E-01    2     1000035        11   # BR(~e_L -> ~chi_40 e-)
     1.26384419E-03    2    -1000024        12   # BR(~e_L -> ~chi_1- nu_e)
     5.35029531E-01    2    -1000037        12   # BR(~e_L -> ~chi_2- nu_e)
#
#         PDG            Width
DECAY   2000011     2.33615408E+01   # selectron_R decays
#          BR         NDA      ID1       ID2
     4.98223992E-01    2     1000022        11   # BR(~e_R -> ~chi_10 e-)
     2.64507040E-05    2     1000023        11   # BR(~e_R -> ~chi_20 e-)
     5.01749317E-01    2     1000025        11   # BR(~e_R -> ~chi_30 e-)
     2.40551349E-07    2     1000035        11   # BR(~e_R -> ~chi_40 e-)
#
#         PDG            Width
DECAY   1000013     2.99020475E+01   # smuon_L decays
#          BR         NDA      ID1       ID2
     8.53795020E-02    2     1000022        13   # BR(~mu_L -> ~chi_10 mu-)
     8.07483067E-07    2     1000023        13   # BR(~mu_L -> ~chi_20 mu-)
     1.11113951E-01    2     1000025        13   # BR(~mu_L -> ~chi_30 mu-)
     2.67212364E-01    2     1000035        13   # BR(~mu_L -> ~chi_40 mu-)
     1.26384419E-03    2    -1000024        14   # BR(~mu_L -> ~chi_1- nu_mu)
     5.35029531E-01    2    -1000037        14   # BR(~mu_L -> ~chi_2- nu_mu)
#
#         PDG            Width
DECAY   2000013     2.33615408E+01   # smuon_R decays
#          BR         NDA      ID1       ID2
     4.98223992E-01    2     1000022        13   # BR(~mu_R -> ~chi_10 mu-)
     2.64507040E-05    2     1000023        13   # BR(~mu_R -> ~chi_20 mu-)
     5.01749317E-01    2     1000025        13   # BR(~mu_R -> ~chi_30 mu-)
     2.40551349E-07    2     1000035        13   # BR(~mu_R -> ~chi_40 mu-)
#
#         PDG            Width
DECAY   1000015     2.66657552E+01   # stau_1 decays
#          BR         NDA      ID1       ID2
     2.74754664E-01    2     1000022        15   # BR(~tau_1 -> ~chi_10  tau-)
     4.43337109E-04    2     1000023        15   # BR(~tau_1 -> ~chi_20  tau-)
     2.79383399E-01    2     1000025        15   # BR(~tau_1 -> ~chi_30  tau-)
     1.47468208E-01    2     1000035        15   # BR(~tau_1 -> ~chi_40  tau-)
     2.54457014E-03    2    -1000024        16   # BR(~tau_1 -> ~chi_1-  nu_tau)
     2.95270920E-01    2    -1000037        16   # BR(~tau_1 -> ~chi_2-  nu_tau)
     1.34902064E-04    2     1000039        15   # BR(~tau_1 -> ~G       tau-)
#
#         PDG            Width
DECAY   2000015     2.66924505E+01   # stau_2 decays
#          BR         NDA      ID1       ID2
     2.57798406E-01    2     1000022        15   # BR(~tau_2 -> ~chi_10  tau-)
     7.17155086E-04    2     1000023        15   # BR(~tau_2 -> ~chi_20  tau-)
     2.85062857E-01    2     1000025        15   # BR(~tau_2 -> ~chi_30  tau-)
     1.52023262E-01    2     1000035        15   # BR(~tau_2 -> ~chi_40  tau-)
     9.72915325E-06    2    -1000024        16   # BR(~tau_2 -> ~chi_1-  nu_tau)
     3.04388591E-01    2    -1000037        16   # BR(~tau_2 -> ~chi_2-  nu_tau)
#
#         PDG            Width
DECAY   1000012     2.99016901E+01   # snu_eL decays
#          BR         NDA      ID1       ID2
     1.10019876E-01    2     1000022        12   # BR(~nu_eL -> ~chi_10 nu_e)
     2.96412676E-05    2     1000023        12   # BR(~nu_eL -> ~chi_20 nu_e)
     8.57064184E-02    2     1000025        12   # BR(~nu_eL -> ~chi_30 nu_e)
     2.67622000E-01    2     1000035        12   # BR(~nu_eL -> ~chi_40 nu_e)
     1.98044479E-03    2     1000024        11   # BR(~nu_eL -> ~chi_1+ e-)
     5.34641620E-01    2     1000037        11   # BR(~nu_eL -> ~chi_2+ e-)
#
#         PDG            Width
DECAY   1000014     2.99016901E+01   # snu_muL decays
#          BR         NDA      ID1       ID2
     1.10019876E-01    2     1000022        14   # BR(~nu_muL -> ~chi_10 nu_mu)
     2.96412676E-05    2     1000023        14   # BR(~nu_muL -> ~chi_20 nu_mu)
     8.57064184E-02    2     1000025        14   # BR(~nu_muL -> ~chi_30 nu_mu)
     2.67622000E-01    2     1000035        14   # BR(~nu_muL -> ~chi_40 nu_mu)
     1.98044479E-03    2     1000024        13   # BR(~nu_muL -> ~chi_1+ mu-)
     5.34641620E-01    2     1000037        13   # BR(~nu_muL -> ~chi_2+ mu-)
#
#         PDG            Width
DECAY   1000016     2.99320256E+01   # snu_tauL decays
#          BR         NDA      ID1       ID2
     1.09908373E-01    2     1000022        16   # BR(~nu_tauL -> ~chi_10 nu_tau)
     2.96112268E-05    2     1000023        16   # BR(~nu_tauL -> ~chi_20 nu_tau)
     8.56195567E-02    2     1000025        16   # BR(~nu_tauL -> ~chi_30 nu_tau)
     2.67350770E-01    2     1000035        16   # BR(~nu_tauL -> ~chi_40 nu_tau)
     2.99114406E-03    2     1000024        15   # BR(~nu_tauL -> ~chi_1+ tau-)
     5.34100545E-01    2     1000037        15   # BR(~nu_tauL -> ~chi_2+ tau-)
#
#         PDG            Width
DECAY   1000024     9.48374617E-05   # chargino1+ decays
#          BR         NDA      ID1       ID2
     2.56212268E-03    2     1000039        24   # BR(~chi_1+ -> ~G       W+)
#           BR         NDA      ID1       ID2       ID3
     3.33377242E-01    3     1000022         2        -1   # BR(~chi_1+ -> ~chi_10 u    db)
     3.31613686E-01    3     1000022         4        -3   # BR(~chi_1+ -> ~chi_10 c    sb)
     1.11125883E-01    3     1000022       -11        12   # BR(~chi_1+ -> ~chi_10 e+   nu_e)
     1.11122578E-01    3     1000022       -13        14   # BR(~chi_1+ -> ~chi_10 mu+  nu_mu)
     1.10198488E-01    3     1000022       -15        16   # BR(~chi_1+ -> ~chi_10 tau+ nu_tau)
#
#         PDG            Width
DECAY   1000037     3.46301697E+01   # chargino2+ decays
#          BR         NDA      ID1       ID2
     2.47268692E-01    2     1000024        23   # BR(~chi_2+ -> ~chi_1+  Z )
     1.14806631E-01    2     1000022        24   # BR(~chi_2+ -> ~chi_10  W+)
     2.40868081E-01    2     1000023        24   # BR(~chi_2+ -> ~chi_20  W+)
     1.26266987E-01    2     1000025        24   # BR(~chi_2+ -> ~chi_30  W+)
     2.48283348E-01    2     1000024        25   # BR(~chi_2+ -> ~chi_1+  h )
     5.51339045E-03    2     1000024        35   # BR(~chi_2+ -> ~chi_1+  H )
     5.71865489E-03    2     1000024        36   # BR(~chi_2+ -> ~chi_1+  A )
     3.68893433E-03    2     1000022        37   # BR(~chi_2+ -> ~chi_10  H+)
     5.55521733E-03    2     1000023        37   # BR(~chi_2+ -> ~chi_20  H+)
     2.02197405E-03    2     1000025        37   # BR(~chi_2+ -> ~chi_30  H+)
     8.08974306E-06    2     1000039        24   # BR(~chi_2+ -> ~G       W+)
     4.64875928E-10    2     1000039        37   # BR(~chi_2+ -> ~G       H+)
#
#         PDG            Width
DECAY   1000022    1.0E-05    # neutralino1 decays
#          BR         NDA      ID1       ID2
     4.97173226E-01    2     1000039        22   # BR(~chi_10 -> ~G        gam)
     4.91650932E-01    2     1000039        23   # BR(~chi_10 -> ~G        Z)
     1.11758427E-02    2     1000039        25   # BR(~chi_10 -> ~G        h)
#
#         PDG            Width
DECAY   1000023     1.05508455E-04   # neutralino2 decays
#          BR         NDA      ID1       ID2
     3.43003575E-04    2     1000022        22   # BR(~chi_20 -> ~chi_10 gam)
#          BR         NDA      ID1       ID2
     3.04242687E-08    2     1000039        22   # BR(~chi_20 -> ~G        gam)
     8.93991898E-05    2     1000039        23   # BR(~chi_20 -> ~G        Z)
     2.13623996E-03    2     1000039        25   # BR(~chi_20 -> ~G        h)
#           BR         NDA      ID1       ID2       ID3
     1.18648872E-01    3     1000022        -2         2   # BR(~chi_20 -> ~chi_10 ub      u)
     1.53616955E-01    3     1000022        -1         1   # BR(~chi_20 -> ~chi_10 db      d)
     1.17791891E-01    3     1000022        -4         4   # BR(~chi_20 -> ~chi_10 cb      c)
     1.53593543E-01    3     1000022        -3         3   # BR(~chi_20 -> ~chi_10 sb      s)
     1.38791029E-01    3     1000022        -5         5   # BR(~chi_20 -> ~chi_10 bb      b)
     3.50763735E-02    3     1000022       -11        11   # BR(~chi_20 -> ~chi_10 e+      e-)
     3.50750424E-02    3     1000022       -13        13   # BR(~chi_20 -> ~chi_10 mu+     mu-)
     3.47004864E-02    3     1000022       -15        15   # BR(~chi_20 -> ~chi_10 tau+    tau-)
     7.00448520E-02    3     1000022       -12        12   # BR(~chi_20 -> ~chi_10 nu_eb   nu_e)
     7.00448520E-02    3     1000022       -14        14   # BR(~chi_20 -> ~chi_10 nu_mub  nu_mu)
     7.00448520E-02    3     1000022       -16        16   # BR(~chi_20 -> ~chi_10 nu_taub nu_tau)
     6.45738337E-07    3     1000024        -2         1   # BR(~chi_20 -> ~chi_1+ ub      d)
     6.45738337E-07    3    -1000024        -1         2   # BR(~chi_20 -> ~chi_1- db      u)
     1.86602010E-07    3     1000024        -4         3   # BR(~chi_20 -> ~chi_1+ cb      s)
     1.86602010E-07    3    -1000024        -3         4   # BR(~chi_20 -> ~chi_1- sb      c)
     2.15246128E-07    3     1000024       -12        11   # BR(~chi_20 -> ~chi_1+ nu_eb   e-)
     2.15246128E-07    3    -1000024        12       -11   # BR(~chi_20 -> ~chi_1- nu_e    e+)
     2.13766927E-07    3     1000024       -14        13   # BR(~chi_20 -> ~chi_1+ nu_mub  mu-)
     2.13766927E-07    3    -1000024        14       -13   # BR(~chi_20 -> ~chi_1- nu_mu   mu+)
     2.77929601E-08    3     1000024       -16        15   # BR(~chi_20 -> ~chi_1+ nu_taub tau-)
     2.77929601E-08    3    -1000024        16       -15   # BR(~chi_20 -> ~chi_1- nu_tau  tau+)
#
#         PDG            Width
DECAY   1000025     2.60857899E-04   # neutralino3 decays
#          BR         NDA      ID1       ID2
     3.15683609E-04    2     1000022        22   # BR(~chi_30 -> ~chi_10 gam)
     3.82148063E-04    2     1000023        22   # BR(~chi_30 -> ~chi_20 gam)
#          BR         NDA      ID1       ID2
     9.91039951E-04    2     1000039        22   # BR(~chi_30 -> ~G        gam)
     8.18891838E-04    2     1000039        23   # BR(~chi_30 -> ~G        Z)
     2.23480765E-05    2     1000039        25   # BR(~chi_30 -> ~G        h)
#           BR         NDA      ID1       ID2       ID3
     7.79121765E-06    3     1000022        -2         2   # BR(~chi_30 -> ~chi_10 ub      u)
     9.26568894E-06    3     1000022        -1         1   # BR(~chi_30 -> ~chi_10 db      d)
     8.40983838E-06    3     1000022        -4         4   # BR(~chi_30 -> ~chi_10 cb      c)
     9.27730307E-06    3     1000022        -3         3   # BR(~chi_30 -> ~chi_10 sb      s)
     1.13766013E-05    3     1000022        -5         5   # BR(~chi_30 -> ~chi_10 bb      b)
     1.61513177E-06    3     1000022       -11        11   # BR(~chi_30 -> ~chi_10 e+      e-)
     1.61511323E-06    3     1000022       -13        13   # BR(~chi_30 -> ~chi_10 mu+     mu-)
     1.95478753E-06    3     1000022       -15        15   # BR(~chi_30 -> ~chi_10 tau+    tau-)
     4.53774689E-06    3     1000022       -12        12   # BR(~chi_30 -> ~chi_10 nu_eb   nu_e)
     4.53774689E-06    3     1000022       -14        14   # BR(~chi_30 -> ~chi_10 nu_mub  nu_mu)
     4.53774689E-06    3     1000022       -16        16   # BR(~chi_30 -> ~chi_10 nu_taub nu_tau)
     2.59833355E-02    3     1000023        -2         2   # BR(~chi_30 -> ~chi_20 ub      u)
     3.36411900E-02    3     1000023        -1         1   # BR(~chi_30 -> ~chi_20 db      d)
     2.57571921E-02    3     1000023        -4         4   # BR(~chi_30 -> ~chi_20 cb      c)
     3.36348515E-02    3     1000023        -3         3   # BR(~chi_30 -> ~chi_20 sb      s)
     2.96551905E-02    3     1000023        -5         5   # BR(~chi_30 -> ~chi_20 bb      b)
     7.68154731E-03    3     1000023       -11        11   # BR(~chi_30 -> ~chi_20 e+      e-)
     7.68120264E-03    3     1000023       -13        13   # BR(~chi_30 -> ~chi_20 mu+     mu-)
     7.58404288E-03    3     1000023       -15        15   # BR(~chi_30 -> ~chi_20 tau+    tau-)
     1.53393258E-02    3     1000023       -12        12   # BR(~chi_30 -> ~chi_20 nu_eb   nu_e)
     1.53393258E-02    3     1000023       -14        14   # BR(~chi_30 -> ~chi_20 nu_mub  nu_mu)
     1.53393258E-02    3     1000023       -16        16   # BR(~chi_30 -> ~chi_20 nu_taub nu_tau)
     1.30301027E-01    3     1000024        -2         1   # BR(~chi_30 -> ~chi_1+ ub      d)
     1.30301027E-01    3    -1000024        -1         2   # BR(~chi_30 -> ~chi_1- db      u)
     1.29634289E-01    3     1000024        -4         3   # BR(~chi_30 -> ~chi_1+ cb      s)
     1.29634289E-01    3    -1000024        -3         4   # BR(~chi_30 -> ~chi_1- sb      c)
     4.34336026E-02    3     1000024       -12        11   # BR(~chi_30 -> ~chi_1+ nu_eb   e-)
     4.34336026E-02    3    -1000024        12       -11   # BR(~chi_30 -> ~chi_1- nu_e    e+)
     4.34323532E-02    3     1000024       -14        13   # BR(~chi_30 -> ~chi_1+ nu_mub  mu-)
     4.34323532E-02    3    -1000024        14       -13   # BR(~chi_30 -> ~chi_1- nu_mu   mu+)
     4.30829482E-02    3     1000024       -16        15   # BR(~chi_30 -> ~chi_1+ nu_taub tau-)
     4.30829482E-02    3    -1000024        16       -15   # BR(~chi_30 -> ~chi_1- nu_tau  tau+)
#
#         PDG            Width
DECAY   1000035     3.46305693E+01   # neutralino4 decays
#          BR         NDA      ID1       ID2
     1.43284090E-03    2     1000022        23   # BR(~chi_40 -> ~chi_10   Z )
     2.44306373E-01    2     1000023        23   # BR(~chi_40 -> ~chi_20   Z )
     1.60336088E-03    2     1000025        23   # BR(~chi_40 -> ~chi_30   Z )
     2.40778237E-01    2     1000024       -24   # BR(~chi_40 -> ~chi_1+   W-)
     2.40778237E-01    2    -1000024        24   # BR(~chi_40 -> ~chi_1-   W+)
     1.16966455E-01    2     1000022        25   # BR(~chi_40 -> ~chi_10   h )
     1.26120712E-03    2     1000022        35   # BR(~chi_40 -> ~chi_10   H )
     2.40300457E-03    2     1000022        36   # BR(~chi_40 -> ~chi_10   A )
     3.00442985E-03    2     1000023        25   # BR(~chi_40 -> ~chi_20   h )
     3.21365131E-03    2     1000023        35   # BR(~chi_40 -> ~chi_20   H )
     2.28288888E-03    2     1000023        36   # BR(~chi_40 -> ~chi_20   A )
     1.28624132E-01    2     1000025        25   # BR(~chi_40 -> ~chi_30   h )
     9.32431907E-04    2     1000025        35   # BR(~chi_40 -> ~chi_30   H )
     1.06903430E-03    2     1000025        36   # BR(~chi_40 -> ~chi_30   A )
     5.66781309E-03    2     1000024       -37   # BR(~chi_40 -> ~chi_1+   H-)
     5.66781309E-03    2    -1000024        37   # BR(~chi_40 -> ~chi_1-   H+)
     1.94177170E-06    2     1000039        22   # BR(~chi_40 -> ~G        gam)
     6.14715608E-06    2     1000039        23   # BR(~chi_40 -> ~G        Z)
     4.81821564E-10    2     1000039        25   # BR(~chi_40 -> ~G        h)
     4.58369946E-10    2     1000039        35   # BR(~chi_40 -> ~G        H)
     3.77785661E-12    2     1000039        36   # BR(~chi_40 -> ~G        A)
#
#         PDG            Width
DECAY        25     4.08424621E-03   # h decays
#          BR         NDA      ID1       ID2
     6.17595375E-01    2           5        -5   # BR(h -> b       bb     )
     6.37719645E-02    2         -15        15   # BR(h -> tau+    tau-   )
     2.25729267E-04    2         -13        13   # BR(h -> mu+     mu-    )
     4.78340564E-04    2           3        -3   # BR(h -> s       sb     )
     2.06362326E-02    2           4        -4   # BR(h -> c       cb     )
     6.70067793E-02    2          21        21   # BR(h -> g       g      )
     2.30626056E-03    2          22        22   # BR(h -> gam     gam    )
     1.53798944E-03    2          22        23   # BR(h -> Z       gam    )
     2.00815144E-01    2          24       -24   # BR(h -> W+      W-     )
     2.56261849E-02    2          23        23   # BR(h -> Z       Z      )
#
#         PDG            Width
DECAY        35     3.90634617E+01   # H decays
#          BR         NDA      ID1       ID2
     1.42513762E-03    2           5        -5   # BR(H -> b       bb     )
     2.38523279E-04    2         -15        15   # BR(H -> tau+    tau-   )
     8.43268595E-07    2         -13        13   # BR(H -> mu+     mu-    )
     1.07968943E-06    2           3        -3   # BR(H -> s       sb     )
     9.74409173E-06    2           4        -4   # BR(H -> c       cb     )
     9.64133641E-01    2           6        -6   # BR(H -> t       tb     )
     7.72103833E-04    2          21        21   # BR(H -> g       g      )
     2.62881007E-06    2          22        22   # BR(H -> gam     gam    )
     1.12253046E-06    2          23        22   # BR(H -> Z       gam    )
     3.25282180E-04    2          24       -24   # BR(H -> W+      W-     )
     1.62197455E-04    2          23        23   # BR(H -> Z       Z      )
     8.75688434E-04    2          25        25   # BR(H -> h       h      )
     7.44938439E-24    2          36        36   # BR(H -> A       A      )
     2.97775280E-11    2          23        36   # BR(H -> Z       A      )
     7.41045902E-12    2          24       -37   # BR(H -> W+      H-     )
     7.41045902E-12    2         -24        37   # BR(H -> W-      H+     )
     1.58828932E-05    2     1000024  -1000024   # BR(H -> ~chi_1+ ~chi_1-)
     2.95731962E-04    2     1000022   1000022   # BR(H -> ~chi_10 ~chi_10)
     2.85407928E-06    2     1000023   1000023   # BR(H -> ~chi_20 ~chi_20)
     9.12789512E-05    2     1000025   1000025   # BR(H -> ~chi_30 ~chi_30)
     1.87472673E-02    2     1000022   1000023   # BR(H -> ~chi_10 ~chi_20)
     3.66845639E-07    2     1000022   1000025   # BR(H -> ~chi_10 ~chi_30)
     1.28986257E-02    2     1000023   1000025   # BR(H -> ~chi_20 ~chi_30)
#
#         PDG            Width
DECAY        36     3.95137457E+01   # A decays
#          BR         NDA      ID1       ID2
     1.42763329E-03    2           5        -5   # BR(A -> b       bb     )
     2.36024609E-04    2         -15        15   # BR(A -> tau+    tau-   )
     8.34432256E-07    2         -13        13   # BR(A -> mu+     mu-    )
     1.10007846E-06    2           3        -3   # BR(A -> s       sb     )
     9.64019527E-06    2           4        -4   # BR(A -> c       cb     )
     9.64812582E-01    2           6        -6   # BR(A -> t       tb     )
     9.13213438E-04    2          21        21   # BR(A -> g       g      )
     2.90149917E-06    2          22        22   # BR(A -> gam     gam    )
     1.30860708E-06    2          23        22   # BR(A -> Z       gam    )
     3.16970454E-04    2          23        25   # BR(A -> Z       h      )
     5.95652416E-04    2     1000024  -1000024   # BR(A -> ~chi_1+ ~chi_1-)
     1.97848802E-02    2     1000022   1000022   # BR(A -> ~chi_10 ~chi_10)
     3.98281739E-07    2     1000023   1000023   # BR(A -> ~chi_20 ~chi_20)
     1.14518267E-02    2     1000025   1000025   # BR(A -> ~chi_30 ~chi_30)
     2.05773754E-04    2     1000022   1000023   # BR(A -> ~chi_10 ~chi_20)
     1.00923585E-04    2     1000022   1000025   # BR(A -> ~chi_10 ~chi_30)
     1.38336572E-04    2     1000023   1000025   # BR(A -> ~chi_20 ~chi_30)
#
#         PDG            Width
DECAY        37     3.86910520E+01   # H+ decays
#          BR         NDA      ID1       ID2
     2.29091979E-06    2           4        -5   # BR(H+ -> c       bb     )
     2.41221685E-04    2         -15        16   # BR(H+ -> tau+    nu_tau )
     8.52805795E-07    2         -13        14   # BR(H+ -> mu+     nu_mu  )
     1.45652127E-08    2           2        -5   # BR(H+ -> u       bb     )
     5.28144875E-08    2           2        -3   # BR(H+ -> u       sb     )
     1.05234870E-05    2           4        -3   # BR(H+ -> c       sb     )
     9.67264721E-01    2           6        -5   # BR(H+ -> t       bb     )
     3.24889070E-04    2          24        25   # BR(H+ -> W+      h      )
     2.41870846E-13    2          24        36   # BR(H+ -> W+      A      )
     1.68645656E-02    2     1000024   1000022   # BR(H+ -> ~chi_1+ ~chi_10)
     1.41686540E-04    2     1000024   1000023   # BR(H+ -> ~chi_1+ ~chi_20)
     1.51491812E-02    2     1000024   1000025   # BR(H+ -> ~chi_1+ ~chi_30)
