#
#                              ======================
#                              | THE SUSYHIT OUTPUT |
#                              ======================
#
#
#              ------------------------------------------------------
#              |     This is the output of the SUSY-HIT package     |
#              |  created by A.Djouadi, M.Muehlleitner and M.Spira. |
#              |  In case of problems with SUSY-HIT email to        |
#              |           margarete.muehlleitner@kit.edu           |
#              |           michael.spira@psi.ch                     |
#              |           abdelhak.djouadi@cern.ch                 |
#              ------------------------------------------------------
#
#              ------------------------------------------------------
#              |  SUSY Les Houches Accord - MSSM Spectrum + Decays  |
#              |              based on the decay programs           |
#              |                                                    |
#              |                     SDECAY 1.5a                    |
#              |                                                    |
#              |  Authors: M.Muhlleitner, A.Djouadi and Y.Mambrini  |
#              |  Ref.:    Comput.Phys.Commun.168(2005)46           |
#              |           [hep-ph/0311167]                         |
#              |                                                    |
#              |                     HDECAY 3.4                     |
#              |                                                    |
#              |  By: A.Djouadi,J.Kalinowski,M.Muhlleitner,M.Spira  |
#              |  Ref.:    Comput.Phys.Commun.108(1998)56           |
#              |           [hep-ph/9704448]                         |
#              |                                                    |
#              |                                                    |
#              |  If not stated otherwise all DRbar couplings and   |
#              |  soft SUSY breaking masses are given at the scale  |
#              |  Q=  0.91187600E+02
#              |                                                    |
#              ------------------------------------------------------
#
#
BLOCK DCINFO  # Decay Program information
     1   SDECAY/HDECAY # decay calculator
     2   1.5a /3.4    # version number
#
BLOCK SPINFO  # Spectrum calculator information
     1   SuSpect     # RGE +Spectrum calculator            
     2   2.43         # version number                     
#
BLOCK MODSEL  # Model selection
     1     2   # GMSB                                              
#
BLOCK SMINPUTS  # Standard Model inputs
         1     1.27932904E+02   # alpha_em^-1(M_Z)^MSbar
         2     1.16639000E-05   # G_F [GeV^-2]
         3     1.17200000E-01   # alpha_S(M_Z)^MSbar
         4     9.11870000E+01   # M_Z pole mass
         5     4.25000000E+00   # mb(mb)^MSbar
         6     1.72900000E+02   # mt pole mass
         7     1.77700000E+00   # mtau pole mass
#
BLOCK MINPAR  # Input parameters - minimal models
#
BLOCK EXTPAR  # Input parameters - non-minimal models
         0     9.11876000E+01   # EWSB                
         1     6.51000000E+02   # M_1                 
         2     3.00000000E+03   # M_2                 
         3     2.20000000E+03   # M_3                 
        11     0.00000000E+00   # A_t                 
        12     0.00000000E+00   # A_b                 
        13     0.00000000E+00   # A_tau               
        14     0.00000000E+00   # A_u                 
        15     0.00000000E+00   # A_d                 
        16     0.00000000E+00   # A_e                 
        23     6.50000000E+02   # mu(EWSB)            
        25     1.50000000E+00   # tanbeta(in)         
        26     2.00000000E+03   # MA_pole             
        31     5.00000000E+03   # M_eL                
        32     5.00000000E+03   # M_muL               
        33     5.00000000E+03   # M_tauL              
        34     5.00000000E+03   # M_eR                
        35     5.00000000E+03   # M_muR               
        36     5.00000000E+03   # M_tauR              
        41     5.00000000E+03   # M_q1L               
        42     5.00000000E+03   # M_q2L               
        43     5.00000000E+03   # M_q3L               
        44     5.00000000E+03   # M_uR                
        45     5.00000000E+03   # M_cR                
        46     5.00000000E+03   # M_tR                
        47     5.00000000E+03   # M_dR                
        48     5.00000000E+03   # M_sR                
        49     5.00000000E+03   # M_bR                
#
BLOCK MASS  # Mass Spectrum
# PDG code           mass       particle
        24     8.05394379E+01   # W+
        25     1.25000000E+02   # h
        35     2.00431849E+03   # H
        36     2.00000000E+03   # A
        37     2.00173095E+03   # H+
         5     4.87877839E+00   # b-quark pole mass calculated from mb(mb)_Msbar
   1000001     5.00013301E+03   # ~d_L
   2000001     5.00002534E+03   # ~d_R
   1000002     4.99989233E+03   # ~u_L
   2000002     4.99994932E+03   # ~u_R
   1000003     5.00013301E+03   # ~s_L
   2000003     5.00002534E+03   # ~s_R
   1000004     4.99989233E+03   # ~c_L
   2000004     4.99994932E+03   # ~c_R
   1000005     4.99981230E+03   # ~b_1
   2000005     5.00034749E+03   # ~b_2
   1000006     4.99564040E+03   # ~t_1
   2000006     5.00882269E+03   # ~t_2
   1000011     5.00008233E+03   # ~e_L
   2000011     5.00007603E+03   # ~e_R
   1000012     4.99984164E+03   # ~nu_eL
   1000013     5.00008233E+03   # ~mu_L
   2000013     5.00007603E+03   # ~mu_R
   1000014     4.99984164E+03   # ~nu_muL
   1000015     4.99990613E+03   # ~tau_1
   2000015     5.00025285E+03   # ~tau_2
   1000016     4.99984164E+03   # ~nu_tauL
   1000021     2.20000000E+03   # ~g
   1000022     6.05644257E+02   # ~chi_10
   1000023    -6.50124668E+02   # ~chi_20
   1000025     6.92855982E+02   # ~chi_30
   1000035     3.00262443E+03   # ~chi_40
   1000024     6.47508257E+02   # ~chi_1+
   1000037     3.00262362E+03   # ~chi_2+
   1000039     1.00000000E-09   # ~gravitino
#
BLOCK NMIX  # Neutralino Mixing Matrix
  1  1     6.92279460E-01   # N_11
  1  2    -2.33328093E-02   # N_12
  1  3     5.13592675E-01   # N_13
  1  4    -5.06386506E-01   # N_14
  2  1     6.71720382E-03   # N_21
  2  2    -4.26031501E-03   # N_22
  2  3    -7.06745322E-01   # N_23
  2  4    -7.07423338E-01   # N_24
  3  1     7.21597974E-01   # N_31
  3  2     2.32927150E-02   # N_32
  3  3    -4.86128828E-01   # N_33
  3  4     4.92374427E-01   # N_34
  4  1     6.26880426E-04   # N_41
  4  2    -9.99447287E-01   # N_42
  4  3    -2.03070865E-02   # N_43
  4  4     2.63125465E-02   # N_44
#
BLOCK UMIX  # Chargino Mixing Matrix U
  1  1    -2.87064115E-02   # U_11
  1  2     9.99587886E-01   # U_12
  2  1     9.99587886E-01   # U_21
  2  2     2.87064115E-02   # U_22
#
BLOCK VMIX  # Chargino Mixing Matrix V
  1  1    -3.72023773E-02   # V_11
  1  2     9.99307752E-01   # V_12
  2  1     9.99307752E-01   # V_21
  2  2     3.72023773E-02   # V_22
#
BLOCK STOPMIX  # Stop Mixing Matrix
  1  1     7.08632856E-01   # cos(theta_t)
  1  2     7.05577406E-01   # sin(theta_t)
  2  1    -7.05577406E-01   # -sin(theta_t)
  2  2     7.08632856E-01   # cos(theta_t)
#
BLOCK SBOTMIX  # Sbottom Mixing Matrix
  1  1     6.31989265E-01   # cos(theta_b)
  1  2     7.74977141E-01   # sin(theta_b)
  2  1    -7.74977141E-01   # -sin(theta_b)
  2  2     6.31989265E-01   # cos(theta_b)
#
BLOCK STAUMIX  # Stau Mixing Matrix
  1  1     7.00650432E-01   # cos(theta_tau)
  1  2     7.13504711E-01   # sin(theta_tau)
  2  1    -7.13504711E-01   # -sin(theta_tau)
  2  2     7.00650432E-01   # cos(theta_tau)
#
BLOCK ALPHA  # Higgs mixing
          -5.90210191E-01   # Mixing angle in the neutral Higgs boson sector
#
BLOCK HMIX Q=  9.11876000E+01  # DRbar Higgs Parameters
         1     6.50000000E+02   # mu(Q)               
         2     1.49999979E+00   # tanbeta(Q)          
         3     2.51970883E+02   # vev(Q)              
         4     3.66312518E+06   # MA^2(Q)             
#
BLOCK GAUGE Q=  9.11876000E+01  # The gauge couplings
     1     3.52896880E-01   # gprime(Q) DRbar
     2     6.27899001E-01   # g(Q) DRbar
     3     1.07892659E+00   # g3(Q) DRbar
#
BLOCK AU Q=  9.11876000E+01  # The trilinear couplings
  1  1     0.00000000E+00   # A_u(Q) DRbar
  2  2     0.00000000E+00   # A_c(Q) DRbar
  3  3     0.00000000E+00   # A_t(Q) DRbar
#
BLOCK AD Q=  9.11876000E+01  # The trilinear couplings
  1  1     0.00000000E+00   # A_d(Q) DRbar
  2  2     0.00000000E+00   # A_s(Q) DRbar
  3  3     0.00000000E+00   # A_b(Q) DRbar
#
BLOCK AE Q=  9.11876000E+01  # The trilinear couplings
  1  1     0.00000000E+00   # A_e(Q) DRbar
  2  2     0.00000000E+00   # A_mu(Q) DRbar
  3  3     0.00000000E+00   # A_tau(Q) DRbar
#
BLOCK Yu Q=  9.11876000E+01  # The Yukawa couplings
  1  1     0.00000000E+00   # y_u(Q) DRbar
  2  2     0.00000000E+00   # y_c(Q) DRbar
  3  3     1.02646398E+00   # y_t(Q) DRbar
#
BLOCK Yd Q=  9.11876000E+01  # The Yukawa couplings
  1  1     0.00000000E+00   # y_d(Q) DRbar
  2  2     0.00000000E+00   # y_s(Q) DRbar
  3  3     2.72029244E-02   # y_b(Q) DRbar
#
BLOCK Ye Q=  9.11876000E+01  # The Yukawa couplings
  1  1     0.00000000E+00   # y_e(Q) DRbar
  2  2     0.00000000E+00   # y_mu(Q) DRbar
  3  3     1.79879468E-02   # y_tau(Q) DRbar
#
BLOCK MSOFT Q=  9.11876000E+01  # The soft SUSY breaking masses at the scale Q
         1     6.51000000E+02   # M_1                 
         2     3.00000000E+03   # M_2                 
         3     2.20000000E+03   # M_3                 
        14     0.00000000E+00   # A_u                 
        15     0.00000000E+00   # A_d                 
        16     0.00000000E+00   # A_e                 
        21     2.58267934E+06   # M^2_Hd              
        22    -5.77249311E+06   # M^2_Hu              
        31     5.00000000E+03   # M_eL                
        32     5.00000000E+03   # M_muL               
        33     5.00000000E+03   # M_tauL              
        34     5.00000000E+03   # M_eR                
        35     5.00000000E+03   # M_muR               
        36     5.00000000E+03   # M_tauR              
        41     5.00000000E+03   # M_q1L               
        42     5.00000000E+03   # M_q2L               
        43     5.00000000E+03   # M_q3L               
        44     5.00000000E+03   # M_uR                
        45     5.00000000E+03   # M_cR                
        46     5.00000000E+03   # M_tR                
        47     5.00000000E+03   # M_dR                
        48     5.00000000E+03   # M_sR                
        49     5.00000000E+03   # M_bR                
#
#
#
#                             =================
#                             |The decay table|
#                             =================
#
# - The QCD corrections to the decays gluino -> squark  + quark
#                                     squark -> gaugino + quark_prime
#                                     squark -> squark_prime + Higgs
#                                     squark -> gluino  + quark
#   are included.
#
# - The multi-body decays for the inos, stops and sbottoms are included.
#
# - The loop induced decays for the gluino, neutralinos and stops
#   are included.
#
# - The SUSY decays of the top quark are included.
#
# - Possible decays of the NLSP in GMSB models are included.
#
#
#         PDG            Width
DECAY         6     1.37372053E+00   # top decays
#          BR         NDA      ID1       ID2
     1.00000000E+00    2           5        24   # BR(t ->  b    W+)
#
#         PDG            Width
DECAY   1000021     4.17729085E-03   # gluino decays
#          BR         NDA      ID1       ID2
     4.36229884E-03    2     1000022        21   # BR(~g -> ~chi_10 g)
     8.23024451E-03    2     1000023        21   # BR(~g -> ~chi_20 g)
     3.80999841E-03    2     1000025        21   # BR(~g -> ~chi_30 g)
#          BR         NDA      ID1       ID2
     0.00000000E+00    2     1000039        21   # BR(~g -> ~G      g)
#           BR         NDA      ID1       ID2       ID3
     4.03779679E-03    3     1000022         1        -1   # BR(~g -> ~chi_10 d  db)
     7.31055289E-07    3     1000023         1        -1   # BR(~g -> ~chi_20 d  db)
     3.31430732E-03    3     1000025         1        -1   # BR(~g -> ~chi_30 d  db)
     1.24859788E-02    3     1000022         2        -2   # BR(~g -> ~chi_10 u  ub)
     6.82648830E-07    3     1000023         2        -2   # BR(~g -> ~chi_20 u  ub)
     1.22919062E-02    3     1000025         2        -2   # BR(~g -> ~chi_30 u  ub)
     4.03779679E-03    3     1000022         3        -3   # BR(~g -> ~chi_10 s  sb)
     7.31055289E-07    3     1000023         3        -3   # BR(~g -> ~chi_20 s  sb)
     3.31430732E-03    3     1000025         3        -3   # BR(~g -> ~chi_30 s  sb)
     1.24859788E-02    3     1000022         4        -4   # BR(~g -> ~chi_10 c  cb)
     6.82648830E-07    3     1000023         4        -4   # BR(~g -> ~chi_20 c  cb)
     1.22919062E-02    3     1000025         4        -4   # BR(~g -> ~chi_30 c  cb)
     4.12024664E-03    3     1000022         5        -5   # BR(~g -> ~chi_10 b  bb)
     1.73650673E-04    3     1000023         5        -5   # BR(~g -> ~chi_20 b  bb)
     3.40178069E-03    3     1000025         5        -5   # BR(~g -> ~chi_30 b  bb)
     1.15493018E-01    3     1000022         6        -6   # BR(~g -> ~chi_10 t  tb)
     2.05890389E-01    3     1000023         6        -6   # BR(~g -> ~chi_20 t  tb)
     1.20478865E-01    3     1000025         6        -6   # BR(~g -> ~chi_30 t  tb)
     9.14235318E-05    3     1000024         1        -2   # BR(~g -> ~chi_1+ d  ub)
     9.14235318E-05    3    -1000024         2        -1   # BR(~g -> ~chi_1- u  db)
     9.14235318E-05    3     1000024         3        -4   # BR(~g -> ~chi_1+ s  cb)
     9.14235318E-05    3    -1000024         4        -3   # BR(~g -> ~chi_1- c  sb)
     2.27603595E-01    3     1000024         5        -6   # BR(~g -> ~chi_1+ b  tb)
     2.27603595E-01    3    -1000024         6        -5   # BR(~g -> ~chi_1- t  bb)
#
#         PDG            Width
DECAY   1000006     3.00468371E+02   # stop1 decays
#          BR         NDA      ID1       ID2
     9.31151010E-02    2     1000022         6   # BR(~t_1 -> ~chi_10 t )
     1.18002403E-01    2     1000023         6   # BR(~t_1 -> ~chi_20 t )
     4.28813508E-02    2     1000025         6   # BR(~t_1 -> ~chi_30 t )
     1.17639694E-02    2     1000035         6   # BR(~t_1 -> ~chi_40 t )
     1.21372711E-01    2     1000024         5   # BR(~t_1 -> ~chi_1+ b )
     2.34159586E-02    2     1000037         5   # BR(~t_1 -> ~chi_2+ b )
     5.89448506E-01    2     1000021         6   # BR(~t_1 -> ~g      t )
#
#         PDG            Width
DECAY   2000006     2.88702370E+02   # stop2 decays
#          BR         NDA      ID1       ID2
     4.51813880E-02    2     1000022         6   # BR(~t_2 -> ~chi_10 t )
     1.19421783E-01    2     1000023         6   # BR(~t_2 -> ~chi_20 t )
     9.24890683E-02    2     1000025         6   # BR(~t_2 -> ~chi_30 t )
     1.48536037E-02    2     1000035         6   # BR(~t_2 -> ~chi_40 t )
     1.16077065E-01    2     1000024         5   # BR(~t_2 -> ~chi_1+ b )
     2.95928956E-02    2     1000037         5   # BR(~t_2 -> ~chi_2+ b )
     5.82384196E-01    2     1000021         6   # BR(~t_2 -> ~g      t )
#
#         PDG            Width
DECAY   1000005     1.99476408E+02   # sbottom1 decays
#          BR         NDA      ID1       ID2
     6.01168962E-03    2     1000022         5   # BR(~b_1 -> ~chi_10 b )
     9.88898230E-05    2     1000023         5   # BR(~b_1 -> ~chi_20 b )
     4.26236182E-03    2     1000025         5   # BR(~b_1 -> ~chi_30 b )
     1.14470392E-02    2     1000035         5   # BR(~b_1 -> ~chi_40 b )
     8.89459458E-02    2    -1000024         6   # BR(~b_1 -> ~chi_1- t )
     2.29810352E-02    2    -1000037         6   # BR(~b_1 -> ~chi_2- t )
     8.66253039E-01    2     1000021         5   # BR(~b_1 -> ~g      b )
#
#         PDG            Width
DECAY   2000005     2.42473185E+02   # sbottom2 decays
#          BR         NDA      ID1       ID2
     2.01871149E-03    2     1000022         5   # BR(~b_2 -> ~chi_10 b )
     1.23747713E-04    2     1000023         5   # BR(~b_2 -> ~chi_20 b )
     3.00418851E-03    2     1000025         5   # BR(~b_2 -> ~chi_30 b )
     2.25915982E-02    2     1000035         5   # BR(~b_2 -> ~chi_40 b )
     2.14777653E-01    2    -1000024         6   # BR(~b_2 -> ~chi_1- t )
     4.53864491E-02    2    -1000037         6   # BR(~b_2 -> ~chi_2- t )
     7.12097652E-01    2     1000021         5   # BR(~b_2 -> ~g      b )
#
#         PDG            Width
DECAY   1000002     1.96700487E+02   # sup_L decays
#          BR         NDA      ID1       ID2
     1.05428522E-03    2     1000022         2   # BR(~u_L -> ~chi_10 u)
     8.36098299E-07    2     1000023         2   # BR(~u_L -> ~chi_20 u)
     2.31962175E-03    2     1000025         2   # BR(~u_L -> ~chi_30 u)
     3.94309550E-02    2     1000035         2   # BR(~u_L -> ~chi_40 u)
     2.56894617E-04    2     1000024         1   # BR(~u_L -> ~chi_1+ d)
     7.88584706E-02    2     1000037         1   # BR(~u_L -> ~chi_2+ d)
     8.78078937E-01    2     1000021         2   # BR(~u_L -> ~g      u)
#
#         PDG            Width
DECAY   2000002     1.82968608E+02   # sup_R decays
#          BR         NDA      ID1       ID2
     2.69641283E-02    2     1000022         2   # BR(~u_R -> ~chi_10 u)
     2.52738186E-06    2     1000023         2   # BR(~u_R -> ~chi_20 u)
     2.90330771E-02    2     1000025         2   # BR(~u_R -> ~chi_30 u)
     9.36757997E-09    2     1000035         2   # BR(~u_R -> ~chi_40 u)
     9.44000258E-01    2     1000021         2   # BR(~u_R -> ~g      u)
#
#         PDG            Width
DECAY   1000001     1.96705818E+02   # sdown_L decays
#          BR         NDA      ID1       ID2
     2.18242179E-03    2     1000022         1   # BR(~d_L -> ~chi_10 d)
     2.82589403E-06    2     1000023         1   # BR(~d_L -> ~chi_20 d)
     1.15636421E-03    2     1000025         1   # BR(~d_L -> ~chi_30 d)
     3.94545751E-02    2     1000035         1   # BR(~d_L -> ~chi_40 d)
     1.52961549E-04    2    -1000024         2   # BR(~d_L -> ~chi_1- u)
     7.89128541E-02    2    -1000037         2   # BR(~d_L -> ~chi_2- u)
     8.78137997E-01    2     1000021         1   # BR(~d_L -> ~g      d)
#
#         PDG            Width
DECAY   2000001     1.75289152E+02   # sdown_R decays
#          BR         NDA      ID1       ID2
     7.03647296E-03    2     1000022         1   # BR(~d_R -> ~chi_10 d)
     6.59537605E-07    2     1000023         1   # BR(~d_R -> ~chi_20 d)
     7.57638135E-03    2     1000025         1   # BR(~d_R -> ~chi_30 d)
     2.44461432E-09    2     1000035         1   # BR(~d_R -> ~chi_40 d)
     9.85386484E-01    2     1000021         1   # BR(~d_R -> ~g      d)
#
#         PDG            Width
DECAY   1000004     1.96700487E+02   # scharm_L decays
#          BR         NDA      ID1       ID2
     1.05428522E-03    2     1000022         4   # BR(~c_L -> ~chi_10 c)
     8.36098299E-07    2     1000023         4   # BR(~c_L -> ~chi_20 c)
     2.31962175E-03    2     1000025         4   # BR(~c_L -> ~chi_30 c)
     3.94309550E-02    2     1000035         4   # BR(~c_L -> ~chi_40 c)
     2.56894617E-04    2     1000024         3   # BR(~c_L -> ~chi_1+ s)
     7.88584706E-02    2     1000037         3   # BR(~c_L -> ~chi_2+ s)
     8.78078937E-01    2     1000021         4   # BR(~c_L -> ~g      c)
#
#         PDG            Width
DECAY   2000004     1.82968608E+02   # scharm_R decays
#          BR         NDA      ID1       ID2
     2.69641283E-02    2     1000022         4   # BR(~c_R -> ~chi_10 c)
     2.52738186E-06    2     1000023         4   # BR(~c_R -> ~chi_20 c)
     2.90330771E-02    2     1000025         4   # BR(~c_R -> ~chi_30 c)
     9.36757997E-09    2     1000035         4   # BR(~c_R -> ~chi_40 c)
     9.44000258E-01    2     1000021         4   # BR(~c_R -> ~g      c)
#
#         PDG            Width
DECAY   1000003     1.96705818E+02   # sstrange_L decays
#          BR         NDA      ID1       ID2
     2.18242179E-03    2     1000022         3   # BR(~s_L -> ~chi_10 s)
     2.82589403E-06    2     1000023         3   # BR(~s_L -> ~chi_20 s)
     1.15636421E-03    2     1000025         3   # BR(~s_L -> ~chi_30 s)
     3.94545751E-02    2     1000035         3   # BR(~s_L -> ~chi_40 s)
     1.52961549E-04    2    -1000024         4   # BR(~s_L -> ~chi_1- c)
     7.89128541E-02    2    -1000037         4   # BR(~s_L -> ~chi_2- c)
     8.78137997E-01    2     1000021         3   # BR(~s_L -> ~g      s)
#
#         PDG            Width
DECAY   2000003     1.75289152E+02   # sstrange_R decays
#          BR         NDA      ID1       ID2
     7.03647296E-03    2     1000022         3   # BR(~s_R -> ~chi_10 s)
     6.59537605E-07    2     1000023         3   # BR(~s_R -> ~chi_20 s)
     7.57638135E-03    2     1000025         3   # BR(~s_R -> ~chi_30 s)
     2.44461432E-09    2     1000035         3   # BR(~s_R -> ~chi_40 s)
     9.85386484E-01    2     1000021         3   # BR(~s_R -> ~g      s)
#
#         PDG            Width
DECAY   1000011     3.00685555E+01   # selectron_L decays
#          BR         NDA      ID1       ID2
     8.46972723E-02    2     1000022        11   # BR(~e_L -> ~chi_10 e-)
     1.48293239E-07    2     1000023        11   # BR(~e_L -> ~chi_20 e-)
     1.15376405E-01    2     1000025        11   # BR(~e_L -> ~chi_30 e-)
     2.66120491E-01    2     1000035        11   # BR(~e_L -> ~chi_40 e-)
     1.03906391E-03    2    -1000024        12   # BR(~e_L -> ~chi_1- nu_e)
     5.32766619E-01    2    -1000037        12   # BR(~e_L -> ~chi_2- nu_e)
#
#         PDG            Width
DECAY   2000011     2.39394801E+01   # selectron_R decays
#          BR         NDA      ID1       ID2
     4.81551157E-01    2     1000022        11   # BR(~e_R -> ~chi_10 e-)
     4.51320273E-05    2     1000023        11   # BR(~e_R -> ~chi_20 e-)
     5.18403545E-01    2     1000025        11   # BR(~e_R -> ~chi_30 e-)
     1.66267095E-07    2     1000035        11   # BR(~e_R -> ~chi_40 e-)
#
#         PDG            Width
DECAY   1000013     3.00685555E+01   # smuon_L decays
#          BR         NDA      ID1       ID2
     8.46972723E-02    2     1000022        13   # BR(~mu_L -> ~chi_10 mu-)
     1.48293239E-07    2     1000023        13   # BR(~mu_L -> ~chi_20 mu-)
     1.15376405E-01    2     1000025        13   # BR(~mu_L -> ~chi_30 mu-)
     2.66120491E-01    2     1000035        13   # BR(~mu_L -> ~chi_40 mu-)
     1.03906391E-03    2    -1000024        14   # BR(~mu_L -> ~chi_1- nu_mu)
     5.32766619E-01    2    -1000037        14   # BR(~mu_L -> ~chi_2- nu_mu)
#
#         PDG            Width
DECAY   2000013     2.39394801E+01   # smuon_R decays
#          BR         NDA      ID1       ID2
     4.81551157E-01    2     1000022        13   # BR(~mu_R -> ~chi_10 mu-)
     4.51320273E-05    2     1000023        13   # BR(~mu_R -> ~chi_20 mu-)
     5.18403545E-01    2     1000025        13   # BR(~mu_R -> ~chi_30 mu-)
     1.66267095E-07    2     1000035        13   # BR(~mu_R -> ~chi_40 mu-)
#
#         PDG            Width
DECAY   1000015     2.70264441E+01   # stau_1 decays
#          BR         NDA      ID1       ID2
     2.69765963E-01    2     1000022        15   # BR(~tau_1 -> ~chi_10  tau-)
     4.34048012E-04    2     1000023        15   # BR(~tau_1 -> ~chi_20  tau-)
     2.91815145E-01    2     1000025        15   # BR(~tau_1 -> ~chi_30  tau-)
     1.45086178E-01    2     1000035        15   # BR(~tau_1 -> ~chi_40  tau-)
     2.30604898E-03    2    -1000024        16   # BR(~tau_1 -> ~chi_1-  nu_tau)
     2.90459509E-01    2    -1000037        16   # BR(~tau_1 -> ~chi_2-  nu_tau)
     1.33108795E-04    2     1000039        15   # BR(~tau_1 -> ~G       tau-)
#
#         PDG            Width
DECAY   2000015     2.70784987E+01   # stau_2 decays
#          BR         NDA      ID1       ID2
     2.51137867E-01    2     1000022        15   # BR(~tau_2 -> ~chi_10  tau-)
     7.54435607E-04    2     1000023        15   # BR(~tau_2 -> ~chi_20  tau-)
     2.95712759E-01    2     1000025        15   # BR(~tau_2 -> ~chi_30  tau-)
     1.50699532E-01    2     1000035        15   # BR(~tau_2 -> ~chi_40  tau-)
     2.45015287E-07    2    -1000024        16   # BR(~tau_2 -> ~chi_1-  nu_tau)
     3.01695162E-01    2    -1000037        16   # BR(~tau_2 -> ~chi_2-  nu_tau)
#
#         PDG            Width
DECAY   1000012     3.00678009E+01   # snu_eL decays
#          BR         NDA      ID1       ID2
     1.07686269E-01    2     1000022        12   # BR(~nu_eL -> ~chi_10 nu_e)
     4.06964624E-05    2     1000023        12   # BR(~nu_eL -> ~chi_20 nu_e)
     9.16690827E-02    2     1000025        12   # BR(~nu_eL -> ~chi_30 nu_e)
     2.66460924E-01    2     1000035        12   # BR(~nu_eL -> ~chi_40 nu_e)
     1.74507623E-03    2     1000024        11   # BR(~nu_eL -> ~chi_1+ e-)
     5.32397951E-01    2     1000037        11   # BR(~nu_eL -> ~chi_2+ e-)
#
#         PDG            Width
DECAY   1000014     3.00678009E+01   # snu_muL decays
#          BR         NDA      ID1       ID2
     1.07686269E-01    2     1000022        14   # BR(~nu_muL -> ~chi_10 nu_mu)
     4.06964624E-05    2     1000023        14   # BR(~nu_muL -> ~chi_20 nu_mu)
     9.16690827E-02    2     1000025        14   # BR(~nu_muL -> ~chi_30 nu_mu)
     2.66460924E-01    2     1000035        14   # BR(~nu_muL -> ~chi_40 nu_mu)
     1.74507623E-03    2     1000024        13   # BR(~nu_muL -> ~chi_1+ mu-)
     5.32397951E-01    2     1000037        13   # BR(~nu_muL -> ~chi_2+ mu-)
#
#         PDG            Width
DECAY   1000016     3.00989003E+01   # snu_tauL decays
#          BR         NDA      ID1       ID2
     1.07575003E-01    2     1000022        16   # BR(~nu_tauL -> ~chi_10 nu_tau)
     4.06544130E-05    2     1000023        16   # BR(~nu_tauL -> ~chi_20 nu_tau)
     9.15743662E-02    2     1000025        16   # BR(~nu_tauL -> ~chi_30 nu_tau)
     2.66185605E-01    2     1000035        16   # BR(~nu_tauL -> ~chi_40 nu_tau)
     2.77590058E-03    2     1000024        15   # BR(~nu_tauL -> ~chi_1+ tau-)
     5.31848471E-01    2     1000037        15   # BR(~nu_tauL -> ~chi_2+ tau-)
#
#         PDG            Width
DECAY   1000024     8.06432464E-05   # chargino1+ decays
#          BR         NDA      ID1       ID2
     7.65814733E-04    2     1000039        24   # BR(~chi_1+ -> ~G       W+)
#           BR         NDA      ID1       ID2       ID3
     3.34037836E-01    3     1000022         2        -1   # BR(~chi_1+ -> ~chi_10 u    db)
     3.32152749E-01    3     1000022         4        -3   # BR(~chi_1+ -> ~chi_10 c    sb)
     1.11346081E-01    3     1000022       -11        12   # BR(~chi_1+ -> ~chi_10 e+   nu_e)
     1.11342547E-01    3     1000022       -13        14   # BR(~chi_1+ -> ~chi_10 mu+  nu_mu)
     1.10354972E-01    3     1000022       -15        16   # BR(~chi_1+ -> ~chi_10 tau+ nu_tau)
#
#         PDG            Width
DECAY   1000037     3.37166764E+01   # chargino2+ decays
#          BR         NDA      ID1       ID2
     2.37864988E-01    2     1000024        23   # BR(~chi_2+ -> ~chi_1+  Z )
     1.14005903E-01    2     1000022        24   # BR(~chi_2+ -> ~chi_10  W+)
     2.31820027E-01    2     1000023        24   # BR(~chi_2+ -> ~chi_20  W+)
     1.17918061E-01    2     1000025        24   # BR(~chi_2+ -> ~chi_30  W+)
     2.38862043E-01    2     1000024        25   # BR(~chi_2+ -> ~chi_1+  h )
     1.47517874E-02    2     1000024        35   # BR(~chi_2+ -> ~chi_1+  H )
     1.50037899E-02    2     1000024        36   # BR(~chi_2+ -> ~chi_1+  A )
     8.79435496E-03    2     1000022        37   # BR(~chi_2+ -> ~chi_10  H+)
     1.47968725E-02    2     1000023        37   # BR(~chi_2+ -> ~chi_20  H+)
     6.17386637E-03    2     1000025        37   # BR(~chi_2+ -> ~chi_30  H+)
     8.30653561E-06    2     1000039        24   # BR(~chi_2+ -> ~G       W+)
     3.95513184E-10    2     1000039        37   # BR(~chi_2+ -> ~G       H+)
#
#         PDG            Width
DECAY   1000022    1.0E-05    # neutralino1 decays
#          BR         NDA      ID1       ID2
     4.98183414E-01    2     1000039        22   # BR(~chi_10 -> ~G        gam)
     4.90954088E-01    2     1000039        23   # BR(~chi_10 -> ~G        Z)
     1.08624985E-02    2     1000039        25   # BR(~chi_10 -> ~G        h)
#
#         PDG            Width
DECAY   1000023     8.83563225E-05   # neutralino2 decays
#          BR         NDA      ID1       ID2
     5.10957415E-04    2     1000022        22   # BR(~chi_20 -> ~chi_10 gam)
#          BR         NDA      ID1       ID2
     2.14904180E-08    2     1000039        22   # BR(~chi_20 -> ~G        gam)
     2.70748311E-05    2     1000039        23   # BR(~chi_20 -> ~G        Z)
     6.26422668E-04    2     1000039        25   # BR(~chi_20 -> ~G        h)
#           BR         NDA      ID1       ID2       ID3
     1.18950237E-01    3     1000022        -2         2   # BR(~chi_20 -> ~chi_10 ub      u)
     1.53998361E-01    3     1000022        -1         1   # BR(~chi_20 -> ~chi_10 db      d)
     1.18040276E-01    3     1000022        -4         4   # BR(~chi_20 -> ~chi_10 cb      c)
     1.53973311E-01    3     1000022        -3         3   # BR(~chi_20 -> ~chi_10 sb      s)
     1.38167414E-01    3     1000022        -5         5   # BR(~chi_20 -> ~chi_10 bb      b)
     3.51594148E-02    3     1000022       -11        11   # BR(~chi_20 -> ~chi_10 e+      e-)
     3.51580098E-02    3     1000022       -13        13   # BR(~chi_20 -> ~chi_10 mu+     mu-)
     3.47624784E-02    3     1000022       -15        15   # BR(~chi_20 -> ~chi_10 tau+    tau-)
     7.02080178E-02    3     1000022       -12        12   # BR(~chi_20 -> ~chi_10 nu_eb   nu_e)
     7.02080178E-02    3     1000022       -14        14   # BR(~chi_20 -> ~chi_10 nu_mub  nu_mu)
     7.02080178E-02    3     1000022       -16        16   # BR(~chi_20 -> ~chi_10 nu_taub nu_tau)
     5.13310766E-07    3     1000024        -2         1   # BR(~chi_20 -> ~chi_1+ ub      d)
     5.13310766E-07    3    -1000024        -1         2   # BR(~chi_20 -> ~chi_1- db      u)
     1.15496532E-07    3     1000024        -4         3   # BR(~chi_20 -> ~chi_1+ cb      s)
     1.15496532E-07    3    -1000024        -3         4   # BR(~chi_20 -> ~chi_1- sb      c)
     1.71103604E-07    3     1000024       -12        11   # BR(~chi_20 -> ~chi_1+ nu_eb   e-)
     1.71103604E-07    3    -1000024        12       -11   # BR(~chi_20 -> ~chi_1- nu_e    e+)
     1.69721005E-07    3     1000024       -14        13   # BR(~chi_20 -> ~chi_1+ nu_mub  mu-)
     1.69721005E-07    3    -1000024        14       -13   # BR(~chi_20 -> ~chi_1- nu_mu   mu+)
     1.39404381E-08    3     1000024       -16        15   # BR(~chi_20 -> ~chi_1+ nu_taub tau-)
     1.39404381E-08    3    -1000024        16       -15   # BR(~chi_20 -> ~chi_1- nu_tau  tau+)
#
#         PDG            Width
DECAY   1000025     2.95463388E-04   # neutralino3 decays
#          BR         NDA      ID1       ID2
     2.76485361E-04    2     1000022        22   # BR(~chi_30 -> ~chi_10 gam)
     4.81453201E-04    2     1000023        22   # BR(~chi_30 -> ~chi_20 gam)
#          BR         NDA      ID1       ID2
     2.55205479E-04    2     1000039        22   # BR(~chi_30 -> ~G        gam)
     1.98295704E-04    2     1000039        23   # BR(~chi_30 -> ~G        Z)
     5.22951152E-06    2     1000039        25   # BR(~chi_30 -> ~G        h)
#           BR         NDA      ID1       ID2       ID3
     4.64151032E-06    3     1000022        -2         2   # BR(~chi_30 -> ~chi_10 ub      u)
     5.42964213E-06    3     1000022        -1         1   # BR(~chi_30 -> ~chi_10 db      d)
     4.69131591E-06    3     1000022        -4         4   # BR(~chi_30 -> ~chi_10 cb      c)
     5.43061129E-06    3     1000022        -3         3   # BR(~chi_30 -> ~chi_10 sb      s)
     5.54214007E-06    3     1000022        -5         5   # BR(~chi_30 -> ~chi_10 bb      b)
     9.04630846E-07    3     1000022       -11        11   # BR(~chi_30 -> ~chi_10 e+      e-)
     9.04620655E-07    3     1000022       -13        13   # BR(~chi_30 -> ~chi_10 mu+     mu-)
     9.34249320E-07    3     1000022       -15        15   # BR(~chi_30 -> ~chi_10 tau+    tau-)
     2.69445199E-06    3     1000022       -12        12   # BR(~chi_30 -> ~chi_10 nu_eb   nu_e)
     2.69445199E-06    3     1000022       -14        14   # BR(~chi_30 -> ~chi_10 nu_mub  nu_mu)
     2.69445199E-06    3     1000022       -16        16   # BR(~chi_30 -> ~chi_10 nu_taub nu_tau)
     2.67231263E-02    3     1000023        -2         2   # BR(~chi_30 -> ~chi_20 ub      u)
     3.45970631E-02    3     1000023        -1         1   # BR(~chi_30 -> ~chi_20 db      d)
     2.65049171E-02    3     1000023        -4         4   # BR(~chi_30 -> ~chi_20 cb      c)
     3.45910004E-02    3     1000023        -3         3   # BR(~chi_30 -> ~chi_20 sb      s)
     3.07750667E-02    3     1000023        -5         5   # BR(~chi_30 -> ~chi_20 bb      b)
     7.89891535E-03    3     1000023       -11        11   # BR(~chi_30 -> ~chi_20 e+      e-)
     7.89858068E-03    3     1000023       -13        13   # BR(~chi_30 -> ~chi_20 mu+     mu-)
     7.80430656E-03    3     1000023       -15        15   # BR(~chi_30 -> ~chi_20 tau+    tau-)
     1.57727490E-02    3     1000023       -12        12   # BR(~chi_30 -> ~chi_20 nu_eb   nu_e)
     1.57727490E-02    3     1000023       -14        14   # BR(~chi_30 -> ~chi_20 nu_mub  nu_mu)
     1.57727490E-02    3     1000023       -16        16   # BR(~chi_30 -> ~chi_20 nu_taub nu_tau)
     1.29422210E-01    3     1000024        -2         1   # BR(~chi_30 -> ~chi_1+ ub      d)
     1.29422210E-01    3    -1000024        -1         2   # BR(~chi_30 -> ~chi_1- db      u)
     1.28801342E-01    3     1000024        -4         3   # BR(~chi_30 -> ~chi_1+ cb      s)
     1.28801342E-01    3    -1000024        -3         4   # BR(~chi_30 -> ~chi_1- sb      c)
     4.31406576E-02    3     1000024       -12        11   # BR(~chi_30 -> ~chi_1+ nu_eb   e-)
     4.31406576E-02    3    -1000024        12       -11   # BR(~chi_30 -> ~chi_1- nu_e    e+)
     4.31394944E-02    3     1000024       -14        13   # BR(~chi_30 -> ~chi_1+ nu_mub  mu-)
     4.31394944E-02    3    -1000024        14       -13   # BR(~chi_30 -> ~chi_1- nu_mu   mu+)
     4.28140690E-02    3     1000024       -16        15   # BR(~chi_30 -> ~chi_1+ nu_taub tau-)
     4.28140690E-02    3    -1000024        16       -15   # BR(~chi_30 -> ~chi_1- nu_tau  tau+)
#
#         PDG            Width
DECAY   1000035     3.37170957E+01   # neutralino4 decays
#          BR         NDA      ID1       ID2
     1.84534598E-03    2     1000022        23   # BR(~chi_40 -> ~chi_10   Z )
     2.34126218E-01    2     1000023        23   # BR(~chi_40 -> ~chi_20   Z )
     2.01343978E-03    2     1000025        23   # BR(~chi_40 -> ~chi_30   Z )
     2.31670312E-01    2     1000024       -24   # BR(~chi_40 -> ~chi_1+   W-)
     2.31670312E-01    2    -1000024        24   # BR(~chi_40 -> ~chi_1-   W+)
     1.15720729E-01    2     1000022        25   # BR(~chi_40 -> ~chi_10   h )
     1.58036230E-03    2     1000022        35   # BR(~chi_40 -> ~chi_10   H )
     7.18892004E-03    2     1000022        36   # BR(~chi_40 -> ~chi_10   A )
     3.83088929E-03    2     1000023        25   # BR(~chi_40 -> ~chi_20   h )
     1.17887036E-02    2     1000023        35   # BR(~chi_40 -> ~chi_20   H )
     2.91477275E-03    2     1000023        36   # BR(~chi_40 -> ~chi_20   A )
     1.19594411E-01    2     1000025        25   # BR(~chi_40 -> ~chi_30   h )
     1.26052811E-03    2     1000025        35   # BR(~chi_40 -> ~chi_30   H )
     4.89573354E-03    2     1000025        36   # BR(~chi_40 -> ~chi_30   A )
     1.49455078E-02    2     1000024       -37   # BR(~chi_40 -> ~chi_1+   H-)
     1.49455078E-02    2    -1000024        37   # BR(~chi_40 -> ~chi_1-   H+)
     1.99383323E-06    2     1000039        22   # BR(~chi_40 -> ~G        gam)
     6.31189934E-06    2     1000039        23   # BR(~chi_40 -> ~G        Z)
     4.61401139E-10    2     1000039        25   # BR(~chi_40 -> ~G        h)
     3.91014291E-10    2     1000039        35   # BR(~chi_40 -> ~G        H)
     2.11327049E-12    2     1000039        36   # BR(~chi_40 -> ~G        A)
#
#         PDG            Width
DECAY        25     4.08426191E-03   # h decays
#          BR         NDA      ID1       ID2
     6.17576314E-01    2           5        -5   # BR(h -> b       bb     )
     6.37723861E-02    2         -15        15   # BR(h -> tau+    tau-   )
     2.25730760E-04    2         -13        13   # BR(h -> mu+     mu-    )
     4.78343632E-04    2           3        -3   # BR(h -> s       sb     )
     2.06360565E-02    2           4        -4   # BR(h -> c       cb     )
     6.70063526E-02    2          21        21   # BR(h -> g       g      )
     2.30761541E-03    2          22        22   # BR(h -> gam     gam    )
     1.53794855E-03    2          22        23   # BR(h -> Z       gam    )
     2.00833167E-01    2          24       -24   # BR(h -> W+      W-     )
     2.56260860E-02    2          23        23   # BR(h -> Z       Z      )
#
#         PDG            Width
DECAY        35     3.96247882E+01   # H decays
#          BR         NDA      ID1       ID2
     1.40520510E-03    2           5        -5   # BR(H -> b       bb     )
     2.35175763E-04    2         -15        15   # BR(H -> tau+    tau-   )
     8.31433878E-07    2         -13        13   # BR(H -> mu+     mu-    )
     1.06451615E-06    2           3        -3   # BR(H -> s       sb     )
     9.60730144E-06    2           4        -4   # BR(H -> c       cb     )
     9.50606154E-01    2           6        -6   # BR(H -> t       tb     )
     7.61180736E-04    2          21        21   # BR(H -> g       g      )
     2.62964920E-06    2          22        22   # BR(H -> gam     gam    )
     1.10649399E-06    2          23        22   # BR(H -> Z       gam    )
     3.21828466E-04    2          24       -24   # BR(H -> W+      W-     )
     1.60475405E-04    2          23        23   # BR(H -> Z       Z      )
     8.63478669E-04    2          25        25   # BR(H -> h       h      )
     1.02828493E-23    2          36        36   # BR(H -> A       A      )
     4.08971330E-11    2          23        36   # BR(H -> Z       A      )
     7.69609511E-12    2          24       -37   # BR(H -> W+      H-     )
     7.69609511E-12    2         -24        37   # BR(H -> W-      H+     )
     4.26892041E-05    2     1000024  -1000024   # BR(H -> ~chi_1+ ~chi_1-)
     6.98588890E-04    2     1000022   1000022   # BR(H -> ~chi_10 ~chi_10)
     1.11879851E-05    2     1000023   1000023   # BR(H -> ~chi_20 ~chi_20)
     3.54687027E-04    2     1000025   1000025   # BR(H -> ~chi_30 ~chi_30)
     2.45093527E-02    2     1000022   1000023   # BR(H -> ~chi_10 ~chi_20)
     1.78714335E-07    2     1000022   1000025   # BR(H -> ~chi_10 ~chi_30)
     2.00145781E-02    2     1000023   1000025   # BR(H -> ~chi_20 ~chi_30)
#
#         PDG            Width
DECAY        36     4.00760435E+01   # A decays
#          BR         NDA      ID1       ID2
     1.40769696E-03    2           5        -5   # BR(A -> b       bb     )
     2.32713002E-04    2         -15        15   # BR(A -> tau+    tau-   )
     8.22724528E-07    2         -13        13   # BR(A -> mu+     mu-    )
     1.08464351E-06    2           3        -3   # BR(A -> s       sb     )
     9.50493590E-06    2           4        -4   # BR(A -> c       cb     )
     9.51275518E-01    2           6        -6   # BR(A -> t       tb     )
     9.00400350E-04    2          21        21   # BR(A -> g       g      )
     2.72080425E-06    2          22        22   # BR(A -> gam     gam    )
     1.29003988E-06    2          23        22   # BR(A -> Z       gam    )
     3.13517046E-04    2          23        25   # BR(A -> Z       h      )
     7.10872041E-04    2     1000024  -1000024   # BR(A -> ~chi_1+ ~chi_1-)
     2.59130828E-02    2     1000022   1000022   # BR(A -> ~chi_10 ~chi_10)
     7.56995958E-07    2     1000023   1000023   # BR(A -> ~chi_20 ~chi_20)
     1.82147300E-02    2     1000025   1000025   # BR(A -> ~chi_30 ~chi_30)
     5.03820206E-04    2     1000022   1000023   # BR(A -> ~chi_10 ~chi_20)
     1.62000407E-05    2     1000022   1000025   # BR(A -> ~chi_10 ~chi_30)
     4.95269794E-04    2     1000023   1000025   # BR(A -> ~chi_20 ~chi_30)
#
#         PDG            Width
DECAY        37     3.92561519E+01   # H+ decays
#          BR         NDA      ID1       ID2
     2.25842043E-06    2           4        -5   # BR(H+ -> c       bb     )
     2.37778986E-04    2         -15        16   # BR(H+ -> tau+    nu_tau )
     8.40634611E-07    2         -13        14   # BR(H+ -> mu+     nu_mu  )
     1.43585981E-08    2           2        -5   # BR(H+ -> u       bb     )
     5.20598415E-08    2           2        -3   # BR(H+ -> u       sb     )
     1.03731204E-05    2           4        -3   # BR(H+ -> c       sb     )
     9.53446076E-01    2           6        -5   # BR(H+ -> t       bb     )
     3.21352526E-04    2          24        25   # BR(H+ -> W+      h      )
     5.20505490E-13    2          24        36   # BR(H+ -> W+      A      )
     2.24283855E-02    2     1000024   1000022   # BR(H+ -> ~chi_1+ ~chi_10)
     1.66058193E-04    2     1000024   1000023   # BR(H+ -> ~chi_1+ ~chi_20)
     2.33868105E-02    2     1000024   1000025   # BR(H+ -> ~chi_1+ ~chi_30)
