#
#                              ======================
#                              | THE SUSYHIT OUTPUT |
#                              ======================
#
#
#              ------------------------------------------------------
#              |     This is the output of the SUSY-HIT package     |
#              |  created by A.Djouadi, M.Muehlleitner and M.Spira. |
#              |  In case of problems with SUSY-HIT email to        |
#              |           margarete.muehlleitner@kit.edu           |
#              |           michael.spira@psi.ch                     |
#              |           abdelhak.djouadi@cern.ch                 |
#              ------------------------------------------------------
#
#              ------------------------------------------------------
#              |  SUSY Les Houches Accord - MSSM Spectrum + Decays  |
#              |              based on the decay programs           |
#              |                                                    |
#              |                     SDECAY 1.5                     |
#              |                                                    |
#              |  Authors: M.Muhlleitner, A.Djouadi and Y.Mambrini  |
#              |  Ref.:    Comput.Phys.Commun.168(2005)46           |
#              |           [hep-ph/0311167]                         |
#              |                                                    |
#              |                     HDECAY 3.4                     |
#              |                                                    |
#              |  By: A.Djouadi,J.Kalinowski,M.Muhlleitner,M.Spira  |
#              |  Ref.:    Comput.Phys.Commun.108(1998)56           |
#              |           [hep-ph/9704448]                         |
#              |                                                    |
#              |                                                    |
#              |  If not stated otherwise all DRbar couplings and   |
#              |  soft SUSY breaking masses are given at the scale  |
#              |  Q=  0.91187600E+02
#              |                                                    |
#              ------------------------------------------------------
#
#
BLOCK DCINFO  # Decay Program information
     1   SDECAY/HDECAY # decay calculator
     2   1.5  /3.4    # version number
#
BLOCK SPINFO  # Spectrum calculator information
     1   SuSpect     # RGE +Spectrum calculator            
     2   2.43         # version number                     
#
BLOCK MODSEL  # Model selection
     1     2   # GMSB                                              
#
BLOCK SMINPUTS  # Standard Model inputs
         1     1.27932904E+02   # alpha_em^-1(M_Z)^MSbar
         2     1.16639000E-05   # G_F [GeV^-2]
         3     1.17200000E-01   # alpha_S(M_Z)^MSbar
         4     9.11870000E+01   # M_Z pole mass
         5     4.25000000E+00   # mb(mb)^MSbar
         6     1.72900000E+02   # mt pole mass
         7     1.77700000E+00   # mtau pole mass
#
BLOCK MINPAR  # Input parameters - minimal models
#
BLOCK EXTPAR  # Input parameters - non-minimal models
         0     9.11876000E+01   # EWSB                
         1     1.05200000E+03   # M_1                 
         2     3.00000000E+03   # M_2                 
         3     2.00000000E+03   # M_3                 
        11     0.00000000E+00   # A_t                 
        12     0.00000000E+00   # A_b                 
        13     0.00000000E+00   # A_tau               
        14     0.00000000E+00   # A_u                 
        15     0.00000000E+00   # A_d                 
        16     0.00000000E+00   # A_e                 
        23     1.05000000E+03   # mu(EWSB)            
        25     1.50000000E+00   # tanbeta(in)         
        26     2.00000000E+03   # MA_pole             
        31     5.00000000E+03   # M_eL                
        32     5.00000000E+03   # M_muL               
        33     5.00000000E+03   # M_tauL              
        34     5.00000000E+03   # M_eR                
        35     5.00000000E+03   # M_muR               
        36     5.00000000E+03   # M_tauR              
        41     5.00000000E+03   # M_q1L               
        42     5.00000000E+03   # M_q2L               
        43     5.00000000E+03   # M_q3L               
        44     5.00000000E+03   # M_uR                
        45     5.00000000E+03   # M_cR                
        46     5.00000000E+03   # M_tR                
        47     5.00000000E+03   # M_dR                
        48     5.00000000E+03   # M_sR                
        49     5.00000000E+03   # M_bR                
#
BLOCK MASS  # Mass Spectrum
# PDG code           mass       particle
        24     8.05405922E+01   # W+
        25     1.26000000E+02   # h
        35     2.00408757E+03   # H
        36     2.00000000E+03   # A
        37     2.00156339E+03   # H+
         5     4.87877839E+00   # b-quark pole mass calculated from mb(mb)_Msbar
   1000001     4.94269505E+03   # ~d_L
   2000001     4.94258488E+03   # ~d_R
   1000002     4.94244874E+03   # ~u_L
   2000002     4.94250698E+03   # ~u_R
   1000003     4.94269505E+03   # ~s_L
   2000003     4.94258488E+03   # ~s_R
   1000004     4.94244874E+03   # ~c_L
   2000004     4.94250698E+03   # ~c_R
   1000005     4.94220370E+03   # ~b_1
   2000005     4.94307767E+03   # ~b_2
   1000006     5.06730489E+03   # ~t_1
   2000006     5.36591142E+03   # ~t_2
   1000011     5.00008223E+03   # ~e_L
   2000011     5.00007607E+03   # ~e_R
   1000012     4.99984170E+03   # ~nu_eL
   1000013     5.00008223E+03   # ~mu_L
   2000013     5.00007607E+03   # ~mu_R
   1000014     4.99984170E+03   # ~nu_muL
   1000015     4.99979938E+03   # ~tau_1
   2000015     5.00035953E+03   # ~tau_2
   1000016     4.99984170E+03   # ~nu_tauL
   1000021     2.06306929E+03   # ~g
   1000022     1.07294921E+03   # ~chi_10
   1000023    -1.12047785E+03   # ~chi_20
   1000025     1.16011330E+03   # ~chi_30
   1000035     3.12881504E+03   # ~chi_40
   1000024     1.11744967E+03   # ~chi_1+
   1000037     3.12881371E+03   # ~chi_2+
   1000039     1.22468750E-07   # ~gravitino
#
BLOCK NMIX  # Neutralino Mixing Matrix
  1  1     7.14059031E-01   # N_11
  1  2    -2.64037472E-02   # N_12
  1  3     4.96818171E-01   # N_13
  1  4    -4.92538574E-01   # N_14
  2  1     3.90428863E-03   # N_21
  2  2    -3.65604547E-03   # N_22
  2  3    -7.06953464E-01   # N_23
  2  4    -7.07239838E-01   # N_24
  3  1     7.00074089E-01   # N_31
  3  2     2.81675842E-02   # N_32
  3  3    -5.02770068E-01   # N_33
  3  4     5.06285607E-01   # N_34
  4  1     8.51928316E-04   # N_41
  4  2    -9.99247748E-01   # N_42
  4  3    -2.47136164E-02   # N_43
  4  4     2.98738801E-02   # N_44
#
BLOCK UMIX  # Chargino Mixing Matrix U
  1  1    -3.49321591E-02   # U_11
  1  2     9.99389686E-01   # U_12
  2  1     9.99389686E-01   # U_21
  2  2     3.49321591E-02   # U_22
#
BLOCK VMIX  # Chargino Mixing Matrix V
  1  1    -4.22315297E-02   # V_11
  1  2     9.99107851E-01   # V_12
  2  1     9.99107851E-01   # V_21
  2  2     4.22315297E-02   # V_22
#
BLOCK STOPMIX  # Stop Mixing Matrix
  1  1     9.99992284E-01   # cos(theta_t)
  1  2    -3.92835086E-03   # sin(theta_t)
  2  1     3.92835086E-03   # -sin(theta_t)
  2  2     9.99992284E-01   # cos(theta_t)
#
BLOCK SBOTMIX  # Sbottom Mixing Matrix
  1  1     6.61037756E-01   # cos(theta_b)
  1  2     7.50352641E-01   # sin(theta_b)
  2  1    -7.50352641E-01   # -sin(theta_b)
  2  2     6.61037756E-01   # cos(theta_b)
#
BLOCK STAUMIX  # Stau Mixing Matrix
  1  1     7.03207271E-01   # cos(theta_tau)
  1  2     7.10984904E-01   # sin(theta_tau)
  2  1    -7.10984904E-01   # -sin(theta_tau)
  2  2     7.03207271E-01   # cos(theta_tau)
#
BLOCK ALPHA  # Higgs mixing
          -5.90207210E-01   # Mixing angle in the neutral Higgs boson sector
#
BLOCK HMIX Q=  9.11876000E+01  # DRbar Higgs Parameters
         1     1.05000000E+03   # mu(Q)               
         2     1.49999979E+00   # tanbeta(Q)          
         3     2.52100398E+02   # vev(Q)              
         4     3.49366148E+06   # MA^2(Q)             
#
BLOCK GAUGE Q=  9.11876000E+01  # The gauge couplings
     1     3.52814125E-01   # gprime(Q) DRbar
     2     6.27373556E-01   # g(Q) DRbar
     3     1.08044635E+00   # g3(Q) DRbar
#
BLOCK AU Q=  9.11876000E+01  # The trilinear couplings
  1  1     0.00000000E+00   # A_u(Q) DRbar
  2  2     0.00000000E+00   # A_c(Q) DRbar
  3  3     0.00000000E+00   # A_t(Q) DRbar
#
BLOCK AD Q=  9.11876000E+01  # The trilinear couplings
  1  1     0.00000000E+00   # A_d(Q) DRbar
  2  2     0.00000000E+00   # A_s(Q) DRbar
  3  3     0.00000000E+00   # A_b(Q) DRbar
#
BLOCK AE Q=  9.11876000E+01  # The trilinear couplings
  1  1     0.00000000E+00   # A_e(Q) DRbar
  2  2     0.00000000E+00   # A_mu(Q) DRbar
  3  3     0.00000000E+00   # A_tau(Q) DRbar
#
BLOCK Yu Q=  9.11876000E+01  # The Yukawa couplings
  1  1     0.00000000E+00   # y_u(Q) DRbar
  2  2     0.00000000E+00   # y_c(Q) DRbar
  3  3     1.02585781E+00   # y_t(Q) DRbar
#
BLOCK Yd Q=  9.11876000E+01  # The Yukawa couplings
  1  1     0.00000000E+00   # y_d(Q) DRbar
  2  2     0.00000000E+00   # y_s(Q) DRbar
  3  3     2.71818522E-02   # y_b(Q) DRbar
#
BLOCK Ye Q=  9.11876000E+01  # The Yukawa couplings
  1  1     0.00000000E+00   # y_e(Q) DRbar
  2  2     0.00000000E+00   # y_mu(Q) DRbar
  3  3     1.79826690E-02   # y_tau(Q) DRbar
#
BLOCK MSOFT Q=  9.11876000E+01  # The soft SUSY breaking masses at the scale Q
         1     1.05200000E+03   # M_1                 
         2     3.00000000E+03   # M_2                 
         3     2.00000000E+03   # M_3                 
        14     0.00000000E+00   # A_u                 
        15     0.00000000E+00   # A_d                 
        16     0.00000000E+00   # A_e                 
        21     1.81565107E+06   # M^2_Hd              
        22    -6.43039963E+06   # M^2_Hu              
        31     5.00000000E+03   # M_eL                
        32     5.00000000E+03   # M_muL               
        33     5.00000000E+03   # M_tauL              
        34     5.00000000E+03   # M_eR                
        35     5.00000000E+03   # M_muR               
        36     5.00000000E+03   # M_tauR              
        41     5.00000000E+03   # M_q1L               
        42     5.00000000E+03   # M_q2L               
        43     5.00000000E+03   # M_q3L               
        44     5.00000000E+03   # M_uR                
        45     5.00000000E+03   # M_cR                
        46     5.00000000E+03   # M_tR                
        47     5.00000000E+03   # M_dR                
        48     5.00000000E+03   # M_sR                
        49     5.00000000E+03   # M_bR                
#
#
#
#                             =================
#                             |The decay table|
#                             =================
#
# - The QCD corrections to the decays gluino -> squark  + quark
#                                     squark -> gaugino + quark_prime
#                                     squark -> squark_prime + Higgs
#                                     squark -> gluino  + quark
#   are included.
#
# - The multi-body decays for the inos, stops and sbottoms are included.
#
# - The loop induced decays for the gluino, neutralinos and stops
#   are included.
#
# - The SUSY decays of the top quark are included.
#
# - Possible decays of the NLSP in GMSB models are included.
#
#
#         PDG            Width
DECAY         6     1.37137315E+00   # top decays
#          BR         NDA      ID1       ID2
     1.00000000E+00    2           5        24   # BR(t ->  b    W+)
#
#         PDG            Width
DECAY   1000021     5.18591938E-04   # gluino decays
#          BR         NDA      ID1       ID2
     1.19768137E-02    2     1000022        21   # BR(~g -> ~chi_10 g)
     2.20544478E-02    2     1000023        21   # BR(~g -> ~chi_20 g)
     1.00623573E-02    2     1000025        21   # BR(~g -> ~chi_30 g)
#          BR         NDA      ID1       ID2
     5.53196148E-06    2     1000039        21   # BR(~g -> ~G      g)
#           BR         NDA      ID1       ID2       ID3
     7.04985374E-03    3     1000022         1        -1   # BR(~g -> ~chi_10 d  db)
     4.81063870E-07    3     1000023         1        -1   # BR(~g -> ~chi_20 d  db)
     4.05181588E-03    3     1000025         1        -1   # BR(~g -> ~chi_30 d  db)
     2.15981902E-02    3     1000022         2        -2   # BR(~g -> ~chi_10 u  ub)
     3.85012143E-07    3     1000023         2        -2   # BR(~g -> ~chi_20 u  ub)
     1.53381714E-02    3     1000025         2        -2   # BR(~g -> ~chi_30 u  ub)
     7.04985374E-03    3     1000022         3        -3   # BR(~g -> ~chi_10 s  sb)
     4.81063870E-07    3     1000023         3        -3   # BR(~g -> ~chi_20 s  sb)
     4.05181588E-03    3     1000025         3        -3   # BR(~g -> ~chi_30 s  sb)
     2.15981902E-02    3     1000022         4        -4   # BR(~g -> ~chi_10 c  cb)
     3.85012143E-07    3     1000023         4        -4   # BR(~g -> ~chi_20 c  cb)
     1.53381714E-02    3     1000025         4        -4   # BR(~g -> ~chi_30 c  cb)
     7.14965729E-03    3     1000022         5        -5   # BR(~g -> ~chi_10 b  bb)
     2.33146310E-04    3     1000023         5        -5   # BR(~g -> ~chi_20 b  bb)
     4.17458926E-03    3     1000025         5        -5   # BR(~g -> ~chi_30 b  bb)
     1.07260713E-01    3     1000022         6        -6   # BR(~g -> ~chi_10 t  tb)
     1.65963783E-01    3     1000023         6        -6   # BR(~g -> ~chi_20 t  tb)
     1.05109595E-01    3     1000025         6        -6   # BR(~g -> ~chi_30 t  tb)
     1.81863089E-04    3     1000024         1        -2   # BR(~g -> ~chi_1+ d  ub)
     1.81863089E-04    3    -1000024         2        -1   # BR(~g -> ~chi_1- u  db)
     1.81863089E-04    3     1000024         3        -4   # BR(~g -> ~chi_1+ s  cb)
     1.81863089E-04    3    -1000024         4        -3   # BR(~g -> ~chi_1- c  sb)
     2.34602059E-01    3     1000024         5        -6   # BR(~g -> ~chi_1+ b  tb)
     2.34602059E-01    3    -1000024         6        -5   # BR(~g -> ~chi_1- t  bb)
#
#         PDG            Width
DECAY   1000006     2.78107976E+02   # stop1 decays
#          BR         NDA      ID1       ID2
     5.71114673E-02    2     1000022         6   # BR(~t_1 -> ~chi_10 t )
     1.18221620E-01    2     1000023         6   # BR(~t_1 -> ~chi_20 t )
     6.31160425E-02    2     1000025         6   # BR(~t_1 -> ~chi_30 t )
     2.66865129E-02    2     1000035         6   # BR(~t_1 -> ~chi_40 t )
    -3.02147383E-05    2     1000024         5   # BR(~t_1 -> ~chi_1+ b )
     5.30509350E-02    2     1000037         5   # BR(~t_1 -> ~chi_2+ b )
     6.65761563E-01    2     1000021         6   # BR(~t_1 -> ~g      t )
     7.16916089E-03    2     1000005        24   # BR(~t_1 -> ~b_1    W+)
     8.91291296E-03    2     2000005        24   # BR(~t_1 -> ~b_2    W+)
#
#         PDG            Width
DECAY   2000006     3.54095032E+02   # stop2 decays
#          BR         NDA      ID1       ID2
     6.48188737E-02    2     1000022         6   # BR(~t_2 -> ~chi_10 t )
     1.00100179E-01    2     1000023         6   # BR(~t_2 -> ~chi_20 t )
     6.44742062E-02    2     1000025         6   # BR(~t_2 -> ~chi_30 t )
    -1.10724396E-05    2     1000035         6   # BR(~t_2 -> ~chi_40 t )
     2.00519895E-01    2     1000024         5   # BR(~t_2 -> ~chi_1+ b )
    -2.15869912E-05    2     1000037         5   # BR(~t_2 -> ~chi_2+ b )
     5.70218239E-01    2     1000021         6   # BR(~t_2 -> ~g      t )
    -1.10594178E-04    2     1000006        25   # BR(~t_2 -> ~t_1    h )
     2.14768643E-06    2     1000006        23   # BR(~t_2 -> ~t_1    Z )
     4.24626003E-06    2     1000005        24   # BR(~t_2 -> ~b_1    W+)
     5.46705572E-06    2     2000005        24   # BR(~t_2 -> ~b_2    W+)
#
#         PDG            Width
DECAY   1000005     2.12761405E+02   # sbottom1 decays
#          BR         NDA      ID1       ID2
     5.18824522E-03    2     1000022         5   # BR(~b_1 -> ~chi_10 b )
     9.01425365E-05    2     1000023         5   # BR(~b_1 -> ~chi_20 b )
     2.90877369E-03    2     1000025         5   # BR(~b_1 -> ~chi_30 b )
     1.24333540E-02    2     1000035         5   # BR(~b_1 -> ~chi_40 b )
     1.13168796E-01    2    -1000024         6   # BR(~b_1 -> ~chi_1- t )
     2.50144145E-02    2    -1000037         6   # BR(~b_1 -> ~chi_2- t )
     8.41196274E-01    2     1000021         5   # BR(~b_1 -> ~g      b )
#
#         PDG            Width
DECAY   2000005     2.32259767E+02   # sbottom2 decays
#          BR         NDA      ID1       ID2
     2.44548336E-03    2     1000022         5   # BR(~b_2 -> ~chi_10 b )
     1.13479164E-04    2     1000023         5   # BR(~b_2 -> ~chi_20 b )
     3.13789330E-03    2     1000025         5   # BR(~b_2 -> ~chi_30 b )
     1.76069352E-02    2     1000035         5   # BR(~b_2 -> ~chi_40 b )
     1.71208030E-01    2    -1000024         6   # BR(~b_2 -> ~chi_1- t )
     3.54334828E-02    2    -1000037         6   # BR(~b_2 -> ~chi_2- t )
     7.70054697E-01    2     1000021         5   # BR(~b_2 -> ~g      b )
#
#         PDG            Width
DECAY   1000002     1.99767922E+02   # sup_L decays
#          BR         NDA      ID1       ID2
     9.79213688E-04    2     1000022         2   # BR(~u_L -> ~chi_10 u)
     7.18774612E-07    2     1000023         2   # BR(~u_L -> ~chi_20 u)
     2.11931979E-03    2     1000025         2   # BR(~u_L -> ~chi_30 u)
     3.36838994E-02    2     1000035         2   # BR(~u_L -> ~chi_40 u)
     3.00016343E-04    2     1000024         1   # BR(~u_L -> ~chi_1+ d)
     6.73705451E-02    2     1000037         1   # BR(~u_L -> ~chi_2+ d)
     8.95546287E-01    2     1000021         2   # BR(~u_L -> ~g      u)
#
#         PDG            Width
DECAY   2000002     1.88354050E+02   # sup_R decays
#          BR         NDA      ID1       ID2
     2.57870480E-02    2     1000022         2   # BR(~u_R -> ~chi_10 u)
     7.64094345E-07    2     1000023         2   # BR(~u_R -> ~chi_20 u)
     2.43769700E-02    2     1000025         2   # BR(~u_R -> ~chi_30 u)
     1.46051961E-08    2     1000035         2   # BR(~u_R -> ~chi_40 u)
     9.49835203E-01    2     1000021         2   # BR(~u_R -> ~g      u)
#
#         PDG            Width
DECAY   1000001     1.99774373E+02   # sdown_L decays
#          BR         NDA      ID1       ID2
     2.17827011E-03    2     1000022         1   # BR(~d_L -> ~chi_10 d)
     1.61852826E-06    2     1000023         1   # BR(~d_L -> ~chi_20 d)
     8.86043335E-04    2     1000025         1   # BR(~d_L -> ~chi_30 d)
     3.37104836E-02    2     1000035         1   # BR(~d_L -> ~chi_40 d)
     2.05274325E-04    2    -1000024         2   # BR(~d_L -> ~chi_1- u)
     6.74186467E-02    2    -1000037         2   # BR(~d_L -> ~chi_2- u)
     8.95599663E-01    2     1000021         1   # BR(~d_L -> ~g      d)
#
#         PDG            Width
DECAY   2000001     1.81272739E+02   # sdown_R decays
#          BR         NDA      ID1       ID2
     6.69872842E-03    2     1000022         1   # BR(~d_R -> ~chi_10 d)
     1.98489645E-07    2     1000023         1   # BR(~d_R -> ~chi_20 d)
     6.33243446E-03    2     1000025         1   # BR(~d_R -> ~chi_30 d)
     3.79415317E-09    2     1000035         1   # BR(~d_R -> ~chi_40 d)
     9.86968635E-01    2     1000021         1   # BR(~d_R -> ~g      d)
#
#         PDG            Width
DECAY   1000004     1.99767922E+02   # scharm_L decays
#          BR         NDA      ID1       ID2
     9.79213688E-04    2     1000022         4   # BR(~c_L -> ~chi_10 c)
     7.18774612E-07    2     1000023         4   # BR(~c_L -> ~chi_20 c)
     2.11931979E-03    2     1000025         4   # BR(~c_L -> ~chi_30 c)
     3.36838994E-02    2     1000035         4   # BR(~c_L -> ~chi_40 c)
     3.00016343E-04    2     1000024         3   # BR(~c_L -> ~chi_1+ s)
     6.73705451E-02    2     1000037         3   # BR(~c_L -> ~chi_2+ s)
     8.95546287E-01    2     1000021         4   # BR(~c_L -> ~g      c)
#
#         PDG            Width
DECAY   2000004     1.88354050E+02   # scharm_R decays
#          BR         NDA      ID1       ID2
     2.57870480E-02    2     1000022         4   # BR(~c_R -> ~chi_10 c)
     7.64094345E-07    2     1000023         4   # BR(~c_R -> ~chi_20 c)
     2.43769700E-02    2     1000025         4   # BR(~c_R -> ~chi_30 c)
     1.46051961E-08    2     1000035         4   # BR(~c_R -> ~chi_40 c)
     9.49835203E-01    2     1000021         4   # BR(~c_R -> ~g      c)
#
#         PDG            Width
DECAY   1000003     1.99774373E+02   # sstrange_L decays
#          BR         NDA      ID1       ID2
     2.17827011E-03    2     1000022         3   # BR(~s_L -> ~chi_10 s)
     1.61852826E-06    2     1000023         3   # BR(~s_L -> ~chi_20 s)
     8.86043335E-04    2     1000025         3   # BR(~s_L -> ~chi_30 s)
     3.37104836E-02    2     1000035         3   # BR(~s_L -> ~chi_40 s)
     2.05274325E-04    2    -1000024         4   # BR(~s_L -> ~chi_1- c)
     6.74186467E-02    2    -1000037         4   # BR(~s_L -> ~chi_2- c)
     8.95599663E-01    2     1000021         3   # BR(~s_L -> ~g      s)
#
#         PDG            Width
DECAY   2000003     1.81272739E+02   # sstrange_R decays
#          BR         NDA      ID1       ID2
     6.69872842E-03    2     1000022         3   # BR(~s_R -> ~chi_10 s)
     1.98489645E-07    2     1000023         3   # BR(~s_R -> ~chi_20 s)
     6.33243446E-03    2     1000025         3   # BR(~s_R -> ~chi_30 s)
     3.79415317E-09    2     1000035         3   # BR(~s_R -> ~chi_40 s)
     9.86968635E-01    2     1000021         3   # BR(~s_R -> ~g      s)
#
#         PDG            Width
DECAY   1000011     2.73748874E+01   # selectron_L decays
#          BR         NDA      ID1       ID2
     9.15931045E-02    2     1000022        11   # BR(~e_L -> ~chi_10 e-)
     1.37585063E-06    2     1000023        11   # BR(~e_L -> ~chi_20 e-)
     1.13936381E-01    2     1000025        11   # BR(~e_L -> ~chi_30 e-)
     2.64078757E-01    2     1000035        11   # BR(~e_L -> ~chi_40 e-)
     1.57526894E-03    2    -1000024        12   # BR(~e_L -> ~chi_1- nu_e)
     5.28815113E-01    2    -1000037        12   # BR(~e_L -> ~chi_2- nu_e)
#
#         PDG            Width
DECAY   2000011     2.23567205E+01   # selectron_R decays
#          BR         NDA      ID1       ID2
     5.13975487E-01    2     1000022        11   # BR(~e_R -> ~chi_10 e-)
     1.52318596E-05    2     1000023        11   # BR(~e_R -> ~chi_20 e-)
     4.86008983E-01    2     1000025        11   # BR(~e_R -> ~chi_30 e-)
     2.97612796E-07    2     1000035        11   # BR(~e_R -> ~chi_40 e-)
#
#         PDG            Width
DECAY   1000013     2.73748874E+01   # smuon_L decays
#          BR         NDA      ID1       ID2
     9.15931045E-02    2     1000022        13   # BR(~mu_L -> ~chi_10 mu-)
     1.37585063E-06    2     1000023        13   # BR(~mu_L -> ~chi_20 mu-)
     1.13936381E-01    2     1000025        13   # BR(~mu_L -> ~chi_30 mu-)
     2.64078757E-01    2     1000035        13   # BR(~mu_L -> ~chi_40 mu-)
     1.57526894E-03    2    -1000024        14   # BR(~mu_L -> ~chi_1- nu_mu)
     5.28815113E-01    2    -1000037        14   # BR(~mu_L -> ~chi_2- nu_mu)
#
#         PDG            Width
DECAY   2000013     2.23567205E+01   # smuon_R decays
#          BR         NDA      ID1       ID2
     5.13975487E-01    2     1000022        13   # BR(~mu_R -> ~chi_10 mu-)
     1.52318596E-05    2     1000023        13   # BR(~mu_R -> ~chi_20 mu-)
     4.86008983E-01    2     1000025        13   # BR(~mu_R -> ~chi_30 mu-)
     2.97612796E-07    2     1000035        13   # BR(~mu_R -> ~chi_40 mu-)
#
#         PDG            Width
DECAY   1000015     2.49142554E+01   # stau_1 decays
#          BR         NDA      ID1       ID2
     2.89376328E-01    2     1000022        15   # BR(~tau_1 -> ~chi_10  tau-)
     4.70947828E-04    2     1000023        15   # BR(~tau_1 -> ~chi_20  tau-)
     2.77438630E-01    2     1000025        15   # BR(~tau_1 -> ~chi_30  tau-)
     1.43164455E-01    2     1000035        15   # BR(~tau_1 -> ~chi_40  tau-)
     2.86337215E-03    2    -1000024        16   # BR(~tau_1 -> ~chi_1-  nu_tau)
     2.86686258E-01    2    -1000037        16   # BR(~tau_1 -> ~chi_2-  nu_tau)
     9.62610991E-09    2     1000039        15   # BR(~tau_1 -> ~G       tau-)
#
#         PDG            Width
DECAY   2000015     2.49043975E+01   # stau_2 decays
#          BR         NDA      ID1       ID2
     2.73162199E-01    2     1000022        15   # BR(~tau_2 -> ~chi_10  tau-)
     7.08688701E-04    2     1000023        15   # BR(~tau_2 -> ~chi_20  tau-)
     2.84568419E-01    2     1000025        15   # BR(~tau_2 -> ~chi_30  tau-)
     1.47055227E-01    2     1000035        15   # BR(~tau_2 -> ~chi_40  tau-)
     3.12439198E-05    2    -1000024        16   # BR(~tau_2 -> ~chi_1-  nu_tau)
     2.94474222E-01    2    -1000037        16   # BR(~tau_2 -> ~chi_2-  nu_tau)
#
#         PDG            Width
DECAY   1000012     2.73751702E+01   # snu_eL decays
#          BR         NDA      ID1       ID2
     1.19185122E-01    2     1000022        12   # BR(~nu_eL -> ~chi_10 nu_e)
     2.20881098E-05    2     1000023        12   # BR(~nu_eL -> ~chi_20 nu_e)
     8.55325251E-02    2     1000025        12   # BR(~nu_eL -> ~chi_30 nu_e)
     2.64537475E-01    2     1000035        12   # BR(~nu_eL -> ~chi_40 nu_e)
     2.30222467E-03    2     1000024        11   # BR(~nu_eL -> ~chi_1+ e-)
     5.28420565E-01    2     1000037        11   # BR(~nu_eL -> ~chi_2+ e-)
#
#         PDG            Width
DECAY   1000014     2.73751702E+01   # snu_muL decays
#          BR         NDA      ID1       ID2
     1.19185122E-01    2     1000022        14   # BR(~nu_muL -> ~chi_10 nu_mu)
     2.20881098E-05    2     1000023        14   # BR(~nu_muL -> ~chi_20 nu_mu)
     8.55325251E-02    2     1000025        14   # BR(~nu_muL -> ~chi_30 nu_mu)
     2.64537475E-01    2     1000035        14   # BR(~nu_muL -> ~chi_40 nu_mu)
     2.30222467E-03    2     1000024        13   # BR(~nu_muL -> ~chi_1+ mu-)
     5.28420565E-01    2     1000037        13   # BR(~nu_muL -> ~chi_2+ mu-)
#
#         PDG            Width
DECAY   1000016     2.74041790E+01   # snu_tauL decays
#          BR         NDA      ID1       ID2
     1.19058959E-01    2     1000022        16   # BR(~nu_tauL -> ~chi_10 nu_tau)
     2.20647284E-05    2     1000023        16   # BR(~nu_tauL -> ~chi_20 nu_tau)
     8.54419844E-02    2     1000025        16   # BR(~nu_tauL -> ~chi_30 nu_tau)
     2.64257448E-01    2     1000035        16   # BR(~nu_tauL -> ~chi_40 nu_tau)
     3.35739668E-03    2     1000024        15   # BR(~nu_tauL -> ~chi_1+ tau-)
     5.27862147E-01    2     1000037        15   # BR(~nu_tauL -> ~chi_2+ tau-)
#
#         PDG            Width
DECAY   1000024     1.09630742E-04   # chargino1+ decays
#          BR         NDA      ID1       ID2
     5.98681875E-07    2     1000039        24   # BR(~chi_1+ -> ~G       W+)
#           BR         NDA      ID1       ID2       ID3
     3.33624484E-01    3     1000022         2        -1   # BR(~chi_1+ -> ~chi_10 u    db)
     3.33624484E-01    3     1000022         4        -3   # BR(~chi_1+ -> ~chi_10 c    sb)
     1.11208291E-01    3     1000022       -11        12   # BR(~chi_1+ -> ~chi_10 e+   nu_e)
     1.11208291E-01    3     1000022       -13        14   # BR(~chi_1+ -> ~chi_10 mu+  nu_mu)
     1.10333851E-01    3     1000022       -15        16   # BR(~chi_1+ -> ~chi_10 tau+ nu_tau)
#
#         PDG            Width
DECAY   1000037     3.73843726E+01   # chargino2+ decays
#          BR         NDA      ID1       ID2
     2.52230941E-01    2     1000024        23   # BR(~chi_2+ -> ~chi_1+  Z )
     1.13790000E-01    2     1000022        24   # BR(~chi_2+ -> ~chi_10  W+)
     2.45574404E-01    2     1000023        24   # BR(~chi_2+ -> ~chi_20  W+)
     1.32090193E-01    2     1000025        24   # BR(~chi_2+ -> ~chi_30  W+)
     2.53243285E-01    2     1000024        25   # BR(~chi_2+ -> ~chi_1+  h )
     6.04069555E-04    2     1000024        35   # BR(~chi_2+ -> ~chi_1+  H )
     7.97358820E-04    2     1000024        36   # BR(~chi_2+ -> ~chi_1+  A )
     1.07308625E-03    2     1000022        37   # BR(~chi_2+ -> ~chi_10  H+)
     5.96663174E-04    2     1000023        37   # BR(~chi_2+ -> ~chi_20  H+)
     6.13665140E-10    2     1000039        24   # BR(~chi_2+ -> ~G       W+)
     5.22494414E-14    2     1000039        37   # BR(~chi_2+ -> ~G       H+)
#
#         PDG            Width
DECAY   1000022     8.11115699E-11   # neutralino1 decays
#          BR         NDA      ID1       ID2
     4.99832067E-01    2     1000039        22   # BR(~chi_10 -> ~G        gam)
     4.88956699E-01    2     1000039        23   # BR(~chi_10 -> ~G        Z)
     1.12112340E-02    2     1000039        25   # BR(~chi_10 -> ~G        h)
#
#         PDG            Width
DECAY   1000023     1.23412422E-04   # neutralino2 decays
#          BR         NDA      ID1       ID2
     1.24772122E-03    2     1000022        22   # BR(~chi_20 -> ~chi_10 gam)
#          BR         NDA      ID1       ID2
     2.85084801E-12    2     1000039        22   # BR(~chi_20 -> ~G        gam)
     2.06394674E-08    2     1000039        23   # BR(~chi_20 -> ~G        Z)
     5.02372239E-07    2     1000039        25   # BR(~chi_20 -> ~G        h)
#           BR         NDA      ID1       ID2       ID3
     1.18593233E-01    3     1000022        -2         2   # BR(~chi_20 -> ~chi_10 ub      u)
     1.53551716E-01    3     1000022        -1         1   # BR(~chi_20 -> ~chi_10 db      d)
     1.18593233E-01    3     1000022        -4         4   # BR(~chi_20 -> ~chi_10 cb      c)
     1.53551716E-01    3     1000022        -3         3   # BR(~chi_20 -> ~chi_10 sb      s)
     1.39552294E-01    3     1000022        -5         5   # BR(~chi_20 -> ~chi_10 bb      b)
     3.50646316E-02    3     1000022       -11        11   # BR(~chi_20 -> ~chi_10 e+      e-)
     3.50646316E-02    3     1000022       -13        13   # BR(~chi_20 -> ~chi_10 mu+     mu-)
     3.47058125E-02    3     1000022       -15        15   # BR(~chi_20 -> ~chi_10 tau+    tau-)
     7.00234460E-02    3     1000022       -12        12   # BR(~chi_20 -> ~chi_10 nu_eb   nu_e)
     7.00234460E-02    3     1000022       -14        14   # BR(~chi_20 -> ~chi_10 nu_mub  nu_mu)
     7.00234460E-02    3     1000022       -16        16   # BR(~chi_20 -> ~chi_10 nu_taub nu_tau)
     7.61979396E-07    3     1000024        -2         1   # BR(~chi_20 -> ~chi_1+ ub      d)
     7.61979396E-07    3    -1000024        -1         2   # BR(~chi_20 -> ~chi_1- db      u)
     7.61979396E-07    3     1000024        -4         3   # BR(~chi_20 -> ~chi_1+ cb      s)
     7.61979396E-07    3    -1000024        -3         4   # BR(~chi_20 -> ~chi_1- sb      c)
     2.53993148E-07    3     1000024       -12        11   # BR(~chi_20 -> ~chi_1+ nu_eb   e-)
     2.53993148E-07    3    -1000024        12       -11   # BR(~chi_20 -> ~chi_1- nu_e    e+)
     2.53993148E-07    3     1000024       -14        13   # BR(~chi_20 -> ~chi_1+ nu_mub  mu-)
     2.53993148E-07    3    -1000024        14       -13   # BR(~chi_20 -> ~chi_1- nu_mu   mu+)
     4.38069204E-08    3     1000024       -16        15   # BR(~chi_20 -> ~chi_1+ nu_taub tau-)
     4.38069204E-08    3    -1000024        16       -15   # BR(~chi_20 -> ~chi_1- nu_tau  tau+)
#
#         PDG            Width
DECAY   1000025     2.31523639E-04   # neutralino3 decays
#          BR         NDA      ID1       ID2
     3.62101516E-04    2     1000022        22   # BR(~chi_30 -> ~chi_10 gam)
     8.01664062E-06    2     1000023        22   # BR(~chi_30 -> ~chi_20 gam)
#          BR         NDA      ID1       ID2
     2.71284156E-07    2     1000039        22   # BR(~chi_30 -> ~G        gam)
     2.35568015E-07    2     1000039        23   # BR(~chi_30 -> ~G        Z)
     6.58822930E-09    2     1000039        25   # BR(~chi_30 -> ~G        h)
#           BR         NDA      ID1       ID2       ID3
     9.55040543E-06    3     1000022        -2         2   # BR(~chi_30 -> ~chi_10 ub      u)
     1.13355600E-05    3     1000022        -1         1   # BR(~chi_30 -> ~chi_10 db      d)
     9.55040543E-06    3     1000022        -4         4   # BR(~chi_30 -> ~chi_10 cb      c)
     1.13355600E-05    3     1000022        -3         3   # BR(~chi_30 -> ~chi_10 sb      s)
     1.77108065E-05    3     1000022        -5         5   # BR(~chi_30 -> ~chi_10 bb      b)
     1.97665361E-06    3     1000022       -11        11   # BR(~chi_30 -> ~chi_10 e+      e-)
     1.97665361E-06    3     1000022       -13        13   # BR(~chi_30 -> ~chi_10 mu+     mu-)
     2.96447580E-06    3     1000022       -15        15   # BR(~chi_30 -> ~chi_10 tau+    tau-)
     5.55082005E-06    3     1000022       -12        12   # BR(~chi_30 -> ~chi_10 nu_eb   nu_e)
     5.55082005E-06    3     1000022       -14        14   # BR(~chi_30 -> ~chi_10 nu_mub  nu_mu)
     5.55082005E-06    3     1000022       -16        16   # BR(~chi_30 -> ~chi_10 nu_taub nu_tau)
     2.53519784E-02    3     1000023        -2         2   # BR(~chi_30 -> ~chi_20 ub      u)
     3.28251973E-02    3     1000023        -1         1   # BR(~chi_30 -> ~chi_20 db      d)
     2.53519784E-02    3     1000023        -4         4   # BR(~chi_30 -> ~chi_20 cb      c)
     3.28251973E-02    3     1000023        -3         3   # BR(~chi_30 -> ~chi_20 sb      s)
     2.86759702E-02    3     1000023        -5         5   # BR(~chi_30 -> ~chi_20 bb      b)
     7.49588911E-03    3     1000023       -11        11   # BR(~chi_30 -> ~chi_20 e+      e-)
     7.49588911E-03    3     1000023       -13        13   # BR(~chi_30 -> ~chi_20 mu+     mu-)
     7.39538949E-03    3     1000023       -15        15   # BR(~chi_30 -> ~chi_20 tau+    tau-)
     1.49690513E-02    3     1000023       -12        12   # BR(~chi_30 -> ~chi_20 nu_eb   nu_e)
     1.49690513E-02    3     1000023       -14        14   # BR(~chi_30 -> ~chi_20 nu_mub  nu_mu)
     1.49690513E-02    3     1000023       -16        16   # BR(~chi_30 -> ~chi_20 nu_taub nu_tau)
     1.31328645E-01    3     1000024        -2         1   # BR(~chi_30 -> ~chi_1+ ub      d)
     1.31328645E-01    3    -1000024        -1         2   # BR(~chi_30 -> ~chi_1- db      u)
     1.31328645E-01    3     1000024        -4         3   # BR(~chi_30 -> ~chi_1+ cb      s)
     1.31328645E-01    3    -1000024        -3         4   # BR(~chi_30 -> ~chi_1- sb      c)
     4.37761480E-02    3     1000024       -12        11   # BR(~chi_30 -> ~chi_1+ nu_eb   e-)
     4.37761480E-02    3    -1000024        12       -11   # BR(~chi_30 -> ~chi_1- nu_e    e+)
     4.37761480E-02    3     1000024       -14        13   # BR(~chi_30 -> ~chi_1+ nu_mub  mu-)
     4.37761480E-02    3    -1000024        14       -13   # BR(~chi_30 -> ~chi_1- nu_mu   mu+)
     4.34012509E-02    3     1000024       -16        15   # BR(~chi_30 -> ~chi_1+ nu_taub tau-)
     4.34012509E-02    3    -1000024        16       -15   # BR(~chi_30 -> ~chi_1- nu_tau  tau+)
#
#         PDG            Width
DECAY   1000035     3.73878964E+01   # neutralino4 decays
#          BR         NDA      ID1       ID2
     1.03724925E-03    2     1000022        23   # BR(~chi_40 -> ~chi_10   Z )
     2.49978357E-01    2     1000023        23   # BR(~chi_40 -> ~chi_20   Z )
     1.19003983E-03    2     1000025        23   # BR(~chi_40 -> ~chi_30   Z )
     2.45548722E-01    2     1000024       -24   # BR(~chi_40 -> ~chi_1+   W-)
     2.45548722E-01    2    -1000024        24   # BR(~chi_40 -> ~chi_1-   W+)
     1.16307687E-01    2     1000022        25   # BR(~chi_40 -> ~chi_10   h )
     7.40333592E-04    2     1000022        35   # BR(~chi_40 -> ~chi_10   H )
     3.06301584E-04    2     1000022        36   # BR(~chi_40 -> ~chi_10   A )
     2.19757565E-03    2     1000023        25   # BR(~chi_40 -> ~chi_20   h )
     1.37169011E-05    2     1000023        35   # BR(~chi_40 -> ~chi_20   H )
     6.33168115E-04    2     1000023        36   # BR(~chi_40 -> ~chi_20   A )
     1.35035718E-01    2     1000025        25   # BR(~chi_40 -> ~chi_30   h )
     7.31204261E-04    2     1000024       -37   # BR(~chi_40 -> ~chi_1+   H-)
     7.31204261E-04    2    -1000024        37   # BR(~chi_40 -> ~chi_1-   H+)
     1.47242021E-10    2     1000039        22   # BR(~chi_40 -> ~G        gam)
     4.66310699E-10    2     1000039        23   # BR(~chi_40 -> ~G        Z)
     3.74488432E-14    2     1000039        25   # BR(~chi_40 -> ~G        h)
     5.14035273E-14    2     1000039        35   # BR(~chi_40 -> ~G        H)
     6.00010104E-16    2     1000039        36   # BR(~chi_40 -> ~G        A)
#
#         PDG            Width
DECAY        25     4.21938045E-03   # h decays
#          BR         NDA      ID1       ID2
     6.01957283E-01    2           5        -5   # BR(h -> b       bb     )
     6.22246646E-02    2         -15        15   # BR(h -> tau+    tau-   )
     2.20248185E-04    2         -13        13   # BR(h -> mu+     mu-    )
     4.66002446E-04    2           3        -3   # BR(h -> s       sb     )
     2.01038320E-02    2           4        -4   # BR(h -> c       cb     )
     6.63931168E-02    2          21        21   # BR(h -> g       g      )
     2.30724011E-03    2          22        22   # BR(h -> gam     gam    )
     1.62621491E-03    2          22        23   # BR(h -> Z       gam    )
     2.16627247E-01    2          24       -24   # BR(h -> W+      W-     )
     2.80741509E-02    2          23        23   # BR(h -> Z       Z      )
#
#         PDG            Width
DECAY        35     3.78121680E+01   # H decays
#          BR         NDA      ID1       ID2
     1.47046603E-03    2           5        -5   # BR(H -> b       bb     )
     2.46422087E-04    2         -15        15   # BR(H -> tau+    tau-   )
     8.71193822E-07    2         -13        13   # BR(H -> mu+     mu-    )
     1.11544026E-06    2           3        -3   # BR(H -> s       sb     )
     1.00667623E-05    2           4        -4   # BR(H -> c       cb     )
     9.96061709E-01    2           6        -6   # BR(H -> t       tb     )
     7.97731039E-04    2          21        21   # BR(H -> g       g      )
     2.70802351E-06    2          22        22   # BR(H -> gam     gam    )
     1.15983419E-06    2          23        22   # BR(H -> Z       gam    )
     3.36228797E-04    2          24       -24   # BR(H -> W+      W-     )
     1.67655876E-04    2          23        23   # BR(H -> Z       Z      )
     9.03866176E-04    2          25        25   # BR(H -> h       h      )
     8.20097263E-24    2          36        36   # BR(H -> A       A      )
     3.25628572E-11    2          23        36   # BR(H -> Z       A      )
     7.12492328E-12    2          24       -37   # BR(H -> W+      H-     )
     7.12492328E-12    2         -24        37   # BR(H -> W-      H+     )
#
#         PDG            Width
DECAY        36     3.82382704E+01   # A decays
#          BR         NDA      ID1       ID2
     1.47340764E-03    2           5        -5   # BR(A -> b       bb     )
     2.43897443E-04    2         -15        15   # BR(A -> tau+    tau-   )
     8.62265569E-07    2         -13        13   # BR(A -> mu+     mu-    )
     1.13677267E-06    2           3        -3   # BR(A -> s       sb     )
     9.96175352E-06    2           4        -4   # BR(A -> c       cb     )
     9.96994860E-01    2           6        -6   # BR(A -> t       tb     )
     9.43674576E-04    2          21        21   # BR(A -> g       g      )
     3.21131076E-06    2          22        22   # BR(A -> gam     gam    )
     1.35242951E-06    2          23        22   # BR(A -> Z       gam    )
     3.27635870E-04    2          23        25   # BR(A -> Z       h      )
#
#         PDG            Width
DECAY        37     3.74482008E+01   # H+ decays
#          BR         NDA      ID1       ID2
     2.36300278E-06    2           4        -5   # BR(H+ -> c       bb     )
     2.49237786E-04    2         -15        16   # BR(H+ -> tau+    nu_tau )
     8.81145609E-07    2         -13        14   # BR(H+ -> mu+     nu_mu  )
     1.50233318E-08    2           2        -5   # BR(H+ -> u       bb     )
     5.45692742E-08    2           2        -3   # BR(H+ -> u       sb     )
     1.08731347E-05    2           4        -3   # BR(H+ -> c       sb     )
     9.99400767E-01    2           6        -5   # BR(H+ -> t       bb     )
     3.35808800E-04    2          24        25   # BR(H+ -> W+      h      )
     3.27981763E-13    2          24        36   # BR(H+ -> W+      A      )
