#
#                              ======================
#                              | THE SUSYHIT OUTPUT |
#                              ======================
#
#
#              ------------------------------------------------------
#              |     This is the output of the SUSY-HIT package     |
#              |  created by A.Djouadi, M.Muehlleitner and M.Spira. |
#              |  In case of problems with SUSY-HIT email to        |
#              |           margarete.muehlleitner@cern.ch           |
#              |           michael.spira@psi.ch                     |
#              |           abdelhak.djouadi@cern.ch                 |
#              ------------------------------------------------------
#
#              ------------------------------------------------------
#              |  SUSY Les Houches Accord - MSSM Spectrum + Decays  |
#              |              based on the decay programs           |
#              |                                                    |
#              |                     SDECAY 1.3b                    |
#              |                                                    |
#              |  Authors: M.Muhlleitner, A.Djouadi and Y.Mambrini  |
#              |  Ref.:    Comput.Phys.Commun.168(2005)46           |
#              |           [hep-ph/0311167]                         |
#              |                                                    |
#              |                     HDECAY 3.4                     |
#              |                                                    |
#              |  By: A.Djouadi,J.Kalinowski,M.Muhlleitner,M.Spira  |
#              |  Ref.:    Comput.Phys.Commun.108(1998)56           |
#              |           [hep-ph/9704448]                         |
#              |                                                    |
#              |                                                    |
#              |  If not stated otherwise all DRbar couplings and   |
#              |  soft SUSY breaking masses are given at the scale  |
#              |  Q=  0.91187600E+02
#              |                                                    |
#              ------------------------------------------------------
#
#
BLOCK DCINFO  # Decay Program information
     1   SDECAY/HDECAY # decay calculator
     2   1.3b  /3.4    # version number
#
BLOCK SPINFO  # Spectrum calculator information
     1   SuSpect     # RGE +Spectrum calculator            
     2   2.41         # version number                     
#
BLOCK MODSEL  # Model selection
     1     0   # #general MSSM low scale                           
#
BLOCK SMINPUTS  # Standard Model inputs
         1     1.27934000E+02   # alpha_em^-1(M_Z)^MSbar
         2     1.16639000E-05   # G_F [GeV^-2]
         3     1.17200000E-01   # alpha_S(M_Z)^MSbar
         4     9.11870000E+01   # M_Z pole mass
         5     4.25000000E+00   # mb(mb)^MSbar
         6     1.72500000E+02   # mt pole mass
         7     1.77700000E+00   # mtau pole mass
#
BLOCK MINPAR  # Input parameters - minimal models
#
BLOCK EXTPAR  # Input parameters - non-minimal models
         0     9.11876000E+01   # EWSB                
         1     5.00000000E+03   # M_1                 
         2     6.45716000E+02   # M_2                 
         3     6.48987000E+02   # M_3                 
        11     0.00000000E+00   # A_t                 
        12     0.00000000E+00   # A_b                 
        13     0.00000000E+00   # A_tau               
        14     0.00000000E+00   # A_u                 
        15     0.00000000E+00   # A_d                 
        16     0.00000000E+00   # A_e                 
        23     5.00000000E+03   # mu(EWSB)            
        25     1.50000000E+00   # tanbeta(in)         
        26     2.00000000E+03   # MA_pole             
        31     5.00000000E+03   # M_eL                
        32     5.00000000E+03   # M_muL               
        33     5.00000000E+03   # M_tauL              
        34     5.00000000E+03   # M_eR                
        35     5.00000000E+03   # M_muR               
        36     5.00000000E+03   # M_tauR              
        41     5.00000000E+03   # M_q1L               
        42     5.00000000E+03   # M_q2L               
        43     5.00000000E+03   # M_q3L               
        44     5.00000000E+03   # M_uR                
        45     5.00000000E+03   # M_cR                
        46     5.00000000E+03   # M_tR                
        47     5.00000000E+03   # M_dR                
        48     5.00000000E+03   # M_sR                
        49     5.00000000E+03   # M_bR                
#
BLOCK MASS  # Mass Spectrum
# PDG code           mass       particle
        24     8.05295165E+01   # W+
        25     1.25000000E+02   # h
        35     2.00392524E+03   # H
        36     2.00000000E+03   # A
        37     1.99307014E+03   # H+
         5     4.87877839E+00   # b-quark pole mass calculated from mb(mb)_Msbar
   1000001     5.03900807E+03   # ~d_L
   2000001     5.03889825E+03   # ~d_R
   1000002     5.03876274E+03   # ~u_L
   2000002     5.03882118E+03   # ~u_R
   1000003     5.03900807E+03   # ~s_L
   2000003     5.03889825E+03   # ~s_R
   1000004     5.03876274E+03   # ~c_L
   2000004     5.03882118E+03   # ~c_R
   1000005     5.03691421E+03   # ~b_1
   2000005     5.04099274E+03   # ~b_2
   1000006     5.06161595E+03   # ~t_1
   2000006     5.23397959E+03   # ~t_2
   1000011     5.00008315E+03   # ~e_L
   2000011     5.00007617E+03   # ~e_R
   1000012     4.99984068E+03   # ~nu_eL
   1000013     5.00008315E+03   # ~mu_L
   2000013     5.00007617E+03   # ~mu_R
   1000014     4.99984068E+03   # ~nu_muL
   1000015     4.99874655E+03   # ~tau_1
   2000015     5.00141304E+03   # ~tau_2
   1000016     4.99984068E+03   # ~nu_tauL
   1000021     7.99999675E+02   # ~g
   1000022     7.00000187E+02   # ~chi_10
   1000023     5.20056795E+03   # ~chi_20
   1000025    -5.21927430E+03   # ~chi_30
   1000035     5.31563345E+03   # ~chi_40
   1000024     7.00000305E+02   # ~chi_1+
   1000037     5.22060659E+03   # ~chi_2+
 1000039     1.E-09   # ~gravitino              
#
BLOCK NMIX  # Neutralino Mixing Matrix
  1  1     1.58370074E-04   # N_11
  1  2    -9.99848335E-01   # N_12
  1  3     1.40319594E-02   # N_13
  1  4    -1.03143622E-02   # N_14
  2  1     4.16886484E-01   # N_21
  2  2     1.57150512E-02   # N_22
  2  3     6.42864798E-01   # N_23
  2  4    -6.42404505E-01   # N_24
  3  1     8.29549781E-04   # N_31
  3  2    -2.62859849E-03   # N_32
  3  3    -7.07087790E-01   # N_33
  3  4    -7.07120400E-01   # N_34
  4  1     9.08958166E-01   # N_41
  4  2    -7.03097907E-03   # N_42
  4  3    -2.94201992E-01   # N_43
  4  4     2.95280894E-01   # N_44
#
BLOCK UMIX  # Chargino Mixing Matrix U
  1  1    -9.99803135E-01   # U_11
  1  2     1.98416764E-02   # U_12
  2  1     1.98416764E-02   # U_21
  2  2     9.99803135E-01   # U_22
#
BLOCK VMIX  # Chargino Mixing Matrix V
  1  1    -9.99893621E-01   # V_11
  1  2     1.45858561E-02   # V_12
  2  1     1.45858561E-02   # V_21
  2  2     9.99893621E-01   # V_22
#
BLOCK STOPMIX  # Stop Mixing Matrix
  1  1     9.70877809E-01   # cos(theta_t)
  1  2     2.39575207E-01   # sin(theta_t)
  2  1    -2.39575207E-01   # -sin(theta_t)
  2  2     9.70877809E-01   # cos(theta_t)
#
BLOCK SBOTMIX  # Sbottom Mixing Matrix
  1  1     6.97522054E-01   # cos(theta_b)
  1  2     7.16563315E-01   # sin(theta_b)
  2  1    -7.16563315E-01   # -sin(theta_b)
  2  2     6.97522054E-01   # cos(theta_b)
#
BLOCK STAUMIX  # Stau Mixing Matrix
  1  1     7.06180494E-01   # cos(theta_tau)
  1  2     7.08031857E-01   # sin(theta_tau)
  2  1    -7.08031857E-01   # -sin(theta_tau)
  2  2     7.06180494E-01   # cos(theta_tau)
#
BLOCK ALPHA  # Higgs mixing
          -5.90329840E-01   # Mixing angle in the neutral Higgs boson sector
#
BLOCK HMIX Q=  9.11876000E+01  # DRbar Higgs Parameters
         1     5.00000000E+03   # mu(Q)               
         2     1.49999981E+00   # tanbeta(Q)          
         3     2.52304638E+02   # vev(Q)              
         4     3.15796419E+06   # MA^2(Q)             
#
BLOCK GAUGE Q=  9.11876000E+01  # The gauge couplings
     1     3.52525760E-01   # gprime(Q) DRbar
     2     6.28971779E-01   # g(Q) DRbar
     3     1.09892034E+00   # g3(Q) DRbar
#
BLOCK AU Q=  9.11876000E+01  # The trilinear couplings
  1  1     0.00000000E+00   # A_u(Q) DRbar
  2  2     0.00000000E+00   # A_c(Q) DRbar
  3  3     0.00000000E+00   # A_t(Q) DRbar
#
BLOCK AD Q=  9.11876000E+01  # The trilinear couplings
  1  1     0.00000000E+00   # A_d(Q) DRbar
  2  2     0.00000000E+00   # A_s(Q) DRbar
  3  3     0.00000000E+00   # A_b(Q) DRbar
#
BLOCK AE Q=  9.11876000E+01  # The trilinear couplings
  1  1     0.00000000E+00   # A_e(Q) DRbar
  2  2     0.00000000E+00   # A_mu(Q) DRbar
  3  3     0.00000000E+00   # A_tau(Q) DRbar
#
BLOCK Yu Q=  9.11876000E+01  # The Yukawa couplings
  1  1     0.00000000E+00   # y_u(Q) DRbar
  2  2     0.00000000E+00   # y_c(Q) DRbar
  3  3     1.01819690E+00   # y_t(Q) DRbar
#
BLOCK Yd Q=  9.11876000E+01  # The Yukawa couplings
  1  1     0.00000000E+00   # y_d(Q) DRbar
  2  2     0.00000000E+00   # y_s(Q) DRbar
  3  3     2.71274145E-02   # y_b(Q) DRbar
#
BLOCK Ye Q=  9.11876000E+01  # The Yukawa couplings
  1  1     0.00000000E+00   # y_e(Q) DRbar
  2  2     0.00000000E+00   # y_mu(Q) DRbar
  3  3     1.79515308E-02   # y_tau(Q) DRbar
#
BLOCK MSOFT Q=  9.11876000E+01  # The soft SUSY breaking masses at the scale Q
         1     5.00000000E+03   # M_1                 
         2     6.45716000E+02   # M_2                 
         3     6.48987000E+02   # M_3                 
        14     0.00000000E+00   # A_u                 
        15     0.00000000E+00   # A_d                 
        16     0.00000000E+00   # A_e                 
        21    -2.44384557E+07   # M^2_Hd              
        22    -2.89000427E+07   # M^2_Hu              
        31     5.00000000E+03   # M_eL                
        32     5.00000000E+03   # M_muL               
        33     5.00000000E+03   # M_tauL              
        34     5.00000000E+03   # M_eR                
        35     5.00000000E+03   # M_muR               
        36     5.00000000E+03   # M_tauR              
        41     5.00000000E+03   # M_q1L               
        42     5.00000000E+03   # M_q2L               
        43     5.00000000E+03   # M_q3L               
        44     5.00000000E+03   # M_uR                
        45     5.00000000E+03   # M_cR                
        46     5.00000000E+03   # M_tR                
        47     5.00000000E+03   # M_dR                
        48     5.00000000E+03   # M_sR                
        49     5.00000000E+03   # M_bR                
#
#
#
#                             =================
#                             |The decay table|
#                             =================
#
# - The QCD corrections to the decays gluino -> squark  + quark
#                                     squark -> gaugino + quark_prime
#                                     squark -> squark_prime + Higgs
#                                     squark -> gluino  + quark
#   are included.
#
# - The multi-body decays for the inos, stops and sbottoms are included.
#
# - The loop induced decays for the gluino, neutralinos and stops
#   are included.
#
# - The SUSY decays of the top quark are included.
#
# - Possible decays of the NLSP in GMSB models are included.
#
#
#         PDG            Width
DECAY         6     1.36769463E+00   # top decays
#          BR         NDA      ID1       ID2
     1.00000000E+00    2           5        24   # BR(t ->  b    W+)
#
#         PDG            Width
DECAY   1000021     8.32906441E-09   # gluino decays
#          BR         NDA      ID1       ID2
     9.96765069E-04    2     1000022        21   # BR(~g -> ~chi_10 g)
#          BR         NDA      ID1       ID2
 0    2     1000039        21   # BR(~g -> ~G      g) 
#           BR         NDA      ID1       ID2       ID3
     7.70045281E-02    3     1000022         1        -1   # BR(~g -> ~chi_10 d  db)
     7.70107510E-02    3     1000022         2        -2   # BR(~g -> ~chi_10 u  ub)
     7.70045281E-02    3     1000022         3        -3   # BR(~g -> ~chi_10 s  sb)
     7.70107510E-02    3     1000022         4        -4   # BR(~g -> ~chi_10 c  cb)
     7.48687393E-02    3     1000022         5        -5   # BR(~g -> ~chi_10 b  bb)
     1.54014423E-01    3     1000024         1        -2   # BR(~g -> ~chi_1+ d  ub)
     1.54014423E-01    3    -1000024         2        -1   # BR(~g -> ~chi_1- u  db)
     1.54014423E-01    3     1000024         3        -4   # BR(~g -> ~chi_1+ s  cb)
     1.54014423E-01    3    -1000024         4        -3   # BR(~g -> ~chi_1- c  sb)
#
#         PDG            Width
DECAY   1000006     3.03434995E+02   # stop1 decays
#          BR         NDA      ID1       ID2
     5.93903343E-02    2     1000022         6   # BR(~t_1 -> ~chi_10 t )
     1.18961940E-01    2     1000024         5   # BR(~t_1 -> ~chi_1+ b )
     8.21647725E-01    2     1000021         6   # BR(~t_1 -> ~g      t )
#
#         PDG            Width
DECAY   2000006     2.59866745E+02   # stop2 decays
#          BR         NDA      ID1       ID2
     1.93256965E-03    2     1000022         6   # BR(~t_2 -> ~chi_10 t )
     3.86733533E-03    2     1000024         5   # BR(~t_2 -> ~chi_1+ b )
     9.18095356E-06    2     1000037         5   # BR(~t_2 -> ~chi_2+ b )
     9.84884456E-01    2     1000021         6   # BR(~t_2 -> ~g      t )
     1.42646099E-03    2     1000006        25   # BR(~t_2 -> ~t_1    h )
     1.66757685E-03    2     1000006        23   # BR(~t_2 -> ~t_1    Z )
     3.13823450E-03    2     1000005        24   # BR(~t_2 -> ~b_1    W+)
     3.07418612E-03    2     2000005        24   # BR(~t_2 -> ~b_2    W+)
#
#         PDG            Width
DECAY   1000005     2.74819166E+02   # sbottom1 decays
#          BR         NDA      ID1       ID2
     3.24833779E-02    2     1000022         5   # BR(~b_1 -> ~chi_10 b )
     6.48682161E-02    2    -1000024         6   # BR(~b_1 -> ~chi_1- t )
     9.02648406E-01    2     1000021         5   # BR(~b_1 -> ~g      b )
#
#         PDG            Width
DECAY   2000005     2.76697554E+02   # sbottom2 decays
#          BR         NDA      ID1       ID2
     3.43758928E-02    2     1000022         5   # BR(~b_2 -> ~chi_10 b )
     6.86470561E-02    2    -1000024         6   # BR(~b_2 -> ~chi_1- t )
     8.96977051E-01    2     1000021         5   # BR(~b_2 -> ~g      b )
#
#         PDG            Width
DECAY   1000002     3.03800442E+02   # sup_L decays
#          BR         NDA      ID1       ID2
     6.10886725E-02    2     1000022         2   # BR(~u_L -> ~chi_10 u)
     1.22195643E-01    2     1000024         1   # BR(~u_L -> ~chi_1+ d)
     8.16715684E-01    2     1000021         2   # BR(~u_L -> ~g      u)
#
#         PDG            Width
DECAY   2000002     2.48121762E+02   # sup_R decays
#          BR         NDA      ID1       ID2
     1.04806973E-09    2     1000022         2   # BR(~u_R -> ~chi_10 u)
     9.99999999E-01    2     1000021         2   # BR(~u_R -> ~g      u)
#
#         PDG            Width
DECAY   1000001     3.03812150E+02   # sdown_L decays
#          BR         NDA      ID1       ID2
     6.10967312E-02    2     1000022         1   # BR(~d_L -> ~chi_10 d)
     1.22175182E-01    2    -1000024         2   # BR(~d_L -> ~chi_1- u)
     8.16728086E-01    2     1000021         1   # BR(~d_L -> ~g      d)
#
#         PDG            Width
DECAY   2000001     2.48125949E+02   # sdown_R decays
#          BR         NDA      ID1       ID2
     2.62017297E-10    2     1000022         1   # BR(~d_R -> ~chi_10 d)
     1.00000000E+00    2     1000021         1   # BR(~d_R -> ~g      d)
#
#         PDG            Width
DECAY   1000004     3.03800442E+02   # scharm_L decays
#          BR         NDA      ID1       ID2
     6.10886725E-02    2     1000022         4   # BR(~c_L -> ~chi_10 c)
     1.22195643E-01    2     1000024         3   # BR(~c_L -> ~chi_1+ s)
     8.16715684E-01    2     1000021         4   # BR(~c_L -> ~g      c)
#
#         PDG            Width
DECAY   2000004     2.48121762E+02   # scharm_R decays
#          BR         NDA      ID1       ID2
     1.04806973E-09    2     1000022         4   # BR(~c_R -> ~chi_10 c)
     9.99999999E-01    2     1000021         4   # BR(~c_R -> ~g      c)
#
#         PDG            Width
DECAY   1000003     3.03812150E+02   # sstrange_L decays
#          BR         NDA      ID1       ID2
     6.10967312E-02    2     1000022         3   # BR(~s_L -> ~chi_10 s)
     1.22175182E-01    2    -1000024         4   # BR(~s_L -> ~chi_1- c)
     8.16728086E-01    2     1000021         3   # BR(~s_L -> ~g      s)
#
#         PDG            Width
DECAY   2000003     2.48125949E+02   # sstrange_R decays
#          BR         NDA      ID1       ID2
     2.62017297E-10    2     1000022         3   # BR(~s_R -> ~chi_10 s)
     1.00000000E+00    2     1000021         3   # BR(~s_R -> ~g      s)
#
#         PDG            Width
DECAY   1000011     5.67132444E+01   # selectron_L decays
#          BR         NDA      ID1       ID2
     3.33313971E-01    2     1000022        11   # BR(~e_L -> ~chi_10 e-)
     6.66686029E-01    2    -1000024        12   # BR(~e_L -> ~chi_1- nu_e)
#
#         PDG            Width
DECAY   2000011     5.96035106E-07   # selectron_R decays
#          BR         NDA      ID1       ID2
     1.00000000E+00    2     1000022        11   # BR(~e_R -> ~chi_10 e-)
#
#         PDG            Width
DECAY   1000013     5.67132444E+01   # smuon_L decays
#          BR         NDA      ID1       ID2
     3.33313971E-01    2     1000022        13   # BR(~mu_L -> ~chi_10 mu-)
     6.66686029E-01    2    -1000024        14   # BR(~mu_L -> ~chi_1- nu_mu)
#
#         PDG            Width
DECAY   2000013     5.96035106E-07   # smuon_R decays
#          BR         NDA      ID1       ID2
     1.00000000E+00    2     1000022        13   # BR(~mu_R -> ~chi_10 mu-)
#
#         PDG            Width
DECAY   1000015     2.83063394E+01   # stau_1 decays
#          BR         NDA      ID1       ID2
     3.33314045E-01    2     1000022        15   # BR(~tau_1 -> ~chi_10  tau-)
     6.66685955E-01    2    -1000024        16   # BR(~tau_1 -> ~chi_1-  nu_tau)
     1.29614564E-10    2     1000039        15   # BR(~tau_1 -> ~G       tau-)
#
#         PDG            Width
DECAY   2000015     2.84069057E+01   # stau_2 decays
#          BR         NDA      ID1       ID2
     3.33313886E-01    2     1000022        15   # BR(~tau_2 -> ~chi_10  tau-)
     6.66686114E-01    2    -1000024        16   # BR(~tau_2 -> ~chi_1-  nu_tau)
#
#         PDG            Width
DECAY   1000012     5.67238316E+01   # snu_eL decays
#          BR         NDA      ID1       ID2
     3.33352661E-01    2     1000022        12   # BR(~nu_eL -> ~chi_10 nu_e)
     6.66647339E-01    2     1000024        11   # BR(~nu_eL -> ~chi_1+ e-)
#
#         PDG            Width
DECAY   1000014     5.67238316E+01   # snu_muL decays
#          BR         NDA      ID1       ID2
     3.33352661E-01    2     1000022        14   # BR(~nu_muL -> ~chi_10 nu_mu)
     6.66647339E-01    2     1000024        13   # BR(~nu_muL -> ~chi_1+ mu-)
#
#         PDG            Width
DECAY   1000016     5.67238295E+01   # snu_tauL decays
#          BR         NDA      ID1       ID2
     3.33352674E-01    2     1000022        16   # BR(~nu_tauL -> ~chi_10 nu_tau)
     6.66647326E-01    2     1000024        15   # BR(~nu_tauL -> ~chi_1+ tau-)
#
#         PDG            Width
DECAY   1000024     2.06673957E-8   # chargino1+ decays               
#          BR         NDA      ID1       ID2
     1.00000000E+00    2     1000039        24   # BR(~chi_1+ -> ~G       W+)
#           BR         NDA      ID1       ID2       ID3
     1.81221248E-19    3     1000022         2        -1   # BR(~chi_1+ -> ~chi_10 u    db)
     1.81221248E-19    3     1000022         4        -3   # BR(~chi_1+ -> ~chi_10 c    sb)
     6.04073335E-20    3     1000022       -11        12   # BR(~chi_1+ -> ~chi_10 e+   nu_e)
     6.04073335E-20    3     1000022       -13        14   # BR(~chi_1+ -> ~chi_10 mu+  nu_mu)
#
#         PDG            Width
DECAY   1000037     5.42620531E+01   # chargino2+ decays
#          BR         NDA      ID1       ID2
     2.48921944E-06    2     1000002        -1   # BR(~chi_2+ -> ~u_L     db)
     4.59758965E-06    2    -1000001         2   # BR(~chi_2+ -> ~d_L*    u )
     2.48921944E-06    2     1000004        -3   # BR(~chi_2+ -> ~c_L     sb)
     4.59758965E-06    2    -1000003         4   # BR(~chi_2+ -> ~s_L*    c )
     4.25887677E-04    2     1000006        -5   # BR(~chi_2+ -> ~t_1     bb)
     4.81285885E-03    2    -1000005         6   # BR(~chi_2+ -> ~b_1*    t )
     4.07798692E-03    2    -2000005         6   # BR(~chi_2+ -> ~b_2*    t )
     5.52040603E-07    2     1000012       -11   # BR(~chi_2+ -> ~nu_eL   e+  )
     5.52040603E-07    2     1000014       -13   # BR(~chi_2+ -> ~nu_muL  mu+ )
     2.64708626E-06    2     1000016       -15   # BR(~chi_2+ -> ~nu_tau1 tau+)
     1.01936565E-06    2    -1000011        12   # BR(~chi_2+ -> ~e_L+    nu_e)
     1.01936565E-06    2    -1000013        14   # BR(~chi_2+ -> ~mu_L+   nu_mu)
     1.00461419E-07    2    -1000015        16   # BR(~chi_2+ -> ~tau_1+  nu_tau)
     2.99279831E-06    2    -2000015        16   # BR(~chi_2+ -> ~tau_2+  nu_tau)
     2.34015840E-01    2     1000024        23   # BR(~chi_2+ -> ~chi_1+  Z )
     2.28306170E-01    2     1000022        24   # BR(~chi_2+ -> ~chi_10  W+)
     2.34826514E-01    2     1000024        25   # BR(~chi_2+ -> ~chi_1+  h )
     9.76174181E-02    2     1000024        35   # BR(~chi_2+ -> ~chi_1+  H )
     9.77567066E-02    2     1000024        36   # BR(~chi_2+ -> ~chi_1+  A )
     9.81375617E-02    2     1000022        37   # BR(~chi_2+ -> ~chi_10  H+)
     4.19813098E-11    2     1000039        24   # BR(~chi_2+ -> ~G       W+)
     2.23618284E-11    2     1000039        37   # BR(~chi_2+ -> ~G       H+)
#
#         PDG            Width
DECAY   1000022     2.06657872E-8   # neutralino1 decays              
#          BR         NDA      ID1       ID2
     2.51545984E-01    2     1000039        22   # BR(~chi_10 -> ~G        gam)
     7.48453751E-01    2     1000039        23   # BR(~chi_10 -> ~G        Z)
     2.65817516E-07    2     1000039        25   # BR(~chi_10 -> ~G        h)
#
#         PDG            Width
DECAY   1000023     4.46298228E+01   # neutralino2 decays
#          BR         NDA      ID1       ID2
     5.32123740E-03    2     1000022        23   # BR(~chi_20 -> ~chi_10   Z )
     2.30549455E-01    2     1000024       -24   # BR(~chi_20 -> ~chi_1+   W-)
     2.30549455E-01    2    -1000024        24   # BR(~chi_20 -> ~chi_1-   W+)
     2.31913297E-01    2     1000022        25   # BR(~chi_20 -> ~chi_10   h )
     6.82251278E-03    2     1000022        35   # BR(~chi_20 -> ~chi_10   H )
     9.13383102E-02    2     1000022        36   # BR(~chi_20 -> ~chi_10   A )
     9.87243584E-02    2     1000024       -37   # BR(~chi_20 -> ~chi_1+   H-)
     9.87243584E-02    2    -1000024        37   # BR(~chi_20 -> ~chi_1-   H+)
     8.34128945E-05    2     1000002        -2   # BR(~chi_20 -> ~u_L      ub)
     8.34128945E-05    2    -1000002         2   # BR(~chi_20 -> ~u_L*     u )
     9.23669471E-04    2     2000002        -2   # BR(~chi_20 -> ~u_R      ub)
     9.23669471E-04    2    -2000002         2   # BR(~chi_20 -> ~u_R*     u )
     3.67311031E-05    2     1000001        -1   # BR(~chi_20 -> ~d_L      db)
     3.67311031E-05    2    -1000001         1   # BR(~chi_20 -> ~d_L*     d )
     2.30782109E-04    2     2000001        -1   # BR(~chi_20 -> ~d_R      db)
     2.30782109E-04    2    -2000001         1   # BR(~chi_20 -> ~d_R*     d )
     8.34128945E-05    2     1000004        -4   # BR(~chi_20 -> ~c_L      cb)
     8.34128945E-05    2    -1000004         4   # BR(~chi_20 -> ~c_L*     c )
     9.23669471E-04    2     2000004        -4   # BR(~chi_20 -> ~c_R      cb)
     9.23669471E-04    2    -2000004         4   # BR(~chi_20 -> ~c_R*     c )
     3.67311031E-05    2     1000003        -3   # BR(~chi_20 -> ~s_L      sb)
     3.67311031E-05    2    -1000003         3   # BR(~chi_20 -> ~s_L*     s )
     2.30782109E-04    2     2000003        -3   # BR(~chi_20 -> ~s_R      sb)
     2.30782109E-04    2    -2000003         3   # BR(~chi_20 -> ~s_R*     s )
     8.99322761E-05    2     1000005        -5   # BR(~chi_20 -> ~b_1      bb)
     8.99322761E-05    2    -1000005         5   # BR(~chi_20 -> ~b_1*     b )
     2.57833088E-05    2     2000005        -5   # BR(~chi_20 -> ~b_2      bb)
     2.57833088E-05    2    -2000005         5   # BR(~chi_20 -> ~b_2*     b )
     8.15204982E-05    2     1000011       -11   # BR(~chi_20 -> ~e_L-     e+)
     8.15204982E-05    2    -1000011        11   # BR(~chi_20 -> ~e_L+     e-)
     2.86298015E-04    2     2000011       -11   # BR(~chi_20 -> ~e_R-     e+)
     2.86298015E-04    2    -2000011        11   # BR(~chi_20 -> ~e_R+     e-)
     8.15204982E-05    2     1000013       -13   # BR(~chi_20 -> ~mu_L-    mu+)
     8.15204982E-05    2    -1000013        13   # BR(~chi_20 -> ~mu_L+    mu-)
     2.86298015E-04    2     2000013       -13   # BR(~chi_20 -> ~mu_R-    mu+)
     2.86298015E-04    2    -2000013        13   # BR(~chi_20 -> ~mu_R+    mu-)
     1.93666415E-04    2     1000015       -15   # BR(~chi_20 -> ~tau_1-   tau+)
     1.93666415E-04    2    -1000015        15   # BR(~chi_20 -> ~tau_1+   tau-)
     1.76227498E-04    2     2000015       -15   # BR(~chi_20 -> ~tau_2-   tau+)
     1.76227498E-04    2    -2000015        15   # BR(~chi_20 -> ~tau_2+   tau-)
     6.24139673E-05    2     1000012       -12   # BR(~chi_20 -> ~nu_eL    nu_eb)
     6.24139673E-05    2    -1000012        12   # BR(~chi_20 -> ~nu_eL*   nu_e )
     6.24139673E-05    2     1000014       -14   # BR(~chi_20 -> ~nu_muL   nu_mub)
     6.24139673E-05    2    -1000014        14   # BR(~chi_20 -> ~nu_muL*  nu_mu )
     6.24139673E-05    2     1000016       -16   # BR(~chi_20 -> ~nu_tau1  nu_taub)
     6.24139673E-05    2    -1000016        16   # BR(~chi_20 -> ~nu_tau1* nu_tau )
     1.38170680E-11    2     1000039        22   # BR(~chi_20 -> ~G        gam)
     4.33508528E-11    2     1000039        23   # BR(~chi_20 -> ~G        Z)
     1.54549346E-12    2     1000039        25   # BR(~chi_20 -> ~G        h)
     2.09412598E-11    2     1000039        35   # BR(~chi_20 -> ~G        H)
     8.42050778E-13    2     1000039        36   # BR(~chi_20 -> ~G        A)
#
#         PDG            Width
DECAY   1000025     5.34047477E+01   # neutralino3 decays
#          BR         NDA      ID1       ID2
     2.32288770E-01    2     1000022        23   # BR(~chi_30 -> ~chi_10   Z )
     2.31905704E-01    2     1000024       -24   # BR(~chi_30 -> ~chi_1+   W-)
     2.31905704E-01    2    -1000024        24   # BR(~chi_30 -> ~chi_1-   W+)
     5.31532406E-03    2     1000022        25   # BR(~chi_30 -> ~chi_10   h )
     9.23073990E-02    2     1000022        35   # BR(~chi_30 -> ~chi_10   H )
     6.97792132E-03    2     1000022        36   # BR(~chi_30 -> ~chi_10   A )
     9.96358043E-02    2     1000024       -37   # BR(~chi_30 -> ~chi_1+   H-)
     9.96358043E-02    2    -1000024        37   # BR(~chi_30 -> ~chi_1-   H+)
     5.56897296E-08    2     1000002        -2   # BR(~chi_30 -> ~u_L      ub)
     5.56897296E-08    2    -1000002         2   # BR(~chi_30 -> ~u_L*     u )
     3.49636820E-09    2     2000002        -2   # BR(~chi_30 -> ~u_R      ub)
     3.49636820E-09    2    -2000002         2   # BR(~chi_30 -> ~u_R*     u )
     7.04016953E-08    2     1000001        -1   # BR(~chi_30 -> ~d_L      db)
     7.04016953E-08    2    -1000001         1   # BR(~chi_30 -> ~d_L*     d )
     8.73627674E-10    2     2000001        -1   # BR(~chi_30 -> ~d_R      db)
     8.73627674E-10    2    -2000001         1   # BR(~chi_30 -> ~d_R*     d )
     5.56897296E-08    2     1000004        -4   # BR(~chi_30 -> ~c_L      cb)
     5.56897296E-08    2    -1000004         4   # BR(~chi_30 -> ~c_L*     c )
     3.49636820E-09    2     2000004        -4   # BR(~chi_30 -> ~c_R      cb)
     3.49636820E-09    2    -2000004         4   # BR(~chi_30 -> ~c_R*     c )
     7.04016953E-08    2     1000003        -3   # BR(~chi_30 -> ~s_L      sb)
     7.04016953E-08    2    -1000003         3   # BR(~chi_30 -> ~s_L*     s )
     8.73627674E-10    2     2000003        -3   # BR(~chi_30 -> ~s_R      sb)
     8.73627674E-10    2    -2000003         3   # BR(~chi_30 -> ~s_R*     s )
     5.26203503E-06    2     1000005        -5   # BR(~chi_30 -> ~b_1      bb)
     5.26203503E-06    2    -1000005         5   # BR(~chi_30 -> ~b_1*     b )
     6.17746573E-06    2     2000005        -5   # BR(~chi_30 -> ~b_2      bb)
     6.17746573E-06    2    -2000005         5   # BR(~chi_30 -> ~b_2*     b )
     6.08682232E-09    2     1000011       -11   # BR(~chi_30 -> ~e_L-     e+)
     6.08682232E-09    2    -1000011        11   # BR(~chi_30 -> ~e_L+     e-)
     1.12436368E-09    2     2000011       -11   # BR(~chi_30 -> ~e_R-     e+)
     1.12436368E-09    2    -2000011        11   # BR(~chi_30 -> ~e_R+     e-)
     6.08682232E-09    2     1000013       -13   # BR(~chi_30 -> ~mu_L-    mu+)
     6.08682232E-09    2    -1000013        13   # BR(~chi_30 -> ~mu_L+    mu-)
     1.12436368E-09    2     2000013       -13   # BR(~chi_30 -> ~mu_R-    mu+)
     1.12436368E-09    2    -2000013        13   # BR(~chi_30 -> ~mu_R+    mu-)
     9.51318176E-07    2     1000015       -15   # BR(~chi_30 -> ~tau_1-   tau+)
     9.51318176E-07    2    -1000015        15   # BR(~chi_30 -> ~tau_1+   tau-)
     1.17320445E-06    2     2000015       -15   # BR(~chi_30 -> ~tau_2-   tau+)
     1.17320445E-06    2    -2000015        15   # BR(~chi_30 -> ~tau_2+   tau-)
     1.24700378E-08    2     1000012       -12   # BR(~chi_30 -> ~nu_eL    nu_eb)
     1.24700378E-08    2    -1000012        12   # BR(~chi_30 -> ~nu_eL*   nu_e )
     1.24700378E-08    2     1000014       -14   # BR(~chi_30 -> ~nu_muL   nu_mub)
     1.24700378E-08    2    -1000014        14   # BR(~chi_30 -> ~nu_muL*  nu_mu )
     1.24700378E-08    2     1000016       -16   # BR(~chi_30 -> ~nu_tau1  nu_taub)
     1.24700378E-08    2    -1000016        16   # BR(~chi_30 -> ~nu_tau1* nu_tau )
     2.68821255E-17    2     1000039        22   # BR(~chi_30 -> ~G        gam)
     1.63843779E-12    2     1000039        23   # BR(~chi_30 -> ~G        Z)
     4.09303178E-11    2     1000039        25   # BR(~chi_30 -> ~G        h)
     8.46010858E-13    2     1000039        35   # BR(~chi_30 -> ~G        H)
     2.17148666E-11    2     1000039        36   # BR(~chi_30 -> ~G        A)
#
#         PDG            Width
DECAY   1000035     1.24262091E+01   # neutralino4 decays
#          BR         NDA      ID1       ID2
     4.18098988E-03    2     1000022        23   # BR(~chi_40 -> ~chi_10   Z )
     1.26308026E-07    2     1000023        23   # BR(~chi_40 -> ~chi_20   Z )
     1.02263970E-03    2     1000025        23   # BR(~chi_40 -> ~chi_30   Z )
     1.69084628E-01    2     1000024       -24   # BR(~chi_40 -> ~chi_1+   W-)
     1.69084628E-01    2    -1000024        24   # BR(~chi_40 -> ~chi_1-   W+)
     4.24588481E-03    2     1000037       -24   # BR(~chi_40 -> ~chi_2+   W-)
     4.24588481E-03    2    -1000037        24   # BR(~chi_40 -> ~chi_2-   W+)
     1.69805455E-01    2     1000022        25   # BR(~chi_40 -> ~chi_10   h )
     4.74079951E-03    2     1000022        35   # BR(~chi_40 -> ~chi_10   H )
     6.87366179E-02    2     1000022        36   # BR(~chi_40 -> ~chi_10   A )
     7.38816781E-02    2     1000024       -37   # BR(~chi_40 -> ~chi_1+   H-)
     7.38816781E-02    2    -1000024        37   # BR(~chi_40 -> ~chi_1-   H+)
     1.77800915E-03    2     1000002        -2   # BR(~chi_40 -> ~u_L      ub)
     1.77800915E-03    2    -1000002         2   # BR(~chi_40 -> ~u_L*     u )
     3.09501353E-02    2     2000002        -2   # BR(~chi_40 -> ~u_R      ub)
     3.09501353E-02    2    -2000002         2   # BR(~chi_40 -> ~u_R*     u )
     2.09603365E-03    2     1000001        -1   # BR(~chi_40 -> ~d_L      db)
     2.09603365E-03    2    -1000001         1   # BR(~chi_40 -> ~d_L*     d )
     7.73472750E-03    2     2000001        -1   # BR(~chi_40 -> ~d_R      db)
     7.73472750E-03    2    -2000001         1   # BR(~chi_40 -> ~d_R*     d )
     1.77800915E-03    2     1000004        -4   # BR(~chi_40 -> ~c_L      cb)
     1.77800915E-03    2    -1000004         4   # BR(~chi_40 -> ~c_L*     c )
     3.09501353E-02    2     2000004        -4   # BR(~chi_40 -> ~c_R      cb)
     3.09501353E-02    2    -2000004         4   # BR(~chi_40 -> ~c_R*     c )
     2.09603365E-03    2     1000003        -3   # BR(~chi_40 -> ~s_L      sb)
     2.09603365E-03    2    -1000003         3   # BR(~chi_40 -> ~s_L*     s )
     7.73472750E-03    2     2000003        -3   # BR(~chi_40 -> ~s_R      sb)
     7.73472750E-03    2    -2000003         3   # BR(~chi_40 -> ~s_R*     s )
     1.19977399E-02    2     1000006        -6   # BR(~chi_40 -> ~t_1      tb)
     1.19977399E-02    2    -1000006         6   # BR(~chi_40 -> ~t_1*     t )
     2.46360310E-03    2     1000005        -5   # BR(~chi_40 -> ~b_1      bb)
     2.46360310E-03    2    -1000005         5   # BR(~chi_40 -> ~b_1*     b )
     2.83615431E-03    2     2000005        -5   # BR(~chi_40 -> ~b_2      bb)
     2.83615431E-03    2    -2000005         5   # BR(~chi_40 -> ~b_2*     b )
     2.81968759E-03    2     1000011       -11   # BR(~chi_40 -> ~e_L-     e+)
     2.81968759E-03    2    -1000011        11   # BR(~chi_40 -> ~e_L+     e-)
     1.15971304E-02    2     2000011       -11   # BR(~chi_40 -> ~e_R-     e+)
     1.15971304E-02    2    -2000011        11   # BR(~chi_40 -> ~e_R+     e-)
     2.81968759E-03    2     1000013       -13   # BR(~chi_40 -> ~mu_L-    mu+)
     2.81968759E-03    2    -1000013        13   # BR(~chi_40 -> ~mu_L+    mu-)
     1.15971304E-02    2     2000013       -13   # BR(~chi_40 -> ~mu_R-    mu+)
     1.15971304E-02    2    -2000013        13   # BR(~chi_40 -> ~mu_R+    mu-)
     7.17774727E-03    2     1000015       -15   # BR(~chi_40 -> ~tau_1-   tau+)
     7.17774727E-03    2    -1000015        15   # BR(~chi_40 -> ~tau_1+   tau-)
     7.24003100E-03    2     2000015       -15   # BR(~chi_40 -> ~tau_2-   tau+)
     7.24003100E-03    2    -2000015        15   # BR(~chi_40 -> ~tau_2+   tau-)
     2.98417407E-03    2     1000012       -12   # BR(~chi_40 -> ~nu_eL    nu_eb)
     2.98417407E-03    2    -1000012        12   # BR(~chi_40 -> ~nu_eL*   nu_e )
     2.98417407E-03    2     1000014       -14   # BR(~chi_40 -> ~nu_muL   nu_mub)
     2.98417407E-03    2    -1000014        14   # BR(~chi_40 -> ~nu_muL*  nu_mu )
     2.98417407E-03    2     1000016       -16   # BR(~chi_40 -> ~nu_tau1  nu_taub)
     2.98417407E-03    2    -1000016        16   # BR(~chi_40 -> ~nu_tau1* nu_tau )
     2.50231271E-10    2     1000039        22   # BR(~chi_40 -> ~G        gam)
     1.14922421E-10    2     1000039        23   # BR(~chi_40 -> ~G        Z)
     1.33185468E-12    2     1000039        25   # BR(~chi_40 -> ~G        h)
     1.81682371E-11    2     1000039        35   # BR(~chi_40 -> ~G        H)
     7.15196726E-13    2     1000039        36   # BR(~chi_40 -> ~G        A)
#
#         PDG            Width
DECAY        25     4.09166199E-03   # h decays
#          BR         NDA      ID1       ID2
     6.17968792E-01    2           5        -5   # BR(h -> b       bb     )
     6.36797918E-02    2         -15        15   # BR(h -> tau+    tau-   )
     2.25403010E-04    2         -13        13   # BR(h -> mu+     mu-    )
     4.77644435E-04    2           3        -3   # BR(h -> s       sb     )
     2.05953684E-02    2           4        -4   # BR(h -> c       cb     )
     6.68775500E-02    2          21        21   # BR(h -> g       g      )
     2.30120191E-03    2          22        22   # BR(h -> gam     gam    )
     1.53458181E-03    2          22        23   # BR(h -> Z       gam    )
     2.00759942E-01    2          24       -24   # BR(h -> W+      W-     )
     2.55797254E-02    2          23        23   # BR(h -> Z       Z      )
#
#         PDG            Width
DECAY        35     3.76389160E+01   # H decays
#          BR         NDA      ID1       ID2
     1.47134820E-03    2           5        -5   # BR(H -> b       bb     )
     2.47495652E-04    2         -15        15   # BR(H -> tau+    tau-   )
     8.74989274E-07    2         -13        13   # BR(H -> mu+     mu-    )
     1.12026933E-06    2           3        -3   # BR(H -> s       sb     )
     1.01157148E-05    2           4        -4   # BR(H -> c       cb     )
     9.96015619E-01    2           6        -6   # BR(H -> t       tb     )
     7.96283055E-04    2          21        21   # BR(H -> g       g      )
     2.72936958E-06    2          22        22   # BR(H -> gam     gam    )
     1.15450639E-06    2          23        22   # BR(H -> Z       gam    )
     3.76310857E-04    2          24       -24   # BR(H -> W+      W-     )
     1.87641662E-04    2          23        23   # BR(H -> Z       Z      )
     8.71862816E-04    2          25        25   # BR(H -> h       h      )
     5.87136860E-24    2          36        36   # BR(H -> A       A      )
     2.67073894E-11    2          23        36   # BR(H -> Z       A      )
     1.05663427E-08    2          24       -37   # BR(H -> W+      H-     )
     1.05663427E-08    2         -24        37   # BR(H -> W-      H+     )
     1.16139249E-05    2     1000024  -1000024   # BR(H -> ~chi_1+ ~chi_1-)
     5.80863195E-06    2     1000022   1000022   # BR(H -> ~chi_10 ~chi_10)
#
#         PDG            Width
DECAY        36     3.80587935E+01   # A decays
#          BR         NDA      ID1       ID2
     1.47486116E-03    2           5        -5   # BR(A -> b       bb     )
     2.45047616E-04    2         -15        15   # BR(A -> tau+    tau-   )
     8.66331846E-07    2         -13        13   # BR(A -> mu+     mu-    )
     1.14209100E-06    2           3        -3   # BR(A -> s       sb     )
     1.00083450E-05    2           4        -4   # BR(A -> c       cb     )
     9.96664920E-01    2           6        -6   # BR(A -> t       tb     )
     9.41993524E-04    2          21        21   # BR(A -> g       g      )
     2.97704532E-06    2          22        22   # BR(A -> gam     gam    )
     1.34631785E-06    2          23        22   # BR(A -> Z       gam    )
     3.66893227E-04    2          23        25   # BR(A -> Z       h      )
     1.93273678E-04    2     1000024  -1000024   # BR(A -> ~chi_1+ ~chi_1-)
     9.66702596E-05    2     1000022   1000022   # BR(A -> ~chi_10 ~chi_10)
#
#         PDG            Width
DECAY        37     3.71224769E+01   # H+ decays
#          BR         NDA      ID1       ID2
     2.36241962E-06    2           4        -5   # BR(H+ -> c       bb     )
     2.50357805E-04    2         -15        16   # BR(H+ -> tau+    nu_tau )
     8.85105291E-07    2         -13        14   # BR(H+ -> mu+     nu_mu  )
     1.50190963E-08    2           2        -5   # BR(H+ -> u       bb     )
     5.48440868E-08    2           2        -3   # BR(H+ -> u       sb     )
     1.09279104E-05    2           4        -3   # BR(H+ -> c       sb     )
     9.99362671E-01    2           6        -5   # BR(H+ -> t       bb     )
     3.72725508E-04    2          24        25   # BR(H+ -> W+      h      )
     1.53108421E-12    2     1000024   1000022   # BR(H+ -> ~chi_1+ ~chi_10)
