#
#                              ======================
#                              | THE SUSYHIT OUTPUT |
#                              ======================
#
#
#              ------------------------------------------------------
#              |     This is the output of the SUSY-HIT package     |
#              |  created by A.Djouadi, M.Muehlleitner and M.Spira. |
#              |  In case of problems with SUSY-HIT email to        |
#              |           margarete.muehlleitner@kit.edu           |
#              |           michael.spira@psi.ch                     |
#              |           abdelhak.djouadi@cern.ch                 |
#              ------------------------------------------------------
#
#              ------------------------------------------------------
#              |  SUSY Les Houches Accord - MSSM Spectrum + Decays  |
#              |              based on the decay programs           |
#              |                                                    |
#              |                     SDECAY 1.5                     |
#              |                                                    |
#              |  Authors: M.Muhlleitner, A.Djouadi and Y.Mambrini  |
#              |  Ref.:    Comput.Phys.Commun.168(2005)46           |
#              |           [hep-ph/0311167]                         |
#              |                                                    |
#              |                     HDECAY 3.4                     |
#              |                                                    |
#              |  By: A.Djouadi,J.Kalinowski,M.Muhlleitner,M.Spira  |
#              |  Ref.:    Comput.Phys.Commun.108(1998)56           |
#              |           [hep-ph/9704448]                         |
#              |                                                    |
#              |                                                    |
#              |  If not stated otherwise all DRbar couplings and   |
#              |  soft SUSY breaking masses are given at the scale  |
#              |  Q=  0.91187600E+02
#              |                                                    |
#              ------------------------------------------------------
#
#
BLOCK DCINFO  # Decay Program information
     1   SDECAY/HDECAY # decay calculator
     2   1.5  /3.4    # version number
#
BLOCK SPINFO  # Spectrum calculator information
     1   SuSpect     # RGE +Spectrum calculator            
     2   2.43         # version number                     
#
BLOCK MODSEL  # Model selection
     1     2   # GMSB                                              
#
BLOCK SMINPUTS  # Standard Model inputs
         1     1.27932904E+02   # alpha_em^-1(M_Z)^MSbar
         2     1.16639000E-05   # G_F [GeV^-2]
         3     1.17200000E-01   # alpha_S(M_Z)^MSbar
         4     9.11870000E+01   # M_Z pole mass
         5     4.25000000E+00   # mb(mb)^MSbar
         6     1.72900000E+02   # mt pole mass
         7     1.77700000E+00   # mtau pole mass
#
BLOCK MINPAR  # Input parameters - minimal models
#
BLOCK EXTPAR  # Input parameters - non-minimal models
         0     9.11876000E+01   # EWSB                
         1     8.54000000E+02   # M_1                 
         2     3.00000000E+03   # M_2                 
         3     1.70000000E+03   # M_3                 
        11     0.00000000E+00   # A_t                 
        12     0.00000000E+00   # A_b                 
        13     0.00000000E+00   # A_tau               
        14     0.00000000E+00   # A_u                 
        15     0.00000000E+00   # A_d                 
        16     0.00000000E+00   # A_e                 
        23     8.50000000E+02   # mu(EWSB)            
        25     1.50000000E+00   # tanbeta(in)         
        26     2.00000000E+03   # MA_pole             
        31     5.00000000E+03   # M_eL                
        32     5.00000000E+03   # M_muL               
        33     5.00000000E+03   # M_tauL              
        34     5.00000000E+03   # M_eR                
        35     5.00000000E+03   # M_muR               
        36     5.00000000E+03   # M_tauR              
        41     5.00000000E+03   # M_q1L               
        42     5.00000000E+03   # M_q2L               
        43     5.00000000E+03   # M_q3L               
        44     5.00000000E+03   # M_uR                
        45     5.00000000E+03   # M_cR                
        46     5.00000000E+03   # M_tR                
        47     5.00000000E+03   # M_dR                
        48     5.00000000E+03   # M_sR                
        49     5.00000000E+03   # M_bR                
#
BLOCK MASS  # Mass Spectrum
# PDG code           mass       particle
        24     8.05400808E+01   # W+
        25     1.26000000E+02   # h
        35     2.00404186E+03   # H
        36     2.00000000E+03   # A
        37     2.00148123E+03   # H+
         5     4.87877839E+00   # b-quark pole mass calculated from mb(mb)_Msbar
   1000001     4.97172761E+03   # ~d_L
   2000001     4.97161781E+03   # ~d_R
   1000002     4.97148213E+03   # ~u_L
   2000002     4.97154021E+03   # ~u_R
   1000003     4.97172761E+03   # ~s_L
   2000003     4.97161781E+03   # ~s_R
   1000004     4.97148213E+03   # ~c_L
   2000004     4.97154021E+03   # ~c_R
   1000005     4.97131940E+03   # ~b_1
   2000005     4.97202747E+03   # ~b_2
   1000006     5.09794510E+03   # ~t_1
   2000006     5.39620861E+03   # ~t_2
   1000011     5.00008227E+03   # ~e_L
   2000011     5.00007605E+03   # ~e_R
   1000012     4.99984168E+03   # ~nu_eL
   1000013     5.00008227E+03   # ~mu_L
   2000013     5.00007605E+03   # ~mu_R
   1000014     4.99984168E+03   # ~nu_muL
   1000015     4.99985276E+03   # ~tau_1
   2000015     5.00030618E+03   # ~tau_2
   1000016     4.99984168E+03   # ~nu_tauL
   1000021     1.79544084E+03   # ~g
   1000022     8.62242398E+02   # ~chi_10
   1000023    -9.08998111E+02   # ~chi_20
   1000025     9.49390850E+02   # ~chi_30
   1000035     3.12892874E+03   # ~chi_40
   1000024     9.06246726E+02   # ~chi_1+
   1000037     3.12892777E+03   # ~chi_2+
   1000039     1.04500000E-07   # ~gravitino
#
BLOCK NMIX  # Neutralino Mixing Matrix
  1  1     7.10099133E-01   # N_11
  1  2    -2.40802952E-02   # N_12
  1  3     5.00198298E-01   # N_13
  1  4    -4.94955578E-01   # N_14
  2  1     4.81287409E-03   # N_21
  2  2    -3.84922049E-03   # N_22
  2  3    -7.06895582E-01   # N_23
  2  4    -7.07291068E-01   # N_24
  3  1     7.04084916E-01   # N_31
  3  2     2.53058043E-02   # N_32
  3  3    -4.99617000E-01   # N_33
  3  4     5.03990974E-01   # N_34
  4  1     6.99944923E-04   # N_41
  4  2    -9.99382279E-01   # N_42
  4  3    -2.19807137E-02   # N_43
  4  4     2.74120256E-02   # N_44
#
BLOCK UMIX  # Chargino Mixing Matrix U
  1  1    -3.10715833E-02   # U_11
  1  2     9.99517162E-01   # U_12
  2  1     9.99517162E-01   # U_21
  2  2     3.10715833E-02   # U_22
#
BLOCK VMIX  # Chargino Mixing Matrix V
  1  1    -3.87547574E-02   # V_11
  1  2     9.99248752E-01   # V_12
  2  1     9.99248752E-01   # V_21
  2  2     3.87547574E-02   # V_22
#
BLOCK STOPMIX  # Stop Mixing Matrix
  1  1     9.99981524E-01   # cos(theta_t)
  1  2    -6.07878760E-03   # sin(theta_t)
  2  1     6.07878760E-03   # -sin(theta_t)
  2  2     9.99981524E-01   # cos(theta_t)
#
BLOCK SBOTMIX  # Sbottom Mixing Matrix
  1  1     6.49969641E-01   # cos(theta_b)
  1  2     7.59960174E-01   # sin(theta_b)
  2  1    -7.59960174E-01   # -sin(theta_b)
  2  2     6.49969641E-01   # cos(theta_b)
#
BLOCK STAUMIX  # Stau Mixing Matrix
  1  1     7.02237792E-01   # cos(theta_tau)
  1  2     7.11942472E-01   # sin(theta_tau)
  2  1    -7.11942472E-01   # -sin(theta_tau)
  2  2     7.02237792E-01   # cos(theta_tau)
#
BLOCK ALPHA  # Higgs mixing
          -5.90207398E-01   # Mixing angle in the neutral Higgs boson sector
#
BLOCK HMIX Q=  9.11876000E+01  # DRbar Higgs Parameters
         1     8.50000000E+02   # mu(Q)               
         2     1.49999979E+00   # tanbeta(Q)          
         3     2.52037923E+02   # vev(Q)              
         4     3.59344017E+06   # MA^2(Q)             
#
BLOCK GAUGE Q=  9.11876000E+01  # The gauge couplings
     1     3.52850419E-01   # gprime(Q) DRbar
     2     6.27603790E-01   # g(Q) DRbar
     3     1.08305254E+00   # g3(Q) DRbar
#
BLOCK AU Q=  9.11876000E+01  # The trilinear couplings
  1  1     0.00000000E+00   # A_u(Q) DRbar
  2  2     0.00000000E+00   # A_c(Q) DRbar
  3  3     0.00000000E+00   # A_t(Q) DRbar
#
BLOCK AD Q=  9.11876000E+01  # The trilinear couplings
  1  1     0.00000000E+00   # A_d(Q) DRbar
  2  2     0.00000000E+00   # A_s(Q) DRbar
  3  3     0.00000000E+00   # A_b(Q) DRbar
#
BLOCK AE Q=  9.11876000E+01  # The trilinear couplings
  1  1     0.00000000E+00   # A_e(Q) DRbar
  2  2     0.00000000E+00   # A_mu(Q) DRbar
  3  3     0.00000000E+00   # A_tau(Q) DRbar
#
BLOCK Yu Q=  9.11876000E+01  # The Yukawa couplings
  1  1     0.00000000E+00   # y_u(Q) DRbar
  2  2     0.00000000E+00   # y_c(Q) DRbar
  3  3     1.02597742E+00   # y_t(Q) DRbar
#
BLOCK Yd Q=  9.11876000E+01  # The Yukawa couplings
  1  1     0.00000000E+00   # y_d(Q) DRbar
  2  2     0.00000000E+00   # y_s(Q) DRbar
  3  3     2.71955545E-02   # y_b(Q) DRbar
#
BLOCK Ye Q=  9.11876000E+01  # The Yukawa couplings
  1  1     0.00000000E+00   # y_e(Q) DRbar
  2  2     0.00000000E+00   # y_mu(Q) DRbar
  3  3     1.79852523E-02   # y_tau(Q) DRbar
#
BLOCK MSOFT Q=  9.11876000E+01  # The soft SUSY breaking masses at the scale Q
         1     8.54000000E+02   # M_1                 
         2     3.00000000E+03   # M_2                 
         3     1.70000000E+03   # M_3                 
        14     0.00000000E+00   # A_u                 
        15     0.00000000E+00   # A_d                 
        16     0.00000000E+00   # A_e                 
        21     2.24370611E+06   # M^2_Hd              
        22    -6.11746625E+06   # M^2_Hu              
        31     5.00000000E+03   # M_eL                
        32     5.00000000E+03   # M_muL               
        33     5.00000000E+03   # M_tauL              
        34     5.00000000E+03   # M_eR                
        35     5.00000000E+03   # M_muR               
        36     5.00000000E+03   # M_tauR              
        41     5.00000000E+03   # M_q1L               
        42     5.00000000E+03   # M_q2L               
        43     5.00000000E+03   # M_q3L               
        44     5.00000000E+03   # M_uR                
        45     5.00000000E+03   # M_cR                
        46     5.00000000E+03   # M_tR                
        47     5.00000000E+03   # M_dR                
        48     5.00000000E+03   # M_sR                
        49     5.00000000E+03   # M_bR                
#
#
#
#                             =================
#                             |The decay table|
#                             =================
#
# - The QCD corrections to the decays gluino -> squark  + quark
#                                     squark -> gaugino + quark_prime
#                                     squark -> squark_prime + Higgs
#                                     squark -> gluino  + quark
#   are included.
#
# - The multi-body decays for the inos, stops and sbottoms are included.
#
# - The loop induced decays for the gluino, neutralinos and stops
#   are included.
#
# - The SUSY decays of the top quark are included.
#
# - Possible decays of the NLSP in GMSB models are included.
#
#
#         PDG            Width
DECAY         6     1.37240169E+00   # top decays
#          BR         NDA      ID1       ID2
     1.00000000E+00    2           5        24   # BR(t ->  b    W+)
#
#         PDG            Width
DECAY   1000021     3.16782829E-04   # gluino decays
#          BR         NDA      ID1       ID2
     1.44599327E-02    2     1000022        21   # BR(~g -> ~chi_10 g)
     2.64382069E-02    2     1000023        21   # BR(~g -> ~chi_20 g)
     1.19242811E-02    2     1000025        21   # BR(~g -> ~chi_30 g)
#          BR         NDA      ID1       ID2
     6.20937218E-06    2     1000039        21   # BR(~g -> ~G      g)
#           BR         NDA      ID1       ID2       ID3
     7.03188934E-03    3     1000022         1        -1   # BR(~g -> ~chi_10 d  db)
     6.00361009E-07    3     1000023         1        -1   # BR(~g -> ~chi_20 d  db)
     4.14741206E-03    3     1000025         1        -1   # BR(~g -> ~chi_30 d  db)
     2.17324032E-02    3     1000022         2        -2   # BR(~g -> ~chi_10 u  ub)
     5.04564342E-07    3     1000023         2        -2   # BR(~g -> ~chi_20 u  ub)
     1.55280914E-02    3     1000025         2        -2   # BR(~g -> ~chi_30 u  ub)
     7.03188934E-03    3     1000022         3        -3   # BR(~g -> ~chi_10 s  sb)
     6.00361009E-07    3     1000023         3        -3   # BR(~g -> ~chi_20 s  sb)
     4.14741206E-03    3     1000025         3        -3   # BR(~g -> ~chi_30 s  sb)
     2.17324032E-02    3     1000022         4        -4   # BR(~g -> ~chi_10 c  cb)
     5.04564342E-07    3     1000023         4        -4   # BR(~g -> ~chi_20 c  cb)
     1.55280914E-02    3     1000025         4        -4   # BR(~g -> ~chi_30 c  cb)
     7.13340168E-03    3     1000022         5        -5   # BR(~g -> ~chi_10 b  bb)
     2.37944994E-04    3     1000023         5        -5   # BR(~g -> ~chi_20 b  bb)
     4.27192553E-03    3     1000025         5        -5   # BR(~g -> ~chi_30 b  bb)
     1.06305195E-01    3     1000022         6        -6   # BR(~g -> ~chi_10 t  tb)
     1.59988714E-01    3     1000023         6        -6   # BR(~g -> ~chi_20 t  tb)
     1.01679738E-01    3     1000025         6        -6   # BR(~g -> ~chi_30 t  tb)
     1.51109680E-04    3     1000024         1        -2   # BR(~g -> ~chi_1+ d  ub)
     1.51109680E-04    3    -1000024         2        -1   # BR(~g -> ~chi_1- u  db)
     1.51109680E-04    3     1000024         3        -4   # BR(~g -> ~chi_1+ s  cb)
     1.51109680E-04    3    -1000024         4        -3   # BR(~g -> ~chi_1- c  sb)
     2.35034105E-01    3     1000024         5        -6   # BR(~g -> ~chi_1+ b  tb)
     2.35034105E-01    3    -1000024         6        -5   # BR(~g -> ~chi_1- t  bb)
#
#         PDG            Width
DECAY   1000006     3.00202465E+02   # stop1 decays
#          BR         NDA      ID1       ID2
     5.57458272E-02    2     1000022         6   # BR(~t_1 -> ~chi_10 t )
     1.14377428E-01    2     1000023         6   # BR(~t_1 -> ~chi_20 t )
     6.05295617E-02    2     1000025         6   # BR(~t_1 -> ~chi_30 t )
     2.52169396E-02    2     1000035         6   # BR(~t_1 -> ~chi_40 t )
     2.51719515E-05    2     1000024         5   # BR(~t_1 -> ~chi_1+ b )
     5.01786110E-02    2     1000037         5   # BR(~t_1 -> ~chi_2+ b )
     6.78166865E-01    2     1000021         6   # BR(~t_1 -> ~g      t )
     6.76599166E-03    2     1000005        24   # BR(~t_1 -> ~b_1    W+)
     8.99360346E-03    2     2000005        24   # BR(~t_1 -> ~b_2    W+)
#
#         PDG            Width
DECAY   2000006     3.77256218E+02   # stop2 decays
#          BR         NDA      ID1       ID2
     6.34339371E-02    2     1000022         6   # BR(~t_2 -> ~chi_10 t )
     9.75561642E-02    2     1000023         6   # BR(~t_2 -> ~chi_20 t )
     6.25885357E-02    2     1000025         6   # BR(~t_2 -> ~chi_30 t )
    -8.24024705E-06    2     1000035         6   # BR(~t_2 -> ~chi_40 t )
     1.95383095E-01    2     1000024         5   # BR(~t_2 -> ~chi_1+ b )
    -1.61090360E-05    2     1000037         5   # BR(~t_2 -> ~chi_2+ b )
     5.81111211E-01    2     1000021         6   # BR(~t_2 -> ~g      t )
    -8.11089161E-05    2     1000006        25   # BR(~t_2 -> ~t_1    h )
     5.15564182E-06    2     1000006        23   # BR(~t_2 -> ~t_1    Z )
     1.15732726E-05    2     1000005        24   # BR(~t_2 -> ~b_1    W+)
     1.57855792E-05    2     2000005        24   # BR(~t_2 -> ~b_2    W+)
#
#         PDG            Width
DECAY   1000005     2.30098748E+02   # sbottom1 decays
#          BR         NDA      ID1       ID2
     5.02583094E-03    2     1000022         5   # BR(~b_1 -> ~chi_10 b )
     8.55723835E-05    2     1000023         5   # BR(~b_1 -> ~chi_20 b )
     3.00075916E-03    2     1000025         5   # BR(~b_1 -> ~chi_30 b )
     1.09264950E-02    2     1000035         5   # BR(~b_1 -> ~chi_40 b )
     9.98761692E-02    2    -1000024         6   # BR(~b_1 -> ~chi_1- t )
     2.19600818E-02    2    -1000037         6   # BR(~b_1 -> ~chi_2- t )
     8.59125091E-01    2     1000021         5   # BR(~b_1 -> ~g      b )
#
#         PDG            Width
DECAY   2000005     2.55878065E+02   # sbottom2 decays
#          BR         NDA      ID1       ID2
     2.17748815E-03    2     1000022         5   # BR(~b_2 -> ~chi_10 b )
     1.09561053E-04    2     1000023         5   # BR(~b_2 -> ~chi_20 b )
     2.92099317E-03    2     1000025         5   # BR(~b_2 -> ~chi_30 b )
     1.70794356E-02    2     1000035         5   # BR(~b_2 -> ~chi_40 b )
     1.71209110E-01    2    -1000024         6   # BR(~b_2 -> ~chi_1- t )
     3.43366156E-02    2    -1000037         6   # BR(~b_2 -> ~chi_2- t )
     7.72166797E-01    2     1000021         5   # BR(~b_2 -> ~g      b )
#
#         PDG            Width
DECAY   1000002     2.18953327E+02   # sup_L decays
#          BR         NDA      ID1       ID2
     9.59720702E-04    2     1000022         2   # BR(~u_L -> ~chi_10 u)
     6.96898726E-07    2     1000023         2   # BR(~u_L -> ~chi_20 u)
     1.97164630E-03    2     1000025         2   # BR(~u_L -> ~chi_30 u)
     3.14192487E-02    2     1000035         2   # BR(~u_L -> ~chi_40 u)
     2.41098054E-04    2     1000024         1   # BR(~u_L -> ~chi_1+ d)
     6.28382522E-02    2     1000037         1   # BR(~u_L -> ~chi_2+ d)
     9.02569337E-01    2     1000021         2   # BR(~u_L -> ~g      u)
#
#         PDG            Width
DECAY   2000002     2.07499456E+02   # sup_R decays
#          BR         NDA      ID1       ID2
     2.41537477E-02    2     1000022         2   # BR(~u_R -> ~chi_10 u)
     1.10197134E-06    2     1000023         2   # BR(~u_R -> ~chi_20 u)
     2.34366052E-02    2     1000025         2   # BR(~u_R -> ~chi_30 u)
     9.14144278E-09    2     1000035         2   # BR(~u_R -> ~chi_40 u)
     9.52408536E-01    2     1000021         2   # BR(~u_R -> ~g      u)
#
#         PDG            Width
DECAY   1000001     2.18958602E+02   # sdown_L decays
#          BR         NDA      ID1       ID2
     1.99526766E-03    2     1000022         1   # BR(~d_L -> ~chi_10 d)
     1.81113502E-06    2     1000023         1   # BR(~d_L -> ~chi_20 d)
     9.06784409E-04    2     1000025         1   # BR(~d_L -> ~chi_30 d)
     3.14405804E-02    2     1000035         1   # BR(~d_L -> ~chi_40 d)
     1.54983160E-04    2    -1000024         2   # BR(~d_L -> ~chi_1- u)
     6.28816782E-02    2    -1000037         2   # BR(~d_L -> ~chi_2- u)
     9.02618895E-01    2     1000021         1   # BR(~d_L -> ~g      d)
#
#         PDG            Width
DECAY   2000001     2.00098033E+02   # sdown_R decays
#          BR         NDA      ID1       ID2
     6.26190316E-03    2     1000022         1   # BR(~d_R -> ~chi_10 d)
     2.85688144E-07    2     1000023         1   # BR(~d_R -> ~chi_20 d)
     6.07598523E-03    2     1000025         1   # BR(~d_R -> ~chi_30 d)
     2.37002705E-09    2     1000035         1   # BR(~d_R -> ~chi_40 d)
     9.87661824E-01    2     1000021         1   # BR(~d_R -> ~g      d)
#
#         PDG            Width
DECAY   1000004     2.18953327E+02   # scharm_L decays
#          BR         NDA      ID1       ID2
     9.59720702E-04    2     1000022         4   # BR(~c_L -> ~chi_10 c)
     6.96898726E-07    2     1000023         4   # BR(~c_L -> ~chi_20 c)
     1.97164630E-03    2     1000025         4   # BR(~c_L -> ~chi_30 c)
     3.14192487E-02    2     1000035         4   # BR(~c_L -> ~chi_40 c)
     2.41098054E-04    2     1000024         3   # BR(~c_L -> ~chi_1+ s)
     6.28382522E-02    2     1000037         3   # BR(~c_L -> ~chi_2+ s)
     9.02569337E-01    2     1000021         4   # BR(~c_L -> ~g      c)
#
#         PDG            Width
DECAY   2000004     2.07499456E+02   # scharm_R decays
#          BR         NDA      ID1       ID2
     2.41537477E-02    2     1000022         4   # BR(~c_R -> ~chi_10 c)
     1.10197134E-06    2     1000023         4   # BR(~c_R -> ~chi_20 c)
     2.34366052E-02    2     1000025         4   # BR(~c_R -> ~chi_30 c)
     9.14144278E-09    2     1000035         4   # BR(~c_R -> ~chi_40 c)
     9.52408536E-01    2     1000021         4   # BR(~c_R -> ~g      c)
#
#         PDG            Width
DECAY   1000003     2.18958602E+02   # sstrange_L decays
#          BR         NDA      ID1       ID2
     1.99526766E-03    2     1000022         3   # BR(~s_L -> ~chi_10 s)
     1.81113502E-06    2     1000023         3   # BR(~s_L -> ~chi_20 s)
     9.06784409E-04    2     1000025         3   # BR(~s_L -> ~chi_30 s)
     3.14405804E-02    2     1000035         3   # BR(~s_L -> ~chi_40 s)
     1.54983160E-04    2    -1000024         4   # BR(~s_L -> ~chi_1- c)
     6.28816782E-02    2    -1000037         4   # BR(~s_L -> ~chi_2- c)
     9.02618895E-01    2     1000021         3   # BR(~s_L -> ~g      s)
#
#         PDG            Width
DECAY   2000003     2.00098033E+02   # sstrange_R decays
#          BR         NDA      ID1       ID2
     6.26190316E-03    2     1000022         3   # BR(~s_R -> ~chi_10 s)
     2.85688144E-07    2     1000023         3   # BR(~s_R -> ~chi_20 s)
     6.07598523E-03    2     1000025         3   # BR(~s_R -> ~chi_30 s)
     2.37002705E-09    2     1000035         3   # BR(~s_R -> ~chi_40 s)
     9.87661824E-01    2     1000021         3   # BR(~s_R -> ~g      s)
#
#         PDG            Width
DECAY   1000011     2.75859607E+01   # selectron_L decays
#          BR         NDA      ID1       ID2
     9.40913964E-02    2     1000022        11   # BR(~e_L -> ~chi_10 e-)
     8.67989621E-07    2     1000023        11   # BR(~e_L -> ~chi_20 e-)
     1.17044664E-01    2     1000025        11   # BR(~e_L -> ~chi_30 e-)
     2.62341605E-01    2     1000035        11   # BR(~e_L -> ~chi_40 e-)
     1.28263922E-03    2    -1000024        12   # BR(~e_L -> ~chi_1- nu_e)
     5.25238827E-01    2    -1000037        12   # BR(~e_L -> ~chi_2- nu_e)
#
#         PDG            Width
DECAY   2000011     2.31682810E+01   # selectron_R decays
#          BR         NDA      ID1       ID2
     5.07505328E-01    2     1000022        11   # BR(~e_R -> ~chi_10 e-)
     2.31548068E-05    2     1000023        11   # BR(~e_R -> ~chi_20 e-)
     4.92471323E-01    2     1000025        11   # BR(~e_R -> ~chi_30 e-)
     1.93881436E-07    2     1000035        11   # BR(~e_R -> ~chi_40 e-)
#
#         PDG            Width
DECAY   1000013     2.75859607E+01   # smuon_L decays
#          BR         NDA      ID1       ID2
     9.40913964E-02    2     1000022        13   # BR(~mu_L -> ~chi_10 mu-)
     8.67989621E-07    2     1000023        13   # BR(~mu_L -> ~chi_20 mu-)
     1.17044664E-01    2     1000025        13   # BR(~mu_L -> ~chi_30 mu-)
     2.62341605E-01    2     1000035        13   # BR(~mu_L -> ~chi_40 mu-)
     1.28263922E-03    2    -1000024        14   # BR(~mu_L -> ~chi_1- nu_mu)
     5.25238827E-01    2    -1000037        14   # BR(~mu_L -> ~chi_2- nu_mu)
#
#         PDG            Width
DECAY   2000013     2.31682810E+01   # smuon_R decays
#          BR         NDA      ID1       ID2
     5.07505328E-01    2     1000022        13   # BR(~mu_R -> ~chi_10 mu-)
     2.31548068E-05    2     1000023        13   # BR(~mu_R -> ~chi_20 mu-)
     4.92471323E-01    2     1000025        13   # BR(~mu_R -> ~chi_30 mu-)
     1.93881436E-07    2     1000035        13   # BR(~mu_R -> ~chi_40 mu-)
#
#         PDG            Width
DECAY   1000015     2.54226614E+01   # stau_1 decays
#          BR         NDA      ID1       ID2
     2.91307553E-01    2     1000022        15   # BR(~tau_1 -> ~chi_10  tau-)
     4.67244729E-04    2     1000023        15   # BR(~tau_1 -> ~chi_20  tau-)
     2.85052040E-01    2     1000025        15   # BR(~tau_1 -> ~chi_30  tau-)
     1.40102401E-01    2     1000035        15   # BR(~tau_1 -> ~chi_40  tau-)
     2.56857800E-03    2    -1000024        16   # BR(~tau_1 -> ~chi_1-  nu_tau)
     2.80502171E-01    2    -1000037        16   # BR(~tau_1 -> ~chi_2-  nu_tau)
     1.29574305E-08    2     1000039        15   # BR(~tau_1 -> ~G       tau-)
#
#         PDG            Width
DECAY   2000015     2.54218252E+01   # stau_2 decays
#          BR         NDA      ID1       ID2
     2.73895091E-01    2     1000022        15   # BR(~tau_2 -> ~chi_10  tau-)
     7.37481395E-04    2     1000023        15   # BR(~tau_2 -> ~chi_20  tau-)
     2.91351933E-01    2     1000025        15   # BR(~tau_2 -> ~chi_30  tau-)
     1.44568437E-01    2     1000035        15   # BR(~tau_2 -> ~chi_40  tau-)
     5.80649146E-06    2    -1000024        16   # BR(~tau_2 -> ~chi_1-  nu_tau)
     2.89441251E-01    2    -1000037        16   # BR(~tau_2 -> ~chi_2-  nu_tau)
#
#         PDG            Width
DECAY   1000012     2.75857625E+01   # snu_eL decays
#          BR         NDA      ID1       ID2
     1.19794755E-01    2     1000022        12   # BR(~nu_eL -> ~chi_10 nu_e)
     2.85303606E-05    2     1000023        12   # BR(~nu_eL -> ~chi_20 nu_e)
     9.05993391E-02    2     1000025        12   # BR(~nu_eL -> ~chi_30 nu_e)
     2.62711829E-01    2     1000035        12   # BR(~nu_eL -> ~chi_40 nu_e)
     1.99529530E-03    2     1000024        11   # BR(~nu_eL -> ~chi_1+ e-)
     5.24870251E-01    2     1000037        11   # BR(~nu_eL -> ~chi_2+ e-)
#
#         PDG            Width
DECAY   1000014     2.75857625E+01   # snu_muL decays
#          BR         NDA      ID1       ID2
     1.19794755E-01    2     1000022        14   # BR(~nu_muL -> ~chi_10 nu_mu)
     2.85303606E-05    2     1000023        14   # BR(~nu_muL -> ~chi_20 nu_mu)
     9.05993391E-02    2     1000025        14   # BR(~nu_muL -> ~chi_30 nu_mu)
     2.62711829E-01    2     1000035        14   # BR(~nu_muL -> ~chi_40 nu_mu)
     1.99529530E-03    2     1000024        13   # BR(~nu_muL -> ~chi_1+ mu-)
     5.24870251E-01    2     1000037        13   # BR(~nu_muL -> ~chi_2+ mu-)
#
#         PDG            Width
DECAY   1000016     2.76158387E+01   # snu_tauL decays
#          BR         NDA      ID1       ID2
     1.19664287E-01    2     1000022        16   # BR(~nu_tauL -> ~chi_10 nu_tau)
     2.84992884E-05    2     1000023        16   # BR(~nu_tauL -> ~chi_20 nu_tau)
     9.05006679E-02    2     1000025        16   # BR(~nu_tauL -> ~chi_30 nu_tau)
     2.62425711E-01    2     1000035        16   # BR(~nu_tauL -> ~chi_40 nu_tau)
     3.08147437E-03    2     1000024        15   # BR(~nu_tauL -> ~chi_1+ tau-)
     5.24299360E-01    2     1000037        15   # BR(~nu_tauL -> ~chi_2+ tau-)
#
#         PDG            Width
DECAY   1000024     1.03039406E-04   # chargino1+ decays
#          BR         NDA      ID1       ID2
     3.03641929E-07    2     1000039        24   # BR(~chi_1+ -> ~G       W+)
#           BR         NDA      ID1       ID2       ID3
     3.33631330E-01    3     1000022         2        -1   # BR(~chi_1+ -> ~chi_10 u    db)
     3.33631330E-01    3     1000022         4        -3   # BR(~chi_1+ -> ~chi_10 c    sb)
     1.11210576E-01    3     1000022       -11        12   # BR(~chi_1+ -> ~chi_10 e+   nu_e)
     1.11210576E-01    3     1000022       -13        14   # BR(~chi_1+ -> ~chi_10 mu+  nu_mu)
     1.10315883E-01    3     1000022       -15        16   # BR(~chi_1+ -> ~chi_10 tau+ nu_tau)
#
#         PDG            Width
DECAY   1000037     3.66898360E+01   # chargino2+ decays
#          BR         NDA      ID1       ID2
     2.44818235E-01    2     1000024        23   # BR(~chi_2+ -> ~chi_1+  Z )
     1.11783428E-01    2     1000022        24   # BR(~chi_2+ -> ~chi_10  W+)
     2.38470970E-01    2     1000023        24   # BR(~chi_2+ -> ~chi_20  W+)
     1.26885040E-01    2     1000025        24   # BR(~chi_2+ -> ~chi_30  W+)
     2.45923160E-01    2     1000024        25   # BR(~chi_2+ -> ~chi_1+  h )
     7.91382137E-03    2     1000024        35   # BR(~chi_2+ -> ~chi_1+  H )
     8.12799472E-03    2     1000024        36   # BR(~chi_2+ -> ~chi_1+  A )
     4.83673338E-03    2     1000022        37   # BR(~chi_2+ -> ~chi_10  H+)
     7.96613781E-03    2     1000023        37   # BR(~chi_2+ -> ~chi_20  H+)
     3.27447861E-03    2     1000025        37   # BR(~chi_2+ -> ~chi_30  H+)
     8.59072664E-10    2     1000039        24   # BR(~chi_2+ -> ~G       W+)
     5.93553884E-14    2     1000039        37   # BR(~chi_2+ -> ~G       H+)
#
#         PDG            Width
DECAY   1000022     3.68821602E-11   # neutralino1 decays
#          BR         NDA      ID1       ID2
     5.02246472E-01    2     1000039        22   # BR(~chi_10 -> ~G        gam)
     4.86726862E-01    2     1000039        23   # BR(~chi_10 -> ~G        Z)
     1.10266655E-02    2     1000039        25   # BR(~chi_10 -> ~G        h)
#
#         PDG            Width
DECAY   1000023     1.12740872E-04   # neutralino2 decays
#          BR         NDA      ID1       ID2
     3.12208284E-04    2     1000022        22   # BR(~chi_20 -> ~chi_10 gam)
#          BR         NDA      ID1       ID2
     3.09379009E-12    2     1000039        22   # BR(~chi_20 -> ~G        gam)
     1.07657743E-08    2     1000039        23   # BR(~chi_20 -> ~G        Z)
     2.58424423E-07    2     1000039        25   # BR(~chi_20 -> ~G        h)
#           BR         NDA      ID1       ID2       ID3
     1.18763878E-01    3     1000022        -2         2   # BR(~chi_20 -> ~chi_10 ub      u)
     1.53765856E-01    3     1000022        -1         1   # BR(~chi_20 -> ~chi_10 db      d)
     1.18763878E-01    3     1000022        -4         4   # BR(~chi_20 -> ~chi_10 cb      c)
     1.53765856E-01    3     1000022        -3         3   # BR(~chi_20 -> ~chi_10 sb      s)
     1.39323988E-01    3     1000022        -5         5   # BR(~chi_20 -> ~chi_10 bb      b)
     3.51103748E-02    3     1000022       -11        11   # BR(~chi_20 -> ~chi_10 e+      e-)
     3.51103748E-02    3     1000022       -13        13   # BR(~chi_20 -> ~chi_10 mu+     mu-)
     3.47423220E-02    3     1000022       -15        15   # BR(~chi_20 -> ~chi_10 tau+    tau-)
     7.01127330E-02    3     1000022       -12        12   # BR(~chi_20 -> ~chi_10 nu_eb   nu_e)
     7.01127330E-02    3     1000022       -14        14   # BR(~chi_20 -> ~chi_10 nu_mub  nu_mu)
     7.01127330E-02    3     1000022       -16        16   # BR(~chi_20 -> ~chi_10 nu_taub nu_tau)
     5.17082621E-07    3     1000024        -2         1   # BR(~chi_20 -> ~chi_1+ ub      d)
     5.17082621E-07    3    -1000024        -1         2   # BR(~chi_20 -> ~chi_1- db      u)
     5.17082621E-07    3     1000024        -4         3   # BR(~chi_20 -> ~chi_1+ cb      s)
     5.17082621E-07    3    -1000024        -3         4   # BR(~chi_20 -> ~chi_1- sb      c)
     1.72360885E-07    3     1000024       -12        11   # BR(~chi_20 -> ~chi_1+ nu_eb   e-)
     1.72360885E-07    3    -1000024        12       -11   # BR(~chi_20 -> ~chi_1- nu_e    e+)
     1.72360885E-07    3     1000024       -14        13   # BR(~chi_20 -> ~chi_1+ nu_mub  mu-)
     1.72360885E-07    3    -1000024        14       -13   # BR(~chi_20 -> ~chi_1- nu_mu   mu+)
     1.89239322E-08    3     1000024       -16        15   # BR(~chi_20 -> ~chi_1+ nu_taub tau-)
     1.89239322E-08    3    -1000024        16       -15   # BR(~chi_20 -> ~chi_1- nu_tau  tau+)
#
#         PDG            Width
DECAY   1000025     2.42535229E-04   # neutralino3 decays
#          BR         NDA      ID1       ID2
     3.46099113E-04    2     1000022        22   # BR(~chi_30 -> ~chi_10 gam)
     3.78046835E-04    2     1000023        22   # BR(~chi_30 -> ~chi_20 gam)
#          BR         NDA      ID1       ID2
     1.31445393E-07    2     1000039        22   # BR(~chi_30 -> ~G        gam)
     1.12065468E-07    2     1000039        23   # BR(~chi_30 -> ~G        Z)
     3.08984509E-09    2     1000039        25   # BR(~chi_30 -> ~G        h)
#           BR         NDA      ID1       ID2       ID3
     1.02772221E-05    3     1000022        -2         2   # BR(~chi_30 -> ~chi_10 ub      u)
     1.23095568E-05    3     1000022        -1         1   # BR(~chi_30 -> ~chi_10 db      d)
     1.02772221E-05    3     1000022        -4         4   # BR(~chi_30 -> ~chi_10 cb      c)
     1.23095568E-05    3     1000022        -3         3   # BR(~chi_30 -> ~chi_10 sb      s)
     1.60214645E-05    3     1000022        -5         5   # BR(~chi_30 -> ~chi_10 bb      b)
     2.19702935E-06    3     1000022       -11        11   # BR(~chi_30 -> ~chi_10 e+      e-)
     2.19702935E-06    3     1000022       -13        13   # BR(~chi_30 -> ~chi_10 mu+     mu-)
     2.78495379E-06    3     1000022       -15        15   # BR(~chi_30 -> ~chi_10 tau+    tau-)
     5.98955286E-06    3     1000022       -12        12   # BR(~chi_30 -> ~chi_10 nu_eb   nu_e)
     5.98955286E-06    3     1000022       -14        14   # BR(~chi_30 -> ~chi_10 nu_mub  nu_mu)
     5.98955286E-06    3     1000022       -16        16   # BR(~chi_30 -> ~chi_10 nu_taub nu_tau)
     2.61466392E-02    3     1000023        -2         2   # BR(~chi_30 -> ~chi_20 ub      u)
     3.38526196E-02    3     1000023        -1         1   # BR(~chi_30 -> ~chi_20 db      d)
     2.61466392E-02    3     1000023        -4         4   # BR(~chi_30 -> ~chi_20 cb      c)
     3.38526196E-02    3     1000023        -3         3   # BR(~chi_30 -> ~chi_20 sb      s)
     2.97161969E-02    3     1000023        -5         5   # BR(~chi_30 -> ~chi_20 bb      b)
     7.72982246E-03    3     1000023       -11        11   # BR(~chi_30 -> ~chi_20 e+      e-)
     7.72982246E-03    3     1000023       -13        13   # BR(~chi_30 -> ~chi_20 mu+     mu-)
     7.62912102E-03    3     1000023       -15        15   # BR(~chi_30 -> ~chi_20 tau+    tau-)
     1.54357316E-02    3     1000023       -12        12   # BR(~chi_30 -> ~chi_20 nu_eb   nu_e)
     1.54357316E-02    3     1000023       -14        14   # BR(~chi_30 -> ~chi_20 nu_mub  nu_mu)
     1.54357316E-02    3     1000023       -16        16   # BR(~chi_30 -> ~chi_20 nu_taub nu_tau)
     1.30134237E-01    3     1000024        -2         1   # BR(~chi_30 -> ~chi_1+ ub      d)
     1.30134237E-01    3    -1000024        -1         2   # BR(~chi_30 -> ~chi_1- db      u)
     1.30134237E-01    3     1000024        -4         3   # BR(~chi_30 -> ~chi_1+ cb      s)
     1.30134237E-01    3    -1000024        -3         4   # BR(~chi_30 -> ~chi_1- sb      c)
     4.33780101E-02    3     1000024       -12        11   # BR(~chi_30 -> ~chi_1+ nu_eb   e-)
     4.33780101E-02    3    -1000024        12       -11   # BR(~chi_30 -> ~chi_1- nu_e    e+)
     4.33780101E-02    3     1000024       -14        13   # BR(~chi_30 -> ~chi_1+ nu_mub  mu-)
     4.33780101E-02    3    -1000024        14       -13   # BR(~chi_30 -> ~chi_1- nu_mu   mu+)
     4.30148009E-02    3     1000024       -16        15   # BR(~chi_30 -> ~chi_1+ nu_taub tau-)
     4.30148009E-02    3    -1000024        16       -15   # BR(~chi_30 -> ~chi_1- nu_tau  tau+)
#
#         PDG            Width
DECAY   1000035     3.66902294E+01   # neutralino4 decays
#          BR         NDA      ID1       ID2
     1.35455443E-03    2     1000022        23   # BR(~chi_40 -> ~chi_10   Z )
     2.41966503E-01    2     1000023        23   # BR(~chi_40 -> ~chi_20   Z )
     1.55851447E-03    2     1000025        23   # BR(~chi_40 -> ~chi_30   Z )
     2.38395932E-01    2     1000024       -24   # BR(~chi_40 -> ~chi_1+   W-)
     2.38395932E-01    2    -1000024        24   # BR(~chi_40 -> ~chi_1-   W+)
     1.13972339E-01    2     1000022        25   # BR(~chi_40 -> ~chi_10   h )
     1.46268834E-03    2     1000022        35   # BR(~chi_40 -> ~chi_10   H )
     3.34325508E-03    2     1000022        36   # BR(~chi_40 -> ~chi_10   A )
     2.88106024E-03    2     1000023        25   # BR(~chi_40 -> ~chi_20   h )
     5.11786199E-03    2     1000023        35   # BR(~chi_40 -> ~chi_20   H )
     2.78475616E-03    2     1000023        36   # BR(~chi_40 -> ~chi_20   A )
     1.29356198E-01    2     1000025        25   # BR(~chi_40 -> ~chi_30   h )
     1.23230711E-03    2     1000025        35   # BR(~chi_40 -> ~chi_30   H )
     2.01587102E-03    2     1000025        36   # BR(~chi_40 -> ~chi_30   A )
     8.08111331E-03    2     1000024       -37   # BR(~chi_40 -> ~chi_1+   H-)
     8.08111331E-03    2    -1000024        37   # BR(~chi_40 -> ~chi_1-   H+)
     2.06199237E-10    2     1000039        22   # BR(~chi_40 -> ~G        gam)
     6.52793196E-10    2     1000039        23   # BR(~chi_40 -> ~G        Z)
     4.75713840E-14    2     1000039        25   # BR(~chi_40 -> ~G        h)
     5.85664520E-14    2     1000039        35   # BR(~chi_40 -> ~G        H)
     5.01274413E-16    2     1000039        36   # BR(~chi_40 -> ~G        A)
#
#         PDG            Width
DECAY        25     4.21848686E-03   # h decays
#          BR         NDA      ID1       ID2
     6.01857096E-01    2           5        -5   # BR(h -> b       bb     )
     6.22378804E-02    2         -15        15   # BR(h -> tau+    tau-   )
     2.20294963E-04    2         -13        13   # BR(h -> mu+     mu-    )
     4.66101414E-04    2           3        -3   # BR(h -> s       sb     )
     2.01080854E-02    2           4        -4   # BR(h -> c       cb     )
     6.64062717E-02    2          21        21   # BR(h -> g       g      )
     2.30848683E-03    2          22        22   # BR(h -> gam     gam    )
     1.62653005E-03    2          22        23   # BR(h -> Z       gam    )
     2.16689156E-01    2          24       -24   # BR(h -> W+      W-     )
     2.80800977E-02    2          23        23   # BR(h -> Z       Z      )
#
#         PDG            Width
DECAY        35     3.88095126E+01   # H decays
#          BR         NDA      ID1       ID2
     1.43408484E-03    2           5        -5   # BR(H -> b       bb     )
     2.40083883E-04    2         -15        15   # BR(H -> tau+    tau-   )
     8.48785912E-07    2         -13        13   # BR(H -> mu+     mu-    )
     1.08675354E-06    2           3        -3   # BR(H -> s       sb     )
     9.80787486E-06    2           4        -4   # BR(H -> c       cb     )
     9.70444706E-01    2           6        -6   # BR(H -> t       tb     )
     7.77240231E-04    2          21        21   # BR(H -> g       g      )
     2.63847367E-06    2          22        22   # BR(H -> gam     gam    )
     1.12987554E-06    2          23        22   # BR(H -> Z       gam    )
     3.27621587E-04    2          24       -24   # BR(H -> W+      W-     )
     1.63363968E-04    2          23        23   # BR(H -> Z       Z      )
     8.81061165E-04    2          25        25   # BR(H -> h       h      )
     7.43151584E-24    2          36        36   # BR(H -> A       A      )
     2.99912903E-11    2          23        36   # BR(H -> Z       A      )
     7.45763786E-12    2          24       -37   # BR(H -> W+      H-     )
     7.45763786E-12    2         -24        37   # BR(H -> W-      H+     )
     7.58437496E-06    2     1000024  -1000024   # BR(H -> ~chi_1+ ~chi_1-)
     1.83602364E-04    2     1000022   1000022   # BR(H -> ~chi_10 ~chi_10)
     1.29281018E-06    2     1000023   1000023   # BR(H -> ~chi_20 ~chi_20)
     3.16534206E-05    2     1000025   1000025   # BR(H -> ~chi_30 ~chi_30)
     1.58333951E-02    2     1000022   1000023   # BR(H -> ~chi_10 ~chi_20)
     4.56486727E-07    2     1000022   1000025   # BR(H -> ~chi_10 ~chi_30)
     9.65834157E-03    2     1000023   1000025   # BR(H -> ~chi_20 ~chi_30)
#
#         PDG            Width
DECAY        36     3.92441766E+01   # A decays
#          BR         NDA      ID1       ID2
     1.43706553E-03    2           5        -5   # BR(A -> b       bb     )
     2.37645867E-04    2         -15        15   # BR(A -> tau+    tau-   )
     8.40163989E-07    2         -13        13   # BR(A -> mu+     mu-    )
     1.10763492E-06    2           3        -3   # BR(A -> s       sb     )
     9.70641398E-06    2           4        -4   # BR(A -> c       cb     )
     9.71439900E-01    2           6        -6   # BR(A -> t       tb     )
     9.19486321E-04    2          21        21   # BR(A -> g       g      )
     2.99654558E-06    2          22        22   # BR(A -> gam     gam    )
     1.31759616E-06    2          23        22   # BR(A -> Z       gam    )
     3.19292362E-04    2          23        25   # BR(A -> Z       h      )
     4.48634249E-04    2     1000024  -1000024   # BR(A -> ~chi_1+ ~chi_1-)
     1.68691219E-02    2     1000022   1000022   # BR(A -> ~chi_10 ~chi_10)
     2.84517537E-07    2     1000023   1000023   # BR(A -> ~chi_20 ~chi_20)
     8.00204870E-03    2     1000025   1000025   # BR(A -> ~chi_30 ~chi_30)
     1.19366974E-04    2     1000022   1000023   # BR(A -> ~chi_10 ~chi_20)
     1.33299943E-04    2     1000022   1000025   # BR(A -> ~chi_10 ~chi_30)
     5.78852377E-05    2     1000023   1000025   # BR(A -> ~chi_20 ~chi_30)
#
#         PDG            Width
DECAY        37     3.84329300E+01   # H+ decays
#          BR         NDA      ID1       ID2
     2.30552455E-06    2           4        -5   # BR(H+ -> c       bb     )
     2.42841843E-04    2         -15        16   # BR(H+ -> tau+    nu_tau )
     8.58533637E-07    2         -13        14   # BR(H+ -> mu+     nu_mu  )
     1.46580338E-08    2           2        -5   # BR(H+ -> u       bb     )
     5.31692121E-08    2           2        -3   # BR(H+ -> u       sb     )
     1.05941672E-05    2           4        -3   # BR(H+ -> c       sb     )
     9.73760802E-01    2           6        -5   # BR(H+ -> t       bb     )
     3.27219778E-04    2          24        25   # BR(H+ -> W+      h      )
     2.43989179E-13    2          24        36   # BR(H+ -> W+      A      )
     1.42753389E-02    2     1000024   1000022   # BR(H+ -> ~chi_1+ ~chi_10)
     1.06592513E-04    2     1000024   1000023   # BR(H+ -> ~chi_1+ ~chi_20)
     1.12733791E-02    2     1000024   1000025   # BR(H+ -> ~chi_1+ ~chi_30)
