#
#                              ======================
#                              | THE SUSYHIT OUTPUT |
#                              ======================
#
#
#              ------------------------------------------------------
#              |     This is the output of the SUSY-HIT package     |
#              |  created by A.Djouadi, M.Muehlleitner and M.Spira. |
#              |  In case of problems with SUSY-HIT email to        |
#              |           margarete.muehlleitner@kit.edu           |
#              |           michael.spira@psi.ch                     |
#              |           abdelhak.djouadi@cern.ch                 |
#              ------------------------------------------------------
#
#              ------------------------------------------------------
#              |  SUSY Les Houches Accord - MSSM Spectrum + Decays  |
#              |              based on the decay programs           |
#              |                                                    |
#              |                     SDECAY 1.5                     |
#              |                                                    |
#              |  Authors: M.Muhlleitner, A.Djouadi and Y.Mambrini  |
#              |  Ref.:    Comput.Phys.Commun.168(2005)46           |
#              |           [hep-ph/0311167]                         |
#              |                                                    |
#              |                     HDECAY 3.4                     |
#              |                                                    |
#              |  By: A.Djouadi,J.Kalinowski,M.Muhlleitner,M.Spira  |
#              |  Ref.:    Comput.Phys.Commun.108(1998)56           |
#              |           [hep-ph/9704448]                         |
#              |                                                    |
#              |                                                    |
#              |  If not stated otherwise all DRbar couplings and   |
#              |  soft SUSY breaking masses are given at the scale  |
#              |  Q=  0.91187600E+02
#              |                                                    |
#              ------------------------------------------------------
#
#
BLOCK DCINFO  # Decay Program information
     1   SDECAY/HDECAY # decay calculator
     2   1.5  /3.4    # version number
#
BLOCK SPINFO  # Spectrum calculator information
     1   SuSpect     # RGE +Spectrum calculator            
     2   2.43         # version number                     
#
BLOCK MODSEL  # Model selection
     1     2   # GMSB                                              
#
BLOCK SMINPUTS  # Standard Model inputs
         1     1.27932904E+02   # alpha_em^-1(M_Z)^MSbar
         2     1.16639000E-05   # G_F [GeV^-2]
         3     1.17200000E-01   # alpha_S(M_Z)^MSbar
         4     9.11870000E+01   # M_Z pole mass
         5     4.25000000E+00   # mb(mb)^MSbar
         6     1.72900000E+02   # mt pole mass
         7     1.77700000E+00   # mtau pole mass
#
BLOCK MINPAR  # Input parameters - minimal models
#
BLOCK EXTPAR  # Input parameters - non-minimal models
         0     9.11876000E+01   # EWSB                
         1     8.54000000E+02   # M_1                 
         2     3.00000000E+03   # M_2                 
         3     5.00000000E+03   # M_3                 
        11     0.00000000E+00   # A_t                 
        12     0.00000000E+00   # A_b                 
        13     0.00000000E+00   # A_tau               
        14     0.00000000E+00   # A_u                 
        15     0.00000000E+00   # A_d                 
        16     0.00000000E+00   # A_e                 
        23     8.50000000E+02   # mu(EWSB)            
        25     1.50000000E+00   # tanbeta(in)         
        26     2.00000000E+03   # MA_pole             
        31     5.00000000E+03   # M_eL                
        32     5.00000000E+03   # M_muL               
        33     5.00000000E+03   # M_tauL              
        34     5.00000000E+03   # M_eR                
        35     5.00000000E+03   # M_muR               
        36     5.00000000E+03   # M_tauR              
        41     5.00000000E+03   # M_q1L               
        42     5.00000000E+03   # M_q2L               
        43     5.00000000E+03   # M_q3L               
        44     5.00000000E+03   # M_uR                
        45     5.00000000E+03   # M_cR                
        46     5.00000000E+03   # M_tR                
        47     5.00000000E+03   # M_dR                
        48     5.00000000E+03   # M_sR                
        49     5.00000000E+03   # M_bR                
#
BLOCK MASS  # Mass Spectrum
# PDG code           mass       particle
        24     8.05400732E+01   # W+
        25     1.26000000E+02   # h
        35     2.00400417E+03   # H
        36     2.00000000E+03   # A
        37     2.00149644E+03   # H+
         5     4.87877839E+00   # b-quark pole mass calculated from mb(mb)_Msbar
   1000001     4.38578617E+03   # ~d_L
   2000001     4.38566348E+03   # ~d_R
   1000002     4.38551189E+03   # ~u_L
   2000002     4.38557679E+03   # ~u_R
   1000003     4.38578617E+03   # ~s_L
   2000003     4.38566348E+03   # ~s_R
   1000004     4.38551189E+03   # ~c_L
   2000004     4.38557679E+03   # ~c_R
   1000005     4.38533098E+03   # ~b_1
   2000005     4.38612026E+03   # ~b_2
   1000006     4.52751253E+03   # ~t_1
   2000006     4.86106056E+03   # ~t_2
   1000011     5.00008226E+03   # ~e_L
   2000011     5.00007604E+03   # ~e_R
   1000012     4.99984169E+03   # ~nu_eL
   1000013     5.00008226E+03   # ~mu_L
   2000013     5.00007604E+03   # ~mu_R
   1000014     4.99984169E+03   # ~nu_muL
   1000015     4.99985275E+03   # ~tau_1
   2000015     5.00030617E+03   # ~tau_2
   1000016     4.99984169E+03   # ~nu_tauL
   1000021     4.51226767E+03   # ~g
   1000022     8.62166705E+02   # ~chi_10
   1000023    -9.08842104E+02   # ~chi_20
   1000025     9.49311072E+02   # ~chi_30
   1000035     3.12893025E+03   # ~chi_40
   1000024     9.06091063E+02   # ~chi_1+
   1000037     3.12892927E+03   # ~chi_2+
   1000039     3.02500000E-08   # ~gravitino
#
BLOCK NMIX  # Neutralino Mixing Matrix
  1  1     7.09469364E-01   # N_11
  1  2    -2.41005334E-02   # N_12
  1  3     5.00644981E-01   # N_13
  1  4    -4.95405883E-01   # N_14
  2  1     4.81312793E-03   # N_21
  2  2    -3.84925959E-03   # N_22
  2  3    -7.06895548E-01   # N_23
  2  4    -7.07291101E-01   # N_24
  3  1     7.04719495E-01   # N_31
  3  2     2.52817445E-02   # N_32
  3  3    -4.99169554E-01   # N_33
  3  4     5.03548432E-01   # N_34
  4  1     6.99853390E-04   # N_41
  4  2    -9.99382400E-01   # N_42
  4  3    -2.19782375E-02   # N_43
  4  4     2.74096041E-02   # N_44
#
BLOCK UMIX  # Chargino Mixing Matrix U
  1  1    -3.10680846E-02   # U_11
  1  2     9.99517271E-01   # U_12
  2  1     9.99517271E-01   # U_21
  2  2     3.10680846E-02   # U_22
#
BLOCK VMIX  # Chargino Mixing Matrix V
  1  1    -3.87513359E-02   # V_11
  1  2     9.99248885E-01   # V_12
  2  1     9.99248885E-01   # V_21
  2  2     3.87513359E-02   # V_22
#
BLOCK STOPMIX  # Stop Mixing Matrix
  1  1     9.98999649E-01   # cos(theta_t)
  1  2    -4.47180198E-02   # sin(theta_t)
  2  1     4.47180198E-02   # -sin(theta_t)
  2  2     9.98999649E-01   # cos(theta_t)
#
BLOCK SBOTMIX  # Sbottom Mixing Matrix
  1  1     6.49831531E-01   # cos(theta_b)
  1  2     7.60078273E-01   # sin(theta_b)
  2  1    -7.60078273E-01   # -sin(theta_b)
  2  2     6.49831531E-01   # cos(theta_b)
#
BLOCK STAUMIX  # Stau Mixing Matrix
  1  1     7.02237160E-01   # cos(theta_tau)
  1  2     7.11943095E-01   # sin(theta_tau)
  2  1    -7.11943095E-01   # -sin(theta_tau)
  2  2     7.02237160E-01   # cos(theta_tau)
#
BLOCK ALPHA  # Higgs mixing
          -5.90172511E-01   # Mixing angle in the neutral Higgs boson sector
#
BLOCK HMIX Q=  9.11876000E+01  # DRbar Higgs Parameters
         1     8.50000000E+02   # mu(Q)               
         2     1.49999979E+00   # tanbeta(Q)          
         3     2.52029021E+02   # vev(Q)              
         4     3.48109790E+06   # MA^2(Q)             
#
BLOCK GAUGE Q=  9.11876000E+01  # The gauge couplings
     1     3.52851105E-01   # gprime(Q) DRbar
     2     6.27608206E-01   # g(Q) DRbar
     3     1.06610728E+00   # g3(Q) DRbar
#
BLOCK AU Q=  9.11876000E+01  # The trilinear couplings
  1  1     0.00000000E+00   # A_u(Q) DRbar
  2  2     0.00000000E+00   # A_c(Q) DRbar
  3  3     0.00000000E+00   # A_t(Q) DRbar
#
BLOCK AD Q=  9.11876000E+01  # The trilinear couplings
  1  1     0.00000000E+00   # A_d(Q) DRbar
  2  2     0.00000000E+00   # A_s(Q) DRbar
  3  3     0.00000000E+00   # A_b(Q) DRbar
#
BLOCK AE Q=  9.11876000E+01  # The trilinear couplings
  1  1     0.00000000E+00   # A_e(Q) DRbar
  2  2     0.00000000E+00   # A_mu(Q) DRbar
  3  3     0.00000000E+00   # A_tau(Q) DRbar
#
BLOCK Yu Q=  9.11876000E+01  # The Yukawa couplings
  1  1     0.00000000E+00   # y_u(Q) DRbar
  2  2     0.00000000E+00   # y_c(Q) DRbar
  3  3     1.02472298E+00   # y_t(Q) DRbar
#
BLOCK Yd Q=  9.11876000E+01  # The Yukawa couplings
  1  1     0.00000000E+00   # y_d(Q) DRbar
  2  2     0.00000000E+00   # y_s(Q) DRbar
  3  3     2.71306446E-02   # y_b(Q) DRbar
#
BLOCK Ye Q=  9.11876000E+01  # The Yukawa couplings
  1  1     0.00000000E+00   # y_e(Q) DRbar
  2  2     0.00000000E+00   # y_mu(Q) DRbar
  3  3     1.79859034E-02   # y_tau(Q) DRbar
#
BLOCK MSOFT Q=  9.11876000E+01  # The soft SUSY breaking masses at the scale Q
         1     8.54000000E+02   # M_1                 
         2     3.00000000E+03   # M_2                 
         3     5.00000000E+03   # M_3                 
        14     0.00000000E+00   # A_u                 
        15     0.00000000E+00   # A_d                 
        16     0.00000000E+00   # A_e                 
        21     2.24842479E+06   # M^2_Hd              
        22    -5.29841320E+06   # M^2_Hu              
        31     5.00000000E+03   # M_eL                
        32     5.00000000E+03   # M_muL               
        33     5.00000000E+03   # M_tauL              
        34     5.00000000E+03   # M_eR                
        35     5.00000000E+03   # M_muR               
        36     5.00000000E+03   # M_tauR              
        41     5.00000000E+03   # M_q1L               
        42     5.00000000E+03   # M_q2L               
        43     5.00000000E+03   # M_q3L               
        44     5.00000000E+03   # M_uR                
        45     5.00000000E+03   # M_cR                
        46     5.00000000E+03   # M_tR                
        47     5.00000000E+03   # M_dR                
        48     5.00000000E+03   # M_sR                
        49     5.00000000E+03   # M_bR                
#
#
#
#                             =================
#                             |The decay table|
#                             =================
#
# - The QCD corrections to the decays gluino -> squark  + quark
#                                     squark -> gaugino + quark_prime
#                                     squark -> squark_prime + Higgs
#                                     squark -> gluino  + quark
#   are included.
#
# - The multi-body decays for the inos, stops and sbottoms are included.
#
# - The loop induced decays for the gluino, neutralinos and stops
#   are included.
#
# - The SUSY decays of the top quark are included.
#
# - Possible decays of the NLSP in GMSB models are included.
#
#
#         PDG            Width
DECAY         6     1.37242132E+00   # top decays
#          BR         NDA      ID1       ID2
     1.00000000E+00    2           5        24   # BR(t ->  b    W+)
#
#         PDG            Width
DECAY   1000021     1.73350162E+00   # gluino decays
#          BR         NDA      ID1       ID2
     4.98986930E-02    2     1000001        -1   # BR(~g -> ~d_L  db)
     4.98986930E-02    2    -1000001         1   # BR(~g -> ~d_L* d )
     4.99941671E-02    2     2000001        -1   # BR(~g -> ~d_R  db)
     4.99941671E-02    2    -2000001         1   # BR(~g -> ~d_R* d )
     5.01122526E-02    2     1000002        -2   # BR(~g -> ~u_L  ub)
     5.01122526E-02    2    -1000002         2   # BR(~g -> ~u_L* u )
     5.00616803E-02    2     2000002        -2   # BR(~g -> ~u_R  ub)
     5.00616803E-02    2    -2000002         2   # BR(~g -> ~u_R* u )
     4.98986930E-02    2     1000003        -3   # BR(~g -> ~s_L  sb)
     4.98986930E-02    2    -1000003         3   # BR(~g -> ~s_L* s )
     4.99941671E-02    2     2000003        -3   # BR(~g -> ~s_R  sb)
     4.99941671E-02    2    -2000003         3   # BR(~g -> ~s_R* s )
     5.01122526E-02    2     1000004        -4   # BR(~g -> ~c_L  cb)
     5.01122526E-02    2    -1000004         4   # BR(~g -> ~c_L* c )
     5.00616803E-02    2     2000004        -4   # BR(~g -> ~c_R  cb)
     5.00616803E-02    2    -2000004         4   # BR(~g -> ~c_R* c )
     4.91077510E-02    2     1000005        -5   # BR(~g -> ~b_1  bb)
     4.91077510E-02    2    -1000005         5   # BR(~g -> ~b_1* b )
     5.07579843E-02    2     2000005        -5   # BR(~g -> ~b_2  bb)
     5.07579843E-02    2    -2000005         5   # BR(~g -> ~b_2* b )
     1.35764142E-06    2     1000039        21   # BR(~g -> ~G g)
#
#         PDG            Width
DECAY   1000006     6.99583605E+01   # stop1 decays
#          BR         NDA      ID1       ID2
     1.90204833E-01    2     1000022         6   # BR(~t_1 -> ~chi_10 t )
     4.13337139E-01    2     1000023         6   # BR(~t_1 -> ~chi_20 t )
     2.31570476E-01    2     1000025         6   # BR(~t_1 -> ~chi_30 t )
     6.80242602E-02    2     1000035         6   # BR(~t_1 -> ~chi_40 t )
     3.29361371E-03    2     1000024         5   # BR(~t_1 -> ~chi_1+ b )
     1.35555608E-01    2     1000037         5   # BR(~t_1 -> ~chi_2+ b )
    -1.78976583E-02    2     1000005        24   # BR(~t_1 -> ~b_1    W+)
    -2.40882727E-02    2     2000005        24   # BR(~t_1 -> ~b_2    W+)
#
#         PDG            Width
DECAY   2000006     1.40549698E+02   # stop2 decays
#          BR         NDA      ID1       ID2
     1.52421664E-01    2     1000022         6   # BR(~t_2 -> ~chi_10 t )
     2.23549384E-01    2     1000023         6   # BR(~t_2 -> ~chi_20 t )
     1.37307851E-01    2     1000025         6   # BR(~t_2 -> ~chi_30 t )
    -7.91705604E-05    2     1000035         6   # BR(~t_2 -> ~chi_40 t )
     4.45062400E-01    2     1000024         5   # BR(~t_2 -> ~chi_1+ b )
    -1.61678072E-04    2     1000037         5   # BR(~t_2 -> ~chi_2+ b )
     3.76620493E-02    2     1000021         6   # BR(~t_2 -> ~g      t )
    -1.17422984E-03    2     1000006        25   # BR(~t_2 -> ~t_1    h )
     1.03974096E-03    2     1000006        23   # BR(~t_2 -> ~t_1    Z )
     1.85356932E-03    2     1000005        24   # BR(~t_2 -> ~b_1    W+)
     2.51841998E-03    2     2000005        24   # BR(~t_2 -> ~b_2    W+)
#
#         PDG            Width
DECAY   1000005     1.88356277E+01   # sbottom1 decays
#          BR         NDA      ID1       ID2
     5.54802986E-02    2     1000022         5   # BR(~b_1 -> ~chi_10 b )
     8.80348129E-04    2     1000023         5   # BR(~b_1 -> ~chi_20 b )
     3.53638395E-02    2     1000025         5   # BR(~b_1 -> ~chi_30 b )
     6.38295486E-02    2     1000035         5   # BR(~b_1 -> ~chi_40 b )
     7.16485760E-01    2    -1000024         6   # BR(~b_1 -> ~chi_1- t )
     1.27960205E-01    2    -1000037         6   # BR(~b_1 -> ~chi_2- t )
#
#         PDG            Width
DECAY   2000005     5.24373776E+01   # sbottom2 decays
#          BR         NDA      ID1       ID2
     8.35511289E-03    2     1000022         5   # BR(~b_2 -> ~chi_10 b )
     4.48919775E-04    2     1000023         5   # BR(~b_2 -> ~chi_20 b )
     1.10246387E-02    2     1000025         5   # BR(~b_2 -> ~chi_30 b )
     5.46397396E-02    2     1000035         5   # BR(~b_2 -> ~chi_40 b )
     8.15856205E-01    2    -1000024         6   # BR(~b_2 -> ~chi_1- t )
     1.09675384E-01    2    -1000037         6   # BR(~b_2 -> ~chi_2- t )
#
#         PDG            Width
DECAY   1000002     1.27916922E+01   # sup_L decays
#          BR         NDA      ID1       ID2
     1.42107121E-02    2     1000022         2   # BR(~u_L -> ~chi_10 u)
     1.03256525E-05    2     1000023         2   # BR(~u_L -> ~chi_20 u)
     2.91961132E-02    2     1000025         2   # BR(~u_L -> ~chi_30 u)
     3.17670998E-01    2     1000035         2   # BR(~u_L -> ~chi_40 u)
     3.57204296E-03    2     1000024         1   # BR(~u_L -> ~chi_1+ d)
     6.35339808E-01    2     1000037         1   # BR(~u_L -> ~chi_2+ d)
#
#         PDG            Width
DECAY   2000002     8.54874425E+00   # sup_R decays
#          BR         NDA      ID1       ID2
     5.07551313E-01    2     1000022         2   # BR(~u_R -> ~chi_10 u)
     2.31554041E-05    2     1000023         2   # BR(~u_R -> ~chi_20 u)
     4.92425400E-01    2     1000025         2   # BR(~u_R -> ~chi_30 u)
     1.31033654E-07    2     1000035         2   # BR(~u_R -> ~chi_40 u)
#
#         PDG            Width
DECAY   1000001     1.27810351E+01   # sdown_L decays
#          BR         NDA      ID1       ID2
     2.96080967E-02    2     1000022         1   # BR(~d_L -> ~chi_10 d)
     2.68589991E-05    2     1000023         1   # BR(~d_L -> ~chi_20 d)
     1.34590218E-02    2     1000025         1   # BR(~d_L -> ~chi_30 d)
     3.18200806E-01    2     1000035         1   # BR(~d_L -> ~chi_40 d)
     2.29806000E-03    2    -1000024         2   # BR(~d_L -> ~chi_1- u)
     6.36407156E-01    2    -1000037         2   # BR(~d_L -> ~chi_2- u)
#
#         PDG            Width
DECAY   2000001     2.13722824E+00   # sdown_R decays
#          BR         NDA      ID1       ID2
     5.07551135E-01    2     1000022         1   # BR(~d_R -> ~chi_10 d)
     2.31554046E-05    2     1000023         1   # BR(~d_R -> ~chi_20 d)
     4.92425578E-01    2     1000025         1   # BR(~d_R -> ~chi_30 d)
     1.31043824E-07    2     1000035         1   # BR(~d_R -> ~chi_40 d)
#
#         PDG            Width
DECAY   1000004     1.27916922E+01   # scharm_L decays
#          BR         NDA      ID1       ID2
     1.42107121E-02    2     1000022         4   # BR(~c_L -> ~chi_10 c)
     1.03256525E-05    2     1000023         4   # BR(~c_L -> ~chi_20 c)
     2.91961132E-02    2     1000025         4   # BR(~c_L -> ~chi_30 c)
     3.17670998E-01    2     1000035         4   # BR(~c_L -> ~chi_40 c)
     3.57204296E-03    2     1000024         3   # BR(~c_L -> ~chi_1+ s)
     6.35339808E-01    2     1000037         3   # BR(~c_L -> ~chi_2+ s)
#
#         PDG            Width
DECAY   2000004     8.54874425E+00   # scharm_R decays
#          BR         NDA      ID1       ID2
     5.07551313E-01    2     1000022         4   # BR(~c_R -> ~chi_10 c)
     2.31554041E-05    2     1000023         4   # BR(~c_R -> ~chi_20 c)
     4.92425400E-01    2     1000025         4   # BR(~c_R -> ~chi_30 c)
     1.31033654E-07    2     1000035         4   # BR(~c_R -> ~chi_40 c)
#
#         PDG            Width
DECAY   1000003     1.27810351E+01   # sstrange_L decays
#          BR         NDA      ID1       ID2
     2.96080967E-02    2     1000022         3   # BR(~s_L -> ~chi_10 s)
     2.68589991E-05    2     1000023         3   # BR(~s_L -> ~chi_20 s)
     1.34590218E-02    2     1000025         3   # BR(~s_L -> ~chi_30 s)
     3.18200806E-01    2     1000035         3   # BR(~s_L -> ~chi_40 s)
     2.29806000E-03    2    -1000024         4   # BR(~s_L -> ~chi_1- c)
     6.36407156E-01    2    -1000037         4   # BR(~s_L -> ~chi_2- c)
#
#         PDG            Width
DECAY   2000003     2.13722824E+00   # sstrange_R decays
#          BR         NDA      ID1       ID2
     5.07551135E-01    2     1000022         3   # BR(~s_R -> ~chi_10 s)
     2.31554046E-05    2     1000023         3   # BR(~s_R -> ~chi_20 s)
     4.92425578E-01    2     1000025         3   # BR(~s_R -> ~chi_30 s)
     1.31043824E-07    2     1000035         3   # BR(~s_R -> ~chi_40 s)
#
#         PDG            Width
DECAY   1000011     2.75862565E+01   # selectron_L decays
#          BR         NDA      ID1       ID2
     9.39040381E-02    2     1000022        11   # BR(~e_L -> ~chi_10 e-)
     8.67876495E-07    2     1000023        11   # BR(~e_L -> ~chi_20 e-)
     1.17230411E-01    2     1000025        11   # BR(~e_L -> ~chi_30 e-)
     2.62342248E-01    2     1000035        11   # BR(~e_L -> ~chi_40 e-)
     1.28238461E-03    2    -1000024        12   # BR(~e_L -> ~chi_1- nu_e)
     5.25240050E-01    2    -1000037        12   # BR(~e_L -> ~chi_2- nu_e)
#
#         PDG            Width
DECAY   2000011     2.31683705E+01   # selectron_R decays
#          BR         NDA      ID1       ID2
     5.06611002E-01    2     1000022        11   # BR(~e_R -> ~chi_10 e-)
     2.31577932E-05    2     1000023        11   # BR(~e_R -> ~chi_20 e-)
     4.93365646E-01    2     1000025        11   # BR(~e_R -> ~chi_30 e-)
     1.93830493E-07    2     1000035        11   # BR(~e_R -> ~chi_40 e-)
#
#         PDG            Width
DECAY   1000013     2.75862565E+01   # smuon_L decays
#          BR         NDA      ID1       ID2
     9.39040381E-02    2     1000022        13   # BR(~mu_L -> ~chi_10 mu-)
     8.67876495E-07    2     1000023        13   # BR(~mu_L -> ~chi_20 mu-)
     1.17230411E-01    2     1000025        13   # BR(~mu_L -> ~chi_30 mu-)
     2.62342248E-01    2     1000035        13   # BR(~mu_L -> ~chi_40 mu-)
     1.28238461E-03    2    -1000024        14   # BR(~mu_L -> ~chi_1- nu_mu)
     5.25240050E-01    2    -1000037        14   # BR(~mu_L -> ~chi_2- nu_mu)
#
#         PDG            Width
DECAY   2000013     2.31683705E+01   # smuon_R decays
#          BR         NDA      ID1       ID2
     5.06611002E-01    2     1000022        13   # BR(~mu_R -> ~chi_10 mu-)
     2.31577932E-05    2     1000023        13   # BR(~mu_R -> ~chi_20 mu-)
     4.93365646E-01    2     1000025        13   # BR(~mu_R -> ~chi_30 mu-)
     1.93830493E-07    2     1000035        13   # BR(~mu_R -> ~chi_40 mu-)
#
#         PDG            Width
DECAY   1000015     2.54228556E+01   # stau_1 decays
#          BR         NDA      ID1       ID2
     2.90795216E-01    2     1000022        15   # BR(~tau_1 -> ~chi_10  tau-)
     4.67286686E-04    2     1000023        15   # BR(~tau_1 -> ~chi_20  tau-)
     2.85562745E-01    2     1000025        15   # BR(~tau_1 -> ~chi_30  tau-)
     1.40102944E-01    2     1000035        15   # BR(~tau_1 -> ~chi_40  tau-)
     2.56842789E-03    2    -1000024        16   # BR(~tau_1 -> ~chi_1-  nu_tau)
     2.80503225E-01    2    -1000037        16   # BR(~tau_1 -> ~chi_2-  nu_tau)
     1.54631294E-07    2     1000039        15   # BR(~tau_1 -> ~G       tau-)
#
#         PDG            Width
DECAY   2000015     2.54220285E+01   # stau_2 decays
#          BR         NDA      ID1       ID2
     2.73388673E-01    2     1000022        15   # BR(~tau_2 -> ~chi_10  tau-)
     7.37545931E-04    2     1000023        15   # BR(~tau_2 -> ~chi_20  tau-)
     2.91855400E-01    2     1000025        15   # BR(~tau_2 -> ~chi_30  tau-)
     1.44569417E-01    2     1000035        15   # BR(~tau_2 -> ~chi_40  tau-)
     5.78907064E-06    2    -1000024        16   # BR(~tau_2 -> ~chi_1-  nu_tau)
     2.89443176E-01    2    -1000037        16   # BR(~tau_2 -> ~chi_2-  nu_tau)
#
#         PDG            Width
DECAY   1000012     2.75860583E+01   # snu_eL decays
#          BR         NDA      ID1       ID2
     1.19606425E-01    2     1000022        12   # BR(~nu_eL -> ~chi_10 nu_e)
     2.85325884E-05    2     1000023        12   # BR(~nu_eL -> ~chi_20 nu_e)
     9.07861224E-02    2     1000025        12   # BR(~nu_eL -> ~chi_30 nu_e)
     2.62712420E-01    2     1000035        12   # BR(~nu_eL -> ~chi_40 nu_e)
     1.99499624E-03    2     1000024        11   # BR(~nu_eL -> ~chi_1+ e-)
     5.24871504E-01    2     1000037        11   # BR(~nu_eL -> ~chi_2+ e-)
#
#         PDG            Width
DECAY   1000014     2.75860583E+01   # snu_muL decays
#          BR         NDA      ID1       ID2
     1.19606425E-01    2     1000022        14   # BR(~nu_muL -> ~chi_10 nu_mu)
     2.85325884E-05    2     1000023        14   # BR(~nu_muL -> ~chi_20 nu_mu)
     9.07861224E-02    2     1000025        14   # BR(~nu_muL -> ~chi_30 nu_mu)
     2.62712420E-01    2     1000035        14   # BR(~nu_muL -> ~chi_40 nu_mu)
     1.99499624E-03    2     1000024        13   # BR(~nu_muL -> ~chi_1+ mu-)
     5.24871504E-01    2     1000037        13   # BR(~nu_muL -> ~chi_2+ mu-)
#
#         PDG            Width
DECAY   1000016     2.76161375E+01   # snu_tauL decays
#          BR         NDA      ID1       ID2
     1.19476151E-01    2     1000022        16   # BR(~nu_tauL -> ~chi_10 nu_tau)
     2.85015111E-05    2     1000023        16   # BR(~nu_tauL -> ~chi_20 nu_tau)
     9.06872394E-02    2     1000025        16   # BR(~nu_tauL -> ~chi_30 nu_tau)
     2.62426277E-01    2     1000035        16   # BR(~nu_tauL -> ~chi_40 nu_tau)
     3.08126824E-03    2     1000024        15   # BR(~nu_tauL -> ~chi_1+ tau-)
     5.24300563E-01    2     1000037        15   # BR(~nu_tauL -> ~chi_2+ tau-)
#
#         PDG            Width
DECAY   1000024     1.02223368E-04   # chargino1+ decays
#          BR         NDA      ID1       ID2
     3.64938580E-06    2     1000039        24   # BR(~chi_1+ -> ~G       W+)
#           BR         NDA      ID1       ID2       ID3
     3.33631326E-01    3     1000022         2        -1   # BR(~chi_1+ -> ~chi_10 u    db)
     3.33631326E-01    3     1000022         4        -3   # BR(~chi_1+ -> ~chi_10 c    sb)
     1.11210565E-01    3     1000022       -11        12   # BR(~chi_1+ -> ~chi_10 e+   nu_e)
     1.11210565E-01    3     1000022       -13        14   # BR(~chi_1+ -> ~chi_10 mu+  nu_mu)
     1.10312567E-01    3     1000022       -15        16   # BR(~chi_1+ -> ~chi_10 tau+ nu_tau)
#
#         PDG            Width
DECAY   1000037     3.66882167E+01   # chargino2+ decays
#          BR         NDA      ID1       ID2
     2.44807674E-01    2     1000024        23   # BR(~chi_2+ -> ~chi_1+  Z )
     1.11992079E-01    2     1000022        24   # BR(~chi_2+ -> ~chi_10  W+)
     2.38461370E-01    2     1000023        24   # BR(~chi_2+ -> ~chi_20  W+)
     1.26666687E-01    2     1000025        24   # BR(~chi_2+ -> ~chi_30  W+)
     2.45924882E-01    2     1000024        25   # BR(~chi_2+ -> ~chi_1+  h )
     7.92299841E-03    2     1000024        35   # BR(~chi_2+ -> ~chi_1+  H )
     8.13474675E-03    2     1000024        36   # BR(~chi_2+ -> ~chi_1+  A )
     4.84715314E-03    2     1000022        37   # BR(~chi_2+ -> ~chi_10  H+)
     7.97222908E-03    2     1000023        37   # BR(~chi_2+ -> ~chi_20  H+)
     3.27016960E-03    2     1000025        37   # BR(~chi_2+ -> ~chi_30  H+)
     1.02525534E-08    2     1000039        24   # BR(~chi_2+ -> ~G       W+)
     7.08199916E-13    2     1000039        37   # BR(~chi_2+ -> ~G       H+)
#
#         PDG            Width
DECAY   1000022     4.39679824E-10   # neutralino1 decays
#          BR         NDA      ID1       ID2
     5.01636567E-01    2     1000039        22   # BR(~chi_10 -> ~G        gam)
     4.87305180E-01    2     1000039        23   # BR(~chi_10 -> ~G        Z)
     1.10582533E-02    2     1000039        25   # BR(~chi_10 -> ~G        h)
#
#         PDG            Width
DECAY   1000023     1.11916364E-04   # neutralino2 decays
#          BR         NDA      ID1       ID2
     3.10866116E-04    2     1000022        22   # BR(~chi_20 -> ~chi_10 gam)
#          BR         NDA      ID1       ID2
     3.71679368E-11    2     1000039        22   # BR(~chi_20 -> ~G        gam)
     1.29311264E-07    2     1000039        23   # BR(~chi_20 -> ~G        Z)
     3.10393632E-06    2     1000039        25   # BR(~chi_20 -> ~G        h)
#           BR         NDA      ID1       ID2       ID3
     1.18769288E-01    3     1000022        -2         2   # BR(~chi_20 -> ~chi_10 ub      u)
     1.53772677E-01    3     1000022        -1         1   # BR(~chi_20 -> ~chi_10 db      d)
     1.18769288E-01    3     1000022        -4         4   # BR(~chi_20 -> ~chi_10 cb      c)
     1.53772677E-01    3     1000022        -3         3   # BR(~chi_20 -> ~chi_10 sb      s)
     1.39285417E-01    3     1000022        -5         5   # BR(~chi_20 -> ~chi_10 bb      b)
     3.51118788E-02    3     1000022       -11        11   # BR(~chi_20 -> ~chi_10 e+      e-)
     3.51118788E-02    3     1000022       -13        13   # BR(~chi_20 -> ~chi_10 mu+     mu-)
     3.47428985E-02    3     1000022       -15        15   # BR(~chi_20 -> ~chi_10 tau+    tau-)
     7.01156950E-02    3     1000022       -12        12   # BR(~chi_20 -> ~chi_10 nu_eb   nu_e)
     7.01156950E-02    3     1000022       -14        14   # BR(~chi_20 -> ~chi_10 nu_mub  nu_mu)
     7.01156950E-02    3     1000022       -16        16   # BR(~chi_20 -> ~chi_10 nu_taub nu_tau)
     5.20581287E-07    3     1000024        -2         1   # BR(~chi_20 -> ~chi_1+ ub      d)
     5.20581287E-07    3    -1000024        -1         2   # BR(~chi_20 -> ~chi_1- db      u)
     5.20581287E-07    3     1000024        -4         3   # BR(~chi_20 -> ~chi_1+ cb      s)
     5.20581287E-07    3    -1000024        -3         4   # BR(~chi_20 -> ~chi_1- sb      c)
     1.73527108E-07    3     1000024       -12        11   # BR(~chi_20 -> ~chi_1+ nu_eb   e-)
     1.73527108E-07    3    -1000024        12       -11   # BR(~chi_20 -> ~chi_1- nu_e    e+)
     1.73527108E-07    3     1000024       -14        13   # BR(~chi_20 -> ~chi_1+ nu_mub  mu-)
     1.73527108E-07    3    -1000024        14       -13   # BR(~chi_20 -> ~chi_1- nu_mu   mu+)
     1.90389992E-08    3     1000024       -16        15   # BR(~chi_20 -> ~chi_1+ nu_taub tau-)
     1.90389992E-08    3    -1000024        16       -15   # BR(~chi_20 -> ~chi_1- nu_tau  tau+)
#
#         PDG            Width
DECAY   1000025     2.44421745E-04   # neutralino3 decays
#          BR         NDA      ID1       ID2
     3.34749125E-04    2     1000022        22   # BR(~chi_30 -> ~chi_10 gam)
     3.77872209E-04    2     1000023        22   # BR(~chi_30 -> ~chi_20 gam)
#          BR         NDA      ID1       ID2
     1.55858803E-06    2     1000039        22   # BR(~chi_30 -> ~G        gam)
     1.32566436E-06    2     1000039        23   # BR(~chi_30 -> ~G        Z)
     3.65243650E-08    2     1000039        25   # BR(~chi_30 -> ~G        h)
#           BR         NDA      ID1       ID2       ID3
     1.00351363E-05    3     1000022        -2         2   # BR(~chi_30 -> ~chi_10 ub      u)
     1.17047392E-05    3     1000022        -1         1   # BR(~chi_30 -> ~chi_10 db      d)
     1.00351363E-05    3     1000022        -4         4   # BR(~chi_30 -> ~chi_10 cb      c)
     1.17047392E-05    3     1000022        -3         3   # BR(~chi_30 -> ~chi_10 sb      s)
     1.51872318E-05    3     1000022        -5         5   # BR(~chi_30 -> ~chi_10 bb      b)
     2.08662227E-06    3     1000022       -11        11   # BR(~chi_30 -> ~chi_10 e+      e-)
     2.08662227E-06    3     1000022       -13        13   # BR(~chi_30 -> ~chi_10 mu+     mu-)
     2.64092122E-06    3     1000022       -15        15   # BR(~chi_30 -> ~chi_10 tau+    tau-)
     5.72236440E-06    3     1000022       -12        12   # BR(~chi_30 -> ~chi_10 nu_eb   nu_e)
     5.72236440E-06    3     1000022       -14        14   # BR(~chi_30 -> ~chi_10 nu_mub  nu_mu)
     5.72236440E-06    3     1000022       -16        16   # BR(~chi_30 -> ~chi_10 nu_taub nu_tau)
     2.61545597E-02    3     1000023        -2         2   # BR(~chi_30 -> ~chi_20 ub      u)
     3.38628541E-02    3     1000023        -1         1   # BR(~chi_30 -> ~chi_20 db      d)
     2.61545597E-02    3     1000023        -4         4   # BR(~chi_30 -> ~chi_20 cb      c)
     3.38628541E-02    3     1000023        -3         3   # BR(~chi_30 -> ~chi_20 sb      s)
     2.97391930E-02    3     1000023        -5         5   # BR(~chi_30 -> ~chi_20 bb      b)
     7.73214500E-03    3     1000023       -11        11   # BR(~chi_30 -> ~chi_20 e+      e-)
     7.73214500E-03    3     1000023       -13        13   # BR(~chi_30 -> ~chi_20 mu+     mu-)
     7.63170427E-03    3     1000023       -15        15   # BR(~chi_30 -> ~chi_20 tau+    tau-)
     1.54403603E-02    3     1000023       -12        12   # BR(~chi_30 -> ~chi_20 nu_eb   nu_e)
     1.54403603E-02    3     1000023       -14        14   # BR(~chi_30 -> ~chi_20 nu_mub  nu_mu)
     1.54403603E-02    3     1000023       -16        16   # BR(~chi_30 -> ~chi_20 nu_taub nu_tau)
     1.30122497E-01    3     1000024        -2         1   # BR(~chi_30 -> ~chi_1+ ub      d)
     1.30122497E-01    3    -1000024        -1         2   # BR(~chi_30 -> ~chi_1- db      u)
     1.30122497E-01    3     1000024        -4         3   # BR(~chi_30 -> ~chi_1+ cb      s)
     1.30122497E-01    3    -1000024        -3         4   # BR(~chi_30 -> ~chi_1- sb      c)
     4.33740835E-02    3     1000024       -12        11   # BR(~chi_30 -> ~chi_1+ nu_eb   e-)
     4.33740835E-02    3    -1000024        12       -11   # BR(~chi_30 -> ~chi_1- nu_e    e+)
     4.33740835E-02    3     1000024       -14        13   # BR(~chi_30 -> ~chi_1+ nu_mub  mu-)
     4.33740835E-02    3    -1000024        14       -13   # BR(~chi_30 -> ~chi_1- nu_mu   mu+)
     4.30121960E-02    3     1000024       -16        15   # BR(~chi_30 -> ~chi_1+ nu_taub tau-)
     4.30121960E-02    3    -1000024        16       -15   # BR(~chi_30 -> ~chi_1- nu_tau  tau+)
#
#         PDG            Width
DECAY   1000035     3.66886102E+01   # neutralino4 decays
#          BR         NDA      ID1       ID2
     1.35739335E-03    2     1000022        23   # BR(~chi_40 -> ~chi_10   Z )
     2.41955490E-01    2     1000023        23   # BR(~chi_40 -> ~chi_20   Z )
     1.55617698E-03    2     1000025        23   # BR(~chi_40 -> ~chi_30   Z )
     2.38386282E-01    2     1000024       -24   # BR(~chi_40 -> ~chi_1+   W-)
     2.38386282E-01    2    -1000024        24   # BR(~chi_40 -> ~chi_1-   W+)
     1.14189640E-01    2     1000022        25   # BR(~chi_40 -> ~chi_10   h )
     1.46608230E-03    2     1000022        35   # BR(~chi_40 -> ~chi_10   H )
     3.35117827E-03    2     1000022        36   # BR(~chi_40 -> ~chi_10   A )
     2.88274778E-03    2     1000023        25   # BR(~chi_40 -> ~chi_20   h )
     5.12501497E-03    2     1000023        35   # BR(~chi_40 -> ~chi_20   H )
     2.78553815E-03    2     1000023        36   # BR(~chi_40 -> ~chi_20   A )
     1.29138891E-01    2     1000025        25   # BR(~chi_40 -> ~chi_30   h )
     1.23091681E-03    2     1000025        35   # BR(~chi_40 -> ~chi_30   H )
     2.01390737E-03    2     1000025        36   # BR(~chi_40 -> ~chi_30   A )
     8.08722434E-03    2     1000024       -37   # BR(~chi_40 -> ~chi_1+   H-)
     8.08722434E-03    2    -1000024        37   # BR(~chi_40 -> ~chi_1-   H+)
     2.46085467E-09    2     1000039        22   # BR(~chi_40 -> ~G        gam)
     7.79073990E-09    2     1000039        23   # BR(~chi_40 -> ~G        Z)
     5.67795492E-13    2     1000039        25   # BR(~chi_40 -> ~G        h)
     6.98875458E-13    2     1000039        35   # BR(~chi_40 -> ~G        H)
     5.97966298E-15    2     1000039        36   # BR(~chi_40 -> ~G        A)
#
#         PDG            Width
DECAY        25     4.22086107E-03   # h decays
#          BR         NDA      ID1       ID2
     6.02062603E-01    2           5        -5   # BR(h -> b       bb     )
     6.21963928E-02    2         -15        15   # BR(h -> tau+    tau-   )
     2.20148115E-04    2         -13        13   # BR(h -> mu+     mu-    )
     4.65791623E-04    2           3        -3   # BR(h -> s       sb     )
     2.00977140E-02    2           4        -4   # BR(h -> c       cb     )
     6.63929158E-02    2          21        21   # BR(h -> g       g      )
     2.30697651E-03    2          22        22   # BR(h -> gam     gam    )
     1.62561018E-03    2          22        23   # BR(h -> Z       gam    )
     2.16567541E-01    2          24       -24   # BR(h -> W+      W-     )
     2.80643071E-02    2          23        23   # BR(h -> Z       Z      )
#
#         PDG            Width
DECAY        35     3.88044541E+01   # H decays
#          BR         NDA      ID1       ID2
     1.43016294E-03    2           5        -5   # BR(H -> b       bb     )
     2.40121887E-04    2         -15        15   # BR(H -> tau+    tau-   )
     8.48920268E-07    2         -13        13   # BR(H -> mu+     mu-    )
     1.08692936E-06    2           3        -3   # BR(H -> s       sb     )
     9.80797275E-06    2           4        -4   # BR(H -> c       cb     )
     9.70453380E-01    2           6        -6   # BR(H -> t       tb     )
     7.77080410E-04    2          21        21   # BR(H -> g       g      )
     2.63753259E-06    2          22        22   # BR(H -> gam     gam    )
     1.13002952E-06    2          23        22   # BR(H -> Z       gam    )
     3.17358606E-04    2          24       -24   # BR(H -> W+      W-     )
     1.58246458E-04    2          23        23   # BR(H -> Z       Z      )
     8.81252391E-04    2          25        25   # BR(H -> h       h      )
     7.15021077E-24    2          36        36   # BR(H -> A       A      )
     2.86227357E-11    2          23        36   # BR(H -> Z       A      )
     6.71946511E-12    2          24       -37   # BR(H -> W+      H-     )
     6.71946511E-12    2         -24        37   # BR(H -> W-      H+     )
     7.60163791E-06    2     1000024  -1000024   # BR(H -> ~chi_1+ ~chi_1-)
     1.83822487E-04    2     1000022   1000022   # BR(H -> ~chi_10 ~chi_10)
     1.29576302E-06    2     1000023   1000023   # BR(H -> ~chi_20 ~chi_20)
     3.17293270E-05    2     1000025   1000025   # BR(H -> ~chi_30 ~chi_30)
     1.58163886E-02    2     1000022   1000023   # BR(H -> ~chi_10 ~chi_20)
     4.24946989E-07    2     1000022   1000025   # BR(H -> ~chi_10 ~chi_30)
     9.68562355E-03    2     1000023   1000025   # BR(H -> ~chi_20 ~chi_30)
#
#         PDG            Width
DECAY        36     3.92440448E+01   # A decays
#          BR         NDA      ID1       ID2
     1.43295054E-03    2           5        -5   # BR(A -> b       bb     )
     2.37646666E-04    2         -15        15   # BR(A -> tau+    tau-   )
     8.40166811E-07    2         -13        13   # BR(A -> mu+     mu-    )
     1.10763865E-06    2           3        -3   # BR(A -> s       sb     )
     9.70644659E-06    2           4        -4   # BR(A -> c       cb     )
     9.71443164E-01    2           6        -6   # BR(A -> t       tb     )
     9.19489410E-04    2          21        21   # BR(A -> g       g      )
     2.99634092E-06    2          22        22   # BR(A -> gam     gam    )
     1.31759809E-06    2          23        22   # BR(A -> Z       gam    )
     3.09268586E-04    2          23        25   # BR(A -> Z       h      )
     4.48902856E-04    2     1000024  -1000024   # BR(A -> ~chi_1+ ~chi_1-)
     1.68773883E-02    2     1000022   1000022   # BR(A -> ~chi_10 ~chi_10)
     2.84766000E-07    2     1000023   1000023   # BR(A -> ~chi_20 ~chi_20)
     8.01056561E-03    2     1000025   1000025   # BR(A -> ~chi_30 ~chi_30)
     1.19326344E-04    2     1000022   1000023   # BR(A -> ~chi_10 ~chi_20)
     1.26913450E-04    2     1000022   1000025   # BR(A -> ~chi_10 ~chi_30)
     5.81314778E-05    2     1000023   1000025   # BR(A -> ~chi_20 ~chi_30)
#
#         PDG            Width
DECAY        37     3.84330226E+01   # H+ decays
#          BR         NDA      ID1       ID2
     2.29664344E-06    2           4        -5   # BR(H+ -> c       bb     )
     2.42843103E-04    2         -15        16   # BR(H+ -> tau+    nu_tau )
     8.58538093E-07    2         -13        14   # BR(H+ -> mu+     nu_mu  )
     1.46011944E-08    2           2        -5   # BR(H+ -> u       bb     )
     5.31694334E-08    2           2        -3   # BR(H+ -> u       sb     )
     1.05942113E-05    2           4        -3   # BR(H+ -> c       sb     )
     9.73759449E-01    2           6        -5   # BR(H+ -> t       bb     )
     3.16952610E-04    2          24        25   # BR(H+ -> W+      h      )
     2.56773038E-13    2          24        36   # BR(H+ -> W+      A      )
     1.42571949E-02    2     1000024   1000022   # BR(H+ -> ~chi_1+ ~chi_10)
     1.06660436E-04    2     1000024   1000023   # BR(H+ -> ~chi_1+ ~chi_20)
     1.13030829E-02    2     1000024   1000025   # BR(H+ -> ~chi_1+ ~chi_30)
