#
#                              ======================
#                              | THE SUSYHIT OUTPUT |
#                              ======================
#
#
#              ------------------------------------------------------
#              |     This is the output of the SUSY-HIT package     |
#              |  created by A.Djouadi, M.Muehlleitner and M.Spira. |
#              |  In case of problems with SUSY-HIT email to        |
#              |           margarete.muehlleitner@cern.ch           |
#              |           michael.spira@psi.ch                     |
#              |           abdelhak.djouadi@cern.ch                 |
#              ------------------------------------------------------
#
#              ------------------------------------------------------
#              |  SUSY Les Houches Accord - MSSM Spectrum + Decays  |
#              |              based on the decay programs           |
#              |                                                    |
#              |                     SDECAY 1.3b                    |
#              |                                                    |
#              |  Authors: M.Muhlleitner, A.Djouadi and Y.Mambrini  |
#              |  Ref.:    Comput.Phys.Commun.168(2005)46           |
#              |           [hep-ph/0311167]                         |
#              |                                                    |
#              |                     HDECAY 3.4                     |
#              |                                                    |
#              |  By: A.Djouadi,J.Kalinowski,M.Muhlleitner,M.Spira  |
#              |  Ref.:    Comput.Phys.Commun.108(1998)56           |
#              |           [hep-ph/9704448]                         |
#              |                                                    |
#              |                                                    |
#              |  If not stated otherwise all DRbar couplings and   |
#              |  soft SUSY breaking masses are given at the scale  |
#              |  Q=  0.91187600E+02
#              |                                                    |
#              ------------------------------------------------------
#
#
BLOCK DCINFO  # Decay Program information
     1   SDECAY/HDECAY # decay calculator
     2   1.3b  /3.4    # version number
#
BLOCK SPINFO  # Spectrum calculator information
     1   SuSpect     # RGE +Spectrum calculator            
     2   2.41         # version number                     
#
BLOCK MODSEL  # Model selection
     1     0   # #general MSSM low scale                           
#
BLOCK SMINPUTS  # Standard Model inputs
         1     1.27934000E+02   # alpha_em^-1(M_Z)^MSbar
         2     1.16639000E-05   # G_F [GeV^-2]
         3     1.17200000E-01   # alpha_S(M_Z)^MSbar
         4     9.11870000E+01   # M_Z pole mass
         5     4.25000000E+00   # mb(mb)^MSbar
         6     1.72500000E+02   # mt pole mass
         7     1.77700000E+00   # mtau pole mass
#
BLOCK MINPAR  # Input parameters - minimal models
#
BLOCK EXTPAR  # Input parameters - non-minimal models
         0     9.11876000E+01   # EWSB                
         1     5.00000000E+03   # M_1                 
         2     2.73881000E+02   # M_2                 
         3     6.48987000E+02   # M_3                 
        11     0.00000000E+00   # A_t                 
        12     0.00000000E+00   # A_b                 
        13     0.00000000E+00   # A_tau               
        14     0.00000000E+00   # A_u                 
        15     0.00000000E+00   # A_d                 
        16     0.00000000E+00   # A_e                 
        23     5.00000000E+03   # mu(EWSB)            
        25     1.50000000E+00   # tanbeta(in)         
        26     2.00000000E+03   # MA_pole             
        31     5.00000000E+03   # M_eL                
        32     5.00000000E+03   # M_muL               
        33     5.00000000E+03   # M_tauL              
        34     5.00000000E+03   # M_eR                
        35     5.00000000E+03   # M_muR               
        36     5.00000000E+03   # M_tauR              
        41     5.00000000E+03   # M_q1L               
        42     5.00000000E+03   # M_q2L               
        43     5.00000000E+03   # M_q3L               
        44     5.00000000E+03   # M_uR                
        45     5.00000000E+03   # M_cR                
        46     5.00000000E+03   # M_tR                
        47     5.00000000E+03   # M_dR                
        48     5.00000000E+03   # M_sR                
        49     5.00000000E+03   # M_bR                
#
BLOCK MASS  # Mass Spectrum
# PDG code           mass       particle
        24     8.05244722E+01   # W+
        25     1.25000000E+02   # h
        35     2.00394905E+03   # H
        36     2.00000000E+03   # A
        37     1.99262194E+03   # H+
         5     4.87877839E+00   # b-quark pole mass calculated from mb(mb)_Msbar
   1000001     5.03900884E+03   # ~d_L
   2000001     5.03889832E+03   # ~d_R
   1000002     5.03876212E+03   # ~u_L
   2000002     5.03882128E+03   # ~u_R
   1000003     5.03900884E+03   # ~s_L
   2000003     5.03889832E+03   # ~s_R
   1000004     5.03876212E+03   # ~c_L
   2000004     5.03882128E+03   # ~c_R
   1000005     5.03691522E+03   # ~b_1
   2000005     5.04099258E+03   # ~b_2
   1000006     5.06356395E+03   # ~t_1
   2000006     5.23521349E+03   # ~t_2
   1000011     5.00008385E+03   # ~e_L
   2000011     5.00007613E+03   # ~e_R
   1000012     4.99984001E+03   # ~nu_eL
   1000013     5.00008385E+03   # ~mu_L
   2000013     5.00007613E+03   # ~mu_R
   1000014     4.99984001E+03   # ~nu_muL
   1000015     4.99874730E+03   # ~tau_1
   2000015     5.00141297E+03   # ~tau_2
   1000016     4.99984001E+03   # ~nu_tauL
   1000021     8.00000078E+02   # ~g
   1000022     3.00000848E+02   # ~chi_10
   1000023     5.20006385E+03   # ~chi_20
   1000025    -5.21876570E+03   # ~chi_30
   1000035     5.31549692E+03   # ~chi_40
   1000024     3.00000938E+02   # ~chi_1+
   1000037     5.21999606E+03   # ~chi_2+
 1000039     1.E-09   # ~gravitino              
#
BLOCK NMIX  # Neutralino Mixing Matrix
  1  1     1.33488099E-04   # N_11
  1  2    -9.99870193E-01   # N_12
  1  3     1.32150048E-02   # N_13
  1  4    -9.21646724E-03   # N_14
  2  1     4.15079623E-01   # N_21
  2  2     1.44868860E-02   # N_22
  2  3     6.43463889E-01   # N_23
  2  4    -6.43003313E-01   # N_24
  3  1     8.29376171E-04   # N_31
  3  2    -2.82724687E-03   # N_32
  3  3    -7.07086318E-01   # N_33
  3  4    -7.07121105E-01   # N_34
  4  1     9.09784701E-01   # N_41
  4  2    -6.46020487E-03   # N_42
  4  3    -2.92930922E-01   # N_43
  4  4     2.94009419E-01   # N_44
#
BLOCK UMIX  # Chargino Mixing Matrix U
  1  1    -9.99825389E-01   # U_11
  1  2     1.86866697E-02   # U_12
  2  1     1.86866697E-02   # U_21
  2  2     9.99825389E-01   # U_22
#
BLOCK VMIX  # Chargino Mixing Matrix V
  1  1    -9.99915059E-01   # V_11
  1  2     1.30335731E-02   # V_12
  2  1     1.30335731E-02   # V_21
  2  2     9.99915059E-01   # V_22
#
BLOCK STOPMIX  # Stop Mixing Matrix
  1  1     9.70152821E-01   # cos(theta_t)
  1  2     2.42494338E-01   # sin(theta_t)
  2  1    -2.42494338E-01   # -sin(theta_t)
  2  2     9.70152821E-01   # cos(theta_t)
#
BLOCK SBOTMIX  # Sbottom Mixing Matrix
  1  1     6.97457609E-01   # cos(theta_b)
  1  2     7.16626042E-01   # sin(theta_b)
  2  1    -7.16626042E-01   # -sin(theta_b)
  2  2     6.97457609E-01   # cos(theta_b)
#
BLOCK STAUMIX  # Stau Mixing Matrix
  1  1     7.06082138E-01   # cos(theta_tau)
  1  2     7.08129942E-01   # sin(theta_tau)
  2  1    -7.08129942E-01   # -sin(theta_tau)
  2  2     7.06082138E-01   # cos(theta_tau)
#
BLOCK ALPHA  # Higgs mixing
          -5.90293474E-01   # Mixing angle in the neutral Higgs boson sector
#
BLOCK HMIX Q=  9.11876000E+01  # DRbar Higgs Parameters
         1     5.00000000E+03   # mu(Q)               
         2     1.49999981E+00   # tanbeta(Q)          
         3     2.52248995E+02   # vev(Q)              
         4     3.38739386E+06   # MA^2(Q)             
#
BLOCK GAUGE Q=  9.11876000E+01  # The gauge couplings
     1     3.52509253E-01   # gprime(Q) DRbar
     2     6.30863644E-01   # g(Q) DRbar
     3     1.09892148E+00   # g3(Q) DRbar
#
BLOCK AU Q=  9.11876000E+01  # The trilinear couplings
  1  1     0.00000000E+00   # A_u(Q) DRbar
  2  2     0.00000000E+00   # A_c(Q) DRbar
  3  3     0.00000000E+00   # A_t(Q) DRbar
#
BLOCK AD Q=  9.11876000E+01  # The trilinear couplings
  1  1     0.00000000E+00   # A_d(Q) DRbar
  2  2     0.00000000E+00   # A_s(Q) DRbar
  3  3     0.00000000E+00   # A_b(Q) DRbar
#
BLOCK AE Q=  9.11876000E+01  # The trilinear couplings
  1  1     0.00000000E+00   # A_e(Q) DRbar
  2  2     0.00000000E+00   # A_mu(Q) DRbar
  3  3     0.00000000E+00   # A_tau(Q) DRbar
#
BLOCK Yu Q=  9.11876000E+01  # The Yukawa couplings
  1  1     0.00000000E+00   # y_u(Q) DRbar
  2  2     0.00000000E+00   # y_c(Q) DRbar
  3  3     1.01811260E+00   # y_t(Q) DRbar
#
BLOCK Yd Q=  9.11876000E+01  # The Yukawa couplings
  1  1     0.00000000E+00   # y_d(Q) DRbar
  2  2     0.00000000E+00   # y_s(Q) DRbar
  3  3     2.71242217E-02   # y_b(Q) DRbar
#
BLOCK Ye Q=  9.11876000E+01  # The Yukawa couplings
  1  1     0.00000000E+00   # y_e(Q) DRbar
  2  2     0.00000000E+00   # y_mu(Q) DRbar
  3  3     1.79491010E-02   # y_tau(Q) DRbar
#
BLOCK MSOFT Q=  9.11876000E+01  # The soft SUSY breaking masses at the scale Q
         1     5.00000000E+03   # M_1                 
         2     2.73881000E+02   # M_2                 
         3     6.48987000E+02   # M_3                 
        14     0.00000000E+00   # A_u                 
        15     0.00000000E+00   # A_d                 
        16     0.00000000E+00   # A_e                 
        21    -2.44653928E+07   # M^2_Hd              
        22    -2.89183960E+07   # M^2_Hu              
        31     5.00000000E+03   # M_eL                
        32     5.00000000E+03   # M_muL               
        33     5.00000000E+03   # M_tauL              
        34     5.00000000E+03   # M_eR                
        35     5.00000000E+03   # M_muR               
        36     5.00000000E+03   # M_tauR              
        41     5.00000000E+03   # M_q1L               
        42     5.00000000E+03   # M_q2L               
        43     5.00000000E+03   # M_q3L               
        44     5.00000000E+03   # M_uR                
        45     5.00000000E+03   # M_cR                
        46     5.00000000E+03   # M_tR                
        47     5.00000000E+03   # M_dR                
        48     5.00000000E+03   # M_sR                
        49     5.00000000E+03   # M_bR                
#
#
#
#                             =================
#                             |The decay table|
#                             =================
#
# - The QCD corrections to the decays gluino -> squark  + quark
#                                     squark -> gaugino + quark_prime
#                                     squark -> squark_prime + Higgs
#                                     squark -> gluino  + quark
#   are included.
#
# - The multi-body decays for the inos, stops and sbottoms are included.
#
# - The loop induced decays for the gluino, neutralinos and stops
#   are included.
#
# - The SUSY decays of the top quark are included.
#
# - Possible decays of the NLSP in GMSB models are included.
#
#
#         PDG            Width
DECAY         6     1.37615083E+00   # top decays
#          BR         NDA      ID1       ID2
     1.00000000E+00    2           5        24   # BR(t ->  b    W+)
#
#         PDG            Width
DECAY   1000021     1.02331330E-05   # gluino decays
#          BR         NDA      ID1       ID2
     3.65325474E-05    2     1000022        21   # BR(~g -> ~chi_10 g)
#          BR         NDA      ID1       ID2
 0    2     1000039        21   # BR(~g -> ~G      g) 
#           BR         NDA      ID1       ID2       ID3
     6.55493634E-02    3     1000022         1        -1   # BR(~g -> ~chi_10 d  db)
     6.55558470E-02    3     1000022         2        -2   # BR(~g -> ~chi_10 u  ub)
     6.55493634E-02    3     1000022         3        -3   # BR(~g -> ~chi_10 s  sb)
     6.55558470E-02    3     1000022         4        -4   # BR(~g -> ~chi_10 c  cb)
     6.54665140E-02    3     1000022         5        -5   # BR(~g -> ~chi_10 b  bb)
     1.07349909E-02    3     1000022         6        -6   # BR(~g -> ~chi_10 t  tb)
     1.31105145E-01    3     1000024         1        -2   # BR(~g -> ~chi_1+ d  ub)
     1.31105145E-01    3    -1000024         2        -1   # BR(~g -> ~chi_1- u  db)
     1.31105145E-01    3     1000024         3        -4   # BR(~g -> ~chi_1+ s  cb)
     1.31105145E-01    3    -1000024         4        -3   # BR(~g -> ~chi_1- c  sb)
     6.84193182E-02    3     1000024         5        -6   # BR(~g -> ~chi_1+ b  tb)
     6.84193182E-02    3    -1000024         6        -5   # BR(~g -> ~chi_1- t  bb)
#
#         PDG            Width
DECAY   1000006     3.05534769E+02   # stop1 decays
#          BR         NDA      ID1       ID2
     6.11765664E-02    2     1000022         6   # BR(~t_1 -> ~chi_10 t )
     1.22515974E-01    2     1000024         5   # BR(~t_1 -> ~chi_1+ b )
     8.16307460E-01    2     1000021         6   # BR(~t_1 -> ~g      t )
#
#         PDG            Width
DECAY   2000006     2.60152853E+02   # stop2 decays
#          BR         NDA      ID1       ID2
     2.12383441E-03    2     1000022         6   # BR(~t_2 -> ~chi_10 t )
     4.24958874E-03    2     1000024         5   # BR(~t_2 -> ~chi_1+ b )
     1.19318551E-05    2     1000037         5   # BR(~t_2 -> ~chi_2+ b )
     9.83983180E-01    2     1000021         6   # BR(~t_2 -> ~g      t )
     1.40660919E-03    2     1000006        25   # BR(~t_2 -> ~t_1    h )
     1.68278276E-03    2     1000006        23   # BR(~t_2 -> ~t_1    Z )
     3.30303938E-03    2     1000005        24   # BR(~t_2 -> ~b_1    W+)
     3.23903342E-03    2     2000005        24   # BR(~t_2 -> ~b_2    W+)
#
#         PDG            Width
DECAY   1000005     2.75850824E+02   # sbottom1 decays
#          BR         NDA      ID1       ID2
     3.36044487E-02    2     1000022         5   # BR(~b_1 -> ~chi_10 b )
     6.71201174E-02    2    -1000024         6   # BR(~b_1 -> ~chi_1- t )
     8.99275434E-01    2     1000021         5   # BR(~b_1 -> ~g      b )
#
#         PDG            Width
DECAY   2000005     2.77813423E+02   # sbottom2 decays
#          BR         NDA      ID1       ID2
     3.55725112E-02    2     1000022         5   # BR(~b_2 -> ~chi_10 b )
     7.10505892E-02    2    -1000024         6   # BR(~b_2 -> ~chi_1- t )
     8.93376900E-01    2     1000021         5   # BR(~b_2 -> ~g      b )
#
#         PDG            Width
DECAY   1000002     3.05671312E+02   # sup_L decays
#          BR         NDA      ID1       ID2
     6.27537039E-02    2     1000022         2   # BR(~u_L -> ~chi_10 u)
     1.25524914E-01    2     1000024         1   # BR(~u_L -> ~chi_1+ d)
     8.11721382E-01    2     1000021         2   # BR(~u_L -> ~g      u)
#
#         PDG            Width
DECAY   2000002     2.48123155E+02   # sup_R decays
#          BR         NDA      ID1       ID2
     7.64889823E-10    2     1000022         2   # BR(~u_R -> ~chi_10 u)
     9.99999999E-01    2     1000021         2   # BR(~u_R -> ~g      u)
#
#         PDG            Width
DECAY   1000001     3.05682599E+02   # sdown_L decays
#          BR         NDA      ID1       ID2
     6.27607412E-02    2     1000022         1   # BR(~d_L -> ~chi_10 d)
     1.25503991E-01    2    -1000024         2   # BR(~d_L -> ~chi_1- u)
     8.11735268E-01    2     1000021         1   # BR(~d_L -> ~g      d)
#
#         PDG            Width
DECAY   2000001     2.48127341E+02   # sdown_R decays
#          BR         NDA      ID1       ID2
     1.91222191E-10    2     1000022         1   # BR(~d_R -> ~chi_10 d)
     1.00000000E+00    2     1000021         1   # BR(~d_R -> ~g      d)
#
#         PDG            Width
DECAY   1000004     3.05671312E+02   # scharm_L decays
#          BR         NDA      ID1       ID2
     6.27537039E-02    2     1000022         4   # BR(~c_L -> ~chi_10 c)
     1.25524914E-01    2     1000024         3   # BR(~c_L -> ~chi_1+ s)
     8.11721382E-01    2     1000021         4   # BR(~c_L -> ~g      c)
#
#         PDG            Width
DECAY   2000004     2.48123155E+02   # scharm_R decays
#          BR         NDA      ID1       ID2
     7.64889823E-10    2     1000022         4   # BR(~c_R -> ~chi_10 c)
     9.99999999E-01    2     1000021         4   # BR(~c_R -> ~g      c)
#
#         PDG            Width
DECAY   1000003     3.05682599E+02   # sstrange_L decays
#          BR         NDA      ID1       ID2
     6.27607412E-02    2     1000022         3   # BR(~s_L -> ~chi_10 s)
     1.25503991E-01    2    -1000024         4   # BR(~s_L -> ~chi_1- c)
     8.11735268E-01    2     1000021         3   # BR(~s_L -> ~g      s)
#
#         PDG            Width
DECAY   2000003     2.48127341E+02   # sstrange_R decays
#          BR         NDA      ID1       ID2
     1.91222191E-10    2     1000022         3   # BR(~s_R -> ~chi_10 s)
     1.00000000E+00    2     1000021         3   # BR(~s_R -> ~g      s)
#
#         PDG            Width
DECAY   1000011     5.89354918E+01   # selectron_L decays
#          BR         NDA      ID1       ID2
     3.33320094E-01    2     1000022        11   # BR(~e_L -> ~chi_10 e-)
     6.66679906E-01    2    -1000024        12   # BR(~e_L -> ~chi_1- nu_e)
#
#         PDG            Width
DECAY   2000011     4.37351290E-07   # selectron_R decays
#          BR         NDA      ID1       ID2
     1.00000000E+00    2     1000022        11   # BR(~e_R -> ~chi_10 e-)
#
#         PDG            Width
DECAY   1000013     5.89354918E+01   # smuon_L decays
#          BR         NDA      ID1       ID2
     3.33320094E-01    2     1000022        13   # BR(~mu_L -> ~chi_10 mu-)
     6.66679906E-01    2    -1000024        14   # BR(~mu_L -> ~chi_1- nu_mu)
#
#         PDG            Width
DECAY   2000013     4.37351290E-07   # smuon_R decays
#          BR         NDA      ID1       ID2
     1.00000000E+00    2     1000022        13   # BR(~mu_R -> ~chi_10 mu-)
#
#         PDG            Width
DECAY   1000015     2.94058096E+01   # stau_1 decays
#          BR         NDA      ID1       ID2
     3.33319839E-01    2     1000022        15   # BR(~tau_1 -> ~chi_10  tau-)
     6.66679192E-01    2    -1000024        16   # BR(~tau_1 -> ~chi_1-  nu_tau)
     9.68946206E-07    2     1000039        15   # BR(~tau_1 -> ~G       tau-)
#
#         PDG            Width
DECAY   2000015     2.95297122E+01   # stau_2 decays
#          BR         NDA      ID1       ID2
     3.33320028E-01    2     1000022        15   # BR(~tau_2 -> ~chi_10  tau-)
     6.66679972E-01    2    -1000024        16   # BR(~tau_2 -> ~chi_1-  nu_tau)
#
#         PDG            Width
DECAY   1000012     5.89454862E+01   # snu_eL decays
#          BR         NDA      ID1       ID2
     3.33346546E-01    2     1000022        12   # BR(~nu_eL -> ~chi_10 nu_e)
     6.66653454E-01    2     1000024        11   # BR(~nu_eL -> ~chi_1+ e-)
#
#         PDG            Width
DECAY   1000014     5.89454862E+01   # snu_muL decays
#          BR         NDA      ID1       ID2
     3.33346546E-01    2     1000022        14   # BR(~nu_muL -> ~chi_10 nu_mu)
     6.66653454E-01    2     1000024        13   # BR(~nu_muL -> ~chi_1+ mu-)
#
#         PDG            Width
DECAY   1000016     5.89454855E+01   # snu_tauL decays
#          BR         NDA      ID1       ID2
     3.33346550E-01    2     1000022        16   # BR(~nu_tauL -> ~chi_10 nu_tau)
     6.66653450E-01    2     1000024        15   # BR(~nu_tauL -> ~chi_1+ tau-)
#
#         PDG            Width
DECAY   1000024     2.06673957E-8   # chargino1+ decays               
#          BR         NDA      ID1       ID2
     1.00000000E+00    2     1000039        24   # BR(~chi_1+ -> ~G       W+)
#           BR         NDA      ID1       ID2       ID3
     5.41514367E-22    3     1000022         2        -1   # BR(~chi_1+ -> ~chi_10 u    db)
     5.41514367E-22    3     1000022         4        -3   # BR(~chi_1+ -> ~chi_10 c    sb)
     1.80505515E-22    3     1000022       -11        12   # BR(~chi_1+ -> ~chi_10 e+   nu_e)
     1.80505515E-22    3     1000022       -13        14   # BR(~chi_1+ -> ~chi_10 mu+  nu_mu)
#
#         PDG            Width
DECAY   1000037     5.42096175E+01   # chargino2+ decays
#          BR         NDA      ID1       ID2
     1.99214540E-06    2     1000002        -1   # BR(~chi_2+ -> ~u_L     db)
     4.08719070E-06    2    -1000001         2   # BR(~chi_2+ -> ~d_L*    u )
     1.99214540E-06    2     1000004        -3   # BR(~chi_2+ -> ~c_L     sb)
     4.08719070E-06    2    -1000003         4   # BR(~chi_2+ -> ~s_L*    c )
     4.30607965E-04    2     1000006        -5   # BR(~chi_2+ -> ~t_1     bb)
     4.74447426E-03    2    -1000005         6   # BR(~chi_2+ -> ~b_1*    t )
     4.00093654E-03    2    -2000005         6   # BR(~chi_2+ -> ~b_2*    t )
     4.41529938E-07    2     1000012       -11   # BR(~chi_2+ -> ~nu_eL   e+  )
     4.41529938E-07    2     1000014       -13   # BR(~chi_2+ -> ~nu_muL  mu+ )
     2.52883357E-06    2     1000016       -15   # BR(~chi_2+ -> ~nu_tau1 tau+)
     9.05639072E-07    2    -1000011        12   # BR(~chi_2+ -> ~e_L+    nu_e)
     9.05639072E-07    2    -1000013        14   # BR(~chi_2+ -> ~mu_L+   nu_mu)
     1.26754042E-07    2    -1000015        16   # BR(~chi_2+ -> ~tau_1+  nu_tau)
     2.84514021E-06    2    -2000015        16   # BR(~chi_2+ -> ~tau_2+  nu_tau)
     2.10537980E-01    2     1000024        23   # BR(~chi_2+ -> ~chi_1+  Z )
     2.05726280E-01    2     1000022        24   # BR(~chi_2+ -> ~chi_10  W+)
     2.10361443E-01    2     1000024        25   # BR(~chi_2+ -> ~chi_1+  h )
     1.21178784E-01    2     1000024        35   # BR(~chi_2+ -> ~chi_1+  H )
     1.21282306E-01    2     1000024        36   # BR(~chi_2+ -> ~chi_1+  A )
     1.21716335E-01    2     1000022        37   # BR(~chi_2+ -> ~chi_10  H+)
     3.26133354E-07    2     1000039        24   # BR(~chi_2+ -> ~G       W+)
     1.73760508E-07    2     1000039        37   # BR(~chi_2+ -> ~G       H+)
#
#         PDG            Width
DECAY   1000022     2.06657872E-8   # neutralino1 decays              
#          BR         NDA      ID1       ID2
     3.14957691E-01    2     1000039        22   # BR(~chi_10 -> ~G        gam)
     6.85042281E-01    2     1000039        23   # BR(~chi_10 -> ~G        Z)
     2.80420316E-08    2     1000039        25   # BR(~chi_10 -> ~G        h)
#
#         PDG            Width
DECAY   1000023     4.46758120E+01   # neutralino2 decays
#          BR         NDA      ID1       ID2
     6.46580736E-03    2     1000022        23   # BR(~chi_20 -> ~chi_10   Z )
     2.07454508E-01    2     1000024       -24   # BR(~chi_20 -> ~chi_1+   W-)
     2.07454508E-01    2    -1000024        24   # BR(~chi_20 -> ~chi_1-   W+)
     2.05807733E-01    2     1000022        25   # BR(~chi_20 -> ~chi_10   h )
     5.99459798E-03    2     1000022        35   # BR(~chi_20 -> ~chi_10   H )
     1.15892671E-01    2     1000022        36   # BR(~chi_20 -> ~chi_10   A )
     1.22479970E-01    2     1000024       -37   # BR(~chi_20 -> ~chi_1+   H-)
     1.22479970E-01    2    -1000024        37   # BR(~chi_20 -> ~chi_1-   H+)
     8.03260887E-05    2     1000002        -2   # BR(~chi_20 -> ~u_L      ub)
     8.03260887E-05    2    -1000002         2   # BR(~chi_20 -> ~u_L*     u )
     9.11169666E-04    2     2000002        -2   # BR(~chi_20 -> ~u_R      ub)
     9.11169666E-04    2    -2000002         2   # BR(~chi_20 -> ~u_R*     u )
     3.75517384E-05    2     1000001        -1   # BR(~chi_20 -> ~d_L      db)
     3.75517384E-05    2    -1000001         1   # BR(~chi_20 -> ~d_L*     d )
     2.27658668E-04    2     2000001        -1   # BR(~chi_20 -> ~d_R      db)
     2.27658668E-04    2    -2000001         1   # BR(~chi_20 -> ~d_R*     d )
     8.03260887E-05    2     1000004        -4   # BR(~chi_20 -> ~c_L      cb)
     8.03260887E-05    2    -1000004         4   # BR(~chi_20 -> ~c_L*     c )
     9.11169666E-04    2     2000004        -4   # BR(~chi_20 -> ~c_R      cb)
     9.11169666E-04    2    -2000004         4   # BR(~chi_20 -> ~c_R*     c )
     3.75517384E-05    2     1000003        -3   # BR(~chi_20 -> ~s_L      sb)
     3.75517384E-05    2    -1000003         3   # BR(~chi_20 -> ~s_L*     s )
     2.27658668E-04    2     2000003        -3   # BR(~chi_20 -> ~s_R      sb)
     2.27658668E-04    2    -2000003         3   # BR(~chi_20 -> ~s_R*     s )
     8.91748587E-05    2     1000005        -5   # BR(~chi_20 -> ~b_1      bb)
     8.91748587E-05    2    -1000005         5   # BR(~chi_20 -> ~b_1*     b )
     2.53791122E-05    2     2000005        -5   # BR(~chi_20 -> ~b_2      bb)
     2.53791122E-05    2    -2000005         5   # BR(~chi_20 -> ~b_2*     b )
     7.96136020E-05    2     1000011       -11   # BR(~chi_20 -> ~e_L-     e+)
     7.96136020E-05    2    -1000011        11   # BR(~chi_20 -> ~e_L+     e-)
     2.82133191E-04    2     2000011       -11   # BR(~chi_20 -> ~e_R-     e+)
     2.82133191E-04    2    -2000011        11   # BR(~chi_20 -> ~e_R+     e-)
     7.96136020E-05    2     1000013       -13   # BR(~chi_20 -> ~mu_L-    mu+)
     7.96136020E-05    2    -1000013        13   # BR(~chi_20 -> ~mu_L+    mu-)
     2.82133191E-04    2     2000013       -13   # BR(~chi_20 -> ~mu_R-    mu+)
     2.82133191E-04    2    -2000013        13   # BR(~chi_20 -> ~mu_R+    mu-)
     1.90608222E-04    2     1000015       -15   # BR(~chi_20 -> ~tau_1-   tau+)
     1.90608222E-04    2    -1000015        15   # BR(~chi_20 -> ~tau_1+   tau-)
     1.73205978E-04    2     2000015       -15   # BR(~chi_20 -> ~tau_2-   tau+)
     1.73205978E-04    2    -2000015        15   # BR(~chi_20 -> ~tau_2+   tau-)
     6.21409268E-05    2     1000012       -12   # BR(~chi_20 -> ~nu_eL    nu_eb)
     6.21409268E-05    2    -1000012        12   # BR(~chi_20 -> ~nu_eL*   nu_e )
     6.21409268E-05    2     1000014       -14   # BR(~chi_20 -> ~nu_muL   nu_mub)
     6.21409268E-05    2    -1000014        14   # BR(~chi_20 -> ~nu_muL*  nu_mu )
     6.21409268E-05    2     1000016       -16   # BR(~chi_20 -> ~nu_tau1  nu_taub)
     6.21409268E-05    2    -1000016        16   # BR(~chi_20 -> ~nu_tau1* nu_tau )
     1.06029729E-07    2     1000039        22   # BR(~chi_20 -> ~G        gam)
     3.36639518E-07    2     1000039        23   # BR(~chi_20 -> ~G        Z)
     1.20108491E-08    2     1000039        25   # BR(~chi_20 -> ~G        h)
     1.62658476E-07    2     1000039        35   # BR(~chi_20 -> ~G        H)
     6.54071768E-09    2     1000039        36   # BR(~chi_20 -> ~G        A)
#
#         PDG            Width
DECAY   1000025     5.34640420E+01   # neutralino3 decays
#          BR         NDA      ID1       ID2
     2.06844912E-01    2     1000022        23   # BR(~chi_30 -> ~chi_10   Z )
     2.08539803E-01    2     1000024       -24   # BR(~chi_30 -> ~chi_1+   W-)
     2.08539803E-01    2    -1000024        24   # BR(~chi_30 -> ~chi_1-   W+)
     6.42612475E-03    2     1000022        25   # BR(~chi_30 -> ~chi_10   h )
     1.16824778E-01    2     1000022        35   # BR(~chi_30 -> ~chi_10   H )
     6.12108151E-03    2     1000022        36   # BR(~chi_30 -> ~chi_10   A )
     1.23337761E-01    2     1000024       -37   # BR(~chi_30 -> ~chi_1+   H-)
     1.23337761E-01    2    -1000024        37   # BR(~chi_30 -> ~chi_1-   H+)
     6.51101243E-08    2     1000002        -2   # BR(~chi_30 -> ~u_L      ub)
     6.51101243E-08    2    -1000002         2   # BR(~chi_30 -> ~u_L*     u )
     3.47855314E-09    2     2000002        -2   # BR(~chi_30 -> ~u_R      ub)
     3.47855314E-09    2    -2000002         2   # BR(~chi_30 -> ~u_R*     u )
     8.08946496E-08    2     1000001        -1   # BR(~chi_30 -> ~d_L      db)
     8.08946496E-08    2    -1000001         1   # BR(~chi_30 -> ~d_L*     d )
     8.69175292E-10    2     2000001        -1   # BR(~chi_30 -> ~d_R      db)
     8.69175292E-10    2    -2000001         1   # BR(~chi_30 -> ~d_R*     d )
     6.51101243E-08    2     1000004        -4   # BR(~chi_30 -> ~c_L      cb)
     6.51101243E-08    2    -1000004         4   # BR(~chi_30 -> ~c_L*     c )
     3.47855314E-09    2     2000004        -4   # BR(~chi_30 -> ~c_R      cb)
     3.47855314E-09    2    -2000004         4   # BR(~chi_30 -> ~c_R*     c )
     8.08946496E-08    2     1000003        -3   # BR(~chi_30 -> ~s_L      sb)
     8.08946496E-08    2    -1000003         3   # BR(~chi_30 -> ~s_L*     s )
     8.69175292E-10    2     2000003        -3   # BR(~chi_30 -> ~s_R      sb)
     8.69175292E-10    2    -2000003         3   # BR(~chi_30 -> ~s_R*     s )
     5.19906121E-06    2     1000005        -5   # BR(~chi_30 -> ~b_1      bb)
     5.19906121E-06    2    -1000005         5   # BR(~chi_30 -> ~b_1*     b )
     6.16930484E-06    2     2000005        -5   # BR(~chi_30 -> ~b_2      bb)
     6.16930484E-06    2    -2000005         5   # BR(~chi_30 -> ~b_2*     b )
     7.26828484E-09    2     1000011       -11   # BR(~chi_30 -> ~e_L-     e+)
     7.26828484E-09    2    -1000011        11   # BR(~chi_30 -> ~e_L+     e-)
     1.11755365E-09    2     2000011       -11   # BR(~chi_30 -> ~e_R-     e+)
     1.11755365E-09    2    -2000011        11   # BR(~chi_30 -> ~e_R+     e-)
     7.26828484E-09    2     1000013       -13   # BR(~chi_30 -> ~mu_L-    mu+)
     7.26828484E-09    2    -1000013        13   # BR(~chi_30 -> ~mu_L+    mu-)
     1.11755365E-09    2     2000013       -13   # BR(~chi_30 -> ~mu_R-    mu+)
     1.11755365E-09    2    -2000013        13   # BR(~chi_30 -> ~mu_R+    mu-)
     9.38711209E-07    2     1000015       -15   # BR(~chi_30 -> ~tau_1-   tau+)
     9.38711209E-07    2    -1000015        15   # BR(~chi_30 -> ~tau_1+   tau-)
     1.17459689E-06    2     2000015       -15   # BR(~chi_30 -> ~tau_2-   tau+)
     1.17459689E-06    2    -2000015        15   # BR(~chi_30 -> ~tau_2+   tau-)
     1.41163900E-08    2     1000012       -12   # BR(~chi_30 -> ~nu_eL    nu_eb)
     1.41163900E-08    2    -1000012        12   # BR(~chi_30 -> ~nu_eL*   nu_e )
     1.41163900E-08    2     1000014       -14   # BR(~chi_30 -> ~nu_muL   nu_mub)
     1.41163900E-08    2    -1000014        14   # BR(~chi_30 -> ~nu_muL*  nu_mu )
     1.41163900E-08    2     1000016       -16   # BR(~chi_30 -> ~nu_tau1  nu_taub)
     1.41163900E-08    2    -1000016        16   # BR(~chi_30 -> ~nu_tau1* nu_tau )
     2.83657396E-13    2     1000039        22   # BR(~chi_30 -> ~G        gam)
     1.27045465E-08    2     1000039        23   # BR(~chi_30 -> ~G        Z)
     3.17350868E-07    2     1000039        25   # BR(~chi_30 -> ~G        h)
     6.56091029E-09    2     1000039        35   # BR(~chi_30 -> ~G        H)
     1.68344667E-07    2     1000039        36   # BR(~chi_30 -> ~G        A)
#
#         PDG            Width
DECAY   1000035     1.23859517E+01   # neutralino4 decays
#          BR         NDA      ID1       ID2
     5.06060009E-03    2     1000022        23   # BR(~chi_40 -> ~chi_10   Z )
     1.29147326E-07    2     1000023        23   # BR(~chi_40 -> ~chi_20   Z )
     1.13723787E-03    2     1000025        23   # BR(~chi_40 -> ~chi_30   Z )
     1.52234276E-01    2     1000024       -24   # BR(~chi_40 -> ~chi_1+   W-)
     1.52234276E-01    2    -1000024        24   # BR(~chi_40 -> ~chi_1-   W+)
     4.47800813E-03    2     1000037       -24   # BR(~chi_40 -> ~chi_2+   W-)
     4.47800813E-03    2    -1000037        24   # BR(~chi_40 -> ~chi_2-   W+)
     1.50711445E-01    2     1000022        25   # BR(~chi_40 -> ~chi_10   h )
     4.15447751E-03    2     1000022        35   # BR(~chi_40 -> ~chi_10   H )
     8.62791128E-02    2     1000022        36   # BR(~chi_40 -> ~chi_10   A )
     9.08566007E-02    2     1000024       -37   # BR(~chi_40 -> ~chi_1+   H-)
     9.08566007E-02    2    -1000024        37   # BR(~chi_40 -> ~chi_1-   H+)
     1.79797427E-03    2     1000002        -2   # BR(~chi_40 -> ~u_L      ub)
     1.79797427E-03    2    -1000002         2   # BR(~chi_40 -> ~u_L*     u )
     3.10845051E-02    2     2000002        -2   # BR(~chi_40 -> ~u_R      ub)
     3.10845051E-02    2    -2000002         2   # BR(~chi_40 -> ~u_R*     u )
     2.09188817E-03    2     1000001        -1   # BR(~chi_40 -> ~d_L      db)
     2.09188817E-03    2    -1000001         1   # BR(~chi_40 -> ~d_L*     d )
     7.76830762E-03    2     2000001        -1   # BR(~chi_40 -> ~d_R      db)
     7.76830762E-03    2    -2000001         1   # BR(~chi_40 -> ~d_R*     d )
     1.79797427E-03    2     1000004        -4   # BR(~chi_40 -> ~c_L      cb)
     1.79797427E-03    2    -1000004         4   # BR(~chi_40 -> ~c_L*     c )
     3.10845051E-02    2     2000004        -4   # BR(~chi_40 -> ~c_R      cb)
     3.10845051E-02    2    -2000004         4   # BR(~chi_40 -> ~c_R*     c )
     2.09188817E-03    2     1000003        -3   # BR(~chi_40 -> ~s_L      sb)
     2.09188817E-03    2    -1000003         3   # BR(~chi_40 -> ~s_L*     s )
     7.76830762E-03    2     2000003        -3   # BR(~chi_40 -> ~s_R      sb)
     7.76830762E-03    2    -2000003         3   # BR(~chi_40 -> ~s_R*     s )
     1.17304974E-02    2     1000006        -6   # BR(~chi_40 -> ~t_1      tb)
     1.17304974E-02    2    -1000006         6   # BR(~chi_40 -> ~t_1*     t )
     2.47222954E-03    2     1000005        -5   # BR(~chi_40 -> ~b_1      bb)
     2.47222954E-03    2    -1000005         5   # BR(~chi_40 -> ~b_1*     b )
     2.84183052E-03    2     2000005        -5   # BR(~chi_40 -> ~b_2      bb)
     2.84183052E-03    2    -2000005         5   # BR(~chi_40 -> ~b_2*     b )
     2.83768543E-03    2     1000011       -11   # BR(~chi_40 -> ~e_L-     e+)
     2.83768543E-03    2    -1000011        11   # BR(~chi_40 -> ~e_L+     e-)
     1.16453755E-02    2     2000011       -11   # BR(~chi_40 -> ~e_R-     e+)
     1.16453755E-02    2    -2000011        11   # BR(~chi_40 -> ~e_R+     e-)
     2.83768543E-03    2     1000013       -13   # BR(~chi_40 -> ~mu_L-    mu+)
     2.83768543E-03    2    -1000013        13   # BR(~chi_40 -> ~mu_L+    mu-)
     1.16453755E-02    2     2000013       -13   # BR(~chi_40 -> ~mu_R-    mu+)
     1.16453755E-02    2    -2000013        13   # BR(~chi_40 -> ~mu_R+    mu-)
     7.21236666E-03    2     1000015       -15   # BR(~chi_40 -> ~tau_1-   tau+)
     7.21236666E-03    2    -1000015        15   # BR(~chi_40 -> ~tau_1+   tau-)
     7.27163532E-03    2     2000015       -15   # BR(~chi_40 -> ~tau_2-   tau+)
     7.27163532E-03    2    -2000015        15   # BR(~chi_40 -> ~tau_2+   tau-)
     2.99014302E-03    2     1000012       -12   # BR(~chi_40 -> ~nu_eL    nu_eb)
     2.99014302E-03    2    -1000012        12   # BR(~chi_40 -> ~nu_eL*   nu_e )
     2.99014302E-03    2     1000014       -14   # BR(~chi_40 -> ~nu_muL   nu_mub)
     2.99014302E-03    2    -1000014        14   # BR(~chi_40 -> ~nu_muL*  nu_mu )
     2.99014302E-03    2     1000016       -16   # BR(~chi_40 -> ~nu_tau1  nu_taub)
     2.99014302E-03    2    -1000016        16   # BR(~chi_40 -> ~nu_tau1* nu_tau )
     1.95717998E-06    2     1000039        22   # BR(~chi_40 -> ~G        gam)
     8.89865018E-07    2     1000039        23   # BR(~chi_40 -> ~G        Z)
     1.02905676E-08    2     1000039        25   # BR(~chi_40 -> ~G        h)
     1.40306021E-07    2     1000039        35   # BR(~chi_40 -> ~G        H)
     5.52295827E-09    2     1000039        36   # BR(~chi_40 -> ~G        A)
#
#         PDG            Width
DECAY        25     4.09199904E-03   # h decays
#          BR         NDA      ID1       ID2
     6.17850887E-01    2           5        -5   # BR(h -> b       bb     )
     6.36676349E-02    2         -15        15   # BR(h -> tau+    tau-   )
     2.25359979E-04    2         -13        13   # BR(h -> mu+     mu-    )
     4.77554223E-04    2           3        -3   # BR(h -> s       sb     )
     2.05946756E-02    2           4        -4   # BR(h -> c       cb     )
     6.68757562E-02    2          21        21   # BR(h -> g       g      )
     2.30525969E-03    2          22        22   # BR(h -> gam     gam    )
     1.53417327E-03    2          22        23   # BR(h -> Z       gam    )
     2.00891076E-01    2          24       -24   # BR(h -> W+      W-     )
     2.55776228E-02    2          23        23   # BR(h -> Z       Z      )
#
#         PDG            Width
DECAY        35     3.76354651E+01   # H decays
#          BR         NDA      ID1       ID2
     1.47156898E-03    2           5        -5   # BR(H -> b       bb     )
     2.47533349E-04    2         -15        15   # BR(H -> tau+    tau-   )
     8.75122545E-07    2         -13        13   # BR(H -> mu+     mu-    )
     1.12043913E-06    2           3        -3   # BR(H -> s       sb     )
     1.01156478E-05    2           4        -4   # BR(H -> c       cb     )
     9.96009669E-01    2           6        -6   # BR(H -> t       tb     )
     7.96267706E-04    2          21        21   # BR(H -> g       g      )
     2.76232059E-06    2          22        22   # BR(H -> gam     gam    )
     1.15316788E-06    2          23        22   # BR(H -> Z       gam    )
     3.64688773E-04    2          24       -24   # BR(H -> W+      W-     )
     1.81846278E-04    2          23        23   # BR(H -> Z       Z      )
     8.71986346E-04    2          25        25   # BR(H -> h       h      )
     5.96402730E-24    2          36        36   # BR(H -> A       A      )
     2.75266819E-11    2          23        36   # BR(H -> Z       A      )
     1.30811002E-08    2          24       -37   # BR(H -> W+      H-     )
     1.30811002E-08    2         -24        37   # BR(H -> W-      H+     )
     2.69219017E-05    2     1000024  -1000024   # BR(H -> ~chi_1+ ~chi_1-)
     1.34645335E-05    2     1000022   1000022   # BR(H -> ~chi_10 ~chi_10)
#
#         PDG            Width
DECAY        36     3.80599599E+01   # A decays
#          BR         NDA      ID1       ID2
     1.47481416E-03    2           5        -5   # BR(A -> b       bb     )
     2.45040107E-04    2         -15        15   # BR(A -> tau+    tau-   )
     8.66305297E-07    2         -13        13   # BR(A -> mu+     mu-    )
     1.14205600E-06    2           3        -3   # BR(A -> s       sb     )
     1.00080383E-05    2           4        -4   # BR(A -> c       cb     )
     9.96634376E-01    2           6        -6   # BR(A -> t       tb     )
     9.41964656E-04    2          21        21   # BR(A -> g       g      )
     2.92767359E-06    2          22        22   # BR(A -> gam     gam    )
     1.34458320E-06    2          23        22   # BR(A -> Z       gam    )
     3.55505319E-04    2          23        25   # BR(A -> Z       h      )
     2.21318965E-04    2     1000024  -1000024   # BR(A -> ~chi_1+ ~chi_1-)
     1.10691682E-04    2     1000022   1000022   # BR(A -> ~chi_10 ~chi_10)
#
#         PDG            Width
DECAY        37     3.71146773E+01   # H+ decays
#          BR         NDA      ID1       ID2
     2.36245661E-06    2           4        -5   # BR(H+ -> c       bb     )
     2.50354106E-04    2         -15        16   # BR(H+ -> tau+    nu_tau )
     8.85092213E-07    2         -13        14   # BR(H+ -> mu+     nu_mu  )
     1.50193314E-08    2           2        -5   # BR(H+ -> u       bb     )
     5.48449470E-08    2           2        -3   # BR(H+ -> u       sb     )
     1.09280828E-05    2           4        -3   # BR(H+ -> c       sb     )
     9.99374403E-01    2           6        -5   # BR(H+ -> t       bb     )
     3.60997372E-04    2          24        25   # BR(H+ -> W+      h      )
     1.31814814E-12    2     1000024   1000022   # BR(H+ -> ~chi_1+ ~chi_10)
