#
#                              ======================
#                              | THE SUSYHIT OUTPUT |
#                              ======================
#
#
#              ------------------------------------------------------
#              |     This is the output of the SUSY-HIT package     |
#              |  created by A.Djouadi, M.Muehlleitner and M.Spira. |
#              |  In case of problems with SUSY-HIT email to        |
#              |           margarete.muehlleitner@kit.edu           |
#              |           michael.spira@psi.ch                     |
#              |           abdelhak.djouadi@cern.ch                 |
#              ------------------------------------------------------
#
#              ------------------------------------------------------
#              |  SUSY Les Houches Accord - MSSM Spectrum + Decays  |
#              |              based on the decay programs           |
#              |                                                    |
#              |                     SDECAY 1.5                     |
#              |                                                    |
#              |  Authors: M.Muhlleitner, A.Djouadi and Y.Mambrini  |
#              |  Ref.:    Comput.Phys.Commun.168(2005)46           |
#              |           [hep-ph/0311167]                         |
#              |                                                    |
#              |                     HDECAY 3.4                     |
#              |                                                    |
#              |  By: A.Djouadi,J.Kalinowski,M.Muhlleitner,M.Spira  |
#              |  Ref.:    Comput.Phys.Commun.108(1998)56           |
#              |           [hep-ph/9704448]                         |
#              |                                                    |
#              |                                                    |
#              |  If not stated otherwise all DRbar couplings and   |
#              |  soft SUSY breaking masses are given at the scale  |
#              |  Q=  0.91187600E+02
#              |                                                    |
#              ------------------------------------------------------
#
#
BLOCK DCINFO  # Decay Program information
     1   SDECAY/HDECAY # decay calculator
     2   1.5  /3.4    # version number
#
BLOCK SPINFO  # Spectrum calculator information
     1   SuSpect     # RGE +Spectrum calculator            
     2   2.43         # version number                     
#
BLOCK MODSEL  # Model selection
     1     2   # GMSB                                              
#
BLOCK SMINPUTS  # Standard Model inputs
         1     1.27932904E+02   # alpha_em^-1(M_Z)^MSbar
         2     1.16639000E-05   # G_F [GeV^-2]
         3     1.17200000E-01   # alpha_S(M_Z)^MSbar
         4     9.11870000E+01   # M_Z pole mass
         5     4.25000000E+00   # mb(mb)^MSbar
         6     1.72900000E+02   # mt pole mass
         7     1.77700000E+00   # mtau pole mass
#
BLOCK MINPAR  # Input parameters - minimal models
#
BLOCK EXTPAR  # Input parameters - non-minimal models
         0     9.11876000E+01   # EWSB                
         1     1.05200000E+03   # M_1                 
         2     3.00000000E+03   # M_2                 
         3     1.70000000E+03   # M_3                 
        11     0.00000000E+00   # A_t                 
        12     0.00000000E+00   # A_b                 
        13     0.00000000E+00   # A_tau               
        14     0.00000000E+00   # A_u                 
        15     0.00000000E+00   # A_d                 
        16     0.00000000E+00   # A_e                 
        23     1.05000000E+03   # mu(EWSB)            
        25     1.50000000E+00   # tanbeta(in)         
        26     2.00000000E+03   # MA_pole             
        31     5.00000000E+03   # M_eL                
        32     5.00000000E+03   # M_muL               
        33     5.00000000E+03   # M_tauL              
        34     5.00000000E+03   # M_eR                
        35     5.00000000E+03   # M_muR               
        36     5.00000000E+03   # M_tauR              
        41     5.00000000E+03   # M_q1L               
        42     5.00000000E+03   # M_q2L               
        43     5.00000000E+03   # M_q3L               
        44     5.00000000E+03   # M_uR                
        45     5.00000000E+03   # M_cR                
        46     5.00000000E+03   # M_tR                
        47     5.00000000E+03   # M_dR                
        48     5.00000000E+03   # M_sR                
        49     5.00000000E+03   # M_bR                
#
BLOCK MASS  # Mass Spectrum
# PDG code           mass       particle
        24     8.05405928E+01   # W+
        25     1.26000000E+02   # h
        35     2.00408696E+03   # H
        36     2.00000000E+03   # A
        37     2.00156176E+03   # H+
         5     4.87877839E+00   # b-quark pole mass calculated from mb(mb)_Msbar
   1000001     4.97172759E+03   # ~d_L
   2000001     4.97161781E+03   # ~d_R
   1000002     4.97148217E+03   # ~u_L
   2000002     4.97154020E+03   # ~u_R
   1000003     4.97172759E+03   # ~s_L
   2000003     4.97161781E+03   # ~s_R
   1000004     4.97148217E+03   # ~c_L
   2000004     4.97154020E+03   # ~c_R
   1000005     4.97123796E+03   # ~b_1
   2000005     4.97210888E+03   # ~b_2
   1000006     5.09555721E+03   # ~t_1
   2000006     5.39262344E+03   # ~t_2
   1000011     5.00008223E+03   # ~e_L
   2000011     5.00007607E+03   # ~e_R
   1000012     4.99984170E+03   # ~nu_eL
   1000013     5.00008223E+03   # ~mu_L
   2000013     5.00007607E+03   # ~mu_R
   1000014     4.99984170E+03   # ~nu_muL
   1000015     4.99979938E+03   # ~tau_1
   2000015     5.00035953E+03   # ~tau_2
   1000016     4.99984170E+03   # ~nu_tauL
   1000021     1.79543835E+03   # ~g
   1000022     1.07293960E+03   # ~chi_10
   1000023    -1.12045789E+03   # ~chi_20
   1000025     1.16010297E+03   # ~chi_30
   1000035     3.12881478E+03   # ~chi_40
   1000024     1.11742976E+03   # ~chi_1+
   1000037     3.12881344E+03   # ~chi_2+
   1000039     1.50500000E-07   # ~gravitino
#
BLOCK NMIX  # Neutralino Mixing Matrix
  1  1     7.13979238E-01   # N_11
  1  2    -2.64065814E-02   # N_12
  1  3     4.96875490E-01   # N_13
  1  4    -4.92596272E-01   # N_14
  2  1     3.90430850E-03   # N_21
  2  2    -3.65604641E-03   # N_22
  2  3    -7.06953462E-01   # N_23
  2  4    -7.07239841E-01   # N_24
  3  1     7.00155467E-01   # N_31
  3  2     2.81641699E-02   # N_32
  3  3    -5.02713443E-01   # N_33
  3  4     5.06229488E-01   # N_34
  4  1     8.51913160E-04   # N_41
  4  2    -9.99247770E-01   # N_42
  4  3    -2.47132253E-02   # N_43
  4  4     2.98734903E-02   # N_44
#
BLOCK UMIX  # Chargino Mixing Matrix U
  1  1    -3.49316064E-02   # U_11
  1  2     9.99389705E-01   # U_12
  2  1     9.99389705E-01   # U_21
  2  2     3.49316064E-02   # U_22
#
BLOCK VMIX  # Chargino Mixing Matrix V
  1  1    -4.22309790E-02   # V_11
  1  2     9.99107874E-01   # V_12
  2  1     9.99107874E-01   # V_21
  2  2     4.22309790E-02   # V_22
#
BLOCK STOPMIX  # Stop Mixing Matrix
  1  1     9.99999415E-01   # cos(theta_t)
  1  2    -1.08166522E-03   # sin(theta_t)
  2  1     1.08166522E-03   # -sin(theta_t)
  2  2     9.99999415E-01   # cos(theta_t)
#
BLOCK SBOTMIX  # Sbottom Mixing Matrix
  1  1     6.61044191E-01   # cos(theta_b)
  1  2     7.50346971E-01   # sin(theta_b)
  2  1    -7.50346971E-01   # -sin(theta_b)
  2  2     6.61044191E-01   # cos(theta_b)
#
BLOCK STAUMIX  # Stau Mixing Matrix
  1  1     7.03207400E-01   # cos(theta_tau)
  1  2     7.10984777E-01   # sin(theta_tau)
  2  1    -7.10984777E-01   # -sin(theta_tau)
  2  2     7.03207400E-01   # cos(theta_tau)
#
BLOCK ALPHA  # Higgs mixing
          -5.90206126E-01   # Mixing angle in the neutral Higgs boson sector
#
BLOCK HMIX Q=  9.11876000E+01  # DRbar Higgs Parameters
         1     1.05000000E+03   # mu(Q)               
         2     1.49999979E+00   # tanbeta(Q)          
         3     2.52099481E+02   # vev(Q)              
         4     3.50725741E+06   # MA^2(Q)             
#
BLOCK GAUGE Q=  9.11876000E+01  # The gauge couplings
     1     3.52814043E-01   # gprime(Q) DRbar
     2     6.27373008E-01   # g(Q) DRbar
     3     1.08305256E+00   # g3(Q) DRbar
#
BLOCK AU Q=  9.11876000E+01  # The trilinear couplings
  1  1     0.00000000E+00   # A_u(Q) DRbar
  2  2     0.00000000E+00   # A_c(Q) DRbar
  3  3     0.00000000E+00   # A_t(Q) DRbar
#
BLOCK AD Q=  9.11876000E+01  # The trilinear couplings
  1  1     0.00000000E+00   # A_d(Q) DRbar
  2  2     0.00000000E+00   # A_s(Q) DRbar
  3  3     0.00000000E+00   # A_b(Q) DRbar
#
BLOCK AE Q=  9.11876000E+01  # The trilinear couplings
  1  1     0.00000000E+00   # A_e(Q) DRbar
  2  2     0.00000000E+00   # A_mu(Q) DRbar
  3  3     0.00000000E+00   # A_tau(Q) DRbar
#
BLOCK Yu Q=  9.11876000E+01  # The Yukawa couplings
  1  1     0.00000000E+00   # y_u(Q) DRbar
  2  2     0.00000000E+00   # y_c(Q) DRbar
  3  3     1.02572738E+00   # y_t(Q) DRbar
#
BLOCK Yd Q=  9.11876000E+01  # The Yukawa couplings
  1  1     0.00000000E+00   # y_d(Q) DRbar
  2  2     0.00000000E+00   # y_s(Q) DRbar
  3  3     2.71854305E-02   # y_b(Q) DRbar
#
BLOCK Ye Q=  9.11876000E+01  # The Yukawa couplings
  1  1     0.00000000E+00   # y_e(Q) DRbar
  2  2     0.00000000E+00   # y_mu(Q) DRbar
  3  3     1.79827368E-02   # y_tau(Q) DRbar
#
BLOCK MSOFT Q=  9.11876000E+01  # The soft SUSY breaking masses at the scale Q
         1     1.05200000E+03   # M_1                 
         2     3.00000000E+03   # M_2                 
         3     1.70000000E+03   # M_3                 
        14     0.00000000E+00   # A_u                 
        15     0.00000000E+00   # A_d                 
        16     0.00000000E+00   # A_e                 
        21     1.81550495E+06   # M^2_Hd              
        22    -6.46882488E+06   # M^2_Hu              
        31     5.00000000E+03   # M_eL                
        32     5.00000000E+03   # M_muL               
        33     5.00000000E+03   # M_tauL              
        34     5.00000000E+03   # M_eR                
        35     5.00000000E+03   # M_muR               
        36     5.00000000E+03   # M_tauR              
        41     5.00000000E+03   # M_q1L               
        42     5.00000000E+03   # M_q2L               
        43     5.00000000E+03   # M_q3L               
        44     5.00000000E+03   # M_uR                
        45     5.00000000E+03   # M_cR                
        46     5.00000000E+03   # M_tR                
        47     5.00000000E+03   # M_dR                
        48     5.00000000E+03   # M_sR                
        49     5.00000000E+03   # M_bR                
#
#
#
#                             =================
#                             |The decay table|
#                             =================
#
# - The QCD corrections to the decays gluino -> squark  + quark
#                                     squark -> gaugino + quark_prime
#                                     squark -> squark_prime + Higgs
#                                     squark -> gluino  + quark
#   are included.
#
# - The multi-body decays for the inos, stops and sbottoms are included.
#
# - The loop induced decays for the gluino, neutralinos and stops
#   are included.
#
# - The SUSY decays of the top quark are included.
#
# - Possible decays of the NLSP in GMSB models are included.
#
#
#         PDG            Width
DECAY         6     1.37137073E+00   # top decays
#          BR         NDA      ID1       ID2
     1.00000000E+00    2           5        24   # BR(t ->  b    W+)
#
#         PDG            Width
DECAY   1000021     9.41219010E-05   # gluino decays
#          BR         NDA      ID1       ID2
     2.83763538E-02    2     1000022        21   # BR(~g -> ~chi_10 g)
     4.98767161E-02    2     1000023        21   # BR(~g -> ~chi_20 g)
     2.17973026E-02    2     1000025        21   # BR(~g -> ~chi_30 g)
#          BR         NDA      ID1       ID2
     1.00756994E-05    2     1000039        21   # BR(~g -> ~G      g)
#           BR         NDA      ID1       ID2       ID3
     9.01392478E-03    3     1000022         1        -1   # BR(~g -> ~chi_10 d  db)
     5.35779787E-07    3     1000023         1        -1   # BR(~g -> ~chi_20 d  db)
     4.33537484E-03    3     1000025         1        -1   # BR(~g -> ~chi_30 d  db)
     2.76146671E-02    3     1000022         2        -2   # BR(~g -> ~chi_10 u  ub)
     4.28800962E-07    3     1000023         2        -2   # BR(~g -> ~chi_20 u  ub)
     1.64111381E-02    3     1000025         2        -2   # BR(~g -> ~chi_30 u  ub)
     9.01392478E-03    3     1000022         3        -3   # BR(~g -> ~chi_10 s  sb)
     5.35779787E-07    3     1000023         3        -3   # BR(~g -> ~chi_20 s  sb)
     4.33537484E-03    3     1000025         3        -3   # BR(~g -> ~chi_30 s  sb)
     2.76146671E-02    3     1000022         4        -4   # BR(~g -> ~chi_10 c  cb)
     4.28800962E-07    3     1000023         4        -4   # BR(~g -> ~chi_20 c  cb)
     1.64111381E-02    3     1000025         4        -4   # BR(~g -> ~chi_30 c  cb)
     9.12114557E-03    3     1000022         5        -5   # BR(~g -> ~chi_10 b  bb)
     2.68694236E-04    3     1000023         5        -5   # BR(~g -> ~chi_20 b  bb)
     4.47471841E-03    3     1000025         5        -5   # BR(~g -> ~chi_30 b  bb)
     1.01486949E-01    3     1000022         6        -6   # BR(~g -> ~chi_10 t  tb)
     1.20793034E-01    3     1000023         6        -6   # BR(~g -> ~chi_20 t  tb)
     8.03410773E-02    3     1000025         6        -6   # BR(~g -> ~chi_30 t  tb)
     2.13365930E-04    3     1000024         1        -2   # BR(~g -> ~chi_1+ d  ub)
     2.13365930E-04    3    -1000024         2        -1   # BR(~g -> ~chi_1- u  db)
     2.13365930E-04    3     1000024         3        -4   # BR(~g -> ~chi_1+ s  cb)
     2.13365930E-04    3    -1000024         4        -3   # BR(~g -> ~chi_1- c  sb)
     2.33924165E-01    3     1000024         5        -6   # BR(~g -> ~chi_1+ b  tb)
     2.33924165E-01    3    -1000024         6        -5   # BR(~g -> ~chi_1- t  bb)
#
#         PDG            Width
DECAY   1000006     2.97181867E+02   # stop1 decays
#          BR         NDA      ID1       ID2
     5.41151399E-02    2     1000022         6   # BR(~t_1 -> ~chi_10 t )
     1.11473751E-01    2     1000023         6   # BR(~t_1 -> ~chi_20 t )
     5.92382080E-02    2     1000025         6   # BR(~t_1 -> ~chi_30 t )
     2.54380643E-02    2     1000035         6   # BR(~t_1 -> ~chi_40 t )
     5.69373054E-07    2     1000024         5   # BR(~t_1 -> ~chi_1+ b )
     5.05663464E-02    2     1000037         5   # BR(~t_1 -> ~chi_2+ b )
     6.84734050E-01    2     1000021         6   # BR(~t_1 -> ~g      t )
     6.43613581E-03    2     1000005        24   # BR(~t_1 -> ~b_1    W+)
     7.99773449E-03    2     2000005        24   # BR(~t_1 -> ~b_2    W+)
#
#         PDG            Width
DECAY   2000006     3.72093022E+02   # stop2 decays
#          BR         NDA      ID1       ID2
     6.18278576E-02    2     1000022         6   # BR(~t_2 -> ~chi_10 t )
     9.57885618E-02    2     1000023         6   # BR(~t_2 -> ~chi_20 t )
     6.19389116E-02    2     1000025         6   # BR(~t_2 -> ~chi_30 t )
     1.92587036E-06    2     1000035         6   # BR(~t_2 -> ~chi_40 t )
     1.91885762E-01    2     1000024         5   # BR(~t_2 -> ~chi_1+ b )
     4.41934771E-06    2     1000037         5   # BR(~t_2 -> ~chi_2+ b )
     5.88630283E-01    2     1000021         6   # BR(~t_2 -> ~g      t )
    -7.77590620E-05    2     1000006        25   # BR(~t_2 -> ~t_1    h )
     9.85076383E-08    2     1000006        23   # BR(~t_2 -> ~t_1    Z )
    -2.96381855E-08    2     1000005        24   # BR(~t_2 -> ~b_1    W+)
    -3.08521832E-08    2     2000005        24   # BR(~t_2 -> ~b_2    W+)
#
#         PDG            Width
DECAY   1000005     2.32251202E+02   # sbottom1 decays
#          BR         NDA      ID1       ID2
     4.77937166E-03    2     1000022         5   # BR(~b_1 -> ~chi_10 b )
     8.32422609E-05    2     1000023         5   # BR(~b_1 -> ~chi_20 b )
     2.67118831E-03    2     1000025         5   # BR(~b_1 -> ~chi_30 b )
     1.17416740E-02    2     1000035         5   # BR(~b_1 -> ~chi_40 b )
     1.05953589E-01    2    -1000024         6   # BR(~b_1 -> ~chi_1- t )
     2.36248650E-02    2    -1000037         6   # BR(~b_1 -> ~chi_2- t )
     8.51146070E-01    2     1000021         5   # BR(~b_1 -> ~g      b )
#
#         PDG            Width
DECAY   2000005     2.51176422E+02   # sbottom2 decays
#          BR         NDA      ID1       ID2
     2.29009579E-03    2     1000022         5   # BR(~b_2 -> ~chi_10 b )
     1.05833615E-04    2     1000023         5   # BR(~b_2 -> ~chi_20 b )
     2.94174456E-03    2     1000025         5   # BR(~b_2 -> ~chi_30 b )
     1.65282874E-02    2     1000035         5   # BR(~b_2 -> ~chi_40 b )
     1.58245591E-01    2    -1000024         6   # BR(~b_2 -> ~chi_1- t )
     3.32641966E-02    2    -1000037         6   # BR(~b_2 -> ~chi_2- t )
     7.86624251E-01    2     1000021         5   # BR(~b_2 -> ~g      b )
#
#         PDG            Width
DECAY   1000002     2.18922535E+02   # sup_L decays
#          BR         NDA      ID1       ID2
     9.00572768E-04    2     1000022         2   # BR(~u_L -> ~chi_10 u)
     6.61321743E-07    2     1000023         2   # BR(~u_L -> ~chi_20 u)
     1.95035378E-03    2     1000025         2   # BR(~u_L -> ~chi_30 u)
     3.13932913E-02    2     1000035         2   # BR(~u_L -> ~chi_40 u)
     2.76027448E-04    2     1000024         1   # BR(~u_L -> ~chi_1+ d)
     6.27891413E-02    2     1000037         1   # BR(~u_L -> ~chi_2+ d)
     9.02689952E-01    2     1000021         2   # BR(~u_L -> ~g      u)
#
#         PDG            Width
DECAY   2000002     2.07149852E+02   # sup_R decays
#          BR         NDA      ID1       ID2
     2.36343990E-02    2     1000022         2   # BR(~u_R -> ~chi_10 u)
     7.00531985E-07    2     1000023         2   # BR(~u_R -> ~chi_20 u)
     2.23556927E-02    2     1000025         2   # BR(~u_R -> ~chi_30 u)
     1.35631819E-08    2     1000035         2   # BR(~u_R -> ~chi_40 u)
     9.54009194E-01    2     1000021         2   # BR(~u_R -> ~g      u)
#
#         PDG            Width
DECAY   1000001     2.18928150E+02   # sdown_L decays
#          BR         NDA      ID1       ID2
     2.00370364E-03    2     1000022         1   # BR(~d_L -> ~chi_10 d)
     1.48917199E-06    2     1000023         1   # BR(~d_L -> ~chi_20 d)
     8.15581620E-04    2     1000025         1   # BR(~d_L -> ~chi_30 d)
     3.14181439E-02    2     1000035         1   # BR(~d_L -> ~chi_40 d)
     1.88860916E-04    2    -1000024         2   # BR(~d_L -> ~chi_1- u)
     6.28341244E-02    2    -1000037         2   # BR(~d_L -> ~chi_2- u)
     9.02738096E-01    2     1000021         1   # BR(~d_L -> ~g      d)
#
#         PDG            Width
DECAY   2000001     2.00009592E+02   # sdown_R decays
#          BR         NDA      ID1       ID2
     6.11964918E-03    2     1000022         1   # BR(~d_R -> ~chi_10 d)
     1.81388628E-07    2     1000023         1   # BR(~d_R -> ~chi_20 d)
     5.78855720E-03    2     1000025         1   # BR(~d_R -> ~chi_30 d)
     3.51204286E-09    2     1000035         1   # BR(~d_R -> ~chi_40 d)
     9.88091609E-01    2     1000021         1   # BR(~d_R -> ~g      d)
#
#         PDG            Width
DECAY   1000004     2.18922535E+02   # scharm_L decays
#          BR         NDA      ID1       ID2
     9.00572768E-04    2     1000022         4   # BR(~c_L -> ~chi_10 c)
     6.61321743E-07    2     1000023         4   # BR(~c_L -> ~chi_20 c)
     1.95035378E-03    2     1000025         4   # BR(~c_L -> ~chi_30 c)
     3.13932913E-02    2     1000035         4   # BR(~c_L -> ~chi_40 c)
     2.76027448E-04    2     1000024         3   # BR(~c_L -> ~chi_1+ s)
     6.27891413E-02    2     1000037         3   # BR(~c_L -> ~chi_2+ s)
     9.02689952E-01    2     1000021         4   # BR(~c_L -> ~g      c)
#
#         PDG            Width
DECAY   2000004     2.07149852E+02   # scharm_R decays
#          BR         NDA      ID1       ID2
     2.36343990E-02    2     1000022         4   # BR(~c_R -> ~chi_10 c)
     7.00531985E-07    2     1000023         4   # BR(~c_R -> ~chi_20 c)
     2.23556927E-02    2     1000025         4   # BR(~c_R -> ~chi_30 c)
     1.35631819E-08    2     1000035         4   # BR(~c_R -> ~chi_40 c)
     9.54009194E-01    2     1000021         4   # BR(~c_R -> ~g      c)
#
#         PDG            Width
DECAY   1000003     2.18928150E+02   # sstrange_L decays
#          BR         NDA      ID1       ID2
     2.00370364E-03    2     1000022         3   # BR(~s_L -> ~chi_10 s)
     1.48917199E-06    2     1000023         3   # BR(~s_L -> ~chi_20 s)
     8.15581620E-04    2     1000025         3   # BR(~s_L -> ~chi_30 s)
     3.14181439E-02    2     1000035         3   # BR(~s_L -> ~chi_40 s)
     1.88860916E-04    2    -1000024         4   # BR(~s_L -> ~chi_1- c)
     6.28341244E-02    2    -1000037         4   # BR(~s_L -> ~chi_2- c)
     9.02738096E-01    2     1000021         3   # BR(~s_L -> ~g      s)
#
#         PDG            Width
DECAY   2000003     2.00009592E+02   # sstrange_R decays
#          BR         NDA      ID1       ID2
     6.11964918E-03    2     1000022         3   # BR(~s_R -> ~chi_10 s)
     1.81388628E-07    2     1000023         3   # BR(~s_R -> ~chi_20 s)
     5.78855720E-03    2     1000025         3   # BR(~s_R -> ~chi_30 s)
     3.51204286E-09    2     1000035         3   # BR(~s_R -> ~chi_40 s)
     9.88091609E-01    2     1000021         3   # BR(~s_R -> ~g      s)
#
#         PDG            Width
DECAY   1000011     2.73748506E+01   # selectron_L decays
#          BR         NDA      ID1       ID2
     9.15700585E-02    2     1000022        11   # BR(~e_L -> ~chi_10 e-)
     1.37583332E-06    2     1000023        11   # BR(~e_L -> ~chi_20 e-)
     1.13959579E-01    2     1000025        11   # BR(~e_L -> ~chi_30 e-)
     2.64078723E-01    2     1000035        11   # BR(~e_L -> ~chi_40 e-)
     1.57522436E-03    2    -1000024        12   # BR(~e_L -> ~chi_1- nu_e)
     5.28815039E-01    2    -1000037        12   # BR(~e_L -> ~chi_2- nu_e)
#
#         PDG            Width
DECAY   2000011     2.23567103E+01   # selectron_R decays
#          BR         NDA      ID1       ID2
     5.13861510E-01    2     1000022        11   # BR(~e_R -> ~chi_10 e-)
     1.52320719E-05    2     1000023        11   # BR(~e_R -> ~chi_20 e-)
     4.86122961E-01    2     1000025        11   # BR(~e_R -> ~chi_30 e-)
     2.97602269E-07    2     1000035        11   # BR(~e_R -> ~chi_40 e-)
#
#         PDG            Width
DECAY   1000013     2.73748506E+01   # smuon_L decays
#          BR         NDA      ID1       ID2
     9.15700585E-02    2     1000022        13   # BR(~mu_L -> ~chi_10 mu-)
     1.37583332E-06    2     1000023        13   # BR(~mu_L -> ~chi_20 mu-)
     1.13959579E-01    2     1000025        13   # BR(~mu_L -> ~chi_30 mu-)
     2.64078723E-01    2     1000035        13   # BR(~mu_L -> ~chi_40 mu-)
     1.57522436E-03    2    -1000024        14   # BR(~mu_L -> ~chi_1- nu_mu)
     5.28815039E-01    2    -1000037        14   # BR(~mu_L -> ~chi_2- nu_mu)
#
#         PDG            Width
DECAY   2000013     2.23567103E+01   # smuon_R decays
#          BR         NDA      ID1       ID2
     5.13861510E-01    2     1000022        13   # BR(~mu_R -> ~chi_10 mu-)
     1.52320719E-05    2     1000023        13   # BR(~mu_R -> ~chi_20 mu-)
     4.86122961E-01    2     1000025        13   # BR(~mu_R -> ~chi_30 mu-)
     2.97602269E-07    2     1000035        13   # BR(~mu_R -> ~chi_40 mu-)
#
#         PDG            Width
DECAY   1000015     2.49142331E+01   # stau_1 decays
#          BR         NDA      ID1       ID2
     2.89312328E-01    2     1000022        15   # BR(~tau_1 -> ~chi_10  tau-)
     4.70953842E-04    2     1000023        15   # BR(~tau_1 -> ~chi_20  tau-)
     2.77502740E-01    2     1000025        15   # BR(~tau_1 -> ~chi_30  tau-)
     1.43164428E-01    2     1000035        15   # BR(~tau_1 -> ~chi_40  tau-)
     2.86334312E-03    2    -1000024        16   # BR(~tau_1 -> ~chi_1-  nu_tau)
     2.86686200E-01    2    -1000037        16   # BR(~tau_1 -> ~chi_2-  nu_tau)
     6.37424534E-09    2     1000039        15   # BR(~tau_1 -> ~G       tau-)
#
#         PDG            Width
DECAY   2000015     2.49043736E+01   # stau_2 decays
#          BR         NDA      ID1       ID2
     2.73098888E-01    2     1000022        15   # BR(~tau_2 -> ~chi_10  tau-)
     7.08697114E-04    2     1000023        15   # BR(~tau_2 -> ~chi_20  tau-)
     2.84632128E-01    2     1000025        15   # BR(~tau_2 -> ~chi_30  tau-)
     1.47055096E-01    2     1000035        15   # BR(~tau_2 -> ~chi_40  tau-)
     3.12374199E-05    2    -1000024        16   # BR(~tau_2 -> ~chi_1-  nu_tau)
     2.94473954E-01    2    -1000037        16   # BR(~tau_2 -> ~chi_2-  nu_tau)
#
#         PDG            Width
DECAY   1000012     2.73751333E+01   # snu_eL decays
#          BR         NDA      ID1       ID2
     1.19162011E-01    2     1000022        12   # BR(~nu_eL -> ~chi_10 nu_e)
     2.20882863E-05    2     1000023        12   # BR(~nu_eL -> ~chi_20 nu_e)
     8.55557992E-02    2     1000025        12   # BR(~nu_eL -> ~chi_30 nu_e)
     2.64537434E-01    2     1000035        12   # BR(~nu_eL -> ~chi_40 nu_e)
     2.30217234E-03    2     1000024        11   # BR(~nu_eL -> ~chi_1+ e-)
     5.28420496E-01    2     1000037        11   # BR(~nu_eL -> ~chi_2+ e-)
#
#         PDG            Width
DECAY   1000014     2.73751333E+01   # snu_muL decays
#          BR         NDA      ID1       ID2
     1.19162011E-01    2     1000022        14   # BR(~nu_muL -> ~chi_10 nu_mu)
     2.20882863E-05    2     1000023        14   # BR(~nu_muL -> ~chi_20 nu_mu)
     8.55557992E-02    2     1000025        14   # BR(~nu_muL -> ~chi_30 nu_mu)
     2.64537434E-01    2     1000035        14   # BR(~nu_muL -> ~chi_40 nu_mu)
     2.30217234E-03    2     1000024        13   # BR(~nu_muL -> ~chi_1+ mu-)
     5.28420496E-01    2     1000037        13   # BR(~nu_muL -> ~chi_2+ mu-)
#
#         PDG            Width
DECAY   1000016     2.74041424E+01   # snu_tauL decays
#          BR         NDA      ID1       ID2
     1.19035870E-01    2     1000022        16   # BR(~nu_tauL -> ~chi_10 nu_tau)
     2.20649044E-05    2     1000023        16   # BR(~nu_tauL -> ~chi_20 nu_tau)
     8.54652327E-02    2     1000025        16   # BR(~nu_tauL -> ~chi_30 nu_tau)
     2.64257403E-01    2     1000035        16   # BR(~nu_tauL -> ~chi_40 nu_tau)
     3.35735779E-03    2     1000024        15   # BR(~nu_tauL -> ~chi_1+ tau-)
     5.27862071E-01    2     1000037        15   # BR(~nu_tauL -> ~chi_2+ tau-)
#
#         PDG            Width
DECAY   1000024     1.09518715E-04   # chargino1+ decays
#          BR         NDA      ID1       ID2
     3.96806475E-07    2     1000039        24   # BR(~chi_1+ -> ~G       W+)
#           BR         NDA      ID1       ID2       ID3
     3.33624688E-01    3     1000022         2        -1   # BR(~chi_1+ -> ~chi_10 u    db)
     3.33624688E-01    3     1000022         4        -3   # BR(~chi_1+ -> ~chi_10 c    sb)
     1.11208360E-01    3     1000022       -11        12   # BR(~chi_1+ -> ~chi_10 e+   nu_e)
     1.11208360E-01    3     1000022       -13        14   # BR(~chi_1+ -> ~chi_10 mu+  nu_mu)
     1.10333508E-01    3     1000022       -15        16   # BR(~chi_1+ -> ~chi_10 tau+ nu_tau)
#
#         PDG            Width
DECAY   1000037     3.73840286E+01   # chargino2+ decays
#          BR         NDA      ID1       ID2
     2.52229636E-01    2     1000024        23   # BR(~chi_2+ -> ~chi_1+  Z )
     1.13817359E-01    2     1000022        24   # BR(~chi_2+ -> ~chi_10  W+)
     2.45573063E-01    2     1000023        24   # BR(~chi_2+ -> ~chi_20  W+)
     1.32061476E-01    2     1000025        24   # BR(~chi_2+ -> ~chi_30  W+)
     2.53244130E-01    2     1000024        25   # BR(~chi_2+ -> ~chi_1+  h )
     6.04997298E-04    2     1000024        35   # BR(~chi_2+ -> ~chi_1+  H )
     7.98145108E-04    2     1000024        36   # BR(~chi_2+ -> ~chi_1+  A )
     1.07350710E-03    2     1000022        37   # BR(~chi_2+ -> ~chi_10  H+)
     5.97684258E-04    2     1000023        37   # BR(~chi_2+ -> ~chi_20  H+)
     4.06361777E-10    2     1000039        24   # BR(~chi_2+ -> ~G       W+)
     3.45980795E-14    2     1000039        37   # BR(~chi_2+ -> ~G       H+)
#
#         PDG            Width
DECAY   1000022     5.37040509E-11   # neutralino1 decays
#          BR         NDA      ID1       ID2
     4.99754536E-01    2     1000039        22   # BR(~chi_10 -> ~G        gam)
     4.89030531E-01    2     1000039        23   # BR(~chi_10 -> ~G        Z)
     1.12149331E-02    2     1000039        25   # BR(~chi_10 -> ~G        h)
#
#         PDG            Width
DECAY   1000023     1.23296840E-04   # neutralino2 decays
#          BR         NDA      ID1       ID2
     1.24891917E-03    2     1000022        22   # BR(~chi_20 -> ~chi_10 gam)
#          BR         NDA      ID1       ID2
     1.88941874E-12    2     1000039        22   # BR(~chi_20 -> ~G        gam)
     1.36786712E-08    2     1000039        23   # BR(~chi_20 -> ~G        Z)
     3.32943448E-07    2     1000039        25   # BR(~chi_20 -> ~G        h)
#           BR         NDA      ID1       ID2       ID3
     1.18593753E-01    3     1000022        -2         2   # BR(~chi_20 -> ~chi_10 ub      u)
     1.53552408E-01    3     1000022        -1         1   # BR(~chi_20 -> ~chi_10 db      d)
     1.18593753E-01    3     1000022        -4         4   # BR(~chi_20 -> ~chi_10 cb      c)
     1.53552408E-01    3     1000022        -3         3   # BR(~chi_20 -> ~chi_10 sb      s)
     1.39547456E-01    3     1000022        -5         5   # BR(~chi_20 -> ~chi_10 bb      b)
     3.50647969E-02    3     1000022       -11        11   # BR(~chi_20 -> ~chi_10 e+      e-)
     3.50647969E-02    3     1000022       -13        13   # BR(~chi_20 -> ~chi_10 mu+     mu-)
     3.47058646E-02    3     1000022       -15        15   # BR(~chi_20 -> ~chi_10 tau+    tau-)
     7.00237812E-02    3     1000022       -12        12   # BR(~chi_20 -> ~chi_10 nu_eb   nu_e)
     7.00237812E-02    3     1000022       -14        14   # BR(~chi_20 -> ~chi_10 nu_mub  nu_mu)
     7.00237812E-02    3     1000022       -16        16   # BR(~chi_20 -> ~chi_10 nu_taub nu_tau)
     7.62628056E-07    3     1000024        -2         1   # BR(~chi_20 -> ~chi_1+ ub      d)
     7.62628056E-07    3    -1000024        -1         2   # BR(~chi_20 -> ~chi_1- db      u)
     7.62628056E-07    3     1000024        -4         3   # BR(~chi_20 -> ~chi_1+ cb      s)
     7.62628056E-07    3    -1000024        -3         4   # BR(~chi_20 -> ~chi_1- sb      c)
     2.54209368E-07    3     1000024       -12        11   # BR(~chi_20 -> ~chi_1+ nu_eb   e-)
     2.54209368E-07    3    -1000024        12       -11   # BR(~chi_20 -> ~chi_1- nu_e    e+)
     2.54209368E-07    3     1000024       -14        13   # BR(~chi_20 -> ~chi_1+ nu_mub  mu-)
     2.54209368E-07    3    -1000024        14       -13   # BR(~chi_20 -> ~chi_1- nu_mu   mu+)
     4.38412655E-08    3     1000024       -16        15   # BR(~chi_20 -> ~chi_1+ nu_taub tau-)
     4.38412655E-08    3    -1000024        16       -15   # BR(~chi_20 -> ~chi_1- nu_tau  tau+)
#
#         PDG            Width
DECAY   1000025     2.31752825E-04   # neutralino3 decays
#          BR         NDA      ID1       ID2
     3.62139333E-04    2     1000022        22   # BR(~chi_30 -> ~chi_10 gam)
     7.98838518E-06    2     1000023        22   # BR(~chi_30 -> ~chi_20 gam)
#          BR         NDA      ID1       ID2
     1.79493715E-07    2     1000039        22   # BR(~chi_30 -> ~G        gam)
     1.55815449E-07    2     1000039        23   # BR(~chi_30 -> ~G        Z)
     4.35720851E-09    2     1000039        25   # BR(~chi_30 -> ~G        h)
#           BR         NDA      ID1       ID2       ID3
     9.49166013E-06    3     1000022        -2         2   # BR(~chi_30 -> ~chi_10 ub      u)
     1.12761797E-05    3     1000022        -1         1   # BR(~chi_30 -> ~chi_10 db      d)
     9.49166013E-06    3     1000022        -4         4   # BR(~chi_30 -> ~chi_10 cb      c)
     1.12761797E-05    3     1000022        -3         3   # BR(~chi_30 -> ~chi_10 sb      s)
     1.76135360E-05    3     1000022        -5         5   # BR(~chi_30 -> ~chi_10 bb      b)
     1.96488387E-06    3     1000022       -11        11   # BR(~chi_30 -> ~chi_10 e+      e-)
     1.96488387E-06    3     1000022       -13        13   # BR(~chi_30 -> ~chi_10 mu+     mu-)
     2.94662612E-06    3     1000022       -15        15   # BR(~chi_30 -> ~chi_10 tau+    tau-)
     5.52175820E-06    3     1000022       -12        12   # BR(~chi_30 -> ~chi_10 nu_eb   nu_e)
     5.52175820E-06    3     1000022       -14        14   # BR(~chi_30 -> ~chi_10 nu_mub  nu_mu)
     5.52175820E-06    3     1000022       -16        16   # BR(~chi_30 -> ~chi_10 nu_taub nu_tau)
     2.53531678E-02    3     1000023        -2         2   # BR(~chi_30 -> ~chi_20 ub      u)
     3.28267405E-02    3     1000023        -1         1   # BR(~chi_30 -> ~chi_20 db      d)
     2.53531678E-02    3     1000023        -4         4   # BR(~chi_30 -> ~chi_20 cb      c)
     3.28267405E-02    3     1000023        -3         3   # BR(~chi_30 -> ~chi_20 sb      s)
     2.86791379E-02    3     1000023        -5         5   # BR(~chi_30 -> ~chi_20 bb      b)
     7.49624320E-03    3     1000023       -11        11   # BR(~chi_30 -> ~chi_20 e+      e-)
     7.49624320E-03    3     1000023       -13        13   # BR(~chi_30 -> ~chi_20 mu+     mu-)
     7.39577663E-03    3     1000023       -15        15   # BR(~chi_30 -> ~chi_20 tau+    tau-)
     1.49697594E-02    3     1000023       -12        12   # BR(~chi_30 -> ~chi_20 nu_eb   nu_e)
     1.49697594E-02    3     1000023       -14        14   # BR(~chi_30 -> ~chi_20 nu_mub  nu_mu)
     1.49697594E-02    3     1000023       -16        16   # BR(~chi_30 -> ~chi_20 nu_taub nu_tau)
     1.31326714E-01    3     1000024        -2         1   # BR(~chi_30 -> ~chi_1+ ub      d)
     1.31326714E-01    3    -1000024        -1         2   # BR(~chi_30 -> ~chi_1- db      u)
     1.31326714E-01    3     1000024        -4         3   # BR(~chi_30 -> ~chi_1+ cb      s)
     1.31326714E-01    3    -1000024        -3         4   # BR(~chi_30 -> ~chi_1- sb      c)
     4.37755052E-02    3     1000024       -12        11   # BR(~chi_30 -> ~chi_1+ nu_eb   e-)
     4.37755052E-02    3    -1000024        12       -11   # BR(~chi_30 -> ~chi_1- nu_e    e+)
     4.37755052E-02    3     1000024       -14        13   # BR(~chi_30 -> ~chi_1+ nu_mub  mu-)
     4.37755052E-02    3    -1000024        14       -13   # BR(~chi_30 -> ~chi_1- nu_mu   mu+)
     4.34007837E-02    3     1000024       -16        15   # BR(~chi_30 -> ~chi_1+ nu_taub tau-)
     4.34007837E-02    3    -1000024        16       -15   # BR(~chi_30 -> ~chi_1- nu_tau  tau+)
#
#         PDG            Width
DECAY   1000035     3.73875481E+01   # neutralino4 decays
#          BR         NDA      ID1       ID2
     1.03752803E-03    2     1000022        23   # BR(~chi_40 -> ~chi_10   Z )
     2.49977041E-01    2     1000023        23   # BR(~chi_40 -> ~chi_20   Z )
     1.18981398E-03    2     1000025        23   # BR(~chi_40 -> ~chi_30   Z )
     2.45547403E-01    2     1000024       -24   # BR(~chi_40 -> ~chi_1+   W-)
     2.45547403E-01    2    -1000024        24   # BR(~chi_40 -> ~chi_1-   W+)
     1.16336653E-01    2     1000022        25   # BR(~chi_40 -> ~chi_10   h )
     7.40582641E-04    2     1000022        35   # BR(~chi_40 -> ~chi_10   H )
     3.06455464E-04    2     1000022        36   # BR(~chi_40 -> ~chi_10   A )
     2.19767159E-03    2     1000023        25   # BR(~chi_40 -> ~chi_20   h )
     1.38154710E-05    2     1000023        35   # BR(~chi_40 -> ~chi_20   H )
     6.33910599E-04    2     1000023        36   # BR(~chi_40 -> ~chi_20   A )
     1.35007527E-01    2     1000025        25   # BR(~chi_40 -> ~chi_30   h )
     7.32097080E-04    2     1000024       -37   # BR(~chi_40 -> ~chi_1+   H-)
     7.32097080E-04    2    -1000024        37   # BR(~chi_40 -> ~chi_1-   H+)
     9.75020332E-11    2     1000039        22   # BR(~chi_40 -> ~G        gam)
     3.08785346E-10    2     1000039        23   # BR(~chi_40 -> ~G        Z)
     2.47978865E-14    2     1000039        25   # BR(~chi_40 -> ~G        h)
     3.40378362E-14    2     1000039        35   # BR(~chi_40 -> ~G        H)
     3.97297690E-16    2     1000039        36   # BR(~chi_40 -> ~G        A)
#
#         PDG            Width
DECAY        25     4.21900219E-03   # h decays
#          BR         NDA      ID1       ID2
     6.01922542E-01    2           5        -5   # BR(h -> b       bb     )
     6.22300420E-02    2         -15        15   # BR(h -> tau+    tau-   )
     2.20267219E-04    2         -13        13   # BR(h -> mu+     mu-    )
     4.66042746E-04    2           3        -3   # BR(h -> s       sb     )
     2.01056636E-02    2           4        -4   # BR(h -> c       cb     )
     6.63983088E-02    2          21        21   # BR(h -> g       g      )
     2.30745392E-03    2          22        22   # BR(h -> gam     gam    )
     1.62636061E-03    2          22        23   # BR(h -> Z       gam    )
     2.16646651E-01    2          24       -24   # BR(h -> W+      W-     )
     2.80766680E-02    2          23        23   # BR(h -> Z       Z      )
#
#         PDG            Width
DECAY        35     3.78120386E+01   # H decays
#          BR         NDA      ID1       ID2
     1.47103973E-03    2           5        -5   # BR(H -> b       bb     )
     2.46423214E-04    2         -15        15   # BR(H -> tau+    tau-   )
     8.71197805E-07    2         -13        13   # BR(H -> mu+     mu-    )
     1.11544543E-06    2           3        -3   # BR(H -> s       sb     )
     1.00667616E-05    2           4        -4   # BR(H -> c       cb     )
     9.96061617E-01    2           6        -6   # BR(H -> t       tb     )
     7.97738590E-04    2          21        21   # BR(H -> g       g      )
     2.70804968E-06    2          22        22   # BR(H -> gam     gam    )
     1.15983871E-06    2          23        22   # BR(H -> Z       gam    )
     3.35899065E-04    2          24       -24   # BR(H -> W+      W-     )
     1.67491459E-04    2          23        23   # BR(H -> Z       Z      )
     9.03869385E-04    2          25        25   # BR(H -> h       h      )
     8.19649068E-24    2          36        36   # BR(H -> A       A      )
     3.25386840E-11    2          23        36   # BR(H -> Z       A      )
     7.13935265E-12    2          24       -37   # BR(H -> W+      H-     )
     7.13935265E-12    2         -24        37   # BR(H -> W-      H+     )
#
#         PDG            Width
DECAY        36     3.82382796E+01   # A decays
#          BR         NDA      ID1       ID2
     1.47396953E-03    2           5        -5   # BR(A -> b       bb     )
     2.43897385E-04    2         -15        15   # BR(A -> tau+    tau-   )
     8.62265362E-07    2         -13        13   # BR(A -> mu+     mu-    )
     1.13677239E-06    2           3        -3   # BR(A -> s       sb     )
     9.96175113E-06    2           4        -4   # BR(A -> c       cb     )
     9.96994621E-01    2           6        -6   # BR(A -> t       tb     )
     9.43674349E-04    2          21        21   # BR(A -> g       g      )
     3.21131600E-06    2          22        22   # BR(A -> gam     gam    )
     1.35242938E-06    2          23        22   # BR(A -> Z       gam    )
     3.27313666E-04    2          23        25   # BR(A -> Z       h      )
#
#         PDG            Width
DECAY        37     3.74481904E+01   # H+ decays
#          BR         NDA      ID1       ID2
     2.36424072E-06    2           4        -5   # BR(H+ -> c       bb     )
     2.49237652E-04    2         -15        16   # BR(H+ -> tau+    nu_tau )
     8.81145135E-07    2         -13        14   # BR(H+ -> mu+     nu_mu  )
     1.50312547E-08    2           2        -5   # BR(H+ -> u       bb     )
     5.45692508E-08    2           2        -3   # BR(H+ -> u       sb     )
     1.08731300E-05    2           4        -3   # BR(H+ -> c       sb     )
     9.99401096E-01    2           6        -5   # BR(H+ -> t       bb     )
     3.35477903E-04    2          24        25   # BR(H+ -> W+      h      )
     3.26275755E-13    2          24        36   # BR(H+ -> W+      A      )
