#
#                              ======================
#                              | THE SUSYHIT OUTPUT |
#                              ======================
#
#
#              ------------------------------------------------------
#              |     This is the output of the SUSY-HIT package     |
#              |  created by A.Djouadi, M.Muehlleitner and M.Spira. |
#              |  In case of problems with SUSY-HIT email to        |
#              |           margarete.muehlleitner@kit.edu           |
#              |           michael.spira@psi.ch                     |
#              |           abdelhak.djouadi@cern.ch                 |
#              ------------------------------------------------------
#
#              ------------------------------------------------------
#              |  SUSY Les Houches Accord - MSSM Spectrum + Decays  |
#              |              based on the decay programs           |
#              |                                                    |
#              |                     SDECAY 1.5                     |
#              |                                                    |
#              |  Authors: M.Muhlleitner, A.Djouadi and Y.Mambrini  |
#              |  Ref.:    Comput.Phys.Commun.168(2005)46           |
#              |           [hep-ph/0311167]                         |
#              |                                                    |
#              |                     HDECAY 3.4                     |
#              |                                                    |
#              |  By: A.Djouadi,J.Kalinowski,M.Muhlleitner,M.Spira  |
#              |  Ref.:    Comput.Phys.Commun.108(1998)56           |
#              |           [hep-ph/9704448]                         |
#              |                                                    |
#              |                                                    |
#              |  If not stated otherwise all DRbar couplings and   |
#              |  soft SUSY breaking masses are given at the scale  |
#              |  Q=  0.91187600E+02
#              |                                                    |
#              ------------------------------------------------------
#
#
BLOCK DCINFO  # Decay Program information
     1   SDECAY/HDECAY # decay calculator
     2   1.5  /3.4    # version number
#
BLOCK SPINFO  # Spectrum calculator information
     1   SuSpect     # RGE +Spectrum calculator            
     2   2.43         # version number                     
#
BLOCK MODSEL  # Model selection
     1     2   # GMSB                                              
#
BLOCK SMINPUTS  # Standard Model inputs
         1     1.27932904E+02   # alpha_em^-1(M_Z)^MSbar
         2     1.16639000E-05   # G_F [GeV^-2]
         3     1.17200000E-01   # alpha_S(M_Z)^MSbar
         4     9.11870000E+01   # M_Z pole mass
         5     4.25000000E+00   # mb(mb)^MSbar
         6     1.72900000E+02   # mt pole mass
         7     1.77700000E+00   # mtau pole mass
#
BLOCK MINPAR  # Input parameters - minimal models
#
BLOCK EXTPAR  # Input parameters - non-minimal models
         0     9.11876000E+01   # EWSB                
         1     6.57000000E+02   # M_1                 
         2     3.00000000E+03   # M_2                 
         3     1.30000000E+03   # M_3                 
        11     0.00000000E+00   # A_t                 
        12     0.00000000E+00   # A_b                 
        13     0.00000000E+00   # A_tau               
        14     0.00000000E+00   # A_u                 
        15     0.00000000E+00   # A_d                 
        16     0.00000000E+00   # A_e                 
        23     6.50000000E+02   # mu(EWSB)            
        25     1.50000000E+00   # tanbeta(in)         
        26     2.00000000E+03   # MA_pole             
        31     5.00000000E+03   # M_eL                
        32     5.00000000E+03   # M_muL               
        33     5.00000000E+03   # M_tauL              
        34     5.00000000E+03   # M_eR                
        35     5.00000000E+03   # M_muR               
        36     5.00000000E+03   # M_tauR              
        41     5.00000000E+03   # M_q1L               
        42     5.00000000E+03   # M_q2L               
        43     5.00000000E+03   # M_q3L               
        44     5.00000000E+03   # M_uR                
        45     5.00000000E+03   # M_cR                
        46     5.00000000E+03   # M_tR                
        47     5.00000000E+03   # M_dR                
        48     5.00000000E+03   # M_sR                
        49     5.00000000E+03   # M_bR                
#
BLOCK MASS  # Mass Spectrum
# PDG code           mass       particle
        24     8.05394406E+01   # W+
        25     1.26000000E+02   # h
        35     2.00443192E+03   # H
        36     2.00000000E+03   # A
        37     2.00208381E+03   # H+
         5     4.87877839E+00   # b-quark pole mass calculated from mb(mb)_Msbar
   1000001     5.00370339E+03   # ~d_L
   2000001     5.00359397E+03   # ~d_R
   1000002     5.00345880E+03   # ~u_L
   2000002     5.00351671E+03   # ~u_R
   1000003     5.00370339E+03   # ~s_L
   2000003     5.00359397E+03   # ~s_R
   1000004     5.00345880E+03   # ~c_L
   2000004     5.00351671E+03   # ~c_R
   1000005     5.00337744E+03   # ~b_1
   2000005     5.00392137E+03   # ~b_2
   1000006     5.13096841E+03   # ~t_1
   2000006     5.42820768E+03   # ~t_2
   1000011     5.00008233E+03   # ~e_L
   2000011     5.00007602E+03   # ~e_R
   1000012     4.99984165E+03   # ~nu_eL
   1000013     5.00008233E+03   # ~mu_L
   2000013     5.00007602E+03   # ~mu_R
   1000014     4.99984165E+03   # ~nu_muL
   1000015     4.99990613E+03   # ~tau_1
   2000015     5.00025285E+03   # ~tau_2
   1000016     4.99984165E+03   # ~nu_tauL
   1000021     1.42934902E+03   # ~g
   1000022     6.51754129E+02   # ~chi_10
   1000023    -6.96916422E+02   # ~chi_20
   1000025     7.38916836E+02   # ~chi_30
   1000035     3.12900855E+03   # ~chi_40
   1000024     6.94387710E+02   # ~chi_1+
   1000037     3.12900782E+03   # ~chi_2+
   1000039     5.62777778E-08   # ~gravitino
#
BLOCK NMIX  # Neutralino Mixing Matrix
  1  1     6.98846355E-01   # N_11
  1  2    -2.23783617E-02   # N_12
  1  3     5.08891726E-01   # N_13
  1  4    -5.02137622E-01   # N_14
  2  1     6.27136665E-03   # N_21
  2  2    -4.06603861E-03   # N_22
  2  3    -7.06788237E-01   # N_23
  2  4    -7.07385698E-01   # N_24
  3  1     7.15244083E-01   # N_31
  3  2     2.27197752E-02   # N_32
  3  3    -4.91011497E-01   # N_33
  3  4     4.96807229E-01   # N_34
  4  1     5.85951510E-04   # N_41
  4  2    -9.99483110E-01   # N_42
  4  3    -1.96801782E-02   # N_43
  4  4     2.54137596E-02   # N_44
#
BLOCK UMIX  # Chargino Mixing Matrix U
  1  1    -2.78210318E-02   # U_11
  1  2     9.99612920E-01   # U_12
  2  1     9.99612920E-01   # U_21
  2  2     2.78210318E-02   # U_22
#
BLOCK VMIX  # Chargino Mixing Matrix V
  1  1    -3.59321198E-02   # V_11
  1  2     9.99354233E-01   # V_12
  2  1     9.99354233E-01   # V_21
  2  2     3.59321198E-02   # V_22
#
BLOCK STOPMIX  # Stop Mixing Matrix
  1  1     9.99975340E-01   # cos(theta_t)
  1  2    -7.02277665E-03   # sin(theta_t)
  2  1     7.02277665E-03   # -sin(theta_t)
  2  2     9.99975340E-01   # cos(theta_t)
#
BLOCK SBOTMIX  # Sbottom Mixing Matrix
  1  1     6.31997529E-01   # cos(theta_b)
  1  2     7.74970402E-01   # sin(theta_b)
  2  1    -7.74970402E-01   # -sin(theta_b)
  2  2     6.31997529E-01   # cos(theta_b)
#
BLOCK STAUMIX  # Stau Mixing Matrix
  1  1     7.00650934E-01   # cos(theta_tau)
  1  2     7.13504218E-01   # sin(theta_tau)
  2  1    -7.13504218E-01   # -sin(theta_tau)
  2  2     7.00650934E-01   # cos(theta_tau)
#
BLOCK ALPHA  # Higgs mixing
          -5.90203461E-01   # Mixing angle in the neutral Higgs boson sector
#
BLOCK HMIX Q=  9.11876000E+01  # DRbar Higgs Parameters
         1     6.50000000E+02   # mu(Q)               
         2     1.49999979E+00   # tanbeta(Q)          
         3     2.51966754E+02   # vev(Q)              
         4     3.69026996E+06   # MA^2(Q)             
#
BLOCK GAUGE Q=  9.11876000E+01  # The gauge couplings
     1     3.52896716E-01   # gprime(Q) DRbar
     2     6.27897999E-01   # g(Q) DRbar
     3     1.08739730E+00   # g3(Q) DRbar
#
BLOCK AU Q=  9.11876000E+01  # The trilinear couplings
  1  1     0.00000000E+00   # A_u(Q) DRbar
  2  2     0.00000000E+00   # A_c(Q) DRbar
  3  3     0.00000000E+00   # A_t(Q) DRbar
#
BLOCK AD Q=  9.11876000E+01  # The trilinear couplings
  1  1     0.00000000E+00   # A_d(Q) DRbar
  2  2     0.00000000E+00   # A_s(Q) DRbar
  3  3     0.00000000E+00   # A_b(Q) DRbar
#
BLOCK AE Q=  9.11876000E+01  # The trilinear couplings
  1  1     0.00000000E+00   # A_e(Q) DRbar
  2  2     0.00000000E+00   # A_mu(Q) DRbar
  3  3     0.00000000E+00   # A_tau(Q) DRbar
#
BLOCK Yu Q=  9.11876000E+01  # The Yukawa couplings
  1  1     0.00000000E+00   # y_u(Q) DRbar
  2  2     0.00000000E+00   # y_c(Q) DRbar
  3  3     1.02581141E+00   # y_t(Q) DRbar
#
BLOCK Yd Q=  9.11876000E+01  # The Yukawa couplings
  1  1     0.00000000E+00   # y_d(Q) DRbar
  2  2     0.00000000E+00   # y_s(Q) DRbar
  3  3     2.72053287E-02   # y_b(Q) DRbar
#
BLOCK Ye Q=  9.11876000E+01  # The Yukawa couplings
  1  1     0.00000000E+00   # y_e(Q) DRbar
  2  2     0.00000000E+00   # y_mu(Q) DRbar
  3  3     1.79882509E-02   # y_tau(Q) DRbar
#
BLOCK MSOFT Q=  9.11876000E+01  # The soft SUSY breaking masses at the scale Q
         1     6.57000000E+02   # M_1                 
         2     3.00000000E+03   # M_2                 
         3     1.30000000E+03   # M_3                 
        14     0.00000000E+00   # A_u                 
        15     0.00000000E+00   # A_d                 
        16     0.00000000E+00   # A_e                 
        21     2.58378377E+06   # M^2_Hd              
        22    -5.87558173E+06   # M^2_Hu              
        31     5.00000000E+03   # M_eL                
        32     5.00000000E+03   # M_muL               
        33     5.00000000E+03   # M_tauL              
        34     5.00000000E+03   # M_eR                
        35     5.00000000E+03   # M_muR               
        36     5.00000000E+03   # M_tauR              
        41     5.00000000E+03   # M_q1L               
        42     5.00000000E+03   # M_q2L               
        43     5.00000000E+03   # M_q3L               
        44     5.00000000E+03   # M_uR                
        45     5.00000000E+03   # M_cR                
        46     5.00000000E+03   # M_tR                
        47     5.00000000E+03   # M_dR                
        48     5.00000000E+03   # M_sR                
        49     5.00000000E+03   # M_bR                
#
#
#
#                             =================
#                             |The decay table|
#                             =================
#
# - The QCD corrections to the decays gluino -> squark  + quark
#                                     squark -> gaugino + quark_prime
#                                     squark -> squark_prime + Higgs
#                                     squark -> gluino  + quark
#   are included.
#
# - The multi-body decays for the inos, stops and sbottoms are included.
#
# - The loop induced decays for the gluino, neutralinos and stops
#   are included.
#
# - The SUSY decays of the top quark are included.
#
# - Possible decays of the NLSP in GMSB models are included.
#
#
#         PDG            Width
DECAY         6     1.37371603E+00   # top decays
#          BR         NDA      ID1       ID2
     1.00000000E+00    2           5        24   # BR(t ->  b    W+)
#
#         PDG            Width
DECAY   1000021     9.90766603E-05   # gluino decays
#          BR         NDA      ID1       ID2
     2.48206743E-02    2     1000022        21   # BR(~g -> ~chi_10 g)
     4.36897343E-02    2     1000023        21   # BR(~g -> ~chi_20 g)
     1.87653479E-02    2     1000025        21   # BR(~g -> ~chi_30 g)
#          BR         NDA      ID1       ID2
     2.18893370E-05    2     1000039        21   # BR(~g -> ~G      g)
#           BR         NDA      ID1       ID2       ID3
     7.56120479E-03    3     1000022         1        -1   # BR(~g -> ~chi_10 d  db)
     8.39153802E-07    3     1000023         1        -1   # BR(~g -> ~chi_20 d  db)
     4.47251281E-03    3     1000025         1        -1   # BR(~g -> ~chi_30 d  db)
     2.34940083E-02    3     1000022         2        -2   # BR(~g -> ~chi_10 u  ub)
     7.74558028E-07    3     1000023         2        -2   # BR(~g -> ~chi_20 u  ub)
     1.65651112E-02    3     1000025         2        -2   # BR(~g -> ~chi_30 u  ub)
     7.56120479E-03    3     1000022         3        -3   # BR(~g -> ~chi_10 s  sb)
     8.39153802E-07    3     1000023         3        -3   # BR(~g -> ~chi_20 s  sb)
     4.47251281E-03    3     1000025         3        -3   # BR(~g -> ~chi_30 s  sb)
     2.34940083E-02    3     1000022         4        -4   # BR(~g -> ~chi_10 c  cb)
     7.74558028E-07    3     1000023         4        -4   # BR(~g -> ~chi_20 c  cb)
     1.65651112E-02    3     1000025         4        -4   # BR(~g -> ~chi_30 c  cb)
     7.67055575E-03    3     1000022         5        -5   # BR(~g -> ~chi_10 b  bb)
     2.59097602E-04    3     1000023         5        -5   # BR(~g -> ~chi_20 b  bb)
     4.60413444E-03    3     1000025         5        -5   # BR(~g -> ~chi_30 b  bb)
     1.03276685E-01    3     1000022         6        -6   # BR(~g -> ~chi_10 t  tb)
     1.35173149E-01    3     1000023         6        -6   # BR(~g -> ~chi_20 t  tb)
     8.61411354E-02    3     1000025         6        -6   # BR(~g -> ~chi_30 t  tb)
     1.37115027E-04    3     1000024         1        -2   # BR(~g -> ~chi_1+ d  ub)
     1.37115027E-04    3    -1000024         2        -1   # BR(~g -> ~chi_1- u  db)
     1.37115027E-04    3     1000024         3        -4   # BR(~g -> ~chi_1+ s  cb)
     1.37115027E-04    3    -1000024         4        -3   # BR(~g -> ~chi_1- c  sb)
     2.35420118E-01    3     1000024         5        -6   # BR(~g -> ~chi_1+ b  tb)
     2.35420118E-01    3    -1000024         6        -5   # BR(~g -> ~chi_1- t  bb)
#
#         PDG            Width
DECAY   1000006     3.24721542E+02   # stop1 decays
#          BR         NDA      ID1       ID2
     5.49035464E-02    2     1000022         6   # BR(~t_1 -> ~chi_10 t )
     1.09368303E-01    2     1000023         6   # BR(~t_1 -> ~chi_20 t )
     5.62158621E-02    2     1000025         6   # BR(~t_1 -> ~chi_30 t )
     2.38054718E-02    2     1000035         6   # BR(~t_1 -> ~chi_40 t )
     7.26032119E-05    2     1000024         5   # BR(~t_1 -> ~chi_1+ b )
     4.74043924E-02    2     1000037         5   # BR(~t_1 -> ~chi_2+ b )
     6.93158361E-01    2     1000021         6   # BR(~t_1 -> ~g      t )
     6.09647525E-03    2     1000005        24   # BR(~t_1 -> ~b_1    W+)
     8.97498569E-03    2     2000005        24   # BR(~t_1 -> ~b_2    W+)
#
#         PDG            Width
DECAY   2000006     4.02003820E+02   # stop2 decays
#          BR         NDA      ID1       ID2
     6.20580720E-02    2     1000022         6   # BR(~t_2 -> ~chi_10 t )
     9.42196505E-02    2     1000023         6   # BR(~t_2 -> ~chi_20 t )
     5.96914272E-02    2     1000025         6   # BR(~t_2 -> ~chi_30 t )
    -1.50943167E-06    2     1000035         6   # BR(~t_2 -> ~chi_40 t )
     1.88640182E-01    2     1000024         5   # BR(~t_2 -> ~chi_1+ b )
    -2.74433426E-06    2     1000037         5   # BR(~t_2 -> ~chi_2+ b )
     5.95401395E-01    2     1000021         6   # BR(~t_2 -> ~g      t )
    -4.97717192E-05    2     1000006        25   # BR(~t_2 -> ~t_1    h )
     6.53742549E-06    2     1000006        23   # BR(~t_2 -> ~t_1    Z )
     1.46986896E-05    2     1000005        24   # BR(~t_2 -> ~b_1    W+)
     2.20625509E-05    2     2000005        24   # BR(~t_2 -> ~b_2    W+)
#
#         PDG            Width
DECAY   1000005     2.48710209E+02   # sbottom1 decays
#          BR         NDA      ID1       ID2
     4.79927281E-03    2     1000022         5   # BR(~b_1 -> ~chi_10 b )
     7.99137536E-05    2     1000023         5   # BR(~b_1 -> ~chi_20 b )
     3.20907076E-03    2     1000025         5   # BR(~b_1 -> ~chi_30 b )
     9.14906238E-03    2     1000035         5   # BR(~b_1 -> ~chi_40 b )
     8.17015049E-02    2    -1000024         6   # BR(~b_1 -> ~chi_1- t )
     1.83735410E-02    2    -1000037         6   # BR(~b_1 -> ~chi_2- t )
     8.82687634E-01    2     1000021         5   # BR(~b_1 -> ~g      b )
#
#         PDG            Width
DECAY   2000005     2.83971873E+02   # sbottom2 decays
#          BR         NDA      ID1       ID2
     1.82690507E-03    2     1000022         5   # BR(~b_2 -> ~chi_10 b )
     1.04578746E-04    2     1000023         5   # BR(~b_2 -> ~chi_20 b )
     2.65253359E-03    2     1000025         5   # BR(~b_2 -> ~chi_30 b )
     1.68047635E-02    2     1000035         5   # BR(~b_2 -> ~chi_40 b )
     1.72021135E-01    2    -1000024         6   # BR(~b_2 -> ~chi_1- t )
     3.37584645E-02    2    -1000037         6   # BR(~b_2 -> ~chi_2- t )
     7.72831620E-01    2     1000021         5   # BR(~b_2 -> ~g      b )
#
#         PDG            Width
DECAY   1000002     2.41325127E+02   # sup_L decays
#          BR         NDA      ID1       ID2
     8.94578644E-04    2     1000022         2   # BR(~u_L -> ~chi_10 u)
     6.31527912E-07    2     1000023         2   # BR(~u_L -> ~chi_20 u)
     1.84650931E-03    2     1000025         2   # BR(~u_L -> ~chi_30 u)
     2.91847181E-02    2     1000035         2   # BR(~u_L -> ~chi_40 u)
     1.95152037E-04    2     1000024         1   # BR(~u_L -> ~chi_1+ d)
     5.83672395E-02    2     1000037         1   # BR(~u_L -> ~chi_2+ d)
     9.09511171E-01    2     1000021         2   # BR(~u_L -> ~g      u)
#
#         PDG            Width
DECAY   2000002     2.29729426E+02   # sup_R decays
#          BR         NDA      ID1       ID2
     2.18747814E-02    2     1000022         2   # BR(~u_R -> ~chi_10 u)
     1.75292688E-06    2     1000023         2   # BR(~u_R -> ~chi_20 u)
     2.26892975E-02    2     1000025         2   # BR(~u_R -> ~chi_30 u)
     5.91863556E-09    2     1000035         2   # BR(~u_R -> ~chi_40 u)
     9.55434162E-01    2     1000021         2   # BR(~u_R -> ~g      u)
#
#         PDG            Width
DECAY   1000001     2.41329037E+02   # sdown_L decays
#          BR         NDA      ID1       ID2
     1.78446252E-03    2     1000022         1   # BR(~d_L -> ~chi_10 d)
     2.07532927E-06    2     1000023         1   # BR(~d_L -> ~chi_20 d)
     9.30993850E-04    2     1000025         1   # BR(~d_L -> ~chi_30 d)
     2.92021331E-02    2     1000035         1   # BR(~d_L -> ~chi_40 d)
     1.16995682E-04    2    -1000024         2   # BR(~d_L -> ~chi_1- u)
     5.84066424E-02    2    -1000037         2   # BR(~d_L -> ~chi_2- u)
     9.09556697E-01    2     1000021         1   # BR(~d_L -> ~g      d)
#
#         PDG            Width
DECAY   2000001     2.22055500E+02   # sdown_R decays
#          BR         NDA      ID1       ID2
     5.65777958E-03    2     1000022         1   # BR(~d_R -> ~chi_10 d)
     4.53383981E-07    2     1000023         1   # BR(~d_R -> ~chi_20 d)
     5.86845104E-03    2     1000025         1   # BR(~d_R -> ~chi_30 d)
     1.53087769E-09    2     1000035         1   # BR(~d_R -> ~chi_40 d)
     9.88473314E-01    2     1000021         1   # BR(~d_R -> ~g      d)
#
#         PDG            Width
DECAY   1000004     2.41325127E+02   # scharm_L decays
#          BR         NDA      ID1       ID2
     8.94578644E-04    2     1000022         4   # BR(~c_L -> ~chi_10 c)
     6.31527912E-07    2     1000023         4   # BR(~c_L -> ~chi_20 c)
     1.84650931E-03    2     1000025         4   # BR(~c_L -> ~chi_30 c)
     2.91847181E-02    2     1000035         4   # BR(~c_L -> ~chi_40 c)
     1.95152037E-04    2     1000024         3   # BR(~c_L -> ~chi_1+ s)
     5.83672395E-02    2     1000037         3   # BR(~c_L -> ~chi_2+ s)
     9.09511171E-01    2     1000021         4   # BR(~c_L -> ~g      c)
#
#         PDG            Width
DECAY   2000004     2.29729426E+02   # scharm_R decays
#          BR         NDA      ID1       ID2
     2.18747814E-02    2     1000022         4   # BR(~c_R -> ~chi_10 c)
     1.75292688E-06    2     1000023         4   # BR(~c_R -> ~chi_20 c)
     2.26892975E-02    2     1000025         4   # BR(~c_R -> ~chi_30 c)
     5.91863556E-09    2     1000035         4   # BR(~c_R -> ~chi_40 c)
     9.55434162E-01    2     1000021         4   # BR(~c_R -> ~g      c)
#
#         PDG            Width
DECAY   1000003     2.41329037E+02   # sstrange_L decays
#          BR         NDA      ID1       ID2
     1.78446252E-03    2     1000022         3   # BR(~s_L -> ~chi_10 s)
     2.07532927E-06    2     1000023         3   # BR(~s_L -> ~chi_20 s)
     9.30993850E-04    2     1000025         3   # BR(~s_L -> ~chi_30 s)
     2.92021331E-02    2     1000035         3   # BR(~s_L -> ~chi_40 s)
     1.16995682E-04    2    -1000024         4   # BR(~s_L -> ~chi_1- c)
     5.84066424E-02    2    -1000037         4   # BR(~s_L -> ~chi_2- c)
     9.09556697E-01    2     1000021         3   # BR(~s_L -> ~g      s)
#
#         PDG            Width
DECAY   2000003     2.22055500E+02   # sstrange_R decays
#          BR         NDA      ID1       ID2
     5.65777958E-03    2     1000022         3   # BR(~s_R -> ~chi_10 s)
     4.53383981E-07    2     1000023         3   # BR(~s_R -> ~chi_20 s)
     5.86845104E-03    2     1000025         3   # BR(~s_R -> ~chi_30 s)
     1.53087769E-09    2     1000035         3   # BR(~s_R -> ~chi_40 s)
     9.88473314E-01    2     1000021         3   # BR(~s_R -> ~g      s)
#
#         PDG            Width
DECAY   1000011     2.77632228E+01   # selectron_L decays
#          BR         NDA      ID1       ID2
     9.36326281E-02    2     1000022        11   # BR(~e_L -> ~chi_10 e-)
     1.99022557E-07    2     1000023        11   # BR(~e_L -> ~chi_20 e-)
     1.21895027E-01    2     1000025        11   # BR(~e_L -> ~chi_30 e-)
     2.60980143E-01    2     1000035        11   # BR(~e_L -> ~chi_40 e-)
     1.05159022E-03    2    -1000024        12   # BR(~e_L -> ~chi_1- nu_e)
     5.22440412E-01    2    -1000037        12   # BR(~e_L -> ~chi_2- nu_e)
#
#         PDG            Width
DECAY   2000011     2.38207375E+01   # selectron_R decays
#          BR         NDA      ID1       ID2
     4.90857388E-01    2     1000022        11   # BR(~e_R -> ~chi_10 e-)
     3.93333491E-05    2     1000023        11   # BR(~e_R -> ~chi_20 e-)
     5.09103146E-01    2     1000025        11   # BR(~e_R -> ~chi_30 e-)
     1.32176998E-07    2     1000035        11   # BR(~e_R -> ~chi_40 e-)
#
#         PDG            Width
DECAY   1000013     2.77632228E+01   # smuon_L decays
#          BR         NDA      ID1       ID2
     9.36326281E-02    2     1000022        13   # BR(~mu_L -> ~chi_10 mu-)
     1.99022557E-07    2     1000023        13   # BR(~mu_L -> ~chi_20 mu-)
     1.21895027E-01    2     1000025        13   # BR(~mu_L -> ~chi_30 mu-)
     2.60980143E-01    2     1000035        13   # BR(~mu_L -> ~chi_40 mu-)
     1.05159022E-03    2    -1000024        14   # BR(~mu_L -> ~chi_1- nu_mu)
     5.22440412E-01    2    -1000037        14   # BR(~mu_L -> ~chi_2- nu_mu)
#
#         PDG            Width
DECAY   2000013     2.38207375E+01   # smuon_R decays
#          BR         NDA      ID1       ID2
     4.90857388E-01    2     1000022        13   # BR(~mu_R -> ~chi_10 mu-)
     3.93333491E-05    2     1000023        13   # BR(~mu_R -> ~chi_20 mu-)
     5.09103146E-01    2     1000025        13   # BR(~mu_R -> ~chi_30 mu-)
     1.32176998E-07    2     1000035        13   # BR(~mu_R -> ~chi_40 mu-)
#
#         PDG            Width
DECAY   1000015     2.58313751E+01   # stau_1 decays
#          BR         NDA      ID1       ID2
     2.86440395E-01    2     1000022        15   # BR(~tau_1 -> ~chi_10  tau-)
     4.58484555E-04    2     1000023        15   # BR(~tau_1 -> ~chi_20  tau-)
     2.98144043E-01    2     1000025        15   # BR(~tau_1 -> ~chi_30  tau-)
     1.37458676E-01    2     1000035        15   # BR(~tau_1 -> ~chi_40  tau-)
     2.32760821E-03    2    -1000024        16   # BR(~tau_1 -> ~chi_1-  nu_tau)
     2.75170749E-01    2    -1000037        16   # BR(~tau_1 -> ~chi_2-  nu_tau)
     4.39718010E-08    2     1000039        15   # BR(~tau_1 -> ~G       tau-)
#
#         PDG            Width
DECAY   2000015     2.58454215E+01   # stau_2 decays
#          BR         NDA      ID1       ID2
     2.67321753E-01    2     1000022        15   # BR(~tau_2 -> ~chi_10  tau-)
     7.74591543E-04    2     1000023        15   # BR(~tau_2 -> ~chi_20  tau-)
     3.02754918E-01    2     1000025        15   # BR(~tau_2 -> ~chi_30  tau-)
     1.42962350E-01    2     1000035        15   # BR(~tau_2 -> ~chi_40  tau-)
     6.70329744E-08    2    -1000024        16   # BR(~tau_2 -> ~chi_1-  nu_tau)
     2.86186320E-01    2    -1000037        16   # BR(~tau_2 -> ~chi_2-  nu_tau)
#
#         PDG            Width
DECAY   1000012     2.77625812E+01   # snu_eL decays
#          BR         NDA      ID1       ID2
     1.17624766E-01    2     1000022        12   # BR(~nu_eL -> ~chi_10 nu_e)
     3.91290797E-05    2     1000023        12   # BR(~nu_eL -> ~chi_20 nu_e)
     9.72043454E-02    2     1000025        12   # BR(~nu_eL -> ~chi_30 nu_e)
     2.61285404E-01    2     1000035        12   # BR(~nu_eL -> ~chi_40 nu_e)
     1.75409551E-03    2     1000024        11   # BR(~nu_eL -> ~chi_1+ e-)
     5.22092260E-01    2     1000037        11   # BR(~nu_eL -> ~chi_2+ e-)
#
#         PDG            Width
DECAY   1000014     2.77625812E+01   # snu_muL decays
#          BR         NDA      ID1       ID2
     1.17624766E-01    2     1000022        14   # BR(~nu_muL -> ~chi_10 nu_mu)
     3.91290797E-05    2     1000023        14   # BR(~nu_muL -> ~chi_20 nu_mu)
     9.72043454E-02    2     1000025        14   # BR(~nu_muL -> ~chi_30 nu_mu)
     2.61285404E-01    2     1000035        14   # BR(~nu_muL -> ~chi_40 nu_mu)
     1.75409551E-03    2     1000024        13   # BR(~nu_muL -> ~chi_1+ mu-)
     5.22092260E-01    2     1000037        13   # BR(~nu_muL -> ~chi_2+ mu-)
#
#         PDG            Width
DECAY   1000016     2.77935218E+01   # snu_tauL decays
#          BR         NDA      ID1       ID2
     1.17493822E-01    2     1000022        16   # BR(~nu_tauL -> ~chi_10 nu_tau)
     3.90855201E-05    2     1000023        16   # BR(~nu_tauL -> ~chi_20 nu_tau)
     9.70961346E-02    2     1000025        16   # BR(~nu_tauL -> ~chi_30 nu_tau)
     2.60994534E-01    2     1000035        16   # BR(~nu_tauL -> ~chi_40 nu_tau)
     2.86478928E-03    2     1000024        15   # BR(~nu_tauL -> ~chi_1+ tau-)
     5.21511635E-01    2     1000037        15   # BR(~nu_tauL -> ~chi_2+ tau-)
#
#         PDG            Width
DECAY   1000024     8.79449082E-05   # chargino1+ decays
#          BR         NDA      ID1       ID2
     3.16952896E-07    2     1000039        24   # BR(~chi_1+ -> ~G       W+)
#           BR         NDA      ID1       ID2       ID3
     3.33651147E-01    3     1000022         2        -1   # BR(~chi_1+ -> ~chi_10 u    db)
     3.33651147E-01    3     1000022         4        -3   # BR(~chi_1+ -> ~chi_10 c    sb)
     1.11217182E-01    3     1000022       -11        12   # BR(~chi_1+ -> ~chi_10 e+   nu_e)
     1.11217182E-01    3     1000022       -13        14   # BR(~chi_1+ -> ~chi_10 mu+  nu_mu)
     1.10263025E-01    3     1000022       -15        16   # BR(~chi_1+ -> ~chi_10 tau+ nu_tau)
#
#         PDG            Width
DECAY   1000037     3.58720880E+01   # chargino2+ decays
#          BR         NDA      ID1       ID2
     2.34625509E-01    2     1000024        23   # BR(~chi_2+ -> ~chi_1+  Z )
     1.10642992E-01    2     1000022        24   # BR(~chi_2+ -> ~chi_10  W+)
     2.28648998E-01    2     1000023        24   # BR(~chi_2+ -> ~chi_20  W+)
     1.18108860E-01    2     1000025        24   # BR(~chi_2+ -> ~chi_30  W+)
     2.35714399E-01    2     1000024        25   # BR(~chi_2+ -> ~chi_1+  h )
     1.79414484E-02    2     1000024        35   # BR(~chi_2+ -> ~chi_1+  H )
     1.81951226E-02    2     1000024        36   # BR(~chi_2+ -> ~chi_1+  A )
     1.02506061E-02    2     1000022        37   # BR(~chi_2+ -> ~chi_10  H+)
     1.79798471E-02    2     1000023        37   # BR(~chi_2+ -> ~chi_20  H+)
     7.89221472E-03    2     1000025        37   # BR(~chi_2+ -> ~chi_30  H+)
     3.03023142E-09    2     1000039        24   # BR(~chi_2+ -> ~G       W+)
     1.72528541E-13    2     1000039        37   # BR(~chi_2+ -> ~G       H+)
#
#         PDG            Width
DECAY   1000022     3.04831422E-11   # neutralino1 decays
#          BR         NDA      ID1       ID2
     5.01932760E-01    2     1000039        22   # BR(~chi_10 -> ~G        gam)
     4.87259705E-01    2     1000039        23   # BR(~chi_10 -> ~G        Z)
     1.08075351E-02    2     1000039        25   # BR(~chi_10 -> ~G        h)
#
#         PDG            Width
DECAY   1000023     9.47479830E-05   # neutralino2 decays
#          BR         NDA      ID1       ID2
     4.65162454E-04    2     1000022        22   # BR(~chi_20 -> ~chi_10 gam)
#          BR         NDA      ID1       ID2
     7.61614550E-12    2     1000039        22   # BR(~chi_20 -> ~G        gam)
     1.13929593E-08    2     1000039        23   # BR(~chi_20 -> ~G        Z)
     2.65753218E-07    2     1000039        25   # BR(~chi_20 -> ~G        h)
#           BR         NDA      ID1       ID2       ID3
     1.18869803E-01    3     1000022        -2         2   # BR(~chi_20 -> ~chi_10 ub      u)
     1.53894269E-01    3     1000022        -1         1   # BR(~chi_20 -> ~chi_10 db      d)
     1.18869803E-01    3     1000022        -4         4   # BR(~chi_20 -> ~chi_10 cb      c)
     1.53894269E-01    3     1000022        -3         3   # BR(~chi_20 -> ~chi_10 sb      s)
     1.38503235E-01    3     1000022        -5         5   # BR(~chi_20 -> ~chi_10 bb      b)
     3.51356688E-02    3     1000022       -11        11   # BR(~chi_20 -> ~chi_10 e+      e-)
     3.51356688E-02    3     1000022       -13        13   # BR(~chi_20 -> ~chi_10 mu+     mu-)
     3.47479031E-02    3     1000022       -15        15   # BR(~chi_20 -> ~chi_10 tau+    tau-)
     7.01605894E-02    3     1000022       -12        12   # BR(~chi_20 -> ~chi_10 nu_eb   nu_e)
     7.01605894E-02    3     1000022       -14        14   # BR(~chi_20 -> ~chi_10 nu_mub  nu_mu)
     7.01605894E-02    3     1000022       -16        16   # BR(~chi_20 -> ~chi_10 nu_taub nu_tau)
     4.03910107E-07    3     1000024        -2         1   # BR(~chi_20 -> ~chi_1+ ub      d)
     4.03910107E-07    3    -1000024        -1         2   # BR(~chi_20 -> ~chi_1- db      u)
     4.03910107E-07    3     1000024        -4         3   # BR(~chi_20 -> ~chi_1+ cb      s)
     4.03910107E-07    3    -1000024        -3         4   # BR(~chi_20 -> ~chi_1- sb      c)
     1.34636713E-07    3     1000024       -12        11   # BR(~chi_20 -> ~chi_1+ nu_eb   e-)
     1.34636713E-07    3    -1000024        12       -11   # BR(~chi_20 -> ~chi_1- nu_e    e+)
     1.34636713E-07    3     1000024       -14        13   # BR(~chi_20 -> ~chi_1+ nu_mub  mu-)
     1.34636713E-07    3    -1000024        14       -13   # BR(~chi_20 -> ~chi_1- nu_mu   mu+)
     8.67924084E-09    3     1000024       -16        15   # BR(~chi_20 -> ~chi_1+ nu_taub tau-)
     8.67924084E-09    3    -1000024        16       -15   # BR(~chi_20 -> ~chi_1- nu_tau  tau+)
#
#         PDG            Width
DECAY   1000025     2.75403994E-04   # neutralino3 decays
#          BR         NDA      ID1       ID2
     3.02984883E-04    2     1000022        22   # BR(~chi_30 -> ~chi_10 gam)
     4.78383897E-04    2     1000023        22   # BR(~chi_30 -> ~chi_20 gam)
#          BR         NDA      ID1       ID2
     1.17107202E-07    2     1000039        22   # BR(~chi_30 -> ~G        gam)
     9.41804408E-08    2     1000039        23   # BR(~chi_30 -> ~G        Z)
     2.51401477E-09    2     1000039        25   # BR(~chi_30 -> ~G        h)
#           BR         NDA      ID1       ID2       ID3
     6.99842985E-06    3     1000022        -2         2   # BR(~chi_30 -> ~chi_10 ub      u)
     8.32246707E-06    3     1000022        -1         1   # BR(~chi_30 -> ~chi_10 db      d)
     6.99842985E-06    3     1000022        -4         4   # BR(~chi_30 -> ~chi_10 cb      c)
     8.32246707E-06    3     1000022        -3         3   # BR(~chi_30 -> ~chi_10 sb      s)
     8.95101083E-06    3     1000022        -5         5   # BR(~chi_30 -> ~chi_10 bb      b)
     1.45091677E-06    3     1000022       -11        11   # BR(~chi_30 -> ~chi_10 e+      e-)
     1.45091677E-06    3     1000022       -13        13   # BR(~chi_30 -> ~chi_10 mu+     mu-)
     1.56495660E-06    3     1000022       -15        15   # BR(~chi_30 -> ~chi_10 tau+    tau-)
     4.07633377E-06    3     1000022       -12        12   # BR(~chi_30 -> ~chi_10 nu_eb   nu_e)
     4.07633377E-06    3     1000022       -14        14   # BR(~chi_30 -> ~chi_10 nu_mub  nu_mu)
     4.07633377E-06    3     1000022       -16        16   # BR(~chi_30 -> ~chi_10 nu_taub nu_tau)
     2.68645902E-02    3     1000023        -2         2   # BR(~chi_30 -> ~chi_20 ub      u)
     3.47802123E-02    3     1000023        -1         1   # BR(~chi_30 -> ~chi_20 db      d)
     2.68645902E-02    3     1000023        -4         4   # BR(~chi_30 -> ~chi_20 cb      c)
     3.47802123E-02    3     1000023        -3         3   # BR(~chi_30 -> ~chi_20 sb      s)
     3.08173390E-02    3     1000023        -5         5   # BR(~chi_30 -> ~chi_20 bb      b)
     7.94073112E-03    3     1000023       -11        11   # BR(~chi_30 -> ~chi_20 e+      e-)
     7.94073112E-03    3     1000023       -13        13   # BR(~chi_30 -> ~chi_20 mu+     mu-)
     7.84315656E-03    3     1000023       -15        15   # BR(~chi_30 -> ~chi_20 tau+    tau-)
     1.58562574E-02    3     1000023       -12        12   # BR(~chi_30 -> ~chi_20 nu_eb   nu_e)
     1.58562574E-02    3     1000023       -14        14   # BR(~chi_30 -> ~chi_20 nu_mub  nu_mu)
     1.58562574E-02    3     1000023       -16        16   # BR(~chi_30 -> ~chi_20 nu_taub nu_tau)
     1.29073030E-01    3     1000024        -2         1   # BR(~chi_30 -> ~chi_1+ ub      d)
     1.29073030E-01    3    -1000024        -1         2   # BR(~chi_30 -> ~chi_1- db      u)
     1.29073030E-01    3     1000024        -4         3   # BR(~chi_30 -> ~chi_1+ cb      s)
     1.29073030E-01    3    -1000024        -3         4   # BR(~chi_30 -> ~chi_1- sb      c)
     4.30242698E-02    3     1000024       -12        11   # BR(~chi_30 -> ~chi_1+ nu_eb   e-)
     4.30242698E-02    3    -1000024        12       -11   # BR(~chi_30 -> ~chi_1- nu_e    e+)
     4.30242698E-02    3     1000024       -14        13   # BR(~chi_30 -> ~chi_1+ nu_mub  mu-)
     4.30242698E-02    3    -1000024        14       -13   # BR(~chi_30 -> ~chi_1- nu_mu   mu+)
     4.26862970E-02    3     1000024       -16        15   # BR(~chi_30 -> ~chi_1+ nu_taub tau-)
     4.26862970E-02    3    -1000024        16       -15   # BR(~chi_30 -> ~chi_1- nu_tau  tau+)
#
#         PDG            Width
DECAY   1000035     3.58724911E+01   # neutralino4 decays
#          BR         NDA      ID1       ID2
     1.75149246E-03    2     1000022        23   # BR(~chi_40 -> ~chi_10   Z )
     2.31018718E-01    2     1000023        23   # BR(~chi_40 -> ~chi_20   Z )
     1.96068512E-03    2     1000025        23   # BR(~chi_40 -> ~chi_30   Z )
     2.28518512E-01    2     1000024       -24   # BR(~chi_40 -> ~chi_1+   W-)
     2.28518512E-01    2    -1000024        24   # BR(~chi_40 -> ~chi_1-   W+)
     1.12396029E-01    2     1000022        25   # BR(~chi_40 -> ~chi_10   h )
     1.73515815E-03    2     1000022        35   # BR(~chi_40 -> ~chi_10   H )
     8.49310811E-03    2     1000022        36   # BR(~chi_40 -> ~chi_10   A )
     3.68254538E-03    2     1000023        25   # BR(~chi_40 -> ~chi_20   h )
     1.46164609E-02    2     1000023        35   # BR(~chi_40 -> ~chi_20   H )
     3.28745199E-03    2     1000023        36   # BR(~chi_40 -> ~chi_20   A )
     1.19895061E-01    2     1000025        25   # BR(~chi_40 -> ~chi_30   h )
     1.47115706E-03    2     1000025        35   # BR(~chi_40 -> ~chi_30   H )
     6.40487781E-03    2     1000025        36   # BR(~chi_40 -> ~chi_30   A )
     1.81251143E-02    2     1000024       -37   # BR(~chi_40 -> ~chi_1+   H-)
     1.81251143E-02    2    -1000024        37   # BR(~chi_40 -> ~chi_1-   H+)
     7.27329374E-10    2     1000039        22   # BR(~chi_40 -> ~G        gam)
     2.30263182E-09    2     1000039        23   # BR(~chi_40 -> ~G        Z)
     1.55912207E-13    2     1000039        25   # BR(~chi_40 -> ~G        h)
     1.70816555E-13    2     1000039        35   # BR(~chi_40 -> ~G        H)
     9.64904853E-16    2     1000039        36   # BR(~chi_40 -> ~G        A)
#
#         PDG            Width
DECAY        25     4.21760357E-03   # h decays
#          BR         NDA      ID1       ID2
     6.01753655E-01    2           5        -5   # BR(h -> b       bb     )
     6.22501831E-02    2         -15        15   # BR(h -> tau+    tau-   )
     2.20338509E-04    2         -13        13   # BR(h -> mu+     mu-    )
     4.66193652E-04    2           3        -3   # BR(h -> s       sb     )
     2.01124027E-02    2           4        -4   # BR(h -> c       cb     )
     6.64196285E-02    2          21        21   # BR(h -> g       g      )
     2.31018254E-03    2          22        22   # BR(h -> gam     gam    )
     1.62683349E-03    2          22        23   # BR(h -> Z       gam    )
     2.16754604E-01    2          24       -24   # BR(h -> W+      W-     )
     2.80859790E-02    2          23        23   # BR(h -> Z       Z      )
#
#         PDG            Width
DECAY        35     3.95229003E+01   # H decays
#          BR         NDA      ID1       ID2
     1.40980229E-03    2           5        -5   # BR(H -> b       bb     )
     2.35797503E-04    2         -15        15   # BR(H -> tau+    tau-   )
     8.33631960E-07    2         -13        13   # BR(H -> mu+     mu-    )
     1.06732223E-06    2           3        -3   # BR(H -> s       sb     )
     9.63234462E-06    2           4        -4   # BR(H -> c       cb     )
     9.53087073E-01    2           6        -6   # BR(H -> t       tb     )
     7.63214273E-04    2          21        21   # BR(H -> g       g      )
     2.62670223E-06    2          22        22   # BR(H -> gam     gam    )
     1.10936842E-06    2          23        22   # BR(H -> Z       gam    )
     3.20748573E-04    2          24       -24   # BR(H -> W+      W-     )
     1.59936980E-04    2          23        23   # BR(H -> Z       Z      )
     8.65314444E-04    2          25        25   # BR(H -> h       h      )
     1.17169881E-23    2          36        36   # BR(H -> A       A      )
     4.66770985E-11    2          23        36   # BR(H -> Z       A      )
     4.74873689E-12    2          24       -37   # BR(H -> W+      H-     )
     4.74873689E-12    2         -24        37   # BR(H -> W-      H+     )
     3.34261653E-05    2     1000024  -1000024   # BR(H -> ~chi_1+ ~chi_1-)
     6.02078794E-04    2     1000022   1000022   # BR(H -> ~chi_10 ~chi_10)
     8.43452524E-06    2     1000023   1000023   # BR(H -> ~chi_20 ~chi_20)
     2.93298897E-04    2     1000025   1000025   # BR(H -> ~chi_30 ~chi_30)
     2.36382319E-02    2     1000022   1000023   # BR(H -> ~chi_10 ~chi_20)
     2.34446577E-08    2     1000022   1000025   # BR(H -> ~chi_10 ~chi_30)
     1.85673497E-02    2     1000023   1000025   # BR(H -> ~chi_20 ~chi_30)
#
#         PDG            Width
DECAY        36     3.99689186E+01   # A decays
#          BR         NDA      ID1       ID2
     1.41235554E-03    2           5        -5   # BR(A -> b       bb     )
     2.33336720E-04    2         -15        15   # BR(A -> tau+    tau-   )
     8.24929598E-07    2         -13        13   # BR(A -> mu+     mu-    )
     1.08755058E-06    2           3        -3   # BR(A -> s       sb     )
     9.53041108E-06    2           4        -4   # BR(A -> c       cb     )
     9.53825131E-01    2           6        -6   # BR(A -> t       tb     )
     9.02813607E-04    2          21        21   # BR(A -> g       g      )
     2.76235006E-06    2          22        22   # BR(A -> gam     gam    )
     1.29349832E-06    2          23        22   # BR(A -> Z       gam    )
     3.12384103E-04    2          23        25   # BR(A -> Z       h      )
     6.29386917E-04    2     1000024  -1000024   # BR(A -> ~chi_1+ ~chi_1-)
     2.46442176E-02    2     1000022   1000022   # BR(A -> ~chi_10 ~chi_10)
     6.40038999E-07    2     1000023   1000023   # BR(A -> ~chi_20 ~chi_20)
     1.71263895E-02    2     1000025   1000025   # BR(A -> ~chi_30 ~chi_30)
     4.42060860E-04    2     1000022   1000023   # BR(A -> ~chi_10 ~chi_20)
     5.24176527E-05    2     1000022   1000025   # BR(A -> ~chi_10 ~chi_30)
     4.03367705E-04    2     1000023   1000025   # BR(A -> ~chi_20 ~chi_30)
#
#         PDG            Width
DECAY        37     3.91583897E+01   # H+ decays
#          BR         NDA      ID1       ID2
     2.26639061E-06    2           4        -5   # BR(H+ -> c       bb     )
     2.38414642E-04    2         -15        16   # BR(H+ -> tau+    nu_tau )
     8.42881881E-07    2         -13        14   # BR(H+ -> mu+     nu_mu  )
     1.44093548E-08    2           2        -5   # BR(H+ -> u       bb     )
     5.21977678E-08    2           2        -3   # BR(H+ -> u       sb     )
     1.04006020E-05    2           4        -3   # BR(H+ -> c       sb     )
     9.55976294E-01    2           6        -5   # BR(H+ -> t       bb     )
     3.20304057E-04    2          24        25   # BR(H+ -> W+      h      )
     1.31920677E-12    2          24        36   # BR(H+ -> W+      A      )
     2.17101641E-02    2     1000024   1000022   # BR(H+ -> ~chi_1+ ~chi_10)
     1.47325499E-04    2     1000024   1000023   # BR(H+ -> ~chi_1+ ~chi_20)
     2.15939214E-02    2     1000024   1000025   # BR(H+ -> ~chi_1+ ~chi_30)
