#
#                              ======================
#                              | THE SUSYHIT OUTPUT |
#                              ======================
#
#
#              ------------------------------------------------------
#              |     This is the output of the SUSY-HIT package     |
#              |  created by A.Djouadi, M.Muehlleitner and M.Spira. |
#              |  In case of problems with SUSY-HIT email to        |
#              |           margarete.muehlleitner@kit.edu           |
#              |           michael.spira@psi.ch                     |
#              |           abdelhak.djouadi@cern.ch                 |
#              ------------------------------------------------------
#
#              ------------------------------------------------------
#              |  SUSY Les Houches Accord - MSSM Spectrum + Decays  |
#              |              based on the decay programs           |
#              |                                                    |
#              |                     SDECAY 1.5                     |
#              |                                                    |
#              |  Authors: M.Muhlleitner, A.Djouadi and Y.Mambrini  |
#              |  Ref.:    Comput.Phys.Commun.168(2005)46           |
#              |           [hep-ph/0311167]                         |
#              |                                                    |
#              |                     HDECAY 3.4                     |
#              |                                                    |
#              |  By: A.Djouadi,J.Kalinowski,M.Muhlleitner,M.Spira  |
#              |  Ref.:    Comput.Phys.Commun.108(1998)56           |
#              |           [hep-ph/9704448]                         |
#              |                                                    |
#              |                                                    |
#              |  If not stated otherwise all DRbar couplings and   |
#              |  soft SUSY breaking masses are given at the scale  |
#              |  Q=  0.91187600E+02
#              |                                                    |
#              ------------------------------------------------------
#
#
BLOCK DCINFO  # Decay Program information
     1   SDECAY/HDECAY # decay calculator
     2   1.5  /3.4    # version number
#
BLOCK SPINFO  # Spectrum calculator information
     1   SuSpect     # RGE +Spectrum calculator            
     2   2.43         # version number                     
#
BLOCK MODSEL  # Model selection
     1     2   # GMSB                                              
#
BLOCK SMINPUTS  # Standard Model inputs
         1     1.27932904E+02   # alpha_em^-1(M_Z)^MSbar
         2     1.16639000E-05   # G_F [GeV^-2]
         3     1.17200000E-01   # alpha_S(M_Z)^MSbar
         4     9.11870000E+01   # M_Z pole mass
         5     4.25000000E+00   # mb(mb)^MSbar
         6     1.72900000E+02   # mt pole mass
         7     1.77700000E+00   # mtau pole mass
#
BLOCK MINPAR  # Input parameters - minimal models
#
BLOCK EXTPAR  # Input parameters - non-minimal models
         0     9.11876000E+01   # EWSB                
         1     1.08100000E+03   # M_1                 
         2     3.00000000E+03   # M_2                 
         3     1.00000000E+03   # M_3                 
        11     0.00000000E+00   # A_t                 
        12     0.00000000E+00   # A_b                 
        13     0.00000000E+00   # A_tau               
        14     0.00000000E+00   # A_u                 
        15     0.00000000E+00   # A_d                 
        16     0.00000000E+00   # A_e                 
        23     1.08000000E+03   # mu(EWSB)            
        25     1.50000000E+00   # tanbeta(in)         
        26     2.00000000E+03   # MA_pole             
        31     5.00000000E+03   # M_eL                
        32     5.00000000E+03   # M_muL               
        33     5.00000000E+03   # M_tauL              
        34     5.00000000E+03   # M_eR                
        35     5.00000000E+03   # M_muR               
        36     5.00000000E+03   # M_tauR              
        41     5.00000000E+03   # M_q1L               
        42     5.00000000E+03   # M_q2L               
        43     5.00000000E+03   # M_q3L               
        44     5.00000000E+03   # M_uR                
        45     5.00000000E+03   # M_cR                
        46     5.00000000E+03   # M_tR                
        47     5.00000000E+03   # M_dR                
        48     5.00000000E+03   # M_sR                
        49     5.00000000E+03   # M_bR                
#
BLOCK MASS  # Mass Spectrum
# PDG code           mass       particle
        24     8.05406636E+01   # W+
        25     1.26000000E+02   # h
        35     2.00404250E+03   # H
        36     2.00000000E+03   # A
        37     2.00152172E+03   # H+
         5     4.87877839E+00   # b-quark pole mass calculated from mb(mb)_Msbar
   1000001     5.02256726E+03   # ~d_L
   2000001     5.02245820E+03   # ~d_R
   1000002     5.02232342E+03   # ~u_L
   2000002     5.02238107E+03   # ~u_R
   1000003     5.02256726E+03   # ~s_L
   2000003     5.02245820E+03   # ~s_R
   1000004     5.02232342E+03   # ~c_L
   2000004     5.02238107E+03   # ~c_R
   1000005     5.02206860E+03   # ~b_1
   2000005     5.02295828E+03   # ~b_2
   1000006     5.14435182E+03   # ~t_1
   2000006     5.43837583E+03   # ~t_2
   1000011     5.00008222E+03   # ~e_L
   2000011     5.00007607E+03   # ~e_R
   1000012     4.99984171E+03   # ~nu_eL
   1000013     5.00008222E+03   # ~mu_L
   2000013     5.00007607E+03   # ~mu_R
   1000014     4.99984171E+03   # ~nu_muL
   1000015     4.99979137E+03   # ~tau_1
   2000015     5.00036753E+03   # ~tau_2
   1000016     4.99984171E+03   # ~nu_tauL
   1000021     1.14583770E+03   # ~g
   1000022     1.10407258E+03   # ~chi_10
   1000023    -1.15198673E+03   # ~chi_20
   1000025     1.19124958E+03   # ~chi_30
   1000035     3.12876623E+03   # ~chi_40
   1000024     1.14891196E+03   # ~chi_1+
   1000037     3.12876483E+03   # ~chi_2+
   1000039     2.26533333E-07   # ~gravitino
#
BLOCK NMIX  # Neutralino Mixing Matrix
  1  1     7.16727042E-01   # N_11
  1  2    -2.67055136E-02   # N_12
  1  3     4.94826599E-01   # N_13
  1  4    -4.90648346E-01   # N_14
  2  1     3.79825489E-03   # N_21
  2  2    -3.62887625E-03   # N_22
  2  3    -7.06959811E-01   # N_23
  2  4    -7.07234211E-01   # N_24
  3  1     6.97342920E-01   # N_31
  3  2     2.87265138E-02   # N_32
  3  3    -5.04699009E-01   # N_33
  3  4     5.08100925E-01   # N_34
  4  1     8.78565693E-04   # N_41
  4  2    -9.99223916E-01   # N_42
  4  3    -2.51669034E-02   # N_43
  4  4     3.02889565E-02   # N_44
#
BLOCK UMIX  # Chargino Mixing Matrix U
  1  1    -3.55723917E-02   # U_11
  1  2     9.99367102E-01   # U_12
  2  1     9.99367102E-01   # U_21
  2  2     3.55723917E-02   # U_22
#
BLOCK VMIX  # Chargino Mixing Matrix V
  1  1    -4.28176469E-02   # V_11
  1  2     9.99082904E-01   # V_12
  2  1     9.99082904E-01   # V_21
  2  2     4.28176469E-02   # V_22
#
BLOCK STOPMIX  # Stop Mixing Matrix
  1  1     9.99977574E-01   # cos(theta_t)
  1  2     6.69712603E-03   # sin(theta_t)
  2  1    -6.69712603E-03   # -sin(theta_t)
  2  2     9.99977574E-01   # cos(theta_t)
#
BLOCK SBOTMIX  # Sbottom Mixing Matrix
  1  1     6.62348927E-01   # cos(theta_b)
  1  2     7.49195501E-01   # sin(theta_b)
  2  1    -7.49195501E-01   # -sin(theta_b)
  2  2     6.62348927E-01   # cos(theta_b)
#
BLOCK STAUMIX  # Stau Mixing Matrix
  1  1     7.03321541E-01   # cos(theta_tau)
  1  2     7.10871866E-01   # sin(theta_tau)
  2  1    -7.10871866E-01   # -sin(theta_tau)
  2  2     7.03321541E-01   # cos(theta_tau)
#
BLOCK ALPHA  # Higgs mixing
          -5.90197181E-01   # Mixing angle in the neutral Higgs boson sector
#
BLOCK HMIX Q=  9.11876000E+01  # DRbar Higgs Parameters
         1     1.08000000E+03   # mu(Q)               
         2     1.49999979E+00   # tanbeta(Q)          
         3     2.52101699E+02   # vev(Q)              
         4     3.52730325E+06   # MA^2(Q)             
#
BLOCK GAUGE Q=  9.11876000E+01  # The gauge couplings
     1     3.52809003E-01   # gprime(Q) DRbar
     2     6.27341024E-01   # g(Q) DRbar
     3     1.09169784E+00   # g3(Q) DRbar
#
BLOCK AU Q=  9.11876000E+01  # The trilinear couplings
  1  1     0.00000000E+00   # A_u(Q) DRbar
  2  2     0.00000000E+00   # A_c(Q) DRbar
  3  3     0.00000000E+00   # A_t(Q) DRbar
#
BLOCK AD Q=  9.11876000E+01  # The trilinear couplings
  1  1     0.00000000E+00   # A_d(Q) DRbar
  2  2     0.00000000E+00   # A_s(Q) DRbar
  3  3     0.00000000E+00   # A_b(Q) DRbar
#
BLOCK AE Q=  9.11876000E+01  # The trilinear couplings
  1  1     0.00000000E+00   # A_e(Q) DRbar
  2  2     0.00000000E+00   # A_mu(Q) DRbar
  3  3     0.00000000E+00   # A_tau(Q) DRbar
#
BLOCK Yu Q=  9.11876000E+01  # The Yukawa couplings
  1  1     0.00000000E+00   # y_u(Q) DRbar
  2  2     0.00000000E+00   # y_c(Q) DRbar
  3  3     1.02476528E+00   # y_t(Q) DRbar
#
BLOCK Yd Q=  9.11876000E+01  # The Yukawa couplings
  1  1     0.00000000E+00   # y_d(Q) DRbar
  2  2     0.00000000E+00   # y_s(Q) DRbar
  3  3     2.71839173E-02   # y_b(Q) DRbar
#
BLOCK Ye Q=  9.11876000E+01  # The Yukawa couplings
  1  1     0.00000000E+00   # y_e(Q) DRbar
  2  2     0.00000000E+00   # y_mu(Q) DRbar
  3  3     1.79828587E-02   # y_tau(Q) DRbar
#
BLOCK MSOFT Q=  9.11876000E+01  # The soft SUSY breaking masses at the scale Q
         1     1.08100000E+03   # M_1                 
         2     3.00000000E+03   # M_2                 
         3     1.00000000E+03   # M_3                 
        14     0.00000000E+00   # A_u                 
        15     0.00000000E+00   # A_d                 
        16     0.00000000E+00   # A_e                 
        21     1.74367823E+06   # M^2_Hd              
        22    -6.57818125E+06   # M^2_Hu              
        31     5.00000000E+03   # M_eL                
        32     5.00000000E+03   # M_muL               
        33     5.00000000E+03   # M_tauL              
        34     5.00000000E+03   # M_eR                
        35     5.00000000E+03   # M_muR               
        36     5.00000000E+03   # M_tauR              
        41     5.00000000E+03   # M_q1L               
        42     5.00000000E+03   # M_q2L               
        43     5.00000000E+03   # M_q3L               
        44     5.00000000E+03   # M_uR                
        45     5.00000000E+03   # M_cR                
        46     5.00000000E+03   # M_tR                
        47     5.00000000E+03   # M_dR                
        48     5.00000000E+03   # M_sR                
        49     5.00000000E+03   # M_bR                
#
#
#
#                             =================
#                             |The decay table|
#                             =================
#
# - The QCD corrections to the decays gluino -> squark  + quark
#                                     squark -> gaugino + quark_prime
#                                     squark -> squark_prime + Higgs
#                                     squark -> gluino  + quark
#   are included.
#
# - The multi-body decays for the inos, stops and sbottoms are included.
#
# - The loop induced decays for the gluino, neutralinos and stops
#   are included.
#
# - The SUSY decays of the top quark are included.
#
# - Possible decays of the NLSP in GMSB models are included.
#
#
#         PDG            Width
DECAY         6     1.37122789E+00   # top decays
#          BR         NDA      ID1       ID2
     1.00000000E+00    2           5        24   # BR(t ->  b    W+)
#
#         PDG            Width
DECAY   1000021     9.39352065E-10   # gluino decays
#          BR         NDA      ID1       ID2
     9.43586520E-01    2     1000022        21   # BR(~g -> ~chi_10 g)
#          BR         NDA      ID1       ID2
     4.71747185E-02    2     1000039        21   # BR(~g -> ~G      g)
#           BR         NDA      ID1       ID2       ID3
     1.03446809E-03    3     1000022         1        -1   # BR(~g -> ~chi_10 d  db)
     3.16664874E-03    3     1000022         2        -2   # BR(~g -> ~chi_10 u  ub)
     1.03446809E-03    3     1000022         3        -3   # BR(~g -> ~chi_10 s  sb)
     3.16664874E-03    3     1000022         4        -4   # BR(~g -> ~chi_10 c  cb)
     8.36527998E-04    3     1000022         5        -5   # BR(~g -> ~chi_10 b  bb)
#
#         PDG            Width
DECAY   1000006     3.32867304E+02   # stop1 decays
#          BR         NDA      ID1       ID2
     4.86512362E-02    2     1000022         6   # BR(~t_1 -> ~chi_10 t )
     9.97172763E-02    2     1000023         6   # BR(~t_1 -> ~chi_20 t )
     5.27404774E-02    2     1000025         6   # BR(~t_1 -> ~chi_30 t )
     2.33894037E-02    2     1000035         6   # BR(~t_1 -> ~chi_40 t )
     1.22784408E-04    2     1000024         5   # BR(~t_1 -> ~chi_1+ b )
     4.64822261E-02    2     1000037         5   # BR(~t_1 -> ~chi_2+ b )
     7.17228964E-01    2     1000021         6   # BR(~t_1 -> ~g      t )
     5.22982606E-03    2     1000005        24   # BR(~t_1 -> ~b_1    W+)
     6.43780619E-03    2     2000005        24   # BR(~t_1 -> ~b_2    W+)
#
#         PDG            Width
DECAY   2000006     4.05044772E+02   # stop2 decays
#          BR         NDA      ID1       ID2
     5.60387476E-02    2     1000022         6   # BR(~t_2 -> ~chi_10 t )
     8.78854656E-02    2     1000023         6   # BR(~t_2 -> ~chi_20 t )
     5.77152938E-02    2     1000025         6   # BR(~t_2 -> ~chi_30 t )
     3.91539583E-05    2     1000035         6   # BR(~t_2 -> ~chi_40 t )
     1.76017600E-01    2     1000024         5   # BR(~t_2 -> ~chi_1+ b )
     7.88499219E-05    2     1000037         5   # BR(~t_2 -> ~chi_2+ b )
     6.22186864E-01    2     1000021         6   # BR(~t_2 -> ~g      t )
    -7.23935337E-06    2     1000006        25   # BR(~t_2 -> ~t_1    h )
     6.24109750E-06    2     1000006        23   # BR(~t_2 -> ~t_1    Z )
     1.71965211E-05    2     1000005        24   # BR(~t_2 -> ~b_1    W+)
     2.18266130E-05    2     2000005        24   # BR(~t_2 -> ~b_2    W+)
#
#         PDG            Width
DECAY   1000005     2.69869995E+02   # sbottom1 decays
#          BR         NDA      ID1       ID2
     4.13768049E-03    2     1000022         5   # BR(~b_1 -> ~chi_10 b )
     7.20070121E-05    2     1000023         5   # BR(~b_1 -> ~chi_20 b )
     2.24436189E-03    2     1000025         5   # BR(~b_1 -> ~chi_30 b )
     1.07900677E-02    2     1000035         5   # BR(~b_1 -> ~chi_40 b )
     9.53910805E-02    2    -1000024         6   # BR(~b_1 -> ~chi_1- t )
     2.17171403E-02    2    -1000037         6   # BR(~b_1 -> ~chi_2- t )
     8.65647662E-01    2     1000021         5   # BR(~b_1 -> ~g      b )
#
#         PDG            Width
DECAY   2000005     2.86400474E+02   # sbottom2 decays
#          BR         NDA      ID1       ID2
     2.07972846E-03    2     1000022         5   # BR(~b_2 -> ~chi_10 b )
     9.30552195E-05    2     1000023         5   # BR(~b_2 -> ~chi_20 b )
     2.62197428E-03    2     1000025         5   # BR(~b_2 -> ~chi_30 b )
     1.47028500E-02    2     1000035         5   # BR(~b_2 -> ~chi_40 b )
     1.35349485E-01    2    -1000024         6   # BR(~b_2 -> ~chi_1- t )
     2.95971938E-02    2    -1000037         6   # BR(~b_2 -> ~chi_2- t )
     8.15555714E-01    2     1000021         5   # BR(~b_2 -> ~g      b )
#
#         PDG            Width
DECAY   1000002     2.55627759E+02   # sup_L decays
#          BR         NDA      ID1       ID2
     7.80497443E-04    2     1000022         2   # BR(~u_L -> ~chi_10 u)
     5.67816082E-07    2     1000023         2   # BR(~u_L -> ~chi_20 u)
     1.68377131E-03    2     1000025         2   # BR(~u_L -> ~chi_30 u)
     2.78402498E-02    2     1000035         2   # BR(~u_L -> ~chi_40 u)
     2.44857959E-04    2     1000024         1   # BR(~u_L -> ~chi_1+ d)
     5.56832026E-02    2     1000037         1   # BR(~u_L -> ~chi_2+ d)
     9.13766853E-01    2     1000021         2   # BR(~u_L -> ~g      u)
#
#         PDG            Width
DECAY   2000002     2.43189071E+02   # sup_R decays
#          BR         NDA      ID1       ID2
     2.04473909E-02    2     1000022         2   # BR(~u_R -> ~chi_10 u)
     5.69073761E-07    2     1000023         2   # BR(~u_R -> ~chi_20 u)
     1.90341780E-02    2     1000025         2   # BR(~u_R -> ~chi_30 u)
     1.27253593E-08    2     1000035         2   # BR(~u_R -> ~chi_40 u)
     9.60517849E-01    2     1000021         2   # BR(~u_R -> ~g      u)
#
#         PDG            Width
DECAY   1000001     2.55631651E+02   # sdown_L decays
#          BR         NDA      ID1       ID2
     1.74715881E-03    2     1000022         1   # BR(~d_L -> ~chi_10 d)
     1.25765368E-06    2     1000023         1   # BR(~d_L -> ~chi_20 d)
     6.89025174E-04    2     1000025         1   # BR(~d_L -> ~chi_30 d)
     2.78629444E-02    2     1000035         1   # BR(~d_L -> ~chi_40 d)
     1.69010601E-04    2    -1000024         2   # BR(~d_L -> ~chi_1- u)
     5.57235527E-02    2    -1000037         2   # BR(~d_L -> ~chi_2- u)
     9.13807051E-01    2     1000021         1   # BR(~d_L -> ~g      d)
#
#         PDG            Width
DECAY   2000001     2.35992270E+02   # sdown_R decays
#          BR         NDA      ID1       ID2
     5.26783573E-03    2     1000022         1   # BR(~d_R -> ~chi_10 d)
     1.46609804E-07    2     1000023         1   # BR(~d_R -> ~chi_20 d)
     4.90375413E-03    2     1000025         1   # BR(~d_R -> ~chi_30 d)
     3.27853479E-09    2     1000035         1   # BR(~d_R -> ~chi_40 d)
     9.89828260E-01    2     1000021         1   # BR(~d_R -> ~g      d)
#
#         PDG            Width
DECAY   1000004     2.55627759E+02   # scharm_L decays
#          BR         NDA      ID1       ID2
     7.80497443E-04    2     1000022         4   # BR(~c_L -> ~chi_10 c)
     5.67816082E-07    2     1000023         4   # BR(~c_L -> ~chi_20 c)
     1.68377131E-03    2     1000025         4   # BR(~c_L -> ~chi_30 c)
     2.78402498E-02    2     1000035         4   # BR(~c_L -> ~chi_40 c)
     2.44857959E-04    2     1000024         3   # BR(~c_L -> ~chi_1+ s)
     5.56832026E-02    2     1000037         3   # BR(~c_L -> ~chi_2+ s)
     9.13766853E-01    2     1000021         4   # BR(~c_L -> ~g      c)
#
#         PDG            Width
DECAY   2000004     2.43189071E+02   # scharm_R decays
#          BR         NDA      ID1       ID2
     2.04473909E-02    2     1000022         4   # BR(~c_R -> ~chi_10 c)
     5.69073761E-07    2     1000023         4   # BR(~c_R -> ~chi_20 c)
     1.90341780E-02    2     1000025         4   # BR(~c_R -> ~chi_30 c)
     1.27253593E-08    2     1000035         4   # BR(~c_R -> ~chi_40 c)
     9.60517849E-01    2     1000021         4   # BR(~c_R -> ~g      c)
#
#         PDG            Width
DECAY   1000003     2.55631651E+02   # sstrange_L decays
#          BR         NDA      ID1       ID2
     1.74715881E-03    2     1000022         3   # BR(~s_L -> ~chi_10 s)
     1.25765368E-06    2     1000023         3   # BR(~s_L -> ~chi_20 s)
     6.89025174E-04    2     1000025         3   # BR(~s_L -> ~chi_30 s)
     2.78629444E-02    2     1000035         3   # BR(~s_L -> ~chi_40 s)
     1.69010601E-04    2    -1000024         4   # BR(~s_L -> ~chi_1- c)
     5.57235527E-02    2    -1000037         4   # BR(~s_L -> ~chi_2- c)
     9.13807051E-01    2     1000021         3   # BR(~s_L -> ~g      s)
#
#         PDG            Width
DECAY   2000003     2.35992270E+02   # sstrange_R decays
#          BR         NDA      ID1       ID2
     5.26783573E-03    2     1000022         3   # BR(~s_R -> ~chi_10 s)
     1.46609804E-07    2     1000023         3   # BR(~s_R -> ~chi_20 s)
     4.90375413E-03    2     1000025         3   # BR(~s_R -> ~chi_30 s)
     3.27853479E-09    2     1000035         3   # BR(~s_R -> ~chi_40 s)
     9.89828260E-01    2     1000021         3   # BR(~s_R -> ~g      s)
#
#         PDG            Width
DECAY   1000011     2.73415642E+01   # selectron_L decays
#          BR         NDA      ID1       ID2
     9.17658343E-02    2     1000022        11   # BR(~e_L -> ~chi_10 e-)
     1.43047588E-06    2     1000023        11   # BR(~e_L -> ~chi_20 e-)
     1.12841859E-01    2     1000025        11   # BR(~e_L -> ~chi_30 e-)
     2.64363247E-01    2     1000035        11   # BR(~e_L -> ~chi_40 e-)
     1.62555797E-03    2    -1000024        12   # BR(~e_L -> ~chi_1- nu_e)
     5.29402071E-01    2    -1000037        12   # BR(~e_L -> ~chi_2- nu_e)
#
#         PDG            Width
DECAY   2000011     2.22251536E+01   # selectron_R decays
#          BR         NDA      ID1       ID2
     5.17918364E-01    2     1000022        11   # BR(~e_R -> ~chi_10 e-)
     1.44133481E-05    2     1000023        11   # BR(~e_R -> ~chi_20 e-)
     4.82066905E-01    2     1000025        11   # BR(~e_R -> ~chi_30 e-)
     3.18391989E-07    2     1000035        11   # BR(~e_R -> ~chi_40 e-)
#
#         PDG            Width
DECAY   1000013     2.73415642E+01   # smuon_L decays
#          BR         NDA      ID1       ID2
     9.17658343E-02    2     1000022        13   # BR(~mu_L -> ~chi_10 mu-)
     1.43047588E-06    2     1000023        13   # BR(~mu_L -> ~chi_20 mu-)
     1.12841859E-01    2     1000025        13   # BR(~mu_L -> ~chi_30 mu-)
     2.64363247E-01    2     1000035        13   # BR(~mu_L -> ~chi_40 mu-)
     1.62555797E-03    2    -1000024        14   # BR(~mu_L -> ~chi_1- nu_mu)
     5.29402071E-01    2    -1000037        14   # BR(~mu_L -> ~chi_2- nu_mu)
#
#         PDG            Width
DECAY   2000013     2.22251536E+01   # smuon_R decays
#          BR         NDA      ID1       ID2
     5.17918364E-01    2     1000022        13   # BR(~mu_R -> ~chi_10 mu-)
     1.44133481E-05    2     1000023        13   # BR(~mu_R -> ~chi_20 mu-)
     4.82066905E-01    2     1000025        13   # BR(~mu_R -> ~chi_30 mu-)
     3.18391989E-07    2     1000035        13   # BR(~mu_R -> ~chi_40 mu-)
#
#         PDG            Width
DECAY   1000015     2.48320830E+01   # stau_1 decays
#          BR         NDA      ID1       ID2
     2.90678652E-01    2     1000022        15   # BR(~tau_1 -> ~chi_10  tau-)
     4.71107069E-04    2     1000023        15   # BR(~tau_1 -> ~chi_20  tau-)
     2.74593766E-01    2     1000025        15   # BR(~tau_1 -> ~chi_30  tau-)
     1.43658478E-01    2     1000035        15   # BR(~tau_1 -> ~chi_40  tau-)
     2.91303868E-03    2    -1000024        16   # BR(~tau_1 -> ~chi_1-  nu_tau)
     2.87684956E-01    2    -1000037        16   # BR(~tau_1 -> ~chi_2-  nu_tau)
     2.82272414E-09    2     1000039        15   # BR(~tau_1 -> ~G       tau-)
#
#         PDG            Width
DECAY   2000015     2.48211574E+01   # stau_2 decays
#          BR         NDA      ID1       ID2
     2.74598800E-01    2     1000022        15   # BR(~tau_2 -> ~chi_10  tau-)
     7.04718213E-04    2     1000023        15   # BR(~tau_2 -> ~chi_20  tau-)
     2.81823730E-01    2     1000025        15   # BR(~tau_2 -> ~chi_30  tau-)
     1.47487004E-01    2     1000035        15   # BR(~tau_2 -> ~chi_40  tau-)
     3.73782262E-05    2    -1000024        16   # BR(~tau_2 -> ~chi_1-  nu_tau)
     2.95348369E-01    2    -1000037        16   # BR(~tau_2 -> ~chi_2-  nu_tau)
#
#         PDG            Width
DECAY   1000012     2.73419208E+01   # snu_eL decays
#          BR         NDA      ID1       ID2
     1.19650294E-01    2     1000022        12   # BR(~nu_eL -> ~chi_10 nu_e)
     2.13328801E-05    2     1000023        12   # BR(~nu_eL -> ~chi_20 nu_e)
     8.41325643E-02    2     1000025        12   # BR(~nu_eL -> ~chi_30 nu_e)
     2.64837659E-01    2     1000035        12   # BR(~nu_eL -> ~chi_40 nu_e)
     2.35499890E-03    2     1000024        11   # BR(~nu_eL -> ~chi_1+ e-)
     5.29003151E-01    2     1000037        11   # BR(~nu_eL -> ~chi_2+ e-)
#
#         PDG            Width
DECAY   1000014     2.73419208E+01   # snu_muL decays
#          BR         NDA      ID1       ID2
     1.19650294E-01    2     1000022        14   # BR(~nu_muL -> ~chi_10 nu_mu)
     2.13328801E-05    2     1000023        14   # BR(~nu_muL -> ~chi_20 nu_mu)
     8.41325643E-02    2     1000025        14   # BR(~nu_muL -> ~chi_30 nu_mu)
     2.64837659E-01    2     1000035        14   # BR(~nu_muL -> ~chi_40 nu_mu)
     2.35499890E-03    2     1000024        13   # BR(~nu_muL -> ~chi_1+ mu-)
     5.29003151E-01    2     1000037        13   # BR(~nu_muL -> ~chi_2+ mu-)
#
#         PDG            Width
DECAY   1000016     2.73707554E+01   # snu_tauL decays
#          BR         NDA      ID1       ID2
     1.19524245E-01    2     1000022        16   # BR(~nu_tauL -> ~chi_10 nu_tau)
     2.13104063E-05    2     1000023        16   # BR(~nu_tauL -> ~chi_20 nu_tau)
     8.40439322E-02    2     1000025        16   # BR(~nu_tauL -> ~chi_30 nu_tau)
     2.64558658E-01    2     1000035        16   # BR(~nu_tauL -> ~chi_40 nu_tau)
     3.40502063E-03    2     1000024        15   # BR(~nu_tauL -> ~chi_1+ tau-)
     5.28446835E-01    2     1000037        15   # BR(~nu_tauL -> ~chi_2+ tau-)
#
#         PDG            Width
DECAY   1000024     1.13505385E-04   # chargino1+ decays
#          BR         NDA      ID1       ID2
     1.94395175E-07    2     1000039        24   # BR(~chi_1+ -> ~G       W+)
#           BR         NDA      ID1       ID2       ID3
     3.33620149E-01    3     1000022         2        -1   # BR(~chi_1+ -> ~chi_10 u    db)
     3.33620149E-01    3     1000022         4        -3   # BR(~chi_1+ -> ~chi_10 c    sb)
     1.11206848E-01    3     1000022       -11        12   # BR(~chi_1+ -> ~chi_10 e+   nu_e)
     1.11206848E-01    3     1000022       -13        14   # BR(~chi_1+ -> ~chi_10 mu+  nu_mu)
     1.10345811E-01    3     1000022       -15        16   # BR(~chi_1+ -> ~chi_10 tau+ nu_tau)
     1.63256491E-12    3     1000021         2        -1   # BR(~chi_1+ -> ~g      u    db)
     1.63256491E-12    3     1000021         4        -3   # BR(~chi_1+ -> ~g      c    sb)
#
#         PDG            Width
DECAY   1000037     3.75028985E+01   # chargino2+ decays
#          BR         NDA      ID1       ID2
     2.52865634E-01    2     1000024        23   # BR(~chi_2+ -> ~chi_1+  Z )
     1.13130060E-01    2     1000022        24   # BR(~chi_2+ -> ~chi_10  W+)
     2.46173186E-01    2     1000023        24   # BR(~chi_2+ -> ~chi_20  W+)
     1.33367131E-01    2     1000025        24   # BR(~chi_2+ -> ~chi_30  W+)
     2.53868684E-01    2     1000024        25   # BR(~chi_2+ -> ~chi_1+  h )
     5.95304783E-04    2     1000022        37   # BR(~chi_2+ -> ~chi_10  H+)
     1.78771826E-10    2     1000039        24   # BR(~chi_2+ -> ~G       W+)
     1.57308931E-14    2     1000039        37   # BR(~chi_2+ -> ~G       H+)
#
#         PDG            Width
DECAY   1000022     2.74450757E-11   # neutralino1 decays
#          BR         NDA      ID1       ID2
     5.01661317E-01    2     1000039        22   # BR(~chi_10 -> ~G        gam)
     4.87208153E-01    2     1000039        23   # BR(~chi_10 -> ~G        Z)
     1.11305297E-02    2     1000039        25   # BR(~chi_10 -> ~G        h)
#
#         PDG            Width
DECAY   1000023     1.28055589E-04   # neutralino2 decays
#          BR         NDA      ID1       ID2
     1.15638012E-03    2     1000022        22   # BR(~chi_20 -> ~chi_10 gam)
#          BR         NDA      ID1       ID2
     8.33994555E-13    2     1000039        22   # BR(~chi_20 -> ~G        gam)
     6.68709502E-09    2     1000039        23   # BR(~chi_20 -> ~G        Z)
     1.63001128E-07    2     1000039        25   # BR(~chi_20 -> ~G        h)
#           BR         NDA      ID1       ID2       ID3
     1.18578491E-01    3     1000022        -2         2   # BR(~chi_20 -> ~chi_10 ub      u)
     1.53533593E-01    3     1000022        -1         1   # BR(~chi_20 -> ~chi_10 db      d)
     1.18578491E-01    3     1000022        -4         4   # BR(~chi_20 -> ~chi_10 cb      c)
     1.53533593E-01    3     1000022        -3         3   # BR(~chi_20 -> ~chi_10 sb      s)
     1.39737710E-01    3     1000022        -5         5   # BR(~chi_20 -> ~chi_10 bb      b)
     3.50609382E-02    3     1000022       -11        11   # BR(~chi_20 -> ~chi_10 e+      e-)
     3.50609382E-02    3     1000022       -13        13   # BR(~chi_20 -> ~chi_10 mu+     mu-)
     3.47062868E-02    3     1000022       -15        15   # BR(~chi_20 -> ~chi_10 tau+    tau-)
     7.00163623E-02    3     1000022       -12        12   # BR(~chi_20 -> ~chi_10 nu_eb   nu_e)
     7.00163623E-02    3     1000022       -14        14   # BR(~chi_20 -> ~chi_10 nu_mub  nu_mu)
     7.00163623E-02    3     1000022       -16        16   # BR(~chi_20 -> ~chi_10 nu_taub nu_tau)
     7.92462721E-07    3     1000024        -2         1   # BR(~chi_20 -> ~chi_1+ ub      d)
     7.92462721E-07    3    -1000024        -1         2   # BR(~chi_20 -> ~chi_1- db      u)
     7.92462721E-07    3     1000024        -4         3   # BR(~chi_20 -> ~chi_1+ cb      s)
     7.92462721E-07    3    -1000024        -3         4   # BR(~chi_20 -> ~chi_1- sb      c)
     2.64154257E-07    3     1000024       -12        11   # BR(~chi_20 -> ~chi_1+ nu_eb   e-)
     2.64154257E-07    3    -1000024        12       -11   # BR(~chi_20 -> ~chi_1- nu_e    e+)
     2.64154257E-07    3     1000024       -14        13   # BR(~chi_20 -> ~chi_1+ nu_mub  mu-)
     2.64154257E-07    3    -1000024        14       -13   # BR(~chi_20 -> ~chi_1- nu_mu   mu+)
     4.84164749E-08    3     1000024       -16        15   # BR(~chi_20 -> ~chi_1+ nu_taub tau-)
     4.84164749E-08    3    -1000024        16       -15   # BR(~chi_20 -> ~chi_1- nu_tau  tau+)
     2.49700641E-16    3     1000021        -2         2   # BR(~chi_20 -> ~g      ub      u)
     3.13524357E-16    3     1000021        -1         1   # BR(~chi_20 -> ~g      db      d)
     2.49700641E-16    3     1000021        -4         4   # BR(~chi_20 -> ~g      cb      c)
     3.13524357E-16    3     1000021        -3         3   # BR(~chi_20 -> ~g      sb      s)
#
#         PDG            Width
DECAY   1000025     2.23769380E-04   # neutralino3 decays
#          BR         NDA      ID1       ID2
     3.76430707E-04    2     1000022        22   # BR(~chi_30 -> ~chi_10 gam)
     8.39285900E-06    2     1000023        22   # BR(~chi_30 -> ~chi_20 gam)
#          BR         NDA      ID1       ID2
     9.30192749E-08    2     1000039        22   # BR(~chi_30 -> ~G        gam)
     8.15807145E-08    2     1000039        23   # BR(~chi_30 -> ~G        Z)
     2.29430561E-09    2     1000039        25   # BR(~chi_30 -> ~G        h)
#           BR         NDA      ID1       ID2       ID3
     1.08215591E-05    3     1000022        -2         2   # BR(~chi_30 -> ~chi_10 ub      u)
     1.29321720E-05    3     1000022        -1         1   # BR(~chi_30 -> ~chi_10 db      d)
     1.08215591E-05    3     1000022        -4         4   # BR(~chi_30 -> ~chi_10 cb      c)
     1.29321720E-05    3     1000022        -3         3   # BR(~chi_30 -> ~chi_10 sb      s)
     2.09323955E-05    3     1000022        -5         5   # BR(~chi_30 -> ~chi_10 bb      b)
     2.27918713E-06    3     1000022       -11        11   # BR(~chi_30 -> ~chi_10 e+      e-)
     2.27918713E-06    3     1000022       -13        13   # BR(~chi_30 -> ~chi_10 mu+     mu-)
     3.51558479E-06    3     1000022       -15        15   # BR(~chi_30 -> ~chi_10 tau+    tau-)
     6.31029180E-06    3     1000022       -12        12   # BR(~chi_30 -> ~chi_10 nu_eb   nu_e)
     6.31029180E-06    3     1000022       -14        14   # BR(~chi_30 -> ~chi_10 nu_mub  nu_mu)
     6.31029180E-06    3     1000022       -16        16   # BR(~chi_30 -> ~chi_10 nu_taub nu_tau)
     2.51882626E-02    3     1000023        -2         2   # BR(~chi_30 -> ~chi_20 ub      u)
     3.26134232E-02    3     1000023        -1         1   # BR(~chi_30 -> ~chi_20 db      d)
     2.51882626E-02    3     1000023        -4         4   # BR(~chi_30 -> ~chi_20 cb      c)
     3.26134232E-02    3     1000023        -3         3   # BR(~chi_30 -> ~chi_20 sb      s)
     2.84202214E-02    3     1000023        -5         5   # BR(~chi_30 -> ~chi_20 bb      b)
     7.44762277E-03    3     1000023       -11        11   # BR(~chi_30 -> ~chi_20 e+      e-)
     7.44762277E-03    3     1000023       -13        13   # BR(~chi_30 -> ~chi_20 mu+     mu-)
     7.34630093E-03    3     1000023       -15        15   # BR(~chi_30 -> ~chi_20 tau+    tau-)
     1.48727295E-02    3     1000023       -12        12   # BR(~chi_30 -> ~chi_20 nu_eb   nu_e)
     1.48727295E-02    3     1000023       -14        14   # BR(~chi_30 -> ~chi_20 nu_mub  nu_mu)
     1.48727295E-02    3     1000023       -16        16   # BR(~chi_30 -> ~chi_20 nu_taub nu_tau)
     1.31566507E-01    3     1000024        -2         1   # BR(~chi_30 -> ~chi_1+ ub      d)
     1.31566507E-01    3    -1000024        -1         2   # BR(~chi_30 -> ~chi_1- db      u)
     1.31566507E-01    3     1000024        -4         3   # BR(~chi_30 -> ~chi_1+ cb      s)
     1.31566507E-01    3    -1000024        -3         4   # BR(~chi_30 -> ~chi_1- sb      c)
     4.38554377E-02    3     1000024       -12        11   # BR(~chi_30 -> ~chi_1+ nu_eb   e-)
     4.38554377E-02    3    -1000024        12       -11   # BR(~chi_30 -> ~chi_1- nu_e    e+)
     4.38554377E-02    3     1000024       -14        13   # BR(~chi_30 -> ~chi_1+ nu_mub  mu-)
     4.38554377E-02    3    -1000024        14       -13   # BR(~chi_30 -> ~chi_1- nu_mu   mu+)
     4.34740026E-02    3     1000024       -16        15   # BR(~chi_30 -> ~chi_1+ nu_taub tau-)
     4.34740026E-02    3    -1000024        16       -15   # BR(~chi_30 -> ~chi_1- nu_tau  tau+)
     1.61705542E-07    3     1000021        -2         2   # BR(~chi_30 -> ~g      ub      u)
     4.26130261E-08    3     1000021        -1         1   # BR(~chi_30 -> ~g      db      d)
     1.61705542E-07    3     1000021        -4         4   # BR(~chi_30 -> ~g      cb      c)
     4.26130261E-08    3     1000021        -3         3   # BR(~chi_30 -> ~g      sb      s)
     3.48805583E-08    3     1000021        -5         5   # BR(~chi_30 -> ~g      bb      b)
#
#         PDG            Width
DECAY   1000035     3.75019789E+01   # neutralino4 decays
#          BR         NDA      ID1       ID2
     9.86910754E-04    2     1000022        23   # BR(~chi_40 -> ~chi_10   Z )
     2.50725115E-01    2     1000023        23   # BR(~chi_40 -> ~chi_20   Z )
     1.14611716E-03    2     1000025        23   # BR(~chi_40 -> ~chi_30   Z )
     2.46189164E-01    2     1000024       -24   # BR(~chi_40 -> ~chi_1+   W-)
     2.46189164E-01    2    -1000024        24   # BR(~chi_40 -> ~chi_1-   W+)
     1.15688124E-01    2     1000022        25   # BR(~chi_40 -> ~chi_10   h )
     4.73120488E-04    2     1000022        35   # BR(~chi_40 -> ~chi_10   H )
     8.87393233E-05    2     1000022        36   # BR(~chi_40 -> ~chi_10   A )
     2.10418242E-03    2     1000023        25   # BR(~chi_40 -> ~chi_20   h )
     1.36409362E-01    2     1000025        25   # BR(~chi_40 -> ~chi_30   h )
     4.28966902E-11    2     1000039        22   # BR(~chi_40 -> ~G        gam)
     1.35863389E-10    2     1000039        23   # BR(~chi_40 -> ~G        Z)
     1.10951747E-14    2     1000039        25   # BR(~chi_40 -> ~G        h)
     1.54712134E-14    2     1000039        35   # BR(~chi_40 -> ~G        H)
     1.87906969E-16    2     1000039        36   # BR(~chi_40 -> ~G        A)
#
#         PDG            Width
DECAY        25     4.21803041E-03   # h decays
#          BR         NDA      ID1       ID2
     6.01835144E-01    2           5        -5   # BR(h -> b       bb     )
     6.22427166E-02    2         -15        15   # BR(h -> tau+    tau-   )
     2.20312081E-04    2         -13        13   # BR(h -> mu+     mu-    )
     4.66137900E-04    2           3        -3   # BR(h -> s       sb     )
     2.01105367E-02    2           4        -4   # BR(h -> c       cb     )
     6.64130202E-02    2          21        21   # BR(h -> g       g      )
     2.30790300E-03    2          22        22   # BR(h -> gam     gam    )
     1.62673820E-03    2          22        23   # BR(h -> Z       gam    )
     2.16694354E-01    2          24       -24   # BR(h -> W+      W-     )
     2.80831376E-02    2          23        23   # BR(h -> Z       Z      )
#
#         PDG            Width
DECAY        35     3.78101641E+01   # H decays
#          BR         NDA      ID1       ID2
     1.47257194E-03    2           5        -5   # BR(H -> b       bb     )
     2.46432916E-04    2         -15        15   # BR(H -> tau+    tau-   )
     8.71232107E-07    2         -13        13   # BR(H -> mu+     mu-    )
     1.11549304E-06    2           3        -3   # BR(H -> s       sb     )
     1.00667994E-05    2           4        -4   # BR(H -> c       cb     )
     9.96064129E-01    2           6        -6   # BR(H -> t       tb     )
     7.97767666E-04    2          21        21   # BR(H -> g       g      )
     2.70896590E-06    2          22        22   # BR(H -> gam     gam    )
     1.15991317E-06    2          23        22   # BR(H -> Z       gam    )
     3.33171614E-04    2          24       -24   # BR(H -> W+      W-     )
     1.66131436E-04    2          23        23   # BR(H -> Z       Z      )
     9.03872627E-04    2          25        25   # BR(H -> h       h      )
     7.72754969E-24    2          36        36   # BR(H -> A       A      )
     3.08087457E-11    2          23        36   # BR(H -> Z       A      )
     7.07744906E-12    2          24       -37   # BR(H -> W+      H-     )
     7.07744906E-12    2         -24        37   # BR(H -> W-      H+     )
#
#         PDG            Width
DECAY        36     3.82382336E+01   # A decays
#          BR         NDA      ID1       ID2
     1.47542902E-03    2           5        -5   # BR(A -> b       bb     )
     2.43897678E-04    2         -15        15   # BR(A -> tau+    tau-   )
     8.62266400E-07    2         -13        13   # BR(A -> mu+     mu-    )
     1.13677376E-06    2           3        -3   # BR(A -> s       sb     )
     9.96176312E-06    2           4        -4   # BR(A -> c       cb     )
     9.96995821E-01    2           6        -6   # BR(A -> t       tb     )
     9.43675485E-04    2          21        21   # BR(A -> g       g      )
     3.20201246E-06    2          22        22   # BR(A -> gam     gam    )
     1.35245487E-06    2          23        22   # BR(A -> Z       gam    )
     3.24661977E-04    2          23        25   # BR(A -> Z       h      )
#
#         PDG            Width
DECAY        37     3.74475009E+01   # H+ decays
#          BR         NDA      ID1       ID2
     2.36739839E-06    2           4        -5   # BR(H+ -> c       bb     )
     2.49237255E-04    2         -15        16   # BR(H+ -> tau+    nu_tau )
     8.81143732E-07    2         -13        14   # BR(H+ -> mu+     nu_mu  )
     1.50514636E-08    2           2        -5   # BR(H+ -> u       bb     )
     5.45693117E-08    2           2        -3   # BR(H+ -> u       sb     )
     1.08731423E-05    2           4        -3   # BR(H+ -> c       sb     )
     9.99403826E-01    2           6        -5   # BR(H+ -> t       bb     )
     3.32745601E-04    2          24        25   # BR(H+ -> W+      h      )
     2.86552041E-13    2          24        36   # BR(H+ -> W+      A      )
