#
#                              ======================
#                              | THE SUSYHIT OUTPUT |
#                              ======================
#
#
#              ------------------------------------------------------
#              |     This is the output of the SUSY-HIT package     |
#              |  created by A.Djouadi, M.Muehlleitner and M.Spira. |
#              |  In case of problems with SUSY-HIT email to        |
#              |           margarete.muehlleitner@kit.edu           |
#              |           michael.spira@psi.ch                     |
#              |           abdelhak.djouadi@cern.ch                 |
#              ------------------------------------------------------
#
#              ------------------------------------------------------
#              |  SUSY Les Houches Accord - MSSM Spectrum + Decays  |
#              |              based on the decay programs           |
#              |                                                    |
#              |                     SDECAY 1.5                     |
#              |                                                    |
#              |  Authors: M.Muhlleitner, A.Djouadi and Y.Mambrini  |
#              |  Ref.:    Comput.Phys.Commun.168(2005)46           |
#              |           [hep-ph/0311167]                         |
#              |                                                    |
#              |                     HDECAY 3.4                     |
#              |                                                    |
#              |  By: A.Djouadi,J.Kalinowski,M.Muhlleitner,M.Spira  |
#              |  Ref.:    Comput.Phys.Commun.108(1998)56           |
#              |           [hep-ph/9704448]                         |
#              |                                                    |
#              |                                                    |
#              |  If not stated otherwise all DRbar couplings and   |
#              |  soft SUSY breaking masses are given at the scale  |
#              |  Q=  0.91187600E+02
#              |                                                    |
#              ------------------------------------------------------
#
#
BLOCK DCINFO  # Decay Program information
     1   SDECAY/HDECAY # decay calculator
     2   1.5  /3.4    # version number
#
BLOCK SPINFO  # Spectrum calculator information
     1   SuSpect     # RGE +Spectrum calculator            
     2   2.43         # version number                     
#
BLOCK MODSEL  # Model selection
     1     2   # GMSB                                              
#
BLOCK SMINPUTS  # Standard Model inputs
         1     1.27932904E+02   # alpha_em^-1(M_Z)^MSbar
         2     1.16639000E-05   # G_F [GeV^-2]
         3     1.17200000E-01   # alpha_S(M_Z)^MSbar
         4     9.11870000E+01   # M_Z pole mass
         5     4.25000000E+00   # mb(mb)^MSbar
         6     1.72900000E+02   # mt pole mass
         7     1.77700000E+00   # mtau pole mass
#
BLOCK MINPAR  # Input parameters - minimal models
#
BLOCK EXTPAR  # Input parameters - non-minimal models
         0     9.11876000E+01   # EWSB                
         1     4.63000000E+02   # M_1                 
         2     3.00000000E+03   # M_2                 
         3     1.80000000E+03   # M_3                 
        11     0.00000000E+00   # A_t                 
        12     0.00000000E+00   # A_b                 
        13     0.00000000E+00   # A_tau               
        14     0.00000000E+00   # A_u                 
        15     0.00000000E+00   # A_d                 
        16     0.00000000E+00   # A_e                 
        23     4.50000000E+02   # mu(EWSB)            
        25     1.50000000E+00   # tanbeta(in)         
        26     2.00000000E+03   # MA_pole             
        31     5.00000000E+03   # M_eL                
        32     5.00000000E+03   # M_muL               
        33     5.00000000E+03   # M_tauL              
        34     5.00000000E+03   # M_eR                
        35     5.00000000E+03   # M_muR               
        36     5.00000000E+03   # M_tauR              
        41     5.00000000E+03   # M_q1L               
        42     5.00000000E+03   # M_q2L               
        43     5.00000000E+03   # M_q3L               
        44     5.00000000E+03   # M_uR                
        45     5.00000000E+03   # M_cR                
        46     5.00000000E+03   # M_tR                
        47     5.00000000E+03   # M_dR                
        48     5.00000000E+03   # M_sR                
        49     5.00000000E+03   # M_bR                
#
BLOCK MASS  # Mass Spectrum
# PDG code           mass       particle
        24     8.05385977E+01   # W+
        25     1.26000000E+02   # h
        35     2.00421684E+03   # H
        36     2.00000000E+03   # A
        37     2.00202267E+03   # H+
         5     4.87877839E+00   # b-quark pole mass calculated from mb(mb)_Msbar
   1000001     4.96252869E+03   # ~d_L
   2000001     4.96241862E+03   # ~d_R
   1000002     4.96228266E+03   # ~u_L
   2000002     4.96234098E+03   # ~u_R
   1000003     4.96252869E+03   # ~s_L
   2000003     4.96241862E+03   # ~s_R
   1000004     4.96228266E+03   # ~c_L
   2000004     4.96234098E+03   # ~c_R
   1000005     4.96228097E+03   # ~b_1
   2000005     4.96266781E+03   # ~b_2
   1000006     5.09268511E+03   # ~t_1
   2000006     5.39276767E+03   # ~t_2
   1000011     5.00008242E+03   # ~e_L
   2000011     5.00007601E+03   # ~e_R
   1000012     4.99984157E+03   # ~nu_eL
   1000013     5.00008242E+03   # ~mu_L
   2000013     5.00007601E+03   # ~mu_R
   1000014     4.99984157E+03   # ~nu_muL
   1000015     4.99995950E+03   # ~tau_1
   2000015     5.00019955E+03   # ~tau_2
   1000016     4.99984157E+03   # ~nu_tauL
   1000021     1.88524947E+03   # ~g
   1000022     4.42366983E+02   # ~chi_10
   1000023    -4.84197077E+02   # ~chi_20
   1000025     5.29937772E+02   # ~chi_30
   1000035     3.12901611E+03   # ~chi_40
   1000024     4.81842047E+02   # ~chi_1+
   1000037     3.12901556E+03   # ~chi_2+
   1000039     1.16785714E-08   # ~gravitino
#
BLOCK NMIX  # Neutralino Mixing Matrix
  1  1     6.70806588E-01   # N_11
  1  2    -2.13902002E-02   # N_12
  1  3     5.28890976E-01   # N_13
  1  4    -5.19456750E-01   # N_14
  2  1     8.97800068E-03   # N_21
  2  2    -4.31380584E-03   # N_22
  2  3    -7.06541244E-01   # N_23
  2  4    -7.07601765E-01   # N_24
  3  1     7.41577823E-01   # N_31
  3  2     2.00733874E-02   # N_32
  3  3    -4.69851420E-01   # N_33
  3  4     4.78433940E-01   # N_34
  4  1     4.98781650E-04   # N_41
  4  2    -9.99560358E-01   # N_42
  4  3    -1.77044953E-02   # N_43
  4  4     2.37779841E-02   # N_44
#
BLOCK UMIX  # Chargino Mixing Matrix U
  1  1    -2.50289671E-02   # U_11
  1  2     9.99686726E-01   # U_12
  2  1     9.99686726E-01   # U_21
  2  2     2.50289671E-02   # U_22
#
BLOCK VMIX  # Chargino Mixing Matrix V
  1  1    -3.36211881E-02   # V_11
  1  2     9.99434648E-01   # V_12
  2  1     9.99434648E-01   # V_21
  2  2     3.36211881E-02   # V_22
#
BLOCK STOPMIX  # Stop Mixing Matrix
  1  1     9.99861803E-01   # cos(theta_t)
  1  2    -1.66245271E-02   # sin(theta_t)
  2  1     1.66245271E-02   # -sin(theta_t)
  2  2     9.99861803E-01   # cos(theta_t)
#
BLOCK SBOTMIX  # Sbottom Mixing Matrix
  1  1     5.98104442E-01   # cos(theta_b)
  1  2     8.01418166E-01   # sin(theta_b)
  2  1    -8.01418166E-01   # -sin(theta_b)
  2  2     5.98104442E-01   # cos(theta_b)
#
BLOCK STAUMIX  # Stau Mixing Matrix
  1  1     6.97597085E-01   # cos(theta_tau)
  1  2     7.16490270E-01   # sin(theta_tau)
  2  1    -7.16490270E-01   # -sin(theta_tau)
  2  2     6.97597085E-01   # cos(theta_tau)
#
BLOCK ALPHA  # Higgs mixing
          -5.90208474E-01   # Mixing angle in the neutral Higgs boson sector
#
BLOCK HMIX Q=  9.11876000E+01  # DRbar Higgs Parameters
         1     4.50000000E+02   # mu(Q)               
         2     1.49999979E+00   # tanbeta(Q)          
         3     2.51892106E+02   # vev(Q)              
         4     3.75976228E+06   # MA^2(Q)             
#
BLOCK GAUGE Q=  9.11876000E+01  # The gauge couplings
     1     3.52960538E-01   # gprime(Q) DRbar
     2     6.28305513E-01   # g(Q) DRbar
     3     1.08213364E+00   # g3(Q) DRbar
#
BLOCK AU Q=  9.11876000E+01  # The trilinear couplings
  1  1     0.00000000E+00   # A_u(Q) DRbar
  2  2     0.00000000E+00   # A_c(Q) DRbar
  3  3     0.00000000E+00   # A_t(Q) DRbar
#
BLOCK AD Q=  9.11876000E+01  # The trilinear couplings
  1  1     0.00000000E+00   # A_d(Q) DRbar
  2  2     0.00000000E+00   # A_s(Q) DRbar
  3  3     0.00000000E+00   # A_b(Q) DRbar
#
BLOCK AE Q=  9.11876000E+01  # The trilinear couplings
  1  1     0.00000000E+00   # A_e(Q) DRbar
  2  2     0.00000000E+00   # A_mu(Q) DRbar
  3  3     0.00000000E+00   # A_tau(Q) DRbar
#
BLOCK Yu Q=  9.11876000E+01  # The Yukawa couplings
  1  1     0.00000000E+00   # y_u(Q) DRbar
  2  2     0.00000000E+00   # y_c(Q) DRbar
  3  3     1.02663030E+00   # y_t(Q) DRbar
#
BLOCK Yd Q=  9.11876000E+01  # The Yukawa couplings
  1  1     0.00000000E+00   # y_d(Q) DRbar
  2  2     0.00000000E+00   # y_s(Q) DRbar
  3  3     2.72185154E-02   # y_b(Q) DRbar
#
BLOCK Ye Q=  9.11876000E+01  # The Yukawa couplings
  1  1     0.00000000E+00   # y_e(Q) DRbar
  2  2     0.00000000E+00   # y_mu(Q) DRbar
  3  3     1.79912376E-02   # y_tau(Q) DRbar
#
BLOCK MSOFT Q=  9.11876000E+01  # The soft SUSY breaking masses at the scale Q
         1     4.63000000E+02   # M_1                 
         2     3.00000000E+03   # M_2                 
         3     1.80000000E+03   # M_3                 
        14     0.00000000E+00   # A_u                 
        15     0.00000000E+00   # A_d                 
        16     0.00000000E+00   # A_e                 
        21     2.83427112E+06   # M^2_Hd              
        22    -5.62594353E+06   # M^2_Hu              
        31     5.00000000E+03   # M_eL                
        32     5.00000000E+03   # M_muL               
        33     5.00000000E+03   # M_tauL              
        34     5.00000000E+03   # M_eR                
        35     5.00000000E+03   # M_muR               
        36     5.00000000E+03   # M_tauR              
        41     5.00000000E+03   # M_q1L               
        42     5.00000000E+03   # M_q2L               
        43     5.00000000E+03   # M_q3L               
        44     5.00000000E+03   # M_uR                
        45     5.00000000E+03   # M_cR                
        46     5.00000000E+03   # M_tR                
        47     5.00000000E+03   # M_dR                
        48     5.00000000E+03   # M_sR                
        49     5.00000000E+03   # M_bR                
#
#
#
#                             =================
#                             |The decay table|
#                             =================
#
# - The QCD corrections to the decays gluino -> squark  + quark
#                                     squark -> gaugino + quark_prime
#                                     squark -> squark_prime + Higgs
#                                     squark -> gluino  + quark
#   are included.
#
# - The multi-body decays for the inos, stops and sbottoms are included.
#
# - The loop induced decays for the gluino, neutralinos and stops
#   are included.
#
# - The SUSY decays of the top quark are included.
#
# - Possible decays of the NLSP in GMSB models are included.
#
#
#         PDG            Width
DECAY         6     1.37553577E+00   # top decays
#          BR         NDA      ID1       ID2
     1.00000000E+00    2           5        24   # BR(t ->  b    W+)
#
#         PDG            Width
DECAY   1000021     1.77342267E-03   # gluino decays
#          BR         NDA      ID1       ID2
     6.12431279E-03    2     1000022        21   # BR(~g -> ~chi_10 g)
     1.07938766E-02    2     1000023        21   # BR(~g -> ~chi_20 g)
     4.55791088E-03    2     1000025        21   # BR(~g -> ~chi_30 g)
#          BR         NDA      ID1       ID2
     1.13354521E-04    2     1000039        21   # BR(~g -> ~G      g)
#           BR         NDA      ID1       ID2       ID3
     4.57051659E-03    3     1000022         1        -1   # BR(~g -> ~chi_10 d  db)
     1.20583402E-06    3     1000023         1        -1   # BR(~g -> ~chi_20 d  db)
     4.28440757E-03    3     1000025         1        -1   # BR(~g -> ~chi_30 d  db)
     1.42063081E-02    3     1000022         2        -2   # BR(~g -> ~chi_10 u  ub)
     1.33127621E-06    3     1000023         2        -2   # BR(~g -> ~chi_20 u  ub)
     1.56747217E-02    3     1000025         2        -2   # BR(~g -> ~chi_30 u  ub)
     4.57051659E-03    3     1000022         3        -3   # BR(~g -> ~chi_10 s  sb)
     1.20583402E-06    3     1000023         3        -3   # BR(~g -> ~chi_20 s  sb)
     4.28440757E-03    3     1000025         3        -3   # BR(~g -> ~chi_30 s  sb)
     1.42063081E-02    3     1000022         4        -4   # BR(~g -> ~chi_10 c  cb)
     1.33127621E-06    3     1000023         4        -4   # BR(~g -> ~chi_20 c  cb)
     1.56747217E-02    3     1000025         4        -4   # BR(~g -> ~chi_30 c  cb)
     4.67777974E-03    3     1000022         5        -5   # BR(~g -> ~chi_10 b  bb)
     2.15726242E-04    3     1000023         5        -5   # BR(~g -> ~chi_20 b  bb)
     4.38754668E-03    3     1000025         5        -5   # BR(~g -> ~chi_30 b  bb)
     1.14808818E-01    3     1000022         6        -6   # BR(~g -> ~chi_10 t  tb)
     1.96263524E-01    3     1000023         6        -6   # BR(~g -> ~chi_20 t  tb)
     1.08973599E-01    3     1000025         6        -6   # BR(~g -> ~chi_30 t  tb)
     8.84803640E-05    3     1000024         1        -2   # BR(~g -> ~chi_1+ d  ub)
     8.84803640E-05    3    -1000024         2        -1   # BR(~g -> ~chi_1- u  db)
     8.84803640E-05    3     1000024         3        -4   # BR(~g -> ~chi_1+ s  cb)
     8.84803640E-05    3    -1000024         4        -3   # BR(~g -> ~chi_1- c  sb)
     2.35626324E-01    3     1000024         5        -6   # BR(~g -> ~chi_1+ b  tb)
     2.35626324E-01    3    -1000024         6        -5   # BR(~g -> ~chi_1- t  bb)
#
#         PDG            Width
DECAY   1000006     2.98558882E+02   # stop1 decays
#          BR         NDA      ID1       ID2
     6.39322233E-02    2     1000022         6   # BR(~t_1 -> ~chi_10 t )
     1.20631350E-01    2     1000023         6   # BR(~t_1 -> ~chi_20 t )
     5.84985518E-02    2     1000025         6   # BR(~t_1 -> ~chi_30 t )
     2.52894837E-02    2     1000035         6   # BR(~t_1 -> ~chi_40 t )
     1.26282409E-04    2     1000024         5   # BR(~t_1 -> ~chi_1+ b )
     5.03970630E-02    2     1000037         5   # BR(~t_1 -> ~chi_2+ b )
     6.62601153E-01    2     1000021         6   # BR(~t_1 -> ~g      t )
     6.68724217E-03    2     1000005        24   # BR(~t_1 -> ~b_1    W+)
     1.18366507E-02    2     2000005        24   # BR(~t_1 -> ~b_2    W+)
#
#         PDG            Width
DECAY   2000006     3.78926890E+02   # stop2 decays
#          BR         NDA      ID1       ID2
     6.97140778E-02    2     1000022         6   # BR(~t_2 -> ~chi_10 t )
     1.01413316E-01    2     1000023         6   # BR(~t_2 -> ~chi_20 t )
     6.10320206E-02    2     1000025         6   # BR(~t_2 -> ~chi_30 t )
    -1.89852715E-05    2     1000035         6   # BR(~t_2 -> ~chi_40 t )
     2.02842027E-01    2     1000024         5   # BR(~t_2 -> ~chi_1+ b )
    -3.79132287E-05    2     1000037         5   # BR(~t_2 -> ~chi_2+ b )
     5.64837578E-01    2     1000021         6   # BR(~t_2 -> ~g      t )
    -6.67395845E-05    2     1000006        25   # BR(~t_2 -> ~t_1    h )
     4.13605918E-05    2     1000006        23   # BR(~t_2 -> ~t_1    Z )
     8.71172747E-05    2     1000005        24   # BR(~t_2 -> ~b_1    W+)
     1.56141365E-04    2     2000005        24   # BR(~t_2 -> ~b_2    W+)
#
#         PDG            Width
DECAY   1000005     2.06150511E+02   # sbottom1 decays
#          BR         NDA      ID1       ID2
     5.86911634E-03    2     1000022         5   # BR(~b_1 -> ~chi_10 b )
     9.56024903E-05    2     1000023         5   # BR(~b_1 -> ~chi_20 b )
     5.14220413E-03    2     1000025         5   # BR(~b_1 -> ~chi_30 b )
     6.21615440E-03    2     1000035         5   # BR(~b_1 -> ~chi_40 b )
     4.05303216E-02    2    -1000024         6   # BR(~b_1 -> ~chi_1- t )
     1.24673954E-02    2    -1000037         6   # BR(~b_1 -> ~chi_2- t )
     9.29679206E-01    2     1000021         5   # BR(~b_1 -> ~g      b )
#
#         PDG            Width
DECAY   2000005     2.71144916E+02   # sbottom2 decays
#          BR         NDA      ID1       ID2
     1.41862925E-03    2     1000022         5   # BR(~b_2 -> ~chi_10 b )
     1.13404674E-04    2     1000023         5   # BR(~b_2 -> ~chi_20 b )
     2.35179503E-03    2     1000025         5   # BR(~b_2 -> ~chi_30 b )
     2.05586657E-02    2     1000035         5   # BR(~b_2 -> ~chi_40 b )
     2.27793738E-01    2    -1000024         6   # BR(~b_2 -> ~chi_1- t )
     4.12695179E-02    2    -1000037         6   # BR(~b_2 -> ~chi_2- t )
     7.06494250E-01    2     1000021         5   # BR(~b_2 -> ~g      b )
#
#         PDG            Width
DECAY   1000002     2.12857189E+02   # sup_L decays
#          BR         NDA      ID1       ID2
     9.43651257E-04    2     1000022         2   # BR(~u_L -> ~chi_10 u)
     6.00244163E-07    2     1000023         2   # BR(~u_L -> ~chi_20 u)
     2.17964235E-03    2     1000025         2   # BR(~u_L -> ~chi_30 u)
     3.21891496E-02    2     1000035         2   # BR(~u_L -> ~chi_40 u)
     1.95832241E-04    2     1000024         1   # BR(~u_L -> ~chi_1+ d)
     6.43741664E-02    2     1000037         1   # BR(~u_L -> ~chi_2+ d)
     9.00116958E-01    2     1000021         2   # BR(~u_L -> ~g      u)
#
#         PDG            Width
DECAY   2000002     2.01936044E+02   # sup_R decays
#          BR         NDA      ID1       ID2
     2.31183236E-02    2     1000022         2   # BR(~u_R -> ~chi_10 u)
     4.12834606E-06    2     1000023         2   # BR(~u_R -> ~chi_20 u)
     2.80616088E-02    2     1000025         2   # BR(~u_R -> ~chi_30 u)
     4.74104995E-09    2     1000035         2   # BR(~u_R -> ~chi_40 u)
     9.48815935E-01    2     1000021         2   # BR(~u_R -> ~g      u)
#
#         PDG            Width
DECAY   1000001     2.12862206E+02   # sdown_L decays
#          BR         NDA      ID1       ID2
     1.87738832E-03    2     1000022         1   # BR(~d_L -> ~chi_10 d)
     3.11270034E-06    2     1000023         1   # BR(~d_L -> ~chi_20 d)
     1.21761639E-03    2     1000025         1   # BR(~d_L -> ~chi_30 d)
     3.22061980E-02    2     1000035         1   # BR(~d_L -> ~chi_40 d)
     1.08531616E-04    2    -1000024         2   # BR(~d_L -> ~chi_1- u)
     6.44166743E-02    2    -1000037         2   # BR(~d_L -> ~chi_2- u)
     9.00170479E-01    2     1000021         1   # BR(~d_L -> ~g      d)
#
#         PDG            Width
DECAY   2000001     1.94189176E+02   # sdown_R decays
#          BR         NDA      ID1       ID2
     6.01024610E-03    2     1000022         1   # BR(~d_R -> ~chi_10 d)
     1.07327757E-06    2     1000023         1   # BR(~d_R -> ~chi_20 d)
     7.29539103E-03    2     1000025         1   # BR(~d_R -> ~chi_30 d)
     1.23261639E-09    2     1000035         1   # BR(~d_R -> ~chi_40 d)
     9.86693288E-01    2     1000021         1   # BR(~d_R -> ~g      d)
#
#         PDG            Width
DECAY   1000004     2.12857189E+02   # scharm_L decays
#          BR         NDA      ID1       ID2
     9.43651257E-04    2     1000022         4   # BR(~c_L -> ~chi_10 c)
     6.00244163E-07    2     1000023         4   # BR(~c_L -> ~chi_20 c)
     2.17964235E-03    2     1000025         4   # BR(~c_L -> ~chi_30 c)
     3.21891496E-02    2     1000035         4   # BR(~c_L -> ~chi_40 c)
     1.95832241E-04    2     1000024         3   # BR(~c_L -> ~chi_1+ s)
     6.43741664E-02    2     1000037         3   # BR(~c_L -> ~chi_2+ s)
     9.00116958E-01    2     1000021         4   # BR(~c_L -> ~g      c)
#
#         PDG            Width
DECAY   2000004     2.01936044E+02   # scharm_R decays
#          BR         NDA      ID1       ID2
     2.31183236E-02    2     1000022         4   # BR(~c_R -> ~chi_10 c)
     4.12834606E-06    2     1000023         4   # BR(~c_R -> ~chi_20 c)
     2.80616088E-02    2     1000025         4   # BR(~c_R -> ~chi_30 c)
     4.74104995E-09    2     1000035         4   # BR(~c_R -> ~chi_40 c)
     9.48815935E-01    2     1000021         4   # BR(~c_R -> ~g      c)
#
#         PDG            Width
DECAY   1000003     2.12862206E+02   # sstrange_L decays
#          BR         NDA      ID1       ID2
     1.87738832E-03    2     1000022         3   # BR(~s_L -> ~chi_10 s)
     3.11270034E-06    2     1000023         3   # BR(~s_L -> ~chi_20 s)
     1.21761639E-03    2     1000025         3   # BR(~s_L -> ~chi_30 s)
     3.22061980E-02    2     1000035         3   # BR(~s_L -> ~chi_40 s)
     1.08531616E-04    2    -1000024         4   # BR(~s_L -> ~chi_1- c)
     6.44166743E-02    2    -1000037         4   # BR(~s_L -> ~chi_2- c)
     9.00170479E-01    2     1000021         3   # BR(~s_L -> ~g      s)
#
#         PDG            Width
DECAY   2000003     1.94189176E+02   # sstrange_R decays
#          BR         NDA      ID1       ID2
     6.01024610E-03    2     1000022         3   # BR(~s_R -> ~chi_10 s)
     1.07327757E-06    2     1000023         3   # BR(~s_R -> ~chi_20 s)
     7.29539103E-03    2     1000025         3   # BR(~s_R -> ~chi_30 s)
     1.23261639E-09    2     1000035         3   # BR(~s_R -> ~chi_40 s)
     9.86693288E-01    2     1000021         3   # BR(~s_R -> ~g      s)
#
#         PDG            Width
DECAY   1000011     2.79087083E+01   # selectron_L decays
#          BR         NDA      ID1       ID2
     8.74986008E-02    2     1000022        11   # BR(~e_L -> ~chi_10 e-)
     3.67635416E-07    2     1000023        11   # BR(~e_L -> ~chi_20 e-)
     1.31149569E-01    2     1000025        11   # BR(~e_L -> ~chi_30 e-)
     2.60020941E-01    2     1000035        11   # BR(~e_L -> ~chi_40 e-)
     8.65149721E-04    2    -1000024        12   # BR(~e_L -> ~chi_1- nu_e)
     5.20465372E-01    2    -1000037        12   # BR(~e_L -> ~chi_2- nu_e)
#
#         PDG            Width
DECAY   2000011     2.43065599E+01   # selectron_R decays
#          BR         NDA      ID1       ID2
     4.51684030E-01    2     1000022        11   # BR(~e_R -> ~chi_10 e-)
     8.06568250E-05    2     1000023        11   # BR(~e_R -> ~chi_20 e-)
     5.48235219E-01    2     1000025        11   # BR(~e_R -> ~chi_30 e-)
     9.38943666E-08    2     1000035        11   # BR(~e_R -> ~chi_40 e-)
#
#         PDG            Width
DECAY   1000013     2.79087083E+01   # smuon_L decays
#          BR         NDA      ID1       ID2
     8.74986008E-02    2     1000022        13   # BR(~mu_L -> ~chi_10 mu-)
     3.67635416E-07    2     1000023        13   # BR(~mu_L -> ~chi_20 mu-)
     1.31149569E-01    2     1000025        13   # BR(~mu_L -> ~chi_30 mu-)
     2.60020941E-01    2     1000035        13   # BR(~mu_L -> ~chi_40 mu-)
     8.65149721E-04    2    -1000024        14   # BR(~mu_L -> ~chi_1- nu_mu)
     5.20465372E-01    2    -1000037        14   # BR(~mu_L -> ~chi_2- nu_mu)
#
#         PDG            Width
DECAY   2000013     2.43065599E+01   # smuon_R decays
#          BR         NDA      ID1       ID2
     4.51684030E-01    2     1000022        13   # BR(~mu_R -> ~chi_10 mu-)
     8.06568250E-05    2     1000023        13   # BR(~mu_R -> ~chi_20 mu-)
     5.48235219E-01    2     1000025        13   # BR(~mu_R -> ~chi_30 mu-)
     9.38943666E-08    2     1000035        13   # BR(~mu_R -> ~chi_40 mu-)
#
#         PDG            Width
DECAY   1000015     2.61337483E+01   # stau_1 decays
#          BR         NDA      ID1       ID2
     2.67786757E-01    2     1000022        15   # BR(~tau_1 -> ~chi_10  tau-)
     4.44954802E-04    2     1000023        15   # BR(~tau_1 -> ~chi_20  tau-)
     3.24660224E-01    2     1000025        15   # BR(~tau_1 -> ~chi_30  tau-)
     1.34920210E-01    2     1000035        15   # BR(~tau_1 -> ~chi_40  tau-)
     2.12625463E-03    2    -1000024        16   # BR(~tau_1 -> ~chi_1-  nu_tau)
     2.70060590E-01    2    -1000037        16   # BR(~tau_1 -> ~chi_2-  nu_tau)
     1.00934048E-06    2     1000039        15   # BR(~tau_1 -> ~G       tau-)
#
#         PDG            Width
DECAY   2000015     2.61763242E+01   # stau_2 decays
#          BR         NDA      ID1       ID2
     2.46034806E-01    2     1000022        15   # BR(~tau_2 -> ~chi_10  tau-)
     8.36190507E-04    2     1000023        15   # BR(~tau_2 -> ~chi_20  tau-)
     3.25304009E-01    2     1000025        15   # BR(~tau_2 -> ~chi_30  tau-)
     1.42529282E-01    2     1000035        15   # BR(~tau_2 -> ~chi_40  tau-)
     6.10443516E-06    2    -1000024        16   # BR(~tau_2 -> ~chi_1-  nu_tau)
     2.85289607E-01    2    -1000037        16   # BR(~tau_2 -> ~chi_2-  nu_tau)
#
#         PDG            Width
DECAY   1000012     2.79076632E+01   # snu_eL decays
#          BR         NDA      ID1       ID2
     1.09826876E-01    2     1000022        12   # BR(~nu_eL -> ~chi_10 nu_e)
     6.04498119E-05    2     1000023        12   # BR(~nu_eL -> ~chi_20 nu_e)
     1.08141177E-01    2     1000025        12   # BR(~nu_eL -> ~chi_30 nu_e)
     2.60277585E-01    2     1000035        12   # BR(~nu_eL -> ~chi_40 nu_e)
     1.56108334E-03    2     1000024        11   # BR(~nu_eL -> ~chi_1+ e-)
     5.20132829E-01    2     1000037        11   # BR(~nu_eL -> ~chi_2+ e-)
#
#         PDG            Width
DECAY   1000014     2.79076632E+01   # snu_muL decays
#          BR         NDA      ID1       ID2
     1.09826876E-01    2     1000022        14   # BR(~nu_muL -> ~chi_10 nu_mu)
     6.04498119E-05    2     1000023        14   # BR(~nu_muL -> ~chi_20 nu_mu)
     1.08141177E-01    2     1000025        14   # BR(~nu_muL -> ~chi_30 nu_mu)
     2.60277585E-01    2     1000035        14   # BR(~nu_muL -> ~chi_40 nu_mu)
     1.56108334E-03    2     1000024        13   # BR(~nu_muL -> ~chi_1+ mu-)
     5.20132829E-01    2     1000037        13   # BR(~nu_muL -> ~chi_2+ mu-)
#
#         PDG            Width
DECAY   1000016     2.79392522E+01   # snu_tauL decays
#          BR         NDA      ID1       ID2
     1.09702702E-01    2     1000022        16   # BR(~nu_tauL -> ~chi_10 nu_tau)
     6.03814653E-05    2     1000023        16   # BR(~nu_tauL -> ~chi_20 nu_tau)
     1.08018909E-01    2     1000025        16   # BR(~nu_tauL -> ~chi_30 nu_tau)
     2.59983307E-01    2     1000035        16   # BR(~nu_tauL -> ~chi_40 nu_tau)
     2.68949425E-03    2     1000024        15   # BR(~nu_tauL -> ~chi_1+ tau-)
     5.19545207E-01    2     1000037        15   # BR(~nu_tauL -> ~chi_2+ tau-)
#
#         PDG            Width
DECAY   1000024     6.07191885E-05   # chargino1+ decays
#          BR         NDA      ID1       ID2
     1.61963220E-06    2     1000039        24   # BR(~chi_1+ -> ~G       W+)
#           BR         NDA      ID1       ID2       ID3
     3.33704254E-01    3     1000022         2        -1   # BR(~chi_1+ -> ~chi_10 u    db)
     3.33704254E-01    3     1000022         4        -3   # BR(~chi_1+ -> ~chi_10 c    sb)
     1.11234878E-01    3     1000022       -11        12   # BR(~chi_1+ -> ~chi_10 e+   nu_e)
     1.11234878E-01    3     1000022       -13        14   # BR(~chi_1+ -> ~chi_10 mu+  nu_mu)
     1.10120116E-01    3     1000022       -15        16   # BR(~chi_1+ -> ~chi_10 tau+ nu_tau)
#
#         PDG            Width
DECAY   1000037     3.50058675E+01   # chargino2+ decays
#          BR         NDA      ID1       ID2
     2.21830858E-01    2     1000024        23   # BR(~chi_2+ -> ~chi_1+  Z )
     1.12671295E-01    2     1000022        24   # BR(~chi_2+ -> ~chi_10  W+)
     2.16303575E-01    2     1000023        24   # BR(~chi_2+ -> ~chi_20  W+)
     1.03623867E-01    2     1000025        24   # BR(~chi_2+ -> ~chi_30  W+)
     2.22780677E-01    2     1000024        25   # BR(~chi_2+ -> ~chi_1+  h )
     3.05844282E-02    2     1000024        35   # BR(~chi_2+ -> ~chi_1+  H )
     3.08271364E-02    2     1000024        36   # BR(~chi_2+ -> ~chi_1+  A )
     1.79978841E-02    2     1000022        37   # BR(~chi_2+ -> ~chi_10  H+)
     3.05900691E-02    2     1000023        37   # BR(~chi_2+ -> ~chi_20  H+)
     1.27901373E-02    2     1000025        37   # BR(~chi_2+ -> ~chi_30  H+)
     7.21146577E-08    2     1000039        24   # BR(~chi_2+ -> ~G       W+)
     3.43914943E-12    2     1000039        37   # BR(~chi_2+ -> ~G       H+)
#
#         PDG            Width
DECAY   1000022     9.42626968E-11   # neutralino1 decays
#          BR         NDA      ID1       ID2
     5.00446324E-01    2     1000039        22   # BR(~chi_10 -> ~G        gam)
     4.89370649E-01    2     1000039        23   # BR(~chi_10 -> ~G        Z)
     1.01830269E-02    2     1000039        25   # BR(~chi_10 -> ~G        h)
#
#         PDG            Width
DECAY   1000023     6.55811067E-05   # neutralino2 decays
#          BR         NDA      ID1       ID2
     8.02417366E-04    2     1000022        22   # BR(~chi_20 -> ~chi_10 gam)
#          BR         NDA      ID1       ID2
     1.11871849E-10    2     1000039        22   # BR(~chi_20 -> ~G        gam)
     5.76369735E-08    2     1000039        23   # BR(~chi_20 -> ~G        Z)
     1.24547061E-06    2     1000039        25   # BR(~chi_20 -> ~G        h)
#           BR         NDA      ID1       ID2       ID3
     1.19123380E-01    3     1000022        -2         2   # BR(~chi_20 -> ~chi_10 ub      u)
     1.54210383E-01    3     1000022        -1         1   # BR(~chi_20 -> ~chi_10 db      d)
     1.19123380E-01    3     1000022        -4         4   # BR(~chi_20 -> ~chi_10 cb      c)
     1.54210383E-01    3     1000022        -3         3   # BR(~chi_20 -> ~chi_10 sb      s)
     1.36486795E-01    3     1000022        -5         5   # BR(~chi_20 -> ~chi_10 bb      b)
     3.52022670E-02    3     1000022       -11        11   # BR(~chi_20 -> ~chi_10 e+      e-)
     3.52022670E-02    3     1000022       -13        13   # BR(~chi_20 -> ~chi_10 mu+     mu-)
     3.47656737E-02    3     1000022       -15        15   # BR(~chi_20 -> ~chi_10 tau+    tau-)
     7.02898533E-02    3     1000022       -12        12   # BR(~chi_20 -> ~chi_10 nu_eb   nu_e)
     7.02898533E-02    3     1000022       -14        14   # BR(~chi_20 -> ~chi_10 nu_mub  nu_mu)
     7.02898533E-02    3     1000022       -16        16   # BR(~chi_20 -> ~chi_10 nu_taub nu_tau)
     4.09185532E-07    3     1000024        -2         1   # BR(~chi_20 -> ~chi_1+ ub      d)
     4.09185532E-07    3    -1000024        -1         2   # BR(~chi_20 -> ~chi_1- db      u)
     4.09185532E-07    3     1000024        -4         3   # BR(~chi_20 -> ~chi_1+ cb      s)
     4.09185532E-07    3    -1000024        -3         4   # BR(~chi_20 -> ~chi_1- sb      c)
     1.36395191E-07    3     1000024       -12        11   # BR(~chi_20 -> ~chi_1+ nu_eb   e-)
     1.36395191E-07    3    -1000024        12       -11   # BR(~chi_20 -> ~chi_1- nu_e    e+)
     1.36395191E-07    3     1000024       -14        13   # BR(~chi_20 -> ~chi_1+ nu_mub  mu-)
     1.36395191E-07    3    -1000024        14       -13   # BR(~chi_20 -> ~chi_1- nu_mu   mu+)
     4.82116760E-09    3     1000024       -16        15   # BR(~chi_20 -> ~chi_1+ nu_taub tau-)
     4.82116760E-09    3    -1000024        16       -15   # BR(~chi_20 -> ~chi_1- nu_tau  tau+)
#
#         PDG            Width
DECAY   1000025     3.73996918E-04   # neutralino3 decays
#          BR         NDA      ID1       ID2
     2.17120073E-04    2     1000022        22   # BR(~chi_30 -> ~chi_10 gam)
     5.22440968E-04    2     1000023        22   # BR(~chi_30 -> ~chi_20 gam)
#          BR         NDA      ID1       ID2
     4.06413139E-07    2     1000039        22   # BR(~chi_30 -> ~G        gam)
     2.81439363E-07    2     1000039        23   # BR(~chi_30 -> ~G        Z)
     6.91291024E-09    2     1000039        25   # BR(~chi_30 -> ~G        h)
#           BR         NDA      ID1       ID2       ID3
     3.23952233E-08    3     1000022        -2         2   # BR(~chi_30 -> ~chi_10 ub      u)
     3.23356662E-08    3     1000022        -1         1   # BR(~chi_30 -> ~chi_10 db      d)
     3.23952233E-08    3     1000022        -4         4   # BR(~chi_30 -> ~chi_10 cb      c)
     3.23356662E-08    3     1000022        -3         3   # BR(~chi_30 -> ~chi_10 sb      s)
     1.01061069E-06    3     1000022        -5         5   # BR(~chi_30 -> ~chi_10 bb      b)
     8.69647037E-08    3     1000022       -11        11   # BR(~chi_30 -> ~chi_10 e+      e-)
     8.69647037E-08    3     1000022       -13        13   # BR(~chi_30 -> ~chi_10 mu+     mu-)
     2.33653762E-07    3     1000022       -15        15   # BR(~chi_30 -> ~chi_10 tau+    tau-)
     4.64772733E-09    3     1000022       -12        12   # BR(~chi_30 -> ~chi_10 nu_eb   nu_e)
     4.64772733E-09    3     1000022       -14        14   # BR(~chi_30 -> ~chi_10 nu_mub  nu_mu)
     4.64772733E-09    3     1000022       -16        16   # BR(~chi_30 -> ~chi_10 nu_taub nu_tau)
     2.75025422E-02    3     1000023        -2         2   # BR(~chi_30 -> ~chi_20 ub      u)
     3.56033655E-02    3     1000023        -1         1   # BR(~chi_30 -> ~chi_20 db      d)
     2.75025422E-02    3     1000023        -4         4   # BR(~chi_30 -> ~chi_20 cb      c)
     3.56033655E-02    3     1000023        -3         3   # BR(~chi_30 -> ~chi_20 sb      s)
     3.21195515E-02    3     1000023        -5         5   # BR(~chi_30 -> ~chi_20 bb      b)
     8.12740834E-03    3     1000023       -11        11   # BR(~chi_30 -> ~chi_20 e+      e-)
     8.12740834E-03    3     1000023       -13        13   # BR(~chi_30 -> ~chi_20 mu+     mu-)
     8.03915649E-03    3     1000023       -15        15   # BR(~chi_30 -> ~chi_20 tau+    tau-)
     1.62280839E-02    3     1000023       -12        12   # BR(~chi_30 -> ~chi_20 nu_eb   nu_e)
     1.62280839E-02    3     1000023       -14        14   # BR(~chi_30 -> ~chi_20 nu_mub  nu_mu)
     1.62280839E-02    3     1000023       -16        16   # BR(~chi_30 -> ~chi_20 nu_taub nu_tau)
     1.28087085E-01    3     1000024        -2         1   # BR(~chi_30 -> ~chi_1+ ub      d)
     1.28087085E-01    3    -1000024        -1         2   # BR(~chi_30 -> ~chi_1- db      u)
     1.28087085E-01    3     1000024        -4         3   # BR(~chi_30 -> ~chi_1+ cb      s)
     1.28087085E-01    3    -1000024        -3         4   # BR(~chi_30 -> ~chi_1- sb      c)
     4.26956097E-02    3     1000024       -12        11   # BR(~chi_30 -> ~chi_1+ nu_eb   e-)
     4.26956097E-02    3    -1000024        12       -11   # BR(~chi_30 -> ~chi_1- nu_e    e+)
     4.26956097E-02    3     1000024       -14        13   # BR(~chi_30 -> ~chi_1+ nu_mub  mu-)
     4.26956097E-02    3    -1000024        14       -13   # BR(~chi_30 -> ~chi_1- nu_mu   mu+)
     4.24089062E-02    3     1000024       -16        15   # BR(~chi_30 -> ~chi_1+ nu_taub tau-)
     4.24089062E-02    3    -1000024        16       -15   # BR(~chi_30 -> ~chi_1- nu_tau  tau+)
#
#         PDG            Width
DECAY   1000035     3.50062622E+01   # neutralino4 decays
#          BR         NDA      ID1       ID2
     2.28606774E-03    2     1000022        23   # BR(~chi_40 -> ~chi_10   Z )
     2.17347259E-01    2     1000023        23   # BR(~chi_40 -> ~chi_20   Z )
     2.33137550E-03    2     1000025        23   # BR(~chi_40 -> ~chi_30   Z )
     2.16115251E-01    2     1000024       -24   # BR(~chi_40 -> ~chi_1+   W-)
     2.16115251E-01    2    -1000024        24   # BR(~chi_40 -> ~chi_1-   W+)
     1.13891247E-01    2     1000022        25   # BR(~chi_40 -> ~chi_10   h )
     1.89627592E-03    2     1000022        35   # BR(~chi_40 -> ~chi_10   H )
     1.60755334E-02    2     1000022        36   # BR(~chi_40 -> ~chi_10   A )
     4.60511572E-03    2     1000023        25   # BR(~chi_40 -> ~chi_20   h )
     2.72060401E-02    2     1000023        35   # BR(~chi_40 -> ~chi_20   H )
     3.30326497E-03    2     1000023        36   # BR(~chi_40 -> ~chi_20   A )
     1.04520128E-01    2     1000025        25   # BR(~chi_40 -> ~chi_30   h )
     1.35068984E-03    2     1000025        35   # BR(~chi_40 -> ~chi_30   H )
     1.14233602E-02    2     1000025        36   # BR(~chi_40 -> ~chi_30   A )
     3.07665342E-02    2     1000024       -37   # BR(~chi_40 -> ~chi_1+   H-)
     3.07665342E-02    2    -1000024        37   # BR(~chi_40 -> ~chi_1-   H+)
     1.73037164E-08    2     1000039        22   # BR(~chi_40 -> ~G        gam)
     5.48047975E-08    2     1000039        23   # BR(~chi_40 -> ~G        Z)
     3.52299866E-12    2     1000039        25   # BR(~chi_40 -> ~G        h)
     3.41511421E-12    2     1000039        35   # BR(~chi_40 -> ~G        H)
     1.05138526E-14    2     1000039        36   # BR(~chi_40 -> ~G        A)
#
#         PDG            Width
DECAY        25     4.21754690E-03   # h decays
#          BR         NDA      ID1       ID2
     6.01718247E-01    2           5        -5   # BR(h -> b       bb     )
     6.22519513E-02    2         -15        15   # BR(h -> tau+    tau-   )
     2.20344768E-04    2         -13        13   # BR(h -> mu+     mu-    )
     4.66206763E-04    2           3        -3   # BR(h -> s       sb     )
     2.01125379E-02    2           4        -4   # BR(h -> c       cb     )
     6.64211353E-02    2          21        21   # BR(h -> g       g      )
     2.31248340E-03    2          22        22   # BR(h -> gam     gam    )
     1.62680761E-03    2          22        23   # BR(h -> Z       gam    )
     2.16783930E-01    2          24       -24   # BR(h -> W+      W-     )
     2.80863558E-02    2          23        23   # BR(h -> Z       Z      )
#
#         PDG            Width
DECAY        35     3.99036058E+01   # H decays
#          BR         NDA      ID1       ID2
     1.39649830E-03    2           5        -5   # BR(H -> b       bb     )
     2.33521218E-04    2         -15        15   # BR(H -> tau+    tau-   )
     8.25584444E-07    2         -13        13   # BR(H -> mu+     mu-    )
     1.05703440E-06    2           3        -3   # BR(H -> s       sb     )
     9.53970679E-06    2           4        -4   # BR(H -> c       cb     )
     9.43915264E-01    2           6        -6   # BR(H -> t       tb     )
     7.55932773E-04    2          21        21   # BR(H -> g       g      )
     2.63730704E-06    2          22        22   # BR(H -> gam     gam    )
     1.09851487E-06    2          23        22   # BR(H -> Z       gam    )
     3.19034026E-04    2          24       -24   # BR(H -> W+      W-     )
     1.59081919E-04    2          23        23   # BR(H -> Z       Z      )
     8.57374316E-04    2          25        25   # BR(H -> h       h      )
     8.94055965E-24    2          36        36   # BR(H -> A       A      )
     3.60514605E-11    2          23        36   # BR(H -> Z       A      )
     3.35117470E-12    2          24       -37   # BR(H -> W+      H-     )
     3.35117470E-12    2         -24        37   # BR(H -> W-      H+     )
     5.65266050E-05    2     1000024  -1000024   # BR(H -> ~chi_1+ ~chi_1-)
     9.95155267E-04    2     1000022   1000022   # BR(H -> ~chi_10 ~chi_10)
     2.27669433E-05    2     1000023   1000023   # BR(H -> ~chi_20 ~chi_20)
     5.62231210E-04    2     1000025   1000025   # BR(H -> ~chi_30 ~chi_30)
     2.57925531E-02    2     1000022   1000023   # BR(H -> ~chi_10 ~chi_20)
     1.23951793E-05    2     1000022   1000025   # BR(H -> ~chi_10 ~chi_30)
     2.49065070E-02    2     1000023   1000025   # BR(H -> ~chi_20 ~chi_30)
#
#         PDG            Width
DECAY        36     4.03526846E+01   # A decays
#          BR         NDA      ID1       ID2
     1.39920591E-03    2           5        -5   # BR(A -> b       bb     )
     2.31117619E-04    2         -15        15   # BR(A -> tau+    tau-   )
     8.17084273E-07    2         -13        13   # BR(A -> mu+     mu-    )
     1.07720765E-06    2           3        -3   # BR(A -> s       sb     )
     9.43977404E-06    2           4        -4   # BR(A -> c       cb     )
     9.44753971E-01    2           6        -6   # BR(A -> t       tb     )
     8.94227582E-04    2          21        21   # BR(A -> g       g      )
     2.66893986E-06    2          22        22   # BR(A -> gam     gam    )
     1.28092770E-06    2          23        22   # BR(A -> Z       gam    )
     3.10824413E-04    2          23        25   # BR(A -> Z       h      )
     6.47382153E-04    2     1000024  -1000024   # BR(A -> ~chi_1+ ~chi_1-)
     2.86088411E-02    2     1000022   1000022   # BR(A -> ~chi_10 ~chi_10)
     1.16214607E-06    2     1000023   1000023   # BR(A -> ~chi_20 ~chi_20)
     2.15250874E-02    2     1000025   1000025   # BR(A -> ~chi_30 ~chi_30)
     6.62072446E-04    2     1000022   1000023   # BR(A -> ~chi_10 ~chi_20)
     1.08634772E-04    2     1000022   1000025   # BR(A -> ~chi_10 ~chi_30)
     8.42189499E-04    2     1000023   1000025   # BR(A -> ~chi_20 ~chi_30)
#
#         PDG            Width
DECAY        37     3.95432489E+01   # H+ decays
#          BR         NDA      ID1       ID2
     2.24491992E-06    2           4        -5   # BR(H+ -> c       bb     )
     2.36087034E-04    2         -15        16   # BR(H+ -> tau+    nu_tau )
     8.34652948E-07    2         -13        14   # BR(H+ -> mu+     nu_mu  )
     1.42728748E-08    2           2        -5   # BR(H+ -> u       bb     )
     5.16883822E-08    2           2        -3   # BR(H+ -> u       sb     )
     1.02991051E-05    2           4        -3   # BR(H+ -> c       sb     )
     9.46647048E-01    2           6        -5   # BR(H+ -> t       bb     )
     3.18603804E-04    2          24        25   # BR(H+ -> W+      h      )
     1.12566751E-12    2          24        36   # BR(H+ -> W+      A      )
     2.39283507E-02    2     1000024   1000022   # BR(H+ -> ~chi_1+ ~chi_10)
     1.46294496E-04    2     1000024   1000023   # BR(H+ -> ~chi_1+ ~chi_20)
     2.87101717E-02    2     1000024   1000025   # BR(H+ -> ~chi_1+ ~chi_30)
