#
#                              ======================
#                              | THE SUSYHIT OUTPUT |
#                              ======================
#
#
#              ------------------------------------------------------
#              |     This is the output of the SUSY-HIT package     |
#              |  created by A.Djouadi, M.Muehlleitner and M.Spira. |
#              |  In case of problems with SUSY-HIT email to        |
#              |           margarete.muehlleitner@kit.edu           |
#              |           michael.spira@psi.ch                     |
#              |           abdelhak.djouadi@cern.ch                 |
#              ------------------------------------------------------
#
#              ------------------------------------------------------
#              |  SUSY Les Houches Accord - MSSM Spectrum + Decays  |
#              |              based on the decay programs           |
#              |                                                    |
#              |                     SDECAY 1.5                     |
#              |                                                    |
#              |  Authors: M.Muhlleitner, A.Djouadi and Y.Mambrini  |
#              |  Ref.:    Comput.Phys.Commun.168(2005)46           |
#              |           [hep-ph/0311167]                         |
#              |                                                    |
#              |                     HDECAY 3.4                     |
#              |                                                    |
#              |  By: A.Djouadi,J.Kalinowski,M.Muhlleitner,M.Spira  |
#              |  Ref.:    Comput.Phys.Commun.108(1998)56           |
#              |           [hep-ph/9704448]                         |
#              |                                                    |
#              |                                                    |
#              |  If not stated otherwise all DRbar couplings and   |
#              |  soft SUSY breaking masses are given at the scale  |
#              |  Q=  0.91187600E+02
#              |                                                    |
#              ------------------------------------------------------
#
#
BLOCK DCINFO  # Decay Program information
     1   SDECAY/HDECAY # decay calculator
     2   1.5  /3.4    # version number
#
BLOCK SPINFO  # Spectrum calculator information
     1   SuSpect     # RGE +Spectrum calculator            
     2   2.43         # version number                     
#
BLOCK MODSEL  # Model selection
     1     2   # GMSB                                              
#
BLOCK SMINPUTS  # Standard Model inputs
         1     1.27932904E+02   # alpha_em^-1(M_Z)^MSbar
         2     1.16639000E-05   # G_F [GeV^-2]
         3     1.17200000E-01   # alpha_S(M_Z)^MSbar
         4     9.11870000E+01   # M_Z pole mass
         5     4.25000000E+00   # mb(mb)^MSbar
         6     1.72900000E+02   # mt pole mass
         7     1.77700000E+00   # mtau pole mass
#
BLOCK MINPAR  # Input parameters - minimal models
#
BLOCK EXTPAR  # Input parameters - non-minimal models
         0     9.11876000E+01   # EWSB                
         1     4.63000000E+02   # M_1                 
         2     3.00000000E+03   # M_2                 
         3     1.30000000E+03   # M_3                 
        11     0.00000000E+00   # A_t                 
        12     0.00000000E+00   # A_b                 
        13     0.00000000E+00   # A_tau               
        14     0.00000000E+00   # A_u                 
        15     0.00000000E+00   # A_d                 
        16     0.00000000E+00   # A_e                 
        23     4.50000000E+02   # mu(EWSB)            
        25     1.50000000E+00   # tanbeta(in)         
        26     2.00000000E+03   # MA_pole             
        31     5.00000000E+03   # M_eL                
        32     5.00000000E+03   # M_muL               
        33     5.00000000E+03   # M_tauL              
        34     5.00000000E+03   # M_eR                
        35     5.00000000E+03   # M_muR               
        36     5.00000000E+03   # M_tauR              
        41     5.00000000E+03   # M_q1L               
        42     5.00000000E+03   # M_q2L               
        43     5.00000000E+03   # M_q3L               
        44     5.00000000E+03   # M_uR                
        45     5.00000000E+03   # M_cR                
        46     5.00000000E+03   # M_tR                
        47     5.00000000E+03   # M_dR                
        48     5.00000000E+03   # M_sR                
        49     5.00000000E+03   # M_bR                
#
BLOCK MASS  # Mass Spectrum
# PDG code           mass       particle
        24     8.05385987E+01   # W+
        25     1.26000000E+02   # h
        35     2.00419870E+03   # H
        36     2.00000000E+03   # A
        37     2.00203246E+03   # H+
         5     4.87877839E+00   # b-quark pole mass calculated from mb(mb)_Msbar
   1000001     5.00370347E+03   # ~d_L
   2000001     5.00359397E+03   # ~d_R
   1000002     5.00345871E+03   # ~u_L
   2000002     5.00351673E+03   # ~u_R
   1000003     5.00370347E+03   # ~s_L
   2000003     5.00359397E+03   # ~s_R
   1000004     5.00345871E+03   # ~c_L
   2000004     5.00351673E+03   # ~c_R
   1000005     5.00345704E+03   # ~b_1
   2000005     5.00384185E+03   # ~b_2
   1000006     5.13261525E+03   # ~t_1
   2000006     5.43025986E+03   # ~t_2
   1000011     5.00008242E+03   # ~e_L
   2000011     5.00007600E+03   # ~e_R
   1000012     4.99984158E+03   # ~nu_eL
   1000013     5.00008242E+03   # ~mu_L
   2000013     5.00007600E+03   # ~mu_R
   1000014     4.99984158E+03   # ~nu_muL
   1000015     4.99995950E+03   # ~tau_1
   2000015     5.00019955E+03   # ~tau_2
   1000016     4.99984158E+03   # ~nu_tauL
   1000021     1.42935169E+03   # ~g
   1000022     4.42348344E+02   # ~chi_10
   1000023    -4.84161909E+02   # ~chi_20
   1000025     5.29921331E+02   # ~chi_30
   1000035     3.12901590E+03   # ~chi_40
   1000024     4.81806980E+02   # ~chi_1+
   1000037     3.12901534E+03   # ~chi_2+
   1000039     1.20555556E-08   # ~gravitino
#
BLOCK NMIX  # Neutralino Mixing Matrix
  1  1     6.70658345E-01   # N_11
  1  2    -2.13935994E-02   # N_12
  1  3     5.28985007E-01   # N_13
  1  4    -5.19552269E-01   # N_14
  2  1     8.97819080E-03   # N_21
  2  2    -4.31378178E-03   # N_22
  2  3    -7.06541208E-01   # N_23
  2  4    -7.07601798E-01   # N_24
  3  1     7.41711890E-01   # N_31
  3  2     2.00685293E-02   # N_32
  3  3    -4.69745628E-01   # N_33
  3  4     4.78330191E-01   # N_34
  4  1     4.98760087E-04   # N_41
  4  2    -9.99560383E-01   # N_42
  4  3    -1.77039156E-02   # N_43
  4  4     2.37773692E-02   # N_44
#
BLOCK UMIX  # Chargino Mixing Matrix U
  1  1    -2.50281478E-02   # U_11
  1  2     9.99686747E-01   # U_12
  2  1     9.99686747E-01   # U_21
  2  2     2.50281478E-02   # U_22
#
BLOCK VMIX  # Chargino Mixing Matrix V
  1  1    -3.36203191E-02   # V_11
  1  2     9.99434677E-01   # V_12
  2  1     9.99434677E-01   # V_21
  2  2     3.36203191E-02   # V_22
#
BLOCK STOPMIX  # Stop Mixing Matrix
  1  1     9.99930872E-01   # cos(theta_t)
  1  2    -1.17580280E-02   # sin(theta_t)
  2  1     1.17580280E-02   # -sin(theta_t)
  2  2     9.99930872E-01   # cos(theta_t)
#
BLOCK SBOTMIX  # Sbottom Mixing Matrix
  1  1     5.98095832E-01   # cos(theta_b)
  1  2     8.01424591E-01   # sin(theta_b)
  2  1    -8.01424591E-01   # -sin(theta_b)
  2  2     5.98095832E-01   # cos(theta_b)
#
BLOCK STAUMIX  # Stau Mixing Matrix
  1  1     6.97597533E-01   # cos(theta_tau)
  1  2     7.16489834E-01   # sin(theta_tau)
  2  1    -7.16489834E-01   # -sin(theta_tau)
  2  2     6.97597533E-01   # cos(theta_tau)
#
BLOCK ALPHA  # Higgs mixing
          -5.90203266E-01   # Mixing angle in the neutral Higgs boson sector
#
BLOCK HMIX Q=  9.11876000E+01  # DRbar Higgs Parameters
         1     4.50000000E+02   # mu(Q)               
         2     1.49999979E+00   # tanbeta(Q)          
         3     2.51888328E+02   # vev(Q)              
         4     3.77007110E+06   # MA^2(Q)             
#
BLOCK GAUGE Q=  9.11876000E+01  # The gauge couplings
     1     3.52960478E-01   # gprime(Q) DRbar
     2     6.28305137E-01   # g(Q) DRbar
     3     1.08739743E+00   # g3(Q) DRbar
#
BLOCK AU Q=  9.11876000E+01  # The trilinear couplings
  1  1     0.00000000E+00   # A_u(Q) DRbar
  2  2     0.00000000E+00   # A_c(Q) DRbar
  3  3     0.00000000E+00   # A_t(Q) DRbar
#
BLOCK AD Q=  9.11876000E+01  # The trilinear couplings
  1  1     0.00000000E+00   # A_d(Q) DRbar
  2  2     0.00000000E+00   # A_s(Q) DRbar
  3  3     0.00000000E+00   # A_b(Q) DRbar
#
BLOCK AE Q=  9.11876000E+01  # The trilinear couplings
  1  1     0.00000000E+00   # A_e(Q) DRbar
  2  2     0.00000000E+00   # A_mu(Q) DRbar
  3  3     0.00000000E+00   # A_tau(Q) DRbar
#
BLOCK Yu Q=  9.11876000E+01  # The Yukawa couplings
  1  1     0.00000000E+00   # y_u(Q) DRbar
  2  2     0.00000000E+00   # y_c(Q) DRbar
  3  3     1.02609619E+00   # y_t(Q) DRbar
#
BLOCK Yd Q=  9.11876000E+01  # The Yukawa couplings
  1  1     0.00000000E+00   # y_d(Q) DRbar
  2  2     0.00000000E+00   # y_s(Q) DRbar
  3  3     2.72159282E-02   # y_b(Q) DRbar
#
BLOCK Ye Q=  9.11876000E+01  # The Yukawa couplings
  1  1     0.00000000E+00   # y_e(Q) DRbar
  2  2     0.00000000E+00   # y_mu(Q) DRbar
  3  3     1.79915154E-02   # y_tau(Q) DRbar
#
BLOCK MSOFT Q=  9.11876000E+01  # The soft SUSY breaking masses at the scale Q
         1     4.63000000E+02   # M_1                 
         2     3.00000000E+03   # M_2                 
         3     1.30000000E+03   # M_3                 
        14     0.00000000E+00   # A_u                 
        15     0.00000000E+00   # A_d                 
        16     0.00000000E+00   # A_e                 
        21     2.83455206E+06   # M^2_Hd              
        22    -5.67256499E+06   # M^2_Hu              
        31     5.00000000E+03   # M_eL                
        32     5.00000000E+03   # M_muL               
        33     5.00000000E+03   # M_tauL              
        34     5.00000000E+03   # M_eR                
        35     5.00000000E+03   # M_muR               
        36     5.00000000E+03   # M_tauR              
        41     5.00000000E+03   # M_q1L               
        42     5.00000000E+03   # M_q2L               
        43     5.00000000E+03   # M_q3L               
        44     5.00000000E+03   # M_uR                
        45     5.00000000E+03   # M_cR                
        46     5.00000000E+03   # M_tR                
        47     5.00000000E+03   # M_dR                
        48     5.00000000E+03   # M_sR                
        49     5.00000000E+03   # M_bR                
#
#
#
#                             =================
#                             |The decay table|
#                             =================
#
# - The QCD corrections to the decays gluino -> squark  + quark
#                                     squark -> gaugino + quark_prime
#                                     squark -> squark_prime + Higgs
#                                     squark -> gluino  + quark
#   are included.
#
# - The multi-body decays for the inos, stops and sbottoms are included.
#
# - The loop induced decays for the gluino, neutralinos and stops
#   are included.
#
# - The SUSY decays of the top quark are included.
#
# - Possible decays of the NLSP in GMSB models are included.
#
#
#         PDG            Width
DECAY         6     1.37553408E+00   # top decays
#          BR         NDA      ID1       ID2
     1.00000000E+00    2           5        24   # BR(t ->  b    W+)
#
#         PDG            Width
DECAY   1000021     2.64985251E-04   # gluino decays
#          BR         NDA      ID1       ID2
     1.47190457E-02    2     1000022        21   # BR(~g -> ~chi_10 g)
     2.54223047E-02    2     1000023        21   # BR(~g -> ~chi_20 g)
     1.04737267E-02    2     1000025        21   # BR(~g -> ~chi_30 g)
#          BR         NDA      ID1       ID2
     1.78355187E-04    2     1000039        21   # BR(~g -> ~G      g)
#           BR         NDA      ID1       ID2       ID3
     5.52435724E-03    3     1000022         1        -1   # BR(~g -> ~chi_10 d  db)
     1.21104486E-06    3     1000023         1        -1   # BR(~g -> ~chi_20 d  db)
     4.55159277E-03    3     1000025         1        -1   # BR(~g -> ~chi_30 d  db)
     1.71704256E-02    3     1000022         2        -2   # BR(~g -> ~chi_10 u  ub)
     1.33704427E-06    3     1000023         2        -2   # BR(~g -> ~chi_20 u  ub)
     1.66516723E-02    3     1000025         2        -2   # BR(~g -> ~chi_30 u  ub)
     5.52435724E-03    3     1000022         3        -3   # BR(~g -> ~chi_10 s  sb)
     1.21104486E-06    3     1000023         3        -3   # BR(~g -> ~chi_20 s  sb)
     4.55159277E-03    3     1000025         3        -3   # BR(~g -> ~chi_30 s  sb)
     1.71704256E-02    3     1000022         4        -4   # BR(~g -> ~chi_10 c  cb)
     1.33704427E-06    3     1000023         4        -4   # BR(~g -> ~chi_20 c  cb)
     1.66516723E-02    3     1000025         4        -4   # BR(~g -> ~chi_30 c  cb)
     5.63681686E-03    3     1000022         5        -5   # BR(~g -> ~chi_10 b  bb)
     2.36239136E-04    3     1000023         5        -5   # BR(~g -> ~chi_20 b  bb)
     4.66478343E-03    3     1000025         5        -5   # BR(~g -> ~chi_30 b  bb)
     1.10966125E-01    3     1000022         6        -6   # BR(~g -> ~chi_10 t  tb)
     1.68618303E-01    3     1000023         6        -6   # BR(~g -> ~chi_20 t  tb)
     9.74007861E-02    3     1000025         6        -6   # BR(~g -> ~chi_30 t  tb)
     1.01128011E-04    3     1000024         1        -2   # BR(~g -> ~chi_1+ d  ub)
     1.01128011E-04    3    -1000024         2        -1   # BR(~g -> ~chi_1- u  db)
     1.01128011E-04    3     1000024         3        -4   # BR(~g -> ~chi_1+ s  cb)
     1.01128011E-04    3    -1000024         4        -3   # BR(~g -> ~chi_1- c  sb)
     2.36738905E-01    3     1000024         5        -6   # BR(~g -> ~chi_1+ b  tb)
     2.36738905E-01    3    -1000024         6        -5   # BR(~g -> ~chi_1- t  bb)
#
#         PDG            Width
DECAY   1000006     3.26645635E+02   # stop1 decays
#          BR         NDA      ID1       ID2
     5.93093770E-02    2     1000022         6   # BR(~t_1 -> ~chi_10 t )
     1.11032302E-01    2     1000023         6   # BR(~t_1 -> ~chi_20 t )
     5.33707802E-02    2     1000025         6   # BR(~t_1 -> ~chi_30 t )
     2.37085446E-02    2     1000035         6   # BR(~t_1 -> ~chi_40 t )
     9.91984040E-05    2     1000024         5   # BR(~t_1 -> ~chi_1+ b )
     4.72412062E-02    2     1000037         5   # BR(~t_1 -> ~chi_2+ b )
     6.89256523E-01    2     1000021         6   # BR(~t_1 -> ~g      t )
     5.77043917E-03    2     1000005        24   # BR(~t_1 -> ~b_1    W+)
     1.02116295E-02    2     2000005        24   # BR(~t_1 -> ~b_2    W+)
#
#         PDG            Width
DECAY   2000006     4.05139536E+02   # stop2 decays
#          BR         NDA      ID1       ID2
     6.51767302E-02    2     1000022         6   # BR(~t_2 -> ~chi_10 t )
     9.52798201E-02    2     1000023         6   # BR(~t_2 -> ~chi_20 t )
     5.77900300E-02    2     1000025         6   # BR(~t_2 -> ~chi_30 t )
    -6.91463873E-06    2     1000035         6   # BR(~t_2 -> ~chi_40 t )
     1.90618557E-01    2     1000024         5   # BR(~t_2 -> ~chi_1+ b )
    -1.36637826E-05    2     1000037         5   # BR(~t_2 -> ~chi_2+ b )
     5.91070292E-01    2     1000021         6   # BR(~t_2 -> ~g      t )
    -4.33269364E-05    2     1000006        25   # BR(~t_2 -> ~t_1    h )
     1.86872671E-05    2     1000006        23   # BR(~t_2 -> ~t_1    Z )
     3.93107307E-05    2     1000005        24   # BR(~t_2 -> ~b_1    W+)
     7.04781210E-05    2     2000005        24   # BR(~t_2 -> ~b_2    W+)
#
#         PDG            Width
DECAY   1000005     2.38014494E+02   # sbottom1 decays
#          BR         NDA      ID1       ID2
     5.04800629E-03    2     1000022         5   # BR(~b_1 -> ~chi_10 b )
     8.28920166E-05    2     1000023         5   # BR(~b_1 -> ~chi_20 b )
     4.32700295E-03    2     1000025         5   # BR(~b_1 -> ~chi_30 b )
     6.48568929E-03    2     1000035         5   # BR(~b_1 -> ~chi_40 b )
     4.87070886E-02    2    -1000024         6   # BR(~b_1 -> ~chi_1- t )
     1.30133496E-02    2    -1000037         6   # BR(~b_1 -> ~chi_2- t )
     9.22335971E-01    2     1000021         5   # BR(~b_1 -> ~g      b )
#
#         PDG            Width
DECAY   2000005     2.96238303E+02   # sbottom2 decays
#          BR         NDA      ID1       ID2
     1.38120798E-03    2     1000022         5   # BR(~b_2 -> ~chi_10 b )
     1.05124637E-04    2     1000023         5   # BR(~b_2 -> ~chi_20 b )
     2.31705732E-03    2     1000025         5   # BR(~b_2 -> ~chi_30 b )
     1.86129914E-02    2     1000035         5   # BR(~b_2 -> ~chi_40 b )
     1.99363535E-01    2    -1000024         6   # BR(~b_2 -> ~chi_1- t )
     3.73668929E-02    2    -1000037         6   # BR(~b_2 -> ~chi_2- t )
     7.40853191E-01    2     1000021         5   # BR(~b_2 -> ~g      b )
#
#         PDG            Width
DECAY   1000002     2.41362269E+02   # sup_L decays
#          BR         NDA      ID1       ID2
     8.40473902E-04    2     1000022         2   # BR(~u_L -> ~chi_10 u)
     5.34917427E-07    2     1000023         2   # BR(~u_L -> ~chi_20 u)
     1.94304794E-03    2     1000025         2   # BR(~u_L -> ~chi_30 u)
     2.92233803E-02    2     1000035         2   # BR(~u_L -> ~chi_40 u)
     1.74517931E-04    2     1000024         1   # BR(~u_L -> ~chi_1+ d)
     5.84430085E-02    2     1000037         1   # BR(~u_L -> ~chi_2+ d)
     9.09375037E-01    2     1000021         2   # BR(~u_L -> ~g      u)
#
#         PDG            Width
DECAY   2000002     2.29937303E+02   # sup_R decays
#          BR         NDA      ID1       ID2
     2.05079421E-02    2     1000022         2   # BR(~u_R -> ~chi_10 u)
     3.66402942E-06    2     1000023         2   # BR(~u_R -> ~chi_20 u)
     2.49139526E-02    2     1000025         2   # BR(~u_R -> ~chi_30 u)
     4.28591101E-09    2     1000035         2   # BR(~u_R -> ~chi_40 u)
     9.54574437E-01    2     1000021         2   # BR(~u_R -> ~g      u)
#
#         PDG            Width
DECAY   1000001     2.41365935E+02   # sdown_L decays
#          BR         NDA      ID1       ID2
     1.67257529E-03    2     1000022         1   # BR(~d_L -> ~chi_10 d)
     2.77409309E-06    2     1000023         1   # BR(~d_L -> ~chi_20 d)
     1.08572668E-03    2     1000025         1   # BR(~d_L -> ~chi_30 d)
     2.92389342E-02    2     1000035         1   # BR(~d_L -> ~chi_40 d)
     9.67184586E-05    2    -1000024         2   # BR(~d_L -> ~chi_1- u)
     5.84817523E-02    2    -1000037         2   # BR(~d_L -> ~chi_2- u)
     9.09421519E-01    2     1000021         1   # BR(~d_L -> ~g      d)
#
#         PDG            Width
DECAY   2000001     2.22108164E+02   # sdown_R decays
#          BR         NDA      ID1       ID2
     5.30779269E-03    2     1000022         1   # BR(~d_R -> ~chi_10 d)
     9.48311164E-07    2     1000023         1   # BR(~d_R -> ~chi_20 d)
     6.44814203E-03    2     1000025         1   # BR(~d_R -> ~chi_30 d)
     1.10930725E-09    2     1000035         1   # BR(~d_R -> ~chi_40 d)
     9.88243116E-01    2     1000021         1   # BR(~d_R -> ~g      d)
#
#         PDG            Width
DECAY   1000004     2.41362269E+02   # scharm_L decays
#          BR         NDA      ID1       ID2
     8.40473902E-04    2     1000022         4   # BR(~c_L -> ~chi_10 c)
     5.34917427E-07    2     1000023         4   # BR(~c_L -> ~chi_20 c)
     1.94304794E-03    2     1000025         4   # BR(~c_L -> ~chi_30 c)
     2.92233803E-02    2     1000035         4   # BR(~c_L -> ~chi_40 c)
     1.74517931E-04    2     1000024         3   # BR(~c_L -> ~chi_1+ s)
     5.84430085E-02    2     1000037         3   # BR(~c_L -> ~chi_2+ s)
     9.09375037E-01    2     1000021         4   # BR(~c_L -> ~g      c)
#
#         PDG            Width
DECAY   2000004     2.29937303E+02   # scharm_R decays
#          BR         NDA      ID1       ID2
     2.05079421E-02    2     1000022         4   # BR(~c_R -> ~chi_10 c)
     3.66402942E-06    2     1000023         4   # BR(~c_R -> ~chi_20 c)
     2.49139526E-02    2     1000025         4   # BR(~c_R -> ~chi_30 c)
     4.28591101E-09    2     1000035         4   # BR(~c_R -> ~chi_40 c)
     9.54574437E-01    2     1000021         4   # BR(~c_R -> ~g      c)
#
#         PDG            Width
DECAY   1000003     2.41365935E+02   # sstrange_L decays
#          BR         NDA      ID1       ID2
     1.67257529E-03    2     1000022         3   # BR(~s_L -> ~chi_10 s)
     2.77409309E-06    2     1000023         3   # BR(~s_L -> ~chi_20 s)
     1.08572668E-03    2     1000025         3   # BR(~s_L -> ~chi_30 s)
     2.92389342E-02    2     1000035         3   # BR(~s_L -> ~chi_40 s)
     9.67184586E-05    2    -1000024         4   # BR(~s_L -> ~chi_1- c)
     5.84817523E-02    2    -1000037         4   # BR(~s_L -> ~chi_2- c)
     9.09421519E-01    2     1000021         3   # BR(~s_L -> ~g      s)
#
#         PDG            Width
DECAY   2000003     2.22108164E+02   # sstrange_R decays
#          BR         NDA      ID1       ID2
     5.30779269E-03    2     1000022         3   # BR(~s_R -> ~chi_10 s)
     9.48311164E-07    2     1000023         3   # BR(~s_R -> ~chi_20 s)
     6.44814203E-03    2     1000025         3   # BR(~s_R -> ~chi_30 s)
     1.10930725E-09    2     1000035         3   # BR(~s_R -> ~chi_40 s)
     9.88243116E-01    2     1000021         3   # BR(~s_R -> ~g      s)
#
#         PDG            Width
DECAY   1000011     2.79086825E+01   # selectron_L decays
#          BR         NDA      ID1       ID2
     8.74561042E-02    2     1000022        11   # BR(~e_L -> ~chi_10 e-)
     3.67770374E-07    2     1000023        11   # BR(~e_L -> ~chi_20 e-)
     1.31192151E-01    2     1000025        11   # BR(~e_L -> ~chi_30 e-)
     2.60020935E-01    2     1000035        11   # BR(~e_L -> ~chi_40 e-)
     8.65095209E-04    2    -1000024        12   # BR(~e_L -> ~chi_1- nu_e)
     5.20465347E-01    2    -1000037        12   # BR(~e_L -> ~chi_2- nu_e)
#
#         PDG            Width
DECAY   2000011     2.43065517E+01   # selectron_R decays
#          BR         NDA      ID1       ID2
     4.51485012E-01    2     1000022        11   # BR(~e_R -> ~chi_10 e-)
     8.06604623E-05    2     1000023        11   # BR(~e_R -> ~chi_20 e-)
     5.48434233E-01    2     1000025        11   # BR(~e_R -> ~chi_30 e-)
     9.38862636E-08    2     1000035        11   # BR(~e_R -> ~chi_40 e-)
#
#         PDG            Width
DECAY   1000013     2.79086825E+01   # smuon_L decays
#          BR         NDA      ID1       ID2
     8.74561042E-02    2     1000022        13   # BR(~mu_L -> ~chi_10 mu-)
     3.67770374E-07    2     1000023        13   # BR(~mu_L -> ~chi_20 mu-)
     1.31192151E-01    2     1000025        13   # BR(~mu_L -> ~chi_30 mu-)
     2.60020935E-01    2     1000035        13   # BR(~mu_L -> ~chi_40 mu-)
     8.65095209E-04    2    -1000024        14   # BR(~mu_L -> ~chi_1- nu_mu)
     5.20465347E-01    2    -1000037        14   # BR(~mu_L -> ~chi_2- nu_mu)
#
#         PDG            Width
DECAY   2000013     2.43065517E+01   # smuon_R decays
#          BR         NDA      ID1       ID2
     4.51485012E-01    2     1000022        13   # BR(~mu_R -> ~chi_10 mu-)
     8.06604623E-05    2     1000023        13   # BR(~mu_R -> ~chi_20 mu-)
     5.48434233E-01    2     1000025        13   # BR(~mu_R -> ~chi_30 mu-)
     9.38862636E-08    2     1000035        13   # BR(~mu_R -> ~chi_40 mu-)
#
#         PDG            Width
DECAY   1000015     2.61337334E+01   # stau_1 decays
#          BR         NDA      ID1       ID2
     2.67669571E-01    2     1000022        15   # BR(~tau_1 -> ~chi_10  tau-)
     4.44971781E-04    2     1000023        15   # BR(~tau_1 -> ~chi_20  tau-)
     3.24777107E-01    2     1000025        15   # BR(~tau_1 -> ~chi_30  tau-)
     1.34920336E-01    2     1000035        15   # BR(~tau_1 -> ~chi_40  tau-)
     2.12623184E-03    2    -1000024        16   # BR(~tau_1 -> ~chi_1-  nu_tau)
     2.70060835E-01    2    -1000037        16   # BR(~tau_1 -> ~chi_2-  nu_tau)
     9.47202696E-07    2     1000039        15   # BR(~tau_1 -> ~G       tau-)
#
#         PDG            Width
DECAY   2000015     2.61763068E+01   # stau_2 decays
#          BR         NDA      ID1       ID2
     2.45922043E-01    2     1000022        15   # BR(~tau_2 -> ~chi_10  tau-)
     8.36218274E-04    2     1000023        15   # BR(~tau_2 -> ~chi_20  tau-)
     3.25417397E-01    2     1000025        15   # BR(~tau_2 -> ~chi_30  tau-)
     1.42529066E-01    2     1000035        15   # BR(~tau_2 -> ~chi_40  tau-)
     6.11003517E-06    2    -1000024        16   # BR(~tau_2 -> ~chi_1-  nu_tau)
     2.85289166E-01    2    -1000037        16   # BR(~tau_2 -> ~chi_2-  nu_tau)
#
#         PDG            Width
DECAY   1000012     2.79076373E+01   # snu_eL decays
#          BR         NDA      ID1       ID2
     1.09783026E-01    2     1000022        12   # BR(~nu_eL -> ~chi_10 nu_e)
     6.04510589E-05    2     1000023        12   # BR(~nu_eL -> ~chi_20 nu_e)
     1.08185132E-01    2     1000025        12   # BR(~nu_eL -> ~chi_30 nu_e)
     2.60277568E-01    2     1000035        12   # BR(~nu_eL -> ~chi_40 nu_e)
     1.56100649E-03    2     1000024        11   # BR(~nu_eL -> ~chi_1+ e-)
     5.20132816E-01    2     1000037        11   # BR(~nu_eL -> ~chi_2+ e-)
#
#         PDG            Width
DECAY   1000014     2.79076373E+01   # snu_muL decays
#          BR         NDA      ID1       ID2
     1.09783026E-01    2     1000022        14   # BR(~nu_muL -> ~chi_10 nu_mu)
     6.04510589E-05    2     1000023        14   # BR(~nu_muL -> ~chi_20 nu_mu)
     1.08185132E-01    2     1000025        14   # BR(~nu_muL -> ~chi_30 nu_mu)
     2.60277568E-01    2     1000035        14   # BR(~nu_muL -> ~chi_40 nu_mu)
     1.56100649E-03    2     1000024        13   # BR(~nu_muL -> ~chi_1+ mu-)
     5.20132816E-01    2     1000037        13   # BR(~nu_muL -> ~chi_2+ mu-)
#
#         PDG            Width
DECAY   1000016     2.79392275E+01   # snu_tauL decays
#          BR         NDA      ID1       ID2
     1.09658897E-01    2     1000022        16   # BR(~nu_tauL -> ~chi_10 nu_tau)
     6.03827085E-05    2     1000023        16   # BR(~nu_tauL -> ~chi_20 nu_tau)
     1.08062810E-01    2     1000025        16   # BR(~nu_tauL -> ~chi_30 nu_tau)
     2.59983280E-01    2     1000035        16   # BR(~nu_tauL -> ~chi_40 nu_tau)
     2.68945647E-03    2     1000024        15   # BR(~nu_tauL -> ~chi_1+ tau-)
     5.19545174E-01    2     1000037        15   # BR(~nu_tauL -> ~chi_2+ tau-)
#
#         PDG            Width
DECAY   1000024     6.06087435E-05   # chargino1+ decays
#          BR         NDA      ID1       ID2
     1.52211862E-06    2     1000039        24   # BR(~chi_1+ -> ~G       W+)
#           BR         NDA      ID1       ID2       ID3
     3.33704597E-01    3     1000022         2        -1   # BR(~chi_1+ -> ~chi_10 u    db)
     3.33704597E-01    3     1000022         4        -3   # BR(~chi_1+ -> ~chi_10 c    sb)
     1.11234992E-01    3     1000022       -11        12   # BR(~chi_1+ -> ~chi_10 e+   nu_e)
     1.11234992E-01    3     1000022       -13        14   # BR(~chi_1+ -> ~chi_10 mu+  nu_mu)
     1.10119299E-01    3     1000022       -15        16   # BR(~chi_1+ -> ~chi_10 tau+ nu_tau)
#
#         PDG            Width
DECAY   1000037     3.50049448E+01   # chargino2+ decays
#          BR         NDA      ID1       ID2
     2.21826259E-01    2     1000024        23   # BR(~chi_2+ -> ~chi_1+  Z )
     1.12712166E-01    2     1000022        24   # BR(~chi_2+ -> ~chi_10  W+)
     2.16299051E-01    2     1000023        24   # BR(~chi_2+ -> ~chi_20  W+)
     1.03578447E-01    2     1000025        24   # BR(~chi_2+ -> ~chi_30  W+)
     2.22782778E-01    2     1000024        25   # BR(~chi_2+ -> ~chi_1+  h )
     3.05886136E-02    2     1000024        35   # BR(~chi_2+ -> ~chi_1+  H )
     3.08300292E-02    2     1000024        36   # BR(~chi_2+ -> ~chi_1+  A )
     1.80052316E-02    2     1000022        37   # BR(~chi_2+ -> ~chi_10  H+)
     3.05923161E-02    2     1000023        37   # BR(~chi_2+ -> ~chi_20  H+)
     1.27850415E-02    2     1000025        37   # BR(~chi_2+ -> ~chi_30  H+)
     6.76768089E-08    2     1000039        24   # BR(~chi_2+ -> ~G       W+)
     3.22722772E-12    2     1000039        37   # BR(~chi_2+ -> ~G       H+)
#
#         PDG            Width
DECAY   1000022     8.84258146E-11   # neutralino1 decays
#          BR         NDA      ID1       ID2
     5.00303676E-01    2     1000039        22   # BR(~chi_10 -> ~G        gam)
     4.89507283E-01    2     1000039        23   # BR(~chi_10 -> ~G        Z)
     1.01890411E-02    2     1000039        25   # BR(~chi_10 -> ~G        h)
#
#         PDG            Width
DECAY   1000023     6.54697653E-05   # neutralino2 decays
#          BR         NDA      ID1       ID2
     8.03367093E-04    2     1000022        22   # BR(~chi_20 -> ~chi_10 gam)
#          BR         NDA      ID1       ID2
     1.05131483E-10    2     1000039        22   # BR(~chi_20 -> ~G        gam)
     5.41598362E-08    2     1000039        23   # BR(~chi_20 -> ~G        Z)
     1.17030614E-06    2     1000039        25   # BR(~chi_20 -> ~G        h)
#           BR         NDA      ID1       ID2       ID3
     1.19124793E-01    3     1000022        -2         2   # BR(~chi_20 -> ~chi_10 ub      u)
     1.54212228E-01    3     1000022        -1         1   # BR(~chi_20 -> ~chi_10 db      d)
     1.19124793E-01    3     1000022        -4         4   # BR(~chi_20 -> ~chi_10 cb      c)
     1.54212228E-01    3     1000022        -3         3   # BR(~chi_20 -> ~chi_10 sb      s)
     1.36475830E-01    3     1000022        -5         5   # BR(~chi_20 -> ~chi_10 bb      b)
     3.52026929E-02    3     1000022       -11        11   # BR(~chi_20 -> ~chi_10 e+      e-)
     3.52026929E-02    3     1000022       -13        13   # BR(~chi_20 -> ~chi_10 mu+     mu-)
     3.47658339E-02    3     1000022       -15        15   # BR(~chi_20 -> ~chi_10 tau+    tau-)
     7.02907071E-02    3     1000022       -12        12   # BR(~chi_20 -> ~chi_10 nu_eb   nu_e)
     7.02907071E-02    3     1000022       -14        14   # BR(~chi_20 -> ~chi_10 nu_mub  nu_mu)
     7.02907071E-02    3     1000022       -16        16   # BR(~chi_20 -> ~chi_10 nu_taub nu_tau)
     4.09792440E-07    3     1000024        -2         1   # BR(~chi_20 -> ~chi_1+ ub      d)
     4.09792440E-07    3    -1000024        -1         2   # BR(~chi_20 -> ~chi_1- db      u)
     4.09792440E-07    3     1000024        -4         3   # BR(~chi_20 -> ~chi_1+ cb      s)
     4.09792440E-07    3    -1000024        -3         4   # BR(~chi_20 -> ~chi_1- sb      c)
     1.36597494E-07    3     1000024       -12        11   # BR(~chi_20 -> ~chi_1+ nu_eb   e-)
     1.36597494E-07    3    -1000024        12       -11   # BR(~chi_20 -> ~chi_1- nu_e    e+)
     1.36597494E-07    3     1000024       -14        13   # BR(~chi_20 -> ~chi_1+ nu_mub  mu-)
     1.36597494E-07    3    -1000024        14       -13   # BR(~chi_20 -> ~chi_1- nu_mu   mu+)
     4.82629568E-09    3     1000024       -16        15   # BR(~chi_20 -> ~chi_1+ nu_taub tau-)
     4.82629568E-09    3    -1000024        16       -15   # BR(~chi_20 -> ~chi_1- nu_tau  tau+)
#
#         PDG            Width
DECAY   1000025     3.74619467E-04   # neutralino3 decays
#          BR         NDA      ID1       ID2
     2.17053586E-04    2     1000022        22   # BR(~chi_30 -> ~chi_10 gam)
     5.21196600E-04    2     1000023        22   # BR(~chi_30 -> ~chi_20 gam)
#          BR         NDA      ID1       ID2
     3.80832906E-07    2     1000039        22   # BR(~chi_30 -> ~G        gam)
     2.63594327E-07    2     1000039        23   # BR(~chi_30 -> ~G        Z)
     6.47317127E-09    2     1000039        25   # BR(~chi_30 -> ~G        h)
#           BR         NDA      ID1       ID2       ID3
     3.46938527E-08    3     1000022        -2         2   # BR(~chi_30 -> ~chi_10 ub      u)
     4.03497826E-08    3     1000022        -1         1   # BR(~chi_30 -> ~chi_10 db      d)
     3.46938527E-08    3     1000022        -4         4   # BR(~chi_30 -> ~chi_10 cb      c)
     4.03497826E-08    3     1000022        -3         3   # BR(~chi_30 -> ~chi_10 sb      s)
     1.03380499E-06    3     1000022        -5         5   # BR(~chi_30 -> ~chi_10 bb      b)
     9.19822485E-08    3     1000022       -11        11   # BR(~chi_30 -> ~chi_10 e+      e-)
     9.19822485E-08    3     1000022       -13        13   # BR(~chi_30 -> ~chi_10 mu+     mu-)
     2.40992110E-07    3     1000022       -15        15   # BR(~chi_30 -> ~chi_10 tau+    tau-)
     6.64618049E-09    3     1000022       -12        12   # BR(~chi_30 -> ~chi_10 nu_eb   nu_e)
     6.64618049E-09    3     1000022       -14        14   # BR(~chi_30 -> ~chi_10 nu_mub  nu_mu)
     6.64618049E-09    3     1000022       -16        16   # BR(~chi_30 -> ~chi_10 nu_taub nu_tau)
     2.75032867E-02    3     1000023        -2         2   # BR(~chi_30 -> ~chi_20 ub      u)
     3.56043307E-02    3     1000023        -1         1   # BR(~chi_30 -> ~chi_20 db      d)
     2.75032867E-02    3     1000023        -4         4   # BR(~chi_30 -> ~chi_20 cb      c)
     3.56043307E-02    3     1000023        -3         3   # BR(~chi_30 -> ~chi_20 sb      s)
     3.21229804E-02    3     1000023        -5         5   # BR(~chi_30 -> ~chi_20 bb      b)
     8.12762995E-03    3     1000023       -11        11   # BR(~chi_30 -> ~chi_20 e+      e-)
     8.12762995E-03    3     1000023       -13        13   # BR(~chi_30 -> ~chi_20 mu+     mu-)
     8.03942796E-03    3     1000023       -15        15   # BR(~chi_30 -> ~chi_20 tau+    tau-)
     1.62285272E-02    3     1000023       -12        12   # BR(~chi_30 -> ~chi_20 nu_eb   nu_e)
     1.62285272E-02    3     1000023       -14        14   # BR(~chi_30 -> ~chi_20 nu_mub  nu_mu)
     1.62285272E-02    3     1000023       -16        16   # BR(~chi_30 -> ~chi_20 nu_taub nu_tau)
     1.28085740E-01    3     1000024        -2         1   # BR(~chi_30 -> ~chi_1+ ub      d)
     1.28085740E-01    3    -1000024        -1         2   # BR(~chi_30 -> ~chi_1- db      u)
     1.28085740E-01    3     1000024        -4         3   # BR(~chi_30 -> ~chi_1+ cb      s)
     1.28085740E-01    3    -1000024        -3         4   # BR(~chi_30 -> ~chi_1- sb      c)
     4.26951619E-02    3     1000024       -12        11   # BR(~chi_30 -> ~chi_1+ nu_eb   e-)
     4.26951619E-02    3    -1000024        12       -11   # BR(~chi_30 -> ~chi_1- nu_e    e+)
     4.26951619E-02    3     1000024       -14        13   # BR(~chi_30 -> ~chi_1+ nu_mub  mu-)
     4.26951619E-02    3    -1000024        14       -13   # BR(~chi_30 -> ~chi_1- nu_mu   mu+)
     4.24086897E-02    3     1000024       -16        15   # BR(~chi_30 -> ~chi_1+ nu_taub tau-)
     4.24086897E-02    3    -1000024        16       -15   # BR(~chi_30 -> ~chi_1- nu_tau  tau+)
#
#         PDG            Width
DECAY   1000035     3.50053400E+01   # neutralino4 decays
#          BR         NDA      ID1       ID2
     2.28704548E-03    2     1000022        23   # BR(~chi_40 -> ~chi_10   Z )
     2.17342547E-01    2     1000023        23   # BR(~chi_40 -> ~chi_20   Z )
     2.33050795E-03    2     1000025        23   # BR(~chi_40 -> ~chi_30   Z )
     2.16110721E-01    2     1000024       -24   # BR(~chi_40 -> ~chi_1+   W-)
     2.16110721E-01    2    -1000024        24   # BR(~chi_40 -> ~chi_1-   W+)
     1.13935735E-01    2     1000022        25   # BR(~chi_40 -> ~chi_10   h )
     1.89708577E-03    2     1000022        35   # BR(~chi_40 -> ~chi_10   H )
     1.60825588E-02    2     1000022        36   # BR(~chi_40 -> ~chi_10   A )
     4.60561500E-03    2     1000023        25   # BR(~chi_40 -> ~chi_20   h )
     2.72099286E-02    2     1000023        35   # BR(~chi_40 -> ~chi_20   H )
     3.30330907E-03    2     1000023        36   # BR(~chi_40 -> ~chi_20   A )
     1.04477232E-01    2     1000025        25   # BR(~chi_40 -> ~chi_30   h )
     1.35017598E-03    2     1000025        35   # BR(~chi_40 -> ~chi_30   H )
     1.14191832E-02    2     1000025        36   # BR(~chi_40 -> ~chi_30   A )
     3.07687832E-02    2     1000024       -37   # BR(~chi_40 -> ~chi_1+   H-)
     3.07687832E-02    2    -1000024        37   # BR(~chi_40 -> ~chi_1-   H+)
     1.62388776E-08    2     1000039        22   # BR(~chi_40 -> ~G        gam)
     5.14321604E-08    2     1000039        23   # BR(~chi_40 -> ~G        Z)
     3.30616872E-12    2     1000039        25   # BR(~chi_40 -> ~G        h)
     3.20491132E-12    2     1000039        35   # BR(~chi_40 -> ~G        H)
     9.86502987E-15    2     1000039        36   # BR(~chi_40 -> ~G        A)
#
#         PDG            Width
DECAY        25     4.21722699E-03   # h decays
#          BR         NDA      ID1       ID2
     6.01689526E-01    2           5        -5   # BR(h -> b       bb     )
     6.22557054E-02    2         -15        15   # BR(h -> tau+    tau-   )
     2.20358056E-04    2         -13        13   # BR(h -> mu+     mu-    )
     4.66235014E-04    2           3        -3   # BR(h -> s       sb     )
     2.01142039E-02    2           4        -4   # BR(h -> c       cb     )
     6.64255409E-02    2          21        21   # BR(h -> g       g      )
     2.31266531E-03    2          22        22   # BR(h -> gam     gam    )
     1.62693040E-03    2          22        23   # BR(h -> Z       gam    )
     2.16800348E-01    2          24       -24   # BR(h -> W+      W-     )
     2.80884869E-02    2          23        23   # BR(h -> Z       Z      )
#
#         PDG            Width
DECAY        35     3.99026324E+01   # H decays
#          BR         NDA      ID1       ID2
     1.39695592E-03    2           5        -5   # BR(H -> b       bb     )
     2.33526430E-04    2         -15        15   # BR(H -> tau+    tau-   )
     8.25602872E-07    2         -13        13   # BR(H -> mu+     mu-    )
     1.05705946E-06    2           3        -3   # BR(H -> s       sb     )
     9.53971678E-06    2           4        -4   # BR(H -> c       cb     )
     9.43915778E-01    2           6        -6   # BR(H -> t       tb     )
     7.55949664E-04    2          21        21   # BR(H -> g       g      )
     2.63735006E-06    2          22        22   # BR(H -> gam     gam    )
     1.09854118E-06    2          23        22   # BR(H -> Z       gam    )
     3.17528370E-04    2          24       -24   # BR(H -> W+      W-     )
     1.58331136E-04    2          23        23   # BR(H -> Z       Z      )
     8.57410400E-04    2          25        25   # BR(H -> h       h      )
     8.73293687E-24    2          36        36   # BR(H -> A       A      )
     3.52836427E-11    2          23        36   # BR(H -> Z       A      )
     3.14335721E-12    2          24       -37   # BR(H -> W+      H-     )
     3.14335721E-12    2         -24        37   # BR(H -> W-      H+     )
     5.65302373E-05    2     1000024  -1000024   # BR(H -> ~chi_1+ ~chi_1-)
     9.95177876E-04    2     1000022   1000022   # BR(H -> ~chi_10 ~chi_10)
     2.27689524E-05    2     1000023   1000023   # BR(H -> ~chi_20 ~chi_20)
     5.62240808E-04    2     1000025   1000025   # BR(H -> ~chi_30 ~chi_30)
     2.57828843E-02    2     1000022   1000023   # BR(H -> ~chi_10 ~chi_20)
     1.25066532E-05    2     1000022   1000025   # BR(H -> ~chi_10 ~chi_30)
     2.49172527E-02    2     1000023   1000025   # BR(H -> ~chi_20 ~chi_30)
#
#         PDG            Width
DECAY        36     4.03526650E+01   # A decays
#          BR         NDA      ID1       ID2
     1.39962777E-03    2           5        -5   # BR(A -> b       bb     )
     2.31117731E-04    2         -15        15   # BR(A -> tau+    tau-   )
     8.17084670E-07    2         -13        13   # BR(A -> mu+     mu-    )
     1.07720818E-06    2           3        -3   # BR(A -> s       sb     )
     9.43977863E-06    2           4        -4   # BR(A -> c       cb     )
     9.44754430E-01    2           6        -6   # BR(A -> t       tb     )
     8.94228017E-04    2          21        21   # BR(A -> g       g      )
     2.66894020E-06    2          22        22   # BR(A -> gam     gam    )
     1.28092864E-06    2          23        22   # BR(A -> Z       gam    )
     3.09358559E-04    2          23        25   # BR(A -> Z       h      )
     6.47360337E-04    2     1000024  -1000024   # BR(A -> ~chi_1+ ~chi_1-)
     2.86080414E-02    2     1000022   1000022   # BR(A -> ~chi_10 ~chi_10)
     1.16219155E-06    2     1000023   1000023   # BR(A -> ~chi_20 ~chi_20)
     2.15245668E-02    2     1000025   1000025   # BR(A -> ~chi_30 ~chi_30)
     6.61789273E-04    2     1000022   1000023   # BR(A -> ~chi_10 ~chi_20)
     1.10510337E-04    2     1000022   1000025   # BR(A -> ~chi_10 ~chi_30)
     8.42523585E-04    2     1000023   1000025   # BR(A -> ~chi_20 ~chi_30)
#
#         PDG            Width
DECAY        37     3.95434111E+01   # H+ decays
#          BR         NDA      ID1       ID2
     2.24583558E-06    2           4        -5   # BR(H+ -> c       bb     )
     2.36087220E-04    2         -15        16   # BR(H+ -> tau+    nu_tau )
     8.34653606E-07    2         -13        14   # BR(H+ -> mu+     nu_mu  )
     1.42787350E-08    2           2        -5   # BR(H+ -> u       bb     )
     5.16883888E-08    2           2        -3   # BR(H+ -> u       sb     )
     1.02991064E-05    2           4        -3   # BR(H+ -> c       sb     )
     9.46647818E-01    2           6        -5   # BR(H+ -> t       bb     )
     3.17104512E-04    2          24        25   # BR(H+ -> W+      h      )
     1.15316561E-12    2          24        36   # BR(H+ -> W+      A      )
     2.39181766E-02    2     1000024   1000022   # BR(H+ -> ~chi_1+ ~chi_10)
     1.46289084E-04    2     1000024   1000023   # BR(H+ -> ~chi_1+ ~chi_20)
     2.87210790E-02    2     1000024   1000025   # BR(H+ -> ~chi_1+ ~chi_30)
