#  ISAJET SUSY parameters in SUSY Les Houches Accord 2 format
#  Created by ISALHA 2.0 Last revision: C. Balazs 21 Apr 2009
Block SPINFO   # Program information
     1   ISASUGRA from ISAJET          # Spectrum Calculator
     2   7.80   29-OCT-2009 12:50:36   # Version number
Block MODSEL   # Model selection
     1     3   # Minimal anomaly mediated (AMSB) model             
Block SMINPUTS   # Standard Model inputs
     1     1.27836258E+02   # alpha_em^(-1)
     2     1.16570000E-05   # G_Fermi
     3     1.17200002E-01   # alpha_s(M_Z)
     4     9.11699982E+01   # m_{Z}(pole)
     5     4.19999981E+00   # m_{b}(m_{b})
     6     1.72500000E+02   # m_{top}(pole)
     7     1.77699995E+00   # m_{tau}(pole)
Block MINPAR   # SUSY breaking input parameters
     1     5.00000000E+03   # m_0
     2     4.97400000E+05   # m_{3/2}
     3     5.00000000E+00   # tan(beta)
     4     1.00000000E+00   # sign(mu)
Block EXTPAR   # Non-universal SUSY breaking parameters
     0     7.91971085E+15   # Input scale
Block MASS   # Scalar and gaugino mass spectrum
#  PDG code   mass                 particle
         5     4.80000000E+00   # b-quark pole mass calculated from mb(mb)_Msbar
         6     1.72500000E+02   # t-quark pole mass (not read by ME)
        15     1.77682000E+00   # tau pole mass (not read by ME)
        23     9.11876000E+01   # Z pole mass (not read by ME)
        24     8.04229965E+01   #  W^+
        25     1.18676033E+02   #  h^0            
        35     8.94657227E+03   #  H^0            
        36     8.88801465E+03   #  A^0            
        37     8.94683789E+03   #  H^+            
   1000001     9.81207227E+03   #  dnl            
   1000002     9.81175977E+03   #  upl            
   1000003     9.81207227E+03   #  stl            
   1000004     9.81175977E+03   #  chl            
   1000005     8.49365430E+03   #  b1             
   1000006     6.92817285E+03   #  t1             
   1000011     4.60104736E+03   #  el-            
   1000012     4.59128760E+03   #  nuel           
   1000013     4.60104736E+03   #  mul-           
   1000014     4.59128760E+03   #  numl           
   1000015     4.47799414E+03   #  tau1           
   1000016     4.57803223E+03   #  nutl           
   1000021     9.12748828E+03   #  glss           
   1000022     1.39992651E+03   #  z1ss           
   1000023     4.63150635E+03   #  z2ss           
   1000024     1.40010071E+03   #  w1ss           
   1000025    -7.42263477E+03   #  z3ss           
   1000035     7.42330713E+03   #  z4ss           
   1000037     7.43159961E+03   #  w2ss           
   2000001     9.95234082E+03   #  dnr            
   2000002     9.86804785E+03   #  upr            
   2000003     9.95234082E+03   #  str            
   2000004     9.86804785E+03   #  chr            
   2000005     9.87753613E+03   #  b2             
   2000006     8.55742676E+03   #  t2             
   2000011     4.49575732E+03   #  er-            
   2000013     4.49575732E+03   #  mur-           
   2000015     4.58624902E+03   #  tau2           
Block ALPHA   # Effective Higgs mixing parameter
         -1.97453171E-01   # alpha
Block STOPMIX   # stop mixing matrix
  1  1     3.28875631E-02   # O_{11}
  1  2    -9.99459028E-01   # O_{12}
  2  1     9.99459028E-01   # O_{21}
  2  2     3.28875631E-02   # O_{22}
Block SBOTMIX   # sbottom mixing matrix
  1  1     9.99995172E-01   # O_{11}
  1  2     3.10604903E-03   # O_{12}
  2  1    -3.10604903E-03   # O_{21}
  2  2     9.99995172E-01   # O_{22}
Block STAUMIX   # stau mixing matrix
  1  1     6.81009442E-02   # O_{11}
  1  2     9.97678459E-01   # O_{12}
  2  1    -9.97678459E-01   # O_{21}
  2  2     6.81009442E-02   # O_{22}
Block NMIX   # neutralino mixing matrix
  1  1    -5.85399684E-04   #
  1  2     9.99945819E-01   #
  1  3    -1.01982011E-02   #
  1  4     2.06655124E-03   #
  2  1     9.99951243E-01   #
  2  2     6.81210193E-04   #
  2  3     8.32262635E-03   #
  2  4    -5.28728962E-03   #
  3  1    -2.14990973E-03   #
  3  2     5.74861141E-03   #
  3  3     7.07065642E-01   #
  3  4     7.07121193E-01   #
  4  1     9.62914620E-03   #
  4  2    -8.66635237E-03   #
  4  3    -7.07025230E-01   #
  4  4     7.07069635E-01   #
Block UMIX   # chargino U mixing matrix
  1  1    -9.99880791E-01   # U_{11}
  1  2     1.54385827E-02   # U_{12}
  2  1    -1.54385827E-02   # U_{21}
  2  2    -9.99880791E-01   # U_{22}
Block VMIX   # chargino V mixing matrix
  1  1    -9.99981821E-01   # V_{11}
  1  2     6.02770550E-03   # V_{12}
  2  1    -6.02770550E-03   # V_{21}
  2  2    -9.99981821E-01   # V_{22}
Block GAUGE Q=  7.35017773E+03   #
     1     3.57524991E-01   # g`
     2     6.52378619E-01   # g_2
     3     1.21928012E+00   # g_3
Block YU Q=  7.35017773E+03   #
  3  3     8.15080225E-01   # y_t
Block YD Q=  7.35017773E+03   #
  3  3     6.28615543E-02   # y_b
Block YE Q=  7.35017773E+03   #
  3  3     5.15433587E-02   # y_tau
Block HMIX Q=  7.35017773E+03   # Higgs mixing parameters
     1     7.41447754E+03   # mu(Q)
     2     5.00000000E+00   # tan(beta)(M_GUT)
     3     2.52513596E+02   # Higgs vev at Q
     4     7.89968080E+07   # m_A^2(Q)
Block MSOFT Q=  7.35017773E+03   # DRbar SUSY breaking parameters
     1     4.67661768E+03   # M_1(Q)          
     2     1.31658545E+03   # M_2(Q)          
     3    -8.60359961E+03   # M_3(Q)          
    21     3.23374943E+04   # mH1^2(Q)            
    22    -1.28800134E+05   # mH2^2(Q)            
    31     4.57821436E+03   # MeL(Q)          
    32     4.57821436E+03   # MmuL(Q)         
    33     4.56536377E+03   # MtauL(Q)        
    34     4.48169141E+03   # MeR(Q)          
    35     4.48169141E+03   # MmuR(Q)         
    36     4.45264209E+03   # MtauR(Q)        
    41     9.36655469E+03   # MqL1(Q)         
    42     9.36655469E+03   # MqL2(Q)         
    43     8.12197021E+03   # MqL3(Q)         
    44     9.42318848E+03   # MuR(Q)          
    45     9.42318848E+03   # McR(Q)          
    46     6.65172461E+03   # MtR(Q)          
    47     9.50813672E+03   # MdR(Q)          
    48     9.50813672E+03   # MsR(Q)          
    49     9.54301465E+03   # MbR(Q)          
Block AU Q=  7.35017773E+03   #
  1  1     7.48724658E+03   # A_u
  2  2     7.48724658E+03   # A_c
  3  3     7.48724658E+03   # A_t
Block AD Q=  7.35017773E+03   #
  1  1     1.76907363E+04   # A_d
  2  2     1.76907363E+04   # A_s
  3  3     1.76907363E+04   # A_b
Block AE Q=  7.35017773E+03   #
  1  1     5.14873438E+03   # A_e
  2  2     5.14873438E+03   # A_mu
  3  3     5.14873438E+03   # A_tau
#
#  ISAJET decay tables in SUSY Les Houches accord format
#  Created by ISALHD. Last revision: C. Balazs, 2005 May 25
Block DCINFO                           # Program information
     1   ISASUGRA from ISAJET          # Spectrum Calculator
     2   7.80   29-OCT-2009 12:50:36   # Version number
#         PDG         Width
DECAY        23     2.49520000E+00   # Z width (SM calculation)
DECAY        24     2.08500000E+00   # W width (SM calculation)
#
#         PDG            Width  
DECAY         6  1.14680779E+00   # TP    decays
#          BR          NDA       ID1       ID2       ID3       ID4
      3.33333343E-01    3            2        -1         5             # TP     -->  UP     DB     BT          
      3.33333343E-01    3            4        -3         5             # TP     -->  CH     SB     BT          
      1.11111112E-01    3          -11        12         5             # TP     -->  E+     NUE    BT          
      1.11111112E-01    3          -13        14         5             # TP     -->  MU+    NUM    BT          
      1.11111112E-01    3          -15        16         5             # TP     -->  TAU+   NUT    BT          
#         PDG         Width
DECAY   1000021  3.64719238E+01   # GLSS  decays
#          BR          NDA       ID1       ID2       ID3       ID4
      1.87162159E-03    3      1000024         1        -2             # GLSS   -->  W1SS+  DN     UB          
      1.87162159E-03    3     -1000024         2        -1             # GLSS   -->  W1SS-  UP     DB          
      1.87162159E-03    3      1000024         3        -4             # GLSS   -->  W1SS+  ST     CB          
      1.87162159E-03    3     -1000024         4        -3             # GLSS   -->  W1SS-  CH     SB          
      2.55012145E-09    3      1000024         5        -6             # GLSS   -->  W1SS+  BT     TB          
      2.55012145E-09    3     -1000024         6        -5             # GLSS   -->  W1SS-  TP     BB          
      2.22792496E-09    3      1000037         1        -2             # GLSS   -->  W2SS+  DN     UB          
      2.22792496E-09    3     -1000037         2        -1             # GLSS   -->  W2SS-  UP     DB          
      2.22792496E-09    3      1000037         3        -4             # GLSS   -->  W2SS+  ST     CB          
      2.22792496E-09    3     -1000037         4        -3             # GLSS   -->  W2SS-  CH     SB          
      1.01609608E-07    3      1000037         5        -6             # GLSS   -->  W2SS+  BT     TB          
      1.01609608E-07    3     -1000037         6        -5             # GLSS   -->  W2SS-  TP     BB          
      3.87946206E-14    2      1000022        21                       # GLSS   -->  Z1SS   GL                 
      9.35822492E-04    3      1000022         2        -2             # GLSS   -->  Z1SS   UP     UB          
      9.35941702E-04    3      1000022         1        -1             # GLSS   -->  Z1SS   DN     DB          
      9.35941702E-04    3      1000022         3        -3             # GLSS   -->  Z1SS   ST     SB          
      9.35822492E-04    3      1000022         4        -4             # GLSS   -->  Z1SS   CH     CB          
      2.93748204E-09    3      1000022         5        -5             # GLSS   -->  Z1SS   BT     BB          
      6.83271139E-07    2      1000023        21                       # GLSS   -->  Z2SS   GL                 
      1.15110292E-04    3      1000023         2        -2             # GLSS   -->  Z2SS   UP     UB          
      3.16120277E-05    3      1000023         1        -1             # GLSS   -->  Z2SS   DN     DB          
      3.16120277E-05    3      1000023         3        -3             # GLSS   -->  Z2SS   ST     SB          
      1.15110292E-04    3      1000023         4        -4             # GLSS   -->  Z2SS   CH     CB          
      2.66554762E-05    3      1000023         5        -5             # GLSS   -->  Z2SS   BT     BB          
      2.22456043E-14    2      1000025        21                       # GLSS   -->  Z3SS   GL                 
      5.26853949E-10    3      1000025         2        -2             # GLSS   -->  Z3SS   UP     UB          
      6.50544285E-10    3      1000025         1        -1             # GLSS   -->  Z3SS   DN     DB          
      6.50544285E-10    3      1000025         3        -3             # GLSS   -->  Z3SS   ST     SB          
      5.26853949E-10    3      1000025         4        -4             # GLSS   -->  Z3SS   CH     CB          
      1.05522730E-07    3      1000025         5        -5             # GLSS   -->  Z3SS   BT     BB          
      1.22956654E-11    2      1000035        21                       # GLSS   -->  Z4SS   GL                 
      6.12157491E-10    3      1000035         2        -2             # GLSS   -->  Z4SS   UP     UB          
      7.81909093E-10    3      1000035         1        -1             # GLSS   -->  Z4SS   DN     DB          
      7.81909093E-10    3      1000035         3        -3             # GLSS   -->  Z4SS   ST     SB          
      6.12157491E-10    3      1000035         4        -4             # GLSS   -->  Z4SS   CH     CB          
      1.05492227E-07    3      1000035         5        -5             # GLSS   -->  Z4SS   BT     BB          
      4.22096066E-02    2     -1000005         5                       # GLSS   -->  BB1    BT                 
      4.22096066E-02    2      1000005        -5                       # GLSS   -->  BT1    BB                 
      4.18468863E-01    2     -1000006         6                       # GLSS   -->  TB1    TP                 
      4.18468863E-01    2      1000006        -6                       # GLSS   -->  TP1    TB                 
      3.35459076E-02    2     -2000006         6                       # GLSS   -->  TB2    TP                 
      3.35459076E-02    2      2000006        -6                       # GLSS   -->  TP2    TB                 
#         PDG         Width
DECAY   1000002  1.28582794E+02   # UPL   decays
#          BR          NDA       ID1       ID2       ID3       ID4
      3.08156610E-01    2      1000022         2                       # UPL    -->  Z1SS   UP                 
      6.55974448E-03    2      1000023         2                       # UPL    -->  Z2SS   UP                 
      1.68474435E-06    2      1000025         2                       # UPL    -->  Z3SS   UP                 
      2.79786013E-06    2      1000035         2                       # UPL    -->  Z4SS   UP                 
      6.87915012E-02    2      1000021         2                       # UPL    -->  GLSS   UP                 
      6.16483450E-01    2      1000024         1                       # UPL    -->  W1SS+  DN                 
      4.24207883E-06    2      1000037         1                       # UPL    -->  W2SS+  DN                 
#         PDG         Width
DECAY   1000001  1.28586563E+02   # DNL   decays
#          BR          NDA       ID1       ID2       ID3       ID4
      3.08290452E-01    2      1000022         1                       # DNL    -->  Z1SS   DN                 
      6.46315189E-03    2      1000023         1                       # DNL    -->  Z2SS   DN                 
      2.21728919E-06    2      1000025         1                       # DNL    -->  Z3SS   DN                 
      6.39044993E-06    2      1000035         1                       # DNL    -->  Z4SS   DN                 
      6.88477904E-02    2      1000021         1                       # DNL    -->  GLSS   DN                 
      6.16362154E-01    2     -1000024         2                       # DNL    -->  W1SS-  UP                 
      2.78333227E-05    2     -1000037         2                       # DNL    -->  W2SS-  UP                 
#         PDG         Width
DECAY   1000003  1.28586563E+02   # STL   decays
#          BR          NDA       ID1       ID2       ID3       ID4
      3.08290452E-01    2      1000022         3                       # STL    -->  Z1SS   ST                 
      6.46315189E-03    2      1000023         3                       # STL    -->  Z2SS   ST                 
      2.21728919E-06    2      1000025         3                       # STL    -->  Z3SS   ST                 
      6.39044993E-06    2      1000035         3                       # STL    -->  Z4SS   ST                 
      6.88477904E-02    2      1000021         3                       # STL    -->  GLSS   ST                 
      6.16362154E-01    2     -1000024         4                       # STL    -->  W1SS-  CH                 
      2.78333155E-05    2     -1000037         4                       # STL    -->  W2SS-  CH                 
#         PDG         Width
DECAY   1000004  1.28582794E+02   # CHL   decays
#          BR          NDA       ID1       ID2       ID3       ID4
      3.08156610E-01    2      1000022         4                       # CHL    -->  Z1SS   CH                 
      6.55974448E-03    2      1000023         4                       # CHL    -->  Z2SS   CH                 
      1.68474389E-06    2      1000025         4                       # CHL    -->  Z3SS   CH                 
      2.79785922E-06    2      1000035         4                       # CHL    -->  Z4SS   CH                 
      6.87913597E-02    2      1000021         4                       # CHL    -->  GLSS   CH                 
      6.16483450E-01    2      1000024         3                       # CHL    -->  W1SS+  ST                 
      4.24207883E-06    2      1000037         3                       # CHL    -->  W2SS+  ST                 
#         PDG         Width
DECAY   1000005  1.23890923E+02   # BT1   decays
#          BR          NDA       ID1       ID2       ID3       ID4
      2.73143589E-01    2      1000022         5                       # BT1    -->  Z1SS   BT                 
      4.74716118E-03    2      1000023         5                       # BT1    -->  Z2SS   BT                 
      1.60202617E-04    2      1000025         5                       # BT1    -->  Z3SS   BT                 
      1.61293327E-04    2      1000035         5                       # BT1    -->  Z4SS   BT                 
      5.45589566E-01    2     -1000024         6                       # BT1    -->  W1SS-  TP                 
      4.62411903E-02    2     -1000037         6                       # BT1    -->  W2SS-  TP                 
      1.29956961E-01    2          -24   1000006                       # BT1    -->  W-     TP1                
#         PDG         Width
DECAY   1000006  4.81063843E+00   # TP1   decays
#          BR          NDA       ID1       ID2       ID3       ID4
      4.79484396E-03    2      1000022         6                       # TP1    -->  Z1SS   TP                 
      9.87910986E-01    2      1000023         6                       # TP1    -->  Z2SS   TP                 
      7.29427114E-03    2      1000024         5                       # TP1    -->  W1SS+  BT                 
#         PDG         Width
DECAY   2000002  2.38009777E+01   # UPR   decays
#          BR          NDA       ID1       ID2       ID3       ID4
      3.08388763E-07    2      1000022         2                       # UPR    -->  Z1SS   UP                 
      5.69749296E-01    2      1000023         2                       # UPR    -->  Z2SS   UP                 
      8.16764611E-07    2      1000025         2                       # UPR    -->  Z3SS   UP                 
      1.63767236E-05    2      1000035         2                       # UPR    -->  Z4SS   UP                 
      4.30233181E-01    2      1000021         2                       # UPR    -->  GLSS   UP                 
#         PDG         Width
DECAY   2000001  1.59368734E+01   # DNR   decays
#          BR          NDA       ID1       ID2       ID3       ID4
      1.16205072E-07    2      1000022         1                       # DNR    -->  Z1SS   DN                 
      2.16590196E-01    2      1000023         1                       # DNR    -->  Z2SS   DN                 
      3.21222814E-07    2      1000025         1                       # DNR    -->  Z3SS   DN                 
      6.44086640E-06    2      1000035         1                       # DNR    -->  Z4SS   DN                 
      7.83402920E-01    2      1000021         1                       # DNR    -->  GLSS   DN                 
#         PDG         Width
DECAY   2000003  1.59368734E+01   # STR   decays
#          BR          NDA       ID1       ID2       ID3       ID4
      1.16205072E-07    2      1000022         3                       # STR    -->  Z1SS   ST                 
      2.16590196E-01    2      1000023         3                       # STR    -->  Z2SS   ST                 
      3.21222814E-07    2      1000025         3                       # STR    -->  Z3SS   ST                 
      6.44086640E-06    2      1000035         3                       # STR    -->  Z4SS   ST                 
      7.83402920E-01    2      1000021         3                       # STR    -->  GLSS   ST                 
#         PDG         Width
DECAY   2000004  2.38009605E+01   # CHR   decays
#          BR          NDA       ID1       ID2       ID3       ID4
      3.08388991E-07    2      1000022         4                       # CHR    -->  Z1SS   CH                 
      5.69749713E-01    2      1000023         4                       # CHR    -->  Z2SS   CH                 
      8.16764953E-07    2      1000025         4                       # CHR    -->  Z3SS   CH                 
      1.63767309E-05    2      1000035         4                       # CHR    -->  Z4SS   CH                 
      4.30232733E-01    2      1000021         4                       # CHR    -->  GLSS   CH                 
#         PDG         Width
DECAY   2000005  1.44213982E+01   # BT2   decays
#          BR          NDA       ID1       ID2       ID3       ID4
      7.84393433E-06    2      1000022         5                       # BT2    -->  Z1SS   BT                 
      2.35551983E-01    2      1000023         5                       # BT2    -->  Z2SS   BT                 
      5.41864987E-03    2      1000025         5                       # BT2    -->  Z3SS   BT                 
      5.42525714E-03    2      1000035         5                       # BT2    -->  Z4SS   BT                 
      7.26947784E-01    2      1000021         5                       # BT2    -->  GLSS   BT                 
      1.36112303E-05    2     -1000024         6                       # BT2    -->  W1SS-  TP                 
      1.08032674E-02    2     -1000037         6                       # BT2    -->  W2SS-  TP                 
      5.94339181E-05    2          -24   1000006                       # BT2    -->  W-     TP1                
      6.46795565E-03    2          -24   2000006                       # BT2    -->  W-     TP2                
      3.73624754E-03    2           23   1000005                       # BT2    -->  Z0     BT1                
      5.56800654E-03    2           25   1000005                       # BT2    -->  HL0    BT1                
#         PDG         Width
DECAY   2000006  1.32394073E+02   # TP2   decays
#          BR          NDA       ID1       ID2       ID3       ID4
      5.15077353E-01    2      1000024         5                       # TP2    -->  W1SS+  BT                 
      3.62471212E-04    2      1000037         5                       # TP2    -->  W2SS+  BT                 
      6.86272830E-02    2           23   1000006                       # TP2    -->  Z0     TP1                
      1.05416633E-01    2           25   1000006                       # TP2    -->  HL0    TP1                
      2.57174343E-01    2      1000022         6                       # TP2    -->  Z1SS   TP                 
      4.77235811E-03    2      1000023         6                       # TP2    -->  Z2SS   TP                 
      2.45348327E-02    2      1000025         6                       # TP2    -->  Z3SS   TP                 
      2.40346491E-02    2      1000035         6                       # TP2    -->  Z4SS   TP                 
#         PDG         Width
DECAY   1000011  4.78209572E+01   # EL-   decays
#          BR          NDA       ID1       ID2       ID3       ID4
      3.33230495E-01    2      1000022        11                       # EL-    -->  Z1SS   E-                 
      6.66769505E-01    2     -1000024        12                       # EL-    -->  W1SS-  NUE                
      1.13518805E-09    3      1000015        11       -15             # EL-    -->  TAU1-  E-     TAU+        
      1.09692477E-09    3     -1000015        11        15             # EL-    -->  TAU1+  E-     TAU-        
#         PDG         Width
DECAY   1000013  4.78209572E+01   # MUL-  decays
#          BR          NDA       ID1       ID2       ID3       ID4
      3.33230495E-01    2      1000022        13                       # MUL-   -->  Z1SS   MU-                
      6.66769505E-01    2     -1000024        14                       # MUL-   -->  W1SS-  NUM                
      1.13518805E-09    3      1000015        13       -15             # MUL-   -->  TAU1-  MU-    TAU+        
      1.09692477E-09    3     -1000015        13        15             # MUL-   -->  TAU1+  MU-    TAU-        
#         PDG         Width
DECAY   1000015  2.21190065E-01   # TAU1- decays
#          BR          NDA       ID1       ID2       ID3       ID4
      3.32725465E-01    2      1000022        15                       # TAU1-  -->  Z1SS   TAU-               
      6.67274535E-01    2     -1000024        16                       # TAU1-  -->  W1SS-  NUT                
#         PDG         Width
DECAY   1000012  4.77049713E+01   # NUEL  decays
#          BR          NDA       ID1       ID2       ID3       ID4
      3.33471686E-01    2      1000022        12                       # NUEL   -->  Z1SS   NUE                
      6.66528344E-01    2      1000024        11                       # NUEL   -->  W1SS+  E-                 
      6.38906539E-10    3      1000015        12       -15             # NUEL   -->  TAU1-  NUE    TAU+        
      6.15235640E-10    3     -1000015        12        15             # NUEL   -->  TAU1+  NUE    TAU-        
      1.56173255E-17    3     -1000015        11        16             # NUEL   -->  TAU1+  E-     NUT         
#         PDG         Width
DECAY   1000014  4.77049713E+01   # NUML  decays
#          BR          NDA       ID1       ID2       ID3       ID4
      3.33471686E-01    2      1000022        14                       # NUML   -->  Z1SS   NUM                
      6.66528344E-01    2      1000024        13                       # NUML   -->  W1SS+  MU-                
      6.38906539E-10    3      1000015        14       -15             # NUML   -->  TAU1-  NUM    TAU+        
      6.15235640E-10    3     -1000015        14        15             # NUML   -->  TAU1+  NUM    TAU-        
      1.61352977E-17    3     -1000015        13        16             # NUML   -->  TAU1+  MU-    NUT         
#         PDG         Width
DECAY   1000016  4.75156403E+01   # NUTL  decays
#          BR          NDA       ID1       ID2       ID3       ID4
      3.33437085E-01    2      1000022        16                       # NUTL   -->  Z1SS   NUT                
      6.66459322E-01    2      1000024        15                       # NUTL   -->  W1SS+  TAU-               
      1.03540166E-04    2           24   1000015                       # NUTL   -->  W+     TAU1-              
      2.87215057E-10    3     -1000015        16        15             # NUTL   -->  TAU1+  NUT    TAU-        
      2.75397011E-10    3      1000015        16       -15             # NUTL   -->  TAU1-  NUT    TAU+        
#         PDG         Width
DECAY   2000011  6.39026166E-06   # ER-   decays
#          BR          NDA       ID1       ID2       ID3       ID4
      9.99998629E-01    2      1000022        11                       # ER-    -->  Z1SS   E-                 
      6.51618734E-07    3      1000015        11       -15             # ER-    -->  TAU1-  E-     TAU+        
      6.94775110E-07    3     -1000015        11        15             # ER-    -->  TAU1+  E-     TAU-        
      8.46650780E-21    3      1000015        12       -16             # ER-    -->  TAU1-  NUE    ANUT        
#         PDG         Width
DECAY   2000013  6.39026166E-06   # MUR-  decays
#          BR          NDA       ID1       ID2       ID3       ID4
      9.99998629E-01    2      1000022        13                       # MUR-   -->  Z1SS   MU-                
      6.51618734E-07    3      1000015        13       -15             # MUR-   -->  TAU1-  MU-    TAU+        
      6.94775110E-07    3     -1000015        13        15             # MUR-   -->  TAU1+  MU-    TAU-        
      3.60372867E-16    3      1000015        14       -16             # MUR-   -->  TAU1-  NUM    ANUT        
#         PDG         Width
DECAY   2000015  4.73778801E+01   # TAU2- decays
#          BR          NDA       ID1       ID2       ID3       ID4
      3.33216786E-01    2      1000022        15                       # TAU2-  -->  Z1SS   TAU-               
      6.66733921E-01    2     -1000024        16                       # TAU2-  -->  W1SS-  NUT                
      4.93138505E-05    2           23   1000015                       # TAU2-  -->  Z0     TAU1-              
#         PDG         Width
DECAY   1000023  3.45022619E-01   # Z2SS  decays
#          BR          NDA       ID1       ID2       ID3       ID4
      1.91132722E-06    2      1000022        22                       # Z2SS   -->  Z1SS   GM                 
      1.09894216E-01    2      1000024       -24                       # Z2SS   -->  W1SS+  W-                 
      1.09894216E-01    2     -1000024        24                       # Z2SS   -->  W1SS-  W+                 
      3.89804307E-04    2      1000022        23                       # Z2SS   -->  Z1SS   Z0                 
      2.79706273E-05    3      1000022         2        -2             # Z2SS   -->  Z1SS   UP     UB          
      2.75655020E-05    3      1000022         1        -1             # Z2SS   -->  Z1SS   DN     DB          
      2.75655020E-05    3      1000022         3        -3             # Z2SS   -->  Z1SS   ST     SB          
      2.79706273E-05    3      1000022         4        -4             # Z2SS   -->  Z1SS   CH     CB          
      5.33586717E-05    3      1000022         5        -5             # Z2SS   -->  Z1SS   BT     BB          
      5.64695513E-10    3      1000022        15       -15             # Z2SS   -->  Z1SS   TAU-   TAU+        
      3.54510103E-03    2      1000022        25                       # Z2SS   -->  Z1SS   HL0                
      1.47030712E-03    2      1000011       -11                       # Z2SS   -->  EL-    E+                 
      1.47030712E-03    2     -1000011        11                       # Z2SS   -->  EL+    E-                 
      1.47029827E-03    2      1000013       -13                       # Z2SS   -->  MUL-   MU+                
      1.47029827E-03    2     -1000013        13                       # Z2SS   -->  MUL+   MU-                
      1.13885194E-01    2      2000011       -11                       # Z2SS   -->  ER-    E+                 
      1.13885194E-01    2     -2000011        11                       # Z2SS   -->  ER+    E-                 
      1.13885164E-01    2      2000013       -13                       # Z2SS   -->  MUR-   MU+                
      1.13885164E-01    2     -2000013        13                       # Z2SS   -->  MUR+   MU-                
      1.44455209E-01    2      1000015       -15                       # Z2SS   -->  TAU1-  TAU+               
      1.44455209E-01    2     -1000015        15                       # Z2SS   -->  TAU1+  TAU-               
      3.31141776E-03    2      2000015       -15                       # Z2SS   -->  TAU2-  TAU+               
      3.31141776E-03    2     -2000015        15                       # Z2SS   -->  TAU2+  TAU-               
      2.54541566E-03    2      1000012       -12                       # Z2SS   -->  NUEL   ANUE               
      2.54541566E-03    2     -1000012        12                       # Z2SS   -->  ANUEL  NUE                
      2.54541566E-03    2      1000014       -14                       # Z2SS   -->  NUML   ANUM               
      2.54541566E-03    2     -1000014        14                       # Z2SS   -->  ANUML  NUM                
      4.48681181E-03    2      1000016       -16                       # Z2SS   -->  NUTL   ANUT               
      4.48681181E-03    2     -1000016        16                       # Z2SS   -->  ANUTL  NUT                
#         PDG         Width
DECAY   1000025  5.59951324E+01   # Z3SS  decays
#          BR          NDA       ID1       ID2       ID3       ID4
      2.11426032E-09    2      1000022        22                       # Z3SS   -->  Z1SS   GM                 
      7.45063211E-09    2      1000023        22                       # Z3SS   -->  Z2SS   GM                 
      3.43898892E-01    2      1000024       -24                       # Z3SS   -->  W1SS+  W-                 
      3.43898892E-01    2     -1000024        24                       # Z3SS   -->  W1SS-  W+                 
      1.62412971E-01    2      1000022        23                       # Z3SS   -->  Z1SS   Z0                 
      5.07036746E-02    2      1000023        23                       # Z3SS   -->  Z2SS   Z0                 
      1.96357597E-09    3      1000022         2        -2             # Z3SS   -->  Z1SS   UP     UB          
      2.58443333E-09    3      1000022         1        -1             # Z3SS   -->  Z1SS   DN     DB          
      2.58443333E-09    3      1000022         3        -3             # Z3SS   -->  Z1SS   ST     SB          
      1.96357597E-09    3      1000022         4        -4             # Z3SS   -->  Z1SS   CH     CB          
      4.45865589E-06    3      1000022         5        -5             # Z3SS   -->  Z1SS   BT     BB          
      2.02415379E-07    3      1000022        15       -15             # Z3SS   -->  Z1SS   TAU-   TAU+        
      1.05378605E-11    3      1000023         2        -2             # Z3SS   -->  Z2SS   UP     UB          
      6.23794896E-12    3      1000023         1        -1             # Z3SS   -->  Z2SS   DN     DB          
      6.23794896E-12    3      1000023         3        -3             # Z3SS   -->  Z2SS   ST     SB          
      1.05378605E-11    3      1000023         4        -4             # Z3SS   -->  Z2SS   CH     CB          
      3.83490999E-08    3      1000023         5        -5             # Z3SS   -->  Z2SS   BT     BB          
      2.09043405E-09    3      1000023        15       -15             # Z3SS   -->  Z2SS   TAU-   TAU+        
      5.44989109E-02    2      1000022        25                       # Z3SS   -->  Z1SS   HL0                
      2.22767307E-03    2      1000023        25                       # Z3SS   -->  Z2SS   HL0                
      1.96905565E-02    2      1000006        -6                       # Z3SS   -->  TP1    TB                 
      1.96905565E-02    2     -1000006         6                       # Z3SS   -->  TB1    TP                 
      2.20636343E-06    2      1000011       -11                       # Z3SS   -->  EL-    E+                 
      2.20636343E-06    2     -1000011        11                       # Z3SS   -->  EL+    E-                 
      2.20636343E-06    2      1000013       -13                       # Z3SS   -->  MUL-   MU+                
      2.20636343E-06    2     -1000013        13                       # Z3SS   -->  MUL+   MU-                
      6.24639085E-07    2      2000011       -11                       # Z3SS   -->  ER-    E+                 
      6.24639085E-07    2     -2000011        11                       # Z3SS   -->  ER+    E-                 
      6.24639085E-07    2      2000013       -13                       # Z3SS   -->  MUR-   MU+                
      6.24639085E-07    2     -2000013        13                       # Z3SS   -->  MUR+   MU-                
      7.44237797E-04    2      1000015       -15                       # Z3SS   -->  TAU1-  TAU+               
      7.44237797E-04    2     -1000015        15                       # Z3SS   -->  TAU1+  TAU-               
      7.21330929E-04    2      2000015       -15                       # Z3SS   -->  TAU2-  TAU+               
      7.21330929E-04    2     -2000015        15                       # Z3SS   -->  TAU2+  TAU-               
      5.10752852E-06    2      1000012       -12                       # Z3SS   -->  NUEL   ANUE               
      5.10752852E-06    2     -1000012        12                       # Z3SS   -->  ANUEL  NUE                
      5.10752852E-06    2      1000014       -14                       # Z3SS   -->  NUML   ANUM               
      5.10752852E-06    2     -1000014        14                       # Z3SS   -->  ANUML  NUM                
      5.14409430E-06    2      1000016       -16                       # Z3SS   -->  NUTL   ANUT               
      5.14409430E-06    2     -1000016        16                       # Z3SS   -->  ANUTL  NUT                
#         PDG         Width
DECAY   1000035  4.20853119E+01   # Z4SS  decays
#          BR          NDA       ID1       ID2       ID3       ID4
      8.84145592E-08    2      1000022        22                       # Z4SS   -->  Z1SS   GM                 
      2.09631068E-09    2      1000023        22                       # Z4SS   -->  Z2SS   GM                 
      6.76748832E-16    2      1000025        22                       # Z4SS   -->  Z3SS   GM                 
      1.86381146E-01    2      1000024       -24                       # Z4SS   -->  W1SS+  W-                 
      1.86381146E-01    2     -1000024        24                       # Z4SS   -->  W1SS-  W+                 
      9.50366780E-02    2      1000022        23                       # Z4SS   -->  Z1SS   Z0                 
      3.36646196E-03    2      1000023        23                       # Z4SS   -->  Z2SS   Z0                 
      6.97291247E-09    3      1000022         2        -2             # Z4SS   -->  Z1SS   UP     UB          
      1.59276983E-08    3      1000022         1        -1             # Z4SS   -->  Z1SS   DN     DB          
      1.59276983E-08    3      1000022         3        -3             # Z4SS   -->  Z1SS   ST     SB          
      6.97291247E-09    3      1000022         4        -4             # Z4SS   -->  Z1SS   CH     CB          
      5.93893128E-06    3      1000022         5        -5             # Z4SS   -->  Z1SS   BT     BB          
      2.66379686E-07    3      1000022        15       -15             # Z4SS   -->  Z1SS   TAU-   TAU+        
      4.47668458E-10    3      1000023         2        -2             # Z4SS   -->  Z2SS   UP     UB          
      8.42031930E-11    3      1000023         1        -1             # Z4SS   -->  Z2SS   DN     DB          
      8.42031930E-11    3      1000023         3        -3             # Z4SS   -->  Z2SS   ST     SB          
      4.47668458E-10    3      1000023         4        -4             # Z4SS   -->  Z2SS   CH     CB          
      5.05956912E-08    3      1000023         5        -5             # Z4SS   -->  Z2SS   BT     BB          
      2.71406009E-09    3      1000023        15       -15             # Z4SS   -->  Z2SS   TAU-   TAU+        
      3.50132376E-01    2      1000022        25                       # Z4SS   -->  Z1SS   HL0                
      1.24529764E-01    2      1000023        25                       # Z4SS   -->  Z2SS   HL0                
      2.49996278E-02    2      1000006        -6                       # Z4SS   -->  TP1    TB                 
      2.49996278E-02    2     -1000006         6                       # Z4SS   -->  TB1    TP                 
      1.60272657E-06    2      1000011       -11                       # Z4SS   -->  EL-    E+                 
      1.60272657E-06    2     -1000011        11                       # Z4SS   -->  EL+    E-                 
      1.60272657E-06    2      1000013       -13                       # Z4SS   -->  MUL-   MU+                
      1.60272657E-06    2     -1000013        13                       # Z4SS   -->  MUL+   MU-                
      1.66768677E-05    2      2000011       -11                       # Z4SS   -->  ER-    E+                 
      1.66768677E-05    2     -2000011        11                       # Z4SS   -->  ER+    E-                 
      1.66768677E-05    2      2000013       -13                       # Z4SS   -->  MUR-   MU+                
      1.66768677E-05    2     -2000013        13                       # Z4SS   -->  MUR+   MU-                
      9.94565431E-04    2      1000015       -15                       # Z4SS   -->  TAU1-  TAU+               
      9.94565431E-04    2     -1000015        15                       # Z4SS   -->  TAU1+  TAU-               
      9.69389221E-04    2      2000015       -15                       # Z4SS   -->  TAU2-  TAU+               
      9.69389221E-04    2     -2000015        15                       # Z4SS   -->  TAU2+  TAU-               
      2.75779621E-05    2      1000012       -12                       # Z4SS   -->  NUEL   ANUE               
      2.75779621E-05    2     -1000012        12                       # Z4SS   -->  ANUEL  NUE                
      2.75779621E-05    2      1000014       -14                       # Z4SS   -->  NUML   ANUM               
      2.75779621E-05    2     -1000014        14                       # Z4SS   -->  ANUML  NUM                
      2.77753279E-05    2      1000016       -16                       # Z4SS   -->  NUTL   ANUT               
      2.77753279E-05    2     -1000016        16                       # Z4SS   -->  ANUTL  NUT                
#         PDG         Width
DECAY   1000024  4.63016119E-15   # W1SS+ decays
#          BR          NDA       ID1       ID2       ID3       ID4
      1.00000000E+00    2      1000022         0                       # W1SS+  -->  Z1SS   PI+                
#         PDG         Width
DECAY   1000037  6.11994858E+01   # W2SS+ decays
#          BR          NDA       ID1       ID2       ID3       ID4
      1.90648990E-08    3      1000022         2        -1             # W2SS+  -->  Z1SS   UP     DB          
      1.90648990E-08    3      1000022         4        -3             # W2SS+  -->  Z1SS   CH     SB          
      1.82338184E-07    3      1000022       -15        16             # W2SS+  -->  Z1SS   TAU+   NUT         
      3.46706569E-01    2      1000022        24                       # W2SS+  -->  Z1SS   W+                 
      9.44534451E-11    3      1000023         2        -1             # W2SS+  -->  Z2SS   UP     DB          
      9.44534451E-11    3      1000023         4        -3             # W2SS+  -->  Z2SS   CH     SB          
      1.89982274E-09    3      1000023       -15        16             # W2SS+  -->  Z2SS   TAU+   NUT         
      4.86323200E-02    2      1000023        24                       # W2SS+  -->  Z2SS   W+                 
      5.08306452E-10    3      1000025         2        -1             # W2SS+  -->  Z3SS   UP     DB          
      5.08306452E-10    3      1000025         4        -3             # W2SS+  -->  Z3SS   CH     SB          
      1.69435493E-10    3      1000025       -11        12             # W2SS+  -->  Z3SS   E+     NUE         
      1.69435493E-10    3      1000025       -13        14             # W2SS+  -->  Z3SS   MU+    NUM         
      1.69435493E-10    3      1000025       -15        16             # W2SS+  -->  Z3SS   TAU+   NUT         
      2.47615511E-10    3      1000035         2        -1             # W2SS+  -->  Z4SS   UP     DB          
      2.47615511E-10    3      1000035         4        -3             # W2SS+  -->  Z4SS   CH     SB          
      8.25385038E-11    3      1000035       -11        12             # W2SS+  -->  Z4SS   E+     NUE         
      8.25385038E-11    3      1000035       -13        14             # W2SS+  -->  Z4SS   MU+    NUM         
      8.25385038E-11    3      1000035       -15        16             # W2SS+  -->  Z4SS   TAU+   NUT         
      3.86966243E-02    2      1000006        -5                       # W2SS+  -->  TP1    BB                 
      7.10020913E-06    2      1000012       -11                       # W2SS+  -->  NUEL   E+                 
      7.10020913E-06    2      1000014       -13                       # W2SS+  -->  NUML   MU+                
      1.31872250E-03    2      1000016       -15                       # W2SS+  -->  NUTL   TAU+               
      4.63336983E-05    2     -1000011        12                       # W2SS+  -->  EL+    NUE                
      4.63336983E-05    2     -1000013        14                       # W2SS+  -->  MUL+   NUM                
      1.34029600E-03    2     -1000015        16                       # W2SS+  -->  TAU1+  NUT                
      8.61041335E-05    2     -2000015        16                       # W2SS+  -->  TAU2+  NUT                
      2.72387534E-01    2      1000024        23                       # W2SS+  -->  W1SS+  Z0                 
      5.98413985E-09    3      1000024         1        -1             # W2SS+  -->  W1SS+  DN     DB          
      5.98413985E-09    3      1000024         3        -3             # W2SS+  -->  W1SS+  ST     SB          
      3.92414812E-08    3      1000024         2        -2             # W2SS+  -->  W1SS+  UP     UB          
      3.92414812E-08    3      1000024         4        -4             # W2SS+  -->  W1SS+  CH     CB          
      2.90724605E-01    2      1000024        25                       # W2SS+  -->  W1SS+  HL0                
#         PDG         Width
DECAY        25  4.32022708E-03   # HL0   decays
#          BR          NDA       ID1       ID2       ID3       ID4
      4.67089523E-09    2           11       -11                       # HL0    -->  E-     E+                 
      1.97212707E-04    2           13       -13                       # HL0    -->  MU-    MU+                
      5.64090349E-02    2           15       -15                       # HL0    -->  TAU-   TAU+               
      5.85969838E-06    2            1        -1                       # HL0    -->  DN     DB                 
      2.36761197E-03    2            3        -3                       # HL0    -->  ST     SB                 
      7.72699356E-01    2            5        -5                       # HL0    -->  BT     BB                 
      1.87378839E-06    2            2        -2                       # HL0    -->  UP     UB                 
      3.51042673E-02    2            4        -4                       # HL0    -->  CH     CB                 
      1.94734661E-03    2           22        22                       # HL0    -->  GM     GM                 
      4.12858911E-02    2           21        21                       # HL0    -->  GL     GL                 
      4.58915764E-03    3           24        11       -12             # HL0    -->  W+     E-     ANUE        
      4.58915764E-03    3           24        13       -14             # HL0    -->  W+     MU-    ANUM        
      4.58915764E-03    3           24        15       -16             # HL0    -->  W+     TAU-   ANUT        
      1.37674725E-02    3           24        -2         1             # HL0    -->  W+     UB     DN          
      1.37674725E-02    3           24        -4         3             # HL0    -->  W+     CB     ST          
      4.58915764E-03    3          -24       -11        12             # HL0    -->  W-     E+     NUE         
      4.58915764E-03    3          -24       -13        14             # HL0    -->  W-     MU+    NUM         
      4.58915764E-03    3          -24       -15        16             # HL0    -->  W-     TAU+   NUT         
      1.37674725E-02    3          -24         2        -1             # HL0    -->  W-     UP     DB          
      1.37674725E-02    3          -24         4        -3             # HL0    -->  W-     CH     SB          
      5.04507392E-04    3           23        12       -12             # HL0    -->  Z0     NUE    ANUE        
      5.04507392E-04    3           23        14       -14             # HL0    -->  Z0     NUM    ANUM        
      5.04507392E-04    3           23        16       -16             # HL0    -->  Z0     NUT    ANUT        
      2.53913488E-04    3           23        11       -11             # HL0    -->  Z0     E-     E+          
      2.53913488E-04    3           23        13       -13             # HL0    -->  Z0     MU-    MU+         
      2.53913488E-04    3           23        15       -15             # HL0    -->  Z0     TAU-   TAU+        
      8.69886135E-04    3           23         2        -2             # HL0    -->  Z0     UP     UB          
      8.69886135E-04    3           23         4        -4             # HL0    -->  Z0     CH     CB          
      1.12062762E-03    3           23         1        -1             # HL0    -->  Z0     DN     DB          
      1.12062762E-03    3           23         3        -3             # HL0    -->  Z0     ST     SB          
      1.12062762E-03    3           23         5        -5             # HL0    -->  Z0     BT     BB          
#         PDG         Width
DECAY        35  2.17445011E+01   # HH0   decays
#          BR          NDA       ID1       ID2       ID3       ID4
      1.74795689E-09    2           11       -11                       # HH0    -->  E-     E+                 
      7.38019007E-05    2           13       -13                       # HH0    -->  MU-    MU+                
      2.11379901E-02    2           15       -15                       # HH0    -->  TAU-   TAU+               
      2.10959320E-06    2            1        -1                       # HH0    -->  DN     DB                 
      8.52381752E-04    2            3        -3                       # HH0    -->  ST     SB                 
      1.02472670E-01    2            5        -5                       # HH0    -->  BT     BB                 
      1.08064713E-09    2            2        -2                       # HH0    -->  UP     UB                 
      1.20622708E-05    2            4        -4                       # HH0    -->  CH     CB                 
      6.34464383E-01    2            6        -6                       # HH0    -->  TP     TB                 
      4.26140929E-07    2           22        22                       # HH0    -->  GM     GM                 
      3.63847612E-05    2           21        21                       # HH0    -->  GL     GL                 
      3.56003547E-05    2           24       -24                       # HH0    -->  W+     W-                 
      1.82706935E-05    2           23        23                       # HH0    -->  Z0     Z0                 
      2.73333542E-04    2      1000022   1000022                       # HH0    -->  Z1SS   Z1SS               
      9.99216209E-05    2      1000022   1000023                       # HH0    -->  Z1SS   Z2SS               
      8.04728344E-02    2      1000022   1000025                       # HH0    -->  Z1SS   Z3SS               
      1.78465596E-03    2      1000022   1000035                       # HH0    -->  Z1SS   Z4SS               
      5.77972329E-04    2      1000024  -1000024                       # HH0    -->  W1SS+  W1SS-              
      7.87637904E-02    2      1000024  -1000037                       # HH0    -->  W1SS+  W2SS-              
      7.87637904E-02    2     -1000024   1000037                       # HH0    -->  W1SS-  W2SS+              
      1.57728733E-04    2           25        25                       # HH0    -->  HL0    HL0                
#         PDG         Width
DECAY        36  2.00307579E+01   # HA0   decays
#          BR          NDA       ID1       ID2       ID3       ID4
      1.88512828E-09    2           11       -11                       # HA0    -->  E-     E+                 
      7.95935193E-05    2           13       -13                       # HA0    -->  MU-    MU+                
      2.27968022E-02    2           15       -15                       # HA0    -->  TAU-   TAU+               
      2.27522537E-06    2            1        -1                       # HA0    -->  DN     DB                 
      9.19306534E-04    2            3        -3                       # HA0    -->  ST     SB                 
      1.10518366E-01    2            5        -5                       # HA0    -->  BT     BB                 
      1.16480070E-09    2            2        -2                       # HA0    -->  UP     UB                 
      1.30097696E-05    2            4        -4                       # HA0    -->  CH     CB                 
      6.84980869E-01    2            6        -6                       # HA0    -->  TP     TB                 
      3.52364253E-07    2           22        22                       # HA0    -->  GM     GM                 
      4.44033140E-05    2           21        21                       # HA0    -->  GL     GL                 
      3.84068699E-04    2      1000022   1000022                       # HA0    -->  Z1SS   Z1SS               
      2.46616721E-04    2      1000022   1000023                       # HA0    -->  Z1SS   Z2SS               
      7.51364860E-04    2      1000022   1000025                       # HA0    -->  Z1SS   Z3SS               
      6.19610474E-02    2      1000022   1000035                       # HA0    -->  Z1SS   Z4SS               
      9.44312895E-04    2      1000024  -1000024                       # HA0    -->  W1SS+  W1SS-              
      5.81596680E-02    2      1000024  -1000037                       # HA0    -->  W1SS+  W2SS-              
      5.81596680E-02    2     -1000024   1000037                       # HA0    -->  W1SS-  W2SS+              
      3.83784209E-05    2           25        23                       # HA0    -->  HL0    Z0                 
#         PDG         Width
DECAY        37  2.07242050E+01   # H+    decays
#          BR          NDA       ID1       ID2       ID3       ID4
      1.83410942E-09    2           12       -11                       # H+     -->  NUE    E+                 
      7.74394066E-05    2           14       -13                       # H+     -->  NUM    MU+                
      2.21798308E-02    2           16       -15                       # H+     -->  NUT    TAU+               
      2.06631898E-06    2            2        -1                       # H+     -->  UP     DB                 
      8.46271927E-04    2            4        -3                       # H+     -->  CH     SB                 
      7.21355081E-01    2            6        -5                       # H+     -->  TP     BB                 
      2.32650541E-06    2      1000024   1000022                       # H+     -->  W1SS+  Z1SS               
      3.70662077E-04    2      1000024   1000023                       # H+     -->  W1SS+  Z2SS               
      8.63231272E-02    2      1000024   1000025                       # H+     -->  W1SS+  Z3SS               
      8.60452726E-02    2      1000024   1000035                       # H+     -->  W1SS+  Z4SS               
      8.27604830E-02    2      1000037   1000022                       # H+     -->  W2SS+  Z1SS               
      3.73456933E-05    2           25        24                       # H+     -->  HL0    W+                 
