#  ISAJET SUSY parameters in SUSY Les Houches Accord 2 format
#  Created by ISALHA 2.0 Last revision: C. Balazs 21 Apr 2009
Block SPINFO   # Program information
     1   ISASUGRA from ISAJET          # Spectrum Calculator
     2   7.80   29-OCT-2009 12:50:36   # Version number
Block MODSEL   # Model selection
     1     3   # Minimal anomaly mediated (AMSB) model             
Block SMINPUTS   # Standard Model inputs
     1     1.27842377E+02   # alpha_em^(-1)
     2     1.16570000E-05   # G_Fermi
     3     1.17200002E-01   # alpha_s(M_Z)
     4     9.11699982E+01   # m_{Z}(pole)
     5     4.19999981E+00   # m_{b}(m_{b})
     6     1.72500000E+02   # m_{top}(pole)
     7     1.77699995E+00   # m_{tau}(pole)
Block MINPAR   # SUSY breaking input parameters
     1     5.00000000E+03   # m_0
     2     5.70600000E+05   # m_{3/2}
     3     5.00000000E+00   # tan(beta)
     4     1.00000000E+00   # sign(mu)
Block EXTPAR   # Non-universal SUSY breaking parameters
     0     7.61495608E+15   # Input scale
Block MASS   # Scalar and gaugino mass spectrum
#  PDG code   mass                 particle
         5     4.80000000E+00   # b-quark pole mass calculated from mb(mb)_Msbar
         6     1.72500000E+02   # t-quark pole mass (not read by ME)
        15     1.77682000E+00   # tau pole mass (not read by ME)
        23     9.11876000E+01   # Z pole mass (not read by ME)
        24     8.04229965E+01   #  W^+
        25     1.19046211E+02   #  h^0            
        35     9.80050293E+03   #  H^0            
        36     9.73637207E+03   #  A^0            
        37     9.80074414E+03   #  H^+            
   1000001     1.08228115E+04   #  dnl            
   1000002     1.08225254E+04   #  upl            
   1000003     1.08228115E+04   #  stl            
   1000004     1.08225254E+04   #  chl            
   1000005     9.37858301E+03   #  b1             
   1000006     7.68169092E+03   #  t1             
   1000011     4.47341455E+03   #  el-            
   1000012     4.45857861E+03   #  nuel           
   1000013     4.47341455E+03   #  mul-           
   1000014     4.45857861E+03   #  numl           
   1000015     4.30478711E+03   #  tau1           
   1000016     4.44153857E+03   #  nutl           
   1000021     1.03247695E+04   #  glss           
   1000022     1.59974866E+03   #  z1ss           
   1000023     5.30904297E+03   #  z2ss           
   1000024     1.59992358E+03   #  w1ss           
   1000025    -8.45150293E+03   #  z3ss           
   1000035     8.45211035E+03   #  z4ss           
   1000037     8.46175879E+03   #  w2ss           
   2000001     1.09872139E+04   #  dnr            
   2000002     1.08820146E+04   #  upr            
   2000003     1.09872139E+04   #  str            
   2000004     1.08820146E+04   #  chr            
   2000005     1.08998652E+04   #  b2             
   2000006     9.45052051E+03   #  t2             
   2000011     4.32376465E+03   #  er-            
   2000013     4.32376465E+03   #  mur-           
   2000015     4.45254150E+03   #  tau2           
Block ALPHA   # Effective Higgs mixing parameter
         -1.97443947E-01   # alpha
Block STOPMIX   # stop mixing matrix
  1  1     3.13494839E-02   # O_{11}
  1  2    -9.99508500E-01   # O_{12}
  2  1     9.99508500E-01   # O_{21}
  2  2     3.13494839E-02   # O_{22}
Block SBOTMIX   # sbottom mixing matrix
  1  1     9.99996364E-01   # O_{11}
  1  2     2.70124758E-03   # O_{12}
  2  1    -2.70124758E-03   # O_{21}
  2  2     9.99996364E-01   # O_{22}
Block STAUMIX   # stau mixing matrix
  1  1     5.68960607E-02   # O_{11}
  1  2     9.98380125E-01   # O_{12}
  2  1    -9.98380125E-01   # O_{21}
  2  2     5.68960607E-02   # O_{22}
Block NMIX   # neutralino mixing matrix
  1  1    -6.17389684E-04   #
  1  2     9.99959469E-01   #
  1  3    -8.84957891E-03   #
  1  4     1.53907191E-03   #
  2  1     9.99964952E-01   #
  2  2     6.86866813E-04   #
  2  3     7.08529353E-03   #
  2  4    -4.39745188E-03   #
  3  1    -1.90392137E-03   #
  3  2     5.16782049E-03   #
  3  3     7.07073748E-01   #
  3  4     7.07118452E-01   #
  4  1     8.12432915E-03   #
  4  2    -7.34079955E-03   #
  4  3    -7.07049310E-01   #
  4  4     7.07079649E-01   #
Block UMIX   # chargino U mixing matrix
  1  1    -9.99908149E-01   # U_{11}
  1  2     1.35525325E-02   # U_{12}
  2  1    -1.35525325E-02   # U_{21}
  2  2    -9.99908149E-01   # U_{22}
Block VMIX   # chargino V mixing matrix
  1  1    -9.99985933E-01   # V_{11}
  1  2     5.30292466E-03   # V_{12}
  2  1    -5.30292466E-03   # V_{21}
  2  2    -9.99985933E-01   # V_{22}
Block GAUGE Q=  8.13252148E+03   #
     1     3.57497990E-01   # g`
     2     6.52474999E-01   # g_2
     3     1.22068632E+00   # g_3
Block YU Q=  8.13252148E+03   #
  3  3     8.12492967E-01   # y_t
Block YD Q=  8.13252148E+03   #
  3  3     6.22885376E-02   # y_b
Block YE Q=  8.13252148E+03   #
  3  3     5.15647791E-02   # y_tau
Block HMIX Q=  8.13252148E+03   # Higgs mixing parameters
     1     8.44720117E+03   # mu(Q)
     2     5.00000000E+00   # tan(beta)(M_GUT)
     3     2.52579300E+02   # Higgs vev at Q
     4     9.47969440E+07   # m_A^2(Q)
Block MSOFT Q=  8.13252148E+03   # DRbar SUSY breaking parameters
     1     5.37291064E+03   # M_1(Q)          
     2     1.50696021E+03   # M_2(Q)          
     3    -9.76594922E+03   # M_3(Q)          
    21     3.23374943E+04   # mH1^2(Q)            
    22    -1.28800134E+05   # mH2^2(Q)            
    31     4.44746338E+03   # MeL(Q)          
    32     4.44746338E+03   # MmuL(Q)         
    33     4.43094531E+03   # MtauL(Q)        
    34     4.31076953E+03   # MeR(Q)          
    35     4.31076953E+03   # MmuR(Q)         
    36     4.27187793E+03   # MtauR(Q)        
    41     1.03179277E+04   # MqL1(Q)         
    42     1.03179277E+04   # MqL2(Q)         
    43     8.96543359E+03   # MqL3(Q)         
    44     1.03773477E+04   # MuR(Q)          
    45     1.03773477E+04   # McR(Q)          
    46     7.37698877E+03   # MtR(Q)          
    47     1.04827764E+04   # MdR(Q)          
    48     1.04827764E+04   # MsR(Q)          
    49     1.05206201E+04   # MbR(Q)          
Block AU Q=  8.13252148E+03   #
  1  1     8.52645410E+03   # A_u
  2  2     8.52645410E+03   # A_c
  3  3     8.52645410E+03   # A_t
Block AD Q=  8.13252148E+03   #
  1  1     2.01466855E+04   # A_d
  2  2     2.01466855E+04   # A_s
  3  3     2.01466855E+04   # A_b
Block AE Q=  8.13252148E+03   #
  1  1     5.90092236E+03   # A_e
  2  2     5.90092236E+03   # A_mu
  3  3     5.90092236E+03   # A_tau
#
#  ISAJET decay tables in SUSY Les Houches accord format
#  Created by ISALHD. Last revision: C. Balazs, 2005 May 25
Block DCINFO                           # Program information
     1   ISASUGRA from ISAJET          # Spectrum Calculator
     2   7.80   29-OCT-2009 12:50:36   # Version number
#         PDG         Width
DECAY        23     2.49520000E+00   # Z width (SM calculation)
DECAY        24     2.08500000E+00   # W width (SM calculation)
#
#         PDG            Width  
DECAY         6  1.14680779E+00   # TP    decays
#          BR          NDA       ID1       ID2       ID3       ID4
      3.33333343E-01    3            2        -1         5             # TP     -->  UP     DB     BT          
      3.33333343E-01    3            4        -3         5             # TP     -->  CH     SB     BT          
      1.11111112E-01    3          -11        12         5             # TP     -->  E+     NUE    BT          
      1.11111112E-01    3          -13        14         5             # TP     -->  MU+    NUM    BT          
      1.11111112E-01    3          -15        16         5             # TP     -->  TAU+   NUT    BT          
#         PDG         Width
DECAY   1000021  4.94841347E+01   # GLSS  decays
#          BR          NDA       ID1       ID2       ID3       ID4
      1.98962213E-03    3      1000024         1        -2             # GLSS   -->  W1SS+  DN     UB          
      1.98962213E-03    3     -1000024         2        -1             # GLSS   -->  W1SS-  UP     DB          
      1.98962213E-03    3      1000024         3        -4             # GLSS   -->  W1SS+  ST     CB          
      1.98962213E-03    3     -1000024         4        -3             # GLSS   -->  W1SS-  CH     SB          
      1.99603045E-09    3      1000024         5        -6             # GLSS   -->  W1SS+  BT     TB          
      1.99603045E-09    3     -1000024         6        -5             # GLSS   -->  W1SS-  TP     BB          
      2.03470907E-09    3      1000037         1        -2             # GLSS   -->  W2SS+  DN     UB          
      2.03470907E-09    3     -1000037         2        -1             # GLSS   -->  W2SS-  UP     DB          
      2.03470907E-09    3      1000037         3        -4             # GLSS   -->  W2SS+  ST     CB          
      2.03470907E-09    3     -1000037         4        -3             # GLSS   -->  W2SS-  CH     SB          
      1.12578292E-07    3      1000037         5        -6             # GLSS   -->  W2SS+  BT     TB          
      1.12578292E-07    3     -1000037         6        -5             # GLSS   -->  W2SS-  TP     BB          
      2.17168846E-14    2      1000022        21                       # GLSS   -->  Z1SS   GL                 
      9.94795351E-04    3      1000022         2        -2             # GLSS   -->  Z1SS   UP     UB          
      9.94954491E-04    3      1000022         1        -1             # GLSS   -->  Z1SS   DN     DB          
      9.94954491E-04    3      1000022         3        -3             # GLSS   -->  Z1SS   ST     SB          
      9.94795351E-04    3      1000022         4        -4             # GLSS   -->  Z1SS   CH     CB          
      2.35862796E-09    3      1000022         5        -5             # GLSS   -->  Z1SS   BT     BB          
      6.69214160E-07    2      1000023        21                       # GLSS   -->  Z2SS   GL                 
      1.26056999E-04    3      1000023         2        -2             # GLSS   -->  Z2SS   UP     UB          
      3.38207064E-05    3      1000023         1        -1             # GLSS   -->  Z2SS   DN     DB          
      3.38207064E-05    3      1000023         3        -3             # GLSS   -->  Z2SS   ST     SB          
      1.26056999E-04    3      1000023         4        -4             # GLSS   -->  Z2SS   CH     CB          
      2.88349929E-05    3      1000023         5        -5             # GLSS   -->  Z2SS   BT     BB          
      1.87323708E-14    2      1000025        21                       # GLSS   -->  Z3SS   GL                 
      4.86489071E-10    3      1000025         2        -2             # GLSS   -->  Z3SS   UP     UB          
      5.99631567E-10    3      1000025         1        -1             # GLSS   -->  Z3SS   DN     DB          
      5.99631567E-10    3      1000025         3        -3             # GLSS   -->  Z3SS   ST     SB          
      4.86489071E-10    3      1000025         4        -4             # GLSS   -->  Z3SS   CH     CB          
      1.16413901E-07    3      1000025         5        -5             # GLSS   -->  Z3SS   BT     BB          
      8.49363028E-12    2      1000035        21                       # GLSS   -->  Z4SS   GL                 
      5.22774546E-10    3      1000035         2        -2             # GLSS   -->  Z4SS   UP     UB          
      6.71203537E-10    3      1000035         1        -1             # GLSS   -->  Z4SS   DN     DB          
      6.71203537E-10    3      1000035         3        -3             # GLSS   -->  Z4SS   ST     SB          
      5.22774546E-10    3      1000035         4        -4             # GLSS   -->  Z4SS   CH     CB          
      1.16380242E-07    3      1000035         5        -5             # GLSS   -->  Z4SS   BT     BB          
      5.92754781E-02    2     -1000005         5                       # GLSS   -->  BB1    BT                 
      5.92754781E-02    2      1000005        -5                       # GLSS   -->  BT1    BB                 
      3.83879334E-01    2     -1000006         6                       # GLSS   -->  TB1    TP                 
      3.83879334E-01    2      1000006        -6                       # GLSS   -->  TP1    TB                 
      5.07013462E-02    2     -2000006         6                       # GLSS   -->  TB2    TP                 
      5.07013462E-02    2      2000006        -6                       # GLSS   -->  TP2    TB                 
#         PDG         Width
DECAY   1000002  1.35945068E+02   # UPL   decays
#          BR          NDA       ID1       ID2       ID3       ID4
      3.20519865E-01    2      1000022         2                       # UPL    -->  Z1SS   UP                 
      6.53389702E-03    2      1000023         2                       # UPL    -->  Z2SS   UP                 
      1.18466221E-06    2      1000025         2                       # UPL    -->  Z3SS   UP                 
      1.74641286E-06    2      1000035         2                       # UPL    -->  Z4SS   UP                 
      3.17280442E-02    2      1000021         2                       # UPL    -->  GLSS   UP                 
      6.41212523E-01    2      1000024         1                       # UPL    -->  W1SS+  DN                 
      2.84732437E-06    2      1000037         1                       # UPL    -->  W2SS+  DN                 
#         PDG         Width
DECAY   1000001  1.35949036E+02   # DNL   decays
#          BR          NDA       ID1       ID2       ID3       ID4
      3.20664793E-01    2      1000022         1                       # DNL    -->  Z1SS   DN                 
      6.43683458E-03    2      1000023         1                       # DNL    -->  Z2SS   DN                 
      1.55273631E-06    2      1000025         1                       # DNL    -->  Z3SS   DN                 
      3.97558097E-06    2      1000035         1                       # DNL    -->  Z4SS   DN                 
      3.17618549E-02    2      1000021         1                       # DNL    -->  GLSS   DN                 
      6.41112447E-01    2     -1000024         2                       # DNL    -->  W1SS-  UP                 
      1.86002108E-05    2     -1000037         2                       # DNL    -->  W2SS-  UP                 
#         PDG         Width
DECAY   1000003  1.35949036E+02   # STL   decays
#          BR          NDA       ID1       ID2       ID3       ID4
      3.20664793E-01    2      1000022         3                       # STL    -->  Z1SS   ST                 
      6.43683458E-03    2      1000023         3                       # STL    -->  Z2SS   ST                 
      1.55273631E-06    2      1000025         3                       # STL    -->  Z3SS   ST                 
      3.97558097E-06    2      1000035         3                       # STL    -->  Z4SS   ST                 
      3.17618549E-02    2      1000021         3                       # STL    -->  GLSS   ST                 
      6.41112447E-01    2     -1000024         4                       # STL    -->  W1SS-  CH                 
      1.86002053E-05    2     -1000037         4                       # STL    -->  W2SS-  CH                 
#         PDG         Width
DECAY   1000004  1.35945053E+02   # CHL   decays
#          BR          NDA       ID1       ID2       ID3       ID4
      3.20519894E-01    2      1000022         4                       # CHL    -->  Z1SS   CH                 
      6.53389702E-03    2      1000023         4                       # CHL    -->  Z2SS   CH                 
      1.18466198E-06    2      1000025         4                       # CHL    -->  Z3SS   CH                 
      1.74641264E-06    2      1000035         4                       # CHL    -->  Z4SS   CH                 
      3.17279249E-02    2      1000021         4                       # CHL    -->  GLSS   CH                 
      6.41212583E-01    2      1000024         3                       # CHL    -->  W1SS+  ST                 
      2.84732459E-06    2      1000037         3                       # CHL    -->  W2SS+  ST                 
#         PDG         Width
DECAY   1000005  1.34887955E+02   # BT1   decays
#          BR          NDA       ID1       ID2       ID3       ID4
      2.75925577E-01    2      1000022         5                       # BT1    -->  Z1SS   BT                 
      4.50260425E-03    2      1000023         5                       # BT1    -->  Z2SS   BT                 
      1.00939229E-04    2      1000025         5                       # BT1    -->  Z3SS   BT                 
      1.01410711E-04    2      1000035         5                       # BT1    -->  Z4SS   BT                 
      5.51243484E-01    2     -1000024         6                       # BT1    -->  W1SS-  TP                 
      2.91417148E-02    2     -1000037         6                       # BT1    -->  W2SS-  TP                 
      1.38984263E-01    2          -24   1000006                       # BT1    -->  W-     TP1                
#         PDG         Width
DECAY   1000006  4.76487923E+00   # TP1   decays
#          BR          NDA       ID1       ID2       ID3       ID4
      5.11657959E-03    2      1000022         6                       # TP1    -->  Z1SS   TP                 
      9.87159014E-01    2      1000023         6                       # TP1    -->  Z2SS   TP                 
      7.72448489E-03    2      1000024         5                       # TP1    -->  W1SS+  BT                 
#         PDG         Width
DECAY   2000002  1.96272964E+01   # UPR   decays
#          BR          NDA       ID1       ID2       ID3       ID4
      4.57305589E-07    2      1000022         2                       # UPR    -->  Z1SS   UP                 
      7.27648318E-01    2      1000023         2                       # UPR    -->  Z2SS   UP                 
      7.15390343E-07    2      1000025         2                       # UPR    -->  Z3SS   UP                 
      1.30205754E-05    2      1000035         2                       # UPR    -->  Z4SS   UP                 
      2.72337556E-01    2      1000021         2                       # UPR    -->  GLSS   UP                 
#         PDG         Width
DECAY   2000001  1.10542545E+01   # DNR   decays
#          BR          NDA       ID1       ID2       ID3       ID4
      2.05126312E-07    2      1000022         1                       # DNR    -->  Z1SS   DN                 
      3.30009401E-01    2      1000023         1                       # DNR    -->  Z2SS   DN                 
      3.39466368E-07    2      1000025         1                       # DNR    -->  Z3SS   DN                 
      6.17864043E-06    2      1000035         1                       # DNR    -->  Z4SS   DN                 
      6.69983804E-01    2      1000021         1                       # DNR    -->  GLSS   DN                 
#         PDG         Width
DECAY   2000003  1.10542545E+01   # STR   decays
#          BR          NDA       ID1       ID2       ID3       ID4
      2.05126312E-07    2      1000022         3                       # STR    -->  Z1SS   ST                 
      3.30009401E-01    2      1000023         3                       # STR    -->  Z2SS   ST                 
      3.39466368E-07    2      1000025         3                       # STR    -->  Z3SS   ST                 
      6.17864043E-06    2      1000035         3                       # STR    -->  Z4SS   ST                 
      6.69983804E-01    2      1000021         3                       # STR    -->  GLSS   ST                 
#         PDG         Width
DECAY   2000004  1.96272812E+01   # CHR   decays
#          BR          NDA       ID1       ID2       ID3       ID4
      4.57305930E-07    2      1000022         4                       # CHR    -->  Z1SS   CH                 
      7.27648914E-01    2      1000023         4                       # CHR    -->  Z2SS   CH                 
      7.15390740E-07    2      1000025         4                       # CHR    -->  Z3SS   CH                 
      1.30205844E-05    2      1000035         4                       # CHR    -->  Z4SS   CH                 
      2.72336930E-01    2      1000021         4                       # CHR    -->  GLSS   CH                 
#         PDG         Width
DECAY   2000005  9.78452492E+00   # BT2   decays
#          BR          NDA       ID1       ID2       ID3       ID4
      9.87174099E-06    2      1000022         5                       # BT2    -->  Z1SS   BT                 
      3.66245180E-01    2      1000023         5                       # BT2    -->  Z2SS   BT                 
      7.26881856E-03    2      1000025         5                       # BT2    -->  Z3SS   BT                 
      7.27473851E-03    2      1000035         5                       # BT2    -->  Z4SS   BT                 
      5.79903245E-01    2      1000021         5                       # BT2    -->  GLSS   BT                 
      1.66759801E-05    2     -1000024         6                       # BT2    -->  W1SS-  TP                 
      1.44644426E-02    2     -1000037         6                       # BT2    -->  W2SS-  TP                 
      7.86853561E-05    2          -24   1000006                       # BT2    -->  W-     TP1                
      9.56234802E-03    2          -24   2000006                       # BT2    -->  W-     TP2                
      5.54390997E-03    2           23   1000005                       # BT2    -->  Z0     BT1                
      9.63208638E-03    2           25   1000005                       # BT2    -->  HL0    BT1                
#         PDG         Width
DECAY   2000006  1.44539032E+02   # TP2   decays
#          BR          NDA       ID1       ID2       ID3       ID4
      5.19027412E-01    2      1000024         5                       # TP2    -->  W1SS+  BT                 
      2.33042389E-04    2      1000037         5                       # TP2    -->  W2SS+  BT                 
      7.35436454E-02    2           23   1000006                       # TP2    -->  Z0     TP1                
      1.11732796E-01    2           25   1000006                       # TP2    -->  HL0    TP1                
      2.59192884E-01    2      1000022         6                       # TP2    -->  Z1SS   TP                 
      4.50060470E-03    2      1000023         6                       # TP2    -->  Z2SS   TP                 
      1.60624404E-02    2      1000025         6                       # TP2    -->  Z3SS   TP                 
      1.57070998E-02    2      1000035         6                       # TP2    -->  Z4SS   TP                 
#         PDG         Width
DECAY   1000011  4.29473763E+01   # EL-   decays
#          BR          NDA       ID1       ID2       ID3       ID4
      3.33219588E-01    2      1000022        11                       # EL-    -->  Z1SS   E-                 
      6.66780472E-01    2     -1000024        12                       # EL-    -->  W1SS-  NUE                
      6.05568581E-11    3      1000015        11       -15             # EL-    -->  TAU1-  E-     TAU+        
      4.14278403E-11    3     -1000015        11        15             # EL-    -->  TAU1+  E-     TAU-        
#         PDG         Width
DECAY   1000013  4.29473763E+01   # MUL-  decays
#          BR          NDA       ID1       ID2       ID3       ID4
      3.33219588E-01    2      1000022        13                       # MUL-   -->  Z1SS   MU-                
      6.66780472E-01    2     -1000024        14                       # MUL-   -->  W1SS-  NUM                
      6.05568581E-11    3      1000015        13       -15             # MUL-   -->  TAU1-  MU-    TAU+        
      4.14278403E-11    3     -1000015        13        15             # MUL-   -->  TAU1+  MU-    TAU-        
#         PDG         Width
DECAY   1000015  1.35674611E-01   # TAU1- decays
#          BR          NDA       ID1       ID2       ID3       ID4
      3.32608253E-01    2      1000022        15                       # TAU1-  -->  Z1SS   TAU-               
      6.67391777E-01    2     -1000024        16                       # TAU1-  -->  W1SS-  NUT                
#         PDG         Width
DECAY   1000012  4.27450485E+01   # NUEL  decays
#          BR          NDA       ID1       ID2       ID3       ID4
      3.33486766E-01    2      1000022        12                       # NUEL   -->  Z1SS   NUE                
      6.66513264E-01    2      1000024        11                       # NUEL   -->  W1SS+  E-                 
      3.79377189E-11    3      1000015        12       -15             # NUEL   -->  TAU1-  NUE    TAU+        
      2.58594587E-11    3     -1000015        12        15             # NUEL   -->  TAU1+  NUE    TAU-        
      3.74388596E-17    3     -1000015        11        16             # NUEL   -->  TAU1+  E-     NUT         
#         PDG         Width
DECAY   1000014  4.27450485E+01   # NUML  decays
#          BR          NDA       ID1       ID2       ID3       ID4
      3.33486766E-01    2      1000022        14                       # NUML   -->  Z1SS   NUM                
      6.66513264E-01    2      1000024        13                       # NUML   -->  W1SS+  MU-                
      3.79377189E-11    3      1000015        14       -15             # NUML   -->  TAU1-  NUM    TAU+        
      2.58594587E-11    3     -1000015        14        15             # NUML   -->  TAU1+  NUM    TAU-        
      3.85994006E-17    3     -1000015        13        16             # NUML   -->  TAU1+  MU-    NUT         
#         PDG         Width
DECAY   1000016  4.25067368E+01   # NUTL  decays
#          BR          NDA       ID1       ID2       ID3       ID4
      3.33316177E-01    2      1000022        16                       # NUTL   -->  Z1SS   NUT                
      6.66171849E-01    2      1000024        15                       # NUTL   -->  W1SS+  TAU-               
      5.12015948E-04    2           24   1000015                       # NUTL   -->  W+     TAU1-              
      2.10430215E-11    3     -1000015        16        15             # NUTL   -->  TAU1+  NUT    TAU-        
      1.42844044E-11    3      1000015        16       -15             # NUTL   -->  TAU1-  NUT    TAU+        
#         PDG         Width
DECAY   2000011  6.24466793E-06   # ER-   decays
#          BR          NDA       ID1       ID2       ID3       ID4
      1.00000000E+00    2      1000022        11                       # ER-    -->  Z1SS   E-                 
      1.76771078E-08    3      1000015        11       -15             # ER-    -->  TAU1-  E-     TAU+        
      2.68859495E-08    3     -1000015        11        15             # ER-    -->  TAU1+  E-     TAU-        
      5.37443962E-21    3      1000015        12       -16             # ER-    -->  TAU1-  NUE    ANUT        
#         PDG         Width
DECAY   2000013  6.24466793E-06   # MUR-  decays
#          BR          NDA       ID1       ID2       ID3       ID4
      1.00000000E+00    2      1000022        13                       # MUR-   -->  Z1SS   MU-                
      1.76771078E-08    3      1000015        13       -15             # MUR-   -->  TAU1-  MU-    TAU+        
      2.68859495E-08    3     -1000015        13        15             # MUR-   -->  TAU1+  MU-    TAU-        
      2.28790799E-16    3      1000015        14       -16             # MUR-   -->  TAU1-  NUM    ANUT        
#         PDG         Width
DECAY   2000015  4.25103340E+01   # TAU2- decays
#          BR          NDA       ID1       ID2       ID3       ID4
      3.33031058E-01    2      1000022        15                       # TAU2-  -->  Z1SS   TAU-               
      6.66396558E-01    2     -1000024        16                       # TAU2-  -->  W1SS-  NUT                
      2.99250707E-04    2           23   1000015                       # TAU2-  -->  Z0     TAU1-              
      2.73175770E-04    2           25   1000015                       # TAU2-  -->  HL0    TAU1-              
#         PDG         Width
DECAY   1000023  1.29222889E+01   # Z2SS  decays
#          BR          NDA       ID1       ID2       ID3       ID4
      6.81798582E-08    2      1000022        22                       # Z2SS   -->  Z1SS   GM                 
      4.71246941E-03    2      1000024       -24                       # Z2SS   -->  W1SS+  W-                 
      4.71246941E-03    2     -1000024        24                       # Z2SS   -->  W1SS-  W+                 
      8.98335293E-06    2      1000022        23                       # Z2SS   -->  Z1SS   Z0                 
      1.02161380E-06    3      1000022         2        -2             # Z2SS   -->  Z1SS   UP     UB          
      1.00673867E-06    3      1000022         1        -1             # Z2SS   -->  Z1SS   DN     DB          
      1.00673867E-06    3      1000022         3        -3             # Z2SS   -->  Z1SS   ST     SB          
      1.02161380E-06    3      1000022         4        -4             # Z2SS   -->  Z1SS   CH     CB          
      1.95466691E-06    3      1000022         5        -5             # Z2SS   -->  Z1SS   BT     BB          
      1.56828786E-11    3      1000022        15       -15             # Z2SS   -->  Z1SS   TAU-   TAU+        
      7.45154030E-05    2      1000022        25                       # Z2SS   -->  Z1SS   HL0                
      2.20240597E-02    2      1000011       -11                       # Z2SS   -->  EL-    E+                 
      2.20240597E-02    2     -1000011        11                       # Z2SS   -->  EL+    E-                 
      2.20240597E-02    2      1000013       -13                       # Z2SS   -->  MUL-   MU+                
      2.20240597E-02    2     -1000013        13                       # Z2SS   -->  MUL+   MU-                
      1.18460611E-01    2      2000011       -11                       # Z2SS   -->  ER-    E+                 
      1.18460611E-01    2     -2000011        11                       # Z2SS   -->  ER+    E-                 
      1.18460611E-01    2      2000013       -13                       # Z2SS   -->  MUR-   MU+                
      1.18460611E-01    2     -2000013        13                       # Z2SS   -->  MUR+   MU-                
      1.22277945E-01    2      1000015       -15                       # Z2SS   -->  TAU1-  TAU+               
      1.22277945E-01    2     -1000015        15                       # Z2SS   -->  TAU1+  TAU-               
      2.32702140E-02    2      2000015       -15                       # Z2SS   -->  TAU2-  TAU+               
      2.32702140E-02    2     -2000015        15                       # Z2SS   -->  TAU2+  TAU-               
      2.26304885E-02    2      1000012       -12                       # Z2SS   -->  NUEL   ANUE               
      2.26304885E-02    2     -1000012        12                       # Z2SS   -->  ANUEL  NUE                
      2.26304885E-02    2      1000014       -14                       # Z2SS   -->  NUML   ANUM               
      2.26304885E-02    2     -1000014        14                       # Z2SS   -->  ANUML  NUM                
      2.34643556E-02    2      1000016       -16                       # Z2SS   -->  NUTL   ANUT               
      2.34643556E-02    2     -1000016        16                       # Z2SS   -->  ANUTL  NUT                
#         PDG         Width
DECAY   1000025  6.59503403E+01   # Z3SS  decays
#          BR          NDA       ID1       ID2       ID3       ID4
      3.23270910E-10    2      1000022        22                       # Z3SS   -->  Z1SS   GM                 
      5.06640152E-09    2      1000023        22                       # Z3SS   -->  Z2SS   GM                 
      3.40252697E-01    2      1000024       -24                       # Z3SS   -->  W1SS+  W-                 
      3.40252697E-01    2     -1000024        24                       # Z3SS   -->  W1SS-  W+                 
      1.45934507E-01    2      1000022        23                       # Z3SS   -->  Z1SS   Z0                 
      4.40896265E-02    2      1000023        23                       # Z3SS   -->  Z2SS   Z0                 
      1.85868443E-09    3      1000022         2        -2             # Z3SS   -->  Z1SS   UP     UB          
      2.43648501E-09    3      1000022         1        -1             # Z3SS   -->  Z1SS   DN     DB          
      2.43648501E-09    3      1000022         3        -3             # Z3SS   -->  Z1SS   ST     SB          
      1.85868443E-09    3      1000022         4        -4             # Z3SS   -->  Z1SS   CH     CB          
      5.27958582E-06    3      1000022         5        -5             # Z3SS   -->  Z1SS   BT     BB          
      2.42172490E-07    3      1000022        15       -15             # Z3SS   -->  Z1SS   TAU-   TAU+        
      9.74161550E-12    3      1000023         2        -2             # Z3SS   -->  Z2SS   UP     UB          
      5.83717233E-12    3      1000023         1        -1             # Z3SS   -->  Z2SS   DN     DB          
      5.83717233E-12    3      1000023         3        -3             # Z3SS   -->  Z2SS   ST     SB          
      9.74161550E-12    3      1000023         4        -4             # Z3SS   -->  Z2SS   CH     CB          
      4.30365930E-08    3      1000023         5        -5             # Z3SS   -->  Z2SS   BT     BB          
      2.26666663E-09    3      1000023        15       -15             # Z3SS   -->  Z2SS   TAU-   TAU+        
      5.25937639E-02    2      1000022        25                       # Z3SS   -->  Z1SS   HL0                
      2.08856980E-03    2      1000023        25                       # Z3SS   -->  Z2SS   HL0                
      3.54382992E-02    2      1000006        -6                       # Z3SS   -->  TP1    TB                 
      3.54382992E-02    2     -1000006         6                       # Z3SS   -->  TB1    TP                 
      2.37385416E-06    2      1000011       -11                       # Z3SS   -->  EL-    E+                 
      2.37385416E-06    2     -1000011        11                       # Z3SS   -->  EL+    E-                 
      2.37385416E-06    2      1000013       -13                       # Z3SS   -->  MUL-   MU+                
      2.37385416E-06    2     -1000013        13                       # Z3SS   -->  MUL+   MU-                
      6.43890871E-07    2      2000011       -11                       # Z3SS   -->  ER-    E+                 
      6.43890871E-07    2     -2000011        11                       # Z3SS   -->  ER+    E-                 
      6.43890871E-07    2      2000013       -13                       # Z3SS   -->  MUR-   MU+                
      6.43890871E-07    2     -2000013        13                       # Z3SS   -->  MUR+   MU-                
      9.79814213E-04    2      1000015       -15                       # Z3SS   -->  TAU1-  TAU+               
      9.79814213E-04    2     -1000015        15                       # Z3SS   -->  TAU1+  TAU-               
      9.50620859E-04    2      2000015       -15                       # Z3SS   -->  TAU2-  TAU+               
      9.50620859E-04    2     -2000015        15                       # Z3SS   -->  TAU2+  TAU-               
      5.42477346E-06    2      1000012       -12                       # Z3SS   -->  NUEL   ANUE               
      5.42477346E-06    2     -1000012        12                       # Z3SS   -->  ANUEL  NUE                
      5.42477346E-06    2      1000014       -14                       # Z3SS   -->  NUML   ANUM               
      5.42477346E-06    2     -1000014        14                       # Z3SS   -->  ANUML  NUM                
      5.45674038E-06    2      1000016       -16                       # Z3SS   -->  NUTL   ANUT               
      5.45674038E-06    2     -1000016        16                       # Z3SS   -->  ANUTL  NUT                
#         PDG         Width
DECAY   1000035  4.81958504E+01   # Z4SS  decays
#          BR          NDA       ID1       ID2       ID3       ID4
      1.07211676E-07    2      1000022        22                       # Z4SS   -->  Z1SS   GM                 
      1.37614686E-09    2      1000023        22                       # Z4SS   -->  Z2SS   GM                 
      3.85269786E-16    2      1000025        22                       # Z4SS   -->  Z3SS   GM                 
      1.63024783E-01    2      1000024       -24                       # Z4SS   -->  W1SS+  W-                 
      1.63024783E-01    2     -1000024        24                       # Z4SS   -->  W1SS-  W+                 
      9.89282057E-02    2      1000022        23                       # Z4SS   -->  Z1SS   Z0                 
      3.31437821E-03    2      1000023        23                       # Z4SS   -->  Z2SS   Z0                 
      5.96831784E-09    3      1000022         2        -2             # Z4SS   -->  Z1SS   UP     UB          
      1.35882869E-08    3      1000022         1        -1             # Z4SS   -->  Z1SS   DN     DB          
      1.35882869E-08    3      1000022         3        -3             # Z4SS   -->  Z1SS   ST     SB          
      5.96831784E-09    3      1000022         4        -4             # Z4SS   -->  Z1SS   CH     CB          
      7.22044206E-06    3      1000022         5        -5             # Z4SS   -->  Z1SS   BT     BB          
      3.27486958E-07    3      1000022        15       -15             # Z4SS   -->  Z1SS   TAU-   TAU+        
      3.77829351E-10    3      1000023         2        -2             # Z4SS   -->  Z2SS   UP     UB          
      7.11468315E-11    3      1000023         1        -1             # Z4SS   -->  Z2SS   DN     DB          
      7.11468315E-11    3      1000023         3        -3             # Z4SS   -->  Z2SS   ST     SB          
      3.77829351E-10    3      1000023         4        -4             # Z4SS   -->  Z2SS   CH     CB          
      5.83705067E-08    3      1000023         5        -5             # Z4SS   -->  Z2SS   BT     BB          
      3.02593328E-09    3      1000023        15       -15             # Z4SS   -->  Z2SS   TAU-   TAU+        
      3.48503083E-01    2      1000022        25                       # Z4SS   -->  Z1SS   HL0                
      1.23425350E-01    2      1000023        25                       # Z4SS   -->  Z2SS   HL0                
      4.71153148E-02    2      1000006        -6                       # Z4SS   -->  TP1    TB                 
      4.71153148E-02    2     -1000006         6                       # Z4SS   -->  TB1    TP                 
      1.58154228E-06    2      1000011       -11                       # Z4SS   -->  EL-    E+                 
      1.58154228E-06    2     -1000011        11                       # Z4SS   -->  EL+    E-                 
      1.58154228E-06    2      1000013       -13                       # Z4SS   -->  MUL-   MU+                
      1.58154228E-06    2     -1000013        13                       # Z4SS   -->  MUL+   MU-                
      1.60461950E-05    2      2000011       -11                       # Z4SS   -->  ER-    E+                 
      1.60461950E-05    2     -2000011        11                       # Z4SS   -->  ER+    E-                 
      1.60461950E-05    2      2000013       -13                       # Z4SS   -->  MUR-   MU+                
      1.60461950E-05    2     -2000013        13                       # Z4SS   -->  MUR+   MU-                
      1.34556182E-03    2      1000015       -15                       # Z4SS   -->  TAU1-  TAU+               
      1.34556182E-03    2     -1000015        15                       # Z4SS   -->  TAU1+  TAU-               
      1.30903535E-03    2      2000015       -15                       # Z4SS   -->  TAU2-  TAU+               
      1.30903535E-03    2     -2000015        15                       # Z4SS   -->  TAU2+  TAU-               
      2.67980413E-05    2      1000012       -12                       # Z4SS   -->  NUEL   ANUE               
      2.67980413E-05    2     -1000012        12                       # Z4SS   -->  ANUEL  NUE                
      2.67980413E-05    2      1000014       -14                       # Z4SS   -->  NUML   ANUM               
      2.67980413E-05    2     -1000014        14                       # Z4SS   -->  ANUML  NUM                
      2.69559259E-05    2      1000016       -16                       # Z4SS   -->  NUTL   ANUT               
      2.69559259E-05    2     -1000016        16                       # Z4SS   -->  ANUTL  NUT                
#         PDG         Width
DECAY   1000024  4.72561164E-15   # W1SS+ decays
#          BR          NDA       ID1       ID2       ID3       ID4
      1.00000000E+00    2      1000022         0                       # W1SS+  -->  Z1SS   PI+                
#         PDG         Width
DECAY   1000037  7.24818192E+01   # W2SS+ decays
#          BR          NDA       ID1       ID2       ID3       ID4
      1.70484604E-08    3      1000022         2        -1             # W2SS+  -->  Z1SS   UP     DB          
      1.70484604E-08    3      1000022         4        -3             # W2SS+  -->  Z1SS   CH     SB          
      2.16736510E-07    3      1000022       -15        16             # W2SS+  -->  Z1SS   TAU+   NUT         
      3.46151173E-01    2      1000022        24                       # W2SS+  -->  Z1SS   W+                 
      8.36144209E-11    3      1000023         2        -1             # W2SS+  -->  Z2SS   UP     DB          
      8.36144209E-11    3      1000023         4        -3             # W2SS+  -->  Z2SS   CH     SB          
      2.04933270E-09    3      1000023       -15        16             # W2SS+  -->  Z2SS   TAU+   NUT         
      4.22665626E-02    2      1000023        24                       # W2SS+  -->  Z2SS   W+                 
      6.83262502E-10    3      1000025         2        -1             # W2SS+  -->  Z3SS   UP     DB          
      6.83262502E-10    3      1000025         4        -3             # W2SS+  -->  Z3SS   CH     SB          
      2.27754163E-10    3      1000025       -11        12             # W2SS+  -->  Z3SS   E+     NUE         
      2.27754163E-10    3      1000025       -13        14             # W2SS+  -->  Z3SS   MU+    NUM         
      2.27754163E-10    3      1000025       -15        16             # W2SS+  -->  Z3SS   TAU+   NUT         
      3.89704741E-10    3      1000035         2        -1             # W2SS+  -->  Z4SS   UP     DB          
      3.89704741E-10    3      1000035         4        -3             # W2SS+  -->  Z4SS   CH     SB          
      1.29901589E-10    3      1000035       -11        12             # W2SS+  -->  Z4SS   E+     NUE         
      1.29901589E-10    3      1000035       -13        14             # W2SS+  -->  Z4SS   MU+    NUM         
      1.29901589E-10    3      1000035       -15        16             # W2SS+  -->  Z4SS   TAU+   NUT         
      6.66525811E-02    2      1000006        -5                       # W2SS+  -->  TP1    BB                 
      7.21090828E-06    2      1000012       -11                       # W2SS+  -->  NUEL   E+                 
      7.21090828E-06    2      1000014       -13                       # W2SS+  -->  NUML   MU+                
      1.72930979E-03    2      1000016       -15                       # W2SS+  -->  NUTL   TAU+               
      4.68567050E-05    2     -1000011        12                       # W2SS+  -->  EL+    NUE                
      4.68567050E-05    2     -1000013        14                       # W2SS+  -->  MUL+   NUM                
      1.76288071E-03    2     -1000015        16                       # W2SS+  -->  TAU1+  NUT                
      8.49249991E-05    2     -2000015        16                       # W2SS+  -->  TAU2+  NUT                
      2.61580855E-01    2      1000024        23                       # W2SS+  -->  W1SS+  Z0                 
      5.35353673E-09    3      1000024         1        -1             # W2SS+  -->  W1SS+  DN     DB          
      5.35353673E-09    3      1000024         3        -3             # W2SS+  -->  W1SS+  ST     SB          
      3.49554483E-08    3      1000024         2        -2             # W2SS+  -->  W1SS+  UP     UB          
      3.49554483E-08    3      1000024         4        -4             # W2SS+  -->  W1SS+  CH     CB          
      2.79663205E-01    2      1000024        25                       # W2SS+  -->  W1SS+  HL0                
#         PDG         Width
DECAY        25  4.35111159E-03   # HL0   decays
#          BR          NDA       ID1       ID2       ID3       ID4
      4.65177807E-09    2           11       -11                       # HL0    -->  E-     E+                 
      1.96405541E-04    2           13       -13                       # HL0    -->  MU-    MU+                
      5.61786294E-02    2           15       -15                       # HL0    -->  TAU-   TAU+               
      5.83544443E-06    2            1        -1                       # HL0    -->  DN     DB                 
      2.35781213E-03    2            3        -3                       # HL0    -->  ST     SB                 
      7.69161403E-01    2            5        -5                       # HL0    -->  BT     BB                 
      1.86621162E-06    2            2        -2                       # HL0    -->  UP     UB                 
      3.49456780E-02    2            4        -4                       # HL0    -->  CH     CB                 
      1.95694296E-03    2           22        22                       # HL0    -->  GM     GM                 
      4.14376967E-02    2           21        21                       # HL0    -->  GL     GL                 
      4.77538817E-03    3           24        11       -12             # HL0    -->  W+     E-     ANUE        
      4.77538817E-03    3           24        13       -14             # HL0    -->  W+     MU-    ANUM        
      4.77538817E-03    3           24        15       -16             # HL0    -->  W+     TAU-   ANUT        
      1.43261636E-02    3           24        -2         1             # HL0    -->  W+     UB     DN          
      1.43261636E-02    3           24        -4         3             # HL0    -->  W+     CB     ST          
      4.77538817E-03    3          -24       -11        12             # HL0    -->  W-     E+     NUE         
      4.77538817E-03    3          -24       -13        14             # HL0    -->  W-     MU+    NUM         
      4.77538817E-03    3          -24       -15        16             # HL0    -->  W-     TAU+   NUT         
      1.43261636E-02    3          -24         2        -1             # HL0    -->  W-     UP     DB          
      1.43261636E-02    3          -24         4        -3             # HL0    -->  W-     CH     SB          
      5.33466635E-04    3           23        12       -12             # HL0    -->  Z0     NUE    ANUE        
      5.33466635E-04    3           23        14       -14             # HL0    -->  Z0     NUM    ANUM        
      5.33466635E-04    3           23        16       -16             # HL0    -->  Z0     NUT    ANUT        
      2.68488395E-04    3           23        11       -11             # HL0    -->  Z0     E-     E+          
      2.68488395E-04    3           23        13       -13             # HL0    -->  Z0     MU-    MU+         
      2.68488395E-04    3           23        15       -15             # HL0    -->  Z0     TAU-   TAU+        
      9.19818471E-04    3           23         2        -2             # HL0    -->  Z0     UP     UB          
      9.19818471E-04    3           23         4        -4             # HL0    -->  Z0     CH     CB          
      1.18495279E-03    3           23         1        -1             # HL0    -->  Z0     DN     DB          
      1.18495279E-03    3           23         3        -3             # HL0    -->  Z0     ST     SB          
      1.18495279E-03    3           23         5        -5             # HL0    -->  Z0     BT     BB          
#         PDG         Width
DECAY        35  1.80559998E+01   # HH0   decays
#          BR          NDA       ID1       ID2       ID3       ID4
      2.30596120E-09    2           11       -11                       # HH0    -->  E-     E+                 
      9.73618371E-05    2           13       -13                       # HH0    -->  MU-    MU+                
      2.78859157E-02    2           15       -15                       # HH0    -->  TAU-   TAU+               
      2.78162724E-06    2            1        -1                       # HH0    -->  DN     DB                 
      1.12391834E-03    2            3        -3                       # HH0    -->  ST     SB                 
      1.32701740E-01    2            5        -5                       # HH0    -->  BT     BB                 
      1.42476764E-09    2            2        -2                       # HH0    -->  UP     UB                 
      1.57648828E-05    2            4        -4                       # HH0    -->  CH     CB                 
      8.29414964E-01    2            6        -6                       # HH0    -->  TP     TB                 
      4.78948834E-07    2           22        22                       # HH0    -->  GM     GM                 
      4.21200057E-05    2           21        21                       # HH0    -->  GL     GL                 
      3.97702934E-05    2           24       -24                       # HH0    -->  W+     W-                 
      2.04112475E-05    2           23        23                       # HH0    -->  Z0     Z0                 
      2.70868855E-04    2      1000022   1000022                       # HH0    -->  Z1SS   Z1SS               
      8.61372973E-05    2      1000022   1000023                       # HH0    -->  Z1SS   Z2SS               
      5.78935957E-04    2      1000024  -1000024                       # HH0    -->  W1SS+  W1SS-              
      1.75694353E-04    2           25        25                       # HH0    -->  HL0    HL0                
      2.26308725E-06    2      1000011  -1000011                       # HH0    -->  EL-    EL+                
      1.95513417E-06    2      2000011  -2000011                       # HH0    -->  ER-    ER+                
      2.26279963E-06    2      1000013  -1000013                       # HH0    -->  MUL-   MUL+               
      1.95484745E-06    2      2000013  -2000013                       # HH0    -->  MUR-   MUR+               
      3.36611120E-05    2      1000015  -1000015                       # HH0    -->  TAU1-  TAU1+              
      6.73633622E-05    2      2000015  -2000015                       # HH0    -->  TAU2-  TAU2+              
      3.70478234E-03    2      1000015  -2000015                       # HH0    -->  TAU1-  TAU2+              
      3.70478234E-03    2      2000015  -1000015                       # HH0    -->  TAU2-  TAU1+              
      8.00658017E-06    2      1000012  -1000012                       # HH0    -->  NUEL   ANUEL              
      8.00658017E-06    2      1000014  -1000014                       # HH0    -->  NUML   ANUML              
      8.15213843E-06    2      1000016  -1000016                       # HH0    -->  NUTL   ANUTL              
#         PDG         Width
DECAY        36  1.79560623E+01   # HA0   decays
#          BR          NDA       ID1       ID2       ID3       ID4
      2.30366637E-09    2           11       -11                       # HA0    -->  E-     E+                 
      9.72649577E-05    2           13       -13                       # HA0    -->  MU-    MU+                
      2.78581735E-02    2           15       -15                       # HA0    -->  TAU-   TAU+               
      2.77896061E-06    2            1        -1                       # HA0    -->  DN     DB                 
      1.12284068E-03    2            3        -3                       # HA0    -->  ST     SB                 
      1.32574558E-01    2            5        -5                       # HA0    -->  BT     BB                 
      1.42268786E-09    2            2        -2                       # HA0    -->  UP     UB                 
      1.57517206E-05    2            4        -4                       # HA0    -->  CH     CB                 
      8.29401612E-01    2            6        -6                       # HA0    -->  TP     TB                 
      3.90067839E-07    2           22        22                       # HA0    -->  GM     GM                 
      4.75071975E-05    2           21        21                       # HA0    -->  GL     GL                 
      3.47843394E-04    2      1000022   1000022                       # HA0    -->  Z1SS   Z1SS               
      2.06363693E-04    2      1000022   1000023                       # HA0    -->  Z1SS   Z2SS               
      8.85204121E-04    2      1000024  -1000024                       # HA0    -->  W1SS+  W1SS-              
      3.97170879E-05    2           25        23                       # HA0    -->  HL0    Z0                 
      1.48589821E-11    2      1000011  -2000011                       # HA0    -->  EL-    ER+                
      1.48589821E-11    2      2000011  -1000011                       # HA0    -->  ER-    EL+                
      6.27372970E-07    2      1000013  -2000013                       # HA0    -->  MUL-   MUR+               
      6.27372970E-07    2      2000013  -1000013                       # HA0    -->  MUR-   MUL+               
      3.69929383E-03    2      1000015  -2000015                       # HA0    -->  TAU1-  TAU2+              
      3.69929383E-03    2      2000015  -1000015                       # HA0    -->  TAU2-  TAU1+              
#         PDG         Width
DECAY        37  1.68828106E+01   # H+    decays
#          BR          NDA       ID1       ID2       ID3       ID4
      2.46631116E-09    2           12       -11                       # H+     -->  NUE    E+                 
      1.04132101E-04    2           14       -13                       # H+     -->  NUM    MU+                
      2.98250299E-02    2           16       -15                       # H+     -->  NUT    TAU+               
      2.77856134E-06    2            2        -1                       # H+     -->  UP     DB                 
      1.13783637E-03    2            4        -3                       # H+     -->  CH     SB                 
      9.60446179E-01    2            6        -5                       # H+     -->  TP     BB                 
      3.21882817E-06    2      1000024   1000022                       # H+     -->  W1SS+  Z1SS               
      3.41276085E-04    2      1000024   1000023                       # H+     -->  W1SS+  Z2SS               
      4.25268408E-05    2           25        24                       # H+     -->  HL0    W+                 
      1.00186826E-05    2     -1000011   1000012                       # H+     -->  EL+    NUEL               
      1.00182397E-05    2     -1000013   1000014                       # H+     -->  MUL+   NUML               
      8.01135879E-03    2     -1000015   1000016                       # H+     -->  TAU1+  NUTL               
      6.56800767E-05    2     -2000015   1000016                       # H+     -->  TAU2+  NUTL               
