#
#                              ======================
#                              | THE SUSYHIT OUTPUT |
#                              ======================
#
#
#              ------------------------------------------------------
#              |     This is the output of the SUSY-HIT package     |
#              |  created by A.Djouadi, M.Muehlleitner and M.Spira. |
#              |  In case of problems with SUSY-HIT email to        |
#              |           margarete.muehlleitner@cern.ch           |
#              |           michael.spira@psi.ch                     |
#              |           abdelhak.djouadi@cern.ch                 |
#              ------------------------------------------------------
#
#              ------------------------------------------------------
#              |  SUSY Les Houches Accord - MSSM Spectrum + Decays  |
#              |              based on the decay programs           |
#              |                                                    |
#              |                     SDECAY 1.3b                    |
#              |                                                    |
#              |  Authors: M.Muhlleitner, A.Djouadi and Y.Mambrini  |
#              |  Ref.:    Comput.Phys.Commun.168(2005)46           |
#              |           [hep-ph/0311167]                         |
#              |                                                    |
#              |                     HDECAY 3.4                     |
#              |                                                    |
#              |  By: A.Djouadi,J.Kalinowski,M.Muhlleitner,M.Spira  |
#              |  Ref.:    Comput.Phys.Commun.108(1998)56           |
#              |           [hep-ph/9704448]                         |
#              |                                                    |
#              |                                                    |
#              |  If not stated otherwise all DRbar couplings and   |
#              |  soft SUSY breaking masses are given at the scale  |
#              |  Q=  0.91187600E+02
#              |                                                    |
#              ------------------------------------------------------
#
#
BLOCK DCINFO  # Decay Program information
     1   SDECAY/HDECAY # decay calculator
     2   1.3b  /3.4    # version number
#
BLOCK SPINFO  # Spectrum calculator information
     1   SuSpect     # RGE +Spectrum calculator            
     2   2.41         # version number                     
#
BLOCK MODSEL  # Model selection
     1     0   # #general MSSM low scale                           
#
BLOCK SMINPUTS  # Standard Model inputs
         1     1.27934000E+02   # alpha_em^-1(M_Z)^MSbar
         2     1.16639000E-05   # G_F [GeV^-2]
         3     1.17200000E-01   # alpha_S(M_Z)^MSbar
         4     9.11870000E+01   # M_Z pole mass
         5     4.25000000E+00   # mb(mb)^MSbar
         6     1.72500000E+02   # mt pole mass
         7     1.77700000E+00   # mtau pole mass
#
BLOCK MINPAR  # Input parameters - minimal models
#
BLOCK EXTPAR  # Input parameters - non-minimal models
         0     9.11876000E+01   # EWSB                
         1     7.00000000E+02   # M_1                 
         2     1.10000000E+03   # M_2                 
         3     1.00000000E+05   # M_3                 
        11     0.00000000E+00   # A_t                 
        12     0.00000000E+00   # A_b                 
        13     0.00000000E+00   # A_tau               
        14     0.00000000E+00   # A_u                 
        15     0.00000000E+00   # A_d                 
        16     0.00000000E+00   # A_e                 
        23     1.00000000E+05   # mu(EWSB)            
        25     1.50000000E+00   # tanbeta(in)         
        26     2.00000000E+03   # MA_pole             
        31     1.00000000E+05   # M_eL                
        32     1.00000000E+05   # M_muL               
        33     1.00000000E+05   # M_tauL              
        34     1.00000000E+05   # M_eR                
        35     1.00000000E+05   # M_muR               
        36     1.00000000E+05   # M_tauR              
        41     1.00000000E+05   # M_q1L               
        42     1.00000000E+05   # M_q2L               
        43     1.00000000E+05   # M_q3L               
        44     1.00000000E+05   # M_uR                
        45     1.00000000E+05   # M_cR                
        46     1.00000000E+05   # M_tR                
        47     1.00000000E+05   # M_dR                
        48     1.00000000E+05   # M_sR                
        49     1.00000000E+05   # M_bR                
#
BLOCK MASS  # Mass Spectrum
# PDG code           mass       particle
        24     8.06197548E+01   # W+
        25     1.25000000E+02   # h
        35     2.00738725E+03   # H
        36     2.00000000E+03   # A
        37     2.02356713E+03   # H+
         5     4.87877839E+00   # b-quark pole mass calculated from mb(mb)_Msbar
   1000001     1.00000007E+05   # ~d_L
   2000001     1.00000001E+05   # ~d_R
   1000002     9.99999947E+04   # ~u_L
   2000002     9.99999975E+04   # ~u_R
   1000003     1.00000007E+05   # ~s_L
   2000003     1.00000001E+05   # ~s_R
   1000004     9.99999947E+04   # ~c_L
   2000004     9.99999975E+04   # ~c_R
   1000005     9.99980793E+04   # ~b_1
   2000005     1.00001929E+05   # ~b_2
   1000006     9.99522182E+04   # ~t_1
   2000006     1.00047957E+05   # ~t_2
   1000011     1.00000004E+05   # ~e_L
   2000011     1.00000004E+05   # ~e_R
   1000012     9.99999922E+04   # ~nu_eL
   1000013     1.00000004E+05   # ~mu_L
   2000013     1.00000004E+05   # ~mu_R
   1000014     9.99999922E+04   # ~nu_muL
   1000015     9.99986750E+04   # ~tau_1
   2000015     1.00001333E+05   # ~tau_2
   1000016     9.99999922E+04   # ~nu_tauL
   1000021     1.00000000E+05   # ~g
   1000022     6.99981585E+02   # ~chi_10
   1000023     1.09994236E+03   # ~chi_20
   1000025    -1.00000003E+05   # ~chi_30
   1000035     1.00000079E+05   # ~chi_40
   1000024     1.09994236E+03   # ~chi_1+
   1000037     1.00000062E+05   # ~chi_2+
   1000039     5.00000000E-09   # ~gravitino
#
BLOCK NMIX  # Neutralino Mixing Matrix
  1  1     9.99999896E-01   # N_11
  1  2    -8.12756015E-05   # N_12
  1  3     3.71992262E-04   # N_13
  1  4    -2.49434899E-04   # N_14
  2  1     8.16310380E-05   # N_21
  2  2     9.99999682E-01   # N_22
  2  3    -6.58436439E-04   # N_23
  2  4     4.42951869E-04   # N_24
  3  1     8.66488904E-05   # N_31
  3  2    -1.52377571E-04   # N_32
  3  3    -7.07106715E-01   # N_33
  3  4    -7.07106825E-01   # N_34
  4  1     4.39352083E-04   # N_41
  4  2    -7.78834839E-04   # N_42
  4  3    -7.07106443E-01   # N_43
  4  4     7.07106554E-01   # N_44
#
BLOCK UMIX  # Chargino Mixing Matrix U
  1  1    -9.99999566E-01   # U_11
  1  2     9.31212510E-04   # U_12
  2  1     9.31212510E-04   # U_21
  2  2     9.99999566E-01   # U_22
#
BLOCK VMIX  # Chargino Mixing Matrix V
  1  1    -9.99999804E-01   # V_11
  1  2     6.26457577E-04   # V_12
  2  1     6.26457577E-04   # V_21
  2  2     9.99999804E-01   # V_22
#
BLOCK STOPMIX  # Stop Mixing Matrix
  1  1     7.07116977E-01   # cos(theta_t)
  1  2     7.07096585E-01   # sin(theta_t)
  2  1    -7.07096585E-01   # -sin(theta_t)
  2  2     7.07116977E-01   # cos(theta_t)
#
BLOCK SBOTMIX  # Sbottom Mixing Matrix
  1  1     7.06619922E-01   # cos(theta_b)
  1  2     7.07593305E-01   # sin(theta_b)
  2  1    -7.07593305E-01   # -sin(theta_b)
  2  2     7.06619922E-01   # cos(theta_b)
#
BLOCK STAUMIX  # Stau Mixing Matrix
  1  1     7.07077115E-01   # cos(theta_tau)
  1  2     7.07136446E-01   # sin(theta_tau)
  2  1    -7.07136446E-01   # -sin(theta_tau)
  2  2     7.07077115E-01   # cos(theta_tau)
#
BLOCK ALPHA  # Higgs mixing
          -6.21130551E-01   # Mixing angle in the neutral Higgs boson sector
#
BLOCK HMIX Q=  9.11876000E+01  # DRbar Higgs Parameters
         1     1.00000000E+05   # mu(Q)               
         2     1.49999983E+00   # tanbeta(Q)          
         3     2.54697662E+02   # vev(Q)              
         4    -2.00103705E+07   # MA^2(Q)             
#
BLOCK GAUGE Q=  9.11876000E+01  # The gauge couplings
     1     3.49333466E-01   # gprime(Q) DRbar
     2     6.16765280E-01   # g(Q) DRbar
     3     9.84784075E-01   # g3(Q) DRbar
#
BLOCK AU Q=  9.11876000E+01  # The trilinear couplings
  1  1     0.00000000E+00   # A_u(Q) DRbar
  2  2     0.00000000E+00   # A_c(Q) DRbar
  3  3     0.00000000E+00   # A_t(Q) DRbar
#
BLOCK AD Q=  9.11876000E+01  # The trilinear couplings
  1  1     0.00000000E+00   # A_d(Q) DRbar
  2  2     0.00000000E+00   # A_s(Q) DRbar
  3  3     0.00000000E+00   # A_b(Q) DRbar
#
BLOCK AE Q=  9.11876000E+01  # The trilinear couplings
  1  1     0.00000000E+00   # A_e(Q) DRbar
  2  2     0.00000000E+00   # A_mu(Q) DRbar
  3  3     0.00000000E+00   # A_tau(Q) DRbar
#
BLOCK Yu Q=  9.11876000E+01  # The Yukawa couplings
  1  1     0.00000000E+00   # y_u(Q) DRbar
  2  2     0.00000000E+00   # y_c(Q) DRbar
  3  3     9.58246402E-01   # y_t(Q) DRbar
#
BLOCK Yd Q=  9.11876000E+01  # The Yukawa couplings
  1  1     0.00000000E+00   # y_d(Q) DRbar
  2  2     0.00000000E+00   # y_s(Q) DRbar
  3  3     2.56841092E-02   # y_b(Q) DRbar
#
BLOCK Ye Q=  9.11876000E+01  # The Yukawa couplings
  1  1     0.00000000E+00   # y_e(Q) DRbar
  2  2     0.00000000E+00   # y_mu(Q) DRbar
  3  3     1.77344366E-02   # y_tau(Q) DRbar
#
BLOCK MSOFT Q=  9.11876000E+01  # The soft SUSY breaking masses at the scale Q
         1     7.00000000E+02   # M_1                 
         2     1.10000000E+03   # M_2                 
         3     1.00000000E+05   # M_3                 
        14     0.00000000E+00   # A_u                 
        15     0.00000000E+00   # A_d                 
        16     0.00000000E+00   # A_e                 
        21    -1.14009004E+10   # M^2_Hd              
        22    -1.34981601E+10   # M^2_Hu              
        31     1.00000000E+05   # M_eL                
        32     1.00000000E+05   # M_muL               
        33     1.00000000E+05   # M_tauL              
        34     1.00000000E+05   # M_eR                
        35     1.00000000E+05   # M_muR               
        36     1.00000000E+05   # M_tauR              
        41     1.00000000E+05   # M_q1L               
        42     1.00000000E+05   # M_q2L               
        43     1.00000000E+05   # M_q3L               
        44     1.00000000E+05   # M_uR                
        45     1.00000000E+05   # M_cR                
        46     1.00000000E+05   # M_tR                
        47     1.00000000E+05   # M_dR                
        48     1.00000000E+05   # M_sR                
        49     1.00000000E+05   # M_bR                
#
#
#
#                             =================
#                             |The decay table|
#                             =================
#
# - The QCD corrections to the decays gluino -> squark  + quark
#                                     squark -> gaugino + quark_prime
#                                     squark -> squark_prime + Higgs
#                                     squark -> gluino  + quark
#   are included.
#
# - The multi-body decays for the inos, stops and sbottoms are included.
#
# - The loop induced decays for the gluino, neutralinos and stops
#   are included.
#
# - The SUSY decays of the top quark are included.
#
# - Possible decays of the NLSP in GMSB models are included.
#
#
#         PDG            Width
DECAY         6     1.31143412E+00   # top decays
#          BR         NDA      ID1       ID2
     1.00000000E+00    2           5        24   # BR(t ->  b    W+)
#
#         PDG            Width
DECAY   1000021     1.E-04   # gluino decays (OJ Mods)
#          BR         NDA      ID1       ID2
     2.89733250E-14    2     1000002        -2   # BR(~g -> ~u_L  ub)
     2.89733250E-14    2    -1000002         2   # BR(~g -> ~u_L* u )
     6.44653920E-15    2     2000002        -2   # BR(~g -> ~u_R  ub)
     6.44653920E-15    2    -2000002         2   # BR(~g -> ~u_R* u )
     2.89733250E-14    2     1000004        -4   # BR(~g -> ~c_L  cb)
     2.89733250E-14    2    -1000004         4   # BR(~g -> ~c_L* c )
     6.44653920E-15    2     2000004        -4   # BR(~g -> ~c_R  cb)
     6.44653920E-15    2    -2000004         4   # BR(~g -> ~c_R* c )
     1.00000000E+00    2     1000039        21   # BR(~g -> ~G g)
#
#         PDG            Width
DECAY   1000006     6.56812123E+02   # stop1 decays
#          BR         NDA      ID1       ID2
     1.67931737E-01    2     1000022         6   # BR(~t_1 -> ~chi_10 t )
     2.77361352E-01    2     1000023         6   # BR(~t_1 -> ~chi_20 t )
     5.54706911E-01    2     1000024         5   # BR(~t_1 -> ~chi_1+ b )
#
#         PDG            Width
DECAY   2000006     6.55275563E+02   # stop2 decays
#          BR         NDA      ID1       ID2
     1.68275991E-01    2     1000022         6   # BR(~t_2 -> ~chi_10 t )
     2.77481893E-01    2     1000023         6   # BR(~t_2 -> ~chi_20 t )
     0.00000000E+00    2     1000025         6   # BR(~t_2 -> ~chi_30 t )
     5.54947797E-01    2     1000024         5   # BR(~t_2 -> ~chi_1+ b )
     1.02339510E-06    2     1000037         5   # BR(~t_2 -> ~chi_2+ b )
    -7.06704158E-04    2     1000006        23   # BR(~t_2 -> ~t_1    Z )
#
#         PDG            Width
DECAY   1000005     5.77113945E+02   # sbottom1 decays
#          BR         NDA      ID1       ID2
     5.62973527E-02    2     1000022         5   # BR(~b_1 -> ~chi_10 b )
     3.14561542E-01    2     1000023         5   # BR(~b_1 -> ~chi_20 b )
     6.29141105E-01    2    -1000024         6   # BR(~b_1 -> ~chi_1- t )
#
#         PDG            Width
DECAY   2000005     5.79612219E+02   # sbottom2 decays
#          BR         NDA      ID1       ID2
     5.58828647E-02    2     1000022         5   # BR(~b_2 -> ~chi_10 b )
     3.14699700E-01    2     1000023         5   # BR(~b_2 -> ~chi_20 b )
     6.29417436E-01    2    -1000024         6   # BR(~b_2 -> ~chi_1- t )
#
#         PDG            Width
DECAY   1000002     1.10491086E+03   # sup_L decays
#          BR         NDA      ID1       ID2
     1.17322246E-02    2     1000022         2   # BR(~u_L -> ~chi_10 u)
     3.29429308E-01    2     1000023         2   # BR(~u_L -> ~chi_20 u)
     6.58838468E-01    2     1000024         1   # BR(~u_L -> ~chi_1+ d)
#
#         PDG            Width
DECAY   2000002     2.07587689E+02   # sup_R decays
#          BR         NDA      ID1       ID2
     9.99999993E-01    2     1000022         2   # BR(~u_R -> ~chi_10 u)
     6.66351580E-09    2     1000023         2   # BR(~u_R -> ~chi_20 u)
#
#         PDG            Width
DECAY   1000001     1.10491040E+03   # sdown_L decays
#          BR         NDA      ID1       ID2
     1.17524491E-02    2     1000022         1   # BR(~d_L -> ~chi_10 d)
     3.29409132E-01    2     1000023         1   # BR(~d_L -> ~chi_20 d)
     5.10991205E-17    2     1000025         1   # BR(~d_L -> ~chi_30 d)
     6.58838419E-01    2    -1000024         2   # BR(~d_L -> ~chi_1- u)
     1.49225927E-13    2     1000021         1   # BR(~d_L -> ~g      d)
#
#         PDG            Width
DECAY   2000001     5.18969219E+01   # sdown_R decays
#          BR         NDA      ID1       ID2
     9.99999993E-01    2     1000022         1   # BR(~d_R -> ~chi_10 d)
     6.66351580E-09    2     1000023         1   # BR(~d_R -> ~chi_20 d)
     6.48386144E-14    2     1000021         1   # BR(~d_R -> ~g      d)
#
#         PDG            Width
DECAY   1000004     1.10491086E+03   # scharm_L decays
#          BR         NDA      ID1       ID2
     1.17322246E-02    2     1000022         4   # BR(~c_L -> ~chi_10 c)
     3.29429308E-01    2     1000023         4   # BR(~c_L -> ~chi_20 c)
     6.58838468E-01    2     1000024         3   # BR(~c_L -> ~chi_1+ s)
#
#         PDG            Width
DECAY   2000004     2.07587689E+02   # scharm_R decays
#          BR         NDA      ID1       ID2
     9.99999993E-01    2     1000022         4   # BR(~c_R -> ~chi_10 c)
     6.66351580E-09    2     1000023         4   # BR(~c_R -> ~chi_20 c)
#
#         PDG            Width
DECAY   1000003     1.10491040E+03   # sstrange_L decays
#          BR         NDA      ID1       ID2
     1.17524491E-02    2     1000022         3   # BR(~s_L -> ~chi_10 s)
     3.29409132E-01    2     1000023         3   # BR(~s_L -> ~chi_20 s)
     5.10991205E-17    2     1000025         3   # BR(~s_L -> ~chi_30 s)
     6.58838419E-01    2    -1000024         4   # BR(~s_L -> ~chi_1- c)
     1.49225927E-13    2     1000021         3   # BR(~s_L -> ~g      s)
#
#         PDG            Width
DECAY   2000003     5.18969219E+01   # sstrange_R decays
#          BR         NDA      ID1       ID2
     9.99999993E-01    2     1000022         3   # BR(~s_R -> ~chi_10 s)
     6.66351580E-09    2     1000023         3   # BR(~s_R -> ~chi_20 s)
     6.48386144E-14    2     1000021         3   # BR(~s_R -> ~g      s)
#
#         PDG            Width
DECAY   1000011     1.25627293E+03   # selectron_L decays
#          BR         NDA      ID1       ID2
     9.65893523E-02    2     1000022        11   # BR(~e_L -> ~chi_10 e-)
     3.01155493E-01    2     1000023        11   # BR(~e_L -> ~chi_20 e-)
     1.28563116E-24    2     1000025        11   # BR(~e_L -> ~chi_30 e-)
     6.02255154E-01    2    -1000024        12   # BR(~e_L -> ~chi_1- nu_e)
#
#         PDG            Width
DECAY   2000011     4.85509683E+02   # selectron_R decays
#          BR         NDA      ID1       ID2
     9.99999993E-01    2     1000022        11   # BR(~e_R -> ~chi_10 e-)
     6.66266827E-09    2     1000023        11   # BR(~e_R -> ~chi_20 e-)
     3.00350675E-24    2     1000025        11   # BR(~e_R -> ~chi_30 e-)
#
#         PDG            Width
DECAY   1000013     1.25627293E+03   # smuon_L decays
#          BR         NDA      ID1       ID2
     9.65893523E-02    2     1000022        13   # BR(~mu_L -> ~chi_10 mu-)
     3.01155493E-01    2     1000023        13   # BR(~mu_L -> ~chi_20 mu-)
     1.28563116E-24    2     1000025        13   # BR(~mu_L -> ~chi_30 mu-)
     6.02255154E-01    2    -1000024        14   # BR(~mu_L -> ~chi_1- nu_mu)
#
#         PDG            Width
DECAY   2000013     4.85509683E+02   # smuon_R decays
#          BR         NDA      ID1       ID2
     9.99999993E-01    2     1000022        13   # BR(~mu_R -> ~chi_10 mu-)
     6.66266827E-09    2     1000023        13   # BR(~mu_R -> ~chi_20 mu-)
     3.00350675E-24    2     1000025        13   # BR(~mu_R -> ~chi_30 mu-)
#
#         PDG            Width
DECAY   1000015     1.33136835E+03   # stau_1 decays
#          BR         NDA      ID1       ID2
     2.27916400E-01    2     1000022        15   # BR(~tau_1 -> ~chi_10  tau-)
     1.42078253E-01    2     1000023        15   # BR(~tau_1 -> ~chi_20  tau-)
     2.84130166E-01    2    -1000024        16   # BR(~tau_1 -> ~chi_1-  nu_tau)
     3.45875180E-01    2     1000039        15   # BR(~tau_1 -> ~G       tau-)
#
#         PDG            Width
DECAY   2000015     8.70901530E+02   # stau_2 decays
#          BR         NDA      ID1       ID2
     3.48387936E-01    2     1000022        15   # BR(~tau_2 -> ~chi_10  tau-)
     2.17217447E-01    2     1000023        15   # BR(~tau_2 -> ~chi_20  tau-)
     4.34394616E-01    2    -1000024        16   # BR(~tau_2 -> ~chi_1-  nu_tau)
     2.47374533E-13    2    -1000037        16   # BR(~tau_2 -> ~chi_2-  nu_tau)
#
#         PDG            Width
DECAY   1000012     1.25627284E+03   # snu_eL decays
#          BR         NDA      ID1       ID2
     9.66448039E-02    2     1000022        12   # BR(~nu_eL -> ~chi_10 nu_e)
     3.01099786E-01    2     1000023        12   # BR(~nu_eL -> ~chi_20 nu_e)
     6.02255410E-01    2     1000024        11   # BR(~nu_eL -> ~chi_1+ e-)
#
#         PDG            Width
DECAY   1000014     1.25627284E+03   # snu_muL decays
#          BR         NDA      ID1       ID2
     9.66448039E-02    2     1000022        14   # BR(~nu_muL -> ~chi_10 nu_mu)
     3.01099786E-01    2     1000023        14   # BR(~nu_muL -> ~chi_20 nu_mu)
     6.02255410E-01    2     1000024        13   # BR(~nu_muL -> ~chi_1+ mu-)
#
#         PDG            Width
DECAY   1000016     1.25627284E+03   # snu_tauL decays
#          BR         NDA      ID1       ID2
     9.66448039E-02    2     1000022        16   # BR(~nu_tauL -> ~chi_10 nu_tau)
     3.01099786E-01    2     1000023        16   # BR(~nu_tauL -> ~chi_20 nu_tau)
     6.02255410E-01    2     1000024        15   # BR(~nu_tauL -> ~chi_1+ tau-)
#
#         PDG            Width
DECAY   1000024     2.04122875E-06   # chargino1+ decays
#          BR         NDA      ID1       ID2
     9.65633455E-01    2     1000022        24   # BR(~chi_1+ -> ~chi_10  W+)
     3.43665452E-02    2     1000039        24   # BR(~chi_1+ -> ~G       W+)
#
#         PDG            Width
DECAY   1000037     1.23933791E+03   # chargino2+ decays
#          BR         NDA      ID1       ID2
     2.31141728E-14    2     1000002        -1   # BR(~chi_2+ -> ~u_L     db)
     4.17385952E-14    2    -1000001         2   # BR(~chi_2+ -> ~d_L*    u )
     2.31141728E-14    2     1000004        -3   # BR(~chi_2+ -> ~c_L     sb)
     4.17385952E-14    2    -1000003         4   # BR(~chi_2+ -> ~s_L*    c )
     8.28771981E-07    2     1000006        -5   # BR(~chi_2+ -> ~t_1     bb)
     1.70285480E-19    2     1000012       -11   # BR(~chi_2+ -> ~nu_eL   e+  )
     1.70285480E-19    2     1000014       -13   # BR(~chi_2+ -> ~nu_muL  mu+ )
     2.59798765E-19    2    -1000011        12   # BR(~chi_2+ -> ~e_L+    nu_e)
     2.59798765E-19    2    -1000013        14   # BR(~chi_2+ -> ~mu_L+   nu_mu)
     6.63191236E-14    2    -1000015        16   # BR(~chi_2+ -> ~tau_1+  nu_tau)
     1.11330519E-01    2     1000024        23   # BR(~chi_2+ -> ~chi_1+  Z )
     3.43336366E-02    2     1000022        24   # BR(~chi_2+ -> ~chi_10  W+)
     1.07844664E-01    2     1000023        24   # BR(~chi_2+ -> ~chi_20  W+)
     1.13642550E-01    2     1000024        25   # BR(~chi_2+ -> ~chi_1+  h )
     1.08918846E-01    2     1000024        35   # BR(~chi_2+ -> ~chi_1+  H )
     1.08976634E-01    2     1000024        36   # BR(~chi_2+ -> ~chi_1+  A )
     3.52129578E-02    2     1000022        37   # BR(~chi_2+ -> ~chi_10  H+)
     1.08984886E-01    2     1000023        37   # BR(~chi_2+ -> ~chi_20  H+)
     1.35488061E-01    2     1000039        24   # BR(~chi_2+ -> ~G       W+)
     1.35266416E-01    2     1000039        37   # BR(~chi_2+ -> ~G       H+)
#
#         PDG            Width
DECAY   1000022     1.E-08   # neutralino1 decays (OJ Mods)
#          BR         NDA      ID1       ID2
     7.69414486E-01    2     1000039        22   # BR(~chi_10 -> ~G        gam)
     2.30585514E-01    2     1000039        23   # BR(~chi_10 -> ~G        Z)
     8.30132921E-11    2     1000039        25   # BR(~chi_10 -> ~G        h)
#
#         PDG            Width
DECAY   1000023     1.E-08   # neutralino2 decays (OJ Mods)
#          BR         NDA      ID1       ID2
     7.14834848E-07    2     1000022        23   # BR(~chi_20 -> ~chi_10   Z )
     9.68165072E-01    2     1000022        25   # BR(~chi_20 -> ~chi_10   h )
     7.89696531E-03    2     1000039        22   # BR(~chi_20 -> ~G        gam)
     2.39372479E-02    2     1000039        23   # BR(~chi_20 -> ~G        Z)
     8.13508802E-12    2     1000039        25   # BR(~chi_20 -> ~G        h)
#
#         PDG            Width
DECAY   1000025     1.23163686E+03   # neutralino3 decays
#          BR         NDA      ID1       ID2
     3.42943868E-02    2     1000022        23   # BR(~chi_30 -> ~chi_10   Z )
     1.07703469E-01    2     1000023        23   # BR(~chi_30 -> ~chi_20   Z )
     1.08324792E-01    2     1000024       -24   # BR(~chi_30 -> ~chi_1+   W-)
     1.08324792E-01    2    -1000024        24   # BR(~chi_30 -> ~chi_1-   W+)
     9.46237311E-04    2     1000022        25   # BR(~chi_30 -> ~chi_10   h )
     3.44097498E-02    2     1000022        35   # BR(~chi_30 -> ~chi_10   H )
     1.39844877E-03    2     1000022        36   # BR(~chi_30 -> ~chi_10   A )
     2.92454093E-03    2     1000023        25   # BR(~chi_30 -> ~chi_20   h )
     1.06350044E-01    2     1000023        35   # BR(~chi_30 -> ~chi_20   H )
     4.39191689E-03    2     1000023        36   # BR(~chi_30 -> ~chi_20   A )
     1.09470018E-01    2     1000024       -37   # BR(~chi_30 -> ~chi_1+   H-)
     1.09470018E-01    2    -1000024        37   # BR(~chi_30 -> ~chi_1-   H+)
     1.34992685E-16    2     1000002        -2   # BR(~chi_30 -> ~u_L      ub)
     1.34992685E-16    2    -1000002         2   # BR(~chi_30 -> ~u_L*     u )
     2.07034784E-17    2     2000002        -2   # BR(~chi_30 -> ~u_R      ub)
     2.07034784E-17    2    -2000002         2   # BR(~chi_30 -> ~u_R*     u )
     1.88213138E-18    2     2000001        -1   # BR(~chi_30 -> ~d_R      db)
     1.88213138E-18    2    -2000001         1   # BR(~chi_30 -> ~d_R*     d )
     1.34992685E-16    2     1000004        -4   # BR(~chi_30 -> ~c_L      cb)
     1.34992685E-16    2    -1000004         4   # BR(~chi_30 -> ~c_L*     c )
     2.07034784E-17    2     2000004        -4   # BR(~chi_30 -> ~c_R      cb)
     2.07034784E-17    2    -2000004         4   # BR(~chi_30 -> ~c_R*     c )
     1.88213138E-18    2     2000003        -3   # BR(~chi_30 -> ~s_R      sb)
     1.88213138E-18    2    -2000003         3   # BR(~chi_30 -> ~s_R*     s )
     2.11752221E-22    2     1000012       -12   # BR(~chi_30 -> ~nu_eL    nu_eb)
     2.11752221E-22    2    -1000012        12   # BR(~chi_30 -> ~nu_eL*   nu_e )
     2.11752221E-22    2     1000014       -14   # BR(~chi_30 -> ~nu_muL   nu_mub)
     2.11752221E-22    2    -1000014        14   # BR(~chi_30 -> ~nu_muL*  nu_mu )
     2.11752221E-22    2     1000016       -16   # BR(~chi_30 -> ~nu_tau1  nu_taub)
     2.11752221E-22    2    -1000016        16   # BR(~chi_30 -> ~nu_tau1* nu_tau )
     2.42217122E-14    2     1000039        22   # BR(~chi_30 -> ~G        gam)
     5.23475291E-03    2     1000039        23   # BR(~chi_30 -> ~G        Z)
     1.32463263E-01    2     1000039        25   # BR(~chi_30 -> ~G        h)
     3.63382217E-03    2     1000039        35   # BR(~chi_30 -> ~G        H)
     1.30659749E-01    2     1000039        36   # BR(~chi_30 -> ~G        A)
#
#         PDG            Width
DECAY   1000035     1.23632136E+03   # neutralino4 decays
#          BR         NDA      ID1       ID2
     1.33021892E-03    2     1000022        23   # BR(~chi_40 -> ~chi_10   Z )
     4.11133497E-03    2     1000023        23   # BR(~chi_40 -> ~chi_20   Z )
     1.08026316E-01    2     1000024       -24   # BR(~chi_40 -> ~chi_1+   W-)
     1.08026316E-01    2    -1000024        24   # BR(~chi_40 -> ~chi_1-   W+)
     3.53177993E-02    2     1000022        25   # BR(~chi_40 -> ~chi_10   h )
     9.69643557E-04    2     1000022        35   # BR(~chi_40 -> ~chi_10   H )
     3.39018576E-02    2     1000022        36   # BR(~chi_40 -> ~chi_10   A )
     1.10917449E-01    2     1000023        25   # BR(~chi_40 -> ~chi_20   h )
     3.04522705E-03    2     1000023        35   # BR(~chi_40 -> ~chi_20   H )
     1.04780307E-01    2     1000023        36   # BR(~chi_40 -> ~chi_20   A )
     1.09168390E-01    2     1000024       -37   # BR(~chi_40 -> ~chi_1+   H-)
     1.09168390E-01    2    -1000024        37   # BR(~chi_40 -> ~chi_1-   H+)
     3.57892164E-14    2     1000002        -2   # BR(~chi_40 -> ~u_L      ub)
     3.57892164E-14    2    -1000002         2   # BR(~chi_40 -> ~u_L*     u )
     7.86591775E-15    2     2000002        -2   # BR(~chi_40 -> ~u_R      ub)
     7.86591775E-15    2    -2000002         2   # BR(~chi_40 -> ~u_R*     u )
     4.68787967E-14    2     1000001        -1   # BR(~chi_40 -> ~d_L      db)
     4.68787967E-14    2    -1000001         1   # BR(~chi_40 -> ~d_L*     d )
     1.88202744E-15    2     2000001        -1   # BR(~chi_40 -> ~d_R      db)
     1.88202744E-15    2    -2000001         1   # BR(~chi_40 -> ~d_R*     d )
     3.57892164E-14    2     1000004        -4   # BR(~chi_40 -> ~c_L      cb)
     3.57892164E-14    2    -1000004         4   # BR(~chi_40 -> ~c_L*     c )
     7.86591775E-15    2     2000004        -4   # BR(~chi_40 -> ~c_R      cb)
     7.86591775E-15    2    -2000004         4   # BR(~chi_40 -> ~c_R*     c )
     4.68787967E-14    2     1000003        -3   # BR(~chi_40 -> ~s_L      sb)
     4.68787967E-14    2    -1000003         3   # BR(~chi_40 -> ~s_L*     s )
     1.88202744E-15    2     2000003        -3   # BR(~chi_40 -> ~s_R      sb)
     1.88202744E-15    2    -2000003         3   # BR(~chi_40 -> ~s_R*     s )
     7.04819994E-20    2     1000011       -11   # BR(~chi_40 -> ~e_L-     e+)
     7.04819994E-20    2    -1000011        11   # BR(~chi_40 -> ~e_L+     e-)
     6.21545390E-20    2     2000011       -11   # BR(~chi_40 -> ~e_R-     e+)
     6.21545390E-20    2    -2000011        11   # BR(~chi_40 -> ~e_R+     e-)
     7.04819994E-20    2     1000013       -13   # BR(~chi_40 -> ~mu_L-    mu+)
     7.04819994E-20    2    -1000013        13   # BR(~chi_40 -> ~mu_L+    mu-)
     6.21545390E-20    2     2000013       -13   # BR(~chi_40 -> ~mu_R-    mu+)
     6.21545390E-20    2    -2000013        13   # BR(~chi_40 -> ~mu_R+    mu-)
     3.54961649E-19    2     1000012       -12   # BR(~chi_40 -> ~nu_eL    nu_eb)
     3.54961649E-19    2    -1000012        12   # BR(~chi_40 -> ~nu_eL*   nu_e )
     3.54961649E-19    2     1000014       -14   # BR(~chi_40 -> ~nu_muL   nu_mub)
     3.54961649E-19    2    -1000014        14   # BR(~chi_40 -> ~nu_muL*  nu_mu )
     3.54961649E-19    2     1000016       -16   # BR(~chi_40 -> ~nu_tau1  nu_taub)
     3.54961649E-19    2    -1000016        16   # BR(~chi_40 -> ~nu_tau1* nu_tau )
     6.48958305E-13    2     1000039        22   # BR(~chi_40 -> ~G        gam)
     1.30508507E-01    2     1000039        23   # BR(~chi_40 -> ~G        Z)
     3.62964889E-03    2     1000039        25   # BR(~chi_40 -> ~G        h)
     1.31886600E-01    2     1000039        35   # BR(~chi_40 -> ~G        H)
     5.21199434E-03    2     1000039        36   # BR(~chi_40 -> ~G        A)
#
#
#
#
