# SUSY Les Houches Accord 2 - MSSM spectrum + Decays
# SPheno v3.1.12 
# W. Porod, Comput. Phys. Commun. 153 (2003) 275-315, hep-ph/0301101
# in case of problems send email to porod@physik.uni-wuerzburg.de
# Created: 12.11.2012,  11:43
Block SPINFO         # Program information
     1   SPheno      # spectrum calculator
     2   v3.1.12     # version number
#
Block SPhenoINFO     # SPheno specific information
    1      2         # using 2-loop RGEs
    2      2         # using pole masses for boundary conditions at mZ
Block MODSEL  # Model selection
    1    2    # mGMSB model
Block MINPAR  # Input parameters
    1    9.00000000E+04  # Lambda, scale of SUSY breaking
    2    2.50000000E+05  # M_M, messenger mass scale
    3    2.00000000E+00  # tanb at m_Z   
    4    1.00000000E+00  # Sign(mu)
    5    3.00000000E+00  # N_5 number of effective five-plets
    6    1.00000000E+00  # c_grav, Gravitino mass factor
Block gauge Q=  2.50000000E+05  # (GMSB scale)
   1    4.93889488E-01  # g'(Q)^DRbar
   2    6.49904857E-01  # g(Q)^DRbar
   3    9.44094919E-01  # g3(Q)^DRbar
Block SMINPUTS  # SM parameters
         1     1.27932630E+02  # alpha_em^-1(MZ)^MSbar
         2     1.16639000E-05  # G_mu [GeV^-2]
         3     1.17200000E-01  # alpha_s(MZ)^MSbar
         4     9.11876000E+01  # m_Z(pole)
         5     4.20000000E+00  # m_b(m_b), MSbar
         6     1.72500000E+02  # m_t(pole)
         7     1.77700000E+00  # m_tau(pole)
         8     0.00000000E+00  # m_nu_3
        11     5.10998910E-04  # m_e(pole)
        12     0.00000000E+00  # m_nu_1
        13     1.05658000E-01  # m_muon(pole)
        14     0.00000000E+00  # m_nu_2
        21     5.00000000E-03  # m_d(2 GeV), MSbar
        22     3.00000000E-03  # m_u(2 GeV), MSbar
        23     1.05000000E-01  # m_s(2 GeV), MSbar
        24     1.27000000E+00  # m_c(m_c), MSbar
Block gauge Q=  1.72210046E+03  # (SUSY scale)
   1    3.64244743E-01  # g'(Q)^DRbar
   2    6.39901855E-01  # g(Q)^DRbar
   3    1.03222114E+00  # g3(Q)^DRbar
Block Yu Q=  1.72210046E+03  # (SUSY scale)
  1  1     9.52049097E-06   # Y_u(Q)^DRbar
  2  2     4.03034144E-03   # Y_c(Q)^DRbar
  3  3     9.55386530E-01   # Y_t(Q)^DRbar
Block Yd Q=  1.72210046E+03  # (SUSY scale)
  1  1     3.01374582E-05   # Y_d(Q)^DRbar
  2  2     6.32886397E-04   # Y_s(Q)^DRbar
  3  3     2.96568545E-02   # Y_b(Q)^DRbar
Block Ye Q=  1.72210046E+03  # (SUSY scale)
  1  1     6.27974574E-06   # Y_e(Q)^DRbar
  2  2     1.29844775E-03   # Y_mu(Q)^DRbar
  3  3     2.18379756E-02   # Y_tau(Q)^DRbar
Block Au Q=  1.72210046E+03  # (SUSY scale)
  1  1    -5.63827897E+02   # A_u(Q)^DRbar
  2  2    -5.63827127E+02   # A_c(Q)^DRbar
  3  3    -5.21557970E+02   # A_t(Q)^DRbar
Block Ad Q=  1.72210046E+03  # (SUSY scale)
  1  1    -6.14655172E+02   # A_d(Q)^DRbar
  2  2    -6.14654902E+02   # A_s(Q)^DRbar
  3  3    -6.00884930E+02   # A_b(Q)^DRbar
Block Ae Q=  1.72210046E+03  # (SUSY scale)
  1  1    -6.64794674E+01   # A_e(Q)^DRbar
  2  2    -6.64794557E+01   # A_mu(Q)^DRbar
  3  3    -6.64761832E+01   # A_tau(Q)^DRbar
Block MSOFT Q=  1.72210046E+03  # soft SUSY breaking masses at Q
   1    3.84020845E+02  # M_1
   2    7.08553160E+02  # M_2
   3    1.85258557E+03  # M_3
  21    3.17787426E+05  # M^2_(H,d)
  22   -5.30341131E+05  # M^2_(H,u)
  31    5.64483366E+02  # M_(L,11)
  32    5.64483306E+02  # M_(L,22)
  33    5.64466304E+02  # M_(L,33)
  34    2.72080819E+02  # M_(E,11)
  35    2.72080565E+02  # M_(E,22)
  36    2.72008831E+02  # M_(E,33)
  41    1.81706808E+03  # M_(Q,11)
  42    1.81706676E+03  # M_(Q,22)
  43    1.74522759E+03  # M_(Q,33)
  44    1.74482200E+03  # M_(U,11)
  45    1.74481931E+03  # M_(U,22)
  46    1.58819668E+03  # M_(U,33)
  47    1.73780780E+03  # M_(D,11)
  48    1.73780773E+03  # M_(D,22)
  49    1.73765733E+03  # M_(D,33)
Block MASS  # Mass spectrum
#   PDG code      mass          particle
         6     1.72500000E+02  # m_t(pole)
        23     9.11876000E+01  # m_Z(pole)
        24     8.03027144E+01  # W+
        15     1.77700000E+00  # m_tau(pole)
        25     9.43629960E+01  # h0
        35     1.29474173E+03  # H0
        36     1.29180195E+03  # A0
        37     1.29479088E+03  # H+
   1000001     1.89185008E+03  # ~d_L
   2000001     1.80899829E+03  # ~d_R
   1000002     1.89091003E+03  # ~u_L
   2000002     1.81541414E+03  # ~u_R
   1000003     1.89184848E+03  # ~s_L
   2000003     1.80899819E+03  # ~s_R
   1000004     1.89090916E+03  # ~c_L
   2000004     1.81541050E+03  # ~c_R
   1000005     1.80426965E+03  # ~b_1
   2000005     1.80948669E+03  # ~b_2
   1000006     1.62620656E+03  # ~t_1
   2000006     1.82364545E+03  # ~t_2
   1000011     5.76612503E+02  # ~e_L-
   2000011     2.83407497E+02  # ~e_R-
   1000012     5.73084797E+02  # ~nu_eL
   1000013     5.76612575E+02  # ~mu_L-
   2000013     2.83406901E+02  # ~mu_R-
   1000014     5.73084710E+02  # ~nu_muL
   1000015     2.83238967E+02  # ~tau_1-
   2000015     5.76632873E+02  # ~tau_2-
   1000016     5.73060131E+02  # ~nu_tauL
   1000021     1.95429761E+03  # ~g
   1000022     3.72385386E+02  # ~chi_10
   1000023     7.04760158E+02  # ~chi_20
   1000025    -9.89429942E+02  # ~chi_30
   1000035     1.01191359E+03  # ~chi_40
   1000024     7.04652718E+02  # ~chi_1+
   1000037     1.00972792E+03  # ~chi_2+
   1000039     5.40000000E-09  # ~G
# Higgs mixing
Block alpha # Effective Higgs mixing angle
          -4.90294667E-01   # alpha
Block Hmix Q=  1.72210046E+03  # Higgs mixing parameters
   1    9.86697959E+02  # mu
   2    1.89284312E+00  # tan[beta](Q)
   3    2.44126682E+02  # v(Q)
   4    1.49678808E+06  # m^2_A(Q)
Block stopmix # stop mixing matrix
   1  1     2.57504261E-01   # Re[R_st(1,1)]
   1  2     9.66277163E-01   # Re[R_st(1,2)]
   2  1    -9.66277163E-01   # Re[R_st(2,1)]
   2  2     2.57504261E-01   # Re[R_st(2,2)]
Block sbotmix # sbottom mixing matrix
   1  1     9.35231256E-01   # Re[R_sb(1,1)]
   1  2     3.54037425E-01   # Re[R_sb(1,2)]
   2  1    -3.54037425E-01   # Re[R_sb(2,1)]
   2  2     9.35231256E-01   # Re[R_sb(2,2)]
Block staumix # stau mixing matrix
   1  1     1.38410533E-02   # Re[R_sta(1,1)]
   1  2     9.99904208E-01   # Re[R_sta(1,2)]
   2  1    -9.99904208E-01   # Re[R_sta(2,1)]
   2  2     1.38410533E-02   # Re[R_sta(2,2)]
Block Nmix # neutralino mixing matrix
   1  1    -9.97354226E-01   # Re[N(1,1)]
   1  2     1.43954984E-02   # Re[N(1,2)]
   1  3    -5.69682979E-02   # Re[N(1,3)]
   1  4     4.28010636E-02   # Re[N(1,4)]
   2  1    -3.16074080E-02   # Re[N(2,1)]
   2  2    -9.68314029E-01   # Re[N(2,2)]
   2  3     1.84301239E-01   # Re[N(2,3)]
   2  4    -1.65535395E-01   # Re[N(2,4)]
   3  1    -9.78761983E-03   # Re[N(3,1)]
   3  2     1.38196923E-02   # Re[N(3,2)]
   3  3     7.06447451E-01   # Re[N(3,3)]
   3  4     7.07562872E-01   # Re[N(3,4)]
   4  1    -6.47280669E-02   # Re[N(4,1)]
   4  2     2.48937197E-01   # Re[N(4,2)]
   4  3     6.80969651E-01   # Re[N(4,3)]
   4  4    -6.85653618E-01   # Re[N(4,4)]
Block Umix # chargino mixing matrix
   1  1    -9.64231516E-01   # Re[U(1,1)]
   1  2     2.65061470E-01   # Re[U(1,2)]
   2  1     2.65061470E-01   # Re[U(2,1)]
   2  2     9.64231516E-01   # Re[U(2,2)]
Block Vmix # chargino mixing matrix
   1  1    -9.71168890E-01   # Re[V(1,1)]
   1  2     2.38392506E-01   # Re[V(1,2)]
   2  1     2.38392506E-01   # Re[V(2,1)]
   2  2     9.71168890E-01   # Re[V(2,2)]
DECAY   2000011     7.18491737E-11   # ~e^-_R
#    BR                NDA      ID1      ID2
     1.00000000E+00    2     1000039        11   # BR(~e^-_R -> ~G e^-)
DECAY   1000011     2.44332876E-01   # ~e^-_L
#    BR                NDA      ID1      ID2
     9.99999987E-01    2     1000022        11   # BR(~e^-_L -> chi^0_1 e^-)
     1.48532943E-09    2     2000011        23   # BR(~e^-_L -> ~e^-_R Z)
     1.61465432E-09    2     2000011        25   # BR(~e^-_L -> ~e^-_R h^0)
     1.02518792E-08    2     1000039        11   # BR(~e^-_L -> ~G e^-)
DECAY   2000013     7.18483787E-11   # ~mu^-_R
#    BR                NDA      ID1      ID2
     1.00000000E+00    2     1000039        13   # BR(~mu^-_R -> ~G mu^-)
DECAY   1000013     2.44365479E-01   # ~mu^-_L
#    BR                NDA      ID1      ID2
     9.99867474E-01    2     1000022        13   # BR(~mu^-_L -> chi^0_1 mu^-)
     6.34936825E-05    2     2000013        23   # BR(~mu^-_L -> ~mu^-_R Z)
     6.90217459E-05    2     2000013        25   # BR(~mu^-_L -> ~mu^-_R h^0)
     1.02505164E-08    2     1000039        13   # BR(~mu^-_L -> ~G mu^-)
DECAY   1000015     7.16245218E-11   # ~tau^-_1
#    BR                NDA      ID1      ID2
     1.00000000E+00    2     1000039        15   # BR(~tau^-_1 -> ~G tau^-)
DECAY   2000015     2.53555865E-01   # ~tau^-_2
#    BR                NDA      ID1      ID2
     9.63871763E-01    2     1000022        15   # BR(~tau^-_2 -> chi^0_1 tau^-)
     1.73184194E-02    2     1000015        23   # BR(~tau^-_2 -> ~tau^-_1 Z)
     1.88098079E-02    2     1000015        25   # BR(~tau^-_2 -> ~tau^-_1 h^0)
     9.88034104E-09    2     1000039        15   # BR(~tau^-_2 -> ~G tau^-)
DECAY   1000012     2.64038336E-01   # ~nu_e
#    BR                NDA      ID1      ID2
     9.99999988E-01    2     1000022        12   # BR(~nu_e -> chi^0_1 nu_e)
     2.69369496E-09    2     2000011        24   # BR(~nu_e -> ~e^-_R W^+)
     9.20010027E-09    2     1000039        12   # BR(~nu_e -> ~G nu_e)
DECAY   1000014     2.64068585E-01   # ~nu_mu
#    BR                NDA      ID1      ID2
     9.99884841E-01    2     1000022        14   # BR(~nu_mu -> chi^0_1 nu_mu)
     1.15149999E-04    2     2000013        24   # BR(~nu_mu -> ~mu^-_R W^+)
     9.19903940E-09    2     1000039        14   # BR(~nu_mu -> ~G nu_mu)
DECAY   1000016     2.72597351E-01   # ~nu_tau
#    BR                NDA      ID1      ID2
     9.68438420E-01    2     1000022        16   # BR(~nu_tau -> chi^0_1 nu_tau)
     3.15615706E-02    2     1000015        24   # BR(~nu_tau -> ~tau^-_1 W^+)
     8.90931781E-09    2     1000039        16   # BR(~nu_tau -> ~G nu_tau)
DECAY   2000001     9.70816101E-01   # ~d_R
#    BR                NDA      ID1      ID2
     9.97000289E-01    2     1000022         1   # BR(~d_R -> chi^0_1 d)
     7.85608924E-04    2     1000023         1   # BR(~d_R -> chi^0_2 d)
     5.14368149E-05    2     1000025         1   # BR(~d_R -> chi^0_3 d)
     2.16185790E-03    2     1000035         1   # BR(~d_R -> chi^0_4 d)
     1.21698461E-08    2    -1000024         2   # BR(~d_R -> chi^-_1 u)
     1.13210011E-08    2    -1000037         2   # BR(~d_R -> chi^-_2 u)
     7.84185702E-07    2     1000039         1   # BR(~d_R -> ~G d)
DECAY   1000001     1.70395246E+01   # ~d_L
#    BR                NDA      ID1      ID2
     1.73273300E-02    2     1000022         1   # BR(~d_L -> chi^0_1 d)
     3.10617701E-01    2     1000023         1   # BR(~d_L -> chi^0_2 d)
     5.86565138E-05    2     1000025         1   # BR(~d_L -> chi^0_3 d)
     1.57268947E-02    2     1000035         1   # BR(~d_L -> chi^0_4 d)
     6.23771227E-01    2    -1000024         2   # BR(~d_L -> chi^-_1 u)
     3.24981342E-02    2    -1000037         2   # BR(~d_L -> chi^-_2 u)
     5.58909158E-08    2     1000039         1   # BR(~d_L -> ~G d)
DECAY   2000003     9.70834590E-01   # ~s_R
#    BR                NDA      ID1      ID2
     9.96981398E-01    2     1000022         3   # BR(~s_R -> chi^0_1 s)
     7.88220417E-04    2     1000023         3   # BR(~s_R -> chi^0_2 s)
     5.50002532E-05    2     1000025         3   # BR(~s_R -> chi^0_3 s)
     2.16423780E-03    2     1000035         3   # BR(~s_R -> chi^0_4 s)
     5.36690619E-06    2    -1000024         4   # BR(~s_R -> chi^-_1 c)
     4.99244248E-06    2    -1000037         4   # BR(~s_R -> chi^-_2 c)
     7.84170541E-07    2     1000039         3   # BR(~s_R -> ~G s)
DECAY   1000003     1.70398167E+01   # ~s_L
#    BR                NDA      ID1      ID2
     1.73270100E-02    2     1000022         3   # BR(~s_L -> chi^0_1 s)
     3.10611816E-01    2     1000023         3   # BR(~s_L -> chi^0_2 s)
     5.88914311E-05    2     1000025         3   # BR(~s_L -> chi^0_3 s)
     1.57268621E-02    2     1000035         3   # BR(~s_L -> chi^0_4 s)
     6.23759008E-01    2    -1000024         4   # BR(~s_L -> chi^-_1 c)
     3.25163568E-02    2    -1000037         4   # BR(~s_L -> chi^-_2 c)
     5.58897198E-08    2     1000039         3   # BR(~s_L -> ~G s)
DECAY   1000005     2.82036006E+01   # ~b_1
#    BR                NDA      ID1      ID2
     1.32852484E-02    2     1000022         5   # BR(~b_1 -> chi^0_1 b)
     1.53011754E-01    2     1000023         5   # BR(~b_1 -> chi^0_2 b)
     2.25085382E-04    2     1000025         5   # BR(~b_1 -> chi^0_3 b)
     6.53272444E-03    2     1000035         5   # BR(~b_1 -> chi^0_4 b)
     3.20344945E-01    2    -1000024         6   # BR(~b_1 -> chi^-_1 t)
     4.70793258E-01    2    -1000037         6   # BR(~b_1 -> chi^-_2 t)
     3.58069590E-02    2     1000006       -24   # BR(~b_1 -> ~t_1 W^-)
     2.66414805E-08    2     1000039         5   # BR(~b_1 -> ~G b)
DECAY   2000005     4.94340480E+00   # ~b_2
#    BR                NDA      ID1      ID2
     1.76531352E-01    2     1000022         5   # BR(~b_2 -> chi^0_1 b)
     1.16646213E-01    2     1000023         5   # BR(~b_2 -> chi^0_2 b)
     2.03261484E-03    2     1000025         5   # BR(~b_2 -> chi^0_3 b)
     1.37731312E-02    2     1000035         5   # BR(~b_2 -> chi^0_4 b)
     2.45499918E-01    2    -1000024         6   # BR(~b_2 -> chi^-_1 t)
     4.13036530E-01    2    -1000037         6   # BR(~b_2 -> chi^-_2 t)
     3.24800876E-02    2     1000006       -24   # BR(~b_2 -> ~t_1 W^-)
     1.54207872E-07    2     1000039         5   # BR(~b_2 -> ~G b)
DECAY   2000002     3.89952415E+00   # ~u_R
#    BR                NDA      ID1      ID2
     9.96986629E-01    2     1000022         2   # BR(~u_R -> chi^0_1 u)
     7.87085666E-04    2     1000023         2   # BR(~u_R -> chi^0_2 u)
     5.17061667E-05    2     1000025         2   # BR(~u_R -> chi^0_3 u)
     2.17437987E-03    2     1000035         2   # BR(~u_R -> chi^0_4 u)
     2.70766618E-10    2     1000024         1   # BR(~u_R -> chi^+_1 d)
     2.99989799E-10    2     1000037         1   # BR(~u_R -> chi^+_2 d)
     1.98715647E-07    2     1000039         2   # BR(~u_R -> ~G u)
DECAY   1000002     1.70796890E+01   # ~u_L
#    BR                NDA      ID1      ID2
     1.27366142E-02    2     1000022         2   # BR(~u_L -> chi^0_1 u)
     3.17400707E-01    2     1000023         2   # BR(~u_L -> chi^0_2 u)
     3.40318248E-05    2     1000025         2   # BR(~u_L -> chi^0_3 u)
     1.28612685E-02    2     1000035         2   # BR(~u_L -> chi^0_4 u)
     6.30775367E-01    2     1000024         1   # BR(~u_L -> chi^+_1 d)
     2.61919561E-02    2     1000037         1   # BR(~u_L -> chi^+_2 d)
     5.48251772E-13    2     2000001        24   # BR(~u_L -> ~d_R W^+)
     5.56210885E-08    2     1000039         2   # BR(~u_L -> ~G u)
DECAY   2000004     3.90023248E+00   # ~c_R
#    BR                NDA      ID1      ID2
     9.96797296E-01    2     1000022         4   # BR(~c_R -> chi^0_1 c)
     8.10882823E-04    2     1000023         4   # BR(~c_R -> chi^0_2 c)
     8.96437468E-05    2     1000025         4   # BR(~c_R -> chi^0_3 c)
     2.19971417E-03    2     1000035         4   # BR(~c_R -> chi^0_4 c)
     4.85131243E-05    2     1000024         3   # BR(~c_R -> chi^+_1 s)
     5.37514381E-05    2     1000037         3   # BR(~c_R -> chi^+_2 s)
     1.98677178E-07    2     1000039         4   # BR(~c_R -> ~G c)
DECAY   1000004     1.70798505E+01   # ~c_L
#    BR                NDA      ID1      ID2
     1.27377092E-02    2     1000022         4   # BR(~c_L -> chi^0_1 c)
     3.17392136E-01    2     1000023         4   # BR(~c_L -> chi^0_2 c)
     4.33494925E-05    2     1000025         4   # BR(~c_L -> chi^0_3 c)
     1.28724985E-02    2     1000035         4   # BR(~c_L -> chi^0_4 c)
     6.30758592E-01    2     1000024         3   # BR(~c_L -> chi^+_1 s)
     2.61956588E-02    2     1000037         3   # BR(~c_L -> chi^+_2 s)
     2.41606815E-10    2     2000003        24   # BR(~c_L -> ~s_R W^+)
     5.56203333E-08    2     1000039         4   # BR(~c_L -> ~G c)
DECAY   1000006     2.69396433E+01   # ~t_1
#    BR                NDA      ID1      ID2
     3.07633695E-12    2     1000022         4   # BR(~t_1 -> chi^0_1 c)
     1.22277744E-01    2     1000022         6   # BR(~t_1 -> chi^0_1 t)
     7.01809903E-11    2     1000023         4   # BR(~t_1 -> chi^0_2 c)
     5.35716926E-02    2     1000023         6   # BR(~t_1 -> chi^0_2 t)
     2.28454974E-01    2     1000025         6   # BR(~t_1 -> chi^0_3 t)
     1.47993041E-01    2     1000035         6   # BR(~t_1 -> chi^0_4 t)
     1.14466487E-01    2     1000024         5   # BR(~t_1 -> chi^+_1 b)
     3.33219175E-01    2     1000037         5   # BR(~t_1 -> chi^+_2 b)
     1.58560283E-08    2     1000039         6   # BR(~t_1 -> ~G t)
#    BR                NDA      ID1      ID2       ID3
     1.68706909E-05    3     1000022        24         5   # BR(~t_1 -> chi^0_1 W^+ b)
DECAY   2000006     3.24051416E+01   # ~t_2
#    BR                NDA      ID1      ID2
     9.66887423E-03    2     1000022         6   # BR(~t_2 -> chi^0_1 t)
     1.28191207E-01    2     1000023         6   # BR(~t_2 -> chi^0_2 t)
     2.26599333E-01    2     1000025         6   # BR(~t_2 -> chi^0_3 t)
     2.76440756E-01    2     1000035         6   # BR(~t_2 -> chi^0_4 t)
     2.37910344E-01    2     1000024         5   # BR(~t_2 -> chi^+_1 b)
     8.07990960E-02    2     1000037         5   # BR(~t_2 -> chi^+_2 b)
     2.25012073E-02    2     1000006        23   # BR(~t_2 -> ~t_1 Z)
     1.78891591E-02    2     1000006        25   # BR(~t_2 -> ~t_1 h^0)
     2.35960892E-08    2     1000039         6   # BR(~t_2 -> ~G t)
DECAY   1000024     1.88623703E+00   # chi^+_1
#    BR                NDA      ID1      ID2
     4.43483874E-11    2    -2000011        12   # BR(chi^+_1 -> ~e^+_R nu_e)
     1.54432511E-01    2    -1000011        12   # BR(chi^+_1 -> ~e^+_L nu_e)
     1.89601840E-06    2    -2000013        14   # BR(chi^+_1 -> ~mu^+_R nu_mu)
     1.54432109E-01    2    -1000013        14   # BR(chi^+_1 -> ~mu^+_L nu_mu)
     5.36270370E-04    2    -1000015        16   # BR(chi^+_1 -> ~tau^+_1 nu_tau)
     1.54318624E-01    2    -2000015        16   # BR(chi^+_1 -> ~tau^+_2 nu_tau)
     1.64504607E-01    2     1000012       -11   # BR(chi^+_1 -> ~nu_e e^+)
     1.64504972E-01    2     1000014       -13   # BR(chi^+_1 -> ~nu_mu mu^+)
     1.64607799E-01    2     1000016       -15   # BR(chi^+_1 -> ~nu_tau tau^+)
     4.25627031E-02    2     1000022        24   # BR(chi^+_1 -> chi^0_1 W^+)
#    BR                NDA      ID1      ID2       ID3
     1.41624646E-07    3     1000022        -1         2   # BR(chi^+_1 -> chi^0_1 d_bar u)
     1.41628976E-07    3     1000022        -3         4   # BR(chi^+_1 -> chi^0_1 s_bar c)
     9.81307734E-05    3     1000022        -5         6   # BR(chi^+_1 -> chi^0_1 b_bar t)
     3.35583436E-10    3     1000022       -13        14   # BR(chi^+_1 -> chi^0_1 mu^+ nu_mu)
     9.47168041E-08    3     1000022       -15        16   # BR(chi^+_1 -> chi^0_1 tau^+ nu_tau)
DECAY   1000037     8.31584746E+00   # chi^+_2
#    BR                NDA      ID1      ID2
     2.96656877E-11    2    -2000011        12   # BR(chi^+_2 -> ~e^+_R nu_e)
     1.57797659E-02    2    -1000011        12   # BR(chi^+_2 -> ~e^+_L nu_e)
     1.26829240E-06    2    -2000013        14   # BR(chi^+_2 -> ~mu^+_R nu_mu)
     1.57799432E-02    2    -1000013        14   # BR(chi^+_2 -> ~mu^+_L nu_mu)
     3.58783028E-04    2    -1000015        16   # BR(chi^+_2 -> ~tau^+_1 nu_tau)
     1.58299310E-02    2    -2000015        16   # BR(chi^+_2 -> ~tau^+_2 nu_tau)
     1.29153087E-02    2     1000012       -11   # BR(chi^+_2 -> ~nu_e e^+)
     1.29161167E-02    2     1000014       -13   # BR(chi^+_2 -> ~nu_mu mu^+)
     1.31438965E-02    2     1000016       -15   # BR(chi^+_2 -> ~nu_tau tau^+)
     9.41341375E-02    2     1000022        24   # BR(chi^+_2 -> chi^0_1 W^+)
     2.93642771E-01    2     1000023        24   # BR(chi^+_2 -> chi^0_2 W^+)
     2.81411536E-01    2     1000024        23   # BR(chi^+_2 -> chi^+_1 Z)
     2.42486238E-01    2     1000024        25   # BR(chi^+_2 -> chi^+_1 h^0)
#    BR                NDA      ID1      ID2       ID3
     5.29057291E-08    3     1000024         2        -2   # BR(chi^+_2 -> chi^+_1 u u_bar)
     5.28934668E-08    3     1000024         4        -4   # BR(chi^+_2 -> chi^+_1 c c_bar)
     4.35227291E-08    3     1000024         1        -1   # BR(chi^+_2 -> chi^+_1 d d_bar)
     4.35199597E-08    3     1000024         3        -3   # BR(chi^+_2 -> chi^+_1 s s_bar)
     3.26132124E-07    3     1000024         5        -5   # BR(chi^+_2 -> chi^+_1 b b_bar)
     8.09323851E-07    3     1000024        11       -11   # BR(chi^+_2 -> chi^+_1 e^- e^+)
     8.09373919E-07    3     1000024        13       -13   # BR(chi^+_2 -> chi^+_1 mu^- mu^+)
     8.20732374E-07    3     1000024        15       -15   # BR(chi^+_2 -> chi^+_1 tau^- tau^+)
     3.03066710E-06    3     1000024        12       -12   # BR(chi^+_2 -> chi^+_1 nu_e nu_bar_e)
     4.31999617E-08    3     1000022        -1         2   # BR(chi^+_2 -> chi^0_1 d_bar u)
     4.34207332E-08    3     1000022        -3         4   # BR(chi^+_2 -> chi^0_1 s_bar c)
     1.10124406E-03    3     1000022        -5         6   # BR(chi^+_2 -> chi^0_1 b_bar t)
     1.71418338E-14    3     1000022       -11        12   # BR(chi^+_2 -> chi^0_1 e^+ nu_e)
     7.32858948E-10    3     1000022       -13        14   # BR(chi^+_2 -> chi^0_1 mu^+ nu_mu)
     2.07044520E-07    3     1000022       -15        16   # BR(chi^+_2 -> chi^0_1 tau^+ nu_tau)
     2.51210735E-08    3     1000023        -1         2   # BR(chi^+_2 -> chi^0_2 d_bar u)
     2.51168714E-08    3     1000023        -3         4   # BR(chi^+_2 -> chi^0_2 s_bar c)
     4.90744477E-04    3     1000023        -5         6   # BR(chi^+_2 -> chi^0_2 b_bar t)
     5.01488968E-07    3     1000023       -11        12   # BR(chi^+_2 -> chi^0_2 e^+ nu_e)
     5.01513017E-07    3     1000023       -13        14   # BR(chi^+_2 -> chi^0_2 mu^+ nu_mu)
     5.06622276E-07    3     1000023       -15        16   # BR(chi^+_2 -> chi^0_2 tau^+ nu_tau)
     1.58893843E-07    3     1000025        -1         2   # BR(chi^+_2 -> chi^0_3 d_bar u)
     1.55912305E-07    3     1000025        -3         4   # BR(chi^+_2 -> chi^0_3 s_bar c)
     5.29656527E-08    3     1000025       -11        12   # BR(chi^+_2 -> chi^0_3 e^+ nu_e)
     5.29651034E-08    3     1000025       -13        14   # BR(chi^+_2 -> chi^0_3 mu^+ nu_mu)
     5.10049279E-08    3     1000025       -15        16   # BR(chi^+_2 -> chi^0_3 tau^+ nu_tau)
DECAY   1000022     1.03967281E+00   # chi^0_1
#    BR                NDA      ID1      ID2
     1.66509347E-01    2     2000011       -11   # BR(chi^0_1 -> ~e^-_R e^+)
     1.66509347E-01    2    -2000011        11   # BR(chi^0_1 -> ~e^+_R e^-)
     1.66511009E-01    2     2000013       -13   # BR(chi^0_1 -> ~mu^-_R mu^+)
     1.66511009E-01    2    -2000013        13   # BR(chi^0_1 -> ~mu^+_R mu^-)
     1.66979644E-01    2     1000015       -15   # BR(chi^0_1 -> ~tau^-_1 tau^+)
     1.66979644E-01    2    -1000015        15   # BR(chi^0_1 -> ~tau^+_1 tau^-)
     2.00019836E-10    2     1000039        22   # BR(chi^0_1 -> ~G photon)
     6.05965851E-11    2     1000039        23   # BR(chi^0_1 -> ~G Z)
     1.12432694E-12    2     1000039        25   # BR(chi^0_1 -> ~G h^0)
DECAY   1000023     1.90633045E+00   # chi^0_2
#    BR                NDA      ID1      ID2
     6.85054371E-04    2     2000011       -11   # BR(chi^0_2 -> ~e^-_R e^+)
     6.85054371E-04    2    -2000011        11   # BR(chi^0_2 -> ~e^+_R e^-)
     8.00515774E-02    2     1000011       -11   # BR(chi^0_2 -> ~e^-_L e^+)
     8.00515774E-02    2    -1000011        11   # BR(chi^0_2 -> ~e^+_L e^-)
     6.85971434E-04    2     2000013       -13   # BR(chi^0_2 -> ~mu^-_R mu^+)
     6.85971434E-04    2    -2000013        13   # BR(chi^0_2 -> ~mu^+_R mu^-)
     8.00514573E-02    2     1000013       -13   # BR(chi^0_2 -> ~mu^-_L mu^+)
     8.00514573E-02    2    -1000013        13   # BR(chi^0_2 -> ~mu^+_L mu^-)
     9.44466171E-04    2     1000015       -15   # BR(chi^0_2 -> ~tau^-_1 tau^+)
     9.44466171E-04    2    -1000015        15   # BR(chi^0_2 -> ~tau^+_1 tau^-)
     8.00176365E-02    2     2000015       -15   # BR(chi^0_2 -> ~tau^-_2 tau^+)
     8.00176365E-02    2    -2000015        15   # BR(chi^0_2 -> ~tau^+_2 tau^-)
     7.80336692E-02    2     1000012       -12   # BR(chi^0_2 -> ~nu_e nu_bar_e)
     7.80336692E-02    2    -1000012        12   # BR(chi^0_2 -> ~nu^*_e nu_e)
     7.80337619E-02    2     1000014       -14   # BR(chi^0_2 -> ~nu_mu nu_bar_mu)
     7.80337619E-02    2    -1000014        14   # BR(chi^0_2 -> ~nu^*_mu nu_mu)
     7.80598939E-02    2     1000016       -16   # BR(chi^0_2 -> ~nu_tau nu_bar_tau)
     7.80598939E-02    2    -1000016        16   # BR(chi^0_2 -> ~nu^*_tau nu_tau)
     2.84519754E-04    2     1000022        23   # BR(chi^0_2 -> chi^0_1 Z)
     4.65864886E-02    2     1000022        25   # BR(chi^0_2 -> chi^0_1 h^0)
     9.19406244E-10    2     1000039        22   # BR(chi^0_2 -> ~G photon)
     1.80954554E-09    2     1000039        23   # BR(chi^0_2 -> ~G Z)
     1.94210024E-10    2     1000039        25   # BR(chi^0_2 -> ~G h^0)
     4.89308238E-07    2     1000022        22   # BR(chi^0_2 -> chi^0_1 photon)
#    BR                NDA      ID1      ID2       ID3
     6.15307524E-08    3     1000022         2        -2   # BR(chi^0_2 -> chi^0_1 u u_bar)
     6.15349766E-08    3     1000022         4        -4   # BR(chi^0_2 -> chi^0_1 c c_bar)
     8.02081345E-08    3     1000022         1        -1   # BR(chi^0_2 -> chi^0_1 d d_bar)
     8.02086494E-08    3     1000022         3        -3   # BR(chi^0_2 -> chi^0_1 s s_bar)
     9.88189916E-08    3     1000022         5        -5   # BR(chi^0_2 -> chi^0_1 b b_bar)
     3.51164037E-07    3     1000022        11       -11   # BR(chi^0_2 -> chi^0_1 e^- e^+)
     3.51489064E-07    3     1000022        13       -13   # BR(chi^0_2 -> chi^0_1 mu^- mu^+)
     4.37786021E-07    3     1000022        15       -15   # BR(chi^0_2 -> chi^0_1 tau^- tau^+)
DECAY   1000025     7.09518073E+00   # chi^0_3
#    BR                NDA      ID1      ID2
     2.97122496E-05    2     2000011       -11   # BR(chi^0_3 -> ~e^-_R e^+)
     2.97122496E-05    2    -2000011        11   # BR(chi^0_3 -> ~e^+_R e^-)
     8.42636013E-06    2     1000011       -11   # BR(chi^0_3 -> ~e^-_L e^+)
     8.42636013E-06    2    -1000011        11   # BR(chi^0_3 -> ~e^+_L e^-)
     3.06827548E-05    2     2000013       -13   # BR(chi^0_3 -> ~mu^-_R mu^+)
     3.06827548E-05    2    -2000013        13   # BR(chi^0_3 -> ~mu^+_R mu^-)
     8.94470749E-06    2     1000013       -13   # BR(chi^0_3 -> ~mu^-_L mu^+)
     8.94470749E-06    2    -1000013        13   # BR(chi^0_3 -> ~mu^+_L mu^-)
     3.04268370E-04    2     1000015       -15   # BR(chi^0_3 -> ~tau^-_1 tau^+)
     3.04268370E-04    2    -1000015        15   # BR(chi^0_3 -> ~tau^+_1 tau^-)
     1.55060137E-04    2     2000015       -15   # BR(chi^0_3 -> ~tau^-_2 tau^+)
     1.55060137E-04    2    -2000015        15   # BR(chi^0_3 -> ~tau^+_2 tau^-)
     4.71556652E-05    2     1000012       -12   # BR(chi^0_3 -> ~nu_e nu_bar_e)
     4.71556652E-05    2    -1000012        12   # BR(chi^0_3 -> ~nu^*_e nu_e)
     4.71556797E-05    2     1000014       -14   # BR(chi^0_3 -> ~nu_mu nu_bar_mu)
     4.71556797E-05    2    -1000014        14   # BR(chi^0_3 -> ~nu^*_mu nu_mu)
     4.71597638E-05    2     1000016       -16   # BR(chi^0_3 -> ~nu_tau nu_bar_tau)
     4.71597638E-05    2    -1000016        16   # BR(chi^0_3 -> ~nu^*_tau nu_tau)
     2.90894356E-01    2     1000024       -24   # BR(chi^0_3 -> chi^+_1 W^-)
     2.90894356E-01    2    -1000024        24   # BR(chi^0_3 -> chi^-_1 W^+)
     1.35631775E-01    2     1000022        23   # BR(chi^0_3 -> chi^0_1 Z)
     2.76438725E-01    2     1000023        23   # BR(chi^0_3 -> chi^0_2 Z)
     2.66815373E-03    2     1000022        25   # BR(chi^0_3 -> chi^0_1 h^0)
     7.69970948E-04    2     1000023        25   # BR(chi^0_3 -> chi^0_2 h^0)
     1.46410022E-14    2     1000039        22   # BR(chi^0_3 -> ~G photon)
     1.05318060E-10    2     1000039        23   # BR(chi^0_3 -> ~G Z)
     4.46397884E-10    2     1000039        25   # BR(chi^0_3 -> ~G h^0)
     7.20152787E-08    2     1000022        22   # BR(chi^0_3 -> chi^0_1 photon)
     2.22874976E-06    2     1000023        22   # BR(chi^0_3 -> chi^0_2 photon)
#    BR                NDA      ID1      ID2       ID3
     1.77218255E-10    3     1000022         2        -2   # BR(chi^0_3 -> chi^0_1 u u_bar)
     4.13908672E-10    3     1000022         4        -4   # BR(chi^0_3 -> chi^0_1 c c_bar)
     6.42569495E-04    3     1000022         6        -6   # BR(chi^0_3 -> chi^0_1 t t_bar)
     5.21849653E-11    3     1000022         1        -1   # BR(chi^0_3 -> chi^0_1 d d_bar)
     5.80608056E-11    3     1000022         3        -3   # BR(chi^0_3 -> chi^0_1 s s_bar)
     1.32323812E-08    3     1000022         5        -5   # BR(chi^0_3 -> chi^0_1 b b_bar)
     2.12015516E-08    3     1000022        11       -11   # BR(chi^0_3 -> chi^0_1 e^- e^+)
     2.22672077E-08    3     1000022        13       -13   # BR(chi^0_3 -> chi^0_1 mu^- mu^+)
     3.23061906E-07    3     1000022        15       -15   # BR(chi^0_3 -> chi^0_1 tau^- tau^+)
     2.39680522E-11    3     1000023         2        -2   # BR(chi^0_3 -> chi^0_2 u u_bar)
     3.47026867E-11    3     1000023         4        -4   # BR(chi^0_3 -> chi^0_2 c c_bar)
     4.00442276E-11    3     1000023         1        -1   # BR(chi^0_3 -> chi^0_2 d d_bar)
     4.07217728E-11    3     1000023         3        -3   # BR(chi^0_3 -> chi^0_2 s s_bar)
     1.80830775E-09    3     1000023         5        -5   # BR(chi^0_3 -> chi^0_2 b b_bar)
     2.54659560E-10    3     1000023        11       -11   # BR(chi^0_3 -> chi^0_2 e^- e^+)
     2.81718410E-10    3     1000023        13       -13   # BR(chi^0_3 -> chi^0_2 mu^- mu^+)
     7.92339877E-09    3     1000023        15       -15   # BR(chi^0_3 -> chi^0_2 tau^- tau^+)
     3.81384429E-09    3     1000023        12       -12   # BR(chi^0_3 -> chi^0_2 nu_e nu_bar_e)
     1.81852285E-10    3     1000024         1        -2   # BR(chi^0_3 -> chi^+_1 d u_bar)
     1.81852285E-10    3    -1000024        -1         2   # BR(chi^0_3 -> chi^-_1 d_bar u)
     1.92083909E-10    3     1000024         3        -4   # BR(chi^0_3 -> chi^+_1 s c_bar)
     1.92083909E-10    3    -1000024        -3         4   # BR(chi^0_3 -> chi^-_1 s_bar c)
     3.50114153E-04    3     1000024         5        -6   # BR(chi^0_3 -> chi^+_1 b t_bar)
     3.50114153E-04    3    -1000024        -5         6   # BR(chi^0_3 -> chi^-_1 b_bar t)
     3.88693317E-09    3     1000024        11       -12   # BR(chi^0_3 -> chi^+_1 e^- nu_bar_e)
     3.88693317E-09    3    -1000024       -11        12   # BR(chi^0_3 -> chi^-_1 e^+ nu_e)
     3.91197414E-09    3     1000024        13       -14   # BR(chi^0_3 -> chi^+_1 mu^- nu_bar_mu)
     3.91197414E-09    3    -1000024       -13        14   # BR(chi^0_3 -> chi^-_1 mu^+ nu_mu)
     1.10753198E-08    3     1000024        15       -16   # BR(chi^0_3 -> chi^+_1 tau^- nu_bar_tau)
     1.10753198E-08    3    -1000024       -15        16   # BR(chi^0_3 -> chi^-_1 tau^+ nu_tau)
DECAY   1000035     8.23054536E+00   # chi^0_4
#    BR                NDA      ID1      ID2
     1.15468721E-03    2     2000011       -11   # BR(chi^0_4 -> ~e^-_R e^+)
     1.15468721E-03    2    -2000011        11   # BR(chi^0_4 -> ~e^+_R e^-)
     5.13638613E-03    2     1000011       -11   # BR(chi^0_4 -> ~e^-_L e^+)
     5.13638613E-03    2    -1000011        11   # BR(chi^0_4 -> ~e^+_L e^-)
     1.15529757E-03    2     2000013       -13   # BR(chi^0_4 -> ~mu^-_R mu^+)
     1.15529757E-03    2    -2000013        13   # BR(chi^0_4 -> ~mu^+_R mu^-)
     5.13689258E-03    2     1000013       -13   # BR(chi^0_4 -> ~mu^-_L mu^+)
     5.13689258E-03    2    -1000013        13   # BR(chi^0_4 -> ~mu^+_L mu^-)
     1.32742195E-03    2     1000015       -15   # BR(chi^0_4 -> ~tau^-_1 tau^+)
     1.32742195E-03    2    -1000015        15   # BR(chi^0_4 -> ~tau^+_1 tau^-)
     5.27960721E-03    2     2000015       -15   # BR(chi^0_4 -> ~tau^-_2 tau^+)
     5.27960721E-03    2    -2000015        15   # BR(chi^0_4 -> ~tau^+_2 tau^-)
     9.43527715E-03    2     1000012       -12   # BR(chi^0_4 -> ~nu_e nu_bar_e)
     9.43527715E-03    2    -1000012        12   # BR(chi^0_4 -> ~nu^*_e nu_e)
     9.43527986E-03    2     1000014       -14   # BR(chi^0_4 -> ~nu_mu nu_bar_mu)
     9.43527986E-03    2    -1000014        14   # BR(chi^0_4 -> ~nu^*_mu nu_mu)
     9.43604418E-03    2     1000016       -16   # BR(chi^0_4 -> ~nu_tau nu_bar_tau)
     9.43604418E-03    2    -1000016        16   # BR(chi^0_4 -> ~nu^*_tau nu_tau)
     2.80180760E-01    2     1000024       -24   # BR(chi^0_4 -> chi^+_1 W^-)
     2.80180760E-01    2    -1000024        24   # BR(chi^0_4 -> chi^-_1 W^+)
     2.40951101E-03    2     1000022        23   # BR(chi^0_4 -> chi^0_1 Z)
     8.98346466E-04    2     1000023        23   # BR(chi^0_4 -> chi^0_2 Z)
     1.07719317E-01    2     1000022        25   # BR(chi^0_4 -> chi^0_1 h^0)
     2.32361992E-01    2     1000023        25   # BR(chi^0_4 -> chi^0_2 h^0)
     2.26686843E-11    2     1000039        22   # BR(chi^0_4 -> ~G photon)
     2.53391370E-09    2     1000039        23   # BR(chi^0_4 -> ~G Z)
     4.33920181E-09    2     1000039        25   # BR(chi^0_4 -> ~G h^0)
     6.07964480E-09    2     1000022        22   # BR(chi^0_4 -> chi^0_1 photon)
     5.07121584E-07    2     1000023        22   # BR(chi^0_4 -> chi^0_2 photon)
     9.13131775E-10    2     1000025        22   # BR(chi^0_4 -> chi^0_3 photon)
#    BR                NDA      ID1      ID2       ID3
     3.26644105E-08    3     1000022         2        -2   # BR(chi^0_4 -> chi^0_1 u u_bar)
     3.28312724E-08    3     1000022         4        -4   # BR(chi^0_4 -> chi^0_1 c c_bar)
     2.65801632E-04    3     1000022         6        -6   # BR(chi^0_4 -> chi^0_1 t t_bar)
     2.82319375E-08    3     1000022         1        -1   # BR(chi^0_4 -> chi^0_1 d d_bar)
     2.82367322E-08    3     1000022         3        -3   # BR(chi^0_4 -> chi^0_1 s s_bar)
     4.51779316E-08    3     1000022         5        -5   # BR(chi^0_4 -> chi^0_1 b b_bar)
     1.91411235E-06    3     1000022        11       -11   # BR(chi^0_4 -> chi^0_1 e^- e^+)
     1.91479964E-06    3     1000022        13       -13   # BR(chi^0_4 -> chi^0_1 mu^- mu^+)
     2.09945330E-06    3     1000022        15       -15   # BR(chi^0_4 -> chi^0_1 tau^- tau^+)
     3.33640358E-08    3     1000023         2        -2   # BR(chi^0_4 -> chi^0_2 u u_bar)
     3.33472557E-08    3     1000023         4        -4   # BR(chi^0_4 -> chi^0_2 c c_bar)
     3.95537699E-08    3     1000023         1        -1   # BR(chi^0_4 -> chi^0_2 d d_bar)
     3.95545374E-08    3     1000023         3        -3   # BR(chi^0_4 -> chi^0_2 s s_bar)
     5.10665948E-08    3     1000023         5        -5   # BR(chi^0_4 -> chi^0_2 b b_bar)
     5.09112411E-07    3     1000023        11       -11   # BR(chi^0_4 -> chi^0_2 e^- e^+)
     5.09142817E-07    3     1000023        13       -13   # BR(chi^0_4 -> chi^0_2 mu^- mu^+)
     5.15263836E-07    3     1000023        15       -15   # BR(chi^0_4 -> chi^0_2 tau^- tau^+)
     2.51510940E-06    3     1000023        12       -12   # BR(chi^0_4 -> chi^0_2 nu_e nu_bar_e)
     7.83938768E-08    3     1000025         2        -2   # BR(chi^0_4 -> chi^0_3 u u_bar)
     7.68926722E-08    3     1000025         4        -4   # BR(chi^0_4 -> chi^0_3 c c_bar)
     1.01704692E-07    3     1000025         1        -1   # BR(chi^0_4 -> chi^0_3 d d_bar)
     1.01687199E-07    3     1000025         3        -3   # BR(chi^0_4 -> chi^0_3 s s_bar)
     7.55610268E-08    3     1000025         5        -5   # BR(chi^0_4 -> chi^0_3 b b_bar)
     2.33267637E-08    3     1000025        11       -11   # BR(chi^0_4 -> chi^0_3 e^- e^+)
     2.33240048E-08    3     1000025        13       -13   # BR(chi^0_4 -> chi^0_3 mu^- mu^+)
     2.25110382E-08    3     1000025        15       -15   # BR(chi^0_4 -> chi^0_3 tau^- tau^+)
     1.39919203E-07    3     1000025        12       -12   # BR(chi^0_4 -> chi^0_3 nu_e nu_bar_e)
     2.57097957E-08    3     1000024         1        -2   # BR(chi^0_4 -> chi^+_1 d u_bar)
     2.57097957E-08    3    -1000024        -1         2   # BR(chi^0_4 -> chi^-_1 d_bar u)
     2.57140933E-08    3     1000024         3        -4   # BR(chi^0_4 -> chi^+_1 s c_bar)
     2.57140933E-08    3    -1000024        -3         4   # BR(chi^0_4 -> chi^-_1 s_bar c)
     4.87469344E-04    3     1000024         5        -6   # BR(chi^0_4 -> chi^+_1 b t_bar)
     4.87469344E-04    3    -1000024        -5         6   # BR(chi^0_4 -> chi^-_1 b_bar t)
     5.27267287E-07    3     1000024        11       -12   # BR(chi^0_4 -> chi^+_1 e^- nu_bar_e)
     5.27267287E-07    3    -1000024       -11        12   # BR(chi^0_4 -> chi^-_1 e^+ nu_e)
     5.27291256E-07    3     1000024        13       -14   # BR(chi^0_4 -> chi^+_1 mu^- nu_bar_mu)
     5.27291256E-07    3    -1000024       -13        14   # BR(chi^0_4 -> chi^-_1 mu^+ nu_mu)
     5.33399556E-07    3     1000024        15       -16   # BR(chi^0_4 -> chi^+_1 tau^- nu_bar_tau)
     5.33399556E-07    3    -1000024       -15        16   # BR(chi^0_4 -> chi^-_1 tau^+ nu_tau)
     2.76255690E-12    3     1000037         1        -2   # BR(chi^0_4 -> chi^+_2 d u_bar)
     2.76255690E-12    3    -1000037        -1         2   # BR(chi^0_4 -> chi^-_2 d_bar u)
     4.79126932E-13    3     1000037         3        -4   # BR(chi^0_4 -> chi^+_2 s c_bar)
     4.79126932E-13    3    -1000037        -3         4   # BR(chi^0_4 -> chi^-_2 s_bar c)
     9.19603705E-13    3     1000037        11       -12   # BR(chi^0_4 -> chi^+_2 e^- nu_bar_e)
     9.19603705E-13    3    -1000037       -11        12   # BR(chi^0_4 -> chi^-_2 e^+ nu_e)
     9.08988550E-13    3     1000037        13       -14   # BR(chi^0_4 -> chi^+_2 mu^- nu_bar_mu)
     9.08988550E-13    3    -1000037       -13        14   # BR(chi^0_4 -> chi^-_2 mu^+ nu_mu)
     1.35153991E-14    3     1000037        15       -16   # BR(chi^0_4 -> chi^+_2 tau^- nu_bar_tau)
     1.35153991E-14    3    -1000037       -15        16   # BR(chi^0_4 -> chi^-_2 tau^+ nu_tau)
DECAY   1000021     8.30928811E+00   # ~g
#    BR                NDA      ID1      ID2
     4.68411060E-02    2     2000002        -2   # BR(~g -> ~u_R u_bar)
     4.68411060E-02    2    -2000002         2   # BR(~g -> ~u^*_R u)
     1.01521410E-02    2     1000002        -2   # BR(~g -> ~u_L u_bar)
     1.01521410E-02    2    -1000002         2   # BR(~g -> ~u^*_L u)
     4.68391746E-02    2     2000004        -4   # BR(~g -> ~c_R c_bar)
     4.68391746E-02    2    -2000004         4   # BR(~g -> ~c^*_R c)
     1.01515993E-02    2     1000004        -4   # BR(~g -> ~c_L c_bar)
     1.01515993E-02    2    -1000004         4   # BR(~g -> ~c^*_L c)
     1.07496056E-10    2     1000006        -4   # BR(~g -> ~t_1 c_bar)
     1.07496056E-10    2    -1000006         4   # BR(~g -> ~t^*_1 c)
     1.48212171E-01    2     1000006        -6   # BR(~g -> ~t_1 t_bar)
     1.48212171E-01    2    -1000006         6   # BR(~g -> ~t^*_1 t)
     5.10944395E-02    2     2000001        -1   # BR(~g -> ~d_R d_bar)
     5.10944395E-02    2    -2000001         1   # BR(~g -> ~d^*_R d)
     9.85807646E-03    2     1000001        -1   # BR(~g -> ~d_L d_bar)
     9.85807646E-03    2    -1000001         1   # BR(~g -> ~d^*_L d)
     5.10944598E-02    2     2000003        -3   # BR(~g -> ~s_R s_bar)
     5.10944598E-02    2    -2000003         3   # BR(~g -> ~s^*_R s)
     9.85857725E-03    2     1000003        -3   # BR(~g -> ~s_L s_bar)
     9.85857725E-03    2    -1000003         3   # BR(~g -> ~s^*_L s)
     5.32706306E-02    2     1000005        -5   # BR(~g -> ~b_1 b_bar)
     5.32706306E-02    2    -1000005         5   # BR(~g -> ~b^*_1 b)
     5.17570455E-02    2     2000005        -5   # BR(~g -> ~b_2 b_bar)
     5.17570455E-02    2    -2000005         5   # BR(~g -> ~b^*_2 b)
     4.22024706E-06    2     1000022        21   # BR(~g -> chi^0_1 g)
     2.93881587E-05    2     1000023        21   # BR(~g -> chi^0_2 g)
     1.57879236E-04    2     1000025        21   # BR(~g -> chi^0_3 g)
     1.61784958E-04    2     1000035        21   # BR(~g -> chi^0_4 g)
#    BR                NDA      ID1      ID2       ID3
     2.50325111E-04    3     1000022         6        -6   # BR(~g -> chi^0_1 t t_bar)
     3.07222112E-03    3     1000023         6        -6   # BR(~g -> chi^0_2 t t_bar)
     4.23846869E-03    3     1000025         6        -6   # BR(~g -> chi^0_3 t t_bar)
     6.43808342E-03    3     1000035         6        -6   # BR(~g -> chi^0_4 t t_bar)
     2.89779469E-03    3     1000024         5        -6   # BR(~g -> chi^+_1 b t_bar)
     2.89779469E-03    3    -1000024        -5         6   # BR(~g -> chi^-_1 b_bar t)
     7.96598675E-04    3     1000037         5        -6   # BR(~g -> chi^+_2 b t_bar)
     7.96598675E-04    3    -1000037        -5         6   # BR(~g -> chi^-_2 b_bar t)
DECAY        25     1.93952935E-03   # h^0
#    BR                NDA      ID1      ID2
     8.97279879E-09    2          11       -11   # BR(h^0 -> e^- e^+)
     3.83609556E-04    2          13       -13   # BR(h^0 -> mu^- mu^+)
     1.08273001E-01    2          15       -15   # BR(h^0 -> tau^- tau^+)
     8.53350252E-07    2           1        -1   # BR(h^0 -> d d_bar)
     3.76326965E-04    2           3        -3   # BR(h^0 -> s s_bar)
     7.94214996E-01    2           5        -5   # BR(h^0 -> b b_bar)
     2.69661763E-07    2           2        -2   # BR(h^0 -> u u_bar)
     4.83089586E-02    2           4        -4   # BR(h^0 -> c c_bar)
     4.51142586E-02    2          21        21   # BR(h^0 -> g g)
     1.86811752E-03    2          22        22   # BR(h^0 -> photon photon)
# writing decays into V V* as 3-body decays
#    BR                NDA      ID1      ID2       ID3
     7.29572069E-05    3          24        11        12   # BR(h^0 -> W^+ e^- nu_e)
     7.29572069E-05    3          24        13        14   # BR(h^0 -> W^+ mu^- nu_mu)
     7.29572069E-05    3          24        15        16   # BR(h^0 -> W^+ tau^- nu_tau)
     2.55350224E-04    3          24         1        -2   # BR(h^0 -> W^+ d u_bar)
     2.55350224E-04    3          24         3        -4   # BR(h^0 -> W^+ s c_bar)
     7.29572069E-05    3         -24       -11       -12   # BR(h^0 -> W^- e^+ nu_bar_e)
     7.29572069E-05    3         -24       -13       -14   # BR(h^0 -> W^- mu^+ nu_bar_mu)
     7.29572069E-05    3         -24       -15       -16   # BR(h^0 -> W^- tau^+ nu_bar_tau)
     2.55350224E-04    3         -24        -1         2   # BR(h^0 -> W^- d_bar u)
     2.55350224E-04    3         -24        -3         4   # BR(h^0 -> W^- s_bar c)
     1.59449451E-08    3          23        11       -11   # BR(h^0 -> Z e^- e^+)
     1.59449451E-08    3          23        13       -13   # BR(h^0 -> Z mu^- mu^+)
     1.36670958E-08    3          23        15       -15   # BR(h^0 -> Z tau^- tau^+)
     9.11139721E-08    3          23        12       -12   # BR(h^0 -> Z nu_e nu_bar_e)
     6.37797805E-08    3          23         1        -1   # BR(h^0 -> Z u u_bar)
     6.37797805E-08    3          23         3        -3   # BR(h^0 -> Z c c_bar)
     6.37797805E-08    3          23         5        -5   # BR(h^0 -> Z t t_bar)
     6.37797805E-08    3          23         2        -2   # BR(h^0 -> Z u u_bar)
     6.37797805E-08    3          23         4        -4   # BR(h^0 -> Z c c_bar)
DECAY        35     1.76113076E+01   # H^0
#    BR                NDA      ID1      ID2
     4.48884024E-11    2          11       -11   # BR(H^0 -> e^- e^+)
     1.91910603E-06    2          13       -13   # BR(H^0 -> mu^- mu^+)
     5.42837538E-04    2          15       -15   # BR(H^0 -> tau^- tau^+)
     3.53824239E-09    2           1        -1   # BR(H^0 -> d d_bar)
     1.56036388E-06    2           3        -3   # BR(H^0 -> s s_bar)
     3.42630165E-03    2           5        -5   # BR(H^0 -> b b_bar)
     1.00599588E-10    2           2        -2   # BR(H^0 -> u u_bar)
     1.80285828E-05    2           4        -4   # BR(H^0 -> c c_bar)
     9.50313604E-01    2           6        -6   # BR(H^0 -> t t_bar)
     1.47337355E-04    2     2000011  -2000011   # BR(H^0 -> ~e^-_R ~e^+_R)
     2.05902494E-12    2     2000011  -1000011   # BR(H^0 -> ~e^-_R ~e^+_L)
     2.05902494E-12    2    -2000011   1000011   # BR(H^0 -> ~e^+_R ~e^-_L)
     8.10656799E-05    2     1000011  -1000011   # BR(H^0 -> ~e^-_L ~e^+_L)
     1.47320619E-04    2     2000013  -2000013   # BR(H^0 -> ~mu^-_R ~mu^+_R)
     8.80289346E-08    2     2000013  -1000013   # BR(H^0 -> ~mu^-_R ~mu^+_L)
     8.80289346E-08    2    -2000013   1000013   # BR(H^0 -> ~mu^+_R ~mu^-_L)
     8.10706861E-05    2     1000013  -1000013   # BR(H^0 -> ~mu^-_L ~mu^+_L)
     1.42642661E-04    2     1000015  -1000015   # BR(H^0 -> ~tau^-_1 ~tau^+_1)
     2.48839677E-05    2     1000015  -2000015   # BR(H^0 -> ~tau^-_1 ~tau^+_2)
     2.48839677E-05    2    -1000015   2000015   # BR(H^0 -> ~tau^+_1 ~tau^-_2)
     8.24869180E-05    2     2000015  -2000015   # BR(H^0 -> ~tau^-_2 ~tau^+_2)
     3.18184584E-04    2     1000012  -1000012   # BR(H^0 -> ~nu_e ~nu^*_e)
     3.18184760E-04    2     1000014  -1000014   # BR(H^0 -> ~nu_mu ~nu^*_mu)
     3.18234190E-04    2     1000016  -1000016   # BR(H^0 -> ~nu_tau ~nu^*_tau)
     1.00650858E-04    2     1000022   1000022   # BR(H^0 -> chi^0_1 chi^0_1)
     2.99853726E-04    2     1000022   1000023   # BR(H^0 -> chi^0_1 chi^0_2)
     1.43974281E-02    2          23        23   # BR(H^0 -> Z Z)
     2.74950831E-02    2          24       -24   # BR(H^0 -> W^+ W^-)
     1.01855935E-03    2          25        25   # BR(H^0 -> h^0 h^0)
     6.91996844E-04    2          21        21   # BR(H^0 -> g g)
     5.70129002E-06    2          22        22   # BR(H^0 -> photon photon)
DECAY        36     1.65185374E+01   # A^0
#    BR                NDA      ID1      ID2
     4.90827175E-11    2          11       -11   # BR(A^0 -> e^- e^+)
     2.09842490E-06    2          13       -13   # BR(A^0 -> mu^- mu^+)
     5.93564047E-04    2          15       -15   # BR(A^0 -> tau^- tau^+)
     3.86875720E-09    2           1        -1   # BR(A^0 -> d d_bar)
     1.70612035E-06    2           3        -3   # BR(A^0 -> s s_bar)
     3.74636789E-03    2           5        -5   # BR(A^0 -> b b_bar)
     9.65198794E-11    2           2        -2   # BR(A^0 -> u u_bar)
     1.72974539E-05    2           4        -4   # BR(A^0 -> c c_bar)
     9.58685327E-01    2           6        -6   # BR(A^0 -> t t_bar)
     1.94738242E-12    2     2000011  -1000011   # BR(A^0 -> ~e^-_R ~e^+_L)
     1.94738242E-12    2    -2000011   1000011   # BR(A^0 -> ~e^+_R ~e^-_L)
     8.32561385E-08    2     2000013  -1000013   # BR(A^0 -> ~mu^-_R ~mu^+_L)
     8.32561385E-08    2    -2000013   1000013   # BR(A^0 -> ~mu^+_R ~mu^-_L)
     2.35528195E-05    2     1000015  -2000015   # BR(A^0 -> ~tau^-_1 ~tau^+_2)
     2.35528195E-05    2    -1000015   2000015   # BR(A^0 -> ~tau^+_1 ~tau^-_2)
     8.66616377E-04    2     1000022   1000022   # BR(A^0 -> chi^0_1 chi^0_1)
     6.71119898E-03    2     1000022   1000023   # BR(A^0 -> chi^0_1 chi^0_2)
     2.91168302E-02    2          25        23   # BR(A^0 -> h^0 Z)
     2.10056565E-04    2          21        21   # BR(A^0 -> g g)
     1.66090229E-06    2          22        22   # BR(A^0 -> photon photon)
DECAY        37     1.42778146E+01   # H^+
#    BR                NDA      ID1      ID2
     5.69170192E-11    2         -11        12   # BR(H^+ -> e^+ nu_e)
     2.43336345E-06    2         -13        12   # BR(H^+ -> mu^+ nu_e)
     6.88305347E-04    2         -15        12   # BR(H^+ -> tau^+ nu_e)
     4.03083102E-09    2          -1         2   # BR(H^+ -> d_bar u)
     1.93176917E-05    2          -3         4   # BR(H^+ -> s_bar c)
     9.56833253E-01    2          -5         6   # BR(H^+ -> b_bar t)
     4.09204041E-12    2    -2000011   1000012   # BR(H^+ -> ~e^+_R ~nu_e)
     4.25903422E-04    2    -1000011   1000012   # BR(H^+ -> ~e^+_L ~nu_e)
     1.74946372E-07    2    -2000013   1000014   # BR(H^+ -> ~mu^+_R ~nu_mu)
     4.25911499E-04    2    -1000013   1000014   # BR(H^+ -> ~mu^+_L ~nu_mu)
     4.94918762E-05    2    -1000015   1000016   # BR(H^+ -> ~tau^+_1 ~nu_tau)
     4.28190050E-04    2    -2000015   1000016   # BR(H^+ -> ~tau^+_2 ~nu_tau)
     7.97357464E-03    2     1000024   1000022   # BR(H^+ -> chi^+_1 chi^0_1)
     3.31534401E-02    2          25        24   # BR(H^+ -> h^0 W^+)
DECAY         6     2.43000000E+00   # top
#    BR                NDA      ID1      ID2
     1.00000000E+00    2           5        24   # BR(t -> b W)
Block HiggsBoundsInputHiggsCouplingsFermions
# ScalarNormEffCoupSq PseudoSNormEffCoupSq NP IP1 IP2 IP2
    1.10866748E+00    0.00000000E+00        3  25   5   5  # h0-b-b eff. coupling^2, normalised to SM
    3.89133252E+00    0.00000000E+00        3  35   5   5  # H0-b-b eff. coupling^2, normalised to SM
    0.00000000E+00    4.00000000E+00        3  36   5   5  # A0-b-b eff. coupling^2, normalised to SM
#
    9.72833131E-01    0.00000000E+00        3  25   6   6  # h0-t-t eff. coupling^2, normalised to SM
    2.77166869E-01    0.00000000E+00        3  35   6   6  # H0-t-t eff. coupling^2, normalised to SM
    0.00000000E+00    2.50000000E-01        3  36   6   6  # A0-t-t eff. coupling^2, normalised to SM
#
    1.10866748E+00    0.00000000E+00        3  25  15  15  # h0-tau-tau eff. coupling^2, normalised to SM
    3.89133252E+00    0.00000000E+00        3  35  15  15  # H0-tau-tau eff. coupling^2, normalised to SM
    0.00000000E+00    4.00000000E+00        3  36  15  15  # A0-tau-tau eff. coupling^2, normalised to SM
#
Block HiggsBoundsInputHiggsCouplingsBosons
    9.99290102E-01        3  25  24  24  # h0-W-W eff. coupling^2, normalised to SM
    7.09897650E-04        3  35  24  24  # H0-W-W eff. coupling^2, normalised to SM
    0.00000000E+00        3  36  24  24  # A0-W-W eff. coupling^2, normalised to SM
#
    9.99290102E-01        3  25  23  23  # h0-Z-Z eff. coupling^2, normalised to SM
    7.09897650E-04        3  35  23  23  # H0-Z-Z eff. coupling^2, normalised to SM
    0.00000000E+00        3  36  23  23  # A0-Z-Z eff. coupling^2, normalised to SM
#
    1.13460495E+00        3  25  21  21  # h0-g-g eff. coupling^2, normalised to SM
    2.71608787E-01        3  35  21  21  # H0-g-g eff. coupling^2, normalised to SM
    5.03411776E-01        3  36  21  21  # A0-g-g eff. coupling^2, normalised to SM
#
    0.00000000E+00        3  25  25  23  # h0-h0-Z eff. coupling^2, normalised to SM
    0.00000000E+00        3  35  25  23  # H0-h0-Z eff. coupling^2, normalised to SM
    7.09897650E-04        3  36  25  23  # A0-h0-Z eff. coupling^2, normalised to SM
    0.00000000E+00        3  35  35  23  # H0-H0-Z eff. coupling^2, normalised to SM
    9.99290102E-01        3  36  35  23  # A0-H0-Z eff. coupling^2, normalised to SM
    0.00000000E+00        3  36  36  23  # A0-A0-Z eff. coupling^2, normalised to SM
#
    0.00000000E+00        4  25  21  21  23  # h0-g-g-Z eff. coupling^2, normalised to SM
    0.00000000E+00        4  35  21  21  23  # H0-g-g-Z eff. coupling^2, normalised to SM
    0.00000000E+00        4  36  21  21  23  # A0-g-g-Z eff. coupling^2, normalised to SM
Block SPhenoLowEnergy  # low energy observables
    1    3.13550487E-04   # BR(b -> s gamma)
    2    1.60523335E-06   # BR(b -> s mu+ mu-)
    3    3.57036688E-05   # BR(b -> s nu nu)
    4    5.24828076E-11   # BR(Bd -> mu+ mu-)
    5    3.42838632E-09   # BR(Bs -> mu+ mu-)
    6    1.10583017E-04   # BR(B_u -> tau nu)
    7    9.99906802E-01   # BR(B_u -> tau nu)/BR(B_u -> tau nu)_SM
    8    2.71557004E-01   # |Delta(M_Bd)| [ps^-1] 
    9    2.01549769E+01   # |Delta(M_Bs)| [ps^-1] 
   20    2.77727159E-15   # Delta(g-2)_electron/2
   21    4.32909211E-11   # Delta(g-2)_muon/2
   22   -3.68878320E-09   # Delta(g-2)_tau/2
   23    0.00000000E+00   # electric dipole moment of the electron
   24    0.00000000E+00   # electric dipole moment of the muon
   25    0.00000000E+00   # electric dipole moment of the tau
   26    0.00000000E+00   # Br(mu -> e gamma)
   27    0.00000000E+00   # Br(tau -> e gamma)
   28    0.00000000E+00   # Br(tau -> mu gamma)
   29    0.00000000E+00   # Br(mu -> 3 e)
   30    0.00000000E+00   # Br(tau -> 3 e)
   31    0.00000000E+00   # Br(tau -> 3 mu)
   39   -9.81612795E-06   # Delta(rho_parameter)
   40    0.00000000E+00   # BR(Z -> e mu)
   41    0.00000000E+00   # BR(Z -> e tau)
   42    0.00000000E+00   # BR(Z -> mu tau)
Block FWCOEF Q=  9.11876000E+01  # Wilson coefficients at scale Q
#    id        order  M        value         comment
Block FWCOEF Q=  1.60000000E+02  # Wilson coefficients at scale Q
#    id        order  M        value         comment
     0305 4422   00   0    -1.87773426E-01   # C7
     0305 4422   00   1    -1.52514589E-02   # C7
     0305 4322   00   1    -3.34309562E-04   # C7'
     0305 6421   00   0    -9.48944995E-02   # C8
     0305 6421   00   1    -1.96817634E-02   # C8
     0305 6321   00   1    -4.26297252E-04   # C8'
 03051111 4133   00   0    -9.27665886E-01   # C9 e+e-
 03051111 4133   00   1     7.07490208E-05   # C9 e+e-
 03051111 4233   00   1    -1.15334385E-07   # C9' e+e-
 03051111 4137   00   0    -3.96407360E+00   # C10 e+e-
 03051111 4137   00   1    -2.36929541E-02   # C10 e+e-
 03051111 4237   00   1     2.65417046E-06   # C10' e+e-
 03051313 4133   00   0    -9.27665886E-01   # C9 mu+mu-
 03051313 4133   00   1     7.07478309E-05   # C9 mu+mu-
 03051313 4233   00   1    -1.15334423E-07   # C9' mu+mu-
 03051313 4137   00   0    -3.96407360E+00   # C10 mu+mu-
 03051313 4137   00   1    -2.36929553E-02   # C10 mu+mu-
 03051313 4237   00   1     2.65417050E-06   # C10' mu+mu-
 03051212 4237   00   0     1.49037433E+00   # C11 nu_1 nu_1
 03051212 4237   00   1     5.66663328E-03   # C11 nu_1 nu_1
 03051212 4137   00   1    -6.35384456E-07   # C11' nu_1 nu_1
 03051414 4237   00   0     1.49037433E+00   # C11 nu_2 nu_2
 03051414 4237   00   1     5.66663328E-03   # C11 nu_2 nu_2
 03051414 4137   00   1    -6.35384448E-07   # C11' nu_2 nu_2
 03051616 4237   00   0     1.49037433E+00   # C11 nu_3 nu_3
 03051616 4237   00   1     5.66663366E-03   # C11 nu_3 nu_3
 03051616 4137   00   1    -6.35382056E-07   # C11' nu_3 nu_3
