#
#                              ======================
#                              | THE SUSYHIT OUTPUT |
#                              ======================
#
#
#              ------------------------------------------------------
#              |     This is the output of the SUSY-HIT package     |
#              |  created by A.Djouadi, M.Muehlleitner and M.Spira. |
#              |  In case of problems with SUSY-HIT email to        |
#              |           margarete.muehlleitner@cern.ch           |
#              |           michael.spira@psi.ch                     |
#              |           abdelhak.djouadi@cern.ch                 |
#              ------------------------------------------------------
#
#              ------------------------------------------------------
#              |  SUSY Les Houches Accord - MSSM Spectrum + Decays  |
#              |              based on the decay programs           |
#              |                                                    |
#              |                     SDECAY 1.3b                    |
#              |                                                    |
#              |  Authors: M.Muhlleitner, A.Djouadi and Y.Mambrini  |
#              |  Ref.:    Comput.Phys.Commun.168(2005)46           |
#              |           [hep-ph/0311167]                         |
#              |                                                    |
#              |                     HDECAY 3.4                     |
#              |                                                    |
#              |  By: A.Djouadi,J.Kalinowski,M.Muhlleitner,M.Spira  |
#              |  Ref.:    Comput.Phys.Commun.108(1998)56           |
#              |           [hep-ph/9704448]                         |
#              |                                                    |
#              |                                                    |
#              |  If not stated otherwise all DRbar couplings and   |
#              |  soft SUSY breaking masses are given at the scale  |
#              |  Q=  0.91187600E+02
#              |                                                    |
#              ------------------------------------------------------
#
#
BLOCK DCINFO  # Decay Program information
     1   SDECAY/HDECAY # decay calculator
     2   1.3b  /3.4    # version number
#
BLOCK SPINFO  # Spectrum calculator information
     1   SuSpect     # RGE +Spectrum calculator            
     2   2.41         # version number                     
#
BLOCK MODSEL  # Model selection
     1     0   # #general MSSM low scale                           
#
BLOCK SMINPUTS  # Standard Model inputs
         1     1.27934000E+02   # alpha_em^-1(M_Z)^MSbar
         2     1.16639000E-05   # G_F [GeV^-2]
         3     1.17200000E-01   # alpha_S(M_Z)^MSbar
         4     9.11870000E+01   # M_Z pole mass
         5     4.25000000E+00   # mb(mb)^MSbar
         6     1.72500000E+02   # mt pole mass
         7     1.77700000E+00   # mtau pole mass
#
BLOCK MINPAR  # Input parameters - minimal models
#
BLOCK EXTPAR  # Input parameters - non-minimal models
         0     9.11876000E+01   # EWSB                
         1     1.80000000E+03   # M_1                 
         2     1.00000000E+05   # M_2                 
         3     1.00000000E+05   # M_3                 
        11     0.00000000E+00   # A_t                 
        12     0.00000000E+00   # A_b                 
        13     0.00000000E+00   # A_tau               
        14     0.00000000E+00   # A_u                 
        15     0.00000000E+00   # A_d                 
        16     0.00000000E+00   # A_e                 
        23     3.50000000E+03   # mu(EWSB)            
        25     1.50000000E+00   # tanbeta(in)         
        26     2.00000000E+03   # MA_pole             
        31     1.00000000E+05   # M_eL                
        32     1.00000000E+05   # M_muL               
        33     1.00000000E+05   # M_tauL              
        34     1.00000000E+05   # M_eR                
        35     1.00000000E+05   # M_muR               
        36     1.00000000E+05   # M_tauR              
        41     2.00000000E+03   # M_q1L               
        42     2.00000000E+03   # M_q2L               
        43     2.00000000E+03   # M_q3L               
        44     1.00000000E+05   # M_uR                
        45     1.00000000E+05   # M_cR                
        46     1.00000000E+05   # M_tR                
        47     2.00000000E+03   # M_dR                
        48     2.00000000E+03   # M_sR                
        49     2.00000000E+03   # M_bR                
#
BLOCK MASS  # Mass Spectrum
# PDG code           mass       particle
        24     8.05845674E+01   # W+
        25     1.25000000E+02   # h
        35     2.00405223E+03   # H
        36     2.00000000E+03   # A
        37     2.02368676E+03   # H+
         5     4.87877839E+00   # b-quark pole mass calculated from mb(mb)_Msbar
   1000001     2.00033154E+03   # ~d_L
   2000001     2.00006397E+03   # ~d_R
   1000002     1.99973239E+03   # ~u_L
   2000002     9.99999974E+04   # ~u_R
   1000003     2.00033154E+03   # ~s_L
   2000003     2.00006397E+03   # ~s_R
   1000004     1.99973239E+03   # ~c_L
   2000004     9.99999974E+04   # ~c_R
   1000005     1.99679886E+03   # ~b_1
   2000005     2.00359423E+03   # ~b_2
   1000006     2.00516121E+03   # ~t_1
   2000006     1.00000106E+05   # ~t_2
   1000011     1.00000004E+05   # ~e_L
   2000011     1.00000004E+05   # ~e_R
   1000012     9.99999921E+04   # ~nu_eL
   1000013     1.00000004E+05   # ~mu_L
   2000013     1.00000004E+05   # ~mu_R
   1000014     9.99999921E+04   # ~nu_muL
   1000015     9.99999574E+04   # ~tau_1
   2000015     1.00000051E+05   # ~tau_2
   1000016     9.99999921E+04   # ~nu_tauL
   1000021     1.00000000E+05   # ~g
   1000022     1.79888621E+03   # ~chi_10
   1000023    -3.50001680E+03   # ~chi_20
   1000025     3.50106619E+03   # ~chi_30
   1000035     1.00000064E+05   # ~chi_40
   1000024     3.49994023E+03   # ~chi_1+
   1000037     1.00000064E+05   # ~chi_2+
   1000039     1.00000000E-09   # ~gravitino
#
BLOCK NMIX  # Neutralino Mixing Matrix
  1  1     9.99667157E-01   # N_11
  1  2    -2.00329899E-05   # N_12
  1  3     1.93738391E-02   # N_13
  1  4    -1.70360871E-02   # N_14
  2  1     1.65327634E-03   # N_21
  2  2    -1.49584057E-04   # N_22
  2  3    -7.07097321E-01   # N_23
  2  4    -7.07114293E-01   # N_24
  3  1     2.57456984E-02   # N_31
  3  2     8.01874509E-04   # N_32
  3  3    -7.06850635E-01   # N_33
  3  4     7.06893695E-01   # N_34
  4  1     3.71193601E-07   # N_41
  4  2    -9.99999667E-01   # N_42
  4  3    -4.61423289E-04   # N_43
  4  4     6.72954568E-04   # N_44
#
BLOCK UMIX  # Chargino Mixing Matrix U
  1  1    -6.52550866E-04   # U_11
  1  2     9.99999787E-01   # U_12
  2  1     9.99999787E-01   # U_21
  2  2     6.52550866E-04   # U_22
#
BLOCK VMIX  # Chargino Mixing Matrix V
  1  1    -9.51701385E-04   # V_11
  1  2     9.99999547E-01   # V_12
  2  1     9.99999547E-01   # V_21
  2  2     9.51701385E-04   # V_22
#
BLOCK STOPMIX  # Stop Mixing Matrix
  1  1     9.99999999E-01   # cos(theta_t)
  1  2     4.47213589E-05   # sin(theta_t)
  2  1    -4.47213589E-05   # -sin(theta_t)
  2  2     9.99999999E-01   # cos(theta_t)
#
BLOCK SBOTMIX  # Sbottom Mixing Matrix
  1  1     6.93045985E-01   # cos(theta_b)
  1  2     7.20893378E-01   # sin(theta_b)
  2  1    -7.20893378E-01   # -sin(theta_b)
  2  2     6.93045985E-01   # cos(theta_b)
#
BLOCK STAUMIX  # Stau Mixing Matrix
  1  1     7.06218497E-01   # cos(theta_tau)
  1  2     7.07993951E-01   # sin(theta_tau)
  2  1    -7.07993951E-01   # -sin(theta_tau)
  2  2     7.06218497E-01   # cos(theta_tau)
#
BLOCK ALPHA  # Higgs mixing
          -5.90340943E-01   # Mixing angle in the neutral Higgs boson sector
#
BLOCK HMIX Q=  9.11876000E+01  # DRbar Higgs Parameters
         1     3.50000000E+03   # mu(Q)               
         2     1.49999982E+00   # tanbeta(Q)          
         3     2.54889325E+02   # vev(Q)              
         4    -6.81299149E+07   # MA^2(Q)             
#
BLOCK GAUGE Q=  9.11876000E+01  # The gauge couplings
     1     3.50560056E-01   # gprime(Q) DRbar
     2     6.19391816E-01   # g(Q) DRbar
     3     1.02218809E+00   # g3(Q) DRbar
#
BLOCK AU Q=  9.11876000E+01  # The trilinear couplings
  1  1     0.00000000E+00   # A_u(Q) DRbar
  2  2     0.00000000E+00   # A_c(Q) DRbar
  3  3     0.00000000E+00   # A_t(Q) DRbar
#
BLOCK AD Q=  9.11876000E+01  # The trilinear couplings
  1  1     0.00000000E+00   # A_d(Q) DRbar
  2  2     0.00000000E+00   # A_s(Q) DRbar
  3  3     0.00000000E+00   # A_b(Q) DRbar
#
BLOCK AE Q=  9.11876000E+01  # The trilinear couplings
  1  1     0.00000000E+00   # A_e(Q) DRbar
  2  2     0.00000000E+00   # A_mu(Q) DRbar
  3  3     0.00000000E+00   # A_tau(Q) DRbar
#
BLOCK Yu Q=  9.11876000E+01  # The Yukawa couplings
  1  1     0.00000000E+00   # y_u(Q) DRbar
  2  2     0.00000000E+00   # y_c(Q) DRbar
  3  3     9.83513889E-01   # y_t(Q) DRbar
#
BLOCK Yd Q=  9.11876000E+01  # The Yukawa couplings
  1  1     0.00000000E+00   # y_d(Q) DRbar
  2  2     0.00000000E+00   # y_s(Q) DRbar
  3  3     2.58758549E-02   # y_b(Q) DRbar
#
BLOCK Ye Q=  9.11876000E+01  # The Yukawa couplings
  1  1     0.00000000E+00   # y_e(Q) DRbar
  2  2     0.00000000E+00   # y_mu(Q) DRbar
  3  3     1.77389395E-02   # y_tau(Q) DRbar
#
BLOCK MSOFT Q=  9.11876000E+01  # The soft SUSY breaking masses at the scale Q
         1     1.80000000E+03   # M_1                 
         2     1.00000000E+05   # M_2                 
         3     1.00000000E+05   # M_3                 
        14     0.00000000E+00   # A_u                 
        15     0.00000000E+00   # A_d                 
        16     0.00000000E+00   # A_e                 
        21     6.30067697E+08   # M^2_Hd              
        22    -1.15029076E+09   # M^2_Hu              
        31     1.00000000E+05   # M_eL                
        32     1.00000000E+05   # M_muL               
        33     1.00000000E+05   # M_tauL              
        34     1.00000000E+05   # M_eR                
        35     1.00000000E+05   # M_muR               
        36     1.00000000E+05   # M_tauR              
        41     2.00000000E+03   # M_q1L               
        42     2.00000000E+03   # M_q2L               
        43     2.00000000E+03   # M_q3L               
        44     1.00000000E+05   # M_uR                
        45     1.00000000E+05   # M_cR                
        46     1.00000000E+05   # M_tR                
        47     2.00000000E+03   # M_dR                
        48     2.00000000E+03   # M_sR                
        49     2.00000000E+03   # M_bR                
#
#
#
#                             =================
#                             |The decay table|
#                             =================
#
# - The QCD corrections to the decays gluino -> squark  + quark
#                                     squark -> gaugino + quark_prime
#                                     squark -> squark_prime + Higgs
#                                     squark -> gluino  + quark
#   are included.
#
# - The multi-body decays for the inos, stops and sbottoms are included.
#
# - The loop induced decays for the gluino, neutralinos and stops
#   are included.
#
# - The SUSY decays of the top quark are included.
#
# - Possible decays of the NLSP in GMSB models are included.
#
#
#         PDG            Width
DECAY         6     1.32407727E+00   # top decays
#          BR         NDA      ID1       ID2
     1.00000000E+00    2           5        24   # BR(t ->  b    W+)
#
#         PDG            Width
DECAY   1000021     1.E-04   # gluino decays (OJ Mods)
#          BR         NDA      ID1       ID2
    -1.04549658E-03    2     1000001        -1   # BR(~g -> ~d_L  db)
    -1.04549658E-03    2    -1000001         1   # BR(~g -> ~d_L* d )
    -1.04549681E-03    2     2000001        -1   # BR(~g -> ~d_R  db)
    -1.04549681E-03    2    -2000001         1   # BR(~g -> ~d_R* d )
    -1.04549709E-03    2     1000002        -2   # BR(~g -> ~u_L  ub)
    -1.04549709E-03    2    -1000002         2   # BR(~g -> ~u_L* u )
    -2.82928643E-18    2     2000002        -2   # BR(~g -> ~u_R  ub)
    -2.82928643E-18    2    -2000002         2   # BR(~g -> ~u_R* u )
    -1.04549658E-03    2     1000003        -3   # BR(~g -> ~s_L  sb)
    -1.04549658E-03    2    -1000003         3   # BR(~g -> ~s_L* s )
    -1.04549681E-03    2     2000003        -3   # BR(~g -> ~s_R  sb)
    -1.04549681E-03    2    -2000003         3   # BR(~g -> ~s_R* s )
    -1.04549709E-03    2     1000004        -4   # BR(~g -> ~c_L  cb)
    -1.04549709E-03    2    -1000004         4   # BR(~g -> ~c_L* c )
    -2.82928643E-18    2     2000004        -4   # BR(~g -> ~c_R  cb)
    -2.82928643E-18    2    -2000004         4   # BR(~g -> ~c_R* c )
     2.60894010E-01    2     1000005        -5   # BR(~g -> ~b_1  bb)
     2.60894010E-01    2    -1000005         5   # BR(~g -> ~b_1* b )
     2.61094210E-01    2     2000005        -5   # BR(~g -> ~b_2  bb)
     2.61094210E-01    2    -2000005         5   # BR(~g -> ~b_2* b )
    -1.02899872E-03    2     1000006        -6   # BR(~g -> ~t_1  tb)
    -1.02899872E-03    2    -1000006         6   # BR(~g -> ~t_1* t )
    -2.93724819E-02    2     1000039        21   # BR(~g -> ~G g)
#
#         PDG            Width
DECAY   1000006     8.71102202E-03   # stop1 decays
#          BR         NDA      ID1       ID2
     1.00000000E+00    2     1000022         6   # BR(~t_1 -> ~chi_10 t )
#
#         PDG            Width
DECAY   2000006    -1.89030503E+05   # stop2 decays
#          BR         NDA      ID1       ID2
    -1.10319760E-03    2     1000022         6   # BR(~t_2 -> ~chi_10 t )
    -2.65393921E-03    2     1000023         6   # BR(~t_2 -> ~chi_20 t )
    -2.65294153E-03    2     1000025         6   # BR(~t_2 -> ~chi_30 t )
     1.00632030E+00    2     1000024         5   # BR(~t_2 -> ~chi_1+ b )
     7.15894176E-05    2     1000006        25   # BR(~t_2 -> ~t_1    h )
    -7.49956267E-05    2     1000006        35   # BR(~t_2 -> ~t_1    H )
    -7.48621794E-05    2     1000006        36   # BR(~t_2 -> ~t_1    A )
    -7.05297979E-05    2     1000005        37   # BR(~t_2 -> ~b_1    H+)
    -7.91919204E-05    2     2000005        37   # BR(~t_2 -> ~b_2    H+)
     5.08835186E-05    2     1000006        23   # BR(~t_2 -> ~t_1    Z )
     1.28192027E-04    2     1000005        24   # BR(~t_2 -> ~b_1    W+)
     1.38695147E-04    2     2000005        24   # BR(~t_2 -> ~b_2    W+)
#
#         PDG            Width
DECAY   1000005    -2.35662454E+00   # sbottom1 decays
#          BR         NDA      ID1       ID2
     1.00000000E+00    2     1000022         5   # BR(~b_1 -> ~chi_10 b )
#
#         PDG            Width
DECAY   2000005    -2.46372876E+00   # sbottom2 decays
#          BR         NDA      ID1       ID2
     1.00000000E+00    2     1000022         5   # BR(~b_2 -> ~chi_10 b )
#
#         PDG            Width
DECAY   1000002     1.52121136E-02   # sup_L decays
#          BR         NDA      ID1       ID2
     1.00000000E+00    2     1000022         2   # BR(~u_L -> ~chi_10 u)
#
#         PDG            Width
DECAY   2000002     2.08379898E+02   # sup_R decays
#          BR         NDA      ID1       ID2
     9.99335099E-01    2     1000022         2   # BR(~u_R -> ~chi_10 u)
     2.73056199E-06    2     1000023         2   # BR(~u_R -> ~chi_20 u)
     6.62170897E-04    2     1000025         2   # BR(~u_R -> ~chi_30 u)
#
#         PDG            Width
DECAY   1000001     1.52901611E-02   # sdown_L decays
#          BR         NDA      ID1       ID2
     1.00000000E+00    2     1000022         1   # BR(~d_L -> ~chi_10 d)
#
#         PDG            Width
DECAY   2000001     6.10197505E-02   # sdown_R decays
#          BR         NDA      ID1       ID2
     1.00000000E+00    2     1000022         1   # BR(~d_R -> ~chi_10 d)
#
#         PDG            Width
DECAY   1000004     1.52121136E-02   # scharm_L decays
#          BR         NDA      ID1       ID2
     1.00000000E+00    2     1000022         4   # BR(~c_L -> ~chi_10 c)
#
#         PDG            Width
DECAY   2000004     2.08379898E+02   # scharm_R decays
#          BR         NDA      ID1       ID2
     9.99335099E-01    2     1000022         4   # BR(~c_R -> ~chi_10 c)
     2.73056199E-06    2     1000023         4   # BR(~c_R -> ~chi_20 c)
     6.62170897E-04    2     1000025         4   # BR(~c_R -> ~chi_30 c)
#
#         PDG            Width
DECAY   1000003     1.52901611E-02   # sstrange_L decays
#          BR         NDA      ID1       ID2
     1.00000000E+00    2     1000022         3   # BR(~s_L -> ~chi_10 s)
#
#         PDG            Width
DECAY   2000003     6.10197505E-02   # sstrange_R decays
#          BR         NDA      ID1       ID2
     1.00000000E+00    2     1000022         3   # BR(~s_R -> ~chi_10 s)
#
#         PDG            Width
DECAY   1000011     1.22164761E+02   # selectron_L decays
#          BR         NDA      ID1       ID2
     9.99258953E-01    2     1000022        11   # BR(~e_L -> ~chi_10 e-)
     1.92578343E-06    2     1000023        11   # BR(~e_L -> ~chi_20 e-)
     7.36466969E-04    2     1000025        11   # BR(~e_L -> ~chi_30 e-)
     2.65386753E-06    2    -1000024        12   # BR(~e_L -> ~chi_1- nu_e)
#
#         PDG            Width
DECAY   2000011     4.88656157E+02   # selectron_R decays
#          BR         NDA      ID1       ID2
     9.99335626E-01    2     1000022        11   # BR(~e_R -> ~chi_10 e-)
     2.72839886E-06    2     1000023        11   # BR(~e_R -> ~chi_20 e-)
     6.61645974E-04    2     1000025        11   # BR(~e_R -> ~chi_30 e-)
#
#         PDG            Width
DECAY   1000013     1.22164761E+02   # smuon_L decays
#          BR         NDA      ID1       ID2
     9.99258953E-01    2     1000022        13   # BR(~mu_L -> ~chi_10 mu-)
     1.92578343E-06    2     1000023        13   # BR(~mu_L -> ~chi_20 mu-)
     7.36466969E-04    2     1000025        13   # BR(~mu_L -> ~chi_30 mu-)
     2.65386753E-06    2    -1000024        14   # BR(~mu_L -> ~chi_1- nu_mu)
#
#         PDG            Width
DECAY   2000013     4.88656157E+02   # smuon_R decays
#          BR         NDA      ID1       ID2
     9.99335626E-01    2     1000022        13   # BR(~mu_R -> ~chi_10 mu-)
     2.72839886E-06    2     1000023        13   # BR(~mu_R -> ~chi_20 mu-)
     6.61645974E-04    2     1000025        13   # BR(~mu_R -> ~chi_30 mu-)
#
#         PDG            Width
DECAY   1000015     1.18197496E+04   # stau_1 decays
#          BR         NDA      ID1       ID2
     2.58746809E-02    2     1000022        15   # BR(~tau_1 -> ~chi_10  tau-)
     2.54816575E-05    2     1000023        15   # BR(~tau_1 -> ~chi_20  tau-)
     3.12090744E-05    2     1000025        15   # BR(~tau_1 -> ~chi_30  tau-)
     2.77007532E-05    2    -1000024        16   # BR(~tau_1 -> ~chi_1-  nu_tau)
     9.74040928E-01    2     1000039        15   # BR(~tau_1 -> ~G       tau-)
#
#         PDG            Width
DECAY   2000015     3.05864632E+02   # stau_2 decays
#          BR         NDA      ID1       ID2
     9.95780244E-01    2     1000022        15   # BR(~tau_2 -> ~chi_10  tau-)
     1.06206529E-03    2     1000023        15   # BR(~tau_2 -> ~chi_20  tau-)
     2.18539398E-03    2     1000025        15   # BR(~tau_2 -> ~chi_30  tau-)
     9.72297002E-04    2    -1000024        16   # BR(~tau_2 -> ~chi_1-  nu_tau)
#
#         PDG            Width
DECAY   1000012     1.22164823E+02   # snu_eL decays
#          BR         NDA      ID1       ID2
     9.99399861E-01    2     1000022        12   # BR(~nu_eL -> ~chi_10 nu_e)
     3.67043056E-06    2     1000023        12   # BR(~nu_eL -> ~chi_20 nu_e)
     5.90824186E-04    2     1000025        12   # BR(~nu_eL -> ~chi_30 nu_e)
     5.64483991E-06    2     1000024        11   # BR(~nu_eL -> ~chi_1+ e-)
#
#         PDG            Width
DECAY   1000014     1.22164823E+02   # snu_muL decays
#          BR         NDA      ID1       ID2
     9.99399861E-01    2     1000022        14   # BR(~nu_muL -> ~chi_10 nu_mu)
     3.67043056E-06    2     1000023        14   # BR(~nu_muL -> ~chi_20 nu_mu)
     5.90824186E-04    2     1000025        14   # BR(~nu_muL -> ~chi_30 nu_mu)
     5.64483991E-06    2     1000024        13   # BR(~nu_muL -> ~chi_1+ mu-)
#
#         PDG            Width
DECAY   1000016     1.22789306E+02   # snu_tauL decays
#          BR         NDA      ID1       ID2
     9.94317104E-01    2     1000022        16   # BR(~nu_tauL -> ~chi_10 nu_tau)
     3.65176345E-06    2     1000023        16   # BR(~nu_tauL -> ~chi_20 nu_tau)
     5.87819367E-04    2     1000025        16   # BR(~nu_tauL -> ~chi_30 nu_tau)
     5.09142472E-03    2     1000024        15   # BR(~nu_tauL -> ~chi_1+ tau-)
#
#         PDG            Width
DECAY   1000024     3.98897001E+01   # chargino1+ decays
#          BR         NDA      ID1       ID2
     4.97859091E-07    2     1000002        -1   # BR(~chi_1+ -> ~u_L     db)
     2.33935117E-07    2    -1000001         2   # BR(~chi_1+ -> ~d_L*    u )
     4.97859091E-07    2     1000004        -3   # BR(~chi_1+ -> ~c_L     sb)
     2.33935117E-07    2    -1000003         4   # BR(~chi_1+ -> ~s_L*    c )
    -7.70272791E-02    2     1000006        -5   # BR(~chi_1+ -> ~t_1     bb)
     1.08962311E-01    2    -1000005         6   # BR(~chi_1+ -> ~b_1*    t )
     8.84563583E-01    2    -2000005         6   # BR(~chi_1+ -> ~b_2*    t )
     8.34908702E-02    2     1000022        24   # BR(~chi_1+ -> ~chi_10  W+)
     7.56329757E-06    2     1000039        24   # BR(~chi_1+ -> ~G       W+)
     1.48816359E-06    2     1000039        37   # BR(~chi_1+ -> ~G       H+)
#
#         PDG            Width
DECAY   1000037    -1.05492996E+05   # chargino2+ decays
#          BR         NDA      ID1       ID2
    -1.16799322E-02    2     1000002        -1   # BR(~chi_2+ -> ~u_L     db)
    -1.16799352E-02    2    -1000001         2   # BR(~chi_2+ -> ~d_L*    u )
    -1.16799322E-02    2     1000004        -3   # BR(~chi_2+ -> ~c_L     sb)
    -1.16799352E-02    2    -1000003         4   # BR(~chi_2+ -> ~s_L*    c )
     1.19889752E+00    2     1000006        -5   # BR(~chi_2+ -> ~t_1     bb)
    -2.57981724E-03    2    -1000005         6   # BR(~chi_2+ -> ~b_1*    t )
    -1.10552051E-02    2    -2000005         6   # BR(~chi_2+ -> ~b_2*    t )
    -8.39676929E-15    2     1000012       -11   # BR(~chi_2+ -> ~nu_eL   e+  )
    -8.39676929E-15    2     1000014       -13   # BR(~chi_2+ -> ~nu_muL  mu+ )
    -5.84732457E-15    2    -1000011        12   # BR(~chi_2+ -> ~e_L+    nu_e)
    -5.84732457E-15    2    -1000013        14   # BR(~chi_2+ -> ~mu_L+   nu_mu)
    -9.20514873E-15    2    -1000015        16   # BR(~chi_2+ -> ~tau_1+  nu_tau)
    -1.37599512E-16    2    -2000015        16   # BR(~chi_2+ -> ~tau_2+  nu_tau)
    -2.13852734E-03    2     1000024        23   # BR(~chi_2+ -> ~chi_1+  Z )
    -1.22742888E-06    2     1000022        24   # BR(~chi_2+ -> ~chi_10  W+)
    -2.07394824E-03    2     1000023        24   # BR(~chi_2+ -> ~chi_20  W+)
    -2.07269915E-03    2     1000025        24   # BR(~chi_2+ -> ~chi_30  W+)
    -2.16159186E-03    2     1000024        25   # BR(~chi_2+ -> ~chi_1+  h )
    -1.89746155E-03    2     1000024        35   # BR(~chi_2+ -> ~chi_1+  H )
    -1.89771741E-03    2     1000024        36   # BR(~chi_2+ -> ~chi_1+  A )
    -1.32950450E-06    2     1000022        37   # BR(~chi_2+ -> ~chi_10  H+)
    -1.89765725E-03    2     1000023        37   # BR(~chi_2+ -> ~chi_20  H+)
    -1.89637814E-03    2     1000025        37   # BR(~chi_2+ -> ~chi_30  H+)
    -1.22504191E-01    2     1000039        24   # BR(~chi_2+ -> ~G       W+)
    -3.50699417E-08    2     1000039        37   # BR(~chi_2+ -> ~G       H+)
#
#         PDG            Width
DECAY   1000022     1.E-08   # neutralino1 decays (OJ Mods)
#          BR         NDA      ID1       ID2
     7.59018669E-01    2     1000039        22   # BR(~chi_10 -> ~G        gam)
     2.40975751E-01    2     1000039        23   # BR(~chi_10 -> ~G        Z)
     5.58012942E-06    2     1000039        25   # BR(~chi_10 -> ~G        h)
#
#         PDG            Width
DECAY   1000023     1.E-08   # neutralino2 decays (OJ Mods)
#          BR         NDA      ID1       ID2
     9.29903685E-02    2     1000022        23   # BR(~chi_20 -> ~chi_10   Z )
     3.76952835E-04    2     1000022        25   # BR(~chi_20 -> ~chi_10   h )
     9.20418358E-09    2     1000002        -2   # BR(~chi_20 -> ~u_L      ub)
     9.20418358E-09    2    -1000002         2   # BR(~chi_20 -> ~u_L*     u )
     7.43589848E-08    2     1000001        -1   # BR(~chi_20 -> ~d_L      db)
     7.43589848E-08    2    -1000001         1   # BR(~chi_20 -> ~d_L*     d )
     1.35899099E-07    2     2000001        -1   # BR(~chi_20 -> ~d_R      db)
     1.35899099E-07    2    -2000001         1   # BR(~chi_20 -> ~d_R*     d )
     9.20418358E-09    2     1000004        -4   # BR(~chi_20 -> ~c_L      cb)
     9.20418358E-09    2    -1000004         4   # BR(~chi_20 -> ~c_L*     c )
     7.43589848E-08    2     1000003        -3   # BR(~chi_20 -> ~s_L      sb)
     7.43589848E-08    2    -1000003         3   # BR(~chi_20 -> ~s_L*     s )
     1.35899099E-07    2     2000003        -3   # BR(~chi_20 -> ~s_R      sb)
     1.35899099E-07    2    -2000003         3   # BR(~chi_20 -> ~s_R*     s )
     5.37895322E-01    2     1000006        -6   # BR(~chi_20 -> ~t_1      tb)
     5.37895322E-01    2    -1000006         6   # BR(~chi_20 -> ~t_1*     t )
    -4.11741960E-02    2     1000005        -5   # BR(~chi_20 -> ~b_1      bb)
    -4.11741960E-02    2    -1000005         5   # BR(~chi_20 -> ~b_1*     b )
    -4.34101031E-02    2     2000005        -5   # BR(~chi_20 -> ~b_2      bb)
    -4.34101031E-02    2    -2000005         5   # BR(~chi_20 -> ~b_2*     b )
     3.06635976E-11    2     1000039        22   # BR(~chi_20 -> ~G        gam)
     3.15616426E-07    2     1000039        23   # BR(~chi_20 -> ~G        Z)
     7.87763324E-06    2     1000039        25   # BR(~chi_20 -> ~G        h)
     6.30748967E-08    2     1000039        35   # BR(~chi_20 -> ~G        H)
     1.62736356E-06    2     1000039        36   # BR(~chi_20 -> ~G        A)
#
#         PDG            Width
DECAY   1000025     3.66529066E+01   # neutralino3 decays
#          BR         NDA      ID1       ID2
     3.87320601E-04    2     1000022        23   # BR(~chi_30 -> ~chi_10   Z )
     9.42014053E-02    2     1000022        25   # BR(~chi_30 -> ~chi_10   h )
     1.12259662E-05    2     1000002        -2   # BR(~chi_30 -> ~u_L      ub)
     1.12259662E-05    2    -1000002         2   # BR(~chi_30 -> ~u_L*     u )
     5.76172194E-06    2     1000001        -1   # BR(~chi_30 -> ~d_L      db)
     5.76172194E-06    2    -1000001         1   # BR(~chi_30 -> ~d_L*     d )
     3.30702124E-05    2     2000001        -1   # BR(~chi_30 -> ~d_R      db)
     3.30702124E-05    2    -2000001         1   # BR(~chi_30 -> ~d_R*     d )
     1.12259662E-05    2     1000004        -4   # BR(~chi_30 -> ~c_L      cb)
     1.12259662E-05    2    -1000004         4   # BR(~chi_30 -> ~c_L*     c )
     5.76172194E-06    2     1000003        -3   # BR(~chi_30 -> ~s_L      sb)
     5.76172194E-06    2    -1000003         3   # BR(~chi_30 -> ~s_L*     s )
     3.30702124E-05    2     2000003        -3   # BR(~chi_30 -> ~s_R      sb)
     3.30702124E-05    2    -2000003         3   # BR(~chi_30 -> ~s_R*     s )
     5.39885077E-01    2     1000006        -6   # BR(~chi_30 -> ~t_1      tb)
     5.39885077E-01    2    -1000006         6   # BR(~chi_30 -> ~t_1*     t )
    -3.01016232E-02    2     1000005        -5   # BR(~chi_30 -> ~b_1      bb)
    -3.01016232E-02    2    -1000005         5   # BR(~chi_30 -> ~b_1*     b )
    -5.71682805E-02    2     2000005        -5   # BR(~chi_30 -> ~b_2      bb)
    -5.71682805E-02    2    -2000005         5   # BR(~chi_30 -> ~b_2*     b )
     8.58975912E-09    2     1000039        22   # BR(~chi_30 -> ~G        gam)
     7.91917508E-06    2     1000039        23   # BR(~chi_30 -> ~G        Z)
     3.08662759E-07    2     1000039        25   # BR(~chi_30 -> ~G        h)
     1.62363989E-06    2     1000039        35   # BR(~chi_30 -> ~G        H)
     6.53785749E-08    2     1000039        36   # BR(~chi_30 -> ~G        A)
#
#         PDG            Width
DECAY   1000035    -1.05493496E+05   # neutralino4 decays
#          BR         NDA      ID1       ID2
    -2.05338895E-08    2     1000022        23   # BR(~chi_40 -> ~chi_10   Z )
    -2.06665905E-03    2     1000023        23   # BR(~chi_40 -> ~chi_20   Z )
    -7.18380622E-05    2     1000025        23   # BR(~chi_40 -> ~chi_30   Z )
    -2.07392449E-03    2     1000024       -24   # BR(~chi_40 -> ~chi_1+   W-)
    -2.07392449E-03    2    -1000024        24   # BR(~chi_40 -> ~chi_1-   W+)
    -1.25999369E-06    2     1000022        25   # BR(~chi_40 -> ~chi_10   h )
    -9.17392613E-08    2     1000022        35   # BR(~chi_40 -> ~chi_10   H )
    -1.23618531E-06    2     1000022        36   # BR(~chi_40 -> ~chi_10   A )
    -7.09481021E-05    2     1000023        25   # BR(~chi_40 -> ~chi_20   h )
    -1.81589261E-03    2     1000023        35   # BR(~chi_40 -> ~chi_20   H )
    -8.34741336E-05    2     1000023        36   # BR(~chi_40 -> ~chi_20   A )
    -2.08937448E-03    2     1000025        25   # BR(~chi_40 -> ~chi_30   h )
    -8.14647704E-05    2     1000025        35   # BR(~chi_40 -> ~chi_30   H )
    -1.81299696E-03    2     1000025        36   # BR(~chi_40 -> ~chi_30   A )
    -1.89767352E-03    2     1000024       -37   # BR(~chi_40 -> ~chi_1+   H-)
    -1.89767352E-03    2    -1000024        37   # BR(~chi_40 -> ~chi_1-   H+)
    -5.59380189E-03    2     1000002        -2   # BR(~chi_40 -> ~u_L      ub)
    -5.59380189E-03    2    -1000002         2   # BR(~chi_40 -> ~u_L*     u )
    -8.98608216E-23    2     2000002        -2   # BR(~chi_40 -> ~u_R      ub)
    -8.98608216E-23    2    -2000002         2   # BR(~chi_40 -> ~u_R*     u )
    -5.59380376E-03    2     1000001        -1   # BR(~chi_40 -> ~d_L      db)
    -5.59380376E-03    2    -1000001         1   # BR(~chi_40 -> ~d_L*     d )
    -1.09728596E-16    2     2000001        -1   # BR(~chi_40 -> ~d_R      db)
    -1.09728596E-16    2    -2000001         1   # BR(~chi_40 -> ~d_R*     d )
    -5.59380189E-03    2     1000004        -4   # BR(~chi_40 -> ~c_L      cb)
    -5.59380189E-03    2    -1000004         4   # BR(~chi_40 -> ~c_L*     c )
    -8.98608216E-23    2     2000004        -4   # BR(~chi_40 -> ~c_R      cb)
    -8.98608216E-23    2    -2000004         4   # BR(~chi_40 -> ~c_R*     c )
    -5.59380376E-03    2     1000003        -3   # BR(~chi_40 -> ~s_L      sb)
    -5.59380376E-03    2    -1000003         3   # BR(~chi_40 -> ~s_L*     s )
    -1.09728596E-16    2     2000003        -3   # BR(~chi_40 -> ~s_R      sb)
    -1.09728596E-16    2    -2000003         3   # BR(~chi_40 -> ~s_R*     s )
    -6.81747924E-03    2     1000006        -6   # BR(~chi_40 -> ~t_1      tb)
    -6.81747924E-03    2    -1000006         6   # BR(~chi_40 -> ~t_1*     t )
     2.89891565E-01    2     1000005        -5   # BR(~chi_40 -> ~b_1      bb)
     2.89891565E-01    2    -1000005         5   # BR(~chi_40 -> ~b_1*     b )
     3.09556669E-01    2     2000005        -5   # BR(~chi_40 -> ~b_2      bb)
     3.09556669E-01    2    -2000005         5   # BR(~chi_40 -> ~b_2*     b )
    -2.92364479E-15    2     1000011       -11   # BR(~chi_40 -> ~e_L-     e+)
    -2.92364479E-15    2    -1000011        11   # BR(~chi_40 -> ~e_L+     e-)
    -5.16154794E-28    2     2000011       -11   # BR(~chi_40 -> ~e_R-     e+)
    -5.16154794E-28    2    -2000011        11   # BR(~chi_40 -> ~e_R+     e-)
    -2.92364479E-15    2     1000013       -13   # BR(~chi_40 -> ~mu_L-    mu+)
    -2.92364479E-15    2    -1000013        13   # BR(~chi_40 -> ~mu_L+    mu-)
    -5.16154794E-28    2     2000013       -13   # BR(~chi_40 -> ~mu_R-    mu+)
    -5.16154794E-28    2    -2000013        13   # BR(~chi_40 -> ~mu_R+    mu-)
    -4.19836507E-15    2     1000012       -12   # BR(~chi_40 -> ~nu_eL    nu_eb)
    -4.19836507E-15    2    -1000012        12   # BR(~chi_40 -> ~nu_eL*   nu_e )
    -4.19836507E-15    2     1000014       -14   # BR(~chi_40 -> ~nu_muL   nu_mub)
    -4.19836507E-15    2    -1000014        14   # BR(~chi_40 -> ~nu_muL*  nu_mu )
    -4.19836507E-15    2     1000016       -16   # BR(~chi_40 -> ~nu_tau1  nu_taub)
    -4.19836507E-15    2    -1000016        16   # BR(~chi_40 -> ~nu_tau1* nu_tau )
    -2.97208564E-02    2     1000039        22   # BR(~chi_40 -> ~G        gam)
    -9.27826738E-02    2     1000039        23   # BR(~chi_40 -> ~G        Z)
    -5.59412188E-09    2     1000039        25   # BR(~chi_40 -> ~G        h)
    -3.51296249E-08    2     1000039        35   # BR(~chi_40 -> ~G        H)
    -6.92231798E-12    2     1000039        36   # BR(~chi_40 -> ~G        A)
#
#
#
#
