#
#                              ======================
#                              | THE SUSYHIT OUTPUT |
#                              ======================
#
#
#              ------------------------------------------------------
#              |     This is the output of the SUSY-HIT package     |
#              |  created by A.Djouadi, M.Muehlleitner and M.Spira. |
#              |  In case of problems with SUSY-HIT email to        |
#              |           margarete.muehlleitner@cern.ch           |
#              |           michael.spira@psi.ch                     |
#              |           abdelhak.djouadi@cern.ch                 |
#              ------------------------------------------------------
#
#              ------------------------------------------------------
#              |  SUSY Les Houches Accord - MSSM Spectrum + Decays  |
#              |              based on the decay programs           |
#              |                                                    |
#              |                     SDECAY 1.3b                    |
#              |                                                    |
#              |  Authors: M.Muhlleitner, A.Djouadi and Y.Mambrini  |
#              |  Ref.:    Comput.Phys.Commun.168(2005)46           |
#              |           [hep-ph/0311167]                         |
#              |                                                    |
#              |                     HDECAY 3.4                     |
#              |                                                    |
#              |  By: A.Djouadi,J.Kalinowski,M.Muhlleitner,M.Spira  |
#              |  Ref.:    Comput.Phys.Commun.108(1998)56           |
#              |           [hep-ph/9704448]                         |
#              |                                                    |
#              |                                                    |
#              |  If not stated otherwise all DRbar couplings and   |
#              |  soft SUSY breaking masses are given at the scale  |
#              |  Q=  0.91187600E+02
#              |                                                    |
#              ------------------------------------------------------
#
#
BLOCK DCINFO  # Decay Program information
     1   SDECAY/HDECAY # decay calculator
     2   1.3b  /3.4    # version number
#
BLOCK SPINFO  # Spectrum calculator information
     1   SuSpect     # RGE +Spectrum calculator            
     2   2.41         # version number                     
#
BLOCK MODSEL  # Model selection
     1     0   # #general MSSM low scale                           
#
BLOCK SMINPUTS  # Standard Model inputs
         1     1.27934000E+02   # alpha_em^-1(M_Z)^MSbar
         2     1.16639000E-05   # G_F [GeV^-2]
         3     1.17200000E-01   # alpha_S(M_Z)^MSbar
         4     9.11870000E+01   # M_Z pole mass
         5     4.25000000E+00   # mb(mb)^MSbar
         6     1.72500000E+02   # mt pole mass
         7     1.77700000E+00   # mtau pole mass
#
BLOCK MINPAR  # Input parameters - minimal models
#
BLOCK EXTPAR  # Input parameters - non-minimal models
         0     9.11876000E+01   # EWSB                
         1     1.15000000E+03   # M_1                 
         2     1.00000000E+05   # M_2                 
         3     1.00000000E+05   # M_3                 
        11     0.00000000E+00   # A_t                 
        12     0.00000000E+00   # A_b                 
        13     0.00000000E+00   # A_tau               
        14     0.00000000E+00   # A_u                 
        15     0.00000000E+00   # A_d                 
        16     0.00000000E+00   # A_e                 
        23     3.50000000E+03   # mu(EWSB)            
        25     1.50000000E+00   # tanbeta(in)         
        26     2.00000000E+03   # MA_pole             
        31     1.00000000E+05   # M_eL                
        32     1.00000000E+05   # M_muL               
        33     1.00000000E+05   # M_tauL              
        34     1.00000000E+05   # M_eR                
        35     1.00000000E+05   # M_muR               
        36     1.00000000E+05   # M_tauR              
        41     1.20000000E+03   # M_q1L               
        42     1.20000000E+03   # M_q2L               
        43     1.20000000E+03   # M_q3L               
        44     1.00000000E+05   # M_uR                
        45     1.00000000E+05   # M_cR                
        46     1.00000000E+05   # M_tR                
        47     1.20000000E+03   # M_dR                
        48     1.20000000E+03   # M_sR                
        49     1.20000000E+03   # M_bR                
#
BLOCK MASS  # Mass Spectrum
# PDG code           mass       particle
        24     8.05813881E+01   # W+
        25     1.25000000E+02   # h
        35     2.00395673E+03   # H
        36     2.00000000E+03   # A
        37     2.02369741E+03   # H+
         5     4.87877839E+00   # b-quark pole mass calculated from mb(mb)_Msbar
   1000001     1.20055441E+03   # ~d_L
   2000001     1.20010664E+03   # ~d_R
   1000002     1.19955202E+03   # ~u_L
   2000002     9.99999974E+04   # ~u_R
   1000003     1.20055441E+03   # ~s_L
   2000003     1.20010664E+03   # ~s_R
   1000004     1.19955202E+03   # ~c_L
   2000004     9.99999974E+04   # ~c_R
   1000005     1.19466898E+03   # ~b_1
   2000005     1.20597106E+03   # ~b_2
   1000006     1.20857800E+03   # ~t_1
   2000006     1.00000106E+05   # ~t_2
   1000011     1.00000004E+05   # ~e_L
   2000011     1.00000004E+05   # ~e_R
   1000012     9.99999921E+04   # ~nu_eL
   1000013     1.00000004E+05   # ~mu_L
   2000013     1.00000004E+05   # ~mu_R
   1000014     9.99999921E+04   # ~nu_muL
   1000015     9.99999574E+04   # ~tau_1
   2000015     1.00000051E+05   # ~tau_2
   1000016     9.99999921E+04   # ~nu_tauL
   1000021     1.00000000E+05   # ~g
   1000022     1.14919992E+03   # ~chi_10
   1000023    -3.50001884E+03   # ~chi_20
   1000025     3.50075427E+03   # ~chi_30
   1000035     1.00000065E+05   # ~chi_40
   1000024     3.49994000E+03   # ~chi_1+
   1000037     1.00000065E+05   # ~chi_2+
   1000039     1.00000000E-09   # ~gravitino
#
BLOCK NMIX  # Neutralino Mixing Matrix
  1  1     9.99824581E-01   # N_11
  1  2    -1.43243918E-05   # N_12
  1  3     1.45093346E-02   # N_13
  1  4    -1.18442718E-02   # N_14
  2  1     1.88455806E-03   # N_21
  2  2    -1.49872873E-04   # N_22
  2  3    -7.07096003E-01   # N_23
  2  4    -7.07115032E-01   # N_24
  3  1     1.86348114E-02   # N_31
  3  2     8.03540078E-04   # N_32
  3  3    -7.06968534E-01   # N_33
  3  4     7.06999003E-01   # N_34
  4  1     3.69495028E-07   # N_41
  4  2    -9.99999666E-01   # N_42
  4  3    -4.62311034E-04   # N_43
  4  4     6.74249282E-04   # N_44
#
BLOCK UMIX  # Chargino Mixing Matrix U
  1  1    -6.53806326E-04   # U_11
  1  2     9.99999786E-01   # U_12
  2  1     9.99999786E-01   # U_21
  2  2     6.53806326E-04   # U_22
#
BLOCK VMIX  # Chargino Mixing Matrix V
  1  1    -9.53532390E-04   # V_11
  1  2     9.99999545E-01   # V_12
  2  1     9.99999545E-01   # V_21
  2  2     9.53532390E-04   # V_22
#
BLOCK STOPMIX  # Stop Mixing Matrix
  1  1     9.99999999E-01   # cos(theta_t)
  1  2     4.47213589E-05   # sin(theta_t)
  2  1    -4.47213589E-05   # -sin(theta_t)
  2  2     9.99999999E-01   # cos(theta_t)
#
BLOCK SBOTMIX  # Sbottom Mixing Matrix
  1  1     6.92957737E-01   # cos(theta_b)
  1  2     7.20978207E-01   # sin(theta_b)
  2  1    -7.20978207E-01   # -sin(theta_b)
  2  2     6.92957737E-01   # cos(theta_b)
#
BLOCK STAUMIX  # Stau Mixing Matrix
  1  1     7.06134577E-01   # cos(theta_tau)
  1  2     7.08077651E-01   # sin(theta_tau)
  2  1    -7.08077651E-01   # -sin(theta_tau)
  2  2     7.06134577E-01   # cos(theta_tau)
#
BLOCK ALPHA  # Higgs mixing
          -5.90255750E-01   # Mixing angle in the neutral Higgs boson sector
#
BLOCK HMIX Q=  9.11876000E+01  # DRbar Higgs Parameters
         1     3.50000000E+03   # mu(Q)               
         2     1.49999982E+00   # tanbeta(Q)          
         3     2.54872329E+02   # vev(Q)              
         4    -6.83891171E+07   # MA^2(Q)             
#
BLOCK GAUGE Q=  9.11876000E+01  # The gauge couplings
     1     3.50614548E-01   # gprime(Q) DRbar
     2     6.20624848E-01   # g(Q) DRbar
     3     1.02739263E+00   # g3(Q) DRbar
#
BLOCK AU Q=  9.11876000E+01  # The trilinear couplings
  1  1     0.00000000E+00   # A_u(Q) DRbar
  2  2     0.00000000E+00   # A_c(Q) DRbar
  3  3     0.00000000E+00   # A_t(Q) DRbar
#
BLOCK AD Q=  9.11876000E+01  # The trilinear couplings
  1  1     0.00000000E+00   # A_d(Q) DRbar
  2  2     0.00000000E+00   # A_s(Q) DRbar
  3  3     0.00000000E+00   # A_b(Q) DRbar
#
BLOCK AE Q=  9.11876000E+01  # The trilinear couplings
  1  1     0.00000000E+00   # A_e(Q) DRbar
  2  2     0.00000000E+00   # A_mu(Q) DRbar
  3  3     0.00000000E+00   # A_tau(Q) DRbar
#
BLOCK Yu Q=  9.11876000E+01  # The Yukawa couplings
  1  1     0.00000000E+00   # y_u(Q) DRbar
  2  2     0.00000000E+00   # y_c(Q) DRbar
  3  3     9.83441041E-01   # y_t(Q) DRbar
#
BLOCK Yd Q=  9.11876000E+01  # The Yukawa couplings
  1  1     0.00000000E+00   # y_d(Q) DRbar
  2  2     0.00000000E+00   # y_s(Q) DRbar
  3  3     2.58279010E-02   # y_b(Q) DRbar
#
BLOCK Ye Q=  9.11876000E+01  # The Yukawa couplings
  1  1     0.00000000E+00   # y_e(Q) DRbar
  2  2     0.00000000E+00   # y_mu(Q) DRbar
  3  3     1.77389677E-02   # y_tau(Q) DRbar
#
BLOCK MSOFT Q=  9.11876000E+01  # The soft SUSY breaking masses at the scale Q
         1     1.15000000E+03   # M_1                 
         2     1.00000000E+05   # M_2                 
         3     1.00000000E+05   # M_3                 
        14     0.00000000E+00   # A_u                 
        15     0.00000000E+00   # A_d                 
        16     0.00000000E+00   # A_e                 
        21     6.33636896E+08   # M^2_Hd              
        22    -1.14583843E+09   # M^2_Hu              
        31     1.00000000E+05   # M_eL                
        32     1.00000000E+05   # M_muL               
        33     1.00000000E+05   # M_tauL              
        34     1.00000000E+05   # M_eR                
        35     1.00000000E+05   # M_muR               
        36     1.00000000E+05   # M_tauR              
        41     1.20000000E+03   # M_q1L               
        42     1.20000000E+03   # M_q2L               
        43     1.20000000E+03   # M_q3L               
        44     1.00000000E+05   # M_uR                
        45     1.00000000E+05   # M_cR                
        46     1.00000000E+05   # M_tR                
        47     1.20000000E+03   # M_dR                
        48     1.20000000E+03   # M_sR                
        49     1.20000000E+03   # M_bR                
#
#
#
#                             =================
#                             |The decay table|
#                             =================
#
# - The QCD corrections to the decays gluino -> squark  + quark
#                                     squark -> gaugino + quark_prime
#                                     squark -> squark_prime + Higgs
#                                     squark -> gluino  + quark
#   are included.
#
# - The multi-body decays for the inos, stops and sbottoms are included.
#
# - The loop induced decays for the gluino, neutralinos and stops
#   are included.
#
# - The SUSY decays of the top quark are included.
#
# - Possible decays of the NLSP in GMSB models are included.
#
#
#         PDG            Width
DECAY         6     1.32948583E+00   # top decays
#          BR         NDA      ID1       ID2
     1.00000000E+00    2           5        24   # BR(t ->  b    W+)
#
#         PDG            Width
DECAY   1000021     1.E-04   # gluino decays (OJ Mods)
#          BR         NDA      ID1       ID2
     7.10501543E-04    2     1000001        -1   # BR(~g -> ~d_L  db)
     7.10501543E-04    2    -1000001         1   # BR(~g -> ~d_L* d )
     7.10501696E-04    2     2000001        -1   # BR(~g -> ~d_R  db)
     7.10501696E-04    2    -2000001         1   # BR(~g -> ~d_R* d )
     7.10501885E-04    2     1000002        -2   # BR(~g -> ~u_L  ub)
     7.10501885E-04    2    -1000002         2   # BR(~g -> ~u_L* u )
     1.92175006E-18    2     2000002        -2   # BR(~g -> ~u_R  ub)
     1.92175006E-18    2    -2000002         2   # BR(~g -> ~u_R* u )
     7.10501543E-04    2     1000003        -3   # BR(~g -> ~s_L  sb)
     7.10501543E-04    2    -1000003         3   # BR(~g -> ~s_L* s )
     7.10501696E-04    2     2000003        -3   # BR(~g -> ~s_R  sb)
     7.10501696E-04    2    -2000003         3   # BR(~g -> ~s_R* s )
     7.10501885E-04    2     1000004        -4   # BR(~g -> ~c_L  cb)
     7.10501885E-04    2    -1000004         4   # BR(~g -> ~c_L* c )
     1.92175006E-18    2     2000004        -4   # BR(~g -> ~c_R  cb)
     1.92175006E-18    2    -2000004         4   # BR(~g -> ~c_R* c )
     2.44390357E-01    2     1000005        -5   # BR(~g -> ~b_1  bb)
     2.44390357E-01    2    -1000005         5   # BR(~g -> ~b_1* b )
     2.40712980E-01    2     2000005        -5   # BR(~g -> ~b_2  bb)
     2.40712980E-01    2    -2000005         5   # BR(~g -> ~b_2* b )
     6.99185048E-04    2     1000006        -6   # BR(~g -> ~t_1  tb)
     6.99185048E-04    2    -1000006         6   # BR(~g -> ~t_1* t )
     1.98689358E-02    2     1000039        21   # BR(~g -> ~G g)
#
#         PDG            Width
DECAY   1000006     1.71997386E-04   # stop1 decays
#          BR         NDA      ID1       ID2
     9.89306276E-01    2     1000022         4   # BR(~t_1 -> ~chi_10 c )
     7.62725124E-03    2     1000022         2   # BR(~t_1 -> ~chi_10 u )
#           BR         NDA      ID1       ID2       ID3
     1.03070985E-03    3     1000005        -1         2   # BR(~t_1 -> ~b_1     db u)
     2.57418262E-07    3     2000005        -1         2   # BR(~t_1 -> ~b_2     db u)
     1.03070985E-03    3     1000005        -3         4   # BR(~t_1 -> ~b_1     sb c)
     2.57418262E-07    3     2000005        -3         4   # BR(~t_1 -> ~b_2     sb c)
     3.17219911E-04    3     1000005       -15        16   # BR(~t_1 -> ~b_1     tau+ nu_tau)
     6.82817345E-09    3     2000005       -15        16   # BR(~t_1 -> ~b_2     tau+ nu_tau)
     3.43569950E-04    3     1000005       -11        12   # BR(~t_1 -> ~b_1     e+   nu_e)
     8.58060873E-08    3     2000005       -11        12   # BR(~t_1 -> ~b_2     e+   nu_e)
     3.43569950E-04    3     1000005       -13        14   # BR(~t_1 -> ~b_1     mu+  nu_mu)
     8.58060873E-08    3     2000005       -13        14   # BR(~t_1 -> ~b_2     mu+  nu_mu)
#
#         PDG            Width
DECAY   2000006     2.08650831E+05   # stop2 decays
#          BR         NDA      ID1       ID2
     9.99220175E-04    2     1000022         6   # BR(~t_2 -> ~chi_10 t )
     2.38235389E-03    2     1000023         6   # BR(~t_2 -> ~chi_20 t )
     2.38186744E-03    2     1000025         6   # BR(~t_2 -> ~chi_30 t )
     9.94320513E-01    2     1000024         5   # BR(~t_2 -> ~chi_1+ b )
    -6.55406238E-05    2     1000006        25   # BR(~t_2 -> ~t_1    h )
     6.86005471E-05    2     1000006        35   # BR(~t_2 -> ~t_1    H )
     6.84826801E-05    2     1000006        36   # BR(~t_2 -> ~t_1    A )
     6.44963380E-05    2     1000005        37   # BR(~t_2 -> ~b_1    H+)
     7.24667570E-05    2     2000005        37   # BR(~t_2 -> ~b_2    H+)
    -4.69913718E-05    2     1000006        23   # BR(~t_2 -> ~t_1    Z )
    -1.17873946E-04    2     1000005        24   # BR(~t_2 -> ~b_1    W+)
    -1.27594484E-04    2     2000005        24   # BR(~t_2 -> ~b_2    W+)
#
#         PDG            Width
DECAY   1000005     3.24548790E-01   # sbottom1 decays
#          BR         NDA      ID1       ID2
     1.00000000E+00    2     1000022         5   # BR(~b_1 -> ~chi_10 b )
#
#         PDG            Width
DECAY   2000005     5.30567537E-01   # sbottom2 decays
#          BR         NDA      ID1       ID2
     1.00000000E+00    2     1000022         5   # BR(~b_2 -> ~chi_10 b )
#
#         PDG            Width
DECAY   1000002     2.31195369E-03   # sup_L decays
#          BR         NDA      ID1       ID2
     1.00000000E+00    2     1000022         2   # BR(~u_L -> ~chi_10 u)
#
#         PDG            Width
DECAY   2000002     2.08381319E+02   # sup_R decays
#          BR         NDA      ID1       ID2
     9.99649588E-01    2     1000022         2   # BR(~u_R -> ~chi_10 u)
     3.54755058E-06    2     1000023         2   # BR(~u_R -> ~chi_20 u)
     3.46864036E-04    2     1000025         2   # BR(~u_R -> ~chi_30 u)
#
#         PDG            Width
DECAY   1000001     2.38253897E-03   # sdown_L decays
#          BR         NDA      ID1       ID2
     1.00000000E+00    2     1000022         1   # BR(~d_L -> ~chi_10 d)
#
#         PDG            Width
DECAY   2000001     9.40344770E-03   # sdown_R decays
#          BR         NDA      ID1       ID2
     1.00000000E+00    2     1000022         1   # BR(~d_R -> ~chi_10 d)
#
#         PDG            Width
DECAY   1000004     2.31195369E-03   # scharm_L decays
#          BR         NDA      ID1       ID2
     1.00000000E+00    2     1000022         4   # BR(~c_L -> ~chi_10 c)
#
#         PDG            Width
DECAY   2000004     2.08381319E+02   # scharm_R decays
#          BR         NDA      ID1       ID2
     9.99649588E-01    2     1000022         4   # BR(~c_R -> ~chi_10 c)
     3.54755058E-06    2     1000023         4   # BR(~c_R -> ~chi_20 c)
     3.46864036E-04    2     1000025         4   # BR(~c_R -> ~chi_30 c)
#
#         PDG            Width
DECAY   1000003     2.38253897E-03   # sstrange_L decays
#          BR         NDA      ID1       ID2
     1.00000000E+00    2     1000022         3   # BR(~s_L -> ~chi_10 s)
#
#         PDG            Width
DECAY   2000003     9.40344770E-03   # sstrange_R decays
#          BR         NDA      ID1       ID2
     1.00000000E+00    2     1000022         3   # BR(~s_R -> ~chi_10 s)
#
#         PDG            Width
DECAY   1000011     1.22249634E+02   # selectron_L decays
#          BR         NDA      ID1       ID2
     9.99593303E-01    2     1000022        11   # BR(~e_L -> ~chi_10 e-)
     2.61628364E-06    2     1000023        11   # BR(~e_L -> ~chi_20 e-)
     4.01408266E-04    2     1000025        11   # BR(~e_L -> ~chi_30 e-)
     2.67284955E-06    2    -1000024        12   # BR(~e_L -> ~chi_1- nu_e)
#
#         PDG            Width
DECAY   2000011     4.88995622E+02   # selectron_R decays
#          BR         NDA      ID1       ID2
     9.99649959E-01    2     1000022        11   # BR(~e_R -> ~chi_10 e-)
     3.54380168E-06    2     1000023        11   # BR(~e_R -> ~chi_20 e-)
     3.46497354E-04    2     1000025        11   # BR(~e_R -> ~chi_30 e-)
#
#         PDG            Width
DECAY   1000013     1.22249634E+02   # smuon_L decays
#          BR         NDA      ID1       ID2
     9.99593303E-01    2     1000022        13   # BR(~mu_L -> ~chi_10 mu-)
     2.61628364E-06    2     1000023        13   # BR(~mu_L -> ~chi_20 mu-)
     4.01408266E-04    2     1000025        13   # BR(~mu_L -> ~chi_30 mu-)
     2.67284955E-06    2    -1000024        14   # BR(~mu_L -> ~chi_1- nu_mu)
#
#         PDG            Width
DECAY   2000013     4.88995622E+02   # smuon_R decays
#          BR         NDA      ID1       ID2
     9.99649959E-01    2     1000022        13   # BR(~mu_R -> ~chi_10 mu-)
     3.54380168E-06    2     1000023        13   # BR(~mu_R -> ~chi_20 mu-)
     3.46497354E-04    2     1000025        13   # BR(~mu_R -> ~chi_30 mu-)
#
#         PDG            Width
DECAY   1000015     1.18200056E+04   # stau_1 decays
#          BR         NDA      ID1       ID2
     2.59004017E-02    2     1000022        15   # BR(~tau_1 -> ~chi_10  tau-)
     2.53801911E-05    2     1000023        15   # BR(~tau_1 -> ~chi_20  tau-)
     2.66779046E-05    2     1000025        15   # BR(~tau_1 -> ~chi_30  tau-)
     2.77113217E-05    2    -1000024        16   # BR(~tau_1 -> ~chi_1-  nu_tau)
     9.74019829E-01    2     1000039        15   # BR(~tau_1 -> ~G       tau-)
#
#         PDG            Width
DECAY   2000015     3.06032943E+02   # stau_2 decays
#          BR         NDA      ID1       ID2
     9.96238300E-01    2     1000022        15   # BR(~tau_2 -> ~chi_10  tau-)
     1.06695998E-03    2     1000023        15   # BR(~tau_2 -> ~chi_20  tau-)
     1.72339452E-03    2     1000025        15   # BR(~tau_2 -> ~chi_30  tau-)
     9.71345701E-04    2    -1000024        16   # BR(~tau_2 -> ~chi_1-  nu_tau)
#
#         PDG            Width
DECAY   1000012     1.22249695E+02   # snu_eL decays
#          BR         NDA      ID1       ID2
     9.99694084E-01    2     1000022        12   # BR(~nu_eL -> ~chi_10 nu_e)
     4.61172480E-06    2     1000023        12   # BR(~nu_eL -> ~chi_20 nu_e)
     2.95619427E-04    2     1000025        12   # BR(~nu_eL -> ~chi_30 nu_e)
     5.68521517E-06    2     1000024        11   # BR(~nu_eL -> ~chi_1+ e-)
#
#         PDG            Width
DECAY   1000014     1.22249695E+02   # snu_muL decays
#          BR         NDA      ID1       ID2
     9.99694084E-01    2     1000022        14   # BR(~nu_muL -> ~chi_10 nu_mu)
     4.61172480E-06    2     1000023        14   # BR(~nu_muL -> ~chi_20 nu_mu)
     2.95619427E-04    2     1000025        14   # BR(~nu_muL -> ~chi_30 nu_mu)
     5.68521517E-06    2     1000024        13   # BR(~nu_muL -> ~chi_1+ mu-)
#
#         PDG            Width
DECAY   1000016     1.22874180E+02   # snu_tauL decays
#          BR         NDA      ID1       ID2
     9.94613327E-01    2     1000022        16   # BR(~nu_tauL -> ~chi_10 nu_tau)
     4.58828658E-06    2     1000023        16   # BR(~nu_tauL -> ~chi_20 nu_tau)
     2.94116997E-04    2     1000025        16   # BR(~nu_tauL -> ~chi_30 nu_tau)
     5.08796809E-03    2     1000024        15   # BR(~nu_tauL -> ~chi_1+ tau-)
#
#         PDG            Width
DECAY   1000024     7.65941901E+01   # chargino1+ decays
#          BR         NDA      ID1       ID2
     4.36482867E-07    2     1000002        -1   # BR(~chi_1+ -> ~u_L     db)
     2.05121957E-07    2    -1000001         2   # BR(~chi_1+ -> ~d_L*    u )
     4.36482867E-07    2     1000004        -3   # BR(~chi_1+ -> ~c_L     sb)
     2.05121957E-07    2    -1000003         4   # BR(~chi_1+ -> ~s_L*    c )
     1.13168176E-01    2     1000006        -5   # BR(~chi_1+ -> ~t_1     bb)
     6.79780391E-02    2    -1000005         6   # BR(~chi_1+ -> ~b_1*    t )
     7.75849519E-01    2    -2000005         6   # BR(~chi_1+ -> ~b_2*    t )
     4.10886568E-02    2     1000022        24   # BR(~chi_1+ -> ~chi_10  W+)
     1.90961163E-03    2     1000022        37   # BR(~chi_1+ -> ~chi_10  H+)
     3.93889557E-06    2     1000039        24   # BR(~chi_1+ -> ~G       W+)
     7.75011344E-07    2     1000039        37   # BR(~chi_1+ -> ~G       H+)
#
#         PDG            Width
DECAY   1000037     1.32108516E+05   # chargino2+ decays
#          BR         NDA      ID1       ID2
     7.67148192E-03    2     1000002        -1   # BR(~chi_2+ -> ~u_L     db)
     7.67148479E-03    2    -1000001         2   # BR(~chi_2+ -> ~d_L*    u )
     7.67148192E-03    2     1000004        -3   # BR(~chi_2+ -> ~c_L     sb)
     7.67148479E-03    2    -1000003         4   # BR(~chi_2+ -> ~s_L*    c )
     8.69630254E-01    2     1000006        -5   # BR(~chi_2+ -> ~t_1     bb)
     1.65330054E-03    2    -1000005         6   # BR(~chi_2+ -> ~b_1*    t )
     7.31706578E-03    2    -2000005         6   # BR(~chi_2+ -> ~b_2*    t )
     5.67091526E-15    2     1000012       -11   # BR(~chi_2+ -> ~nu_eL   e+  )
     5.67091526E-15    2     1000014       -13   # BR(~chi_2+ -> ~nu_muL  mu+ )
     3.97061731E-15    2    -1000011        12   # BR(~chi_2+ -> ~e_L+    nu_e)
     3.97061731E-15    2    -1000013        14   # BR(~chi_2+ -> ~mu_L+   nu_mu)
     6.16000949E-15    2    -1000015        16   # BR(~chi_2+ -> ~tau_1+  nu_tau)
     1.04865492E-16    2    -2000015        16   # BR(~chi_2+ -> ~tau_2+  nu_tau)
     1.40910121E-03    2     1000024        23   # BR(~chi_2+ -> ~chi_1+  Z )
     4.03230828E-07    2     1000022        24   # BR(~chi_2+ -> ~chi_10  W+)
     1.36787191E-03    2     1000023        24   # BR(~chi_2+ -> ~chi_20  W+)
     1.36745397E-03    2     1000025        24   # BR(~chi_2+ -> ~chi_30  W+)
     1.42008885E-03    2     1000024        25   # BR(~chi_2+ -> ~chi_1+  h )
     1.24657611E-03    2     1000024        35   # BR(~chi_2+ -> ~chi_1+  H )
     1.24673805E-03    2     1000024        36   # BR(~chi_2+ -> ~chi_1+  A )
     4.73169001E-07    2     1000022        37   # BR(~chi_2+ -> ~chi_10  H+)
     1.24669602E-03    2     1000023        37   # BR(~chi_2+ -> ~chi_20  H+)
     1.24626097E-03    2     1000025        37   # BR(~chi_2+ -> ~chi_30  H+)
     8.01617596E-02    2     1000039        24   # BR(~chi_2+ -> ~G       W+)
     2.30367300E-08    2     1000039        37   # BR(~chi_2+ -> ~G       H+)
#
#         PDG            Width
DECAY   1000022     1.E-08   # neutralino1 decays (OJ Mods)
#          BR         NDA      ID1       ID2
     7.62531212E-01    2     1000039        22   # BR(~chi_10 -> ~G        gam)
     2.37467294E-01    2     1000039        23   # BR(~chi_10 -> ~G        Z)
     1.49397850E-06    2     1000039        25   # BR(~chi_10 -> ~G        h)
#
#         PDG            Width
DECAY   1000023     1.E-08   # neutralino2 decays (OJ Mods)
#          BR         NDA      ID1       ID2
     3.88875848E-02    2     1000022        23   # BR(~chi_20 -> ~chi_10   Z )
     3.90829680E-04    2     1000022        25   # BR(~chi_20 -> ~chi_10   h )
     1.29512681E-03    2     1000022        35   # BR(~chi_20 -> ~chi_10   H )
     6.06717254E-04    2     1000022        36   # BR(~chi_20 -> ~chi_10   A )
     1.07518309E-08    2     1000002        -2   # BR(~chi_20 -> ~u_L      ub)
     1.07518309E-08    2    -1000002         2   # BR(~chi_20 -> ~u_L*     u )
     6.51496962E-08    2     1000001        -1   # BR(~chi_20 -> ~d_L      db)
     6.51496962E-08    2    -1000001         1   # BR(~chi_20 -> ~d_L*     d )
     1.28842803E-07    2     2000001        -1   # BR(~chi_20 -> ~d_R      db)
     1.28842803E-07    2    -2000001         1   # BR(~chi_20 -> ~d_R*     d )
     1.07518309E-08    2     1000004        -4   # BR(~chi_20 -> ~c_L      cb)
     1.07518309E-08    2    -1000004         4   # BR(~chi_20 -> ~c_L*     c )
     6.51496962E-08    2     1000003        -3   # BR(~chi_20 -> ~s_L      sb)
     6.51496962E-08    2    -1000003         3   # BR(~chi_20 -> ~s_L*     s )
     1.28842803E-07    2     2000003        -3   # BR(~chi_20 -> ~s_R      sb)
     1.28842803E-07    2    -2000003         3   # BR(~chi_20 -> ~s_R*     s )
     3.91043355E-01    2     1000006        -6   # BR(~chi_20 -> ~t_1      tb)
     3.91043355E-01    2    -1000006         6   # BR(~chi_20 -> ~t_1*     t )
     4.24840339E-02    2     1000005        -5   # BR(~chi_20 -> ~b_1      bb)
     4.24840339E-02    2    -1000005         5   # BR(~chi_20 -> ~b_1*     b )
     4.58799239E-02    2     2000005        -5   # BR(~chi_20 -> ~b_2      bb)
     4.58799239E-02    2    -2000005         5   # BR(~chi_20 -> ~b_2*     b )
     1.80004493E-11    2     1000039        22   # BR(~chi_20 -> ~G        gam)
     1.40600417E-07    2     1000039        23   # BR(~chi_20 -> ~G        Z)
     3.50910997E-06    2     1000039        25   # BR(~chi_20 -> ~G        h)
     2.81269064E-08    2     1000039        35   # BR(~chi_20 -> ~G        H)
     7.24938068E-07    2     1000039        36   # BR(~chi_20 -> ~G        A)
#
#         PDG            Width
DECAY   1000025     8.27999895E+01   # neutralino3 decays
#          BR         NDA      ID1       ID2
     3.97583084E-04    2     1000022        23   # BR(~chi_30 -> ~chi_10   Z )
     3.90151670E-02    2     1000022        25   # BR(~chi_30 -> ~chi_10   h )
     5.87160082E-04    2     1000022        35   # BR(~chi_30 -> ~chi_10   H )
     1.31278580E-03    2     1000022        36   # BR(~chi_30 -> ~chi_10   A )
     4.74204484E-06    2     1000002        -2   # BR(~chi_30 -> ~u_L      ub)
     4.74204484E-06    2    -1000002         2   # BR(~chi_30 -> ~u_L*     u )
     1.86564001E-06    2     1000001        -1   # BR(~chi_30 -> ~d_L      db)
     1.86564001E-06    2    -1000001         1   # BR(~chi_30 -> ~d_L*     d )
     1.25556046E-05    2     2000001        -1   # BR(~chi_30 -> ~d_R      db)
     1.25556046E-05    2    -2000001         1   # BR(~chi_30 -> ~d_R*     d )
     4.74204484E-06    2     1000004        -4   # BR(~chi_30 -> ~c_L      cb)
     4.74204484E-06    2    -1000004         4   # BR(~chi_30 -> ~c_L*     c )
     1.86564001E-06    2     1000003        -3   # BR(~chi_30 -> ~s_L      sb)
     1.86564001E-06    2    -1000003         3   # BR(~chi_30 -> ~s_L*     s )
     1.25556046E-05    2     2000003        -3   # BR(~chi_30 -> ~s_R      sb)
     1.25556046E-05    2    -2000003         3   # BR(~chi_30 -> ~s_R*     s )
     3.89761713E-01    2     1000006        -6   # BR(~chi_30 -> ~t_1      tb)
     3.89761713E-01    2    -1000006         6   # BR(~chi_30 -> ~t_1*     t )
     3.35445331E-02    2     1000005        -5   # BR(~chi_30 -> ~b_1      bb)
     3.35445331E-02    2    -1000005         5   # BR(~chi_30 -> ~b_1*     b )
     5.60018205E-02    2     2000005        -5   # BR(~chi_30 -> ~b_2      bb)
     5.60018205E-02    2    -2000005         5   # BR(~chi_30 -> ~b_2*     b )
     2.01939867E-09    2     1000039        22   # BR(~chi_30 -> ~G        gam)
     3.50459119E-06    2     1000039        23   # BR(~chi_30 -> ~G        Z)
     1.36723537E-07    2     1000039        25   # BR(~chi_30 -> ~G        h)
     7.18506396E-07    2     1000039        35   # BR(~chi_30 -> ~G        H)
     2.89299960E-08    2     1000039        36   # BR(~chi_30 -> ~G        A)
#
#         PDG            Width
DECAY   1000035     1.32109058E+05   # neutralino4 decays
#          BR         NDA      ID1       ID2
     3.45573888E-09    2     1000022        23   # BR(~chi_40 -> ~chi_10   Z )
     1.36174807E-03    2     1000023        23   # BR(~chi_40 -> ~chi_20   Z )
     4.73454855E-05    2     1000025        23   # BR(~chi_40 -> ~chi_30   Z )
     1.36785816E-03    2     1000024       -24   # BR(~chi_40 -> ~chi_1+   W-)
     1.36785816E-03    2    -1000024        24   # BR(~chi_40 -> ~chi_1-   W+)
     4.15682521E-07    2     1000022        25   # BR(~chi_40 -> ~chi_10   h )
     4.06032475E-08    2     1000022        35   # BR(~chi_40 -> ~chi_10   H )
     4.31984960E-07    2     1000022        36   # BR(~chi_40 -> ~chi_10   A )
     4.66514450E-05    2     1000023        25   # BR(~chi_40 -> ~chi_20   h )
     1.19294191E-03    2     1000023        35   # BR(~chi_40 -> ~chi_20   H )
     5.48390663E-05    2     1000023        36   # BR(~chi_40 -> ~chi_20   A )
     1.37301782E-03    2     1000025        25   # BR(~chi_40 -> ~chi_30   h )
     5.35873570E-05    2     1000025        35   # BR(~chi_40 -> ~chi_30   H )
     1.19146228E-03    2     1000025        36   # BR(~chi_40 -> ~chi_30   A )
     1.24671116E-03    2     1000024       -37   # BR(~chi_40 -> ~chi_1+   H-)
     1.24671116E-03    2    -1000024        37   # BR(~chi_40 -> ~chi_1-   H+)
     3.67105151E-03    2     1000002        -2   # BR(~chi_40 -> ~u_L      ub)
     3.67105151E-03    2    -1000002         2   # BR(~chi_40 -> ~u_L*     u )
     5.97616235E-23    2     2000002        -2   # BR(~chi_40 -> ~u_R      ub)
     5.97616235E-23    2    -2000002         2   # BR(~chi_40 -> ~u_R*     u )
     3.67105364E-03    2     1000001        -1   # BR(~chi_40 -> ~d_L      db)
     3.67105364E-03    2    -1000001         1   # BR(~chi_40 -> ~d_L*     d )
     7.10930467E-17    2     2000001        -1   # BR(~chi_40 -> ~d_R      db)
     7.10930467E-17    2    -2000001         1   # BR(~chi_40 -> ~d_R*     d )
     3.67105151E-03    2     1000004        -4   # BR(~chi_40 -> ~c_L      cb)
     3.67105151E-03    2    -1000004         4   # BR(~chi_40 -> ~c_L*     c )
     5.97616235E-23    2     2000004        -4   # BR(~chi_40 -> ~c_R      cb)
     5.97616235E-23    2    -2000004         4   # BR(~chi_40 -> ~c_R*     c )
     3.67105364E-03    2     1000003        -3   # BR(~chi_40 -> ~s_L      sb)
     3.67105364E-03    2    -1000003         3   # BR(~chi_40 -> ~s_L*     s )
     7.10930467E-17    2     2000003        -3   # BR(~chi_40 -> ~s_R      sb)
     7.10930467E-17    2    -2000003         3   # BR(~chi_40 -> ~s_R*     s )
     4.48515589E-03    2     1000006        -6   # BR(~chi_40 -> ~t_1      tb)
     4.48515589E-03    2    -1000006         6   # BR(~chi_40 -> ~t_1*     t )
     2.07455970E-01    2     1000005        -5   # BR(~chi_40 -> ~b_1      bb)
     2.07455970E-01    2    -1000005         5   # BR(~chi_40 -> ~b_1*     b )
     2.27359414E-01    2     2000005        -5   # BR(~chi_40 -> ~b_2      bb)
     2.27359414E-01    2    -2000005         5   # BR(~chi_40 -> ~b_2*     b )
     1.98529986E-15    2     1000011       -11   # BR(~chi_40 -> ~e_L-     e+)
     1.98529986E-15    2    -1000011        11   # BR(~chi_40 -> ~e_L+     e-)
     3.46023280E-28    2     2000011       -11   # BR(~chi_40 -> ~e_R-     e+)
     3.46023280E-28    2    -2000011        11   # BR(~chi_40 -> ~e_R+     e-)
     1.98529986E-15    2     1000013       -13   # BR(~chi_40 -> ~mu_L-    mu+)
     1.98529986E-15    2    -1000013        13   # BR(~chi_40 -> ~mu_L+    mu-)
     3.46023280E-28    2     2000013       -13   # BR(~chi_40 -> ~mu_R-    mu+)
     3.46023280E-28    2    -2000013        13   # BR(~chi_40 -> ~mu_R+    mu-)
     2.83544880E-15    2     1000012       -12   # BR(~chi_40 -> ~nu_eL    nu_eb)
     2.83544880E-15    2    -1000012        12   # BR(~chi_40 -> ~nu_eL*   nu_e )
     2.83544880E-15    2     1000014       -14   # BR(~chi_40 -> ~nu_muL   nu_mub)
     2.83544880E-15    2    -1000014        14   # BR(~chi_40 -> ~nu_muL*  nu_mu )
     2.83544880E-15    2     1000016       -16   # BR(~chi_40 -> ~nu_tau1  nu_taub)
     2.83544880E-15    2    -1000016        16   # BR(~chi_40 -> ~nu_tau1* nu_tau )
     1.93941925E-02    2     1000039        22   # BR(~chi_40 -> ~G        gam)
     6.07672596E-02    2     1000039        23   # BR(~chi_40 -> ~G        Z)
     3.67624078E-09    2     1000039        25   # BR(~chi_40 -> ~G        h)
     2.30744064E-08    2     1000039        35   # BR(~chi_40 -> ~G        H)
     4.54713763E-12    2     1000039        36   # BR(~chi_40 -> ~G        A)
#
#
#
#
