#
#                              ======================
#                              | THE SUSYHIT OUTPUT |
#                              ======================
#
#
#              ------------------------------------------------------
#              |     This is the output of the SUSY-HIT package     |
#              |  created by A.Djouadi, M.Muehlleitner and M.Spira. |
#              |  In case of problems with SUSY-HIT email to        |
#              |           margarete.muehlleitner@cern.ch           |
#              |           michael.spira@psi.ch                     |
#              |           abdelhak.djouadi@cern.ch                 |
#              ------------------------------------------------------
#
#              ------------------------------------------------------
#              |  SUSY Les Houches Accord - MSSM Spectrum + Decays  |
#              |              based on the decay programs           |
#              |                                                    |
#              |                     SDECAY 1.3b                    |
#              |                                                    |
#              |  Authors: M.Muhlleitner, A.Djouadi and Y.Mambrini  |
#              |  Ref.:    Comput.Phys.Commun.168(2005)46           |
#              |           [hep-ph/0311167]                         |
#              |                                                    |
#              |                     HDECAY 3.4                     |
#              |                                                    |
#              |  By: A.Djouadi,J.Kalinowski,M.Muhlleitner,M.Spira  |
#              |  Ref.:    Comput.Phys.Commun.108(1998)56           |
#              |           [hep-ph/9704448]                         |
#              |                                                    |
#              |                                                    |
#              |  If not stated otherwise all DRbar couplings and   |
#              |  soft SUSY breaking masses are given at the scale  |
#              |  Q=  0.91187600E+02
#              |                                                    |
#              ------------------------------------------------------
#
#
BLOCK DCINFO  # Decay Program information
     1   SDECAY/HDECAY # decay calculator
     2   1.3b  /3.4    # version number
#
BLOCK SPINFO  # Spectrum calculator information
     1   SuSpect     # RGE +Spectrum calculator            
     2   2.41         # version number                     
#
BLOCK MODSEL  # Model selection
     1     0   # #general MSSM low scale                           
#
BLOCK SMINPUTS  # Standard Model inputs
         1     1.27934000E+02   # alpha_em^-1(M_Z)^MSbar
         2     1.16639000E-05   # G_F [GeV^-2]
         3     1.17200000E-01   # alpha_S(M_Z)^MSbar
         4     9.11870000E+01   # M_Z pole mass
         5     4.25000000E+00   # mb(mb)^MSbar
         6     1.72500000E+02   # mt pole mass
         7     1.77700000E+00   # mtau pole mass
#
BLOCK MINPAR  # Input parameters - minimal models
#
BLOCK EXTPAR  # Input parameters - non-minimal models
         0     9.11876000E+01   # EWSB                
         1     5.00000000E+01   # M_1                 
         2     1.00000000E+05   # M_2                 
         3     1.00000000E+05   # M_3                 
        11     0.00000000E+00   # A_t                 
        12     0.00000000E+00   # A_b                 
        13     0.00000000E+00   # A_tau               
        14     0.00000000E+00   # A_u                 
        15     0.00000000E+00   # A_d                 
        16     0.00000000E+00   # A_e                 
        23     3.50000000E+03   # mu(EWSB)            
        25     1.50000000E+00   # tanbeta(in)         
        26     2.00000000E+03   # MA_pole             
        31     1.00000000E+05   # M_eL                
        32     1.00000000E+05   # M_muL               
        33     1.00000000E+05   # M_tauL              
        34     1.00000000E+05   # M_eR                
        35     1.00000000E+05   # M_muR               
        36     1.00000000E+05   # M_tauR              
        41     1.60000000E+03   # M_q1L               
        42     1.60000000E+03   # M_q2L               
        43     1.60000000E+03   # M_q3L               
        44     1.00000000E+05   # M_uR                
        45     1.00000000E+05   # M_cR                
        46     1.00000000E+05   # M_tR                
        47     1.60000000E+03   # M_dR                
        48     1.60000000E+03   # M_sR                
        49     1.60000000E+03   # M_bR                
#
BLOCK MASS  # Mass Spectrum
# PDG code           mass       particle
        24     8.05830261E+01   # W+
        25     1.25000000E+02   # h
        35     2.00402156E+03   # H
        36     2.00000000E+03   # A
        37     2.02369692E+03   # H+
         5     4.87877839E+00   # b-quark pole mass calculated from mb(mb)_Msbar
   1000001     1.60041495E+03   # ~d_L
   2000001     1.60007996E+03   # ~d_R
   1000002     1.59966492E+03   # ~u_L
   2000002     9.99999974E+04   # ~u_R
   1000003     1.60041495E+03   # ~s_L
   2000003     1.60007996E+03   # ~s_R
   1000004     1.59966492E+03   # ~c_L
   2000004     9.99999974E+04   # ~c_R
   1000005     1.59600055E+03   # ~b_1
   2000005     1.60448730E+03   # ~b_2
   1000006     1.60644767E+03   # ~t_1
   2000006     1.00000106E+05   # ~t_2
   1000011     1.00000004E+05   # ~e_L
   2000011     1.00000004E+05   # ~e_R
   1000012     9.99999921E+04   # ~nu_eL
   1000013     1.00000004E+05   # ~mu_L
   2000013     1.00000004E+05   # ~mu_R
   1000014     9.99999921E+04   # ~nu_muL
   1000015     9.99999574E+04   # ~tau_1
   2000015     1.00000051E+05   # ~tau_2
   1000016     9.99999921E+04   # ~nu_tauL
   1000021     1.00000000E+05   # ~g
   1000022     4.94654611E+01   # ~chi_10
   1000023    -3.50002394E+03   # ~chi_20
   1000025     3.50049398E+03   # ~chi_30
   1000035     1.00000064E+05   # ~chi_40
   1000024     3.49994014E+03   # ~chi_1+
   1000037     1.00000064E+05   # ~chi_2+
   1000039     1.00000000E-09   # ~gravitino
#
BLOCK NMIX  # Neutralino Mixing Matrix
  1  1     9.99916371E-01   # N_11
  1  2    -9.45601942E-06   # N_12
  1  3     1.07218635E-02   # N_13
  1  4    -7.23130686E-03   # N_14
  2  1     2.46817487E-03   # N_21
  2  2    -1.49698431E-04   # N_22
  2  3    -7.07092526E-01   # N_23
  2  4    -7.07116713E-01   # N_24
  3  1     1.26948141E-02   # N_31
  3  2     8.02662582E-04   # N_32
  3  3    -7.07039595E-01   # N_33
  3  4     7.07059551E-01   # N_34
  4  1     3.64942932E-07   # N_41
  4  2    -9.99999667E-01   # N_42
  4  3    -4.61765125E-04   # N_43
  4  4     6.73453110E-04   # N_44
#
BLOCK UMIX  # Chargino Mixing Matrix U
  1  1    -6.53034297E-04   # U_11
  1  2     9.99999787E-01   # U_12
  2  1     9.99999787E-01   # U_21
  2  2     6.53034297E-04   # U_22
#
BLOCK VMIX  # Chargino Mixing Matrix V
  1  1    -9.52406437E-04   # V_11
  1  2     9.99999546E-01   # V_12
  2  1     9.99999546E-01   # V_21
  2  2     9.52406437E-04   # V_22
#
BLOCK STOPMIX  # Stop Mixing Matrix
  1  1     9.99999999E-01   # cos(theta_t)
  1  2     4.47213589E-05   # sin(theta_t)
  2  1    -4.47213589E-05   # -sin(theta_t)
  2  2     9.99999999E-01   # cos(theta_t)
#
BLOCK SBOTMIX  # Sbottom Mixing Matrix
  1  1     6.93010471E-01   # cos(theta_b)
  1  2     7.20927519E-01   # sin(theta_b)
  2  1    -7.20927519E-01   # -sin(theta_b)
  2  2     6.93010471E-01   # cos(theta_b)
#
BLOCK STAUMIX  # Stau Mixing Matrix
  1  1     7.06182102E-01   # cos(theta_tau)
  1  2     7.08030253E-01   # sin(theta_tau)
  2  1    -7.08030253E-01   # -sin(theta_tau)
  2  2     7.06182102E-01   # cos(theta_tau)
#
BLOCK ALPHA  # Higgs mixing
          -5.90304190E-01   # Mixing angle in the neutral Higgs boson sector
#
BLOCK HMIX Q=  9.11876000E+01  # DRbar Higgs Parameters
         1     3.50000000E+03   # mu(Q)               
         2     1.49999982E+00   # tanbeta(Q)          
         3     2.54856750E+02   # vev(Q)              
         4    -6.81849027E+07   # MA^2(Q)             
#
BLOCK GAUGE Q=  9.11876000E+01  # The gauge couplings
     1     3.50583956E-01   # gprime(Q) DRbar
     2     6.19929820E-01   # g(Q) DRbar
     3     1.02445325E+00   # g3(Q) DRbar
#
BLOCK AU Q=  9.11876000E+01  # The trilinear couplings
  1  1     0.00000000E+00   # A_u(Q) DRbar
  2  2     0.00000000E+00   # A_c(Q) DRbar
  3  3     0.00000000E+00   # A_t(Q) DRbar
#
BLOCK AD Q=  9.11876000E+01  # The trilinear couplings
  1  1     0.00000000E+00   # A_d(Q) DRbar
  2  2     0.00000000E+00   # A_s(Q) DRbar
  3  3     0.00000000E+00   # A_b(Q) DRbar
#
BLOCK AE Q=  9.11876000E+01  # The trilinear couplings
  1  1     0.00000000E+00   # A_e(Q) DRbar
  2  2     0.00000000E+00   # A_mu(Q) DRbar
  3  3     0.00000000E+00   # A_tau(Q) DRbar
#
BLOCK Yu Q=  9.11876000E+01  # The Yukawa couplings
  1  1     0.00000000E+00   # y_u(Q) DRbar
  2  2     0.00000000E+00   # y_c(Q) DRbar
  3  3     9.83739005E-01   # y_t(Q) DRbar
#
BLOCK Yd Q=  9.11876000E+01  # The Yukawa couplings
  1  1     0.00000000E+00   # y_d(Q) DRbar
  2  2     0.00000000E+00   # y_s(Q) DRbar
  3  3     2.58577180E-02   # y_b(Q) DRbar
#
BLOCK Ye Q=  9.11876000E+01  # The Yukawa couplings
  1  1     0.00000000E+00   # y_e(Q) DRbar
  2  2     0.00000000E+00   # y_mu(Q) DRbar
  3  3     1.77407282E-02   # y_tau(Q) DRbar
#
BLOCK MSOFT Q=  9.11876000E+01  # The soft SUSY breaking masses at the scale Q
         1     5.00000000E+01   # M_1                 
         2     1.00000000E+05   # M_2                 
         3     1.00000000E+05   # M_3                 
        14     0.00000000E+00   # A_u                 
        15     0.00000000E+00   # A_d                 
        16     0.00000000E+00   # A_e                 
        21     6.31608113E+08   # M^2_Hd              
        22    -1.14956134E+09   # M^2_Hu              
        31     1.00000000E+05   # M_eL                
        32     1.00000000E+05   # M_muL               
        33     1.00000000E+05   # M_tauL              
        34     1.00000000E+05   # M_eR                
        35     1.00000000E+05   # M_muR               
        36     1.00000000E+05   # M_tauR              
        41     1.60000000E+03   # M_q1L               
        42     1.60000000E+03   # M_q2L               
        43     1.60000000E+03   # M_q3L               
        44     1.00000000E+05   # M_uR                
        45     1.00000000E+05   # M_cR                
        46     1.00000000E+05   # M_tR                
        47     1.60000000E+03   # M_dR                
        48     1.60000000E+03   # M_sR                
        49     1.60000000E+03   # M_bR                
#
#
#
#                             =================
#                             |The decay table|
#                             =================
#
# - The QCD corrections to the decays gluino -> squark  + quark
#                                     squark -> gaugino + quark_prime
#                                     squark -> squark_prime + Higgs
#                                     squark -> gluino  + quark
#   are included.
#
# - The multi-body decays for the inos, stops and sbottoms are included.
#
# - The loop induced decays for the gluino, neutralinos and stops
#   are included.
#
# - The SUSY decays of the top quark are included.
#
# - Possible decays of the NLSP in GMSB models are included.
#
#
#         PDG            Width
DECAY         6     1.32644211E+00   # top decays
#          BR         NDA      ID1       ID2
     1.00000000E+00    2           5        24   # BR(t ->  b    W+)
#
#         PDG            Width
DECAY   1000021     1.E-04   # gluino decays (OJ Mods)
#          BR         NDA      ID1       ID2
     1.11890455E-03    2     1000001        -1   # BR(~g -> ~d_L  db)
     1.11890455E-03    2    -1000001         1   # BR(~g -> ~d_L* d )
     1.11890479E-03    2     2000001        -1   # BR(~g -> ~d_R  db)
     1.11890479E-03    2    -2000001         1   # BR(~g -> ~d_R* d )
     1.11890509E-03    2     1000002        -2   # BR(~g -> ~u_L  ub)
     1.11890509E-03    2    -1000002         2   # BR(~g -> ~u_L* u )
     3.02706830E-18    2     2000002        -2   # BR(~g -> ~u_R  ub)
     3.02706830E-18    2    -2000002         2   # BR(~g -> ~u_R* u )
     1.11890455E-03    2     1000003        -3   # BR(~g -> ~s_L  sb)
     1.11890455E-03    2    -1000003         3   # BR(~g -> ~s_L* s )
     1.11890479E-03    2     2000003        -3   # BR(~g -> ~s_R  sb)
     1.11890479E-03    2    -2000003         3   # BR(~g -> ~s_R* s )
     1.11890509E-03    2     1000004        -4   # BR(~g -> ~c_L  cb)
     1.11890509E-03    2    -1000004         4   # BR(~g -> ~c_L* c )
     3.02706830E-18    2     2000004        -4   # BR(~g -> ~c_R  cb)
     3.02706830E-18    2    -2000004         4   # BR(~g -> ~c_R* c )
     2.38449288E-01    2     1000005        -5   # BR(~g -> ~b_1  bb)
     2.38449288E-01    2    -1000005         5   # BR(~g -> ~b_1* b )
     2.38052553E-01    2     2000005        -5   # BR(~g -> ~b_2  bb)
     2.38052553E-01    2    -2000005         5   # BR(~g -> ~b_2* b )
     1.10117401E-03    2     1000006        -6   # BR(~g -> ~t_1  tb)
     1.10117401E-03    2    -1000006         6   # BR(~g -> ~t_1* t )
     3.13671110E-02    2     1000039        21   # BR(~g -> ~G g)
#
#         PDG            Width
DECAY   1000006     2.55678576E-01   # stop1 decays
#          BR         NDA      ID1       ID2
     1.00000000E+00    2     1000022         6   # BR(~t_1 -> ~chi_10 t )
#
#         PDG            Width
DECAY   2000006     1.58624712E+05   # stop2 decays
#          BR         NDA      ID1       ID2
     1.31353928E-03    2     1000022         6   # BR(~t_2 -> ~chi_10 t )
     3.15187931E-03    2     1000023         6   # BR(~t_2 -> ~chi_20 t )
     3.15152711E-03    2     1000025         6   # BR(~t_2 -> ~chi_30 t )
     9.92491416E-01    2     1000024         5   # BR(~t_2 -> ~chi_1+ b )
    -8.57500805E-05    2     1000006        25   # BR(~t_2 -> ~t_1    h )
     8.97965707E-05    2     1000006        35   # BR(~t_2 -> ~t_1    H )
     8.96391551E-05    2     1000006        36   # BR(~t_2 -> ~t_1    A )
     8.44385838E-05    2     1000005        37   # BR(~t_2 -> ~b_1    H+)
     9.48364915E-05    2     2000005        37   # BR(~t_2 -> ~b_2    H+)
    -6.11512599E-05    2     1000006        23   # BR(~t_2 -> ~t_1    Z )
    -1.53769521E-04    2     1000005        24   # BR(~t_2 -> ~b_1    W+)
    -1.66401306E-04    2     2000005        24   # BR(~t_2 -> ~b_2    W+)
#
#         PDG            Width
DECAY   1000005     4.79218649E+01   # sbottom1 decays
#          BR         NDA      ID1       ID2
     1.00000000E+00    2     1000022         5   # BR(~b_1 -> ~chi_10 b )
#
#         PDG            Width
DECAY   2000005     4.51270034E+01   # sbottom2 decays
#          BR         NDA      ID1       ID2
     1.00000000E+00    2     1000022         5   # BR(~b_2 -> ~chi_10 b )
#
#         PDG            Width
DECAY   1000002     2.58556258E-01   # sup_L decays
#          BR         NDA      ID1       ID2
     1.00000000E+00    2     1000022         2   # BR(~u_L -> ~chi_10 u)
#
#         PDG            Width
DECAY   2000002     2.08379079E+02   # sup_R decays
#          BR         NDA      ID1       ID2
     9.99832926E-01    2     1000022         2   # BR(~u_R -> ~chi_10 u)
     6.08546983E-06    2     1000023         2   # BR(~u_R -> ~chi_20 u)
     1.60988469E-04    2     1000025         2   # BR(~u_R -> ~chi_30 u)
#
#         PDG            Width
DECAY   1000001     2.58724383E-01   # sdown_L decays
#          BR         NDA      ID1       ID2
     1.00000000E+00    2     1000022         1   # BR(~d_L -> ~chi_10 d)
#
#         PDG            Width
DECAY   2000001     1.03458607E+00   # sdown_R decays
#          BR         NDA      ID1       ID2
     1.00000000E+00    2     1000022         1   # BR(~d_R -> ~chi_10 d)
#
#         PDG            Width
DECAY   1000004     2.58556258E-01   # scharm_L decays
#          BR         NDA      ID1       ID2
     1.00000000E+00    2     1000022         4   # BR(~c_L -> ~chi_10 c)
#
#         PDG            Width
DECAY   2000004     2.08379079E+02   # scharm_R decays
#          BR         NDA      ID1       ID2
     9.99832926E-01    2     1000022         4   # BR(~c_R -> ~chi_10 c)
     6.08546983E-06    2     1000023         4   # BR(~c_R -> ~chi_20 c)
     1.60988469E-04    2     1000025         4   # BR(~c_R -> ~chi_30 c)
#
#         PDG            Width
DECAY   1000003     2.58724383E-01   # sstrange_L decays
#          BR         NDA      ID1       ID2
     1.00000000E+00    2     1000022         3   # BR(~s_L -> ~chi_10 s)
#
#         PDG            Width
DECAY   2000003     1.03458607E+00   # sstrange_R decays
#          BR         NDA      ID1       ID2
     1.00000000E+00    2     1000022         3   # BR(~s_R -> ~chi_10 s)
#
#         PDG            Width
DECAY   1000011     1.22260575E+02   # selectron_L decays
#          BR         NDA      ID1       ID2
     9.99793776E-01    2     1000022        11   # BR(~e_L -> ~chi_10 e-)
     4.84335173E-06    2     1000023        11   # BR(~e_L -> ~chi_20 e-)
     1.98720172E-04    2     1000025        11   # BR(~e_L -> ~chi_30 e-)
     2.66033378E-06    2    -1000024        12   # BR(~e_L -> ~chi_1- nu_e)
#
#         PDG            Width
DECAY   2000011     4.89039391E+02   # selectron_R decays
#          BR         NDA      ID1       ID2
     9.99833159E-01    2     1000022        11   # BR(~e_R -> ~chi_10 e-)
     6.07697647E-06    2     1000023        11   # BR(~e_R -> ~chi_20 e-)
     1.60763742E-04    2     1000025        11   # BR(~e_R -> ~chi_30 e-)
#
#         PDG            Width
DECAY   1000013     1.22260575E+02   # smuon_L decays
#          BR         NDA      ID1       ID2
     9.99793776E-01    2     1000022        13   # BR(~mu_L -> ~chi_10 mu-)
     4.84335173E-06    2     1000023        13   # BR(~mu_L -> ~chi_20 mu-)
     1.98720172E-04    2     1000025        13   # BR(~mu_L -> ~chi_30 mu-)
     2.66033378E-06    2    -1000024        14   # BR(~mu_L -> ~chi_1- nu_mu)
#
#         PDG            Width
DECAY   2000013     4.89039391E+02   # smuon_R decays
#          BR         NDA      ID1       ID2
     9.99833159E-01    2     1000022        13   # BR(~mu_R -> ~chi_10 mu-)
     6.07697647E-06    2     1000023        13   # BR(~mu_R -> ~chi_20 mu-)
     1.60763742E-04    2     1000025        13   # BR(~mu_R -> ~chi_30 mu-)
#
#         PDG            Width
DECAY   1000015     1.18200084E+04   # stau_1 decays
#          BR         NDA      ID1       ID2
     2.59026521E-02    2     1000022        15   # BR(~tau_1 -> ~chi_10  tau-)
     2.51447738E-05    2     1000023        15   # BR(~tau_1 -> ~chi_20  tau-)
     2.48893476E-05    2     1000025        15   # BR(~tau_1 -> ~chi_30  tau-)
     2.77103063E-05    2    -1000024        16   # BR(~tau_1 -> ~chi_1-  nu_tau)
     9.74019604E-01    2     1000039        15   # BR(~tau_1 -> ~G       tau-)
#
#         PDG            Width
DECAY   2000015     3.06085289E+02   # stau_2 decays
#          BR         NDA      ID1       ID2
     9.96531855E-01    2     1000022        15   # BR(~tau_2 -> ~chi_10  tau-)
     1.08119067E-03    2     1000023        15   # BR(~tau_2 -> ~chi_20  tau-)
     1.41533578E-03    2     1000025        15   # BR(~tau_2 -> ~chi_30  tau-)
     9.71618631E-04    2    -1000024        16   # BR(~tau_2 -> ~chi_1-  nu_tau)
#
#         PDG            Width
DECAY   1000012     1.22260632E+02   # snu_eL decays
#          BR         NDA      ID1       ID2
     9.99860067E-01    2     1000022        12   # BR(~nu_eL -> ~chi_10 nu_e)
     7.45032181E-06    2     1000023        12   # BR(~nu_eL -> ~chi_20 nu_e)
     1.26824436E-04    2     1000025        12   # BR(~nu_eL -> ~chi_30 nu_e)
     5.65859402E-06    2     1000024        11   # BR(~nu_eL -> ~chi_1+ e-)
#
#         PDG            Width
DECAY   1000014     1.22260632E+02   # snu_muL decays
#          BR         NDA      ID1       ID2
     9.99860067E-01    2     1000022        14   # BR(~nu_muL -> ~chi_10 nu_mu)
     7.45032181E-06    2     1000023        14   # BR(~nu_muL -> ~chi_20 nu_mu)
     1.26824436E-04    2     1000025        14   # BR(~nu_muL -> ~chi_30 nu_mu)
     5.65859402E-06    2     1000024        13   # BR(~nu_muL -> ~chi_1+ mu-)
#
#         PDG            Width
DECAY   1000016     1.22885241E+02   # snu_tauL decays
#          BR         NDA      ID1       ID2
     9.94777915E-01    2     1000022        16   # BR(~nu_tauL -> ~chi_10 nu_tau)
     7.41245285E-06    2     1000023        16   # BR(~nu_tauL -> ~chi_20 nu_tau)
     1.26179805E-04    2     1000025        16   # BR(~nu_tauL -> ~chi_30 nu_tau)
     5.08849292E-03    2     1000024        15   # BR(~nu_tauL -> ~chi_1+ tau-)
#
#         PDG            Width
DECAY   1000024     5.99678294E+01   # chargino1+ decays
#          BR         NDA      ID1       ID2
     4.50808339E-07    2     1000002        -1   # BR(~chi_1+ -> ~u_L     db)
     2.11843661E-07    2    -1000001         2   # BR(~chi_1+ -> ~d_L*    u )
     4.50808339E-07    2     1000004        -3   # BR(~chi_1+ -> ~c_L     sb)
     2.11843661E-07    2    -1000003         4   # BR(~chi_1+ -> ~s_L*    c )
     6.26250522E-02    2     1000006        -5   # BR(~chi_1+ -> ~t_1     bb)
     8.39483938E-02    2    -1000005         6   # BR(~chi_1+ -> ~b_1*    t )
     8.03062678E-01    2    -2000005         6   # BR(~chi_1+ -> ~b_2*    t )
     3.51736530E-02    2     1000022        24   # BR(~chi_1+ -> ~chi_10  W+)
     1.51828772E-02    2     1000022        37   # BR(~chi_1+ -> ~chi_10  H+)
     5.03099145E-06    2     1000039        24   # BR(~chi_1+ -> ~G       W+)
     9.89886886E-07    2     1000039        37   # BR(~chi_1+ -> ~G       H+)
#
#         PDG            Width
DECAY   1000037     1.01843456E+05   # chargino2+ decays
#          BR         NDA      ID1       ID2
     9.69964155E-03    2     1000002        -1   # BR(~chi_2+ -> ~u_L     db)
     9.69964449E-03    2    -1000001         2   # BR(~chi_2+ -> ~d_L*    u )
     9.69964155E-03    2     1000004        -3   # BR(~chi_2+ -> ~c_L     sb)
     9.69964449E-03    2    -1000003         4   # BR(~chi_2+ -> ~s_L*    c )
     8.34978550E-01    2     1000006        -5   # BR(~chi_2+ -> ~t_1     bb)
     2.12052859E-03    2    -1000005         6   # BR(~chi_2+ -> ~b_1*    t )
     9.21084267E-03    2    -2000005         6   # BR(~chi_2+ -> ~b_2*    t )
     6.97358204E-15    2     1000012       -11   # BR(~chi_2+ -> ~nu_eL   e+  )
     6.97358204E-15    2     1000014       -13   # BR(~chi_2+ -> ~nu_muL  mu+ )
     4.85624842E-15    2    -1000011        12   # BR(~chi_2+ -> ~e_L+    nu_e)
     4.85624842E-15    2    -1000013        14   # BR(~chi_2+ -> ~mu_L+   nu_mu)
     7.64415948E-15    2    -1000015        16   # BR(~chi_2+ -> ~tau_1+  nu_tau)
     1.14289181E-16    2    -2000015        16   # BR(~chi_2+ -> ~tau_2+  nu_tau)
     1.77800611E-03    2     1000024        23   # BR(~chi_2+ -> ~chi_1+  Z )
     2.14630001E-07    2     1000022        24   # BR(~chi_2+ -> ~chi_10  W+)
     1.72504918E-03    2     1000023        24   # BR(~chi_2+ -> ~chi_20  W+)
     1.72481637E-03    2     1000025        24   # BR(~chi_2+ -> ~chi_30  W+)
     1.79521551E-03    2     1000024        25   # BR(~chi_2+ -> ~chi_1+  h )
     1.57585988E-03    2     1000024        35   # BR(~chi_2+ -> ~chi_1+  H )
     1.57606903E-03    2     1000024        36   # BR(~chi_2+ -> ~chi_1+  A )
     3.03711209E-07    2     1000022        37   # BR(~chi_2+ -> ~chi_10  H+)
     1.57600719E-03    2     1000023        37   # BR(~chi_2+ -> ~chi_20  H+)
     1.57576906E-03    2     1000025        37   # BR(~chi_2+ -> ~chi_30  H+)
     1.01564167E-01    2     1000039        24   # BR(~chi_2+ -> ~G       W+)
     2.91184225E-08    2     1000039        37   # BR(~chi_2+ -> ~G       H+)
#
#         PDG            Width
DECAY   1000022     1.E-08   # neutralino1 decays (OJ Mods)
#          BR         NDA      ID1       ID2
     1.00000000E+00    2     1000039        22   # BR(~chi_10 -> ~G        gam)
#
#         PDG            Width
DECAY   1000023     1.E-08   # neutralino2 decays (OJ Mods)
#          BR         NDA      ID1       ID2
     3.29615511E-02    2     1000022        23   # BR(~chi_20 -> ~chi_10   Z )
     1.22662911E-03    2     1000022        25   # BR(~chi_20 -> ~chi_10   h )
     1.40155791E-02    2     1000022        35   # BR(~chi_20 -> ~chi_10   H )
     6.11304758E-04    2     1000022        36   # BR(~chi_20 -> ~chi_10   A )
     2.70186121E-08    2     1000002        -2   # BR(~chi_20 -> ~u_L      ub)
     2.70186121E-08    2    -1000002         2   # BR(~chi_20 -> ~u_L*     u )
     1.02560154E-07    2     1000001        -1   # BR(~chi_20 -> ~d_L      db)
     1.02560154E-07    2    -1000001         1   # BR(~chi_20 -> ~d_L*     d )
     2.34871346E-07    2     2000001        -1   # BR(~chi_20 -> ~d_R      db)
     2.34871346E-07    2    -2000001         1   # BR(~chi_20 -> ~d_R*     d )
     2.70186121E-08    2     1000004        -4   # BR(~chi_20 -> ~c_L      cb)
     2.70186121E-08    2    -1000004         4   # BR(~chi_20 -> ~c_L*     c )
     1.02560154E-07    2     1000003        -3   # BR(~chi_20 -> ~s_L      sb)
     1.02560154E-07    2    -1000003         3   # BR(~chi_20 -> ~s_L*     s )
     2.34871346E-07    2     2000003        -3   # BR(~chi_20 -> ~s_R      sb)
     2.34871346E-07    2    -2000003         3   # BR(~chi_20 -> ~s_R*     s )
     4.17631228E-01    2     1000006        -6   # BR(~chi_20 -> ~t_1      tb)
     4.17631228E-01    2    -1000006         6   # BR(~chi_20 -> ~t_1*     t )
     2.78517483E-02    2     1000005        -5   # BR(~chi_20 -> ~b_1      bb)
     2.78517483E-02    2    -1000005         5   # BR(~chi_20 -> ~b_1*     b )
     3.01060046E-02    2     2000005        -5   # BR(~chi_20 -> ~b_2      bb)
     3.01060046E-02    2    -2000005         5   # BR(~chi_20 -> ~b_2*     b )
     4.09539834E-11    2     1000039        22   # BR(~chi_20 -> ~G        gam)
     1.82516468E-07    2     1000039        23   # BR(~chi_20 -> ~G        Z)
     4.55501608E-06    2     1000039        25   # BR(~chi_20 -> ~G        h)
     3.64858667E-08    2     1000039        35   # BR(~chi_20 -> ~G        H)
     9.40993702E-07    2     1000039        36   # BR(~chi_20 -> ~G        A)
#
#         PDG            Width
DECAY   1000025     6.36413204E+01   # neutralino3 decays
#          BR         NDA      ID1       ID2
     1.24462652E-03    2     1000022        23   # BR(~chi_30 -> ~chi_10   Z )
     3.31717629E-02    2     1000022        25   # BR(~chi_30 -> ~chi_10   h )
     5.94274949E-04    2     1000022        35   # BR(~chi_30 -> ~chi_10   H )
     1.40400246E-02    2     1000022        36   # BR(~chi_30 -> ~chi_10   A )
     2.76787543E-06    2     1000002        -2   # BR(~chi_30 -> ~u_L      ub)
     2.76787543E-06    2    -1000002         2   # BR(~chi_30 -> ~u_L*     u )
     6.85213318E-07    2     1000001        -1   # BR(~chi_30 -> ~d_L      db)
     6.85213318E-07    2    -1000001         1   # BR(~chi_30 -> ~d_L*     d )
     6.20680256E-06    2     2000001        -1   # BR(~chi_30 -> ~d_R      db)
     6.20680256E-06    2    -2000001         1   # BR(~chi_30 -> ~d_R*     d )
     2.76787543E-06    2     1000004        -4   # BR(~chi_30 -> ~c_L      cb)
     2.76787543E-06    2    -1000004         4   # BR(~chi_30 -> ~c_L*     c )
     6.85213318E-07    2     1000003        -3   # BR(~chi_30 -> ~s_L      sb)
     6.85213318E-07    2    -1000003         3   # BR(~chi_30 -> ~s_L*     s )
     6.20680256E-06    2     2000003        -3   # BR(~chi_30 -> ~s_R      sb)
     6.20680256E-06    2    -2000003         3   # BR(~chi_30 -> ~s_R*     s )
     4.17211218E-01    2     1000006        -6   # BR(~chi_30 -> ~t_1      tb)
     4.17211218E-01    2    -1000006         6   # BR(~chi_30 -> ~t_1*     t )
     2.48039083E-02    2     1000005        -5   # BR(~chi_30 -> ~b_1      bb)
     2.48039083E-02    2    -1000005         5   # BR(~chi_30 -> ~b_1*     b )
     3.34399779E-02    2     2000005        -5   # BR(~chi_30 -> ~b_2      bb)
     3.34399779E-02    2    -2000005         5   # BR(~chi_30 -> ~b_2*     b )
     1.24550772E-09    2     1000039        22   # BR(~chi_30 -> ~G        gam)
     4.55836265E-06    2     1000039        23   # BR(~chi_30 -> ~G        Z)
     1.77749060E-07    2     1000039        25   # BR(~chi_30 -> ~G        h)
     9.34263579E-07    2     1000039        35   # BR(~chi_30 -> ~G        H)
     3.76240371E-08    2     1000039        36   # BR(~chi_30 -> ~G        A)
#
#         PDG            Width
DECAY   1000035     1.01843865E+05   # neutralino4 decays
#          BR         NDA      ID1       ID2
     1.75758834E-11    2     1000022        23   # BR(~chi_40 -> ~chi_10   Z )
     1.71825405E-03    2     1000023        23   # BR(~chi_40 -> ~chi_20   Z )
     5.97470053E-05    2     1000025        23   # BR(~chi_40 -> ~chi_30   Z )
     1.72503232E-03    2     1000024       -24   # BR(~chi_40 -> ~chi_1+   W-)
     1.72503232E-03    2    -1000024        24   # BR(~chi_40 -> ~chi_1-   W+)
     2.23754285E-07    2     1000022        25   # BR(~chi_40 -> ~chi_10   h )
     4.01206321E-08    2     1000022        35   # BR(~chi_40 -> ~chi_10   H )
     2.63157688E-07    2     1000022        36   # BR(~chi_40 -> ~chi_10   A )
     5.89475804E-05    2     1000023        25   # BR(~chi_40 -> ~chi_20   h )
     1.50808528E-03    2     1000023        35   # BR(~chi_40 -> ~chi_20   H )
     6.93225202E-05    2     1000023        36   # BR(~chi_40 -> ~chi_20   A )
     1.73603952E-03    2     1000025        25   # BR(~chi_40 -> ~chi_30   h )
     6.77268349E-05    2     1000025        35   # BR(~chi_40 -> ~chi_30   H )
     1.50647763E-03    2     1000025        36   # BR(~chi_40 -> ~chi_30   A )
     1.57603528E-03    2     1000024       -37   # BR(~chi_40 -> ~chi_1+   H-)
     1.57603528E-03    2    -1000024        37   # BR(~chi_40 -> ~chi_1-   H+)
     4.64361467E-03    2     1000002        -2   # BR(~chi_40 -> ~u_L      ub)
     4.64361467E-03    2    -1000002         2   # BR(~chi_40 -> ~u_L*     u )
     7.23421646E-23    2     2000002        -2   # BR(~chi_40 -> ~u_R      ub)
     7.23421646E-23    2    -2000002         2   # BR(~chi_40 -> ~u_R*     u )
     4.64361664E-03    2     1000001        -1   # BR(~chi_40 -> ~d_L      db)
     4.64361664E-03    2    -1000001         1   # BR(~chi_40 -> ~d_L*     d )
     8.79069020E-17    2     2000001        -1   # BR(~chi_40 -> ~d_R      db)
     8.79069020E-17    2    -2000001         1   # BR(~chi_40 -> ~d_R*     d )
     4.64361467E-03    2     1000004        -4   # BR(~chi_40 -> ~c_L      cb)
     4.64361467E-03    2    -1000004         4   # BR(~chi_40 -> ~c_L*     c )
     7.23421646E-23    2     2000004        -4   # BR(~chi_40 -> ~c_R      cb)
     7.23421646E-23    2    -2000004         4   # BR(~chi_40 -> ~c_R*     c )
     4.64361664E-03    2     1000003        -3   # BR(~chi_40 -> ~s_L      sb)
     4.64361664E-03    2    -1000003         3   # BR(~chi_40 -> ~s_L*     s )
     8.79069020E-17    2     2000003        -3   # BR(~chi_40 -> ~s_R      sb)
     8.79069020E-17    2    -2000003         3   # BR(~chi_40 -> ~s_R*     s )
     5.66567768E-03    2     1000006        -6   # BR(~chi_40 -> ~t_1      tb)
     5.66567768E-03    2    -1000006         6   # BR(~chi_40 -> ~t_1*     t )
     1.98833588E-01    2     1000005        -5   # BR(~chi_40 -> ~b_1      bb)
     1.98833588E-01    2    -1000005         5   # BR(~chi_40 -> ~b_1*     b )
     2.18655973E-01    2     2000005        -5   # BR(~chi_40 -> ~b_2      bb)
     2.18655973E-01    2    -2000005         5   # BR(~chi_40 -> ~b_2*     b )
     2.42811386E-15    2     1000011       -11   # BR(~chi_40 -> ~e_L-     e+)
     2.42811386E-15    2    -1000011        11   # BR(~chi_40 -> ~e_L+     e-)
     4.13693256E-28    2     2000011       -11   # BR(~chi_40 -> ~e_R-     e+)
     4.13693256E-28    2    -2000011        11   # BR(~chi_40 -> ~e_R+     e-)
     2.42811386E-15    2     1000013       -13   # BR(~chi_40 -> ~mu_L-    mu+)
     2.42811386E-15    2    -1000013        13   # BR(~chi_40 -> ~mu_L+    mu-)
     4.13693256E-28    2     2000013       -13   # BR(~chi_40 -> ~mu_R-    mu+)
     4.13693256E-28    2    -2000013        13   # BR(~chi_40 -> ~mu_R+    mu-)
     3.48678071E-15    2     1000012       -12   # BR(~chi_40 -> ~nu_eL    nu_eb)
     3.48678071E-15    2    -1000012        12   # BR(~chi_40 -> ~nu_eL*   nu_e )
     3.48678071E-15    2     1000014       -14   # BR(~chi_40 -> ~nu_muL   nu_mub)
     3.48678071E-15    2    -1000014        14   # BR(~chi_40 -> ~nu_muL*  nu_mu )
     3.48678071E-15    2     1000016       -16   # BR(~chi_40 -> ~nu_tau1  nu_taub)
     3.48678071E-15    2    -1000016        16   # BR(~chi_40 -> ~nu_tau1* nu_tau )
     2.46107708E-02    2     1000039        22   # BR(~chi_40 -> ~G        gam)
     7.69530224E-02    2     1000039        23   # BR(~chi_40 -> ~G        Z)
     4.64563967E-09    2     1000039        25   # BR(~chi_40 -> ~G        h)
     2.91671738E-08    2     1000039        35   # BR(~chi_40 -> ~G        H)
     5.74758245E-12    2     1000039        36   # BR(~chi_40 -> ~G        A)
#
#
#
#
