#
#                              ======================
#                              | THE SUSYHIT OUTPUT |
#                              ======================
#
#
#              ------------------------------------------------------
#              |     This is the output of the SUSY-HIT package     |
#              |  created by A.Djouadi, M.Muehlleitner and M.Spira. |
#              |  In case of problems with SUSY-HIT email to        |
#              |           margarete.muehlleitner@cern.ch           |
#              |           michael.spira@psi.ch                     |
#              |           abdelhak.djouadi@cern.ch                 |
#              ------------------------------------------------------
#
#              ------------------------------------------------------
#              |  SUSY Les Houches Accord - MSSM Spectrum + Decays  |
#              |              based on the decay programs           |
#              |                                                    |
#              |                     SDECAY 1.3b                    |
#              |                                                    |
#              |  Authors: M.Muhlleitner, A.Djouadi and Y.Mambrini  |
#              |  Ref.:    Comput.Phys.Commun.168(2005)46           |
#              |           [hep-ph/0311167]                         |
#              |                                                    |
#              |                     HDECAY 3.4                     |
#              |                                                    |
#              |  By: A.Djouadi,J.Kalinowski,M.Muhlleitner,M.Spira  |
#              |  Ref.:    Comput.Phys.Commun.108(1998)56           |
#              |           [hep-ph/9704448]                         |
#              |                                                    |
#              |                                                    |
#              |  If not stated otherwise all DRbar couplings and   |
#              |  soft SUSY breaking masses are given at the scale  |
#              |  Q=  0.91187600E+02
#              |                                                    |
#              ------------------------------------------------------
#
#
BLOCK DCINFO  # Decay Program information
     1   SDECAY/HDECAY # decay calculator
     2   1.3b  /3.4    # version number
#
BLOCK SPINFO  # Spectrum calculator information
     1   SuSpect     # RGE +Spectrum calculator            
     2   2.41         # version number                     
#
BLOCK MODSEL  # Model selection
     1     0   # #general MSSM low scale                           
#
BLOCK SMINPUTS  # Standard Model inputs
         1     1.27934000E+02   # alpha_em^-1(M_Z)^MSbar
         2     1.16639000E-05   # G_F [GeV^-2]
         3     1.17200000E-01   # alpha_S(M_Z)^MSbar
         4     9.11870000E+01   # M_Z pole mass
         5     4.25000000E+00   # mb(mb)^MSbar
         6     1.72500000E+02   # mt pole mass
         7     1.77700000E+00   # mtau pole mass
#
BLOCK MINPAR  # Input parameters - minimal models
#
BLOCK EXTPAR  # Input parameters - non-minimal models
         0     9.11876000E+01   # EWSB                
         1     2.00000000E+02   # M_1                 
         2     1.00000000E+05   # M_2                 
         3     1.00000000E+05   # M_3                 
        11     0.00000000E+00   # A_t                 
        12     0.00000000E+00   # A_b                 
        13     0.00000000E+00   # A_tau               
        14     0.00000000E+00   # A_u                 
        15     0.00000000E+00   # A_d                 
        16     0.00000000E+00   # A_e                 
        23     3.50000000E+03   # mu(EWSB)            
        25     1.50000000E+00   # tanbeta(in)         
        26     2.00000000E+03   # MA_pole             
        31     1.00000000E+05   # M_eL                
        32     1.00000000E+05   # M_muL               
        33     1.00000000E+05   # M_tauL              
        34     1.00000000E+05   # M_eR                
        35     1.00000000E+05   # M_muR               
        36     1.00000000E+05   # M_tauR              
        41     1.50000000E+03   # M_q1L               
        42     1.50000000E+03   # M_q2L               
        43     1.50000000E+03   # M_q3L               
        44     1.00000000E+05   # M_uR                
        45     1.00000000E+05   # M_cR                
        46     1.00000000E+05   # M_tR                
        47     1.50000000E+03   # M_dR                
        48     1.50000000E+03   # M_sR                
        49     1.50000000E+03   # M_bR                
#
BLOCK MASS  # Mass Spectrum
# PDG code           mass       particle
        24     8.05826010E+01   # W+
        25     1.25000000E+02   # h
        35     2.00400924E+03   # H
        36     2.00000000E+03   # A
        37     2.02369770E+03   # H+
         5     4.87877839E+00   # b-quark pole mass calculated from mb(mb)_Msbar
   1000001     1.50044282E+03   # ~d_L
   2000001     1.50008529E+03   # ~d_R
   1000002     1.49964237E+03   # ~u_L
   2000002     9.99999974E+04   # ~u_R
   1000003     1.50044282E+03   # ~s_L
   2000003     1.50008529E+03   # ~s_R
   1000004     1.49964237E+03   # ~c_L
   2000004     9.99999974E+04   # ~c_R
   1000005     1.49573439E+03   # ~b_1
   2000005     1.50478455E+03   # ~b_2
   1000006     1.50687501E+03   # ~t_1
   2000006     1.00000106E+05   # ~t_2
   1000011     1.00000004E+05   # ~e_L
   2000011     1.00000004E+05   # ~e_R
   1000012     9.99999921E+04   # ~nu_eL
   1000013     1.00000004E+05   # ~mu_L
   2000013     1.00000004E+05   # ~mu_R
   1000014     9.99999921E+04   # ~nu_muL
   1000015     9.99999574E+04   # ~tau_1
   2000015     1.00000051E+05   # ~tau_2
   1000016     9.99999921E+04   # ~nu_tauL
   1000021     1.00000000E+05   # ~g
   1000022     1.99439282E+02   # ~chi_10
   1000023    -3.50002307E+03   # ~chi_20
   1000025     3.50051925E+03   # ~chi_30
   1000035     1.00000065E+05   # ~chi_40
   1000024     3.49994011E+03   # ~chi_1+
   1000037     1.00000065E+05   # ~chi_2+
   1000039     1.00000000E-09   # ~gravitino
#
BLOCK NMIX  # Neutralino Mixing Matrix
  1  1     9.99909120E-01   # N_11
  1  2    -9.93624843E-06   # N_12
  1  3     1.10592216E-02   # N_13
  1  4    -7.71010290E-03   # N_14
  2  1     2.36817152E-03   # N_21
  2  2    -1.49736543E-04   # N_22
  2  3    -7.07093139E-01   # N_23
  2  4    -7.07116442E-01   # N_24
  3  1     1.32719209E-02   # N_31
  3  2     8.02863547E-04   # N_32
  3  3    -7.07033785E-01   # N_33
  3  4     7.07054763E-01   # N_34
  4  1     3.65595332E-07   # N_41
  4  2    -9.99999666E-01   # N_42
  4  3    -4.61884012E-04   # N_43
  4  4     6.73626499E-04   # N_44
#
BLOCK UMIX  # Chargino Mixing Matrix U
  1  1    -6.53202429E-04   # U_11
  1  2     9.99999787E-01   # U_12
  2  1     9.99999787E-01   # U_21
  2  2     6.53202429E-04   # U_22
#
BLOCK VMIX  # Chargino Mixing Matrix V
  1  1    -9.52651645E-04   # V_11
  1  2     9.99999546E-01   # V_12
  2  1     9.99999546E-01   # V_21
  2  2     9.52651645E-04   # V_22
#
BLOCK STOPMIX  # Stop Mixing Matrix
  1  1     9.99999999E-01   # cos(theta_t)
  1  2     4.47213589E-05   # sin(theta_t)
  2  1    -4.47213589E-05   # -sin(theta_t)
  2  2     9.99999999E-01   # cos(theta_t)
#
BLOCK SBOTMIX  # Sbottom Mixing Matrix
  1  1     6.92998905E-01   # cos(theta_b)
  1  2     7.20938637E-01   # sin(theta_b)
  2  1    -7.20938637E-01   # -sin(theta_b)
  2  2     6.92998905E-01   # cos(theta_b)
#
BLOCK STAUMIX  # Stau Mixing Matrix
  1  1     7.06171516E-01   # cos(theta_tau)
  1  2     7.08040811E-01   # sin(theta_tau)
  2  1    -7.08040811E-01   # -sin(theta_tau)
  2  2     7.06171516E-01   # cos(theta_tau)
#
BLOCK ALPHA  # Higgs mixing
          -5.90293041E-01   # Mixing angle in the neutral Higgs boson sector
#
BLOCK HMIX Q=  9.11876000E+01  # DRbar Higgs Parameters
         1     3.50000000E+03   # mu(Q)               
         2     1.49999982E+00   # tanbeta(Q)          
         3     2.54858508E+02   # vev(Q)              
         4    -6.82265612E+07   # MA^2(Q)             
#
BLOCK GAUGE Q=  9.11876000E+01  # The gauge couplings
     1     3.50590927E-01   # gprime(Q) DRbar
     2     6.20085155E-01   # g(Q) DRbar
     3     1.02511093E+00   # g3(Q) DRbar
#
BLOCK AU Q=  9.11876000E+01  # The trilinear couplings
  1  1     0.00000000E+00   # A_u(Q) DRbar
  2  2     0.00000000E+00   # A_c(Q) DRbar
  3  3     0.00000000E+00   # A_t(Q) DRbar
#
BLOCK AD Q=  9.11876000E+01  # The trilinear couplings
  1  1     0.00000000E+00   # A_d(Q) DRbar
  2  2     0.00000000E+00   # A_s(Q) DRbar
  3  3     0.00000000E+00   # A_b(Q) DRbar
#
BLOCK AE Q=  9.11876000E+01  # The trilinear couplings
  1  1     0.00000000E+00   # A_e(Q) DRbar
  2  2     0.00000000E+00   # A_mu(Q) DRbar
  3  3     0.00000000E+00   # A_tau(Q) DRbar
#
BLOCK Yu Q=  9.11876000E+01  # The Yukawa couplings
  1  1     0.00000000E+00   # y_u(Q) DRbar
  2  2     0.00000000E+00   # y_c(Q) DRbar
  3  3     9.83705178E-01   # y_t(Q) DRbar
#
BLOCK Yd Q=  9.11876000E+01  # The Yukawa couplings
  1  1     0.00000000E+00   # y_d(Q) DRbar
  2  2     0.00000000E+00   # y_s(Q) DRbar
  3  3     2.58512500E-02   # y_b(Q) DRbar
#
BLOCK Ye Q=  9.11876000E+01  # The Yukawa couplings
  1  1     0.00000000E+00   # y_e(Q) DRbar
  2  2     0.00000000E+00   # y_mu(Q) DRbar
  3  3     1.77404543E-02   # y_tau(Q) DRbar
#
BLOCK MSOFT Q=  9.11876000E+01  # The soft SUSY breaking masses at the scale Q
         1     2.00000000E+02   # M_1                 
         2     1.00000000E+05   # M_2                 
         3     1.00000000E+05   # M_3                 
        14     0.00000000E+00   # A_u                 
        15     0.00000000E+00   # A_d                 
        16     0.00000000E+00   # A_e                 
        21     6.32058781E+08   # M^2_Hd              
        22    -1.14888165E+09   # M^2_Hu              
        31     1.00000000E+05   # M_eL                
        32     1.00000000E+05   # M_muL               
        33     1.00000000E+05   # M_tauL              
        34     1.00000000E+05   # M_eR                
        35     1.00000000E+05   # M_muR               
        36     1.00000000E+05   # M_tauR              
        41     1.50000000E+03   # M_q1L               
        42     1.50000000E+03   # M_q2L               
        43     1.50000000E+03   # M_q3L               
        44     1.00000000E+05   # M_uR                
        45     1.00000000E+05   # M_cR                
        46     1.00000000E+05   # M_tR                
        47     1.50000000E+03   # M_dR                
        48     1.50000000E+03   # M_sR                
        49     1.50000000E+03   # M_bR                
#
#
#
#                             =================
#                             |The decay table|
#                             =================
#
# - The QCD corrections to the decays gluino -> squark  + quark
#                                     squark -> gaugino + quark_prime
#                                     squark -> squark_prime + Higgs
#                                     squark -> gluino  + quark
#   are included.
#
# - The multi-body decays for the inos, stops and sbottoms are included.
#
# - The loop induced decays for the gluino, neutralinos and stops
#   are included.
#
# - The SUSY decays of the top quark are included.
#
# - Possible decays of the NLSP in GMSB models are included.
#
#
#         PDG            Width
DECAY         6     1.32712449E+00   # top decays
#          BR         NDA      ID1       ID2
     1.00000000E+00    2           5        24   # BR(t ->  b    W+)
#
#         PDG            Width
DECAY   1000021     1.E-04   # gluino decays (OJ Mods)
#          BR         NDA      ID1       ID2
    -5.81159198E-04    2     1000001        -1   # BR(~g -> ~d_L  db)
    -5.81159198E-04    2    -1000001         1   # BR(~g -> ~d_L* d )
    -5.81159323E-04    2     2000001        -1   # BR(~g -> ~d_R  db)
    -5.81159323E-04    2    -2000001         1   # BR(~g -> ~d_R* d )
    -5.81159477E-04    2     1000002        -2   # BR(~g -> ~u_L  ub)
    -5.81159477E-04    2    -1000002         2   # BR(~g -> ~u_L* u )
    -1.57216225E-18    2     2000002        -2   # BR(~g -> ~u_R  ub)
    -1.57216225E-18    2    -2000002         2   # BR(~g -> ~u_R* u )
    -5.81159198E-04    2     1000003        -3   # BR(~g -> ~s_L  sb)
    -5.81159198E-04    2    -1000003         3   # BR(~g -> ~s_L* s )
    -5.81159323E-04    2     2000003        -3   # BR(~g -> ~s_R  sb)
    -5.81159323E-04    2    -2000003         3   # BR(~g -> ~s_R* s )
    -5.81159477E-04    2     1000004        -4   # BR(~g -> ~c_L  cb)
    -5.81159477E-04    2    -1000004         4   # BR(~g -> ~c_L* c )
    -1.57216225E-18    2     2000004        -4   # BR(~g -> ~c_R  cb)
    -1.57216225E-18    2    -2000004         4   # BR(~g -> ~c_R* c )
     2.56689024E-01    2     1000005        -5   # BR(~g -> ~b_1  bb)
     2.56689024E-01    2    -1000005         5   # BR(~g -> ~b_1* b )
     2.55511186E-01    2     2000005        -5   # BR(~g -> ~b_2  bb)
     2.55511186E-01    2    -2000005         5   # BR(~g -> ~b_2* b )
    -5.71939322E-04    2     1000006        -6   # BR(~g -> ~t_1  tb)
    -5.71939322E-04    2    -1000006         6   # BR(~g -> ~t_1* t )
    -1.62826297E-02    2     1000039        21   # BR(~g -> ~G g)
#
#         PDG            Width
DECAY   1000006     2.32652137E-01   # stop1 decays
#          BR         NDA      ID1       ID2
     1.00000000E+00    2     1000022         6   # BR(~t_1 -> ~chi_10 t )
#
#         PDG            Width
DECAY   2000006    -3.11208633E+05   # stop2 decays
#          BR         NDA      ID1       ID2
    -6.69619042E-04    2     1000022         6   # BR(~t_2 -> ~chi_10 t )
    -1.60457640E-03    2     1000023         6   # BR(~t_2 -> ~chi_20 t )
    -1.60438630E-03    2     1000025         6   # BR(~t_2 -> ~chi_30 t )
     1.00382312E+00    2     1000024         5   # BR(~t_2 -> ~chi_1+ b )
     4.37629153E-05    2     1000006        25   # BR(~t_2 -> ~t_1    h )
    -4.58231248E-05    2     1000006        35   # BR(~t_2 -> ~t_1    H )
    -4.57431636E-05    2     1000006        36   # BR(~t_2 -> ~t_1    A )
    -4.30875077E-05    2     1000005        37   # BR(~t_2 -> ~b_1    H+)
    -4.83970511E-05    2     2000005        37   # BR(~t_2 -> ~b_2    H+)
     3.12445459E-05    2     1000006        23   # BR(~t_2 -> ~t_1    Z )
     7.85239104E-05    2     1000005        24   # BR(~t_2 -> ~b_1    W+)
     8.49798301E-05    2     2000005        24   # BR(~t_2 -> ~b_2    W+)
#
#         PDG            Width
DECAY   1000005    -8.99253891E+01   # sbottom1 decays
#          BR         NDA      ID1       ID2
     1.00000000E+00    2     1000022         5   # BR(~b_1 -> ~chi_10 b )
#
#         PDG            Width
DECAY   2000005    -8.58550637E+01   # sbottom2 decays
#          BR         NDA      ID1       ID2
     1.00000000E+00    2     1000022         5   # BR(~b_2 -> ~chi_10 b )
#
#         PDG            Width
DECAY   1000002     2.35969491E-01   # sup_L decays
#          BR         NDA      ID1       ID2
     1.00000000E+00    2     1000022         2   # BR(~u_L -> ~chi_10 u)
#
#         PDG            Width
DECAY   2000002     2.08382428E+02   # sup_R decays
#          BR         NDA      ID1       ID2
     9.99818445E-01    2     1000022         2   # BR(~u_R -> ~chi_10 u)
     5.60216190E-06    2     1000023         2   # BR(~u_R -> ~chi_20 u)
     1.75953020E-04    2     1000025         2   # BR(~u_R -> ~chi_30 u)
#
#         PDG            Width
DECAY   1000001     2.36147940E-01   # sdown_L decays
#          BR         NDA      ID1       ID2
     1.00000000E+00    2     1000022         1   # BR(~d_L -> ~chi_10 d)
#
#         PDG            Width
DECAY   2000001     9.44262287E-01   # sdown_R decays
#          BR         NDA      ID1       ID2
     1.00000000E+00    2     1000022         1   # BR(~d_R -> ~chi_10 d)
#
#         PDG            Width
DECAY   1000004     2.35969491E-01   # scharm_L decays
#          BR         NDA      ID1       ID2
     1.00000000E+00    2     1000022         4   # BR(~c_L -> ~chi_10 c)
#
#         PDG            Width
DECAY   2000004     2.08382428E+02   # scharm_R decays
#          BR         NDA      ID1       ID2
     9.99818445E-01    2     1000022         4   # BR(~c_R -> ~chi_10 c)
     5.60216190E-06    2     1000023         4   # BR(~c_R -> ~chi_20 c)
     1.75953020E-04    2     1000025         4   # BR(~c_R -> ~chi_30 c)
#
#         PDG            Width
DECAY   1000003     2.36147940E-01   # sstrange_L decays
#          BR         NDA      ID1       ID2
     1.00000000E+00    2     1000022         3   # BR(~s_L -> ~chi_10 s)
#
#         PDG            Width
DECAY   2000003     9.44262287E-01   # sstrange_R decays
#          BR         NDA      ID1       ID2
     1.00000000E+00    2     1000022         3   # BR(~s_R -> ~chi_10 s)
#
#         PDG            Width
DECAY   1000011     1.22264520E+02   # selectron_L decays
#          BR         NDA      ID1       ID2
     9.99777599E-01    2     1000022        11   # BR(~e_L -> ~chi_10 e-)
     4.41319507E-06    2     1000023        11   # BR(~e_L -> ~chi_20 e-)
     2.15324785E-04    2     1000025        11   # BR(~e_L -> ~chi_30 e-)
     2.66295193E-06    2    -1000024        12   # BR(~e_L -> ~chi_1- nu_e)
#
#         PDG            Width
DECAY   2000011     4.89055171E+02   # selectron_R decays
#          BR         NDA      ID1       ID2
     9.99818692E-01    2     1000022        11   # BR(~e_R -> ~chi_10 e-)
     5.59455139E-06    2     1000023        11   # BR(~e_R -> ~chi_20 e-)
     1.75713944E-04    2     1000025        11   # BR(~e_R -> ~chi_30 e-)
#
#         PDG            Width
DECAY   1000013     1.22264520E+02   # smuon_L decays
#          BR         NDA      ID1       ID2
     9.99777599E-01    2     1000022        13   # BR(~mu_L -> ~chi_10 mu-)
     4.41319507E-06    2     1000023        13   # BR(~mu_L -> ~chi_20 mu-)
     2.15324785E-04    2     1000025        13   # BR(~mu_L -> ~chi_30 mu-)
     2.66295193E-06    2    -1000024        14   # BR(~mu_L -> ~chi_1- nu_mu)
#
#         PDG            Width
DECAY   2000013     4.89055171E+02   # smuon_R decays
#          BR         NDA      ID1       ID2
     9.99818692E-01    2     1000022        13   # BR(~mu_R -> ~chi_10 mu-)
     5.59455139E-06    2     1000023        13   # BR(~mu_R -> ~chi_20 mu-)
     1.75713944E-04    2     1000025        13   # BR(~mu_R -> ~chi_30 mu-)
#
#         PDG            Width
DECAY   1000015     1.18200237E+04   # stau_1 decays
#          BR         NDA      ID1       ID2
     2.59037855E-02    2     1000022        15   # BR(~tau_1 -> ~chi_10  tau-)
     2.51838931E-05    2     1000023        15   # BR(~tau_1 -> ~chi_20  tau-)
     2.49831106E-05    2     1000025        15   # BR(~tau_1 -> ~chi_30  tau-)
     2.77108499E-05    2    -1000024        16   # BR(~tau_1 -> ~chi_1-  nu_tau)
     9.74018337E-01    2     1000039        15   # BR(~tau_1 -> ~G       tau-)
#
#         PDG            Width
DECAY   2000015     3.06089584E+02   # stau_2 decays
#          BR         NDA      ID1       ID2
     9.96507690E-01    2     1000022        15   # BR(~tau_2 -> ~chi_10  tau-)
     1.07866189E-03    2     1000023        15   # BR(~tau_2 -> ~chi_20  tau-)
     1.44212744E-03    2     1000025        15   # BR(~tau_2 -> ~chi_30  tau-)
     9.71520685E-04    2    -1000024        16   # BR(~tau_2 -> ~chi_1-  nu_tau)
#
#         PDG            Width
DECAY   1000012     1.22264578E+02   # snu_eL decays
#          BR         NDA      ID1       ID2
     9.99847296E-01    2     1000022        12   # BR(~nu_eL -> ~chi_10 nu_e)
     6.91577106E-06    2     1000023        12   # BR(~nu_eL -> ~chi_20 nu_e)
     1.40123938E-04    2     1000025        12   # BR(~nu_eL -> ~chi_30 nu_e)
     5.66416285E-06    2     1000024        11   # BR(~nu_eL -> ~chi_1+ e-)
#
#         PDG            Width
DECAY   1000014     1.22264578E+02   # snu_muL decays
#          BR         NDA      ID1       ID2
     9.99847296E-01    2     1000022        14   # BR(~nu_muL -> ~chi_10 nu_mu)
     6.91577106E-06    2     1000023        14   # BR(~nu_muL -> ~chi_20 nu_mu)
     1.40123938E-04    2     1000025        14   # BR(~nu_muL -> ~chi_30 nu_mu)
     5.66416285E-06    2     1000024        13   # BR(~nu_muL -> ~chi_1+ mu-)
#
#         PDG            Width
DECAY   1000016     1.22889168E+02   # snu_tauL decays
#          BR         NDA      ID1       ID2
     9.94765529E-01    2     1000022        16   # BR(~nu_tauL -> ~chi_10 nu_tau)
     6.88062135E-06    2     1000023        16   # BR(~nu_tauL -> ~chi_20 nu_tau)
     1.39411752E-04    2     1000025        16   # BR(~nu_tauL -> ~chi_30 nu_tau)
     5.08817909E-03    2     1000024        15   # BR(~nu_tauL -> ~chi_1+ tau-)
#
#         PDG            Width
DECAY   1000024     5.08671427E+01   # chargino1+ decays
#          BR         NDA      ID1       ID2
     5.64813609E-07    2     1000002        -1   # BR(~chi_1+ -> ~u_L     db)
     2.65420804E-07    2    -1000001         2   # BR(~chi_1+ -> ~d_L*    u )
     5.64813609E-07    2     1000004        -3   # BR(~chi_1+ -> ~c_L     sb)
     2.65420804E-07    2    -1000003         4   # BR(~chi_1+ -> ~s_L*    c )
    -1.67068808E-01    2     1000006        -5   # BR(~chi_1+ -> ~t_1     bb)
     1.00826476E-01    2    -1000005         6   # BR(~chi_1+ -> ~b_1*    t )
     1.00593899E+00    2    -2000005         6   # BR(~chi_1+ -> ~b_2*    t )
     4.46683146E-02    2     1000022        24   # BR(~chi_1+ -> ~chi_10  W+)
     1.56262722E-02    2     1000022        37   # BR(~chi_1+ -> ~chi_10  H+)
     5.93107784E-06    2     1000039        24   # BR(~chi_1+ -> ~G       W+)
     1.16698529E-06    2     1000039        37   # BR(~chi_1+ -> ~G       H+)
#
#         PDG            Width
DECAY   1000037    -1.78683034E+05   # chargino2+ decays
#          BR         NDA      ID1       ID2
    -6.58031569E-03    2     1000002        -1   # BR(~chi_2+ -> ~u_L     db)
    -6.58031778E-03    2    -1000001         2   # BR(~chi_2+ -> ~d_L*    u )
    -6.58031569E-03    2     1000004        -3   # BR(~chi_2+ -> ~c_L     sb)
    -6.58031778E-03    2    -1000003         4   # BR(~chi_2+ -> ~s_L*    c )
     1.11192324E+00    2     1000006        -5   # BR(~chi_2+ -> ~t_1     bb)
    -1.43406898E-03    2    -1000005         6   # BR(~chi_2+ -> ~b_1*    t )
    -6.25484487E-03    2    -2000005         6   # BR(~chi_2+ -> ~b_2*    t )
    -4.86360525E-15    2     1000012       -11   # BR(~chi_2+ -> ~nu_eL   e+  )
    -4.86360525E-15    2     1000014       -13   # BR(~chi_2+ -> ~nu_muL  mu+ )
    -3.40536128E-15    2    -1000011        12   # BR(~chi_2+ -> ~e_L+    nu_e)
    -3.40536128E-15    2    -1000013        14   # BR(~chi_2+ -> ~mu_L+   nu_mu)
    -5.28362492E-15    2    -1000015        16   # BR(~chi_2+ -> ~tau_1+  nu_tau)
    -8.99275101E-17    2    -2000015        16   # BR(~chi_2+ -> ~tau_2+  nu_tau)
    -1.20673931E-03    2     1000024        23   # BR(~chi_2+ -> ~chi_1+  Z )
    -1.61379439E-07    2     1000022        24   # BR(~chi_2+ -> ~chi_10  W+)
    -1.17094054E-03    2     1000023        24   # BR(~chi_2+ -> ~chi_20  W+)
    -1.17076667E-03    2     1000025        24   # BR(~chi_2+ -> ~chi_30  W+)
    -1.21792765E-03    2     1000024        25   # BR(~chi_2+ -> ~chi_1+  h )
    -1.06911155E-03    2     1000024        35   # BR(~chi_2+ -> ~chi_1+  H )
    -1.06925275E-03    2     1000024        36   # BR(~chi_2+ -> ~chi_1+  A )
    -2.21656010E-07    2     1000022        37   # BR(~chi_2+ -> ~chi_10  H+)
    -1.06921186E-03    2     1000023        37   # BR(~chi_2+ -> ~chi_20  H+)
    -1.06903257E-03    2     1000025        37   # BR(~chi_2+ -> ~chi_30  H+)
    -6.88696784E-02    2     1000039        24   # BR(~chi_2+ -> ~G       W+)
    -1.97550889E-08    2     1000039        37   # BR(~chi_2+ -> ~G       H+)
#
#         PDG            Width
DECAY   1000022     1.E-08   # neutralino1 decays (OJ Mods)
#          BR         NDA      ID1       ID2
     8.88763252E-01    2     1000039        22   # BR(~chi_10 -> ~G        gam)
     1.11236743E-01    2     1000039        23   # BR(~chi_10 -> ~G        Z)
     4.97320170E-09    2     1000039        25   # BR(~chi_10 -> ~G        h)
#
#         PDG            Width
DECAY   1000023     1.E-08   # neutralino2 decays (OJ Mods)
#          BR         NDA      ID1       ID2
     5.24543285E-02    2     1000022        23   # BR(~chi_20 -> ~chi_10   Z )
     1.64374661E-03    2     1000022        25   # BR(~chi_20 -> ~chi_10   h )
     1.77869536E-02    2     1000022        35   # BR(~chi_20 -> ~chi_10   H )
     1.00256736E-03    2     1000022        36   # BR(~chi_20 -> ~chi_10   A )
     3.71540247E-08    2     1000002        -2   # BR(~chi_20 -> ~u_L      ub)
     3.71540247E-08    2    -1000002         2   # BR(~chi_20 -> ~u_L*     u )
     1.50004833E-07    2     1000001        -1   # BR(~chi_20 -> ~d_L      db)
     1.50004833E-07    2    -1000001         1   # BR(~chi_20 -> ~d_L*     d )
     3.36484509E-07    2     2000001        -1   # BR(~chi_20 -> ~d_R      db)
     3.36484509E-07    2    -2000001         1   # BR(~chi_20 -> ~d_R*     d )
     3.71540247E-08    2     1000004        -4   # BR(~chi_20 -> ~c_L      cb)
     3.71540247E-08    2    -1000004         4   # BR(~chi_20 -> ~c_L*     c )
     1.50004833E-07    2     1000003        -3   # BR(~chi_20 -> ~s_L      sb)
     1.50004833E-07    2    -1000003         3   # BR(~chi_20 -> ~s_L*     s )
     3.36484509E-07    2     2000003        -3   # BR(~chi_20 -> ~s_R      sb)
     3.36484509E-07    2    -2000003         3   # BR(~chi_20 -> ~s_R*     s )
     6.49402654E-01    2     1000006        -6   # BR(~chi_20 -> ~t_1      tb)
     6.49402654E-01    2    -1000006         6   # BR(~chi_20 -> ~t_1*     t )
    -8.92872066E-02    2     1000005        -5   # BR(~chi_20 -> ~b_1      bb)
    -8.92872066E-02    2    -1000005         5   # BR(~chi_20 -> ~b_1*     b )
    -9.65643505E-02    2     2000005        -5   # BR(~chi_20 -> ~b_2      bb)
    -9.65643505E-02    2    -2000005         5   # BR(~chi_20 -> ~b_2*     b )
     5.52277016E-11    2     1000039        22   # BR(~chi_20 -> ~G        gam)
     2.68126006E-07    2     1000039        23   # BR(~chi_20 -> ~G        Z)
     6.69160715E-06    2     1000039        25   # BR(~chi_20 -> ~G        h)
     5.36079209E-08    2     1000039        35   # BR(~chi_20 -> ~G        H)
     1.38238480E-06    2     1000039        36   # BR(~chi_20 -> ~G        A)
#
#         PDG            Width
DECAY   1000025     4.31879707E+01   # neutralino3 decays
#          BR         NDA      ID1       ID2
     1.67397578E-03    2     1000022        23   # BR(~chi_30 -> ~chi_10   Z )
     5.29408774E-02    2     1000022        25   # BR(~chi_30 -> ~chi_10   h )
     9.77855440E-04    2     1000022        35   # BR(~chi_30 -> ~chi_10   H )
     1.78791662E-02    2     1000022        36   # BR(~chi_30 -> ~chi_10   A )
     4.62073610E-06    2     1000002        -2   # BR(~chi_30 -> ~u_L      ub)
     4.62073610E-06    2    -1000002         2   # BR(~chi_30 -> ~u_L*     u )
     1.22037063E-06    2     1000001        -1   # BR(~chi_30 -> ~d_L      db)
     1.22037063E-06    2    -1000001         1   # BR(~chi_30 -> ~d_L*     d )
     1.05894400E-05    2     2000001        -1   # BR(~chi_30 -> ~d_R      db)
     1.05894400E-05    2    -2000001         1   # BR(~chi_30 -> ~d_R*     d )
     4.62073610E-06    2     1000004        -4   # BR(~chi_30 -> ~c_L      cb)
     4.62073610E-06    2    -1000004         4   # BR(~chi_30 -> ~c_L*     c )
     1.22037063E-06    2     1000003        -3   # BR(~chi_30 -> ~s_L      sb)
     1.22037063E-06    2    -1000003         3   # BR(~chi_30 -> ~s_L*     s )
     1.05894400E-05    2     2000003        -3   # BR(~chi_30 -> ~s_R      sb)
     1.05894400E-05    2    -2000003         3   # BR(~chi_30 -> ~s_R*     s )
     6.50738624E-01    2     1000006        -6   # BR(~chi_30 -> ~t_1      tb)
     6.50738624E-01    2    -1000006         6   # BR(~chi_30 -> ~t_1*     t )
    -7.87480225E-02    2     1000005        -5   # BR(~chi_30 -> ~b_1      bb)
    -7.87480225E-02    2    -1000005         5   # BR(~chi_30 -> ~b_1*     b )
    -1.08759209E-01    2     2000005        -5   # BR(~chi_30 -> ~b_2      bb)
    -1.08759209E-01    2    -2000005         5   # BR(~chi_30 -> ~b_2*     b )
     2.00030600E-09    2     1000039        22   # BR(~chi_30 -> ~G        gam)
     6.71732404E-06    2     1000039        23   # BR(~chi_30 -> ~G        Z)
     2.61965377E-07    2     1000039        25   # BR(~chi_30 -> ~G        h)
     1.37681122E-06    2     1000039        35   # BR(~chi_30 -> ~G        H)
     5.54445400E-08    2     1000039        36   # BR(~chi_30 -> ~G        A)
#
#         PDG            Width
DECAY   1000035    -1.78683855E+05   # neutralino4 decays
#          BR         NDA      ID1       ID2
    -1.33192982E-11    2     1000022        23   # BR(~chi_40 -> ~chi_10   Z )
    -1.16618415E-03    2     1000023        23   # BR(~chi_40 -> ~chi_20   Z )
    -4.05501649E-05    2     1000025        23   # BR(~chi_40 -> ~chi_30   Z )
    -1.17092749E-03    2     1000024       -24   # BR(~chi_40 -> ~chi_1+   W-)
    -1.17092749E-03    2    -1000024        24   # BR(~chi_40 -> ~chi_1-   W+)
    -1.68134734E-07    2     1000022        25   # BR(~chi_40 -> ~chi_10   h )
    -2.74564090E-08    2     1000022        35   # BR(~chi_40 -> ~chi_10   H )
    -1.93890417E-07    2     1000022        36   # BR(~chi_40 -> ~chi_10   A )
    -3.99960625E-05    2     1000023        25   # BR(~chi_40 -> ~chi_20   h )
    -1.02312547E-03    2     1000023        35   # BR(~chi_40 -> ~chi_20   H )
    -4.70307222E-05    2     1000023        36   # BR(~chi_40 -> ~chi_20   A )
    -1.17775871E-03    2     1000025        25   # BR(~chi_40 -> ~chi_30   h )
    -4.59520509E-05    2     1000025        35   # BR(~chi_40 -> ~chi_30   H )
    -1.02202287E-03    2     1000025        36   # BR(~chi_40 -> ~chi_30   A )
    -1.06922847E-03    2     1000024       -37   # BR(~chi_40 -> ~chi_1+   H-)
    -1.06922847E-03    2    -1000024        37   # BR(~chi_40 -> ~chi_1-   H+)
    -3.14993778E-03    2     1000002        -2   # BR(~chi_40 -> ~u_L      ub)
    -3.14993778E-03    2    -1000002         2   # BR(~chi_40 -> ~u_L*     u )
    -5.00353711E-23    2     2000002        -2   # BR(~chi_40 -> ~u_R      ub)
    -5.00353711E-23    2    -2000002         2   # BR(~chi_40 -> ~u_R*     u )
    -3.14993922E-03    2     1000001        -1   # BR(~chi_40 -> ~d_L      db)
    -3.14993922E-03    2    -1000001         1   # BR(~chi_40 -> ~d_L*     d )
    -5.98163366E-17    2     2000001        -1   # BR(~chi_40 -> ~d_R      db)
    -5.98163366E-17    2    -2000001         1   # BR(~chi_40 -> ~d_R*     d )
    -3.14993778E-03    2     1000004        -4   # BR(~chi_40 -> ~c_L      cb)
    -3.14993778E-03    2    -1000004         4   # BR(~chi_40 -> ~c_L*     c )
    -5.00353711E-23    2     2000004        -4   # BR(~chi_40 -> ~c_R      cb)
    -5.00353711E-23    2    -2000004         4   # BR(~chi_40 -> ~c_R*     c )
    -3.14993922E-03    2     1000003        -3   # BR(~chi_40 -> ~s_L      sb)
    -3.14993922E-03    2    -1000003         3   # BR(~chi_40 -> ~s_L*     s )
    -5.98163366E-17    2     2000003        -3   # BR(~chi_40 -> ~s_R      sb)
    -5.98163366E-17    2    -2000003         3   # BR(~chi_40 -> ~s_R*     s )
    -3.84443580E-03    2     1000006        -6   # BR(~chi_40 -> ~t_1      tb)
    -3.84443580E-03    2    -1000006         6   # BR(~chi_40 -> ~t_1*     t )
     2.68113822E-01    2     1000005        -5   # BR(~chi_40 -> ~b_1      bb)
     2.68113822E-01    2    -1000005         5   # BR(~chi_40 -> ~b_1*     b )
     2.87847522E-01    2     2000005        -5   # BR(~chi_40 -> ~b_2      bb)
     2.87847522E-01    2    -2000005         5   # BR(~chi_40 -> ~b_2*     b )
    -1.70267116E-15    2     1000011       -11   # BR(~chi_40 -> ~e_L-     e+)
    -1.70267116E-15    2    -1000011        11   # BR(~chi_40 -> ~e_L+     e-)
    -2.90998803E-28    2     2000011       -11   # BR(~chi_40 -> ~e_R-     e+)
    -2.90998803E-28    2    -2000011        11   # BR(~chi_40 -> ~e_R+     e-)
    -1.70267116E-15    2     1000013       -13   # BR(~chi_40 -> ~mu_L-    mu+)
    -1.70267116E-15    2    -1000013        13   # BR(~chi_40 -> ~mu_L+    mu-)
    -2.90998803E-28    2     2000013       -13   # BR(~chi_40 -> ~mu_R-    mu+)
    -2.90998803E-28    2    -2000013        13   # BR(~chi_40 -> ~mu_R+    mu-)
    -2.43179227E-15    2     1000012       -12   # BR(~chi_40 -> ~nu_eL    nu_eb)
    -2.43179227E-15    2    -1000012        12   # BR(~chi_40 -> ~nu_eL*   nu_e )
    -2.43179227E-15    2     1000014       -14   # BR(~chi_40 -> ~nu_muL   nu_mub)
    -2.43179227E-15    2    -1000014        14   # BR(~chi_40 -> ~nu_muL*  nu_mu )
    -2.43179227E-15    2     1000016       -16   # BR(~chi_40 -> ~nu_tau1  nu_taub)
    -2.43179227E-15    2    -1000016        16   # BR(~chi_40 -> ~nu_tau1* nu_tau )
    -1.66824714E-02    2     1000039        22   # BR(~chi_40 -> ~G        gam)
    -5.21868640E-02    2     1000039        23   # BR(~chi_40 -> ~G        Z)
    -3.15195775E-09    2     1000039        25   # BR(~chi_40 -> ~G        h)
    -1.97879624E-08    2     1000039        35   # BR(~chi_40 -> ~G        H)
    -3.89938192E-12    2     1000039        36   # BR(~chi_40 -> ~G        A)
#
#
#
#
