#
#                              ======================
#                              | THE SUSYHIT OUTPUT |
#                              ======================
#
#
#              ------------------------------------------------------
#              |     This is the output of the SUSY-HIT package     |
#              |  created by A.Djouadi, M.Muehlleitner and M.Spira. |
#              |  In case of problems with SUSY-HIT email to        |
#              |           margarete.muehlleitner@cern.ch           |
#              |           michael.spira@psi.ch                     |
#              |           abdelhak.djouadi@cern.ch                 |
#              ------------------------------------------------------
#
#              ------------------------------------------------------
#              |  SUSY Les Houches Accord - MSSM Spectrum + Decays  |
#              |              based on the decay programs           |
#              |                                                    |
#              |                     SDECAY 1.3b                    |
#              |                                                    |
#              |  Authors: M.Muhlleitner, A.Djouadi and Y.Mambrini  |
#              |  Ref.:    Comput.Phys.Commun.168(2005)46           |
#              |           [hep-ph/0311167]                         |
#              |                                                    |
#              |                     HDECAY 3.4                     |
#              |                                                    |
#              |  By: A.Djouadi,J.Kalinowski,M.Muhlleitner,M.Spira  |
#              |  Ref.:    Comput.Phys.Commun.108(1998)56           |
#              |           [hep-ph/9704448]                         |
#              |                                                    |
#              |                                                    |
#              |  If not stated otherwise all DRbar couplings and   |
#              |  soft SUSY breaking masses are given at the scale  |
#              |  Q=  0.91187600E+02
#              |                                                    |
#              ------------------------------------------------------
#
#
BLOCK DCINFO  # Decay Program information
     1   SDECAY/HDECAY # decay calculator
     2   1.3b  /3.4    # version number
#
BLOCK SPINFO  # Spectrum calculator information
     1   SuSpect     # RGE +Spectrum calculator            
     2   2.41         # version number                     
#
BLOCK MODSEL  # Model selection
     1     0   # #general MSSM low scale                           
#
BLOCK SMINPUTS  # Standard Model inputs
         1     1.27934000E+02   # alpha_em^-1(M_Z)^MSbar
         2     1.16639000E-05   # G_F [GeV^-2]
         3     1.17200000E-01   # alpha_S(M_Z)^MSbar
         4     9.11870000E+01   # M_Z pole mass
         5     4.25000000E+00   # mb(mb)^MSbar
         6     1.72500000E+02   # mt pole mass
         7     1.77700000E+00   # mtau pole mass
#
BLOCK MINPAR  # Input parameters - minimal models
#
BLOCK EXTPAR  # Input parameters - non-minimal models
         0     9.11876000E+01   # EWSB                
         1     1.65000000E+03   # M_1                 
         2     1.00000000E+05   # M_2                 
         3     1.00000000E+05   # M_3                 
        11     0.00000000E+00   # A_t                 
        12     0.00000000E+00   # A_b                 
        13     0.00000000E+00   # A_tau               
        14     0.00000000E+00   # A_u                 
        15     0.00000000E+00   # A_d                 
        16     0.00000000E+00   # A_e                 
        23     3.50000000E+03   # mu(EWSB)            
        25     1.50000000E+00   # tanbeta(in)         
        26     2.00000000E+03   # MA_pole             
        31     1.00000000E+05   # M_eL                
        32     1.00000000E+05   # M_muL               
        33     1.00000000E+05   # M_tauL              
        34     1.00000000E+05   # M_eR                
        35     1.00000000E+05   # M_muR               
        36     1.00000000E+05   # M_tauR              
        41     1.70000000E+03   # M_q1L               
        42     1.70000000E+03   # M_q2L               
        43     1.70000000E+03   # M_q3L               
        44     1.00000000E+05   # M_uR                
        45     1.00000000E+05   # M_cR                
        46     1.00000000E+05   # M_tR                
        47     1.70000000E+03   # M_dR                
        48     1.70000000E+03   # M_sR                
        49     1.70000000E+03   # M_bR                
#
BLOCK MASS  # Mass Spectrum
# PDG code           mass       particle
        24     8.05834124E+01   # W+
        25     1.25000000E+02   # h
        35     2.00402739E+03   # H
        36     2.00000000E+03   # A
        37     2.02369184E+03   # H+
         5     4.87877839E+00   # b-quark pole mass calculated from mb(mb)_Msbar
   1000001     1.70039047E+03   # ~d_L
   2000001     1.70007527E+03   # ~d_R
   1000002     1.69968473E+03   # ~u_L
   2000002     9.99999974E+04   # ~u_R
   1000003     1.70039047E+03   # ~s_L
   2000003     1.70007527E+03   # ~s_R
   1000004     1.69968473E+03   # ~c_L
   2000004     9.99999974E+04   # ~c_R
   1000005     1.69623543E+03   # ~b_1
   2000005     1.70422487E+03   # ~b_2
   1000006     1.70606894E+03   # ~t_1
   2000006     1.00000106E+05   # ~t_2
   1000011     1.00000004E+05   # ~e_L
   2000011     1.00000004E+05   # ~e_R
   1000012     9.99999921E+04   # ~nu_eL
   1000013     1.00000004E+05   # ~mu_L
   2000013     1.00000004E+05   # ~mu_R
   1000014     9.99999921E+04   # ~nu_muL
   1000015     9.99999574E+04   # ~tau_1
   2000015     1.00000051E+05   # ~tau_2
   1000016     9.99999921E+04   # ~nu_tauL
   1000021     1.00000000E+05   # ~g
   1000022     1.64897794E+03   # ~chi_10
   1000023    -3.50001723E+03   # ~chi_20
   1000025     3.50097481E+03   # ~chi_30
   1000035     1.00000064E+05   # ~chi_40
   1000024     3.49994015E+03   # ~chi_1+
   1000037     1.00000064E+05   # ~chi_2+
   1000039     1.00000000E-09   # ~gravitino
#
BLOCK NMIX  # Neutralino Mixing Matrix
  1  1     9.99718553E-01   # N_11
  1  2    -1.83667361E-05   # N_12
  1  3     1.79350086E-02   # N_13
  1  4    -1.55289937E-02   # N_14
  2  1     1.70149194E-03   # N_21
  2  2    -1.49676590E-04   # N_22
  2  3    -7.07097049E-01   # N_23
  2  4    -7.07114451E-01   # N_24
  3  1     2.36626169E-02   # N_31
  3  2     8.02409533E-04   # N_32
  3  3    -7.06888878E-01   # N_33
  3  4     7.06928250E-01   # N_34
  4  1     3.70869232E-07   # N_41
  4  2    -9.99999667E-01   # N_42
  4  3    -4.61708061E-04   # N_43
  4  4     6.73369887E-04   # N_44
#
BLOCK UMIX  # Chargino Mixing Matrix U
  1  1    -6.52953594E-04   # U_11
  1  2     9.99999787E-01   # U_12
  2  1     9.99999787E-01   # U_21
  2  2     6.52953594E-04   # U_22
#
BLOCK VMIX  # Chargino Mixing Matrix V
  1  1    -9.52288737E-04   # V_11
  1  2     9.99999547E-01   # V_12
  2  1     9.99999547E-01   # V_21
  2  2     9.52288737E-04   # V_22
#
BLOCK STOPMIX  # Stop Mixing Matrix
  1  1     9.99999999E-01   # cos(theta_t)
  1  2     4.47213589E-05   # sin(theta_t)
  2  1    -4.47213589E-05   # -sin(theta_t)
  2  2     9.99999999E-01   # cos(theta_t)
#
BLOCK SBOTMIX  # Sbottom Mixing Matrix
  1  1     6.93017901E-01   # cos(theta_b)
  1  2     7.20920376E-01   # sin(theta_b)
  2  1    -7.20920376E-01   # -sin(theta_b)
  2  2     6.93017901E-01   # cos(theta_b)
#
BLOCK STAUMIX  # Stau Mixing Matrix
  1  1     7.06191887E-01   # cos(theta_tau)
  1  2     7.08020493E-01   # sin(theta_tau)
  2  1    -7.08020493E-01   # -sin(theta_tau)
  2  2     7.06191887E-01   # cos(theta_tau)
#
BLOCK ALPHA  # Higgs mixing
          -5.90313952E-01   # Mixing angle in the neutral Higgs boson sector
#
BLOCK HMIX Q=  9.11876000E+01  # DRbar Higgs Parameters
         1     3.50000000E+03   # mu(Q)               
         2     1.49999982E+00   # tanbeta(Q)          
         3     2.54885556E+02   # vev(Q)              
         4    -6.82144442E+07   # MA^2(Q)             
#
BLOCK GAUGE Q=  9.11876000E+01  # The gauge couplings
     1     3.50577529E-01   # gprime(Q) DRbar
     2     6.19783201E-01   # g(Q) DRbar
     3     1.02383681E+00   # g3(Q) DRbar
#
BLOCK AU Q=  9.11876000E+01  # The trilinear couplings
  1  1     0.00000000E+00   # A_u(Q) DRbar
  2  2     0.00000000E+00   # A_c(Q) DRbar
  3  3     0.00000000E+00   # A_t(Q) DRbar
#
BLOCK AD Q=  9.11876000E+01  # The trilinear couplings
  1  1     0.00000000E+00   # A_d(Q) DRbar
  2  2     0.00000000E+00   # A_s(Q) DRbar
  3  3     0.00000000E+00   # A_b(Q) DRbar
#
BLOCK AE Q=  9.11876000E+01  # The trilinear couplings
  1  1     0.00000000E+00   # A_e(Q) DRbar
  2  2     0.00000000E+00   # A_mu(Q) DRbar
  3  3     0.00000000E+00   # A_tau(Q) DRbar
#
BLOCK Yu Q=  9.11876000E+01  # The Yukawa couplings
  1  1     0.00000000E+00   # y_u(Q) DRbar
  2  2     0.00000000E+00   # y_c(Q) DRbar
  3  3     9.83555664E-01   # y_t(Q) DRbar
#
BLOCK Yd Q=  9.11876000E+01  # The Yukawa couplings
  1  1     0.00000000E+00   # y_d(Q) DRbar
  2  2     0.00000000E+00   # y_s(Q) DRbar
  3  3     2.58605754E-02   # y_b(Q) DRbar
#
BLOCK Ye Q=  9.11876000E+01  # The Yukawa couplings
  1  1     0.00000000E+00   # y_e(Q) DRbar
  2  2     0.00000000E+00   # y_mu(Q) DRbar
  3  3     1.77387975E-02   # y_tau(Q) DRbar
#
BLOCK MSOFT Q=  9.11876000E+01  # The soft SUSY breaking masses at the scale Q
         1     1.65000000E+03   # M_1                 
         2     1.00000000E+05   # M_2                 
         3     1.00000000E+05   # M_3                 
        14     0.00000000E+00   # A_u                 
        15     0.00000000E+00   # A_d                 
        16     0.00000000E+00   # A_e                 
        21     6.31193910E+08   # M^2_Hd              
        22    -1.14915222E+09   # M^2_Hu              
        31     1.00000000E+05   # M_eL                
        32     1.00000000E+05   # M_muL               
        33     1.00000000E+05   # M_tauL              
        34     1.00000000E+05   # M_eR                
        35     1.00000000E+05   # M_muR               
        36     1.00000000E+05   # M_tauR              
        41     1.70000000E+03   # M_q1L               
        42     1.70000000E+03   # M_q2L               
        43     1.70000000E+03   # M_q3L               
        44     1.00000000E+05   # M_uR                
        45     1.00000000E+05   # M_cR                
        46     1.00000000E+05   # M_tR                
        47     1.70000000E+03   # M_dR                
        48     1.70000000E+03   # M_sR                
        49     1.70000000E+03   # M_bR                
#
#
#
#                             =================
#                             |The decay table|
#                             =================
#
# - The QCD corrections to the decays gluino -> squark  + quark
#                                     squark -> gaugino + quark_prime
#                                     squark -> squark_prime + Higgs
#                                     squark -> gluino  + quark
#   are included.
#
# - The multi-body decays for the inos, stops and sbottoms are included.
#
# - The loop induced decays for the gluino, neutralinos and stops
#   are included.
#
# - The SUSY decays of the top quark are included.
#
# - Possible decays of the NLSP in GMSB models are included.
#
#
#         PDG            Width
DECAY         6     1.32579881E+00   # top decays
#          BR         NDA      ID1       ID2
     1.00000000E+00    2           5        24   # BR(t ->  b    W+)
#
#         PDG            Width
DECAY   1000021     1.E-04   # gluino decays (OJ Mods)
#          BR         NDA      ID1       ID2
     2.89806335E-03    2     1000001        -1   # BR(~g -> ~d_L  db)
     2.89806335E-03    2    -1000001         1   # BR(~g -> ~d_L* d )
     2.89806398E-03    2     2000001        -1   # BR(~g -> ~d_R  db)
     2.89806398E-03    2    -2000001         1   # BR(~g -> ~d_R* d )
     2.89806475E-03    2     1000002        -2   # BR(~g -> ~u_L  ub)
     2.89806475E-03    2    -1000002         2   # BR(~g -> ~u_L* u )
     7.84089660E-18    2     2000002        -2   # BR(~g -> ~u_R  ub)
     7.84089660E-18    2    -2000002         2   # BR(~g -> ~u_R* u )
     2.89806335E-03    2     1000003        -3   # BR(~g -> ~s_L  sb)
     2.89806335E-03    2    -1000003         3   # BR(~g -> ~s_L* s )
     2.89806398E-03    2     2000003        -3   # BR(~g -> ~s_R  sb)
     2.89806398E-03    2    -2000003         3   # BR(~g -> ~s_R* s )
     2.89806475E-03    2     1000004        -4   # BR(~g -> ~c_L  cb)
     2.89806475E-03    2    -1000004         4   # BR(~g -> ~c_L* c )
     7.84089660E-18    2     2000004        -4   # BR(~g -> ~c_R  cb)
     7.84089660E-18    2    -2000004         4   # BR(~g -> ~c_R* c )
     2.19987377E-01    2     1000005        -5   # BR(~g -> ~b_1  bb)
     2.19987377E-01    2    -1000005         5   # BR(~g -> ~b_1* b )
     2.19127399E-01    2     2000005        -5   # BR(~g -> ~b_2  bb)
     2.19127399E-01    2    -2000005         5   # BR(~g -> ~b_2* b )
     2.85218946E-03    2     1000006        -6   # BR(~g -> ~t_1  tb)
     2.85218946E-03    2    -1000006         6   # BR(~g -> ~t_1* t )
     8.12893000E-02    2     1000039        21   # BR(~g -> ~G g)
#
#         PDG            Width
DECAY   1000006     1.14807098E-04   # stop1 decays
#          BR         NDA      ID1       ID2
     9.91554594E-01    2     1000022         4   # BR(~t_1 -> ~chi_10 c )
     7.64458509E-03    2     1000022         2   # BR(~t_1 -> ~chi_10 u )
#           BR         NDA      ID1       ID2       ID3
     2.71284395E-04    3     1000005        -1         2   # BR(~t_1 -> ~b_1     db u)
     6.80025920E-08    3     2000005        -1         2   # BR(~t_1 -> ~b_2     db u)
     2.71284395E-04    3     1000005        -3         4   # BR(~t_1 -> ~b_1     sb c)
     6.80025920E-08    3     2000005        -3         4   # BR(~t_1 -> ~b_2     sb c)
     7.72144341E-05    3     1000005       -15        16   # BR(~t_1 -> ~b_1     tau+ nu_tau)
     1.29166673E-12    3     2000005       -15        16   # BR(~t_1 -> ~b_2     tau+ nu_tau)
     9.04281315E-05    3     1000005       -11        12   # BR(~t_1 -> ~b_1     e+   nu_e)
     2.26675307E-08    3     2000005       -11        12   # BR(~t_1 -> ~b_2     e+   nu_e)
     9.04281315E-05    3     1000005       -13        14   # BR(~t_1 -> ~b_1     mu+  nu_mu)
     2.26675307E-08    3     2000005       -13        14   # BR(~t_1 -> ~b_2     mu+  nu_mu)
#
#         PDG            Width
DECAY   2000006     5.57559193E+04   # stop2 decays
#          BR         NDA      ID1       ID2
     3.73924655E-03    2     1000022         6   # BR(~t_2 -> ~chi_10 t )
     8.97320042E-03    2     1000023         6   # BR(~t_2 -> ~chi_20 t )
     8.97033679E-03    2     1000025         6   # BR(~t_2 -> ~chi_30 t )
     9.78624635E-01    2     1000024         5   # BR(~t_2 -> ~chi_1+ b )
    -2.43559071E-04    2     1000006        25   # BR(~t_2 -> ~t_1    h )
     2.55078268E-04    2     1000006        35   # BR(~t_2 -> ~t_1    H )
     2.54629323E-04    2     1000006        36   # BR(~t_2 -> ~t_1    A )
     2.39867363E-04    2     1000005        37   # BR(~t_2 -> ~b_1    H+)
     2.69388218E-04    2     2000005        37   # BR(~t_2 -> ~b_2    H+)
    -1.73577576E-04    2     1000006        23   # BR(~t_2 -> ~t_1    Z )
    -4.36696214E-04    2     1000005        24   # BR(~t_2 -> ~b_1    W+)
    -4.72549088E-04    2     2000005        24   # BR(~t_2 -> ~b_2    W+)
#
#         PDG            Width
DECAY   1000005     5.27804644E-02   # sbottom1 decays
#          BR         NDA      ID1       ID2
     1.00000000E+00    2     1000022         5   # BR(~b_1 -> ~chi_10 b )
#
#         PDG            Width
DECAY   2000005     7.58540694E-02   # sbottom2 decays
#          BR         NDA      ID1       ID2
     1.00000000E+00    2     1000022         5   # BR(~b_2 -> ~chi_10 b )
#
#         PDG            Width
DECAY   1000002     1.93989347E-03   # sup_L decays
#          BR         NDA      ID1       ID2
     1.00000000E+00    2     1000022         2   # BR(~u_L -> ~chi_10 u)
#
#         PDG            Width
DECAY   2000002     2.08381012E+02   # sup_R decays
#          BR         NDA      ID1       ID2
     9.99437777E-01    2     1000022         2   # BR(~u_R -> ~chi_10 u)
     2.89203696E-06    2     1000023         2   # BR(~u_R -> ~chi_20 u)
     5.59331429E-04    2     1000025         2   # BR(~u_R -> ~chi_30 u)
#
#         PDG            Width
DECAY   1000001     1.97994321E-03   # sdown_L decays
#          BR         NDA      ID1       ID2
     1.00000000E+00    2     1000022         1   # BR(~d_L -> ~chi_10 d)
#
#         PDG            Width
DECAY   2000001     7.84789236E-03   # sdown_R decays
#          BR         NDA      ID1       ID2
     1.00000000E+00    2     1000022         1   # BR(~d_R -> ~chi_10 d)
#
#         PDG            Width
DECAY   1000004     1.93989347E-03   # scharm_L decays
#          BR         NDA      ID1       ID2
     1.00000000E+00    2     1000022         4   # BR(~c_L -> ~chi_10 c)
#
#         PDG            Width
DECAY   2000004     2.08381012E+02   # scharm_R decays
#          BR         NDA      ID1       ID2
     9.99437777E-01    2     1000022         4   # BR(~c_R -> ~chi_10 c)
     2.89203696E-06    2     1000023         4   # BR(~c_R -> ~chi_20 c)
     5.59331429E-04    2     1000025         4   # BR(~c_R -> ~chi_30 c)
#
#         PDG            Width
DECAY   1000003     1.97994321E-03   # sstrange_L decays
#          BR         NDA      ID1       ID2
     1.00000000E+00    2     1000022         3   # BR(~s_L -> ~chi_10 s)
#
#         PDG            Width
DECAY   2000003     7.84789236E-03   # sstrange_R decays
#          BR         NDA      ID1       ID2
     1.00000000E+00    2     1000022         3   # BR(~s_R -> ~chi_10 s)
#
#         PDG            Width
DECAY   1000011     1.22189591E+02   # selectron_L decays
#          BR         NDA      ID1       ID2
     9.99367416E-01    2     1000022        11   # BR(~e_L -> ~chi_10 e-)
     2.06067907E-06    2     1000023        11   # BR(~e_L -> ~chi_20 e-)
     6.27863338E-04    2     1000025        11   # BR(~e_L -> ~chi_30 e-)
     2.65996271E-06    2    -1000024        12   # BR(~e_L -> ~chi_1- nu_e)
#
#         PDG            Width
DECAY   2000011     4.88755469E+02   # selectron_R decays
#          BR         NDA      ID1       ID2
     9.99438258E-01    2     1000022        11   # BR(~e_R -> ~chi_10 e-)
     2.88956047E-06    2     1000023        11   # BR(~e_R -> ~chi_20 e-)
     5.58852189E-04    2     1000025        11   # BR(~e_R -> ~chi_30 e-)
#
#         PDG            Width
DECAY   1000013     1.22189591E+02   # smuon_L decays
#          BR         NDA      ID1       ID2
     9.99367416E-01    2     1000022        13   # BR(~mu_L -> ~chi_10 mu-)
     2.06067907E-06    2     1000023        13   # BR(~mu_L -> ~chi_20 mu-)
     6.27863338E-04    2     1000025        13   # BR(~mu_L -> ~chi_30 mu-)
     2.65996271E-06    2    -1000024        14   # BR(~mu_L -> ~chi_1- nu_mu)
#
#         PDG            Width
DECAY   2000013     4.88755469E+02   # smuon_R decays
#          BR         NDA      ID1       ID2
     9.99438258E-01    2     1000022        13   # BR(~mu_R -> ~chi_10 mu-)
     2.88956047E-06    2     1000023        13   # BR(~mu_R -> ~chi_20 mu-)
     5.58852189E-04    2     1000025        13   # BR(~mu_R -> ~chi_30 mu-)
#
#         PDG            Width
DECAY   1000015     1.18198255E+04   # stau_1 decays
#          BR         NDA      ID1       ID2
     2.58825566E-02    2     1000022        15   # BR(~tau_1 -> ~chi_10  tau-)
     2.54597249E-05    2     1000023        15   # BR(~tau_1 -> ~chi_20  tau-)
     2.96118133E-05    2     1000025        15   # BR(~tau_1 -> ~chi_30  tau-)
     2.77036643E-05    2    -1000024        16   # BR(~tau_1 -> ~chi_1-  nu_tau)
     9.74034668E-01    2     1000039        15   # BR(~tau_1 -> ~G       tau-)
#
#         PDG            Width
DECAY   2000015     3.05912787E+02   # stau_2 decays
#          BR         NDA      ID1       ID2
     9.95925381E-01    2     1000022        15   # BR(~tau_2 -> ~chi_10  tau-)
     1.06301736E-03    2     1000023        15   # BR(~tau_2 -> ~chi_20  tau-)
     2.03960749E-03    2     1000025        15   # BR(~tau_2 -> ~chi_30  tau-)
     9.71994561E-04    2    -1000024        16   # BR(~tau_2 -> ~chi_1-  nu_tau)
#
#         PDG            Width
DECAY   1000012     1.22189653E+02   # snu_eL decays
#          BR         NDA      ID1       ID2
     9.99496633E-01    2     1000022        12   # BR(~nu_eL -> ~chi_10 nu_e)
     3.85817671E-06    2     1000023        12   # BR(~nu_eL -> ~chi_20 nu_e)
     4.93851115E-04    2     1000025        12   # BR(~nu_eL -> ~chi_30 nu_e)
     5.65780451E-06    2     1000024        11   # BR(~nu_eL -> ~chi_1+ e-)
#
#         PDG            Width
DECAY   1000014     1.22189653E+02   # snu_muL decays
#          BR         NDA      ID1       ID2
     9.99496633E-01    2     1000022        14   # BR(~nu_muL -> ~chi_10 nu_mu)
     3.85817671E-06    2     1000023        14   # BR(~nu_muL -> ~chi_20 nu_mu)
     4.93851115E-04    2     1000025        14   # BR(~nu_muL -> ~chi_30 nu_mu)
     5.65780451E-06    2     1000024        13   # BR(~nu_muL -> ~chi_1+ mu-)
#
#         PDG            Width
DECAY   1000016     1.22814126E+02   # snu_tauL decays
#          BR         NDA      ID1       ID2
     9.94414493E-01    2     1000022        16   # BR(~nu_tauL -> ~chi_10 nu_tau)
     3.83855904E-06    2     1000023        16   # BR(~nu_tauL -> ~chi_20 nu_tau)
     4.91340030E-04    2     1000025        16   # BR(~nu_tauL -> ~chi_30 nu_tau)
     5.09032841E-03    2     1000024        15   # BR(~nu_tauL -> ~chi_1+ tau-)
#
#         PDG            Width
DECAY   1000024     5.45799139E+01   # chargino1+ decays
#          BR         NDA      ID1       ID2
     4.63421305E-07    2     1000002        -1   # BR(~chi_1+ -> ~u_L     db)
     2.17767175E-07    2    -1000001         2   # BR(~chi_1+ -> ~d_L*    u )
     4.63421305E-07    2     1000004        -3   # BR(~chi_1+ -> ~c_L     sb)
     2.17767175E-07    2    -1000003         4   # BR(~chi_1+ -> ~s_L*    c )
     2.37252395E-02    2     1000006        -5   # BR(~chi_1+ -> ~t_1     bb)
     8.99396581E-02    2    -1000005         6   # BR(~chi_1+ -> ~b_1*    t )
     8.25221389E-01    2    -2000005         6   # BR(~chi_1+ -> ~b_2*    t )
     6.11057355E-02    2     1000022        24   # BR(~chi_1+ -> ~chi_10  W+)
     5.52763082E-06    2     1000039        24   # BR(~chi_1+ -> ~G       W+)
     1.08761500E-06    2     1000039        37   # BR(~chi_1+ -> ~G       H+)
#
#         PDG            Width
DECAY   1000037     4.04367659E+04   # chargino2+ decays
#          BR         NDA      ID1       ID2
     2.11555458E-02    2     1000002        -1   # BR(~chi_2+ -> ~u_L     db)
     2.11555519E-02    2    -1000001         2   # BR(~chi_2+ -> ~d_L*    u )
     2.11555458E-02    2     1000004        -3   # BR(~chi_2+ -> ~c_L     sb)
     2.11555519E-02    2    -1000003         4   # BR(~chi_2+ -> ~s_L*    c )
     6.39986440E-01    2     1000006        -5   # BR(~chi_2+ -> ~t_1     bb)
     4.63679298E-03    2    -1000005         6   # BR(~chi_2+ -> ~b_1*    t )
     2.00728430E-02    2    -2000005         6   # BR(~chi_2+ -> ~b_2*    t )
     1.52094441E-14    2     1000012       -11   # BR(~chi_2+ -> ~nu_eL   e+  )
     1.52094441E-14    2     1000014       -13   # BR(~chi_2+ -> ~nu_muL  mu+ )
     1.05915207E-14    2    -1000011        12   # BR(~chi_2+ -> ~e_L+    nu_e)
     1.05915207E-14    2    -1000013        14   # BR(~chi_2+ -> ~mu_L+   nu_mu)
     1.66724414E-14    2    -1000015        16   # BR(~chi_2+ -> ~tau_1+  nu_tau)
     2.49258843E-16    2    -2000015        16   # BR(~chi_2+ -> ~tau_2+  nu_tau)
     3.87729871E-03    2     1000024        23   # BR(~chi_2+ -> ~chi_1+  Z )
     1.85941380E-06    2     1000022        24   # BR(~chi_2+ -> ~chi_10  W+)
     3.76138159E-03    2     1000023        24   # BR(~chi_2+ -> ~chi_20  W+)
     3.75948258E-03    2     1000025        24   # BR(~chi_2+ -> ~chi_30  W+)
     3.91538281E-03    2     1000024        25   # BR(~chi_2+ -> ~chi_1+  h )
     3.43696240E-03    2     1000024        35   # BR(~chi_2+ -> ~chi_1+  H )
     3.43742049E-03    2     1000024        36   # BR(~chi_2+ -> ~chi_1+  A )
     2.04828984E-06    2     1000022        37   # BR(~chi_2+ -> ~chi_10  H+)
     3.43731010E-03    2     1000023        37   # BR(~chi_2+ -> ~chi_20  H+)
     3.43535591E-03    2     1000025        37   # BR(~chi_2+ -> ~chi_30  H+)
     2.21617163E-01    2     1000039        24   # BR(~chi_2+ -> ~G       W+)
     6.35218851E-08    2     1000039        37   # BR(~chi_2+ -> ~G       H+)
#
#         PDG            Width
DECAY   1000022     1.E-08   # neutralino1 decays (OJ Mods)
#          BR         NDA      ID1       ID2
     7.59628625E-01    2     1000039        22   # BR(~chi_10 -> ~G        gam)
     2.40367201E-01    2     1000039        23   # BR(~chi_10 -> ~G        Z)
     4.17374438E-06    2     1000039        25   # BR(~chi_10 -> ~G        h)
#
#         PDG            Width
DECAY   1000023     1.E-08   # neutralino2 decays (OJ Mods)
#          BR         NDA      ID1       ID2
     6.13077418E-02    2     1000022        23   # BR(~chi_20 -> ~chi_10   Z )
     3.11588208E-04    2     1000022        25   # BR(~chi_20 -> ~chi_10   h )
     8.49865119E-09    2     1000002        -2   # BR(~chi_20 -> ~u_L      ub)
     8.49865119E-09    2    -1000002         2   # BR(~chi_20 -> ~u_L*     u )
     6.42037715E-08    2     1000001        -1   # BR(~chi_20 -> ~d_L      db)
     6.42037715E-08    2    -1000001         1   # BR(~chi_20 -> ~d_L*     d )
     1.19430548E-07    2     2000001        -1   # BR(~chi_20 -> ~d_R      db)
     1.19430548E-07    2    -2000001         1   # BR(~chi_20 -> ~d_R*     d )
     8.49865119E-09    2     1000004        -4   # BR(~chi_20 -> ~c_L      cb)
     8.49865119E-09    2    -1000004         4   # BR(~chi_20 -> ~c_L*     c )
     6.42037715E-08    2     1000003        -3   # BR(~chi_20 -> ~s_L      sb)
     6.42037715E-08    2    -1000003         3   # BR(~chi_20 -> ~s_L*     s )
     1.19430548E-07    2     2000003        -3   # BR(~chi_20 -> ~s_R      sb)
     1.19430548E-07    2    -2000003         3   # BR(~chi_20 -> ~s_R*     s )
     4.47008082E-01    2     1000006        -6   # BR(~chi_20 -> ~t_1      tb)
     4.47008082E-01    2    -1000006         6   # BR(~chi_20 -> ~t_1*     t )
     1.07595768E-02    2     1000005        -5   # BR(~chi_20 -> ~b_1      bb)
     1.07595768E-02    2    -1000005         5   # BR(~chi_20 -> ~b_1*     b )
     1.14190873E-02    2     2000005        -5   # BR(~chi_20 -> ~b_2      bb)
     1.14190873E-02    2    -2000005         5   # BR(~chi_20 -> ~b_2*     b )
     2.14797593E-11    2     1000039        22   # BR(~chi_20 -> ~G        gam)
     2.08041975E-07    2     1000039        23   # BR(~chi_20 -> ~G        Z)
     5.19254434E-06    2     1000039        25   # BR(~chi_20 -> ~G        h)
     4.15895405E-08    2     1000039        35   # BR(~chi_20 -> ~G        H)
     1.07268887E-06    2     1000039        36   # BR(~chi_20 -> ~G        A)
#
#         PDG            Width
DECAY   1000025     5.58912868E+01   # neutralino3 decays
#          BR         NDA      ID1       ID2
     3.18137919E-04    2     1000022        23   # BR(~chi_30 -> ~chi_10   Z )
     6.17246615E-02    2     1000022        25   # BR(~chi_30 -> ~chi_10   h )
     8.02526739E-06    2     1000002        -2   # BR(~chi_30 -> ~u_L      ub)
     8.02526739E-06    2    -1000002         2   # BR(~chi_30 -> ~u_L*     u )
     3.87605896E-06    2     1000001        -1   # BR(~chi_30 -> ~d_L      db)
     3.87605896E-06    2    -1000001         1   # BR(~chi_30 -> ~d_L*     d )
     2.30544125E-05    2     2000001        -1   # BR(~chi_30 -> ~d_R      db)
     2.30544125E-05    2    -2000001         1   # BR(~chi_30 -> ~d_R*     d )
     8.02526739E-06    2     1000004        -4   # BR(~chi_30 -> ~c_L      cb)
     8.02526739E-06    2    -1000004         4   # BR(~chi_30 -> ~c_L*     c )
     3.87605896E-06    2     1000003        -3   # BR(~chi_30 -> ~s_L      sb)
     3.87605896E-06    2    -1000003         3   # BR(~chi_30 -> ~s_L*     s )
     2.30544125E-05    2     2000003        -3   # BR(~chi_30 -> ~s_R      sb)
     2.30544125E-05    2    -2000003         3   # BR(~chi_30 -> ~s_R*     s )
     4.46217033E-01    2     1000006        -6   # BR(~chi_30 -> ~t_1      tb)
     4.46217033E-01    2    -1000006         6   # BR(~chi_30 -> ~t_1*     t )
     7.98573377E-03    2     1000005        -5   # BR(~chi_30 -> ~b_1      bb)
     7.98573377E-03    2    -1000005         5   # BR(~chi_30 -> ~b_1*     b )
     1.47123128E-02    2     2000005        -5   # BR(~chi_30 -> ~b_2      bb)
     1.47123128E-02    2    -2000005         5   # BR(~chi_30 -> ~b_2*     b )
     4.77368527E-09    2     1000039        22   # BR(~chi_30 -> ~G        gam)
     5.19292294E-06    2     1000039        23   # BR(~chi_30 -> ~G        Z)
     2.02462747E-07    2     1000039        25   # BR(~chi_30 -> ~G        h)
     1.06467281E-06    2     1000039        35   # BR(~chi_30 -> ~G        H)
     4.28703175E-08    2     1000039        36   # BR(~chi_30 -> ~G        A)
#
#         PDG            Width
DECAY   1000035     4.04369061E+04   # neutralino4 decays
#          BR         NDA      ID1       ID2
     2.76204255E-08    2     1000022        23   # BR(~chi_40 -> ~chi_10   Z )
     3.74700617E-03    2     1000023        23   # BR(~chi_40 -> ~chi_20   Z )
     1.30257534E-04    2     1000025        23   # BR(~chi_40 -> ~chi_30   Z )
     3.76134825E-03    2     1000024       -24   # BR(~chi_40 -> ~chi_1+   W-)
     3.76134825E-03    2    -1000024        24   # BR(~chi_40 -> ~chi_1-   W+)
     1.90990704E-06    2     1000022        25   # BR(~chi_40 -> ~chi_10   h )
     1.48326222E-07    2     1000022        35   # BR(~chi_40 -> ~chi_10   H )
     1.89752449E-06    2     1000022        36   # BR(~chi_40 -> ~chi_10   A )
     1.28547269E-04    2     1000023        25   # BR(~chi_40 -> ~chi_20   h )
     3.28918025E-03    2     1000023        35   # BR(~chi_40 -> ~chi_20   H )
     1.51200382E-04    2     1000023        36   # BR(~chi_40 -> ~chi_20   A )
     3.78491910E-03    2     1000025        25   # BR(~chi_40 -> ~chi_30   h )
     1.47620338E-04    2     1000025        35   # BR(~chi_40 -> ~chi_30   H )
     3.28431327E-03    2     1000025        36   # BR(~chi_40 -> ~chi_30   A )
     3.43735002E-03    2     1000024       -37   # BR(~chi_40 -> ~chi_1+   H-)
     3.43735002E-03    2    -1000024        37   # BR(~chi_40 -> ~chi_1-   H+)
     1.01290437E-02    2     1000002        -2   # BR(~chi_40 -> ~u_L      ub)
     1.01290437E-02    2    -1000002         2   # BR(~chi_40 -> ~u_L*     u )
     1.62819998E-22    2     2000002        -2   # BR(~chi_40 -> ~u_R      ub)
     1.62819998E-22    2    -2000002         2   # BR(~chi_40 -> ~u_R*     u )
     1.01290478E-02    2     1000001        -1   # BR(~chi_40 -> ~d_L      db)
     1.01290478E-02    2    -1000001         1   # BR(~chi_40 -> ~d_L*     d )
     1.98114592E-16    2     2000001        -1   # BR(~chi_40 -> ~d_R      db)
     1.98114592E-16    2    -2000001         1   # BR(~chi_40 -> ~d_R*     d )
     1.01290437E-02    2     1000004        -4   # BR(~chi_40 -> ~c_L      cb)
     1.01290437E-02    2    -1000004         4   # BR(~chi_40 -> ~c_L*     c )
     1.62819998E-22    2     2000004        -4   # BR(~chi_40 -> ~c_R      cb)
     1.62819998E-22    2    -2000004         4   # BR(~chi_40 -> ~c_R*     c )
     1.01290478E-02    2     1000003        -3   # BR(~chi_40 -> ~s_L      sb)
     1.01290478E-02    2    -1000003         3   # BR(~chi_40 -> ~s_L*     s )
     1.98114592E-16    2     2000003        -3   # BR(~chi_40 -> ~s_R      sb)
     1.98114592E-16    2    -2000003         3   # BR(~chi_40 -> ~s_R*     s )
     1.23548089E-02    2     1000006        -6   # BR(~chi_40 -> ~t_1      tb)
     1.23548089E-02    2    -1000006         6   # BR(~chi_40 -> ~t_1*     t )
     1.50061310E-01    2     1000005        -5   # BR(~chi_40 -> ~b_1      bb)
     1.50061310E-01    2    -1000005         5   # BR(~chi_40 -> ~b_1*     b )
     1.69932374E-01    2     2000005        -5   # BR(~chi_40 -> ~b_2      bb)
     1.69932374E-01    2    -2000005         5   # BR(~chi_40 -> ~b_2*     b )
     5.29574261E-15    2     1000011       -11   # BR(~chi_40 -> ~e_L-     e+)
     5.29574261E-15    2    -1000011        11   # BR(~chi_40 -> ~e_L+     e-)
     9.32218016E-28    2     2000011       -11   # BR(~chi_40 -> ~e_R-     e+)
     9.32218016E-28    2    -2000011        11   # BR(~chi_40 -> ~e_R+     e-)
     5.29574261E-15    2     1000013       -13   # BR(~chi_40 -> ~mu_L-    mu+)
     5.29574261E-15    2    -1000013        13   # BR(~chi_40 -> ~mu_L+    mu-)
     9.32218016E-28    2     2000013       -13   # BR(~chi_40 -> ~mu_R-    mu+)
     9.32218016E-28    2    -2000013        13   # BR(~chi_40 -> ~mu_R+    mu-)
     7.60470658E-15    2     1000012       -12   # BR(~chi_40 -> ~nu_eL    nu_eb)
     7.60470658E-15    2    -1000012        12   # BR(~chi_40 -> ~nu_eL*   nu_e )
     7.60470658E-15    2     1000014       -14   # BR(~chi_40 -> ~nu_muL   nu_mub)
     7.60470658E-15    2    -1000014        14   # BR(~chi_40 -> ~nu_muL*  nu_mu )
     7.60470658E-15    2     1000016       -16   # BR(~chi_40 -> ~nu_tau1  nu_taub)
     7.60470658E-15    2    -1000016        16   # BR(~chi_40 -> ~nu_tau1* nu_tau )
     5.37195146E-02    2     1000039        22   # BR(~chi_40 -> ~G        gam)
     1.67897035E-01    2     1000039        23   # BR(~chi_40 -> ~G        Z)
     1.01339835E-08    2     1000039        25   # BR(~chi_40 -> ~G        h)
     6.36287892E-08    2     1000039        35   # BR(~chi_40 -> ~G        H)
     1.25383705E-11    2     1000039        36   # BR(~chi_40 -> ~G        A)
#
#
#
#
