#
#                              ======================
#                              | THE SUSYHIT OUTPUT |
#                              ======================
#
#
#              ------------------------------------------------------
#              |     This is the output of the SUSY-HIT package     |
#              |  created by A.Djouadi, M.Muehlleitner and M.Spira. |
#              |  In case of problems with SUSY-HIT email to        |
#              |           margarete.muehlleitner@cern.ch           |
#              |           michael.spira@psi.ch                     |
#              |           abdelhak.djouadi@cern.ch                 |
#              ------------------------------------------------------
#
#              ------------------------------------------------------
#              |  SUSY Les Houches Accord - MSSM Spectrum + Decays  |
#              |              based on the decay programs           |
#              |                                                    |
#              |                     SDECAY 1.3b                    |
#              |                                                    |
#              |  Authors: M.Muhlleitner, A.Djouadi and Y.Mambrini  |
#              |  Ref.:    Comput.Phys.Commun.168(2005)46           |
#              |           [hep-ph/0311167]                         |
#              |                                                    |
#              |                     HDECAY 3.4                     |
#              |                                                    |
#              |  By: A.Djouadi,J.Kalinowski,M.Muhlleitner,M.Spira  |
#              |  Ref.:    Comput.Phys.Commun.108(1998)56           |
#              |           [hep-ph/9704448]                         |
#              |                                                    |
#              |                                                    |
#              |  If not stated otherwise all DRbar couplings and   |
#              |  soft SUSY breaking masses are given at the scale  |
#              |  Q=  0.91187600E+02
#              |                                                    |
#              ------------------------------------------------------
#
#
BLOCK DCINFO  # Decay Program information
     1   SDECAY/HDECAY # decay calculator
     2   1.3b  /3.4    # version number
#
BLOCK SPINFO  # Spectrum calculator information
     1   SuSpect     # RGE +Spectrum calculator            
     2   2.41         # version number                     
#
BLOCK MODSEL  # Model selection
     1     0   # #general MSSM low scale                           
#
BLOCK SMINPUTS  # Standard Model inputs
         1     1.27934000E+02   # alpha_em^-1(M_Z)^MSbar
         2     1.16639000E-05   # G_F [GeV^-2]
         3     1.17200000E-01   # alpha_S(M_Z)^MSbar
         4     9.11870000E+01   # M_Z pole mass
         5     4.25000000E+00   # mb(mb)^MSbar
         6     1.72500000E+02   # mt pole mass
         7     1.77700000E+00   # mtau pole mass
#
BLOCK MINPAR  # Input parameters - minimal models
#
BLOCK EXTPAR  # Input parameters - non-minimal models
         0     9.11876000E+01   # EWSB                
         1     3.00000000E+02   # M_1                 
         2     1.00000000E+05   # M_2                 
         3     1.00000000E+05   # M_3                 
        11     0.00000000E+00   # A_t                 
        12     0.00000000E+00   # A_b                 
        13     0.00000000E+00   # A_tau               
        14     0.00000000E+00   # A_u                 
        15     0.00000000E+00   # A_d                 
        16     0.00000000E+00   # A_e                 
        23     3.50000000E+03   # mu(EWSB)            
        25     1.50000000E+00   # tanbeta(in)         
        26     2.00000000E+03   # MA_pole             
        31     1.00000000E+05   # M_eL                
        32     1.00000000E+05   # M_muL               
        33     1.00000000E+05   # M_tauL              
        34     1.00000000E+05   # M_eR                
        35     1.00000000E+05   # M_muR               
        36     1.00000000E+05   # M_tauR              
        41     1.60000000E+03   # M_q1L               
        42     1.60000000E+03   # M_q2L               
        43     1.60000000E+03   # M_q3L               
        44     1.00000000E+05   # M_uR                
        45     1.00000000E+05   # M_cR                
        46     1.00000000E+05   # M_tR                
        47     1.60000000E+03   # M_dR                
        48     1.60000000E+03   # M_sR                
        49     1.60000000E+03   # M_bR                
#
BLOCK MASS  # Mass Spectrum
# PDG code           mass       particle
        24     8.05830318E+01   # W+
        25     1.25000000E+02   # h
        35     2.00402040E+03   # H
        36     2.00000000E+03   # A
        37     2.02369578E+03   # H+
         5     4.87877839E+00   # b-quark pole mass calculated from mb(mb)_Msbar
   1000001     1.60041497E+03   # ~d_L
   2000001     1.60007996E+03   # ~d_R
   1000002     1.59966491E+03   # ~u_L
   2000002     9.99999974E+04   # ~u_R
   1000003     1.60041497E+03   # ~s_L
   2000003     1.60007996E+03   # ~s_R
   1000004     1.59966491E+03   # ~c_L
   2000004     9.99999974E+04   # ~c_R
   1000005     1.59600056E+03   # ~b_1
   2000005     1.60448731E+03   # ~b_2
   1000006     1.60644748E+03   # ~t_1
   2000006     1.00000106E+05   # ~t_2
   1000011     1.00000004E+05   # ~e_L
   2000011     1.00000004E+05   # ~e_R
   1000012     9.99999921E+04   # ~nu_eL
   1000013     1.00000004E+05   # ~mu_L
   2000013     1.00000004E+05   # ~mu_R
   1000014     9.99999921E+04   # ~nu_muL
   1000015     9.99999574E+04   # ~tau_1
   2000015     1.00000051E+05   # ~tau_2
   1000016     9.99999921E+04   # ~nu_tauL
   1000021     1.00000000E+05   # ~g
   1000022     2.99420585E+02   # ~chi_10
   1000023    -3.50002252E+03   # ~chi_20
   1000025     3.50053743E+03   # ~chi_30
   1000035     1.00000065E+05   # ~chi_40
   1000024     3.49994014E+03   # ~chi_1+
   1000037     1.00000065E+05   # ~chi_2+
   1000039     1.00000000E-09   # ~gravitino
#
BLOCK NMIX  # Neutralino Mixing Matrix
  1  1     9.99903680E-01   # N_11
  1  2    -1.02754443E-05   # N_12
  1  3     1.13081311E-02   # N_13
  1  4    -8.04719833E-03   # N_14
  2  1     2.30582077E-03   # N_21
  2  2    -1.49700031E-04   # N_22
  2  3    -7.07093518E-01   # N_23
  2  4    -7.07116269E-01   # N_24
  3  1     1.36862882E-02   # N_31
  3  2     8.02664976E-04   # N_32
  3  3    -7.07029469E-01   # N_33
  3  4     7.07051180E-01   # N_34
  4  1     3.65869170E-07   # N_41
  4  2    -9.99999667E-01   # N_42
  4  3    -4.61772220E-04   # N_43
  4  4     6.73463458E-04   # N_44
#
BLOCK UMIX  # Chargino Mixing Matrix U
  1  1    -6.53044330E-04   # U_11
  1  2     9.99999787E-01   # U_12
  2  1     9.99999787E-01   # U_21
  2  2     6.53044330E-04   # U_22
#
BLOCK VMIX  # Chargino Mixing Matrix V
  1  1    -9.52421069E-04   # V_11
  1  2     9.99999546E-01   # V_12
  2  1     9.99999546E-01   # V_21
  2  2     9.52421069E-04   # V_22
#
BLOCK STOPMIX  # Stop Mixing Matrix
  1  1     9.99999999E-01   # cos(theta_t)
  1  2     4.47213589E-05   # sin(theta_t)
  2  1    -4.47213589E-05   # -sin(theta_t)
  2  2     9.99999999E-01   # cos(theta_t)
#
BLOCK SBOTMIX  # Sbottom Mixing Matrix
  1  1     6.93010023E-01   # cos(theta_b)
  1  2     7.20927949E-01   # sin(theta_b)
  2  1    -7.20927949E-01   # -sin(theta_b)
  2  2     6.93010023E-01   # cos(theta_b)
#
BLOCK STAUMIX  # Stau Mixing Matrix
  1  1     7.06182060E-01   # cos(theta_tau)
  1  2     7.08030295E-01   # sin(theta_tau)
  2  1    -7.08030295E-01   # -sin(theta_tau)
  2  2     7.06182060E-01   # cos(theta_tau)
#
BLOCK ALPHA  # Higgs mixing
          -5.90304165E-01   # Mixing angle in the neutral Higgs boson sector
#
BLOCK HMIX Q=  9.11876000E+01  # DRbar Higgs Parameters
         1     3.50000000E+03   # mu(Q)               
         2     1.49999982E+00   # tanbeta(Q)          
         3     2.54860614E+02   # vev(Q)              
         4    -6.81941856E+07   # MA^2(Q)             
#
BLOCK GAUGE Q=  9.11876000E+01  # The gauge couplings
     1     3.50583930E-01   # gprime(Q) DRbar
     2     6.19929955E-01   # g(Q) DRbar
     3     1.02445331E+00   # g3(Q) DRbar
#
BLOCK AU Q=  9.11876000E+01  # The trilinear couplings
  1  1     0.00000000E+00   # A_u(Q) DRbar
  2  2     0.00000000E+00   # A_c(Q) DRbar
  3  3     0.00000000E+00   # A_t(Q) DRbar
#
BLOCK AD Q=  9.11876000E+01  # The trilinear couplings
  1  1     0.00000000E+00   # A_d(Q) DRbar
  2  2     0.00000000E+00   # A_s(Q) DRbar
  3  3     0.00000000E+00   # A_b(Q) DRbar
#
BLOCK AE Q=  9.11876000E+01  # The trilinear couplings
  1  1     0.00000000E+00   # A_e(Q) DRbar
  2  2     0.00000000E+00   # A_mu(Q) DRbar
  3  3     0.00000000E+00   # A_tau(Q) DRbar
#
BLOCK Yu Q=  9.11876000E+01  # The Yukawa couplings
  1  1     0.00000000E+00   # y_u(Q) DRbar
  2  2     0.00000000E+00   # y_c(Q) DRbar
  3  3     9.83711085E-01   # y_t(Q) DRbar
#
BLOCK Yd Q=  9.11876000E+01  # The Yukawa couplings
  1  1     0.00000000E+00   # y_d(Q) DRbar
  2  2     0.00000000E+00   # y_s(Q) DRbar
  3  3     2.58573071E-02   # y_b(Q) DRbar
#
BLOCK Ye Q=  9.11876000E+01  # The Yukawa couplings
  1  1     0.00000000E+00   # y_e(Q) DRbar
  2  2     0.00000000E+00   # y_mu(Q) DRbar
  3  3     1.77404466E-02   # y_tau(Q) DRbar
#
BLOCK MSOFT Q=  9.11876000E+01  # The soft SUSY breaking masses at the scale Q
         1     3.00000000E+02   # M_1                 
         2     1.00000000E+05   # M_2                 
         3     1.00000000E+05   # M_3                 
        14     0.00000000E+00   # A_u                 
        15     0.00000000E+00   # A_d                 
        16     0.00000000E+00   # A_e                 
        21     6.31608585E+08   # M^2_Hd              
        22    -1.14942548E+09   # M^2_Hu              
        31     1.00000000E+05   # M_eL                
        32     1.00000000E+05   # M_muL               
        33     1.00000000E+05   # M_tauL              
        34     1.00000000E+05   # M_eR                
        35     1.00000000E+05   # M_muR               
        36     1.00000000E+05   # M_tauR              
        41     1.60000000E+03   # M_q1L               
        42     1.60000000E+03   # M_q2L               
        43     1.60000000E+03   # M_q3L               
        44     1.00000000E+05   # M_uR                
        45     1.00000000E+05   # M_cR                
        46     1.00000000E+05   # M_tR                
        47     1.60000000E+03   # M_dR                
        48     1.60000000E+03   # M_sR                
        49     1.60000000E+03   # M_bR                
#
#
#
#                             =================
#                             |The decay table|
#                             =================
#
# - The QCD corrections to the decays gluino -> squark  + quark
#                                     squark -> gaugino + quark_prime
#                                     squark -> squark_prime + Higgs
#                                     squark -> gluino  + quark
#   are included.
#
# - The multi-body decays for the inos, stops and sbottoms are included.
#
# - The loop induced decays for the gluino, neutralinos and stops
#   are included.
#
# - The SUSY decays of the top quark are included.
#
# - Possible decays of the NLSP in GMSB models are included.
#
#
#         PDG            Width
DECAY         6     1.32644245E+00   # top decays
#          BR         NDA      ID1       ID2
     1.00000000E+00    2           5        24   # BR(t ->  b    W+)
#
#         PDG            Width
DECAY   1000021     1.E-04   # gluino decays (OJ Mods)
#          BR         NDA      ID1       ID2
     1.11949483E-03    2     1000001        -1   # BR(~g -> ~d_L  db)
     1.11949483E-03    2    -1000001         1   # BR(~g -> ~d_L* d )
     1.11949507E-03    2     2000001        -1   # BR(~g -> ~d_R  db)
     1.11949507E-03    2    -2000001         1   # BR(~g -> ~d_R* d )
     1.11949537E-03    2     1000002        -2   # BR(~g -> ~u_L  ub)
     1.11949537E-03    2    -1000002         2   # BR(~g -> ~u_L* u )
     3.02866525E-18    2     2000002        -2   # BR(~g -> ~u_R  ub)
     3.02866525E-18    2    -2000002         2   # BR(~g -> ~u_R* u )
     1.11949483E-03    2     1000003        -3   # BR(~g -> ~s_L  sb)
     1.11949483E-03    2    -1000003         3   # BR(~g -> ~s_L* s )
     1.11949507E-03    2     2000003        -3   # BR(~g -> ~s_R  sb)
     1.11949507E-03    2    -2000003         3   # BR(~g -> ~s_R* s )
     1.11949537E-03    2     1000004        -4   # BR(~g -> ~c_L  cb)
     1.11949537E-03    2    -1000004         4   # BR(~g -> ~c_L* c )
     3.02866525E-18    2     2000004        -4   # BR(~g -> ~c_R  cb)
     3.02866525E-18    2    -2000004         4   # BR(~g -> ~c_R* c )
     2.38443229E-01    2     1000005        -5   # BR(~g -> ~b_1  bb)
     2.38443229E-01    2    -1000005         5   # BR(~g -> ~b_1* b )
     2.38046215E-01    2     2000005        -5   # BR(~g -> ~b_2  bb)
     2.38046215E-01    2    -2000005         5   # BR(~g -> ~b_2* b )
     1.10175473E-03    2     1000006        -6   # BR(~g -> ~t_1  tb)
     1.10175473E-03    2    -1000006         6   # BR(~g -> ~t_1* t )
     3.13836608E-02    2     1000039        21   # BR(~g -> ~G g)
#
#         PDG            Width
DECAY   1000006     2.39620149E-01   # stop1 decays
#          BR         NDA      ID1       ID2
     1.00000000E+00    2     1000022         6   # BR(~t_1 -> ~chi_10 t )
#
#         PDG            Width
DECAY   2000006     1.58526588E+05   # stop2 decays
#          BR         NDA      ID1       ID2
     1.31491379E-03    2     1000022         6   # BR(~t_2 -> ~chi_10 t )
     3.15364488E-03    2     1000023         6   # BR(~t_2 -> ~chi_20 t )
     3.15325479E-03    2     1000025         6   # BR(~t_2 -> ~chi_30 t )
     9.92486631E-01    2     1000024         5   # BR(~t_2 -> ~chi_1+ b )
    -8.57982959E-05    2     1000006        25   # BR(~t_2 -> ~t_1    h )
     8.98470606E-05    2     1000006        35   # BR(~t_2 -> ~t_1    H )
     8.96895581E-05    2     1000006        36   # BR(~t_2 -> ~t_1    A )
     8.44868919E-05    2     1000005        37   # BR(~t_2 -> ~b_1    H+)
     9.48890178E-05    2     2000005        37   # BR(~t_2 -> ~b_2    H+)
    -6.11891824E-05    2     1000006        23   # BR(~t_2 -> ~t_1    Z )
    -1.53865076E-04    2     1000005        24   # BR(~t_2 -> ~b_1    W+)
    -1.66504031E-04    2     2000005        24   # BR(~t_2 -> ~b_2    W+)
#
#         PDG            Width
DECAY   1000005     4.46436437E+01   # sbottom1 decays
#          BR         NDA      ID1       ID2
     1.00000000E+00    2     1000022         5   # BR(~b_1 -> ~chi_10 b )
#
#         PDG            Width
DECAY   2000005     4.21186591E+01   # sbottom2 decays
#          BR         NDA      ID1       ID2
     1.00000000E+00    2     1000022         5   # BR(~b_2 -> ~chi_10 b )
#
#         PDG            Width
DECAY   1000002     2.42836407E-01   # sup_L decays
#          BR         NDA      ID1       ID2
     1.00000000E+00    2     1000022         2   # BR(~u_L -> ~chi_10 u)
#
#         PDG            Width
DECAY   2000002     2.08389323E+02   # sup_R decays
#          BR         NDA      ID1       ID2
     9.99807581E-01    2     1000022         2   # BR(~u_R -> ~chi_10 u)
     5.31094667E-06    2     1000023         2   # BR(~u_R -> ~chi_20 u)
     1.87107851E-04    2     1000025         2   # BR(~u_R -> ~chi_30 u)
#
#         PDG            Width
DECAY   1000001     2.43013563E-01   # sdown_L decays
#          BR         NDA      ID1       ID2
     1.00000000E+00    2     1000022         1   # BR(~d_L -> ~chi_10 d)
#
#         PDG            Width
DECAY   2000001     9.71726419E-01   # sdown_R decays
#          BR         NDA      ID1       ID2
     1.00000000E+00    2     1000022         1   # BR(~d_R -> ~chi_10 d)
#
#         PDG            Width
DECAY   1000004     2.42836407E-01   # scharm_L decays
#          BR         NDA      ID1       ID2
     1.00000000E+00    2     1000022         4   # BR(~c_L -> ~chi_10 c)
#
#         PDG            Width
DECAY   2000004     2.08389323E+02   # scharm_R decays
#          BR         NDA      ID1       ID2
     9.99807581E-01    2     1000022         4   # BR(~c_R -> ~chi_10 c)
     5.31094667E-06    2     1000023         4   # BR(~c_R -> ~chi_20 c)
     1.87107851E-04    2     1000025         4   # BR(~c_R -> ~chi_30 c)
#
#         PDG            Width
DECAY   1000003     2.43013563E-01   # sstrange_L decays
#          BR         NDA      ID1       ID2
     1.00000000E+00    2     1000022         3   # BR(~s_L -> ~chi_10 s)
#
#         PDG            Width
DECAY   2000003     9.71726419E-01   # sstrange_R decays
#          BR         NDA      ID1       ID2
     1.00000000E+00    2     1000022         3   # BR(~s_R -> ~chi_10 s)
#
#         PDG            Width
DECAY   1000011     1.22258417E+02   # selectron_L decays
#          BR         NDA      ID1       ID2
     9.99765560E-01    2     1000022        11   # BR(~e_L -> ~chi_10 e-)
     4.15597868E-06    2     1000023        11   # BR(~e_L -> ~chi_20 e-)
     2.27623820E-04    2     1000025        11   # BR(~e_L -> ~chi_30 e-)
     2.66046364E-06    2    -1000024        12   # BR(~e_L -> ~chi_1- nu_e)
#
#         PDG            Width
DECAY   2000011     4.89030761E+02   # selectron_R decays
#          BR         NDA      ID1       ID2
     9.99807837E-01    2     1000022        11   # BR(~e_R -> ~chi_10 e-)
     5.30388863E-06    2     1000023        11   # BR(~e_R -> ~chi_20 e-)
     1.86859142E-04    2     1000025        11   # BR(~e_R -> ~chi_30 e-)
#
#         PDG            Width
DECAY   1000013     1.22258417E+02   # smuon_L decays
#          BR         NDA      ID1       ID2
     9.99765560E-01    2     1000022        13   # BR(~mu_L -> ~chi_10 mu-)
     4.15597868E-06    2     1000023        13   # BR(~mu_L -> ~chi_20 mu-)
     2.27623820E-04    2     1000025        13   # BR(~mu_L -> ~chi_30 mu-)
     2.66046364E-06    2    -1000024        14   # BR(~mu_L -> ~chi_1- nu_mu)
#
#         PDG            Width
DECAY   2000013     4.89030761E+02   # smuon_R decays
#          BR         NDA      ID1       ID2
     9.99807837E-01    2     1000022        13   # BR(~mu_R -> ~chi_10 mu-)
     5.30388863E-06    2     1000023        13   # BR(~mu_R -> ~chi_20 mu-)
     1.86859142E-04    2     1000025        13   # BR(~mu_R -> ~chi_30 mu-)
#
#         PDG            Width
DECAY   1000015     1.18200030E+04   # stau_1 decays
#          BR         NDA      ID1       ID2
     2.59019741E-02    2     1000022        15   # BR(~tau_1 -> ~chi_10  tau-)
     2.52092247E-05    2     1000023        15   # BR(~tau_1 -> ~chi_20  tau-)
     2.50605780E-05    2     1000025        15   # BR(~tau_1 -> ~chi_30  tau-)
     2.77094812E-05    2    -1000024        16   # BR(~tau_1 -> ~chi_1-  nu_tau)
     9.74020047E-01    2     1000039        15   # BR(~tau_1 -> ~G       tau-)
#
#         PDG            Width
DECAY   2000015     3.06079819E+02   # stau_2 decays
#          BR         NDA      ID1       ID2
     9.96489386E-01    2     1000022        15   # BR(~tau_2 -> ~chi_10  tau-)
     1.07715252E-03    2     1000023        15   # BR(~tau_2 -> ~chi_20  tau-)
     1.46185813E-03    2     1000025        15   # BR(~tau_2 -> ~chi_30  tau-)
     9.71603596E-04    2    -1000024        16   # BR(~tau_2 -> ~chi_1-  nu_tau)
#
#         PDG            Width
DECAY   1000012     1.22258475E+02   # snu_eL decays
#          BR         NDA      ID1       ID2
     9.99837638E-01    2     1000022        12   # BR(~nu_eL -> ~chi_10 nu_e)
     6.59153439E-06    2     1000023        12   # BR(~nu_eL -> ~chi_20 nu_e)
     1.50111361E-04    2     1000025        12   # BR(~nu_eL -> ~chi_30 nu_e)
     5.65887019E-06    2     1000024        11   # BR(~nu_eL -> ~chi_1+ e-)
#
#         PDG            Width
DECAY   1000014     1.22258475E+02   # snu_muL decays
#          BR         NDA      ID1       ID2
     9.99837638E-01    2     1000022        14   # BR(~nu_muL -> ~chi_10 nu_mu)
     6.59153439E-06    2     1000023        14   # BR(~nu_muL -> ~chi_20 nu_mu)
     1.50111361E-04    2     1000025        14   # BR(~nu_muL -> ~chi_30 nu_mu)
     5.65887019E-06    2     1000024        13   # BR(~nu_muL -> ~chi_1+ mu-)
#
#         PDG            Width
DECAY   1000016     1.22883064E+02   # snu_tauL decays
#          BR         NDA      ID1       ID2
     9.94755672E-01    2     1000022        16   # BR(~nu_tauL -> ~chi_10 nu_tau)
     6.55803100E-06    2     1000023        16   # BR(~nu_tauL -> ~chi_20 nu_tau)
     1.49348376E-04    2     1000025        16   # BR(~nu_tauL -> ~chi_30 nu_tau)
     5.08842188E-03    2     1000024        15   # BR(~nu_tauL -> ~chi_1+ tau-)
#
#         PDG            Width
DECAY   1000024     6.00583810E+01   # chargino1+ decays
#          BR         NDA      ID1       ID2
     4.50142685E-07    2     1000002        -1   # BR(~chi_1+ -> ~u_L     db)
     2.11530854E-07    2    -1000001         2   # BR(~chi_1+ -> ~d_L*    u )
     4.50142685E-07    2     1000004        -3   # BR(~chi_1+ -> ~c_L     sb)
     2.11530854E-07    2    -1000003         4   # BR(~chi_1+ -> ~s_L*    c )
     6.24950747E-02    2     1000006        -5   # BR(~chi_1+ -> ~t_1     bb)
     8.39741977E-02    2    -1000005         6   # BR(~chi_1+ -> ~b_1*    t )
     8.01999501E-01    2    -2000005         6   # BR(~chi_1+ -> ~b_2*    t )
     3.95837511E-02    2     1000022        24   # BR(~chi_1+ -> ~chi_10  W+)
     1.19401409E-02    2     1000022        37   # BR(~chi_1+ -> ~chi_10  H+)
     5.02340582E-06    2     1000039        24   # BR(~chi_1+ -> ~G       W+)
     9.88396653E-07    2     1000039        37   # BR(~chi_1+ -> ~G       H+)
#
#         PDG            Width
DECAY   1000037     1.01790275E+05   # chargino2+ decays
#          BR         NDA      ID1       ID2
     9.70419835E-03    2     1000002        -1   # BR(~chi_2+ -> ~u_L     db)
     9.70420129E-03    2    -1000001         2   # BR(~chi_2+ -> ~d_L*    u )
     9.70419835E-03    2     1000004        -3   # BR(~chi_2+ -> ~c_L     sb)
     9.70420129E-03    2    -1000003         4   # BR(~chi_2+ -> ~s_L*    c )
     8.34900880E-01    2     1000006        -5   # BR(~chi_2+ -> ~t_1     bb)
     2.12145182E-03    2    -1000005         6   # BR(~chi_2+ -> ~b_1*    t )
     9.21526583E-03    2    -2000005         6   # BR(~chi_2+ -> ~b_2*    t )
     7.17227879E-15    2     1000012       -11   # BR(~chi_2+ -> ~nu_eL   e+  )
     7.17227879E-15    2     1000014       -13   # BR(~chi_2+ -> ~nu_muL  mu+ )
     5.02183035E-15    2    -1000011        12   # BR(~chi_2+ -> ~e_L+    nu_e)
     5.02183035E-15    2    -1000013        14   # BR(~chi_2+ -> ~mu_L+   nu_mu)
     7.79190759E-15    2    -1000015        16   # BR(~chi_2+ -> ~tau_1+  nu_tau)
     1.32610683E-16    2    -2000015        16   # BR(~chi_2+ -> ~tau_2+  nu_tau)
     1.77889587E-03    2     1000024        23   # BR(~chi_2+ -> ~chi_1+  Z )
     2.55211925E-07    2     1000022        24   # BR(~chi_2+ -> ~chi_10  W+)
     1.72591261E-03    2     1000023        24   # BR(~chi_2+ -> ~chi_20  W+)
     1.72563888E-03    2     1000025        24   # BR(~chi_2+ -> ~chi_30  W+)
     1.79605890E-03    2     1000024        25   # BR(~chi_2+ -> ~chi_1+  h )
     1.57660023E-03    2     1000024        35   # BR(~chi_2+ -> ~chi_1+  H )
     1.57680947E-03    2     1000024        36   # BR(~chi_2+ -> ~chi_1+  A )
     3.44210841E-07    2     1000022        37   # BR(~chi_2+ -> ~chi_10  H+)
     1.57675014E-03    2     1000023        37   # BR(~chi_2+ -> ~chi_20  H+)
     1.57646648E-03    2     1000025        37   # BR(~chi_2+ -> ~chi_30  H+)
     1.01611842E-01    2     1000039        24   # BR(~chi_2+ -> ~G       W+)
     2.91329861E-08    2     1000039        37   # BR(~chi_2+ -> ~G       H+)
#
#         PDG            Width
DECAY   1000022     1.E-08   # neutralino1 decays (OJ Mods)
#          BR         NDA      ID1       ID2
     8.21853477E-01    2     1000039        22   # BR(~chi_10 -> ~G        gam)
     1.78146485E-01    2     1000039        23   # BR(~chi_10 -> ~G        Z)
     3.85755694E-08    2     1000039        25   # BR(~chi_10 -> ~G        h)
#
#         PDG            Width
DECAY   1000023     1.E-08   # neutralino2 decays (OJ Mods)
#          BR         NDA      ID1       ID2
     3.74322925E-02    2     1000022        23   # BR(~chi_20 -> ~chi_10   Z )
     1.04601273E-03    2     1000022        25   # BR(~chi_20 -> ~chi_10   h )
     1.08127211E-02    2     1000022        35   # BR(~chi_20 -> ~chi_10   H )
     7.25223895E-04    2     1000022        36   # BR(~chi_20 -> ~chi_10   A )
     2.19992346E-08    2     1000002        -2   # BR(~chi_20 -> ~u_L      ub)
     2.19992346E-08    2    -1000002         2   # BR(~chi_20 -> ~u_L*     u )
     9.24696226E-08    2     1000001        -1   # BR(~chi_20 -> ~d_L      db)
     9.24696226E-08    2    -1000001         1   # BR(~chi_20 -> ~d_L*     d )
     2.04685379E-07    2     2000001        -1   # BR(~chi_20 -> ~d_R      db)
     2.04685379E-07    2    -2000001         1   # BR(~chi_20 -> ~d_R*     d )
     2.19992346E-08    2     1000004        -4   # BR(~chi_20 -> ~c_L      cb)
     2.19992346E-08    2    -1000004         4   # BR(~chi_20 -> ~c_L*     c )
     9.24696226E-08    2     1000003        -3   # BR(~chi_20 -> ~s_L      sb)
     9.24696226E-08    2    -1000003         3   # BR(~chi_20 -> ~s_L*     s )
     2.04685379E-07    2     2000003        -3   # BR(~chi_20 -> ~s_R      sb)
     2.04685379E-07    2    -2000003         3   # BR(~chi_20 -> ~s_R*     s )
     4.17152482E-01    2     1000006        -6   # BR(~chi_20 -> ~t_1      tb)
     4.17152482E-01    2    -1000006         6   # BR(~chi_20 -> ~t_1*     t )
     2.78573466E-02    2     1000005        -5   # BR(~chi_20 -> ~b_1      bb)
     2.78573466E-02    2    -1000005         5   # BR(~chi_20 -> ~b_1*     b )
     2.99786410E-02    2     2000005        -5   # BR(~chi_20 -> ~b_2      bb)
     2.99786410E-02    2    -2000005         5   # BR(~chi_20 -> ~b_2*     b )
     3.55121714E-11    2     1000039        22   # BR(~chi_20 -> ~G        gam)
     1.82242773E-07    2     1000039        23   # BR(~chi_20 -> ~G        Z)
     4.54827919E-06    2     1000039        25   # BR(~chi_20 -> ~G        h)
     3.64323273E-08    2     1000039        35   # BR(~chi_20 -> ~G        H)
     9.39601260E-07    2     1000039        36   # BR(~chi_20 -> ~G        A)
#
#         PDG            Width
DECAY   1000025     6.37494656E+01   # neutralino3 decays
#          BR         NDA      ID1       ID2
     1.06171020E-03    2     1000022        23   # BR(~chi_30 -> ~chi_10   Z )
     3.76745802E-02    2     1000022        25   # BR(~chi_30 -> ~chi_10   h )
     7.04953910E-04    2     1000022        35   # BR(~chi_30 -> ~chi_10   H )
     1.08368005E-02    2     1000022        36   # BR(~chi_30 -> ~chi_10   A )
     3.09591379E-06    2     1000002        -2   # BR(~chi_30 -> ~u_L      ub)
     3.09591379E-06    2    -1000002         2   # BR(~chi_30 -> ~u_L*     u )
     8.54291136E-07    2     1000001        -1   # BR(~chi_30 -> ~d_L      db)
     8.54291136E-07    2    -1000001         1   # BR(~chi_30 -> ~d_L*     d )
     7.20210335E-06    2     2000001        -1   # BR(~chi_30 -> ~d_R      db)
     7.20210335E-06    2    -2000001         1   # BR(~chi_30 -> ~d_R*     d )
     3.09591379E-06    2     1000004        -4   # BR(~chi_30 -> ~c_L      cb)
     3.09591379E-06    2    -1000004         4   # BR(~chi_30 -> ~c_L*     c )
     8.54291136E-07    2     1000003        -3   # BR(~chi_30 -> ~s_L      sb)
     8.54291136E-07    2    -1000003         3   # BR(~chi_30 -> ~s_L*     s )
     7.20210335E-06    2     2000003        -3   # BR(~chi_30 -> ~s_R      sb)
     7.20210335E-06    2    -2000003         3   # BR(~chi_30 -> ~s_R*     s )
     4.16658951E-01    2     1000006        -6   # BR(~chi_30 -> ~t_1      tb)
     4.16658951E-01    2    -1000006         6   # BR(~chi_30 -> ~t_1*     t )
     2.43912232E-02    2     1000005        -5   # BR(~chi_30 -> ~b_1      bb)
     2.43912232E-02    2    -1000005         5   # BR(~chi_30 -> ~b_1*     b )
     3.37886773E-02    2     2000005        -5   # BR(~chi_30 -> ~b_2      bb)
     3.37886773E-02    2    -2000005         5   # BR(~chi_30 -> ~b_2*     b )
     1.43806943E-09    2     1000039        22   # BR(~chi_30 -> ~G        gam)
     4.55084933E-06    2     1000039        23   # BR(~chi_30 -> ~G        Z)
     1.77456193E-07    2     1000039        25   # BR(~chi_30 -> ~G        h)
     9.32758974E-07    2     1000039        35   # BR(~chi_30 -> ~G        H)
     3.75629015E-08    2     1000039        36   # BR(~chi_30 -> ~G        A)
#
#         PDG            Width
DECAY   1000035     1.01790685E+05   # neutralino4 decays
#          BR         NDA      ID1       ID2
     1.04669293E-10    2     1000022        23   # BR(~chi_40 -> ~chi_10   Z )
     1.71911460E-03    2     1000023        23   # BR(~chi_40 -> ~chi_20   Z )
     5.97761310E-05    2     1000025        23   # BR(~chi_40 -> ~chi_30   Z )
     1.72589557E-03    2     1000024       -24   # BR(~chi_40 -> ~chi_1+   W-)
     1.72589557E-03    2    -1000024        24   # BR(~chi_40 -> ~chi_1-   W+)
     2.65930113E-07    2     1000022        25   # BR(~chi_40 -> ~chi_10   h )
     4.08863784E-08    2     1000022        35   # BR(~chi_40 -> ~chi_10   H )
     3.02848082E-07    2     1000022        36   # BR(~chi_40 -> ~chi_10   A )
     5.89747763E-05    2     1000023        25   # BR(~chi_40 -> ~chi_20   h )
     1.50879560E-03    2     1000023        35   # BR(~chi_40 -> ~chi_20   H )
     6.93557952E-05    2     1000023        36   # BR(~chi_40 -> ~chi_20   A )
     1.73681355E-03    2     1000025        25   # BR(~chi_40 -> ~chi_30   h )
     6.77561049E-05    2     1000025        35   # BR(~chi_40 -> ~chi_30   H )
     1.50714511E-03    2     1000025        36   # BR(~chi_40 -> ~chi_30   A )
     1.57677571E-03    2     1000024       -37   # BR(~chi_40 -> ~chi_1+   H-)
     1.57677571E-03    2    -1000024        37   # BR(~chi_40 -> ~chi_1-   H+)
     4.64579612E-03    2     1000002        -2   # BR(~chi_40 -> ~u_L      ub)
     4.64579612E-03    2    -1000002         2   # BR(~chi_40 -> ~u_L*     u )
     7.38362423E-23    2     2000002        -2   # BR(~chi_40 -> ~u_R      ub)
     7.38362423E-23    2    -2000002         2   # BR(~chi_40 -> ~u_R*     u )
     4.64579810E-03    2     1000001        -1   # BR(~chi_40 -> ~d_L      db)
     4.64579810E-03    2    -1000001         1   # BR(~chi_40 -> ~d_L*     d )
     8.83951446E-17    2     2000001        -1   # BR(~chi_40 -> ~d_R      db)
     8.83951446E-17    2    -2000001         1   # BR(~chi_40 -> ~d_R*     d )
     4.64579612E-03    2     1000004        -4   # BR(~chi_40 -> ~c_L      cb)
     4.64579612E-03    2    -1000004         4   # BR(~chi_40 -> ~c_L*     c )
     7.38362423E-23    2     2000004        -4   # BR(~chi_40 -> ~c_R      cb)
     7.38362423E-23    2    -2000004         4   # BR(~chi_40 -> ~c_R*     c )
     4.64579810E-03    2     1000003        -3   # BR(~chi_40 -> ~s_L      sb)
     4.64579810E-03    2    -1000003         3   # BR(~chi_40 -> ~s_L*     s )
     8.83951446E-17    2     2000003        -3   # BR(~chi_40 -> ~s_R      sb)
     8.83951446E-17    2    -2000003         3   # BR(~chi_40 -> ~s_R*     s )
     5.66833914E-03    2     1000006        -6   # BR(~chi_40 -> ~t_1      tb)
     5.66833914E-03    2    -1000006         6   # BR(~chi_40 -> ~t_1*     t )
     1.98813866E-01    2     1000005        -5   # BR(~chi_40 -> ~b_1      bb)
     1.98813866E-01    2    -1000005         5   # BR(~chi_40 -> ~b_1*     b )
     2.18636872E-01    2     2000005        -5   # BR(~chi_40 -> ~b_2      bb)
     2.18636872E-01    2    -2000005         5   # BR(~chi_40 -> ~b_2*     b )
     2.51090447E-15    2     1000011       -11   # BR(~chi_40 -> ~e_L-     e+)
     2.51090447E-15    2    -1000011        11   # BR(~chi_40 -> ~e_L+     e-)
     4.29972863E-28    2     2000011       -11   # BR(~chi_40 -> ~e_R-     e+)
     4.29972863E-28    2    -2000011        11   # BR(~chi_40 -> ~e_R+     e-)
     2.51090447E-15    2     1000013       -13   # BR(~chi_40 -> ~mu_L-    mu+)
     2.51090447E-15    2    -1000013        13   # BR(~chi_40 -> ~mu_L+    mu-)
     4.29972863E-28    2     2000013       -13   # BR(~chi_40 -> ~mu_R-    mu+)
     4.29972863E-28    2    -2000013        13   # BR(~chi_40 -> ~mu_R+    mu-)
     3.58612880E-15    2     1000012       -12   # BR(~chi_40 -> ~nu_eL    nu_eb)
     3.58612880E-15    2    -1000012        12   # BR(~chi_40 -> ~nu_eL*   nu_e )
     3.58612880E-15    2     1000014       -14   # BR(~chi_40 -> ~nu_muL   nu_mub)
     3.58612880E-15    2    -1000014        14   # BR(~chi_40 -> ~nu_muL*  nu_mu )
     3.58612880E-15    2     1000016       -16   # BR(~chi_40 -> ~nu_tau1  nu_taub)
     3.58612880E-15    2    -1000016        16   # BR(~chi_40 -> ~nu_tau1* nu_tau )
     2.46223123E-02    2     1000039        22   # BR(~chi_40 -> ~G        gam)
     7.69891557E-02    2     1000039        23   # BR(~chi_40 -> ~G        Z)
     4.64796380E-09    2     1000039        25   # BR(~chi_40 -> ~G        h)
     2.91817613E-08    2     1000039        35   # BR(~chi_40 -> ~G        H)
     5.75045687E-12    2     1000039        36   # BR(~chi_40 -> ~G        A)
#
#
#
#
