# SUSY Les Houches Accord 2 - MSSM spectrum + Decays
# SPheno v3.1.12 
# W. Porod, Comput. Phys. Commun. 153 (2003) 275-315, hep-ph/0301101
# in case of problems send email to porod@physik.uni-wuerzburg.de
# Created: 12.11.2012,  11:42
Block SPINFO         # Program information
     1   SPheno      # spectrum calculator
     2   v3.1.12     # version number
#
Block SPhenoINFO     # SPheno specific information
    1      2         # using 2-loop RGEs
    2      2         # using pole masses for boundary conditions at mZ
Block MODSEL  # Model selection
    1    2    # mGMSB model
Block MINPAR  # Input parameters
    1    7.00000000E+04  # Lambda, scale of SUSY breaking
    2    2.50000000E+05  # M_M, messenger mass scale
    3    5.70000000E+01  # tanb at m_Z   
    4    1.00000000E+00  # Sign(mu)
    5    3.00000000E+00  # N_5 number of effective five-plets
    6    1.00000000E+00  # c_grav, Gravitino mass factor
Block gauge Q=  2.50000000E+05  # (GMSB scale)
   1    4.94574975E-01  # g'(Q)^DRbar
   2    6.52160597E-01  # g(Q)^DRbar
   3    9.48912461E-01  # g3(Q)^DRbar
Block SMINPUTS  # SM parameters
         1     1.27932709E+02  # alpha_em^-1(MZ)^MSbar
         2     1.16639000E-05  # G_mu [GeV^-2]
         3     1.17200000E-01  # alpha_s(MZ)^MSbar
         4     9.11876000E+01  # m_Z(pole)
         5     4.20000000E+00  # m_b(m_b), MSbar
         6     1.72500000E+02  # m_t(pole)
         7     1.77700000E+00  # m_tau(pole)
         8     0.00000000E+00  # m_nu_3
        11     5.10998910E-04  # m_e(pole)
        12     0.00000000E+00  # m_nu_1
        13     1.05658000E-01  # m_muon(pole)
        14     0.00000000E+00  # m_nu_2
        21     5.00000000E-03  # m_d(2 GeV), MSbar
        22     3.00000000E-03  # m_u(2 GeV), MSbar
        23     1.05000000E-01  # m_s(2 GeV), MSbar
        24     1.27000000E+00  # m_c(m_c), MSbar
Block gauge Q=  1.36629690E+03  # (SUSY scale)
   1    3.63938597E-01  # g'(Q)^DRbar
   2    6.41713708E-01  # g(Q)^DRbar
   3    1.04354372E+00  # g3(Q)^DRbar
Block Yu Q=  1.36629690E+03  # (SUSY scale)
  1  1     8.53394396E-06   # Y_u(Q)^DRbar
  2  2     3.61270782E-03   # Y_c(Q)^DRbar
  3  3     8.57252367E-01   # Y_t(Q)^DRbar
Block Yd Q=  1.36629690E+03  # (SUSY scale)
  1  1     7.05214623E-04   # Y_d(Q)^DRbar
  2  2     1.48095066E-02   # Y_s(Q)^DRbar
  3  3     7.15297849E-01   # Y_b(Q)^DRbar
Block Ye Q=  1.36629690E+03  # (SUSY scale)
  1  1     1.84554397E-04   # Y_e(Q)^DRbar
  2  2     3.81614388E-02   # Y_mu(Q)^DRbar
  3  3     6.49328686E-01   # Y_tau(Q)^DRbar
Block Au Q=  1.36629690E+03  # (SUSY scale)
  1  1    -4.76060668E+02   # A_u(Q)^DRbar
  2  2    -4.76057171E+02   # A_c(Q)^DRbar
  3  3    -4.39738983E+02   # A_t(Q)^DRbar
Block Ad Q=  1.36629690E+03  # (SUSY scale)
  1  1    -4.84791172E+02   # A_d(Q)^DRbar
  2  2    -4.84781948E+02   # A_s(Q)^DRbar
  3  3    -4.54270467E+02   # A_b(Q)^DRbar
Block Ae Q=  1.36629690E+03  # (SUSY scale)
  1  1    -2.81686608E+01   # A_e(Q)^DRbar
  2  2    -2.81630343E+01   # A_mu(Q)^DRbar
  3  3    -2.65509759E+01   # A_tau(Q)^DRbar
Block MSOFT Q=  1.36629690E+03  # soft SUSY breaking masses at Q
   1    2.95321134E+02  # M_1
   2    5.48811275E+02  # M_2
   3    1.45876257E+03  # M_3
  21   -1.23001238E+05  # M^2_(H,d)
  22   -2.45166208E+05  # M^2_(H,u)
  31    4.42465500E+02  # M_(L,11)
  32    4.42440144E+02  # M_(L,22)
  33    4.35162901E+02  # M_(L,33)
  34    2.12713775E+02  # M_(E,11)
  35    2.12605522E+02  # M_(E,22)
  36    1.78872771E+02  # M_(E,33)
  41    1.43822641E+03  # M_(Q,11)
  42    1.43821116E+03  # M_(Q,22)
  43    1.35598142E+03  # M_(Q,33)
  44    1.38210618E+03  # M_(U,11)
  45    1.38210441E+03  # M_(U,22)
  46    1.28003056E+03  # M_(U,33)
  47    1.37681262E+03  # M_(D,11)
  48    1.37678223E+03  # M_(D,22)
  49    1.30505143E+03  # M_(D,33)
Block MASS  # Mass spectrum
#   PDG code      mass          particle
         6     1.72500000E+02  # m_t(pole)
        23     9.11876000E+01  # m_Z(pole)
        24     8.02969790E+01  # W+
        15     1.77700000E+00  # m_tau(pole)
        25     1.16079737E+02  # h0
        35     3.45426984E+02  # H0
        36     3.45366732E+02  # A0
        37     3.56667739E+02  # H+
   1000001     1.49861023E+03  # ~d_L
   2000001     1.43441341E+03  # ~d_R
   1000002     1.49658278E+03  # ~u_L
   2000002     1.43890764E+03  # ~u_R
   1000003     1.49859551E+03  # ~s_L
   2000003     1.43437379E+03  # ~s_R
   1000004     1.49656494E+03  # ~c_L
   2000004     1.43890542E+03  # ~c_R
   1000005     1.33918651E+03  # ~b_1
   2000005     1.40984584E+03  # ~b_2
   1000006     1.31835324E+03  # ~t_1
   2000006     1.41598399E+03  # ~t_2
   1000011     4.53496665E+02  # ~e_L-
   2000011     2.23640420E+02  # ~e_R-
   1000012     4.46069597E+02  # ~nu_eL
   1000013     4.53550527E+02  # ~mu_L-
   2000013     2.23335825E+02  # ~mu_R-
   1000014     4.46033312E+02  # ~nu_muL
   1000015     1.21567389E+02  # ~tau_1-
   2000015     4.65258644E+02  # ~tau_2-
   1000016     4.36190061E+02  # ~nu_tauL
   1000021     1.54111355E+03  # ~g
   1000022     2.85741524E+02  # ~chi_10
   1000023     4.92097645E+02  # ~chi_20
   1000025    -5.36320325E+02  # ~chi_30
   1000035     6.06936748E+02  # ~chi_40
   1000024     4.91094387E+02  # ~chi_1+
   1000037     6.06900790E+02  # ~chi_2+
   1000039     4.20000000E-09  # ~G
# Higgs mixing
Block alpha # Effective Higgs mixing angle
          -2.10828482E-02   # alpha
Block Hmix Q=  1.36629690E+03  # Higgs mixing parameters
   1    5.31658321E+02  # mu
   2    5.67083222E+01  # tan[beta](Q)
   3    2.43578621E+02  # v(Q)
   4    1.14168341E+05  # m^2_A(Q)
Block stopmix # stop mixing matrix
   1  1     3.10468771E-01   # Re[R_st(1,1)]
   1  2     9.50583580E-01   # Re[R_st(1,2)]
   2  1    -9.50583580E-01   # Re[R_st(2,1)]
   2  2     3.10468771E-01   # Re[R_st(2,2)]
Block sbotmix # sbottom mixing matrix
   1  1     3.76420200E-01   # Re[R_sb(1,1)]
   1  2     9.26449045E-01   # Re[R_sb(1,2)]
   2  1    -9.26449045E-01   # Re[R_sb(2,1)]
   2  2     3.76420200E-01   # Re[R_sb(2,2)]
Block staumix # stau mixing matrix
   1  1     3.12038332E-01   # Re[R_sta(1,1)]
   1  2     9.50069513E-01   # Re[R_sta(1,2)]
   2  1    -9.50069513E-01   # Re[R_sta(2,1)]
   2  2     3.12038332E-01   # Re[R_sta(2,2)]
Block Nmix # neutralino mixing matrix
   1  1    -9.90081613E-01   # Re[N(1,1)]
   1  2     1.98311612E-02   # Re[N(1,2)]
   1  3    -1.21697357E-01   # Re[N(1,3)]
   1  4     6.73415005E-02   # Re[N(1,4)]
   2  1     1.18242796E-01   # Re[N(2,1)]
   2  2     6.19705391E-01   # Re[N(2,2)]
   2  3    -5.69290395E-01   # Re[N(2,3)]
   2  4     5.27154926E-01   # Re[N(2,4)]
   3  1     3.72236627E-02   # Re[N(3,1)]
   3  2    -5.03414136E-02   # Re[N(3,2)]
   3  3    -7.03032877E-01   # Re[N(3,3)]
   3  4    -7.08396015E-01   # Re[N(3,4)]
   4  1    -6.61168635E-02   # Re[N(4,1)]
   4  2     7.82967238E-01   # Re[N(4,2)]
   4  3     4.08464164E-01   # Re[N(4,3)]
   4  4    -4.64486697E-01   # Re[N(4,4)]
Block Umix # chargino mixing matrix
   1  1    -5.76770985E-01   # Re[U(1,1)]
   1  2     8.16905889E-01   # Re[U(1,2)]
   2  1     8.16905889E-01   # Re[U(2,1)]
   2  2     5.76770985E-01   # Re[U(2,2)]
Block Vmix # chargino mixing matrix
   1  1    -6.55773335E-01   # Re[V(1,1)]
   1  2     7.54957835E-01   # Re[V(1,2)]
   2  1     7.54957835E-01   # Re[V(2,1)]
   2  2     6.55773335E-01   # Re[V(2,2)]
DECAY   2000011     4.64192940E-05   # ~e^-_R
#    BR                NDA      ID1      ID2
     7.82901300E-07    2     1000039        11   # BR(~e^-_R -> ~G e^-)
#    BR                NDA      ID1      ID2       ID3
     1.45238300E-13    3     2000013        11       -13   # BR(~e^-_R -> ~mu^-_R e^- mu^+)
     3.92560347E-13    3    -2000013        11        13   # BR(~e^-_R -> ~mu^+_R e^- mu^-)
     1.97894629E-01    3     1000015        11       -15   # BR(~e^-_R -> ~tau^-_1 e^- tau^+)
     8.02104588E-01    3    -1000015        11        15   # BR(~e^-_R -> ~tau^+_1 e^- tau^-)
DECAY   1000011     1.98182769E-01   # ~e^-_L
#    BR                NDA      ID1      ID2
     9.99998703E-01    2     1000022        11   # BR(~e^-_L -> chi^0_1 e^-)
     6.05594675E-07    2     2000011        23   # BR(~e^-_L -> ~e^-_R Z)
     6.84970662E-07    2     2000011        25   # BR(~e^-_L -> ~e^-_R h^0)
     6.28721982E-09    2     1000039        11   # BR(~e^-_L -> ~G e^-)
DECAY   2000013     4.60562230E-05   # ~mu^-_R
#    BR                NDA      ID1      ID2
     7.83713458E-07    2     1000039        13   # BR(~mu^-_R -> ~G mu^-)
#    BR                NDA      ID1      ID2       ID3
     1.96366104E-01    3     1000015        13       -15   # BR(~mu^-_R -> ~tau^-_1 mu^- tau^+)
     8.03633112E-01    3    -1000015        13        15   # BR(~mu^-_R -> ~tau^+_1 mu^- tau^-)
DECAY   1000013     2.09428511E-01   # ~mu^-_L
#    BR                NDA      ID1      ID2
     9.47763398E-01    2     1000022        13   # BR(~mu^-_L -> chi^0_1 mu^-)
     2.45422279E-02    2     2000013        23   # BR(~mu^-_L -> ~mu^-_R Z)
     2.76943680E-02    2     2000013        25   # BR(~mu^-_L -> ~mu^-_R h^0)
     5.95314596E-09    2     1000039        13   # BR(~mu^-_L -> ~G mu^-)
DECAY   1000015     1.72332927E-12   # ~tau^-_1
#    BR                NDA      ID1      ID2
     1.00000000E+00    2     1000039        15   # BR(~tau^-_1 -> ~G tau^-)
DECAY   2000015     3.69595014E+00   # ~tau^-_2
#    BR                NDA      ID1      ID2
     7.12725128E-02    2     1000022        15   # BR(~tau^-_2 -> chi^0_1 tau^-)
     5.44843156E-01    2     1000015        23   # BR(~tau^-_2 -> ~tau^-_1 Z)
     3.83884331E-01    2     1000015        25   # BR(~tau^-_2 -> ~tau^-_1 h^0)
     3.83155314E-10    2     1000039        15   # BR(~tau^-_2 -> ~G tau^-)
DECAY   1000012     2.14711475E-01   # ~nu_e
#    BR                NDA      ID1      ID2
     9.99998935E-01    2     1000022        12   # BR(~nu_e -> chi^0_1 nu_e)
     1.05978082E-06    2     2000011        24   # BR(~nu_e -> ~e^-_R W^+)
     5.34332893E-09    2     1000039        12   # BR(~nu_e -> ~G nu_e)
DECAY   1000014     2.24383261E-01   # ~nu_mu
#    BR                NDA      ID1      ID2
     9.56600619E-01    2     1000022        14   # BR(~nu_mu -> chi^0_1 nu_mu)
     4.33993757E-02    2     2000013        24   # BR(~nu_mu -> ~mu^-_R W^+)
     5.11093160E-09    2     1000039        14   # BR(~nu_mu -> ~G nu_mu)
DECAY   1000016     3.72502692E+00   # ~nu_tau
#    BR                NDA      ID1      ID2
     5.28271062E-02    2     1000022        16   # BR(~nu_tau -> chi^0_1 nu_tau)
     9.47172893E-01    2     1000015        24   # BR(~nu_tau -> ~tau^-_1 W^+)
     2.75361653E-10    2     1000039        16   # BR(~nu_tau -> ~G nu_tau)
DECAY   2000001     7.71813072E-01   # ~d_R
#    BR                NDA      ID1      ID2
     9.83803007E-01    2     1000022         1   # BR(~d_R -> chi^0_1 d)
     1.18517062E-02    2     1000023         1   # BR(~d_R -> chi^0_2 d)
     1.12218134E-03    2     1000025         1   # BR(~d_R -> chi^0_3 d)
     3.20690234E-03    2     1000035         1   # BR(~d_R -> chi^0_4 d)
     1.45136085E-05    2    -1000024         2   # BR(~d_R -> chi^-_1 u)
     1.17879097E-06    2    -1000037         2   # BR(~d_R -> chi^-_2 u)
     5.11109089E-07    2     1000039         1   # BR(~d_R -> ~G d)
DECAY   1000001     1.36978877E+01   # ~d_L
#    BR                NDA      ID1      ID2
     1.78318918E-02    2     1000022         1   # BR(~d_L -> chi^0_1 d)
     1.27285208E-01    2     1000023         1   # BR(~d_L -> chi^0_2 d)
     1.12210965E-03    2     1000025         1   # BR(~d_L -> chi^0_3 d)
     1.98174942E-01    2     1000035         1   # BR(~d_L -> chi^0_4 d)
     2.37563846E-01    2    -1000024         2   # BR(~d_L -> chi^-_1 u)
     4.18021967E-01    2    -1000037         2   # BR(~d_L -> chi^-_2 u)
     3.58462651E-08    2     1000039         1   # BR(~d_L -> ~G d)
DECAY   2000003     7.82106235E-01   # ~s_R
#    BR                NDA      ID1      ID2
     9.71135557E-01    2     1000022         3   # BR(~s_R -> chi^0_1 s)
     1.47372659E-02    2     1000023         3   # BR(~s_R -> chi^0_2 s)
     3.89019510E-03    2     1000025         3   # BR(~s_R -> chi^0_3 s)
     3.40836924E-03    2     1000035         3   # BR(~s_R -> chi^0_4 s)
     6.31487538E-03    2    -1000024         4   # BR(~s_R -> chi^-_1 c)
     5.13233087E-04    2    -1000037         4   # BR(~s_R -> chi^-_2 c)
     5.04312796E-07    2     1000039         3   # BR(~s_R -> ~G s)
DECAY   1000003     1.37018688E+01   # ~s_L
#    BR                NDA      ID1      ID2
     1.78208437E-02    2     1000022         3   # BR(~s_L -> chi^0_1 s)
     1.27306153E-01    2     1000023         3   # BR(~s_L -> chi^0_2 s)
     1.30900887E-03    2     1000025         3   # BR(~s_L -> chi^0_3 s)
     1.98210304E-01    2     1000035         3   # BR(~s_L -> chi^0_4 s)
     2.37370661E-01    2    -1000024         4   # BR(~s_L -> chi^-_1 c)
     4.17982993E-01    2    -1000037         4   # BR(~s_L -> chi^-_2 c)
     3.58340887E-08    2     1000039         3   # BR(~s_L -> ~G s)
DECAY   1000005     2.14942466E+01   # ~b_1
#    BR                NDA      ID1      ID2
     5.59471525E-02    2     1000022         5   # BR(~b_1 -> chi^0_1 b)
     2.29485556E-01    2     1000023         5   # BR(~b_1 -> chi^0_2 b)
     2.11579387E-01    2     1000025         5   # BR(~b_1 -> chi^0_3 b)
     2.18916286E-02    2     1000035         5   # BR(~b_1 -> chi^0_4 b)
     4.31230141E-01    2    -1000024         6   # BR(~b_1 -> chi^-_1 t)
     4.98661212E-02    2    -1000037         6   # BR(~b_1 -> chi^-_2 t)
     1.30172743E-08    2     1000039         5   # BR(~b_1 -> ~G b)
DECAY   2000005     3.52325920E+01   # ~b_2
#    BR                NDA      ID1      ID2
     2.35726775E-03    2     1000022         5   # BR(~b_2 -> chi^0_1 b)
     9.67146388E-02    2     1000023         5   # BR(~b_2 -> chi^0_2 b)
     1.53919784E-01    2     1000025         5   # BR(~b_2 -> chi^0_3 b)
     1.44682011E-01    2     1000035         5   # BR(~b_2 -> chi^0_4 b)
     2.12784476E-01    2    -1000024         6   # BR(~b_2 -> chi^-_1 t)
     3.88631197E-01    2    -1000037         6   # BR(~b_2 -> chi^-_2 t)
     9.10615076E-04    2     1000006       -24   # BR(~b_2 -> ~t_1 W^-)
     1.02695679E-08    2     1000039         5   # BR(~b_2 -> ~G b)
DECAY   2000002     3.09849556E+00   # ~u_R
#    BR                NDA      ID1      ID2
     9.83810559E-01    2     1000022         2   # BR(~u_R -> chi^0_1 u)
     1.18584028E-02    2     1000023         2   # BR(~u_R -> chi^0_2 u)
     1.11746887E-03    2     1000025         2   # BR(~u_R -> chi^0_3 u)
     3.21343978E-03    2     1000035         2   # BR(~u_R -> chi^0_4 u)
     5.43040750E-10    2     1000024         1   # BR(~u_R -> chi^+_1 d)
     5.70832318E-11    2     1000037         1   # BR(~u_R -> chi^+_2 d)
     1.29320613E-07    2     1000039         2   # BR(~u_R -> ~G u)
DECAY   1000002     1.37957499E+01   # ~u_L
#    BR                NDA      ID1      ID2
     1.15525349E-02    2     1000022         2   # BR(~u_L -> chi^0_1 u)
     1.45714115E-01    2     1000023         2   # BR(~u_L -> chi^0_2 u)
     6.33014705E-04    2     1000025         2   # BR(~u_L -> chi^0_3 u)
     1.84150212E-01    2     1000035         2   # BR(~u_L -> chi^0_4 u)
     3.04312206E-01    2     1000024         1   # BR(~u_L -> chi^+_1 d)
     3.53637882E-01    2     1000037         1   # BR(~u_L -> chi^+_2 d)
     3.53518747E-08    2     1000039         2   # BR(~u_L -> ~G u)
DECAY   2000004     3.09911432E+00   # ~c_R
#    BR                NDA      ID1      ID2
     9.83608798E-01    2     1000022         4   # BR(~c_R -> chi^0_1 c)
     1.19016305E-02    2     1000023         4   # BR(~c_R -> chi^0_2 c)
     1.16500815E-03    2     1000025         4   # BR(~c_R -> chi^0_3 c)
     3.21689103E-03    2     1000035         4   # BR(~c_R -> chi^0_4 c)
     9.73175395E-05    2     1000024         3   # BR(~c_R -> chi^+_1 s)
     1.02255271E-05    2     1000037         3   # BR(~c_R -> chi^+_2 s)
     1.29293395E-07    2     1000039         4   # BR(~c_R -> ~G c)
DECAY   1000004     1.38006658E+01   # ~c_L
#    BR                NDA      ID1      ID2
     1.15488411E-02    2     1000022         4   # BR(~c_L -> chi^0_1 c)
     1.45659936E-01    2     1000023         4   # BR(~c_L -> chi^0_2 c)
     6.43009977E-04    2     1000025         4   # BR(~c_L -> chi^0_3 c)
     1.84089360E-01    2     1000035         4   # BR(~c_L -> chi^0_4 c)
     3.04437966E-01    2     1000024         3   # BR(~c_L -> chi^+_1 s)
     3.53620851E-01    2     1000037         3   # BR(~c_L -> chi^+_2 s)
     3.53370742E-08    2     1000039         4   # BR(~c_L -> ~G c)
DECAY   1000006     3.05157793E+01   # ~t_1
#    BR                NDA      ID1      ID2
     1.20219648E-03    2     1000022         4   # BR(~t_1 -> chi^0_1 c)
     8.70702857E-02    2     1000022         6   # BR(~t_1 -> chi^0_1 t)
     1.44337639E-02    2     1000023         4   # BR(~t_1 -> chi^0_2 c)
     1.63121976E-01    2     1000023         6   # BR(~t_1 -> chi^0_2 t)
     2.34048017E-01    2     1000025         6   # BR(~t_1 -> chi^0_3 t)
     3.76821788E-02    2     1000035         6   # BR(~t_1 -> chi^0_4 t)
     3.75144527E-01    2     1000024         5   # BR(~t_1 -> chi^+_1 b)
     8.72597012E-02    2     1000037         5   # BR(~t_1 -> chi^+_2 b)
     7.91206371E-09    2     1000039         6   # BR(~t_1 -> ~G t)
#    BR                NDA      ID1      ID2       ID3
     3.73457985E-05    3     1000022        24         5   # BR(~t_1 -> chi^0_1 W^+ b)
DECAY   2000006     3.64547582E+01   # ~t_2
#    BR                NDA      ID1      ID2
     7.02350589E-03    2     1000022         6   # BR(~t_2 -> chi^0_1 t)
     1.16265148E-01    2     1000023         6   # BR(~t_2 -> chi^0_2 t)
     1.82928731E-01    2     1000025         6   # BR(~t_2 -> chi^0_3 t)
     1.97998704E-01    2     1000035         6   # BR(~t_2 -> chi^0_4 t)
     2.07898425E-01    2     1000024         5   # BR(~t_2 -> chi^+_1 b)
     2.87648215E-01    2     1000037         5   # BR(~t_2 -> chi^+_2 b)
     2.37261439E-04    2     1000006        23   # BR(~t_2 -> ~t_1 Z)
     9.55469782E-09    2     1000039         6   # BR(~t_2 -> ~G t)
DECAY   1000024     2.00471198E+00   # chi^+_1
#    BR                NDA      ID1      ID2
     5.61456939E-08    2    -2000011        12   # BR(chi^+_1 -> ~e^+_R nu_e)
     7.23857973E-03    2    -1000011        12   # BR(chi^+_1 -> ~e^+_L nu_e)
     2.40204258E-03    2    -2000013        14   # BR(chi^+_1 -> ~mu^+_R nu_mu)
     7.18732581E-03    2    -1000013        14   # BR(chi^+_1 -> ~mu^+_L nu_mu)
     8.23941076E-01    2    -1000015        16   # BR(chi^+_1 -> ~tau^+_1 nu_tau)
     8.86002982E-04    2    -2000015        16   # BR(chi^+_1 -> ~tau^+_2 nu_tau)
     1.32092462E-02    2     1000012       -11   # BR(chi^+_1 -> ~nu_e e^+)
     1.33069041E-02    2     1000014       -13   # BR(chi^+_1 -> ~nu_mu mu^+)
     5.14219499E-02    2     1000016       -15   # BR(chi^+_1 -> ~nu_tau tau^+)
     8.03760877E-02    2     1000022        24   # BR(chi^+_1 -> chi^0_1 W^+)
#    BR                NDA      ID1      ID2       ID3
     1.32735455E-08    3     1000022        -1         2   # BR(chi^+_1 -> chi^0_1 d_bar u)
     3.54368584E-08    3     1000022        -3         4   # BR(chi^+_1 -> chi^0_1 s_bar c)
     3.49962280E-06    3     1000022        -5         6   # BR(chi^+_1 -> chi^0_1 b_bar t)
     5.28478040E-12    3     1000022       -11        12   # BR(chi^+_1 -> chi^0_1 e^+ nu_e)
     2.24897524E-07    3     1000022       -13        14   # BR(chi^+_1 -> chi^0_1 mu^+ nu_mu)
     2.69552439E-05    3     1000022       -15        16   # BR(chi^+_1 -> chi^0_1 tau^+ nu_tau)
DECAY   1000037     2.88857062E+00   # chi^+_2
#    BR                NDA      ID1      ID2
     3.70760221E-09    2    -2000011        12   # BR(chi^+_2 -> ~e^+_R nu_e)
     1.12021705E-01    2    -1000011        12   # BR(chi^+_2 -> ~e^+_L nu_e)
     1.58841813E-04    2    -2000013        14   # BR(chi^+_2 -> ~mu^+_R nu_mu)
     1.12110367E-01    2    -1000013        14   # BR(chi^+_2 -> ~mu^+_L nu_mu)
     7.11610638E-02    2    -1000015        16   # BR(chi^+_2 -> ~tau^+_1 nu_tau)
     1.34334602E-01    2    -2000015        16   # BR(chi^+_2 -> ~tau^+_2 nu_tau)
     1.03696711E-01    2     1000012       -11   # BR(chi^+_2 -> ~nu_e e^+)
     1.03943319E-01    2     1000014       -13   # BR(chi^+_2 -> ~nu_mu mu^+)
     1.81003764E-01    2     1000016       -15   # BR(chi^+_2 -> ~nu_tau tau^+)
     2.99687492E-02    2     1000022        24   # BR(chi^+_2 -> chi^0_1 W^+)
     9.35318226E-02    2     1000023        24   # BR(chi^+_2 -> chi^0_2 W^+)
     5.74507757E-02    2     1000024        23   # BR(chi^+_2 -> chi^+_1 Z)
#    BR                NDA      ID1      ID2       ID3
     1.06828360E-08    3     1000024         2        -2   # BR(chi^+_2 -> chi^+_1 u u_bar)
     9.05329637E-08    3     1000024         4        -4   # BR(chi^+_2 -> chi^+_1 c c_bar)
     1.18800206E-08    3     1000024         1        -1   # BR(chi^+_2 -> chi^+_1 d d_bar)
     1.69976992E-08    3     1000024         3        -3   # BR(chi^+_2 -> chi^+_1 s s_bar)
     1.18511376E-05    3     1000024         5        -5   # BR(chi^+_2 -> chi^+_1 b b_bar)
     1.65118544E-06    3     1000024        11       -11   # BR(chi^+_2 -> chi^+_1 e^- e^+)
     1.66285588E-06    3     1000024        13       -13   # BR(chi^+_2 -> chi^+_1 mu^- mu^+)
     5.86932621E-06    3     1000024        15       -15   # BR(chi^+_2 -> chi^+_1 tau^- tau^+)
     3.97178446E-06    3     1000024        12       -12   # BR(chi^+_2 -> chi^+_1 nu_e nu_bar_e)
     1.16565667E-07    3     1000022        -1         2   # BR(chi^+_2 -> chi^0_1 d_bar u)
     1.52047137E-07    3     1000022        -3         4   # BR(chi^+_2 -> chi^0_1 s_bar c)
     8.00429638E-05    3     1000022        -5         6   # BR(chi^+_2 -> chi^0_1 b_bar t)
     1.71574703E-12    3     1000022       -11        12   # BR(chi^+_2 -> chi^0_1 e^+ nu_e)
     7.33082540E-08    3     1000022       -13        14   # BR(chi^+_2 -> chi^0_1 mu^+ nu_mu)
     1.90848669E-05    3     1000022       -15        16   # BR(chi^+_2 -> chi^0_1 tau^+ nu_tau)
     5.55613446E-09    3     1000023        -1         2   # BR(chi^+_2 -> chi^0_2 d_bar u)
     9.25227885E-09    3     1000023        -3         4   # BR(chi^+_2 -> chi^0_2 s_bar c)
     1.00185058E-06    3     1000023       -11        12   # BR(chi^+_2 -> chi^0_2 e^+ nu_e)
     1.00611270E-06    3     1000023       -13        14   # BR(chi^+_2 -> chi^0_2 mu^+ nu_mu)
     2.67759745E-06    3     1000023       -15        16   # BR(chi^+_2 -> chi^0_2 tau^+ nu_tau)
     1.63679836E-04    3     1000025        -1         2   # BR(chi^+_2 -> chi^0_3 d_bar u)
     1.63538068E-04    3     1000025        -3         4   # BR(chi^+_2 -> chi^0_3 s_bar c)
     5.45832719E-05    3     1000025       -11        12   # BR(chi^+_2 -> chi^0_3 e^+ nu_e)
     5.45765329E-05    3     1000025       -13        14   # BR(chi^+_2 -> chi^0_3 mu^+ nu_mu)
     5.25898828E-05    3     1000025       -15        16   # BR(chi^+_2 -> chi^0_3 tau^+ nu_tau)
DECAY   1000022     1.43202056E+00   # chi^0_1
#    BR                NDA      ID1      ID2
     7.73650430E-02    2     2000011       -11   # BR(chi^0_1 -> ~e^-_R e^+)
     7.73650430E-02    2    -2000011        11   # BR(chi^0_1 -> ~e^+_R e^-)
     7.80240407E-02    2     2000013       -13   # BR(chi^0_1 -> ~mu^-_R mu^+)
     7.80240407E-02    2    -2000013        13   # BR(chi^0_1 -> ~mu^+_R mu^-)
     3.44610916E-01    2     1000015       -15   # BR(chi^0_1 -> ~tau^-_1 tau^+)
     3.44610916E-01    2    -1000015        15   # BR(chi^0_1 -> ~tau^+_1 tau^-)
     6.26435289E-11    2     1000039        22   # BR(chi^0_1 -> ~G photon)
     1.89663959E-11    2     1000039        23   # BR(chi^0_1 -> ~G Z)
     4.10615371E-13    2     1000039        25   # BR(chi^0_1 -> ~G h^0)
DECAY   1000023     2.12975384E+00   # chi^0_2
#    BR                NDA      ID1      ID2
     5.35936097E-03    2     2000011       -11   # BR(chi^0_2 -> ~e^-_R e^+)
     5.35936097E-03    2    -2000011        11   # BR(chi^0_2 -> ~e^+_R e^-)
     5.07098452E-03    2     1000011       -11   # BR(chi^0_2 -> ~e^-_L e^+)
     5.07098452E-03    2    -1000011        11   # BR(chi^0_2 -> ~e^+_L e^-)
     6.47709232E-03    2     2000013       -13   # BR(chi^0_2 -> ~mu^-_R mu^+)
     6.47709232E-03    2    -2000013        13   # BR(chi^0_2 -> ~mu^+_R mu^-)
     5.06869958E-03    2     1000013       -13   # BR(chi^0_2 -> ~mu^-_L mu^+)
     5.06869958E-03    2    -1000013        13   # BR(chi^0_2 -> ~mu^+_L mu^-)
     4.15015236E-01    2     1000015       -15   # BR(chi^0_2 -> ~tau^-_1 tau^+)
     4.15015236E-01    2    -1000015        15   # BR(chi^0_2 -> ~tau^+_1 tau^-)
     4.61718970E-03    2     2000015       -15   # BR(chi^0_2 -> ~tau^-_2 tau^+)
     4.61718970E-03    2    -2000015        15   # BR(chi^0_2 -> ~tau^+_2 tau^-)
     4.59588093E-03    2     1000012       -12   # BR(chi^0_2 -> ~nu_e nu_bar_e)
     4.59588093E-03    2    -1000012        12   # BR(chi^0_2 -> ~nu^*_e nu_e)
     4.60277370E-03    2     1000014       -14   # BR(chi^0_2 -> ~nu_mu nu_bar_mu)
     4.60277370E-03    2    -1000014        14   # BR(chi^0_2 -> ~nu^*_mu nu_mu)
     6.63849700E-03    2     1000016       -16   # BR(chi^0_2 -> ~nu_tau nu_bar_tau)
     6.63849700E-03    2    -1000016        16   # BR(chi^0_2 -> ~nu^*_tau nu_tau)
     7.39590032E-03    2     1000022        23   # BR(chi^0_2 -> chi^0_1 Z)
     7.76139480E-02    2     1000022        25   # BR(chi^0_2 -> chi^0_1 h^0)
     1.46929022E-10    2     1000039        22   # BR(chi^0_2 -> ~G photon)
     3.95829324E-11    2     1000039        23   # BR(chi^0_2 -> ~G Z)
     2.54961708E-10    2     1000039        25   # BR(chi^0_2 -> ~G h^0)
     2.57951820E-07    2     1000022        22   # BR(chi^0_2 -> chi^0_1 photon)
#    BR                NDA      ID1      ID2       ID3
     8.18891288E-09    3     1000022         2        -2   # BR(chi^0_2 -> chi^0_1 u u_bar)
     8.19106641E-09    3     1000022         4        -4   # BR(chi^0_2 -> chi^0_1 c c_bar)
     7.61349209E-09    3     1000022         1        -1   # BR(chi^0_2 -> chi^0_1 d d_bar)
     3.54778775E-08    3     1000022         3        -3   # BR(chi^0_2 -> chi^0_1 s s_bar)
     6.54540140E-05    3     1000022         5        -5   # BR(chi^0_2 -> chi^0_1 b b_bar)
     1.87567776E-06    3     1000022        11       -11   # BR(chi^0_2 -> chi^0_1 e^- e^+)
     2.06328321E-06    3     1000022        13       -13   # BR(chi^0_2 -> chi^0_1 mu^- mu^+)
     2.90123693E-05    3     1000022        15       -15   # BR(chi^0_2 -> chi^0_1 tau^- tau^+)
     3.69947132E-13    3     1000024         1        -2   # BR(chi^0_2 -> chi^+_1 d u_bar)
     3.69947132E-13    3    -1000024        -1         2   # BR(chi^0_2 -> chi^-_1 d_bar u)
     1.12131220E-13    3     1000024        11       -12   # BR(chi^0_2 -> chi^+_1 e^- nu_bar_e)
     1.12131220E-13    3    -1000024       -11        12   # BR(chi^0_2 -> chi^-_1 e^+ nu_e)
     1.06176717E-13    3     1000024        13       -14   # BR(chi^0_2 -> chi^+_1 mu^- nu_bar_mu)
     1.06176717E-13    3    -1000024       -13        14   # BR(chi^0_2 -> chi^-_1 mu^+ nu_mu)
DECAY   1000025     2.36208543E+00   # chi^0_3
#    BR                NDA      ID1      ID2
     5.65792663E-04    2     2000011       -11   # BR(chi^0_3 -> ~e^-_R e^+)
     5.65792663E-04    2    -2000011        11   # BR(chi^0_3 -> ~e^+_R e^-)
     3.22790748E-05    2     1000011       -11   # BR(chi^0_3 -> ~e^-_L e^+)
     3.22790748E-05    2    -1000011        11   # BR(chi^0_3 -> ~e^+_L e^-)
     1.61669204E-03    2     2000013       -13   # BR(chi^0_3 -> ~mu^-_R mu^+)
     1.61669204E-03    2    -2000013        13   # BR(chi^0_3 -> ~mu^+_R mu^-)
     1.71591277E-04    2     1000013       -13   # BR(chi^0_3 -> ~mu^-_L mu^+)
     1.71591277E-04    2    -1000013        13   # BR(chi^0_3 -> ~mu^+_L mu^-)
     4.04896790E-01    2     1000015       -15   # BR(chi^0_3 -> ~tau^-_1 tau^+)
     4.04896790E-01    2    -1000015        15   # BR(chi^0_3 -> ~tau^+_1 tau^-)
     3.05544002E-02    2     2000015       -15   # BR(chi^0_3 -> ~tau^-_2 tau^+)
     3.05544002E-02    2    -2000015        15   # BR(chi^0_3 -> ~tau^+_2 tau^-)
     2.25572286E-04    2     1000012       -12   # BR(chi^0_3 -> ~nu_e nu_bar_e)
     2.25572286E-04    2    -1000012        12   # BR(chi^0_3 -> ~nu^*_e nu_e)
     2.25737024E-04    2     1000014       -14   # BR(chi^0_3 -> ~nu_mu nu_bar_mu)
     2.25737024E-04    2    -1000014        14   # BR(chi^0_3 -> ~nu^*_mu nu_mu)
     2.72104503E-04    2     1000016       -16   # BR(chi^0_3 -> ~nu_tau nu_bar_tau)
     2.72104503E-04    2    -1000016        16   # BR(chi^0_3 -> ~nu^*_tau nu_tau)
     1.14106732E-01    2     1000022        23   # BR(chi^0_3 -> chi^0_1 Z)
     8.34322724E-03    2     1000022        25   # BR(chi^0_3 -> chi^0_1 h^0)
     6.94593369E-14    2     1000039        22   # BR(chi^0_3 -> ~G photon)
     9.96132004E-11    2     1000039        23   # BR(chi^0_3 -> ~G Z)
     5.85484686E-10    2     1000039        25   # BR(chi^0_3 -> ~G h^0)
     4.46040971E-08    2     1000022        22   # BR(chi^0_3 -> chi^0_1 photon)
     1.23418012E-08    2     1000023        22   # BR(chi^0_3 -> chi^0_2 photon)
#    BR                NDA      ID1      ID2       ID3
     2.29608235E-10    3     1000022         2        -2   # BR(chi^0_3 -> chi^0_1 u u_bar)
     2.45851771E-10    3     1000022         4        -4   # BR(chi^0_3 -> chi^0_1 c c_bar)
     2.54888441E-10    3     1000022         1        -1   # BR(chi^0_3 -> chi^0_1 d d_bar)
     8.21576195E-08    3     1000022         3        -3   # BR(chi^0_3 -> chi^0_1 s s_bar)
     1.92281730E-04    3     1000022         5        -5   # BR(chi^0_3 -> chi^0_1 b b_bar)
     1.21150754E-07    3     1000022        11       -11   # BR(chi^0_3 -> chi^0_1 e^- e^+)
     4.42541183E-07    3     1000022        13       -13   # BR(chi^0_3 -> chi^0_1 mu^- mu^+)
     5.74395826E-05    3     1000022        15       -15   # BR(chi^0_3 -> chi^0_1 tau^- tau^+)
     5.31772380E-06    3     1000023         2        -2   # BR(chi^0_3 -> chi^0_2 u u_bar)
     5.29281698E-06    3     1000023         4        -4   # BR(chi^0_3 -> chi^0_2 c c_bar)
     6.89099680E-06    3     1000023         1        -1   # BR(chi^0_3 -> chi^0_2 d d_bar)
     6.89060324E-06    3     1000023         3        -3   # BR(chi^0_3 -> chi^0_2 s s_bar)
     6.27389960E-06    3     1000023         5        -5   # BR(chi^0_3 -> chi^0_2 b b_bar)
     1.58671554E-06    3     1000023        11       -11   # BR(chi^0_3 -> chi^0_2 e^- e^+)
     1.58561178E-06    3     1000023        13       -13   # BR(chi^0_3 -> chi^0_2 mu^- mu^+)
     1.24772556E-06    3     1000023        15       -15   # BR(chi^0_3 -> chi^0_2 tau^- tau^+)
     9.38313689E-06    3     1000023        12       -12   # BR(chi^0_3 -> chi^0_2 nu_e nu_bar_e)
     2.23058815E-05    3     1000024         1        -2   # BR(chi^0_3 -> chi^+_1 d u_bar)
     2.23058815E-05    3    -1000024        -1         2   # BR(chi^0_3 -> chi^-_1 d_bar u)
     2.22311266E-05    3     1000024         3        -4   # BR(chi^0_3 -> chi^+_1 s c_bar)
     2.22311266E-05    3    -1000024        -3         4   # BR(chi^0_3 -> chi^-_1 s_bar c)
     7.40409155E-06    3     1000024        11       -12   # BR(chi^0_3 -> chi^+_1 e^- nu_bar_e)
     7.40409155E-06    3    -1000024       -11        12   # BR(chi^0_3 -> chi^-_1 e^+ nu_e)
     7.40398652E-06    3     1000024        13       -14   # BR(chi^0_3 -> chi^+_1 mu^- nu_bar_mu)
     7.40398652E-06    3    -1000024       -13        14   # BR(chi^0_3 -> chi^-_1 mu^+ nu_mu)
     7.26872318E-06    3     1000024        15       -16   # BR(chi^0_3 -> chi^+_1 tau^- nu_bar_tau)
     7.26872318E-06    3    -1000024       -15        16   # BR(chi^0_3 -> chi^-_1 tau^+ nu_tau)
DECAY   1000035     3.03538827E+00   # chi^0_4
#    BR                NDA      ID1      ID2
     1.72026729E-03    2     2000011       -11   # BR(chi^0_4 -> ~e^-_R e^+)
     1.72026729E-03    2    -2000011        11   # BR(chi^0_4 -> ~e^+_R e^-)
     4.44030795E-02    2     1000011       -11   # BR(chi^0_4 -> ~e^-_L e^+)
     4.44030795E-02    2    -1000011        11   # BR(chi^0_4 -> ~e^+_L e^-)
     1.77743818E-03    2     2000013       -13   # BR(chi^0_4 -> ~mu^-_R mu^+)
     1.77743818E-03    2    -2000013        13   # BR(chi^0_4 -> ~mu^+_R mu^-)
     4.45468718E-02    2     1000013       -13   # BR(chi^0_4 -> ~mu^-_L mu^+)
     4.45468718E-02    2    -1000013        13   # BR(chi^0_4 -> ~mu^+_L mu^-)
     4.41213055E-02    2     1000015       -15   # BR(chi^0_4 -> ~tau^-_1 tau^+)
     4.41213055E-02    2    -1000015        15   # BR(chi^0_4 -> ~tau^+_1 tau^-)
     7.75416224E-02    2     2000015       -15   # BR(chi^0_4 -> ~tau^-_2 tau^+)
     7.75416224E-02    2    -2000015        15   # BR(chi^0_4 -> ~tau^+_2 tau^-)
     5.82940856E-02    2     1000012       -12   # BR(chi^0_4 -> ~nu_e nu_bar_e)
     5.82940856E-02    2    -1000012        12   # BR(chi^0_4 -> ~nu^*_e nu_e)
     5.83163665E-02    2     1000014       -14   # BR(chi^0_4 -> ~nu_mu nu_bar_mu)
     5.83163665E-02    2    -1000014        14   # BR(chi^0_4 -> ~nu^*_mu nu_mu)
     6.44475721E-02    2     1000016       -16   # BR(chi^0_4 -> ~nu_tau nu_bar_tau)
     6.44475721E-02    2    -1000016        16   # BR(chi^0_4 -> ~nu^*_tau nu_tau)
     8.75275082E-02    2     1000024       -24   # BR(chi^0_4 -> chi^+_1 W^-)
     8.75275082E-02    2    -1000024        24   # BR(chi^0_4 -> chi^-_1 W^+)
     4.20928979E-03    2     1000022        23   # BR(chi^0_4 -> chi^0_1 Z)
     1.99160224E-04    2     1000023        23   # BR(chi^0_4 -> chi^0_2 Z)
     2.96815826E-02    2     1000022        25   # BR(chi^0_4 -> chi^0_1 h^0)
     1.90488770E-10    2     1000039        22   # BR(chi^0_4 -> ~G photon)
     1.58817014E-09    2     1000039        23   # BR(chi^0_4 -> ~G Z)
     3.93810716E-10    2     1000039        25   # BR(chi^0_4 -> ~G h^0)
     4.55899550E-07    2     1000022        22   # BR(chi^0_4 -> chi^0_1 photon)
     2.55572683E-06    2     1000023        22   # BR(chi^0_4 -> chi^0_2 photon)
     7.34520942E-07    2     1000025        22   # BR(chi^0_4 -> chi^0_3 photon)
#    BR                NDA      ID1      ID2       ID3
     4.62684098E-08    3     1000022         2        -2   # BR(chi^0_4 -> chi^0_1 u u_bar)
     4.62533378E-08    3     1000022         4        -4   # BR(chi^0_4 -> chi^0_1 c c_bar)
     6.85967676E-08    3     1000022         1        -1   # BR(chi^0_4 -> chi^0_1 d d_bar)
     1.34506586E-07    3     1000022         3        -3   # BR(chi^0_4 -> chi^0_1 s s_bar)
     1.54696254E-04    3     1000022         5        -5   # BR(chi^0_4 -> chi^0_1 b b_bar)
     1.46446353E-06    3     1000022        11       -11   # BR(chi^0_4 -> chi^0_1 e^- e^+)
     1.55218403E-06    3     1000022        13       -13   # BR(chi^0_4 -> chi^0_1 mu^- mu^+)
     3.56990901E-05    3     1000022        15       -15   # BR(chi^0_4 -> chi^0_1 tau^- tau^+)
     8.10621562E-09    3     1000023         2        -2   # BR(chi^0_4 -> chi^0_2 u u_bar)
     3.95737924E-08    3     1000023         4        -4   # BR(chi^0_4 -> chi^0_2 c c_bar)
     7.43431086E-09    3     1000023         1        -1   # BR(chi^0_4 -> chi^0_2 d d_bar)
     8.53194134E-09    3     1000023         3        -3   # BR(chi^0_4 -> chi^0_2 s s_bar)
     2.49199560E-06    3     1000023         5        -5   # BR(chi^0_4 -> chi^0_2 b b_bar)
     1.35410939E-06    3     1000023        11       -11   # BR(chi^0_4 -> chi^0_2 e^- e^+)
     1.36183960E-06    3     1000023        13       -13   # BR(chi^0_4 -> chi^0_2 mu^- mu^+)
     5.11463512E-06    3     1000023        15       -15   # BR(chi^0_4 -> chi^0_2 tau^- tau^+)
     2.57119019E-06    3     1000023        12       -12   # BR(chi^0_4 -> chi^0_2 nu_e nu_bar_e)
     3.55216797E-05    3     1000025         2        -2   # BR(chi^0_4 -> chi^0_3 u u_bar)
     3.54699019E-05    3     1000025         4        -4   # BR(chi^0_4 -> chi^0_3 c c_bar)
     4.60917139E-05    3     1000025         1        -1   # BR(chi^0_4 -> chi^0_3 d d_bar)
     4.60906842E-05    3     1000025         3        -3   # BR(chi^0_4 -> chi^0_3 s s_bar)
     4.39247599E-05    3     1000025         5        -5   # BR(chi^0_4 -> chi^0_3 b b_bar)
     1.05197187E-05    3     1000025        11       -11   # BR(chi^0_4 -> chi^0_3 e^- e^+)
     1.05145675E-05    3     1000025        13       -13   # BR(chi^0_4 -> chi^0_3 mu^- mu^+)
     9.07364968E-06    3     1000025        15       -15   # BR(chi^0_4 -> chi^0_3 tau^- tau^+)
     6.37256257E-05    3     1000025        12       -12   # BR(chi^0_4 -> chi^0_3 nu_e nu_bar_e)
     5.45471860E-09    3     1000024         1        -2   # BR(chi^0_4 -> chi^+_1 d u_bar)
     5.45471860E-09    3    -1000024        -1         2   # BR(chi^0_4 -> chi^-_1 d_bar u)
     8.37776311E-09    3     1000024         3        -4   # BR(chi^0_4 -> chi^+_1 s c_bar)
     8.37776311E-09    3    -1000024        -3         4   # BR(chi^0_4 -> chi^-_1 s_bar c)
     9.01537127E-07    3     1000024        11       -12   # BR(chi^0_4 -> chi^+_1 e^- nu_bar_e)
     9.01537127E-07    3    -1000024       -11        12   # BR(chi^0_4 -> chi^-_1 e^+ nu_e)
     9.02201599E-07    3     1000024        13       -14   # BR(chi^0_4 -> chi^+_1 mu^- nu_bar_mu)
     9.02201599E-07    3    -1000024       -13        14   # BR(chi^0_4 -> chi^-_1 mu^+ nu_mu)
     1.37609551E-06    3     1000024        15       -16   # BR(chi^0_4 -> chi^+_1 tau^- nu_bar_tau)
     1.37609551E-06    3    -1000024       -15        16   # BR(chi^0_4 -> chi^-_1 tau^+ nu_tau)
DECAY   1000021     7.30337196E+00   # ~g
#    BR                NDA      ID1      ID2
     3.75910869E-02    2     2000002        -2   # BR(~g -> ~u_R u_bar)
     3.75910869E-02    2    -2000002         2   # BR(~g -> ~u^*_R u)
     7.41486664E-03    2     1000002        -2   # BR(~g -> ~u_L u_bar)
     7.41486664E-03    2    -1000002         2   # BR(~g -> ~u^*_L u)
     3.75877818E-02    2     2000004        -4   # BR(~g -> ~c_R c_bar)
     3.75877818E-02    2    -2000004         4   # BR(~g -> ~c^*_R c)
     7.41875809E-03    2     1000004        -4   # BR(~g -> ~c_L c_bar)
     7.41875809E-03    2    -1000004         4   # BR(~g -> ~c^*_L c)
     4.39149784E-02    2     1000006        -4   # BR(~g -> ~t_1 c_bar)
     4.39149784E-02    2    -1000006         4   # BR(~g -> ~t^*_1 c)
     5.75304739E-02    2     1000006        -6   # BR(~g -> ~t_1 t_bar)
     5.75304739E-02    2    -1000006         6   # BR(~g -> ~t^*_1 t)
     4.08462181E-02    2     2000001        -1   # BR(~g -> ~d_R d_bar)
     4.08462181E-02    2    -2000001         1   # BR(~g -> ~d^*_R d)
     6.76407061E-03    2     1000001        -1   # BR(~g -> ~d_L d_bar)
     6.76407061E-03    2    -1000001         1   # BR(~g -> ~d^*_L d)
     4.08748261E-02    2     2000003        -3   # BR(~g -> ~s_R s_bar)
     4.08748261E-02    2    -2000003         3   # BR(~g -> ~s^*_R s)
     6.76892883E-03    2     1000003        -3   # BR(~g -> ~s_L s_bar)
     6.76892883E-03    2    -1000003         3   # BR(~g -> ~s^*_L s)
     1.34921948E-01    2     1000005        -5   # BR(~g -> ~b_1 b_bar)
     1.34921948E-01    2    -1000005         5   # BR(~g -> ~b^*_1 b)
     6.21927159E-02    2     2000005        -5   # BR(~g -> ~b_2 b_bar)
     6.21927159E-02    2    -2000005         5   # BR(~g -> ~b^*_2 b)
     3.06020655E-07    2     1000022        21   # BR(~g -> chi^0_1 g)
     1.25709325E-04    2     1000023        21   # BR(~g -> chi^0_2 g)
     2.40009307E-04    2     1000025        21   # BR(~g -> chi^0_3 g)
     7.20270049E-05    2     1000035        21   # BR(~g -> chi^0_4 g)
#    BR                NDA      ID1      ID2       ID3
     2.26692368E-04    3     1000022         6        -6   # BR(~g -> chi^0_1 t t_bar)
     3.41357147E-03    3     1000023         6        -6   # BR(~g -> chi^0_2 t t_bar)
     5.48332165E-03    3     1000025         6        -6   # BR(~g -> chi^0_3 t t_bar)
     7.49505982E-03    3     1000035         6        -6   # BR(~g -> chi^0_4 t t_bar)
     3.37139348E-03    3     1000024         5        -6   # BR(~g -> chi^+_1 b t_bar)
     3.37139348E-03    3    -1000024        -5         6   # BR(~g -> chi^-_1 b_bar t)
     4.27360500E-03    3     1000037         5        -6   # BR(~g -> chi^+_2 b t_bar)
     4.27360500E-03    3    -1000037        -5         6   # BR(~g -> chi^-_2 b_bar t)
DECAY        25     2.90331474E-03   # h^0
#    BR                NDA      ID1      ID2
     1.18701039E-08    2          11       -11   # BR(h^0 -> e^- e^+)
     5.07451625E-04    2          13       -13   # BR(h^0 -> mu^- mu^+)
     1.41251003E-01    2          15       -15   # BR(h^0 -> tau^- tau^+)
     6.97171860E-07    2           1        -1   # BR(h^0 -> d d_bar)
     3.07445933E-04    2           3        -3   # BR(h^0 -> s s_bar)
     6.64554527E-01    2           5        -5   # BR(h^0 -> b b_bar)
     2.28211686E-07    2           2        -2   # BR(h^0 -> u u_bar)
     4.08895195E-02    2           4        -4   # BR(h^0 -> c c_bar)
     6.09099521E-02    2          21        21   # BR(h^0 -> g g)
     2.90680954E-03    2          22        22   # BR(h^0 -> photon photon)
# writing decays into V V* as 3-body decays
#    BR                NDA      ID1      ID2       ID3
     4.11547334E-03    3          24        11        12   # BR(h^0 -> W^+ e^- nu_e)
     4.11547334E-03    3          24        13        14   # BR(h^0 -> W^+ mu^- nu_mu)
     4.11547334E-03    3          24        15        16   # BR(h^0 -> W^+ tau^- nu_tau)
     1.44041567E-02    3          24         1        -2   # BR(h^0 -> W^+ d u_bar)
     1.44041567E-02    3          24         3        -4   # BR(h^0 -> W^+ s c_bar)
     4.11547334E-03    3         -24       -11       -12   # BR(h^0 -> W^- e^+ nu_bar_e)
     4.11547334E-03    3         -24       -13       -14   # BR(h^0 -> W^- mu^+ nu_bar_mu)
     4.11547334E-03    3         -24       -15       -16   # BR(h^0 -> W^- tau^+ nu_bar_tau)
     1.44041567E-02    3         -24        -1         2   # BR(h^0 -> W^- d_bar u)
     1.44041567E-02    3         -24        -3         4   # BR(h^0 -> W^- s_bar c)
     2.22701084E-04    3          23        11       -11   # BR(h^0 -> Z e^- e^+)
     2.22701084E-04    3          23        13       -13   # BR(h^0 -> Z mu^- mu^+)
     1.90886643E-04    3          23        15       -15   # BR(h^0 -> Z tau^- tau^+)
     1.27257762E-03    3          23        12       -12   # BR(h^0 -> Z nu_e nu_bar_e)
     8.90804334E-04    3          23         1        -1   # BR(h^0 -> Z u u_bar)
     8.90804334E-04    3          23         3        -3   # BR(h^0 -> Z c c_bar)
     8.90804334E-04    3          23         5        -5   # BR(h^0 -> Z t t_bar)
     8.90804334E-04    3          23         2        -2   # BR(h^0 -> Z u u_bar)
     8.90804334E-04    3          23         4        -4   # BR(h^0 -> Z c c_bar)
DECAY        35     1.48075731E+01   # H^0
#    BR                NDA      ID1      ID2
     1.58000427E-08    2          11       -11   # BR(H^0 -> e^- e^+)
     6.75551876E-04    2          13       -13   # BR(H^0 -> mu^- mu^+)
     1.95555341E-01    2          15       -15   # BR(H^0 -> tau^- tau^+)
     7.80860812E-07    2           1        -1   # BR(H^0 -> d d_bar)
     3.44359655E-04    2           3        -3   # BR(H^0 -> s s_bar)
     8.03176553E-01    2           5        -5   # BR(H^0 -> b b_bar)
     5.08414413E-14    2           2        -2   # BR(H^0 -> u u_bar)
     9.11132985E-09    2           4        -4   # BR(H^0 -> c c_bar)
     2.41759411E-05    2     1000015  -1000015   # BR(H^0 -> ~tau^-_1 ~tau^+_1)
     3.91815632E-06    2          23        23   # BR(H^0 -> Z Z)
     8.17153019E-06    2          24       -24   # BR(H^0 -> W^+ W^-)
     2.56097204E-05    2          25        25   # BR(H^0 -> h^0 h^0)
     1.85251485E-04    2          21        21   # BR(H^0 -> g g)
     2.62301251E-07    2          22        22   # BR(H^0 -> photon photon)
DECAY        36     1.48067084E+01   # A^0
#    BR                NDA      ID1      ID2
     1.58003703E-08    2          11       -11   # BR(A^0 -> e^- e^+)
     6.75566135E-04    2          13       -13   # BR(A^0 -> mu^- mu^+)
     1.95580095E-01    2          15       -15   # BR(A^0 -> tau^- tau^+)
     7.80875765E-07    2           1        -1   # BR(A^0 -> d d_bar)
     3.44366221E-04    2           3        -3   # BR(A^0 -> s s_bar)
     8.03349699E-01    2           5        -5   # BR(A^0 -> b b_bar)
     3.51956661E-14    2           2        -2   # BR(A^0 -> u u_bar)
     6.30749104E-09    2           4        -4   # BR(A^0 -> c c_bar)
     5.76615148E-06    2          25        23   # BR(A^0 -> h^0 Z)
     4.36435790E-05    2          21        21   # BR(A^0 -> g g)
     6.02744322E-08    2          22        22   # BR(A^0 -> photon photon)
DECAY        37     9.39178035E+00   # H^+
#    BR                NDA      ID1      ID2
     2.57253440E-08    2         -11        12   # BR(H^+ -> e^+ nu_e)
     1.09992178E-03    2         -13        12   # BR(H^+ -> mu^+ nu_e)
     3.18434427E-01    2         -15        12   # BR(H^+ -> tau^+ nu_e)
     1.12687641E-06    2          -1         2   # BR(H^+ -> d_bar u)
     4.96948847E-04    2          -3         4   # BR(H^+ -> s_bar c)
     6.79956526E-01    2          -5         6   # BR(H^+ -> b_bar t)
     1.10234694E-05    2          25        24   # BR(H^+ -> h^0 W^+)
DECAY         6     2.43000000E+00   # top
#    BR                NDA      ID1      ID2
     1.00000000E+00    2           5        24   # BR(t -> b W)
Block HiggsBoundsInputHiggsCouplingsFermions
# ScalarNormEffCoupSq PseudoSNormEffCoupSq NP IP1 IP2 IP2
    1.44436706E+00    0.00000000E+00        3  25   5   5  # h0-b-b eff. coupling^2, normalised to SM
    3.24855563E+03    0.00000000E+00        3  35   5   5  # H0-b-b eff. coupling^2, normalised to SM
    0.00000000E+00    3.24900000E+03        3  36   5   5  # A0-b-b eff. coupling^2, normalised to SM
#
    9.99863230E-01    0.00000000E+00        3  25   6   6  # h0-t-t eff. coupling^2, normalised to SM
    4.44557422E-04    0.00000000E+00        3  35   6   6  # H0-t-t eff. coupling^2, normalised to SM
    0.00000000E+00    3.07787011E-04        3  36   6   6  # A0-t-t eff. coupling^2, normalised to SM
#
    1.44436706E+00    0.00000000E+00        3  25  15  15  # h0-tau-tau eff. coupling^2, normalised to SM
    3.24855563E+03    0.00000000E+00        3  35  15  15  # H0-tau-tau eff. coupling^2, normalised to SM
    0.00000000E+00    3.24900000E+03        3  36  15  15  # A0-tau-tau eff. coupling^2, normalised to SM
#
Block HiggsBoundsInputHiggsCouplingsBosons
    9.99987463E-01        3  25  24  24  # h0-W-W eff. coupling^2, normalised to SM
    1.25371281E-05        3  35  24  24  # H0-W-W eff. coupling^2, normalised to SM
    0.00000000E+00        3  36  24  24  # A0-W-W eff. coupling^2, normalised to SM
#
    9.99987463E-01        3  25  23  23  # h0-Z-Z eff. coupling^2, normalised to SM
    1.25371281E-05        3  35  23  23  # H0-Z-Z eff. coupling^2, normalised to SM
    0.00000000E+00        3  36  23  23  # A0-Z-Z eff. coupling^2, normalised to SM
#
    1.15765448E+00        3  25  21  21  # h0-g-g eff. coupling^2, normalised to SM
    5.40980824E-01        3  35  21  21  # H0-g-g eff. coupling^2, normalised to SM
    2.88981046E-01        3  36  21  21  # A0-g-g eff. coupling^2, normalised to SM
#
    0.00000000E+00        3  25  25  23  # h0-h0-Z eff. coupling^2, normalised to SM
    0.00000000E+00        3  35  25  23  # H0-h0-Z eff. coupling^2, normalised to SM
    1.25371281E-05        3  36  25  23  # A0-h0-Z eff. coupling^2, normalised to SM
    0.00000000E+00        3  35  35  23  # H0-H0-Z eff. coupling^2, normalised to SM
    9.99987463E-01        3  36  35  23  # A0-H0-Z eff. coupling^2, normalised to SM
    0.00000000E+00        3  36  36  23  # A0-A0-Z eff. coupling^2, normalised to SM
#
    0.00000000E+00        4  25  21  21  23  # h0-g-g-Z eff. coupling^2, normalised to SM
    0.00000000E+00        4  35  21  21  23  # H0-g-g-Z eff. coupling^2, normalised to SM
    0.00000000E+00        4  36  21  21  23  # A0-g-g-Z eff. coupling^2, normalised to SM
Block SPhenoLowEnergy  # low energy observables
    1    3.40985965E-04   # BR(b -> s gamma)
    2    1.58833168E-06   # BR(b -> s mu+ mu-)
    3    3.53316472E-05   # BR(b -> s nu nu)
    4    5.80936344E-10   # BR(Bd -> mu+ mu-)
    5    3.91217865E-08   # BR(Bs -> mu+ mu-)
    6    2.80520980E-05   # BR(B_u -> tau nu)
    7    2.53650916E-01   # BR(B_u -> tau nu)/BR(B_u -> tau nu)_SM
    8    2.70219454E-01   # |Delta(M_Bd)| [ps^-1] 
    9    1.97105425E+01   # |Delta(M_Bs)| [ps^-1] 
   20    1.29704598E-13   # Delta(g-2)_electron/2
   21    2.77059490E-09   # Delta(g-2)_muon/2
   22    3.79454325E-07   # Delta(g-2)_tau/2
   23    0.00000000E+00   # electric dipole moment of the electron
   24    0.00000000E+00   # electric dipole moment of the muon
   25    0.00000000E+00   # electric dipole moment of the tau
   26    0.00000000E+00   # Br(mu -> e gamma)
   27    0.00000000E+00   # Br(tau -> e gamma)
   28    0.00000000E+00   # Br(tau -> mu gamma)
   29    0.00000000E+00   # Br(mu -> 3 e)
   30    0.00000000E+00   # Br(tau -> 3 e)
   31    0.00000000E+00   # Br(tau -> 3 mu)
   39    2.63228637E-03   # Delta(rho_parameter)
   40    0.00000000E+00   # BR(Z -> e mu)
   41    0.00000000E+00   # BR(Z -> e tau)
   42    0.00000000E+00   # BR(Z -> mu tau)
Block FWCOEF Q=  9.11876000E+01  # Wilson coefficients at scale Q
#    id        order  M        value         comment
Block FWCOEF Q=  1.60000000E+02  # Wilson coefficients at scale Q
#    id        order  M        value         comment
     0305 4422   00   0    -1.87781854E-01   # C7
     0305 4422   00   1    -3.76549175E-02   # C7
     0305 4322   00   1    -7.16405026E-04   # C7'
     0305 6421   00   0    -9.48971918E-02   # C8
     0305 6421   00   1    -6.44424329E-02   # C8
     0305 6321   00   1    -1.26822990E-03   # C8'
 03051111 4133   00   0    -7.08175214E-01   # C9 e+e-
 03051111 4133   00   1     2.57770854E-03   # C9 e+e-
 03051111 4233   00   1    -4.98654003E-04   # C9' e+e-
 03051111 4137   00   0    -3.97825780E+00   # C10 e+e-
 03051111 4137   00   1     9.93669446E-03   # C10 e+e-
 03051111 4237   00   1     1.08341495E-02   # C10' e+e-
 03051313 4133   00   0    -7.08175214E-01   # C9 mu+mu-
 03051313 4133   00   1     2.57643658E-03   # C9 mu+mu-
 03051313 4233   00   1    -5.00198194E-04   # C9' mu+mu-
 03051313 4137   00   0    -3.97825780E+00   # C10 mu+mu-
 03051313 4137   00   1     9.93542147E-03   # C10 mu+mu-
 03051313 4237   00   1     1.08356963E-02   # C10' mu+mu-
 03051212 4237   00   0     1.49049423E+00   # C11 nu_1 nu_1
 03051212 4237   00   1    -2.37590199E-03   # C11 nu_1 nu_1
 03051212 4137   00   1    -2.58463587E-03   # C11' nu_1 nu_1
 03051414 4237   00   0     1.49049423E+00   # C11 nu_2 nu_2
 03051414 4237   00   1    -2.37589990E-03   # C11 nu_2 nu_2
 03051414 4137   00   1    -2.58426728E-03   # C11' nu_2 nu_2
 03051616 4237   00   0     1.49049423E+00   # C11 nu_3 nu_3
 03051616 4237   00   1    -2.36411280E-03   # C11 nu_3 nu_3
 03051616 4137   00   1    -2.48037728E-03   # C11' nu_3 nu_3
