#
#                              ======================
#                              | THE SUSYHIT OUTPUT |
#                              ======================
#
#
#              ------------------------------------------------------
#              |     This is the output of the SUSY-HIT package     |
#              |  created by A.Djouadi, M.Muehlleitner and M.Spira. |
#              |  In case of problems with SUSY-HIT email to        |
#              |           margarete.muehlleitner@cern.ch           |
#              |           michael.spira@psi.ch                     |
#              |           abdelhak.djouadi@cern.ch                 |
#              ------------------------------------------------------
#
#              ------------------------------------------------------
#              |  SUSY Les Houches Accord - MSSM Spectrum + Decays  |
#              |              based on the decay programs           |
#              |                                                    |
#              |                     SDECAY 1.3b                    |
#              |                                                    |
#              |  Authors: M.Muhlleitner, A.Djouadi and Y.Mambrini  |
#              |  Ref.:    Comput.Phys.Commun.168(2005)46           |
#              |           [hep-ph/0311167]                         |
#              |                                                    |
#              |                     HDECAY 3.4                     |
#              |                                                    |
#              |  By: A.Djouadi,J.Kalinowski,M.Muhlleitner,M.Spira  |
#              |  Ref.:    Comput.Phys.Commun.108(1998)56           |
#              |           [hep-ph/9704448]                         |
#              |                                                    |
#              |                                                    |
#              |  If not stated otherwise all DRbar couplings and   |
#              |  soft SUSY breaking masses are given at the scale  |
#              |  Q=  0.91187600E+02
#              |                                                    |
#              ------------------------------------------------------
#
#
BLOCK DCINFO  # Decay Program information
     1   SDECAY/HDECAY # decay calculator
     2   1.3b  /3.4    # version number
#
BLOCK SPINFO  # Spectrum calculator information
     1   SuSpect     # RGE +Spectrum calculator            
     2   2.41         # version number                     
#
BLOCK MODSEL  # Model selection
     1     0   # #general MSSM low scale                           
#
BLOCK SMINPUTS  # Standard Model inputs
         1     1.27934000E+02   # alpha_em^-1(M_Z)^MSbar
         2     1.16639000E-05   # G_F [GeV^-2]
         3     1.17200000E-01   # alpha_S(M_Z)^MSbar
         4     9.11870000E+01   # M_Z pole mass
         5     4.25000000E+00   # mb(mb)^MSbar
         6     1.72500000E+02   # mt pole mass
         7     1.77700000E+00   # mtau pole mass
#
BLOCK MINPAR  # Input parameters - minimal models
#
BLOCK EXTPAR  # Input parameters - non-minimal models
         0     9.11876000E+01   # EWSB                
         1     1.60000000E+03   # M_1                 
         2     1.00000000E+05   # M_2                 
         3     1.00000000E+05   # M_3                 
        11     0.00000000E+00   # A_t                 
        12     0.00000000E+00   # A_b                 
        13     0.00000000E+00   # A_tau               
        14     0.00000000E+00   # A_u                 
        15     0.00000000E+00   # A_d                 
        16     0.00000000E+00   # A_e                 
        23     3.50000000E+03   # mu(EWSB)            
        25     1.50000000E+00   # tanbeta(in)         
        26     2.00000000E+03   # MA_pole             
        31     1.00000000E+05   # M_eL                
        32     1.00000000E+05   # M_muL               
        33     1.00000000E+05   # M_tauL              
        34     1.00000000E+05   # M_eR                
        35     1.00000000E+05   # M_muR               
        36     1.00000000E+05   # M_tauR              
        41     1.80000000E+03   # M_q1L               
        42     1.80000000E+03   # M_q2L               
        43     1.80000000E+03   # M_q3L               
        44     1.00000000E+05   # M_uR                
        45     1.00000000E+05   # M_cR                
        46     1.00000000E+05   # M_tR                
        47     1.80000000E+03   # M_dR                
        48     1.80000000E+03   # M_sR                
        49     1.80000000E+03   # M_bR                
#
BLOCK MASS  # Mass Spectrum
# PDG code           mass       particle
        24     8.05838288E+01   # W+
        25     1.25000000E+02   # h
        35     2.00403661E+03   # H
        36     2.00000000E+03   # A
        37     2.02369025E+03   # H+
         5     4.87877839E+00   # b-quark pole mass calculated from mb(mb)_Msbar
   1000001     1.80036863E+03   # ~d_L
   2000001     1.80007108E+03   # ~d_R
   1000002     1.79970239E+03   # ~u_L
   2000002     9.99999974E+04   # ~u_R
   1000003     1.80036863E+03   # ~s_L
   2000003     1.80007108E+03   # ~s_R
   1000004     1.79970239E+03   # ~c_L
   2000004     9.99999974E+04   # ~c_R
   1000005     1.79644411E+03   # ~b_1
   2000005     1.80399142E+03   # ~b_2
   1000006     1.80573308E+03   # ~t_1
   2000006     1.00000106E+05   # ~t_2
   1000011     1.00000004E+05   # ~e_L
   2000011     1.00000004E+05   # ~e_R
   1000012     9.99999921E+04   # ~nu_eL
   1000013     1.00000004E+05   # ~mu_L
   2000013     1.00000004E+05   # ~mu_R
   1000014     9.99999921E+04   # ~nu_muL
   1000015     9.99999574E+04   # ~tau_1
   2000015     1.00000051E+05   # ~tau_2
   1000016     9.99999921E+04   # ~nu_tauL
   1000021     1.00000000E+05   # ~g
   1000022     1.59900538E+03   # ~chi_10
   1000023    -3.50001737E+03   # ~chi_20
   1000025     3.50094753E+03   # ~chi_30
   1000035     1.00000064E+05   # ~chi_40
   1000024     3.49994018E+03   # ~chi_1+
   1000037     1.00000064E+05   # ~chi_2+
   1000039     1.00000000E-09   # ~gravitino
#
BLOCK NMIX  # Neutralino Mixing Matrix
  1  1     9.99733057E-01   # N_11
  1  2    -1.78610583E-05   # N_12
  1  3     1.75068429E-02   # N_13
  1  4    -1.50772635E-02   # N_14
  2  1     1.71813960E-03   # N_21
  2  2    -1.49643159E-04   # N_22
  2  3    -7.07096955E-01   # N_23
  2  4    -7.07114504E-01   # N_24
  3  1     2.30404370E-02   # N_31
  3  2     8.02241230E-04   # N_32
  3  3    -7.06899705E-01   # N_33
  3  4     7.06937976E-01   # N_34
  4  1     3.70590398E-07   # N_41
  4  2    -9.99999667E-01   # N_42
  4  3    -4.61604711E-04   # N_43
  4  4     6.73219159E-04   # N_44
#
BLOCK UMIX  # Chargino Mixing Matrix U
  1  1    -6.52807436E-04   # U_11
  1  2     9.99999787E-01   # U_12
  2  1     9.99999787E-01   # U_21
  2  2     6.52807436E-04   # U_22
#
BLOCK VMIX  # Chargino Mixing Matrix V
  1  1    -9.52075574E-04   # V_11
  1  2     9.99999547E-01   # V_12
  2  1     9.99999547E-01   # V_21
  2  2     9.52075574E-04   # V_22
#
BLOCK STOPMIX  # Stop Mixing Matrix
  1  1     9.99999999E-01   # cos(theta_t)
  1  2     4.47213589E-05   # sin(theta_t)
  2  1    -4.47213589E-05   # -sin(theta_t)
  2  2     9.99999999E-01   # cos(theta_t)
#
BLOCK SBOTMIX  # Sbottom Mixing Matrix
  1  1     6.93028007E-01   # cos(theta_b)
  1  2     7.20910661E-01   # sin(theta_b)
  2  1    -7.20910661E-01   # -sin(theta_b)
  2  2     6.93028007E-01   # cos(theta_b)
#
BLOCK STAUMIX  # Stau Mixing Matrix
  1  1     7.06201230E-01   # cos(theta_tau)
  1  2     7.08011174E-01   # sin(theta_tau)
  2  1    -7.08011174E-01   # -sin(theta_tau)
  2  2     7.06201230E-01   # cos(theta_tau)
#
BLOCK ALPHA  # Higgs mixing
          -5.90323526E-01   # Mixing angle in the neutral Higgs boson sector
#
BLOCK HMIX Q=  9.11876000E+01  # DRbar Higgs Parameters
         1     3.50000000E+03   # mu(Q)               
         2     1.49999982E+00   # tanbeta(Q)          
         3     2.54884993E+02   # vev(Q)              
         4    -6.81802910E+07   # MA^2(Q)             
#
BLOCK GAUGE Q=  9.11876000E+01  # The gauge couplings
     1     3.50571318E-01   # gprime(Q) DRbar
     2     6.19645881E-01   # g(Q) DRbar
     3     1.02325612E+00   # g3(Q) DRbar
#
BLOCK AU Q=  9.11876000E+01  # The trilinear couplings
  1  1     0.00000000E+00   # A_u(Q) DRbar
  2  2     0.00000000E+00   # A_c(Q) DRbar
  3  3     0.00000000E+00   # A_t(Q) DRbar
#
BLOCK AD Q=  9.11876000E+01  # The trilinear couplings
  1  1     0.00000000E+00   # A_d(Q) DRbar
  2  2     0.00000000E+00   # A_s(Q) DRbar
  3  3     0.00000000E+00   # A_b(Q) DRbar
#
BLOCK AE Q=  9.11876000E+01  # The trilinear couplings
  1  1     0.00000000E+00   # A_e(Q) DRbar
  2  2     0.00000000E+00   # A_mu(Q) DRbar
  3  3     0.00000000E+00   # A_tau(Q) DRbar
#
BLOCK Yu Q=  9.11876000E+01  # The Yukawa couplings
  1  1     0.00000000E+00   # y_u(Q) DRbar
  2  2     0.00000000E+00   # y_c(Q) DRbar
  3  3     9.83562374E-01   # y_t(Q) DRbar
#
BLOCK Yd Q=  9.11876000E+01  # The Yukawa couplings
  1  1     0.00000000E+00   # y_d(Q) DRbar
  2  2     0.00000000E+00   # y_s(Q) DRbar
  3  3     2.58661957E-02   # y_b(Q) DRbar
#
BLOCK Ye Q=  9.11876000E+01  # The Yukawa couplings
  1  1     0.00000000E+00   # y_e(Q) DRbar
  2  2     0.00000000E+00   # y_mu(Q) DRbar
  3  3     1.77390002E-02   # y_tau(Q) DRbar
#
BLOCK MSOFT Q=  9.11876000E+01  # The soft SUSY breaking masses at the scale Q
         1     1.60000000E+03   # M_1                 
         2     1.00000000E+05   # M_2                 
         3     1.00000000E+05   # M_3                 
        14     0.00000000E+00   # A_u                 
        15     0.00000000E+00   # A_d                 
        16     0.00000000E+00   # A_e                 
        21     6.30796441E+08   # M^2_Hd              
        22    -1.14965164E+09   # M^2_Hu              
        31     1.00000000E+05   # M_eL                
        32     1.00000000E+05   # M_muL               
        33     1.00000000E+05   # M_tauL              
        34     1.00000000E+05   # M_eR                
        35     1.00000000E+05   # M_muR               
        36     1.00000000E+05   # M_tauR              
        41     1.80000000E+03   # M_q1L               
        42     1.80000000E+03   # M_q2L               
        43     1.80000000E+03   # M_q3L               
        44     1.00000000E+05   # M_uR                
        45     1.00000000E+05   # M_cR                
        46     1.00000000E+05   # M_tR                
        47     1.80000000E+03   # M_dR                
        48     1.80000000E+03   # M_sR                
        49     1.80000000E+03   # M_bR                
#
#
#
#                             =================
#                             |The decay table|
#                             =================
#
# - The QCD corrections to the decays gluino -> squark  + quark
#                                     squark -> gaugino + quark_prime
#                                     squark -> squark_prime + Higgs
#                                     squark -> gluino  + quark
#   are included.
#
# - The multi-body decays for the inos, stops and sbottoms are included.
#
# - The loop induced decays for the gluino, neutralinos and stops
#   are included.
#
# - The SUSY decays of the top quark are included.
#
# - Possible decays of the NLSP in GMSB models are included.
#
#
#         PDG            Width
DECAY         6     1.32519420E+00   # top decays
#          BR         NDA      ID1       ID2
     1.00000000E+00    2           5        24   # BR(t ->  b    W+)
#
#         PDG            Width
DECAY   1000021     1.E-04   # gluino decays (OJ Mods)
#          BR         NDA      ID1       ID2
    -9.43214919E-03    2     1000001        -1   # BR(~g -> ~d_L  db)
    -9.43214919E-03    2    -1000001         1   # BR(~g -> ~d_L* d )
    -9.43215121E-03    2     2000001        -1   # BR(~g -> ~d_R  db)
    -9.43215121E-03    2    -2000001         1   # BR(~g -> ~d_R* d )
    -9.43215372E-03    2     1000002        -2   # BR(~g -> ~u_L  ub)
    -9.43215372E-03    2    -1000002         2   # BR(~g -> ~u_L* u )
    -2.55210726E-17    2     2000002        -2   # BR(~g -> ~u_R  ub)
    -2.55210726E-17    2    -2000002         2   # BR(~g -> ~u_R* u )
    -9.43214919E-03    2     1000003        -3   # BR(~g -> ~s_L  sb)
    -9.43214919E-03    2    -1000003         3   # BR(~g -> ~s_L* s )
    -9.43215121E-03    2     2000003        -3   # BR(~g -> ~s_R  sb)
    -9.43215121E-03    2    -2000003         3   # BR(~g -> ~s_R* s )
    -9.43215372E-03    2     1000004        -4   # BR(~g -> ~c_L  cb)
    -9.43215372E-03    2    -1000004         4   # BR(~g -> ~c_L* c )
    -2.55210726E-17    2     2000004        -4   # BR(~g -> ~c_R  cb)
    -2.55210726E-17    2    -2000004         4   # BR(~g -> ~c_R* c )
     3.47935808E-01    2     1000005        -5   # BR(~g -> ~b_1  bb)
     3.47935808E-01    2    -1000005         5   # BR(~g -> ~b_1* b )
     3.50295890E-01    2     2000005        -5   # BR(~g -> ~b_2  bb)
     3.50295890E-01    2    -2000005         5   # BR(~g -> ~b_2* b )
    -9.28300689E-03    2     1000006        -6   # BR(~g -> ~t_1  tb)
    -9.28300689E-03    2    -1000006         6   # BR(~g -> ~t_1* t )
    -2.64711566E-01    2     1000039        21   # BR(~g -> ~G g)
#
#         PDG            Width
DECAY   1000006     9.34291980E-03   # stop1 decays
#          BR         NDA      ID1       ID2
     1.00000000E+00    2     1000022         6   # BR(~t_1 -> ~chi_10 t )
#
#         PDG            Width
DECAY   2000006    -2.88886449E+04   # stop2 decays
#          BR         NDA      ID1       ID2
    -7.21705616E-03    2     1000022         6   # BR(~t_2 -> ~chi_10 t )
    -1.73360780E-02    2     1000023         6   # BR(~t_2 -> ~chi_20 t )
    -1.73308174E-02    2     1000025         6   # BR(~t_2 -> ~chi_30 t )
     1.04129273E+00    2     1000024         5   # BR(~t_2 -> ~chi_1+ b )
     4.69521759E-04    2     1000006        25   # BR(~t_2 -> ~t_1    h )
    -4.91774878E-04    2     1000006        35   # BR(~t_2 -> ~t_1    H )
    -4.90905958E-04    2     1000006        36   # BR(~t_2 -> ~t_1    A )
    -4.62464520E-04    2     1000005        37   # BR(~t_2 -> ~b_1    H+)
    -5.19334128E-04    2     2000005        37   # BR(~t_2 -> ~b_2    H+)
     3.34288477E-04    2     1000006        23   # BR(~t_2 -> ~t_1    Z )
     8.41426286E-04    2     1000005        24   # BR(~t_2 -> ~b_1    W+)
     9.10460267E-04    2     2000005        24   # BR(~t_2 -> ~b_2    W+)
#
#         PDG            Width
DECAY   1000005    -3.35310360E-01   # sbottom1 decays
#          BR         NDA      ID1       ID2
     1.00000000E+00    2     1000022         5   # BR(~b_1 -> ~chi_10 b )
#
#         PDG            Width
DECAY   2000005    -3.74366409E-01   # sbottom2 decays
#          BR         NDA      ID1       ID2
     1.00000000E+00    2     1000022         5   # BR(~b_2 -> ~chi_10 b )
#
#         PDG            Width
DECAY   1000002     1.63375696E-02   # sup_L decays
#          BR         NDA      ID1       ID2
     1.00000000E+00    2     1000022         2   # BR(~u_L -> ~chi_10 u)
#
#         PDG            Width
DECAY   2000002     2.08386238E+02   # sup_R decays
#          BR         NDA      ID1       ID2
     9.99466754E-01    2     1000022         2   # BR(~u_R -> ~chi_10 u)
     2.94886658E-06    2     1000023         2   # BR(~u_R -> ~chi_20 u)
     5.30297151E-04    2     1000025         2   # BR(~u_R -> ~chi_30 u)
#
#         PDG            Width
DECAY   1000001     1.64291830E-02   # sdown_L decays
#          BR         NDA      ID1       ID2
     1.00000000E+00    2     1000022         1   # BR(~d_L -> ~chi_10 d)
#
#         PDG            Width
DECAY   2000001     6.55516344E-02   # sdown_R decays
#          BR         NDA      ID1       ID2
     1.00000000E+00    2     1000022         1   # BR(~d_R -> ~chi_10 d)
#
#         PDG            Width
DECAY   1000004     1.63375696E-02   # scharm_L decays
#          BR         NDA      ID1       ID2
     1.00000000E+00    2     1000022         4   # BR(~c_L -> ~chi_10 c)
#
#         PDG            Width
DECAY   2000004     2.08386238E+02   # scharm_R decays
#          BR         NDA      ID1       ID2
     9.99466754E-01    2     1000022         4   # BR(~c_R -> ~chi_10 c)
     2.94886658E-06    2     1000023         4   # BR(~c_R -> ~chi_20 c)
     5.30297151E-04    2     1000025         4   # BR(~c_R -> ~chi_30 c)
#
#         PDG            Width
DECAY   1000003     1.64291830E-02   # sstrange_L decays
#          BR         NDA      ID1       ID2
     1.00000000E+00    2     1000022         3   # BR(~s_L -> ~chi_10 s)
#
#         PDG            Width
DECAY   2000003     6.55516344E-02   # sstrange_R decays
#          BR         NDA      ID1       ID2
     1.00000000E+00    2     1000022         3   # BR(~s_R -> ~chi_10 s)
#
#         PDG            Width
DECAY   1000011     1.22189233E+02   # selectron_L decays
#          BR         NDA      ID1       ID2
     9.99398182E-01    2     1000022        11   # BR(~e_L -> ~chi_10 e-)
     2.10896507E-06    2     1000023        11   # BR(~e_L -> ~chi_20 e-)
     5.97051327E-04    2     1000025        11   # BR(~e_L -> ~chi_30 e-)
     2.65760177E-06    2    -1000024        12   # BR(~e_L -> ~chi_1- nu_e)
#
#         PDG            Width
DECAY   2000011     4.88754039E+02   # selectron_R decays
#          BR         NDA      ID1       ID2
     9.99467221E-01    2     1000022        11   # BR(~e_R -> ~chi_10 e-)
     2.94628512E-06    2     1000023        11   # BR(~e_R -> ~chi_20 e-)
     5.29832670E-04    2     1000025        11   # BR(~e_R -> ~chi_30 e-)
#
#         PDG            Width
DECAY   1000013     1.22189233E+02   # smuon_L decays
#          BR         NDA      ID1       ID2
     9.99398182E-01    2     1000022        13   # BR(~mu_L -> ~chi_10 mu-)
     2.10896507E-06    2     1000023        13   # BR(~mu_L -> ~chi_20 mu-)
     5.97051327E-04    2     1000025        13   # BR(~mu_L -> ~chi_30 mu-)
     2.65760177E-06    2    -1000024        14   # BR(~mu_L -> ~chi_1- nu_mu)
#
#         PDG            Width
DECAY   2000013     4.88754039E+02   # smuon_R decays
#          BR         NDA      ID1       ID2
     9.99467221E-01    2     1000022        13   # BR(~mu_R -> ~chi_10 mu-)
     2.94628512E-06    2     1000023        13   # BR(~mu_R -> ~chi_20 mu-)
     5.29832670E-04    2     1000025        13   # BR(~mu_R -> ~chi_30 mu-)
#
#         PDG            Width
DECAY   1000015     1.18198198E+04   # stau_1 decays
#          BR         NDA      ID1       ID2
     2.58825261E-02    2     1000022        15   # BR(~tau_1 -> ~chi_10  tau-)
     2.54531315E-05    2     1000023        15   # BR(~tau_1 -> ~chi_20  tau-)
     2.91769167E-05    2     1000025        15   # BR(~tau_1 -> ~chi_30  tau-)
     2.77030510E-05    2    -1000024        16   # BR(~tau_1 -> ~chi_1-  nu_tau)
     9.74035141E-01    2     1000039        15   # BR(~tau_1 -> ~G       tau-)
#
#         PDG            Width
DECAY   2000015     3.05916777E+02   # stau_2 decays
#          BR         NDA      ID1       ID2
     9.95966713E-01    2     1000022        15   # BR(~tau_2 -> ~chi_10  tau-)
     1.06341473E-03    2     1000023        15   # BR(~tau_2 -> ~chi_20  tau-)
     1.99781997E-03    2     1000025        15   # BR(~tau_2 -> ~chi_30  tau-)
     9.72051803E-04    2    -1000024        16   # BR(~tau_2 -> ~chi_1-  nu_tau)
#
#         PDG            Width
DECAY   1000012     1.22189295E+02   # snu_eL decays
#          BR         NDA      ID1       ID2
     9.99523803E-01    2     1000022        12   # BR(~nu_eL -> ~chi_10 nu_e)
     3.92321540E-06    2     1000023        12   # BR(~nu_eL -> ~chi_20 nu_e)
     4.66621002E-04    2     1000025        12   # BR(~nu_eL -> ~chi_30 nu_e)
     5.65278275E-06    2     1000024        11   # BR(~nu_eL -> ~chi_1+ e-)
#
#         PDG            Width
DECAY   1000014     1.22189295E+02   # snu_muL decays
#          BR         NDA      ID1       ID2
     9.99523803E-01    2     1000022        14   # BR(~nu_muL -> ~chi_10 nu_mu)
     3.92321540E-06    2     1000023        14   # BR(~nu_muL -> ~chi_20 nu_mu)
     4.66621002E-04    2     1000025        14   # BR(~nu_muL -> ~chi_30 nu_mu)
     5.65278275E-06    2     1000024        13   # BR(~nu_muL -> ~chi_1+ mu-)
#
#         PDG            Width
DECAY   1000016     1.22813782E+02   # snu_tauL decays
#          BR         NDA      ID1       ID2
     9.94441395E-01    2     1000022        16   # BR(~nu_tauL -> ~chi_10 nu_tau)
     3.90326652E-06    2     1000023        16   # BR(~nu_tauL -> ~chi_20 nu_tau)
     4.64248313E-04    2     1000025        16   # BR(~nu_tauL -> ~chi_30 nu_tau)
     5.09045386E-03    2     1000024        15   # BR(~nu_tauL -> ~chi_1+ tau-)
#
#         PDG            Width
DECAY   1000024     4.94415960E+01   # chargino1+ decays
#          BR         NDA      ID1       ID2
     4.75451592E-07    2     1000002        -1   # BR(~chi_1+ -> ~u_L     db)
     2.23416241E-07    2    -1000001         2   # BR(~chi_1+ -> ~d_L*    u )
     4.75451592E-07    2     1000004        -3   # BR(~chi_1+ -> ~c_L     sb)
     2.23416241E-07    2    -1000003         4   # BR(~chi_1+ -> ~s_L*    c )
    -9.81578940E-03    2     1000006        -5   # BR(~chi_1+ -> ~t_1     bb)
     9.61278161E-02    2    -1000005         6   # BR(~chi_1+ -> ~b_1*    t )
     8.46394140E-01    2    -2000005         6   # BR(~chi_1+ -> ~b_2*    t )
     6.72851333E-02    2     1000022        24   # BR(~chi_1+ -> ~chi_10  W+)
     6.10210267E-06    2     1000039        24   # BR(~chi_1+ -> ~G       W+)
     1.20065064E-06    2     1000039        37   # BR(~chi_1+ -> ~G       H+)
#
#         PDG            Width
DECAY   1000037    -1.00697847E+04   # chargino2+ decays
#          BR         NDA      ID1       ID2
     7.61213490E-01    2     1000002        -1   # BR(~chi_2+ -> ~u_L     db)
     7.61213700E-01    2    -1000001         2   # BR(~chi_2+ -> ~d_L*    u )
     7.61213490E-01    2     1000004        -3   # BR(~chi_2+ -> ~c_L     sb)
     7.61213700E-01    2    -1000003         4   # BR(~chi_2+ -> ~s_L*    c )
    -1.19569428E+01    2     1000006        -5   # BR(~chi_2+ -> ~t_1     bb)
     1.67299497E-01    2    -1000005         6   # BR(~chi_2+ -> ~b_1*    t )
     7.21633822E-01    2    -2000005         6   # BR(~chi_2+ -> ~b_2*    t )
     5.47251845E-13    2     1000012       -11   # BR(~chi_2+ -> ~nu_eL   e+  )
     5.47251845E-13    2     1000014       -13   # BR(~chi_2+ -> ~nu_muL  mu+ )
     3.81094091E-13    2    -1000011        12   # BR(~chi_2+ -> ~e_L+    nu_e)
     3.81094091E-13    2    -1000013        14   # BR(~chi_2+ -> ~mu_L+   nu_mu)
     5.99907907E-13    2    -1000015        16   # BR(~chi_2+ -> ~tau_1+  nu_tau)
     8.96836008E-15    2    -2000015        16   # BR(~chi_2+ -> ~tau_2+  nu_tau)
     1.39460634E-01    2     1000024        23   # BR(~chi_2+ -> ~chi_1+  Z )
     6.31619205E-05    2     1000022        24   # BR(~chi_2+ -> ~chi_10  W+)
     1.35276499E-01    2     1000023        24   # BR(~chi_2+ -> ~chi_20  W+)
     1.35211910E-01    2     1000025        24   # BR(~chi_2+ -> ~chi_30  W+)
     1.40879672E-01    2     1000024        25   # BR(~chi_2+ -> ~chi_1+  h )
     1.23665465E-01    2     1000024        35   # BR(~chi_2+ -> ~chi_1+  H )
     1.23682016E-01    2     1000024        36   # BR(~chi_2+ -> ~chi_1+  A )
     7.00423308E-05    2     1000022        37   # BR(~chi_2+ -> ~chi_10  H+)
     1.23678026E-01    2     1000023        37   # BR(~chi_2+ -> ~chi_20  H+)
     1.23611405E-01    2     1000025        37   # BR(~chi_2+ -> ~chi_30  H+)
     7.97755398E+00    2     1000039        24   # BR(~chi_2+ -> ~G       W+)
     2.28557402E-06    2     1000039        37   # BR(~chi_2+ -> ~G       H+)
#
#         PDG            Width
DECAY   1000022     1.E-08   # neutralino1 decays (OJ Mods)
#          BR         NDA      ID1       ID2
     7.59707607E-01    2     1000039        22   # BR(~chi_10 -> ~G        gam)
     2.40288607E-01    2     1000039        23   # BR(~chi_10 -> ~G        Z)
     3.78564080E-06    2     1000039        25   # BR(~chi_10 -> ~G        h)
#
#         PDG            Width
DECAY   1000023     1.E-08   # neutralino2 decays (OJ Mods)
#          BR         NDA      ID1       ID2
     6.97643951E-02    2     1000022        23   # BR(~chi_20 -> ~chi_10   Z )
     3.81488470E-04    2     1000022        25   # BR(~chi_20 -> ~chi_10   h )
     9.38759128E-09    2     1000002        -2   # BR(~chi_20 -> ~u_L      ub)
     9.38759128E-09    2    -1000002         2   # BR(~chi_20 -> ~u_L*     u )
     6.92324988E-08    2     1000001        -1   # BR(~chi_20 -> ~d_L      db)
     6.92324988E-08    2    -1000001         1   # BR(~chi_20 -> ~d_L*     d )
     1.29618529E-07    2     2000001        -1   # BR(~chi_20 -> ~d_R      db)
     1.29618529E-07    2    -2000001         1   # BR(~chi_20 -> ~d_R*     d )
     9.38759128E-09    2     1000004        -4   # BR(~chi_20 -> ~c_L      cb)
     9.38759128E-09    2    -1000004         4   # BR(~chi_20 -> ~c_L*     c )
     6.92324988E-08    2     1000003        -3   # BR(~chi_20 -> ~s_L      sb)
     6.92324988E-08    2    -1000003         3   # BR(~chi_20 -> ~s_L*     s )
     1.29618529E-07    2     2000003        -3   # BR(~chi_20 -> ~s_R      sb)
     1.29618529E-07    2    -2000003         3   # BR(~chi_20 -> ~s_R*     s )
     4.75832009E-01    2     1000006        -6   # BR(~chi_20 -> ~t_1      tb)
     4.75832009E-01    2    -1000006         6   # BR(~chi_20 -> ~t_1*     t )
    -5.32601123E-03    2     1000005        -5   # BR(~chi_20 -> ~b_1      bb)
    -5.32601123E-03    2    -1000005         5   # BR(~chi_20 -> ~b_1*     b )
    -5.58301499E-03    2     2000005        -5   # BR(~chi_20 -> ~b_2      bb)
    -5.58301499E-03    2    -2000005         5   # BR(~chi_20 -> ~b_2*     b )
     2.50155549E-11    2     1000039        22   # BR(~chi_20 -> ~G        gam)
     2.37397886E-07    2     1000039        23   # BR(~chi_20 -> ~G        Z)
     5.92525357E-06    2     1000039        25   # BR(~chi_20 -> ~G        h)
     4.74524798E-08    2     1000039        35   # BR(~chi_20 -> ~G        H)
     1.22404925E-06    2     1000039        36   # BR(~chi_20 -> ~G        A)
#
#         PDG            Width
DECAY   1000025     4.89116698E+01   # neutralino3 decays
#          BR         NDA      ID1       ID2
     3.89745577E-04    2     1000022        23   # BR(~chi_30 -> ~chi_10   Z )
     7.03598303E-02    2     1000022        25   # BR(~chi_30 -> ~chi_10   h )
     8.17611097E-06    2     1000002        -2   # BR(~chi_30 -> ~u_L      ub)
     8.17611097E-06    2    -1000002         2   # BR(~chi_30 -> ~u_L*     u )
     3.87151171E-06    2     1000001        -1   # BR(~chi_30 -> ~d_L      db)
     3.87151171E-06    2    -1000001         1   # BR(~chi_30 -> ~d_L*     d )
     2.32983441E-05    2     2000001        -1   # BR(~chi_30 -> ~d_R      db)
     2.32983441E-05    2    -2000001         1   # BR(~chi_30 -> ~d_R*     d )
     8.17611097E-06    2     1000004        -4   # BR(~chi_30 -> ~c_L      cb)
     8.17611097E-06    2    -1000004         4   # BR(~chi_30 -> ~c_L*     c )
     3.87151171E-06    2     1000003        -3   # BR(~chi_30 -> ~s_L      sb)
     3.87151171E-06    2    -1000003         3   # BR(~chi_30 -> ~s_L*     s )
     2.32983441E-05    2     2000003        -3   # BR(~chi_30 -> ~s_R      sb)
     2.32983441E-05    2    -2000003         3   # BR(~chi_30 -> ~s_R*     s )
     4.75685182E-01    2     1000006        -6   # BR(~chi_30 -> ~t_1      tb)
     4.75685182E-01    2    -1000006         6   # BR(~chi_30 -> ~t_1*     t )
    -4.10324284E-03    2     1000005        -5   # BR(~chi_30 -> ~b_1      bb)
    -4.10324284E-03    2    -1000005         5   # BR(~chi_30 -> ~b_1*     b )
    -7.02121501E-03    2     2000005        -5   # BR(~chi_30 -> ~b_2      bb)
    -7.02121501E-03    2    -2000005         5   # BR(~chi_30 -> ~b_2*     b )
     5.17633350E-09    2     1000039        22   # BR(~chi_30 -> ~G        gam)
     5.93379726E-06    2     1000039        23   # BR(~chi_30 -> ~G        Z)
     2.31327098E-07    2     1000039        25   # BR(~chi_30 -> ~G        h)
     1.21653295E-06    2     1000039        35   # BR(~chi_30 -> ~G        H)
     4.89862159E-08    2     1000039        36   # BR(~chi_30 -> ~G        A)
#
#         PDG            Width
DECAY   1000035    -1.00698660E+04   # neutralino4 decays
#          BR         NDA      ID1       ID2
     8.98701827E-07    2     1000022        23   # BR(~chi_40 -> ~chi_10   Z )
     1.34782189E-01    2     1000023        23   # BR(~chi_40 -> ~chi_20   Z )
     4.68554358E-03    2     1000025        23   # BR(~chi_40 -> ~chi_30   Z )
     1.35283313E-01    2     1000024       -24   # BR(~chi_40 -> ~chi_1+   W-)
     1.35283313E-01    2    -1000024        24   # BR(~chi_40 -> ~chi_1-   W+)
     6.49520912E-05    2     1000022        25   # BR(~chi_40 -> ~chi_10   h )
     5.15535176E-06    2     1000022        35   # BR(~chi_40 -> ~chi_10   H )
     6.48069155E-05    2     1000022        36   # BR(~chi_40 -> ~chi_10   A )
     4.62509639E-03    2     1000023        25   # BR(~chi_40 -> ~chi_20   h )
     1.18355622E-01    2     1000023        35   # BR(~chi_40 -> ~chi_20   H )
     5.44066600E-03    2     1000023        36   # BR(~chi_40 -> ~chi_20   A )
     1.36197735E-01    2     1000025        25   # BR(~chi_40 -> ~chi_30   h )
     5.31152881E-03    2     1000025        35   # BR(~chi_40 -> ~chi_30   H )
     1.18183535E-01    2     1000025        36   # BR(~chi_40 -> ~chi_30   A )
     1.23686808E-01    2     1000024       -37   # BR(~chi_40 -> ~chi_1+   H-)
     1.23686808E-01    2    -1000024        37   # BR(~chi_40 -> ~chi_1-   H+)
     3.64517684E-01    2     1000002        -2   # BR(~chi_40 -> ~u_L      ub)
     3.64517684E-01    2    -1000002         2   # BR(~chi_40 -> ~u_L*     u )
     5.84572509E-21    2     2000002        -2   # BR(~chi_40 -> ~u_R      ub)
     5.84572509E-21    2    -2000002         2   # BR(~chi_40 -> ~u_R*     u )
     3.64517821E-01    2     1000001        -1   # BR(~chi_40 -> ~d_L      db)
     3.64517821E-01    2    -1000001         1   # BR(~chi_40 -> ~d_L*     d )
     7.12181045E-15    2     2000001        -1   # BR(~chi_40 -> ~d_R      db)
     7.12181045E-15    2    -2000001         1   # BR(~chi_40 -> ~d_R*     d )
     3.64517684E-01    2     1000004        -4   # BR(~chi_40 -> ~c_L      cb)
     3.64517684E-01    2    -1000004         4   # BR(~chi_40 -> ~c_L*     c )
     5.84572509E-21    2     2000004        -4   # BR(~chi_40 -> ~c_R      cb)
     5.84572509E-21    2    -2000004         4   # BR(~chi_40 -> ~c_R*     c )
     3.64517821E-01    2     1000003        -3   # BR(~chi_40 -> ~s_L      sb)
     3.64517821E-01    2    -1000003         3   # BR(~chi_40 -> ~s_L*     s )
     7.12181045E-15    2     2000003        -3   # BR(~chi_40 -> ~s_R      sb)
     7.12181045E-15    2    -2000003         3   # BR(~chi_40 -> ~s_R*     s )
     4.44492158E-01    2     1000006        -6   # BR(~chi_40 -> ~t_1      tb)
     4.44492158E-01    2    -1000006         6   # BR(~chi_40 -> ~t_1*     t )
    -3.00122745E+00    2     1000005        -5   # BR(~chi_40 -> ~b_1      bb)
    -3.00122745E+00    2    -1000005         5   # BR(~chi_40 -> ~b_1*     b )
    -2.97761058E+00    2     2000005        -5   # BR(~chi_40 -> ~b_2      bb)
    -2.97761058E+00    2    -2000005         5   # BR(~chi_40 -> ~b_2*     b )
     1.90557695E-13    2     1000011       -11   # BR(~chi_40 -> ~e_L-     e+)
     1.90557695E-13    2    -1000011        11   # BR(~chi_40 -> ~e_L+     e-)
     3.35074137E-26    2     2000011       -11   # BR(~chi_40 -> ~e_R-     e+)
     3.35074137E-26    2    -2000011        11   # BR(~chi_40 -> ~e_R+     e-)
     1.90557695E-13    2     1000013       -13   # BR(~chi_40 -> ~mu_L-    mu+)
     1.90557695E-13    2    -1000013        13   # BR(~chi_40 -> ~mu_L+    mu-)
     3.35074137E-26    2     2000013       -13   # BR(~chi_40 -> ~mu_R-    mu+)
     3.35074137E-26    2    -2000013        13   # BR(~chi_40 -> ~mu_R+    mu-)
     2.73641577E-13    2     1000012       -12   # BR(~chi_40 -> ~nu_eL    nu_eb)
     2.73641577E-13    2    -1000012        12   # BR(~chi_40 -> ~nu_eL*   nu_e )
     2.73641577E-13    2     1000014       -14   # BR(~chi_40 -> ~nu_muL   nu_mub)
     2.73641577E-13    2    -1000014        14   # BR(~chi_40 -> ~nu_muL*  nu_mu )
     2.73641577E-13    2     1000016       -16   # BR(~chi_40 -> ~nu_tau1  nu_taub)
     2.73641577E-13    2    -1000016        16   # BR(~chi_40 -> ~nu_tau1* nu_tau )
     1.93445360E+00    2     1000039        22   # BR(~chi_40 -> ~G        gam)
     6.04355094E+00    2     1000039        23   # BR(~chi_40 -> ~G        Z)
     3.64633849E-07    2     1000039        25   # BR(~chi_40 -> ~G        h)
     2.28957360E-06    2     1000039        35   # BR(~chi_40 -> ~G        H)
     4.51168422E-10    2     1000039        36   # BR(~chi_40 -> ~G        A)
#
#
#
#
