# SUSY Les Houches Accord 2 - MSSM spectrum + Decays
# SPheno v3.1.12 
# W. Porod, Comput. Phys. Commun. 153 (2003) 275-315, hep-ph/0301101
# in case of problems send email to porod@physik.uni-wuerzburg.de
# Created: 23.11.2012,  13:29
Block SPINFO         # Program information
     1   SPheno      # spectrum calculator
     2   v3.1.12     # version number
#
Block SPhenoINFO     # SPheno specific information
    1      2         # using 2-loop RGEs
    2      1         # using running masses for boundary conditions at mZ
Block MODSEL  # Model selection
    1    2    # mGMSB model
Block MINPAR  # Input parameters
    1    1.20000000E+05  # Lambda, scale of SUSY breaking
    2    2.50000000E+05  # M_M, messenger mass scale
    3    1.50000000E+01  # tanb at m_Z   
    4    1.00000000E+00  # Sign(mu)
    5    3.00000000E+00  # N_5 number of effective five-plets
    6    1.00000000E+00  # c_grav, Gravitino mass factor
Block gauge Q=  2.50000000E+05  # (GMSB scale)
   1    4.93329841E-01  # g'(Q)^DRbar
   2    6.47959788E-01  # g(Q)^DRbar
   3    9.36747681E-01  # g3(Q)^DRbar
Block SMINPUTS  # SM parameters
         1     1.27932480E+02  # alpha_em^-1(MZ)^MSbar
         2     1.16639000E-05  # G_mu [GeV^-2]
         3     1.17200000E-01  # alpha_s(MZ)^MSbar
         4     9.11876000E+01  # m_Z(pole)
         5     4.20000000E+00  # m_b(m_b), MSbar
         6     1.72500000E+02  # m_t(pole)
         7     1.77700000E+00  # m_tau(pole)
         8     0.00000000E+00  # m_nu_3
        11     5.10998910E-04  # m_e(pole)
        12     0.00000000E+00  # m_nu_1
        13     1.05658000E-01  # m_muon(pole)
        14     0.00000000E+00  # m_nu_2
        21     5.00000000E-03  # m_d(2 GeV), MSbar
        22     3.00000000E-03  # m_u(2 GeV), MSbar
        23     1.05000000E-01  # m_s(2 GeV), MSbar
        24     1.27000000E+00  # m_c(m_c), MSbar
Block gauge Q=  2.28273783E+03  # (SUSY scale)
   1    3.64826426E-01  # g'(Q)^DRbar
   2    6.38568945E-01  # g(Q)^DRbar
   3    1.01704737E+00  # g3(Q)^DRbar
Block Yu Q=  2.28273783E+03  # (SUSY scale)
  1  1     8.35857346E-06   # Y_u(Q)^DRbar
  2  2     3.53846320E-03   # Y_c(Q)^DRbar
  3  3     8.39829005E-01   # Y_t(Q)^DRbar
Block Yd Q=  2.28273783E+03  # (SUSY scale)
  1  1     1.90864431E-04   # Y_d(Q)^DRbar
  2  2     4.00815219E-03   # Y_s(Q)^DRbar
  3  3     1.89388770E-01   # Y_b(Q)^DRbar
Block Ye Q=  2.28273783E+03  # (SUSY scale)
  1  1     4.32664127E-05   # Y_e(Q)^DRbar
  2  2     8.94609983E-03   # Y_mu(Q)^DRbar
  3  3     1.50502349E-01   # Y_tau(Q)^DRbar
Block Au Q=  2.28273783E+03  # (SUSY scale)
  1  1    -7.09892676E+02   # A_u(Q)^DRbar
  2  2    -7.09891672E+02   # A_c(Q)^DRbar
  3  3    -6.70183717E+02   # A_t(Q)^DRbar
Block Ad Q=  2.28273783E+03  # (SUSY scale)
  1  1    -7.53395830E+02   # A_d(Q)^DRbar
  2  2    -7.53394675E+02   # A_s(Q)^DRbar
  3  3    -7.38630522E+02   # A_b(Q)^DRbar
Block Ae Q=  2.28273783E+03  # (SUSY scale)
  1  1    -8.20767975E+01   # A_e(Q)^DRbar
  2  2    -8.20761448E+01   # A_mu(Q)^DRbar
  3  3    -8.18921245E+01   # A_tau(Q)^DRbar
Block MSOFT Q=  2.28273783E+03  # soft SUSY breaking masses at Q
   1    5.23848561E+02  # M_1
   2    9.59761462E+02  # M_2
   3    2.44531785E+03  # M_3
  21    5.02084973E+05  # M^2_(H,d)
  22   -5.21911089E+05  # M^2_(H,u)
  31    7.47880692E+02  # M_(L,11)
  32    7.47877180E+02  # M_(L,22)
  33    7.46886567E+02  # M_(L,33)
  34    3.62594761E+02  # M_(E,11)
  35    3.62580021E+02  # M_(E,22)
  36    3.58399958E+02  # M_(E,33)
  41    2.37008190E+03  # M_(Q,11)
  42    2.37007900E+03  # M_(Q,22)
  43    2.29591125E+03  # M_(Q,33)
  44    2.27259386E+03  # M_(U,11)
  45    2.27259122E+03  # M_(U,22)
  46    2.12038574E+03  # M_(U,33)
  47    2.26308998E+03  # M_(D,11)
  48    2.26308650E+03  # M_(D,22)
  49    2.25535690E+03  # M_(D,33)
Block MASS  # Mass spectrum
#   PDG code      mass          particle
         6     1.72500000E+02  # m_t(pole)
        23     9.11876000E+01  # m_Z(pole)
        24     8.03135008E+01  # W+
        15     1.77700000E+00  # m_tau(pole)
        25     1.19192190E+02  # h0
        35     1.08029041E+03  # H0
        36     1.08014944E+03  # A0
        37     1.08351748E+03  # H+
   1000001     2.46829193E+03  # ~d_L
   2000001     2.35555687E+03  # ~d_R
   1000002     2.46700954E+03  # ~u_L
   2000002     2.36426911E+03  # ~u_R
   1000003     2.46828854E+03  # ~s_L
   2000003     2.35555247E+03  # ~s_R
   1000004     2.46700624E+03  # ~c_L
   2000004     2.36426590E+03  # ~c_R
   1000005     2.34494091E+03  # ~b_1
   2000005     2.37931457E+03  # ~b_2
   1000006     2.18407362E+03  # ~t_1
   2000006     2.38585589E+03  # ~t_2
   1000011     7.64672683E+02  # ~e_L-
   2000011     3.78030705E+02  # ~e_R-
   1000012     7.60152330E+02  # ~nu_eL
   1000013     7.64670117E+02  # ~mu_L-
   2000013     3.78007457E+02  # ~mu_R-
   1000014     7.60147346E+02  # ~nu_muL
   1000015     3.71410470E+02  # ~tau_1-
   2000015     7.63943492E+02  # ~tau_2-
   1000016     7.58743680E+02  # ~nu_tauL
   1000021     2.57190326E+03  # ~g
   1000022     5.09087677E+02  # ~chi_10
   1000023     7.92919236E+02  # ~chi_20
   1000025    -8.09396693E+02  # ~chi_30
   1000035     9.99582687E+02  # ~chi_40
   1000024     7.90467966E+02  # ~chi_1+
   1000037     9.99715473E+02  # ~chi_2+
   1000039     7.20000000E-09  # ~G
# Higgs mixing
Block alpha # Effective Higgs mixing angle
          -7.09524829E-02   # alpha
Block Hmix Q=  2.28273783E+03  # Higgs mixing parameters
   1    7.97212671E+02  # mu
   2    1.43444259E+01  # tan[beta](Q)
   3    2.43569559E+02  # v(Q)
   4    1.02597594E+06  # m^2_A(Q)
Block stopmix # stop mixing matrix
   1  1     1.39104788E-01   # Re[R_st(1,1)]
   1  2     9.90277667E-01   # Re[R_st(1,2)]
   2  1    -9.90277667E-01   # Re[R_st(2,1)]
   2  2     1.39104788E-01   # Re[R_st(2,2)]
Block sbotmix # sbottom mixing matrix
   1  1     1.86204910E-01   # Re[R_sb(1,1)]
   1  2     9.82510932E-01   # Re[R_sb(1,2)]
   2  1    -9.82510932E-01   # Re[R_sb(2,1)]
   2  2     1.86204910E-01   # Re[R_sb(2,2)]
Block staumix # stau mixing matrix
   1  1     4.77214405E-02   # Re[R_sta(1,1)]
   1  2     9.98860683E-01   # Re[R_sta(1,2)]
   2  1    -9.98860683E-01   # Re[R_sta(2,1)]
   2  2     4.77214405E-02   # Re[R_sta(2,2)]
Block Nmix # neutralino mixing matrix
   1  1    -9.93050451E-01   # Re[N(1,1)]
   1  2     1.18942210E-02   # Re[N(1,2)]
   1  3    -9.70926147E-02   # Re[N(1,3)]
   1  4     6.54396942E-02   # Re[N(1,4)]
   2  1     1.13486423E-01   # Re[N(2,1)]
   2  2     2.95496903E-01   # Re[N(2,2)]
   2  3    -6.76047457E-01   # Re[N(2,3)]
   2  4     6.65403823E-01   # Re[N(2,4)]
   3  1     2.20008276E-02   # Re[N(3,1)]
   3  2    -2.90532496E-02   # Re[N(3,2)]
   3  3    -7.05568136E-01   # Re[N(3,3)]
   3  4    -7.07704372E-01   # Re[N(3,4)]
   4  1    -2.20816054E-02   # Re[N(4,1)]
   4  2     9.54827742E-01   # Re[N(4,2)]
   4  3     1.88961543E-01   # Re[N(4,3)]
   4  4    -2.28275976E-01   # Re[N(4,4)]
Block Umix # chargino mixing matrix
   1  1    -2.66779790E-01   # Re[U(1,1)]
   1  2     9.63757513E-01   # Re[U(1,2)]
   2  1     9.63757513E-01   # Re[U(2,1)]
   2  2     2.66779790E-01   # Re[U(2,2)]
Block Vmix # chargino mixing matrix
   1  1    -3.22225436E-01   # Re[V(1,1)]
   1  2     9.46662965E-01   # Re[V(1,2)]
   2  1     9.46662965E-01   # Re[V(2,1)]
   2  2     3.22225436E-01   # Re[V(2,2)]
DECAY   2000011     1.83398364E-10   # ~e^-_R
#    BR                NDA      ID1      ID2
     9.30523958E-01    2     1000039        11   # BR(~e^-_R -> ~G e^-)
#    BR                NDA      ID1      ID2       ID3
     1.59055783E-02    3     1000015        11       -15   # BR(~e^-_R -> ~tau^-_1 e^- tau^+)
     5.35704641E-02    3    -1000015        11        15   # BR(~e^-_R -> ~tau^+_1 e^- tau^-)
DECAY   1000011     2.96641340E-01   # ~e^-_L
#    BR                NDA      ID1      ID2
     9.99999906E-01    2     1000022        11   # BR(~e^-_L -> chi^0_1 e^-)
     3.65735788E-08    2     2000011        23   # BR(~e^-_L -> ~e^-_R Z)
     3.76320618E-08    2     2000011        25   # BR(~e^-_L -> ~e^-_R h^0)
     1.94820135E-08    2     1000039        11   # BR(~e^-_L -> ~G e^-)
DECAY   2000013     1.82825514E-10   # ~mu^-_R
#    BR                NDA      ID1      ID2
     9.33152307E-01    2     1000039        13   # BR(~mu^-_R -> ~G mu^-)
#    BR                NDA      ID1      ID2       ID3
     1.53041460E-02    3     1000015        13       -15   # BR(~mu^-_R -> ~tau^-_1 mu^- tau^+)
     5.15435474E-02    3    -1000015        13        15   # BR(~mu^-_R -> ~tau^+_1 mu^- tau^-)
DECAY   1000013     2.97582902E-01   # ~mu^-_L
#    BR                NDA      ID1      ID2
     9.96837418E-01    2     1000022        13   # BR(~mu^-_L -> chi^0_1 mu^-)
     1.55875156E-03    2     2000013        23   # BR(~mu^-_L -> ~mu^-_R Z)
     1.60381137E-03    2     2000013        25   # BR(~mu^-_L -> ~mu^-_R h^0)
     1.94200444E-08    2     1000039        13   # BR(~mu^-_L -> ~G mu^-)
DECAY   1000015     1.56213506E-10   # ~tau^-_1
#    BR                NDA      ID1      ID2
     1.00000000E+00    2     1000039        15   # BR(~tau^-_1 -> ~G tau^-)
DECAY   2000015     5.65329265E-01   # ~tau^-_2
#    BR                NDA      ID1      ID2
     5.24905533E-01    2     1000022        15   # BR(~tau^-_2 -> chi^0_1 tau^-)
     2.35238754E-01    2     1000015        23   # BR(~tau^-_2 -> ~tau^-_1 Z)
     2.39855702E-01    2     1000015        25   # BR(~tau^-_2 -> ~tau^-_1 h^0)
     1.01737941E-08    2     1000039        15   # BR(~tau^-_2 -> ~G tau^-)
DECAY   1000012     3.14625197E-01   # ~nu_e
#    BR                NDA      ID1      ID2
     9.99999916E-01    2     1000022        12   # BR(~nu_e -> chi^0_1 nu_e)
     6.64128133E-08    2     2000011        24   # BR(~nu_e -> ~e^-_R W^+)
     1.78318865E-08    2     1000039        12   # BR(~nu_e -> ~G nu_e)
DECAY   1000014     3.15509764E-01   # ~nu_mu
#    BR                NDA      ID1      ID2
     9.97168495E-01    2     1000022        14   # BR(~nu_mu -> chi^0_1 nu_mu)
     2.83148675E-03    2     2000013        24   # BR(~nu_mu -> ~mu^-_R W^+)
     1.77813099E-08    2     1000039        14   # BR(~nu_mu -> ~G nu_mu)
DECAY   1000016     5.67664504E-01   # ~nu_tau
#    BR                NDA      ID1      ID2
     5.49878463E-01    2     1000022        16   # BR(~nu_tau -> chi^0_1 nu_tau)
     4.50121527E-01    2     1000015        24   # BR(~nu_tau -> ~tau^-_1 W^+)
     9.79199832E-09    2     1000039        16   # BR(~nu_tau -> ~G nu_tau)
DECAY   2000001     1.25717597E+00   # ~d_R
#    BR                NDA      ID1      ID2
     9.88056108E-01    2     1000022         1   # BR(~d_R -> chi^0_1 d)
     1.11644994E-02    2     1000023         1   # BR(~d_R -> chi^0_2 d)
     4.15600809E-04    2     1000025         1   # BR(~d_R -> chi^0_3 d)
     3.61412167E-04    2     1000035         1   # BR(~d_R -> chi^0_4 d)
     1.09676647E-06    2    -1000024         2   # BR(~d_R -> chi^-_1 u)
     7.35669790E-09    2    -1000037         2   # BR(~d_R -> chi^-_2 u)
     1.27514488E-06    2     1000039         1   # BR(~d_R -> ~G d)
DECAY   1000001     2.15641402E+01   # ~d_L
#    BR                NDA      ID1      ID2
     1.71972367E-02    2     1000022         1   # BR(~d_L -> chi^0_1 d)
     2.80098231E-02    2     1000023         1   # BR(~d_L -> chi^0_2 d)
     4.08700592E-04    2     1000025         1   # BR(~d_L -> chi^0_3 d)
     2.98441708E-01    2     1000035         1   # BR(~d_L -> chi^0_4 d)
     5.32264290E-02    2    -1000024         2   # BR(~d_L -> chi^-_1 u)
     6.02716008E-01    2    -1000037         2   # BR(~d_L -> chi^-_2 u)
     5.03140644E-13    2     2000002       -24   # BR(~d_L -> ~u_R W^-)
     9.82382254E-11    2     2000001        23   # BR(~d_L -> ~d_R Z)
     9.39156795E-08    2     1000039         1   # BR(~d_L -> ~G d)
DECAY   2000003     1.25838195E+00   # ~s_R
#    BR                NDA      ID1      ID2
     9.87118976E-01    2     1000022         3   # BR(~s_R -> chi^0_1 s)
     1.13879567E-02    2     1000023         3   # BR(~s_R -> chi^0_2 s)
     6.42778442E-04    2     1000025         3   # BR(~s_R -> chi^0_3 s)
     3.62565735E-04    2     1000035         3   # BR(~s_R -> chi^0_4 s)
     4.83207686E-04    2    -1000024         4   # BR(~s_R -> chi^-_1 c)
     3.24128467E-06    2    -1000037         4   # BR(~s_R -> chi^-_2 c)
     1.27391094E-06    2     1000039         3   # BR(~s_R -> ~G s)
DECAY   1000003     2.15651643E+01   # ~s_L
#    BR                NDA      ID1      ID2
     1.71962754E-02    2     1000022         3   # BR(~s_L -> chi^0_1 s)
     2.80205899E-02    2     1000023         3   # BR(~s_L -> chi^0_2 s)
     4.23369183E-04    2     1000025         3   # BR(~s_L -> chi^0_3 s)
     2.98428572E-01    2     1000035         3   # BR(~s_L -> chi^0_4 s)
     5.32407224E-02    2    -1000024         4   # BR(~s_L -> chi^-_1 c)
     6.02690244E-01    2    -1000037         4   # BR(~s_L -> chi^-_2 c)
     9.01628080E-08    2     2000004       -24   # BR(~s_L -> ~c_R W^-)
     4.33236427E-08    2     2000003        23   # BR(~s_L -> ~s_R Z)
     9.39105739E-08    2     1000039         3   # BR(~s_L -> ~G s)
DECAY   1000005     5.28999926E+00   # ~b_1
#    BR                NDA      ID1      ID2
     2.44454158E-01    2     1000022         5   # BR(~b_1 -> chi^0_1 b)
     1.53346929E-01    2     1000023         5   # BR(~b_1 -> chi^0_2 b)
     1.16093264E-01    2     1000025         5   # BR(~b_1 -> chi^0_3 b)
     1.22637786E-02    2     1000035         5   # BR(~b_1 -> chi^0_4 b)
     4.30093077E-01    2    -1000024         6   # BR(~b_1 -> chi^-_1 t)
     4.21932368E-02    2    -1000037         6   # BR(~b_1 -> chi^-_2 t)
     1.55526004E-03    2     1000006       -24   # BR(~b_1 -> ~t_1 W^-)
     2.96268837E-07    2     1000039         5   # BR(~b_1 -> ~G b)
DECAY   2000005     4.62258718E+01   # ~b_2
#    BR                NDA      ID1      ID2
     7.03376840E-03    2     1000022         5   # BR(~b_2 -> chi^0_1 b)
     2.12466366E-02    2     1000023         5   # BR(~b_2 -> chi^0_2 b)
     1.51963348E-02    2     1000025         5   # BR(~b_2 -> chi^0_3 b)
     1.30605583E-01    2     1000035         5   # BR(~b_2 -> chi^0_4 b)
     4.93092331E-01    2    -1000024         6   # BR(~b_2 -> chi^-_1 t)
     3.22726642E-01    2    -1000037         6   # BR(~b_2 -> chi^-_2 t)
     1.00986675E-02    2     1000006       -24   # BR(~b_2 -> ~t_1 W^-)
     3.64633389E-08    2     1000039         5   # BR(~b_2 -> ~G b)
DECAY   2000002     5.05099889E+00   # ~u_R
#    BR                NDA      ID1      ID2
     9.88044985E-01    2     1000022         2   # BR(~u_R -> chi^0_1 u)
     1.11767825E-02    2     1000023         2   # BR(~u_R -> chi^0_2 u)
     4.15597006E-04    2     1000025         2   # BR(~u_R -> chi^0_3 u)
     3.62312188E-04    2     1000035         2   # BR(~u_R -> chi^0_4 u)
     5.29956279E-10    2     1000024         1   # BR(~u_R -> chi^+_1 d)
     6.12745818E-12    2     1000037         1   # BR(~u_R -> chi^+_2 d)
     3.23291956E-07    2     1000039         2   # BR(~u_R -> ~G u)
DECAY   1000002     2.16211260E+01   # ~u_L
#    BR                NDA      ID1      ID2
     1.33243080E-02    2     1000022         2   # BR(~u_L -> chi^0_1 u)
     3.74211080E-02    2     1000023         2   # BR(~u_L -> chi^0_2 u)
     2.27828748E-04    2     1000025         2   # BR(~u_L -> chi^0_3 u)
     2.92186127E-01    2     1000035         2   # BR(~u_L -> chi^0_4 u)
     7.73867182E-02    2     1000024         1   # BR(~u_L -> chi^+_1 d)
     5.79453816E-01    2     1000037         1   # BR(~u_L -> chi^+_2 d)
     3.01989291E-10    2     2000001        24   # BR(~u_L -> ~d_R W^+)
     9.48140478E-14    2     2000002        23   # BR(~u_L -> ~u_R Z)
     9.34250789E-08    2     1000039         2   # BR(~u_L -> ~G u)
DECAY   2000004     5.05194154E+00   # ~c_R
#    BR                NDA      ID1      ID2
     9.87858555E-01    2     1000022         4   # BR(~c_R -> chi^0_1 c)
     1.12204035E-02    2     1000023         4   # BR(~c_R -> chi^0_2 c)
     4.61951139E-04    2     1000025         4   # BR(~c_R -> chi^0_3 c)
     3.62713092E-04    2     1000035         4   # BR(~c_R -> chi^0_4 c)
     9.49561846E-05    2     1000024         3   # BR(~c_R -> chi^+_1 s)
     1.09790653E-06    2     1000037         3   # BR(~c_R -> chi^+_2 s)
     3.23229071E-07    2     1000039         4   # BR(~c_R -> ~G c)
DECAY   1000004     2.16221549E+01   # ~c_L
#    BR                NDA      ID1      ID2
     1.33237701E-02    2     1000022         4   # BR(~c_L -> chi^0_1 c)
     3.74277657E-02    2     1000023         4   # BR(~c_L -> chi^0_2 c)
     2.38986937E-04    2     1000025         4   # BR(~c_L -> chi^0_3 c)
     2.92173813E-01    2     1000035         4   # BR(~c_L -> chi^0_4 c)
     7.74068879E-02    2     1000024         3   # BR(~c_L -> chi^+_1 s)
     5.79428533E-01    2     1000037         3   # BR(~c_L -> chi^+_2 s)
     1.33176919E-07    2     2000003        24   # BR(~c_L -> ~s_R W^+)
     1.69906742E-08    2     2000004        23   # BR(~c_L -> ~c_R Z)
     9.34199094E-08    2     1000039         4   # BR(~c_L -> ~G c)
DECAY   1000006     4.99467276E+01   # ~t_1
#    BR                NDA      ID1      ID2
     3.03011306E-06    2     1000022         4   # BR(~t_1 -> chi^0_1 c)
     9.23231242E-02    2     1000022         6   # BR(~t_1 -> chi^0_1 t)
     8.17675197E-06    2     1000023         4   # BR(~t_1 -> chi^0_2 c)
     2.11035168E-01    2     1000023         6   # BR(~t_1 -> chi^0_2 t)
     2.31500209E-01    2     1000025         6   # BR(~t_1 -> chi^0_3 t)
     8.97503027E-03    2     1000035         6   # BR(~t_1 -> chi^0_4 t)
     4.37741523E-01    2     1000024         5   # BR(~t_1 -> chi^+_1 b)
     1.84060984E-02    2     1000037         5   # BR(~t_1 -> chi^+_2 b)
     2.14509511E-08    2     1000039         6   # BR(~t_1 -> ~G t)
#    BR                NDA      ID1      ID2       ID3
     7.61915041E-06    3     1000022        24         5   # BR(~t_1 -> chi^0_1 W^+ b)
DECAY   2000006     4.77679692E+01   # ~t_2
#    BR                NDA      ID1      ID2
     6.83370236E-03    2     1000022         6   # BR(~t_2 -> chi^0_1 t)
     2.42470603E-01    2     1000023         6   # BR(~t_2 -> chi^0_2 t)
     2.65339209E-01    2     1000025         6   # BR(~t_2 -> chi^0_3 t)
     1.68440837E-01    2     1000035         6   # BR(~t_2 -> chi^0_4 t)
     3.25285004E-02    2     1000024         5   # BR(~t_2 -> chi^+_1 b)
     2.75185166E-01    2     1000037         5   # BR(~t_2 -> chi^+_2 b)
     5.26409654E-03    2     1000006        23   # BR(~t_2 -> ~t_1 Z)
     3.93785096E-03    2     1000006        25   # BR(~t_2 -> ~t_1 h^0)
     3.50321722E-08    2     1000039         6   # BR(~t_2 -> ~G t)
DECAY   1000024     5.15716886E-01   # chi^+_1
#    BR                NDA      ID1      ID2
     1.76029967E-08    2    -2000011        12   # BR(chi^+_1 -> ~e^+_R nu_e)
     1.82380064E-03    2    -1000011        12   # BR(chi^+_1 -> ~e^+_L nu_e)
     7.52626128E-04    2    -2000013        14   # BR(chi^+_1 -> ~mu^+_R nu_mu)
     1.82361462E-03    2    -1000013        14   # BR(chi^+_1 -> ~mu^+_L nu_mu)
     2.16748826E-01    2    -1000015        16   # BR(chi^+_1 -> ~tau^+_1 nu_tau)
     1.76897488E-03    2    -2000015        16   # BR(chi^+_1 -> ~tau^+_2 nu_tau)
     3.65355389E-03    2     1000012       -11   # BR(chi^+_1 -> ~nu_e e^+)
     3.66221521E-03    2     1000014       -13   # BR(chi^+_1 -> ~nu_mu mu^+)
     6.29059946E-03    2     1000016       -15   # BR(chi^+_1 -> ~nu_tau tau^+)
     7.62686785E-01    2     1000022        24   # BR(chi^+_1 -> chi^0_1 W^+)
#    BR                NDA      ID1      ID2       ID3
     8.83580722E-09    3     1000022        -1         2   # BR(chi^+_1 -> chi^0_1 d_bar u)
     9.11195877E-09    3     1000022        -3         4   # BR(chi^+_1 -> chi^0_1 s_bar c)
     7.79121793E-04    3     1000022        -5         6   # BR(chi^+_1 -> chi^0_1 b_bar t)
     8.49885829E-13    3     1000022       -11        12   # BR(chi^+_1 -> chi^0_1 e^+ nu_e)
     3.63290397E-08    3     1000022       -13        14   # BR(chi^+_1 -> chi^0_1 mu^+ nu_mu)
     9.81056658E-06    3     1000022       -15        16   # BR(chi^+_1 -> chi^0_1 tau^+ nu_tau)
DECAY   1000037     7.58319139E+00   # chi^+_2
#    BR                NDA      ID1      ID2
     8.84966189E-12    2    -2000011        12   # BR(chi^+_2 -> ~e^+_R nu_e)
     8.55169432E-02    2    -1000011        12   # BR(chi^+_2 -> ~e^+_L nu_e)
     3.78413616E-07    2    -2000013        14   # BR(chi^+_2 -> ~mu^+_R nu_mu)
     8.55197590E-02    2    -1000013        14   # BR(chi^+_2 -> ~mu^+_L nu_mu)
     1.12310228E-04    2    -1000015        16   # BR(chi^+_2 -> ~tau^+_1 nu_tau)
     8.63170544E-02    2    -2000015        16   # BR(chi^+_2 -> ~tau^+_2 nu_tau)
     8.52757111E-02    2     1000012       -11   # BR(chi^+_2 -> ~nu_e e^+)
     8.52797618E-02    2     1000014       -13   # BR(chi^+_2 -> ~nu_mu mu^+)
     8.64257691E-02    2     1000016       -15   # BR(chi^+_2 -> ~nu_tau tau^+)
     1.96906618E-03    2     1000022        24   # BR(chi^+_2 -> chi^0_1 W^+)
     1.37283569E-01    2     1000023        24   # BR(chi^+_2 -> chi^0_2 W^+)
     1.11601597E-01    2     1000025        24   # BR(chi^+_2 -> chi^0_3 W^+)
     1.31374879E-01    2     1000024        23   # BR(chi^+_2 -> chi^+_1 Z)
     1.03293246E-01    2     1000024        25   # BR(chi^+_2 -> chi^+_1 h^0)
#    BR                NDA      ID1      ID2       ID3
     2.99410320E-09    3     1000024         2        -2   # BR(chi^+_2 -> chi^+_1 u u_bar)
     2.99201454E-09    3     1000024         4        -4   # BR(chi^+_2 -> chi^+_1 c c_bar)
     4.22459613E-09    3     1000024         1        -1   # BR(chi^+_2 -> chi^+_1 d d_bar)
     4.25987217E-09    3     1000024         3        -3   # BR(chi^+_2 -> chi^+_1 s s_bar)
     8.69680791E-08    3     1000024         5        -5   # BR(chi^+_2 -> chi^+_1 b b_bar)
     1.10502021E-06    3     1000024        11       -11   # BR(chi^+_2 -> chi^+_1 e^- e^+)
     1.10663239E-06    3     1000024        13       -13   # BR(chi^+_2 -> chi^+_1 mu^- mu^+)
     1.52771812E-06    3     1000024        15       -15   # BR(chi^+_2 -> chi^+_1 tau^- tau^+)
     2.50664092E-06    3     1000024        12       -12   # BR(chi^+_2 -> chi^+_1 nu_e nu_bar_e)
     8.11256589E-08    3     1000022        -1         2   # BR(chi^+_2 -> chi^0_1 d_bar u)
     8.11215287E-08    3     1000022        -3         4   # BR(chi^+_2 -> chi^0_1 s_bar c)
     1.29338710E-05    3     1000022        -5         6   # BR(chi^+_2 -> chi^0_1 b_bar t)
     7.14902891E-11    3     1000022       -13        14   # BR(chi^+_2 -> chi^0_1 mu^+ nu_mu)
     2.03206101E-08    3     1000022       -15        16   # BR(chi^+_2 -> chi^0_1 tau^+ nu_tau)
     1.75511477E-09    3     1000023        -1         2   # BR(chi^+_2 -> chi^0_2 d_bar u)
     1.77454271E-09    3     1000023        -3         4   # BR(chi^+_2 -> chi^0_2 s_bar c)
     7.51836149E-06    3     1000023        -5         6   # BR(chi^+_2 -> chi^0_2 b_bar t)
     6.26986150E-07    3     1000023       -11        12   # BR(chi^+_2 -> chi^0_2 e^+ nu_e)
     6.27695018E-07    3     1000023       -13        14   # BR(chi^+_2 -> chi^0_2 mu^+ nu_mu)
     7.95198060E-07    3     1000023       -15        16   # BR(chi^+_2 -> chi^0_2 tau^+ nu_tau)
     3.41384901E-11    3     1000025        -1         2   # BR(chi^+_2 -> chi^0_3 d_bar u)
     4.48265689E-11    3     1000025        -3         4   # BR(chi^+_2 -> chi^0_3 s_bar c)
     7.54063622E-07    3     1000025        -5         6   # BR(chi^+_2 -> chi^0_3 b_bar t)
     7.00890362E-09    3     1000025       -11        12   # BR(chi^+_2 -> chi^0_3 e^+ nu_e)
     7.52895264E-09    3     1000025       -13        14   # BR(chi^+_2 -> chi^0_3 mu^+ nu_mu)
     1.51418050E-07    3     1000025       -15        16   # BR(chi^+_2 -> chi^0_3 tau^+ nu_tau)
DECAY   1000022     1.65223025E+00   # chi^0_1
#    BR                NDA      ID1      ID2
     1.61912524E-01    2     2000011       -11   # BR(chi^0_1 -> ~e^-_R e^+)
     1.61912524E-01    2    -2000011        11   # BR(chi^0_1 -> ~e^+_R e^-)
     1.61961793E-01    2     2000013       -13   # BR(chi^0_1 -> ~mu^-_R mu^+)
     1.61961793E-01    2    -2000013        13   # BR(chi^0_1 -> ~mu^+_R mu^-)
     1.76125682E-01    2     1000015       -15   # BR(chi^0_1 -> ~tau^-_1 tau^+)
     1.76125682E-01    2    -1000015        15   # BR(chi^0_1 -> ~tau^+_1 tau^-)
     3.35492088E-10    2     1000039        22   # BR(chi^0_1 -> ~G photon)
     9.97005825E-11    2     1000039        23   # BR(chi^0_1 -> ~G Z)
     2.37489681E-12    2     1000039        25   # BR(chi^0_1 -> ~G h^0)
DECAY   1000023     6.55831748E-01   # chi^0_2
#    BR                NDA      ID1      ID2
     2.46178927E-02    2     2000011       -11   # BR(chi^0_2 -> ~e^-_R e^+)
     2.46178927E-02    2    -2000011        11   # BR(chi^0_2 -> ~e^+_R e^-)
     1.55903119E-03    2     1000011       -11   # BR(chi^0_2 -> ~e^-_L e^+)
     1.55903119E-03    2    -1000011        11   # BR(chi^0_2 -> ~e^+_L e^-)
     2.49076733E-02    2     2000013       -13   # BR(chi^0_2 -> ~mu^-_R mu^+)
     2.49076733E-02    2    -2000013        13   # BR(chi^0_2 -> ~mu^+_R mu^-)
     1.56168361E-03    2     1000013       -13   # BR(chi^0_2 -> ~mu^-_L mu^+)
     1.56168361E-03    2    -1000013        13   # BR(chi^0_2 -> ~mu^+_L mu^-)
     1.08279410E-01    2     1000015       -15   # BR(chi^0_2 -> ~tau^-_1 tau^+)
     1.08279410E-01    2    -1000015        15   # BR(chi^0_2 -> ~tau^+_1 tau^-)
     2.33729090E-03    2     2000015       -15   # BR(chi^0_2 -> ~tau^-_2 tau^+)
     2.33729090E-03    2    -2000015        15   # BR(chi^0_2 -> ~tau^+_2 tau^-)
     8.54682345E-04    2     1000012       -12   # BR(chi^0_2 -> ~nu_e nu_bar_e)
     8.54682345E-04    2    -1000012        12   # BR(chi^0_2 -> ~nu^*_e nu_e)
     8.54936861E-04    2     1000014       -14   # BR(chi^0_2 -> ~nu_mu nu_bar_mu)
     8.54936861E-04    2    -1000014        14   # BR(chi^0_2 -> ~nu^*_mu nu_mu)
     9.28061725E-04    2     1000016       -16   # BR(chi^0_2 -> ~nu_tau nu_bar_tau)
     9.28061725E-04    2    -1000016        16   # BR(chi^0_2 -> ~nu^*_tau nu_tau)
     2.76490578E-02    2     1000022        23   # BR(chi^0_2 -> chi^0_1 Z)
     6.40529285E-01    2     1000022        25   # BR(chi^0_2 -> chi^0_1 h^0)
     6.34766936E-10    2     1000039        22   # BR(chi^0_2 -> ~G photon)
     2.51057296E-10    2     1000039        23   # BR(chi^0_2 -> ~G Z)
     5.34760302E-09    2     1000039        25   # BR(chi^0_2 -> ~G h^0)
     7.09506899E-07    2     1000022        22   # BR(chi^0_2 -> chi^0_1 photon)
#    BR                NDA      ID1      ID2       ID3
     9.79254630E-09    3     1000022         2        -2   # BR(chi^0_2 -> chi^0_1 u u_bar)
     9.80406576E-09    3     1000022         4        -4   # BR(chi^0_2 -> chi^0_1 c c_bar)
     3.95489370E-09    3     1000022         1        -1   # BR(chi^0_2 -> chi^0_1 d d_bar)
     4.25020034E-09    3     1000022         3        -3   # BR(chi^0_2 -> chi^0_1 s s_bar)
     6.68583394E-07    3     1000022         5        -5   # BR(chi^0_2 -> chi^0_1 b b_bar)
     3.89944665E-06    3     1000022        11       -11   # BR(chi^0_2 -> chi^0_1 e^- e^+)
     3.92667088E-06    3     1000022        13       -13   # BR(chi^0_2 -> chi^0_1 mu^- mu^+)
     1.10938255E-05    3     1000022        15       -15   # BR(chi^0_2 -> chi^0_1 tau^- tau^+)
     6.31711792E-11    3     1000024         1        -2   # BR(chi^0_2 -> chi^+_1 d u_bar)
     6.31711792E-11    3    -1000024        -1         2   # BR(chi^0_2 -> chi^-_1 d_bar u)
     1.63887748E-11    3     1000024         3        -4   # BR(chi^0_2 -> chi^+_1 s c_bar)
     1.63887748E-11    3    -1000024        -3         4   # BR(chi^0_2 -> chi^-_1 s_bar c)
     2.05786942E-11    3     1000024        11       -12   # BR(chi^0_2 -> chi^+_1 e^- nu_bar_e)
     2.05786942E-11    3    -1000024       -11        12   # BR(chi^0_2 -> chi^-_1 e^+ nu_e)
     2.03892519E-11    3     1000024        13       -14   # BR(chi^0_2 -> chi^+_1 mu^- nu_bar_mu)
     2.03892519E-11    3    -1000024       -13        14   # BR(chi^0_2 -> chi^-_1 mu^+ nu_mu)
     1.04105542E-12    3     1000024        15       -16   # BR(chi^0_2 -> chi^+_1 tau^- nu_bar_tau)
     1.04105542E-12    3    -1000024       -15        16   # BR(chi^0_2 -> chi^-_1 tau^+ nu_tau)
DECAY   1000025     5.68414726E-01   # chi^0_3
#    BR                NDA      ID1      ID2
     1.11568137E-03    2     2000011       -11   # BR(chi^0_3 -> ~e^-_R e^+)
     1.11568137E-03    2    -2000011        11   # BR(chi^0_3 -> ~e^+_R e^-)
     9.06119750E-06    2     1000011       -11   # BR(chi^0_3 -> ~e^-_L e^+)
     9.06119750E-06    2    -1000011        11   # BR(chi^0_3 -> ~e^+_L e^-)
     1.45529208E-03    2     2000013       -13   # BR(chi^0_3 -> ~mu^-_R mu^+)
     1.45529208E-03    2    -2000013        13   # BR(chi^0_3 -> ~mu^+_R mu^-)
     1.57281014E-05    2     1000013       -13   # BR(chi^0_3 -> ~mu^-_L mu^+)
     1.57281014E-05    2    -1000013        13   # BR(chi^0_3 -> ~mu^+_L mu^-)
     9.90603127E-02    2     1000015       -15   # BR(chi^0_3 -> ~tau^-_1 tau^+)
     9.90603127E-02    2    -1000015        15   # BR(chi^0_3 -> ~tau^+_1 tau^-)
     1.96139431E-03    2     2000015       -15   # BR(chi^0_3 -> ~tau^-_2 tau^+)
     1.96139431E-03    2    -2000015        15   # BR(chi^0_3 -> ~tau^+_2 tau^-)
     6.96402302E-05    2     1000012       -12   # BR(chi^0_3 -> ~nu_e nu_bar_e)
     6.96402302E-05    2    -1000012        12   # BR(chi^0_3 -> ~nu^*_e nu_e)
     6.96538841E-05    2     1000014       -14   # BR(chi^0_3 -> ~nu_mu nu_bar_mu)
     6.96538841E-05    2    -1000014        14   # BR(chi^0_3 -> ~nu^*_mu nu_mu)
     7.35491771E-05    2     1000016       -16   # BR(chi^0_3 -> ~nu_tau nu_bar_tau)
     7.35491771E-05    2    -1000016        16   # BR(chi^0_3 -> ~nu^*_tau nu_tau)
     7.65182067E-01    2     1000022        23   # BR(chi^0_3 -> chi^0_1 Z)
     2.71336423E-02    2     1000022        25   # BR(chi^0_3 -> chi^0_1 h^0)
     2.97226991E-13    2     1000039        22   # BR(chi^0_3 -> ~G photon)
     1.16321768E-09    2     1000039        23   # BR(chi^0_3 -> ~G Z)
     5.80905665E-09    2     1000039        25   # BR(chi^0_3 -> ~G h^0)
     8.45312642E-07    2     1000022        22   # BR(chi^0_3 -> chi^0_1 photon)
     2.47180373E-09    2     1000023        22   # BR(chi^0_3 -> chi^0_2 photon)
#    BR                NDA      ID1      ID2       ID3
     1.33558019E-10    3     1000022         2        -2   # BR(chi^0_3 -> chi^0_1 u u_bar)
     1.61861285E-10    3     1000022         4        -4   # BR(chi^0_3 -> chi^0_1 c c_bar)
     3.66410123E-11    3     1000022         1        -1   # BR(chi^0_3 -> chi^0_1 d d_bar)
     4.61486608E-10    3     1000022         3        -3   # BR(chi^0_3 -> chi^0_1 s s_bar)
     9.54771393E-07    3     1000022         5        -5   # BR(chi^0_3 -> chi^0_1 b b_bar)
     7.66019221E-08    3     1000022        11       -11   # BR(chi^0_3 -> chi^0_1 e^- e^+)
     1.15270333E-07    3     1000022        13       -13   # BR(chi^0_3 -> chi^0_1 mu^- mu^+)
     1.05591168E-05    3     1000022        15       -15   # BR(chi^0_3 -> chi^0_1 tau^- tau^+)
     2.26212247E-07    3     1000023         2        -2   # BR(chi^0_3 -> chi^0_2 u u_bar)
     2.18048650E-07    3     1000023         4        -4   # BR(chi^0_3 -> chi^0_2 c c_bar)
     2.93616692E-07    3     1000023         1        -1   # BR(chi^0_3 -> chi^0_2 d d_bar)
     2.93521408E-07    3     1000023         3        -3   # BR(chi^0_3 -> chi^0_2 s s_bar)
     1.61450658E-07    3     1000023         5        -5   # BR(chi^0_3 -> chi^0_2 b b_bar)
     6.75378383E-08    3     1000023        11       -11   # BR(chi^0_3 -> chi^0_2 e^- e^+)
     6.75225980E-08    3     1000023        13       -13   # BR(chi^0_3 -> chi^0_2 mu^- mu^+)
     6.28749188E-08    3     1000023        15       -15   # BR(chi^0_3 -> chi^0_2 tau^- tau^+)
     4.03808091E-07    3     1000023        12       -12   # BR(chi^0_3 -> chi^0_2 nu_e nu_bar_e)
     1.57045593E-06    3     1000024         1        -2   # BR(chi^0_3 -> chi^+_1 d u_bar)
     1.57045593E-06    3    -1000024        -1         2   # BR(chi^0_3 -> chi^-_1 d_bar u)
     1.53647769E-06    3     1000024         3        -4   # BR(chi^0_3 -> chi^+_1 s c_bar)
     1.53647769E-06    3    -1000024        -3         4   # BR(chi^0_3 -> chi^-_1 s_bar c)
     5.22977715E-07    3     1000024        11       -12   # BR(chi^0_3 -> chi^+_1 e^- nu_bar_e)
     5.22977715E-07    3    -1000024       -11        12   # BR(chi^0_3 -> chi^-_1 e^+ nu_e)
     5.22973739E-07    3     1000024        13       -14   # BR(chi^0_3 -> chi^+_1 mu^- nu_bar_mu)
     5.22973739E-07    3    -1000024       -13        14   # BR(chi^0_3 -> chi^-_1 mu^+ nu_mu)
     5.01332977E-07    3     1000024        15       -16   # BR(chi^0_3 -> chi^+_1 tau^- nu_bar_tau)
     5.01332977E-07    3    -1000024       -15        16   # BR(chi^0_3 -> chi^-_1 tau^+ nu_tau)
DECAY   1000035     7.59043292E+00   # chi^0_4
#    BR                NDA      ID1      ID2
     1.24867933E-04    2     2000011       -11   # BR(chi^0_4 -> ~e^-_R e^+)
     1.24867933E-04    2    -2000011        11   # BR(chi^0_4 -> ~e^+_R e^-)
     4.07930615E-02    2     1000011       -11   # BR(chi^0_4 -> ~e^-_L e^+)
     4.07930615E-02    2    -1000011        11   # BR(chi^0_4 -> ~e^+_L e^-)
     1.24979583E-04    2     2000013       -13   # BR(chi^0_4 -> ~mu^-_R mu^+)
     1.24979583E-04    2    -2000013        13   # BR(chi^0_4 -> ~mu^+_R mu^-)
     4.07949250E-02    2     1000013       -13   # BR(chi^0_4 -> ~mu^-_L mu^+)
     4.07949250E-02    2    -1000013        13   # BR(chi^0_4 -> ~mu^+_L mu^-)
     1.61025960E-04    2     1000015       -15   # BR(chi^0_4 -> ~tau^-_1 tau^+)
     1.61025960E-04    2    -1000015        15   # BR(chi^0_4 -> ~tau^+_1 tau^-)
     4.13223781E-02    2     2000015       -15   # BR(chi^0_4 -> ~tau^-_2 tau^+)
     4.13223781E-02    2    -2000015        15   # BR(chi^0_4 -> ~tau^+_2 tau^-)
     4.44495234E-02    2     1000012       -12   # BR(chi^0_4 -> ~nu_e nu_bar_e)
     4.44495234E-02    2    -1000012        12   # BR(chi^0_4 -> ~nu^*_e nu_e)
     4.44511220E-02    2     1000014       -14   # BR(chi^0_4 -> ~nu_mu nu_bar_mu)
     4.44511220E-02    2    -1000014        14   # BR(chi^0_4 -> ~nu^*_mu nu_mu)
     4.49021114E-02    2     1000016       -16   # BR(chi^0_4 -> ~nu_tau nu_bar_tau)
     4.49021114E-02    2    -1000016        16   # BR(chi^0_4 -> ~nu^*_tau nu_tau)
     1.37603020E-01    2     1000024       -24   # BR(chi^0_4 -> chi^+_1 W^-)
     1.37603020E-01    2    -1000024        24   # BR(chi^0_4 -> chi^-_1 W^+)
     2.09882945E-04    2     1000022        23   # BR(chi^0_4 -> chi^0_1 Z)
     1.57123445E-03    2     1000023        23   # BR(chi^0_4 -> chi^0_2 Z)
     1.02510177E-01    2     1000025        23   # BR(chi^0_4 -> chi^0_3 Z)
     2.11230169E-03    2     1000022        25   # BR(chi^0_4 -> chi^0_1 h^0)
     1.03499339E-01    2     1000023        25   # BR(chi^0_4 -> chi^0_2 h^0)
     6.13059282E-04    2     1000025        25   # BR(chi^0_4 -> chi^0_3 h^0)
     6.00281222E-10    2     1000039        22   # BR(chi^0_4 -> ~G photon)
     2.67913847E-09    2     1000039        23   # BR(chi^0_4 -> ~G Z)
     1.68893487E-10    2     1000039        25   # BR(chi^0_4 -> ~G h^0)
     2.12375385E-07    2     1000022        22   # BR(chi^0_4 -> chi^0_1 photon)
     8.04914257E-07    2     1000023        22   # BR(chi^0_4 -> chi^0_2 photon)
     8.67420267E-07    2     1000025        22   # BR(chi^0_4 -> chi^0_3 photon)
#    BR                NDA      ID1      ID2       ID3
     3.53806578E-08    3     1000022         2        -2   # BR(chi^0_4 -> chi^0_1 u u_bar)
     3.53764348E-08    3     1000022         4        -4   # BR(chi^0_4 -> chi^0_1 c c_bar)
     1.62682805E-06    3     1000022         6        -6   # BR(chi^0_4 -> chi^0_1 t t_bar)
     4.59176981E-08    3     1000022         1        -1   # BR(chi^0_4 -> chi^0_1 d d_bar)
     4.59177175E-08    3     1000022         3        -3   # BR(chi^0_4 -> chi^0_1 s s_bar)
     5.31402628E-08    3     1000022         5        -5   # BR(chi^0_4 -> chi^0_1 b b_bar)
     6.99041913E-08    3     1000022        11       -11   # BR(chi^0_4 -> chi^0_1 e^- e^+)
     6.99174965E-08    3     1000022        13       -13   # BR(chi^0_4 -> chi^0_1 mu^- mu^+)
     7.46719317E-08    3     1000022        15       -15   # BR(chi^0_4 -> chi^0_1 tau^- tau^+)
     2.90658063E-09    3     1000023         2        -2   # BR(chi^0_4 -> chi^0_2 u u_bar)
     2.90423192E-09    3     1000023         4        -4   # BR(chi^0_4 -> chi^0_2 c c_bar)
     2.20143153E-09    3     1000023         1        -1   # BR(chi^0_4 -> chi^0_2 d d_bar)
     2.21624967E-09    3     1000023         3        -3   # BR(chi^0_4 -> chi^0_2 s s_bar)
     3.61374775E-08    3     1000023         5        -5   # BR(chi^0_4 -> chi^0_2 b b_bar)
     9.55194210E-07    3     1000023        11       -11   # BR(chi^0_4 -> chi^0_2 e^- e^+)
     9.55913265E-07    3     1000023        13       -13   # BR(chi^0_4 -> chi^0_2 mu^- mu^+)
     1.11686916E-06    3     1000023        15       -15   # BR(chi^0_4 -> chi^0_2 tau^- tau^+)
     1.12505704E-06    3     1000023        12       -12   # BR(chi^0_4 -> chi^0_2 nu_e nu_bar_e)
     4.13380342E-12    3     1000025         2        -2   # BR(chi^0_4 -> chi^0_3 u u_bar)
     4.44890663E-12    3     1000025         4        -4   # BR(chi^0_4 -> chi^0_3 c c_bar)
     7.53106343E-12    3     1000025         1        -1   # BR(chi^0_4 -> chi^0_3 d d_bar)
     2.04255712E-11    3     1000025         3        -3   # BR(chi^0_4 -> chi^0_3 s s_bar)
     2.92919078E-08    3     1000025         5        -5   # BR(chi^0_4 -> chi^0_3 b b_bar)
     4.34279805E-10    3     1000025        11       -11   # BR(chi^0_4 -> chi^0_3 e^- e^+)
     9.08666091E-10    3     1000025        13       -13   # BR(chi^0_4 -> chi^0_3 mu^- mu^+)
     1.32356769E-07    3     1000025        15       -15   # BR(chi^0_4 -> chi^0_3 tau^- tau^+)
     7.97231222E-09    3     1000025        12       -12   # BR(chi^0_4 -> chi^0_3 nu_e nu_bar_e)
     1.85369716E-09    3     1000024         1        -2   # BR(chi^0_4 -> chi^+_1 d u_bar)
     1.85369716E-09    3    -1000024        -1         2   # BR(chi^0_4 -> chi^-_1 d_bar u)
     1.87345044E-09    3     1000024         3        -4   # BR(chi^0_4 -> chi^+_1 s c_bar)
     1.87345044E-09    3    -1000024        -3         4   # BR(chi^0_4 -> chi^-_1 s_bar c)
     8.85440621E-06    3     1000024         5        -6   # BR(chi^0_4 -> chi^+_1 b t_bar)
     8.85440621E-06    3    -1000024        -5         6   # BR(chi^0_4 -> chi^-_1 b_bar t)
     5.99340307E-07    3     1000024        11       -12   # BR(chi^0_4 -> chi^+_1 e^- nu_bar_e)
     5.99340307E-07    3    -1000024       -11        12   # BR(chi^0_4 -> chi^-_1 e^+ nu_e)
     6.00039336E-07    3     1000024        13       -14   # BR(chi^0_4 -> chi^+_1 mu^- nu_bar_mu)
     6.00039336E-07    3    -1000024       -13        14   # BR(chi^0_4 -> chi^-_1 mu^+ nu_mu)
     7.72933036E-07    3     1000024        15       -16   # BR(chi^0_4 -> chi^+_1 tau^- nu_bar_tau)
     7.72933036E-07    3    -1000024       -15        16   # BR(chi^0_4 -> chi^-_1 tau^+ nu_tau)
DECAY   1000021     1.29922208E+01   # ~g
#    BR                NDA      ID1      ID2
     4.89005175E-02    2     2000002        -2   # BR(~g -> ~u_R u_bar)
     4.89005175E-02    2    -2000002         2   # BR(~g -> ~u^*_R u)
     1.30049265E-02    2     1000002        -2   # BR(~g -> ~u_L u_bar)
     1.30049265E-02    2    -1000002         2   # BR(~g -> ~u^*_L u)
     4.89003779E-02    2     2000004        -4   # BR(~g -> ~c_R c_bar)
     4.89003779E-02    2    -2000004         4   # BR(~g -> ~c^*_R c)
     1.30051976E-02    2     1000004        -4   # BR(~g -> ~c_L c_bar)
     1.30051976E-02    2    -1000004         4   # BR(~g -> ~c^*_L c)
     9.63301334E-05    2     1000006        -4   # BR(~g -> ~t_1 c_bar)
     9.63301334E-05    2    -1000006         4   # BR(~g -> ~t^*_1 c)
     1.25256198E-01    2     1000006        -6   # BR(~g -> ~t_1 t_bar)
     1.25256198E-01    2    -1000006         6   # BR(~g -> ~t^*_1 t)
     1.92355398E-02    2     2000006        -6   # BR(~g -> ~t_2 t_bar)
     1.92355398E-02    2    -2000006         6   # BR(~g -> ~t^*_2 t)
     5.29030586E-02    2     2000001        -1   # BR(~g -> ~d_R d_bar)
     5.29030586E-02    2    -2000001         1   # BR(~g -> ~d^*_R d)
     1.26953431E-02    2     1000001        -1   # BR(~g -> ~d_L d_bar)
     1.26953431E-02    2    -1000001         1   # BR(~g -> ~d^*_L d)
     5.29050465E-02    2     2000003        -3   # BR(~g -> ~s_R s_bar)
     5.29050465E-02    2    -2000003         3   # BR(~g -> ~s^*_R s)
     1.26961810E-02    2     1000003        -3   # BR(~g -> ~s_L s_bar)
     1.26961810E-02    2    -1000003         3   # BR(~g -> ~s^*_L s)
     5.75520537E-02    2     1000005        -5   # BR(~g -> ~b_1 b_bar)
     5.75520537E-02    2    -1000005         5   # BR(~g -> ~b^*_1 b)
     4.26688352E-02    2     2000005        -5   # BR(~g -> ~b_2 b_bar)
     4.26688352E-02    2    -2000005         5   # BR(~g -> ~b^*_2 b)
     4.02232894E-06    2     1000022        21   # BR(~g -> chi^0_1 g)
     1.53232454E-04    2     1000023        21   # BR(~g -> chi^0_2 g)
     1.78297222E-04    2     1000025        21   # BR(~g -> chi^0_3 g)
     2.52365240E-05    2     1000035        21   # BR(~g -> chi^0_4 g)
DECAY        25     2.76211588E-03   # h^0
#    BR                NDA      ID1      ID2
     8.52373856E-09    2          11       -11   # BR(h^0 -> e^- e^+)
     3.64409553E-04    2          13       -13   # BR(h^0 -> mu^- mu^+)
     1.02730260E-01    2          15       -15   # BR(h^0 -> tau^- tau^+)
     6.82688524E-07    2           1        -1   # BR(h^0 -> d d_bar)
     3.01064797E-04    2           3        -3   # BR(h^0 -> s s_bar)
     6.48992041E-01    2           5        -5   # BR(h^0 -> b b_bar)
     2.40105036E-07    2           2        -2   # BR(h^0 -> u u_bar)
     4.30206712E-02    2           4        -4   # BR(h^0 -> c c_bar)
     6.41398358E-02    2          21        21   # BR(h^0 -> g g)
     3.09223906E-03    2          22        22   # BR(h^0 -> photon photon)
# writing decays into V V* as 3-body decays
#    BR                NDA      ID1      ID2       ID3
     6.29900774E-03    3          24        11        12   # BR(h^0 -> W^+ e^- nu_e)
     6.29900774E-03    3          24        13        14   # BR(h^0 -> W^+ mu^- nu_mu)
     6.29900774E-03    3          24        15        16   # BR(h^0 -> W^+ tau^- nu_tau)
     2.20465271E-02    3          24         1        -2   # BR(h^0 -> W^+ d u_bar)
     2.20465271E-02    3          24         3        -4   # BR(h^0 -> W^+ s c_bar)
     6.29900774E-03    3         -24       -11       -12   # BR(h^0 -> W^- e^+ nu_bar_e)
     6.29900774E-03    3         -24       -13       -14   # BR(h^0 -> W^- mu^+ nu_bar_mu)
     6.29900774E-03    3         -24       -15       -16   # BR(h^0 -> W^- tau^+ nu_bar_tau)
     2.20465271E-02    3         -24        -1         2   # BR(h^0 -> W^- d_bar u)
     2.20465271E-02    3         -24        -3         4   # BR(h^0 -> W^- s_bar c)
     3.98243747E-04    3          23        11       -11   # BR(h^0 -> Z e^- e^+)
     3.98243747E-04    3          23        13       -13   # BR(h^0 -> Z mu^- mu^+)
     3.41351783E-04    3          23        15       -15   # BR(h^0 -> Z tau^- tau^+)
     2.27567855E-03    3          23        12       -12   # BR(h^0 -> Z nu_e nu_bar_e)
     1.59297499E-03    3          23         1        -1   # BR(h^0 -> Z u u_bar)
     1.59297499E-03    3          23         3        -3   # BR(h^0 -> Z c c_bar)
     1.59297499E-03    3          23         5        -5   # BR(h^0 -> Z t t_bar)
     1.59297499E-03    3          23         2        -2   # BR(h^0 -> Z u u_bar)
     1.59297499E-03    3          23         4        -4   # BR(h^0 -> Z c c_bar)
DECAY        35     3.35023721E+00   # H^0
#    BR                NDA      ID1      ID2
     1.19483710E-08    2          11       -11   # BR(H^0 -> e^- e^+)
     5.10827626E-04    2          13       -13   # BR(H^0 -> mu^- mu^+)
     1.44572744E-01    2          15       -15   # BR(H^0 -> tau^- tau^+)
     7.92323619E-07    2           1        -1   # BR(H^0 -> d d_bar)
     3.49414542E-04    2           3        -3   # BR(H^0 -> s s_bar)
     7.80117714E-01    2           5        -5   # BR(H^0 -> b b_bar)
     7.67558599E-12    2           2        -2   # BR(H^0 -> u u_bar)
     1.37555198E-06    2           4        -4   # BR(H^0 -> c c_bar)
     7.00889565E-02    2           6        -6   # BR(H^0 -> t t_bar)
     2.10906323E-05    2     2000011  -2000011   # BR(H^0 -> ~e^-_R ~e^+_R)
     2.10840292E-05    2     2000013  -2000013   # BR(H^0 -> ~mu^-_R ~mu^+_R)
     1.91664703E-05    2     1000015  -1000015   # BR(H^0 -> ~tau^-_1 ~tau^+_1)
     2.78551740E-04    2     1000022   1000022   # BR(H^0 -> chi^0_1 chi^0_1)
     1.17661686E-03    2          23        23   # BR(H^0 -> Z Z)
     2.24421399E-03    2          24       -24   # BR(H^0 -> W^+ W^-)
     5.47156043E-04    2          25        25   # BR(H^0 -> h^0 h^0)
     4.99464523E-05    2          21        21   # BR(H^0 -> g g)
     3.37560078E-07    2          22        22   # BR(H^0 -> photon photon)
DECAY        36     3.34334657E+00   # A^0
#    BR                NDA      ID1      ID2
     1.19786657E-08    2          11       -11   # BR(A^0 -> e^- e^+)
     5.12122835E-04    2          13       -13   # BR(A^0 -> mu^- mu^+)
     1.44940873E-01    2          15       -15   # BR(A^0 -> tau^- tau^+)
     7.94331529E-07    2           1        -1   # BR(A^0 -> d d_bar)
     3.50300005E-04    2           3        -3   # BR(A^0 -> s s_bar)
     7.82100086E-01    2           5        -5   # BR(A^0 -> b b_bar)
     6.77070132E-12    2           2        -2   # BR(A^0 -> u u_bar)
     1.21338607E-06    2           4        -4   # BR(A^0 -> c c_bar)
     6.68343430E-02    2           6        -6   # BR(A^0 -> t t_bar)
     3.00849941E-03    2     1000022   1000022   # BR(A^0 -> chi^0_1 chi^0_1)
     2.20968624E-03    2          25        23   # BR(A^0 -> h^0 Z)
     4.18351724E-05    2          21        21   # BR(A^0 -> g g)
     2.34769643E-07    2          22        22   # BR(A^0 -> photon photon)
DECAY        37     2.87981059E+00   # H^+
#    BR                NDA      ID1      ID2
     1.39501218E-08    2         -11        12   # BR(H^+ -> e^+ nu_e)
     5.96408320E-04    2         -13        12   # BR(H^+ -> mu^+ nu_e)
     1.68795335E-01    2         -15        12   # BR(H^+ -> tau^+ nu_e)
     8.14425159E-07    2          -1         2   # BR(H^+ -> d_bar u)
     3.60401342E-04    2          -3         4   # BR(H^+ -> s_bar c)
     8.27716880E-01    2          -5         6   # BR(H^+ -> b_bar t)
     2.53014727E-03    2          25        24   # BR(H^+ -> h^0 W^+)
DECAY         6     2.43000000E+00   # top
#    BR                NDA      ID1      ID2
     1.00000000E+00    2           5        24   # BR(t -> b W)
Block HiggsBoundsInputHiggsCouplingsFermions
# ScalarNormEffCoupSq PseudoSNormEffCoupSq NP IP1 IP2 IP2
    1.13583365E+00    0.00000000E+00        3  25   5   5  # h0-b-b eff. coupling^2, normalised to SM
    2.24864166E+02    0.00000000E+00        3  35   5   5  # H0-b-b eff. coupling^2, normalised to SM
    0.00000000E+00    2.25000000E+02        3  36   5   5  # A0-b-b eff. coupling^2, normalised to SM
#
    9.99396295E-01    0.00000000E+00        3  25   6   6  # h0-t-t eff. coupling^2, normalised to SM
    5.04814954E-03    0.00000000E+00        3  35   6   6  # H0-t-t eff. coupling^2, normalised to SM
    0.00000000E+00    4.44444444E-03        3  36   6   6  # A0-t-t eff. coupling^2, normalised to SM
#
    1.13583365E+00    0.00000000E+00        3  25  15  15  # h0-tau-tau eff. coupling^2, normalised to SM
    2.24864166E+02    0.00000000E+00        3  35  15  15  # H0-tau-tau eff. coupling^2, normalised to SM
    0.00000000E+00    2.25000000E+02        3  36  15  15  # A0-tau-tau eff. coupling^2, normalised to SM
#
Block HiggsBoundsInputHiggsCouplingsBosons
    9.99980778E-01        3  25  24  24  # h0-W-W eff. coupling^2, normalised to SM
    1.92221314E-05        3  35  24  24  # H0-W-W eff. coupling^2, normalised to SM
    0.00000000E+00        3  36  24  24  # A0-W-W eff. coupling^2, normalised to SM
#
    9.99980778E-01        3  25  23  23  # h0-Z-Z eff. coupling^2, normalised to SM
    1.92221314E-05        3  35  23  23  # H0-Z-Z eff. coupling^2, normalised to SM
    0.00000000E+00        3  36  23  23  # A0-Z-Z eff. coupling^2, normalised to SM
#
    1.15939457E+00        3  25  21  21  # h0-g-g eff. coupling^2, normalised to SM
    4.32278340E-03        3  35  21  21  # H0-g-g eff. coupling^2, normalised to SM
    1.07021526E-01        3  36  21  21  # A0-g-g eff. coupling^2, normalised to SM
#
    0.00000000E+00        3  25  25  23  # h0-h0-Z eff. coupling^2, normalised to SM
    0.00000000E+00        3  35  25  23  # H0-h0-Z eff. coupling^2, normalised to SM
    1.92221314E-05        3  36  25  23  # A0-h0-Z eff. coupling^2, normalised to SM
    0.00000000E+00        3  35  35  23  # H0-H0-Z eff. coupling^2, normalised to SM
    9.99980778E-01        3  36  35  23  # A0-H0-Z eff. coupling^2, normalised to SM
    0.00000000E+00        3  36  36  23  # A0-A0-Z eff. coupling^2, normalised to SM
#
    0.00000000E+00        4  25  21  21  23  # h0-g-g-Z eff. coupling^2, normalised to SM
    0.00000000E+00        4  35  21  21  23  # H0-g-g-Z eff. coupling^2, normalised to SM
    0.00000000E+00        4  36  21  21  23  # A0-g-g-Z eff. coupling^2, normalised to SM
Block SPhenoLowEnergy  # low energy observables
    1    3.15627402E-04   # BR(b -> s gamma)
    2    1.59068099E-06   # BR(b -> s mu+ mu-)
    3    3.53932240E-05   # BR(b -> s nu nu)
    4    5.17773999E-11   # BR(Bd -> mu+ mu-)
    5    3.38258742E-09   # BR(Bs -> mu+ mu-)
    6    1.09800260E-04   # BR(B_u -> tau nu)
    7    9.92828999E-01   # BR(B_u -> tau nu)/BR(B_u -> tau nu)_SM
    8    2.73741420E-01   # |Delta(M_Bd)| [ps^-1] 
    9    2.03150776E+01   # |Delta(M_Bs)| [ps^-1] 
   20    1.05686174E-14   # Delta(g-2)_electron/2
   21    2.27462918E-10   # Delta(g-2)_muon/2
   22    1.49441106E-08   # Delta(g-2)_tau/2
   23    0.00000000E+00   # electric dipole moment of the electron
   24    0.00000000E+00   # electric dipole moment of the muon
   25    0.00000000E+00   # electric dipole moment of the tau
   26    0.00000000E+00   # Br(mu -> e gamma)
   27    0.00000000E+00   # Br(tau -> e gamma)
   28    0.00000000E+00   # Br(tau -> mu gamma)
   29    0.00000000E+00   # Br(mu -> 3 e)
   30    0.00000000E+00   # Br(tau -> 3 e)
   31    0.00000000E+00   # Br(tau -> 3 mu)
   39    6.17378848E-04   # Delta(rho_parameter)
   40    0.00000000E+00   # BR(Z -> e mu)
   41    0.00000000E+00   # BR(Z -> e tau)
   42    0.00000000E+00   # BR(Z -> mu tau)
Block FWCOEF Q=  9.11876000E+01  # Wilson coefficients at scale Q
#    id        order  M        value         comment
Block FWCOEF Q=  1.60000000E+02  # Wilson coefficients at scale Q
#    id        order  M        value         comment
     0305 4422   00   0    -1.87757578E-01   # C7
     0305 4422   00   1    -1.69273983E-02   # C7
     0305 4322   00   1    -3.69337807E-04   # C7'
     0305 6421   00   0    -9.48894362E-02   # C8
     0305 6421   00   1    -2.33297837E-02   # C8
     0305 6321   00   1    -5.03578646E-04   # C8'
 03051111 4133   00   0    -1.18967936E+00   # C9 e+e-
 03051111 4133   00   1     9.06166038E-04   # C9 e+e-
 03051111 4233   00   1    -7.71807938E-06   # C9' e+e-
 03051111 4137   00   0    -3.95178940E+00   # C10 e+e-
 03051111 4137   00   1     2.60670051E-03   # C10 e+e-
 03051111 4237   00   1     1.92008080E-04   # C10' e+e-
 03051313 4133   00   0    -1.18967936E+00   # C9 mu+mu-
 03051313 4133   00   1     9.06140124E-04   # C9 mu+mu-
 03051313 4233   00   1    -7.71828848E-06   # C9' mu+mu-
 03051313 4137   00   0    -3.95178940E+00   # C10 mu+mu-
 03051313 4137   00   1     2.60667455E-03   # C10 mu+mu-
 03051313 4237   00   1     1.92008289E-04   # C10' mu+mu-
 03051212 4237   00   0     1.49014889E+00   # C11 nu_1 nu_1
 03051212 4237   00   1    -6.28015797E-04   # C11 nu_1 nu_1
 03051212 4137   00   1    -4.60982396E-05   # C11' nu_1 nu_1
 03051414 4237   00   0     1.49014889E+00   # C11 nu_2 nu_2
 03051414 4237   00   1    -6.28015779E-04   # C11 nu_2 nu_2
 03051414 4137   00   1    -4.60981903E-05   # C11' nu_2 nu_2
 03051616 4237   00   0     1.49014889E+00   # C11 nu_3 nu_3
 03051616 4237   00   1    -6.28010080E-04   # C11 nu_3 nu_3
 03051616 4137   00   1    -4.60842799E-05   # C11' nu_3 nu_3
