#
#                              ======================
#                              | THE SUSYHIT OUTPUT |
#                              ======================
#
#
#              ------------------------------------------------------
#              |     This is the output of the SUSY-HIT package     |
#              |  created by A.Djouadi, M.Muehlleitner and M.Spira. |
#              |  In case of problems with SUSY-HIT email to        |
#              |           margarete.muehlleitner@cern.ch           |
#              |           michael.spira@psi.ch                     |
#              |           abdelhak.djouadi@cern.ch                 |
#              ------------------------------------------------------
#
#              ------------------------------------------------------
#              |  SUSY Les Houches Accord - MSSM Spectrum + Decays  |
#              |              based on the decay programs           |
#              |                                                    |
#              |                     SDECAY 1.3b                    |
#              |                                                    |
#              |  Authors: M.Muhlleitner, A.Djouadi and Y.Mambrini  |
#              |  Ref.:    Comput.Phys.Commun.168(2005)46           |
#              |           [hep-ph/0311167]                         |
#              |                                                    |
#              |                     HDECAY 3.4                     |
#              |                                                    |
#              |  By: A.Djouadi,J.Kalinowski,M.Muhlleitner,M.Spira  |
#              |  Ref.:    Comput.Phys.Commun.108(1998)56           |
#              |           [hep-ph/9704448]                         |
#              |                                                    |
#              |                                                    |
#              |  If not stated otherwise all DRbar couplings and   |
#              |  soft SUSY breaking masses are given at the scale  |
#              |  Q=  0.91187600E+02
#              |                                                    |
#              ------------------------------------------------------
#
#
BLOCK DCINFO  # Decay Program information
     1   SDECAY/HDECAY # decay calculator
     2   1.3b  /3.4    # version number
#
BLOCK SPINFO  # Spectrum calculator information
     1   SuSpect     # RGE +Spectrum calculator            
     2   2.41         # version number                     
#
BLOCK MODSEL  # Model selection
     1     0   # #general MSSM low scale                           
#
BLOCK SMINPUTS  # Standard Model inputs
         1     1.27934000E+02   # alpha_em^-1(M_Z)^MSbar
         2     1.16639000E-05   # G_F [GeV^-2]
         3     1.17200000E-01   # alpha_S(M_Z)^MSbar
         4     9.11870000E+01   # M_Z pole mass
         5     4.25000000E+00   # mb(mb)^MSbar
         6     1.72500000E+02   # mt pole mass
         7     1.77700000E+00   # mtau pole mass
#
BLOCK MINPAR  # Input parameters - minimal models
#
BLOCK EXTPAR  # Input parameters - non-minimal models
         0     9.11876000E+01   # EWSB                
         1     1.00000000E+01   # M_1                 
         2     1.00000000E+05   # M_2                 
         3     1.00000000E+05   # M_3                 
        11     0.00000000E+00   # A_t                 
        12     0.00000000E+00   # A_b                 
        13     0.00000000E+00   # A_tau               
        14     0.00000000E+00   # A_u                 
        15     0.00000000E+00   # A_d                 
        16     0.00000000E+00   # A_e                 
        23     3.50000000E+03   # mu(EWSB)            
        25     1.50000000E+00   # tanbeta(in)         
        26     2.00000000E+03   # MA_pole             
        31     1.00000000E+05   # M_eL                
        32     1.00000000E+05   # M_muL               
        33     1.00000000E+05   # M_tauL              
        34     1.00000000E+05   # M_eR                
        35     1.00000000E+05   # M_muR               
        36     1.00000000E+05   # M_tauR              
        41     1.40000000E+03   # M_q1L               
        42     1.40000000E+03   # M_q2L               
        43     1.40000000E+03   # M_q3L               
        44     1.00000000E+05   # M_uR                
        45     1.00000000E+05   # M_cR                
        46     1.00000000E+05   # M_tR                
        47     1.40000000E+03   # M_dR                
        48     1.40000000E+03   # M_sR                
        49     1.40000000E+03   # M_bR                
#
BLOCK MASS  # Mass Spectrum
# PDG code           mass       particle
        24     8.05821881E+01   # W+
        25     1.25000000E+02   # h
        35     2.00399674E+03   # H
        36     2.00000000E+03   # A
        37     2.02369997E+03   # H+
         5     4.87877839E+00   # b-quark pole mass calculated from mb(mb)_Msbar
   1000001     1.40047466E+03   # ~d_L
   2000001     1.40009139E+03   # ~d_R
   1000002     1.39961660E+03   # ~u_L
   2000002     9.99999974E+04   # ~u_R
   1000003     1.40047466E+03   # ~s_L
   2000003     1.40009139E+03   # ~s_R
   1000004     1.39961660E+03   # ~c_L
   2000004     9.99999974E+04   # ~c_R
   1000005     1.39543010E+03   # ~b_1
   2000005     1.40512396E+03   # ~b_2
   1000006     1.40736304E+03   # ~t_1
   2000006     1.00000106E+05   # ~t_2
   1000011     1.00000004E+05   # ~e_L
   2000011     1.00000004E+05   # ~e_R
   1000012     9.99999921E+04   # ~nu_eL
   1000013     1.00000004E+05   # ~mu_L
   2000013     1.00000004E+05   # ~mu_R
   1000014     9.99999921E+04   # ~nu_muL
   1000015     9.99999574E+04   # ~tau_1
   2000015     1.00000051E+05   # ~tau_2
   1000016     9.99999921E+04   # ~nu_tauL
   1000021     1.00000000E+05   # ~g
   1000022     9.47204450E+00   # ~chi_10
   1000023    -3.50002419E+03   # ~chi_20
   1000025     3.50048758E+03   # ~chi_30
   1000035     1.00000065E+05   # ~chi_40
   1000024     3.49994008E+03   # ~chi_1+
   1000037     1.00000065E+05   # ~chi_2+
   1000039     1.00000000E-09   # ~gravitino
#
BLOCK NMIX  # Neutralino Mixing Matrix
  1  1     9.99918132E-01   # N_11
  1  2    -9.34030496E-06   # N_12
  1  3     1.06392763E-02   # N_13
  1  4    -7.10881730E-03   # N_14
  2  1     2.49638793E-03   # N_21
  2  2    -1.49775193E-04   # N_22
  2  3    -7.07092350E-01   # N_23
  2  4    -7.07116790E-01   # N_24
  3  1     1.25498033E-02   # N_31
  3  2     8.03074900E-04   # N_32
  3  3    -7.07041018E-01   # N_33
  3  4     7.07060716E-01   # N_34
  4  1     3.64995986E-07   # N_41
  4  2    -9.99999666E-01   # N_42
  4  3    -4.62001530E-04   # N_43
  4  4     6.73797890E-04   # N_44
#
BLOCK UMIX  # Chargino Mixing Matrix U
  1  1    -6.53368623E-04   # U_11
  1  2     9.99999787E-01   # U_12
  2  1     9.99999787E-01   # U_21
  2  2     6.53368623E-04   # U_22
#
BLOCK VMIX  # Chargino Mixing Matrix V
  1  1    -9.52894029E-04   # V_11
  1  2     9.99999546E-01   # V_12
  2  1     9.99999546E-01   # V_21
  2  2     9.52894029E-04   # V_22
#
BLOCK STOPMIX  # Stop Mixing Matrix
  1  1     9.99999999E-01   # cos(theta_t)
  1  2     4.47213589E-05   # sin(theta_t)
  2  1    -4.47213589E-05   # -sin(theta_t)
  2  2     9.99999999E-01   # cos(theta_t)
#
BLOCK SBOTMIX  # Sbottom Mixing Matrix
  1  1     6.92987130E-01   # cos(theta_b)
  1  2     7.20949955E-01   # sin(theta_b)
  2  1    -7.20949955E-01   # -sin(theta_b)
  2  2     6.92987130E-01   # cos(theta_b)
#
BLOCK STAUMIX  # Stau Mixing Matrix
  1  1     7.06160193E-01   # cos(theta_tau)
  1  2     7.08052104E-01   # sin(theta_tau)
  2  1    -7.08052104E-01   # -sin(theta_tau)
  2  2     7.06160193E-01   # cos(theta_tau)
#
BLOCK ALPHA  # Higgs mixing
          -5.90282242E-01   # Mixing angle in the neutral Higgs boson sector
#
BLOCK HMIX Q=  9.11876000E+01  # DRbar Higgs Parameters
         1     3.50000000E+03   # mu(Q)               
         2     1.49999982E+00   # tanbeta(Q)          
         3     2.54854931E+02   # vev(Q)              
         4    -6.82581980E+07   # MA^2(Q)             
#
BLOCK GAUGE Q=  9.11876000E+01  # The gauge couplings
     1     3.50598295E-01   # gprime(Q) DRbar
     2     6.20251690E-01   # g(Q) DRbar
     3     1.02581505E+00   # g3(Q) DRbar
#
BLOCK AU Q=  9.11876000E+01  # The trilinear couplings
  1  1     0.00000000E+00   # A_u(Q) DRbar
  2  2     0.00000000E+00   # A_c(Q) DRbar
  3  3     0.00000000E+00   # A_t(Q) DRbar
#
BLOCK AD Q=  9.11876000E+01  # The trilinear couplings
  1  1     0.00000000E+00   # A_d(Q) DRbar
  2  2     0.00000000E+00   # A_s(Q) DRbar
  3  3     0.00000000E+00   # A_b(Q) DRbar
#
BLOCK AE Q=  9.11876000E+01  # The trilinear couplings
  1  1     0.00000000E+00   # A_e(Q) DRbar
  2  2     0.00000000E+00   # A_mu(Q) DRbar
  3  3     0.00000000E+00   # A_tau(Q) DRbar
#
BLOCK Yu Q=  9.11876000E+01  # The Yukawa couplings
  1  1     0.00000000E+00   # y_u(Q) DRbar
  2  2     0.00000000E+00   # y_c(Q) DRbar
  3  3     9.83697441E-01   # y_t(Q) DRbar
#
BLOCK Yd Q=  9.11876000E+01  # The Yukawa couplings
  1  1     0.00000000E+00   # y_d(Q) DRbar
  2  2     0.00000000E+00   # y_s(Q) DRbar
  3  3     2.58449118E-02   # y_b(Q) DRbar
#
BLOCK Ye Q=  9.11876000E+01  # The Yukawa couplings
  1  1     0.00000000E+00   # y_e(Q) DRbar
  2  2     0.00000000E+00   # y_mu(Q) DRbar
  3  3     1.77405773E-02   # y_tau(Q) DRbar
#
BLOCK MSOFT Q=  9.11876000E+01  # The soft SUSY breaking masses at the scale Q
         1     1.00000000E+01   # M_1                 
         2     1.00000000E+05   # M_2                 
         3     1.00000000E+05   # M_3                 
        14     0.00000000E+00   # A_u                 
        15     0.00000000E+00   # A_d                 
        16     0.00000000E+00   # A_e                 
        21     6.32543219E+08   # M^2_Hd              
        22    -1.14829690E+09   # M^2_Hu              
        31     1.00000000E+05   # M_eL                
        32     1.00000000E+05   # M_muL               
        33     1.00000000E+05   # M_tauL              
        34     1.00000000E+05   # M_eR                
        35     1.00000000E+05   # M_muR               
        36     1.00000000E+05   # M_tauR              
        41     1.40000000E+03   # M_q1L               
        42     1.40000000E+03   # M_q2L               
        43     1.40000000E+03   # M_q3L               
        44     1.00000000E+05   # M_uR                
        45     1.00000000E+05   # M_cR                
        46     1.00000000E+05   # M_tR                
        47     1.40000000E+03   # M_dR                
        48     1.40000000E+03   # M_sR                
        49     1.40000000E+03   # M_bR                
#
#
#
#                             =================
#                             |The decay table|
#                             =================
#
# - The QCD corrections to the decays gluino -> squark  + quark
#                                     squark -> gaugino + quark_prime
#                                     squark -> squark_prime + Higgs
#                                     squark -> gluino  + quark
#   are included.
#
# - The multi-body decays for the inos, stops and sbottoms are included.
#
# - The loop induced decays for the gluino, neutralinos and stops
#   are included.
#
# - The SUSY decays of the top quark are included.
#
# - Possible decays of the NLSP in GMSB models are included.
#
#
#         PDG            Width
DECAY         6     1.32785450E+00   # top decays
#          BR         NDA      ID1       ID2
     1.00000000E+00    2           5        24   # BR(t ->  b    W+)
#
#         PDG            Width
DECAY   1000021     1.E-04   # gluino decays (OJ Mods)
#          BR         NDA      ID1       ID2
     3.71820169E-04    2     1000001        -1   # BR(~g -> ~d_L  db)
     3.71820169E-04    2    -1000001         1   # BR(~g -> ~d_L* d )
     3.71820248E-04    2     2000001        -1   # BR(~g -> ~d_R  db)
     3.71820248E-04    2    -2000001         1   # BR(~g -> ~d_R* d )
     3.71820347E-04    2     1000002        -2   # BR(~g -> ~u_L  ub)
     3.71820347E-04    2    -1000002         2   # BR(~g -> ~u_L* u )
     1.00579621E-18    2     2000002        -2   # BR(~g -> ~u_R  ub)
     1.00579621E-18    2    -2000002         2   # BR(~g -> ~u_R* u )
     3.71820169E-04    2     1000003        -3   # BR(~g -> ~s_L  sb)
     3.71820169E-04    2    -1000003         3   # BR(~g -> ~s_L* s )
     3.71820248E-04    2     2000003        -3   # BR(~g -> ~s_R  sb)
     3.71820248E-04    2    -2000003         3   # BR(~g -> ~s_R* s )
     3.71820347E-04    2     1000004        -4   # BR(~g -> ~c_L  cb)
     3.71820347E-04    2    -1000004         4   # BR(~g -> ~c_L* c )
     1.00579621E-18    2     2000004        -4   # BR(~g -> ~c_R  cb)
     1.00579621E-18    2    -2000004         4   # BR(~g -> ~c_R* c )
     2.46193796E-01    2     1000005        -5   # BR(~g -> ~b_1  bb)
     2.46193796E-01    2    -1000005         5   # BR(~g -> ~b_1* b )
     2.46003768E-01    2     2000005        -5   # BR(~g -> ~b_2  bb)
     2.46003768E-01    2    -2000005         5   # BR(~g -> ~b_2* b )
     3.65914119E-04    2     1000006        -6   # BR(~g -> ~t_1  tb)
     3.65914119E-04    2    -1000006         6   # BR(~g -> ~t_1* t )
     1.04111998E-02    2     1000039        21   # BR(~g -> ~G g)
#
#         PDG            Width
DECAY   1000006     2.24246921E-01   # stop1 decays
#          BR         NDA      ID1       ID2
     1.00000000E+00    2     1000022         6   # BR(~t_1 -> ~chi_10 t )
#
#         PDG            Width
DECAY   2000006     4.94847980E+05   # stop2 decays
#          BR         NDA      ID1       ID2
     4.21160247E-04    2     1000022         6   # BR(~t_2 -> ~chi_10 t )
     1.00785327E-03    2     1000023         6   # BR(~t_2 -> ~chi_20 t )
     1.00774234E-03    2     1000025         6   # BR(~t_2 -> ~chi_30 t )
     9.97598271E-01    2     1000024         5   # BR(~t_2 -> ~chi_1+ b )
    -2.75613721E-05    2     1000006        25   # BR(~t_2 -> ~t_1    h )
     2.88555480E-05    2     1000006        35   # BR(~t_2 -> ~t_1    H )
     2.88054185E-05    2     1000006        36   # BR(~t_2 -> ~t_1    A )
     2.71318976E-05    2     1000005        37   # BR(~t_2 -> ~b_1    H+)
     3.04780929E-05    2     2000005        37   # BR(~t_2 -> ~b_2    H+)
    -1.97003345E-05    2     1000006        23   # BR(~t_2 -> ~t_1    Z )
    -4.94819999E-05    2     1000005        24   # BR(~t_2 -> ~b_1    W+)
    -5.35537171E-05    2     2000005        24   # BR(~t_2 -> ~b_2    W+)
#
#         PDG            Width
DECAY   1000005     1.28190552E+02   # sbottom1 decays
#          BR         NDA      ID1       ID2
     1.00000000E+00    2     1000022         5   # BR(~b_1 -> ~chi_10 b )
#
#         PDG            Width
DECAY   2000005     1.21691277E+02   # sbottom2 decays
#          BR         NDA      ID1       ID2
     1.00000000E+00    2     1000022         5   # BR(~b_2 -> ~chi_10 b )
#
#         PDG            Width
DECAY   1000002     2.28013693E-01   # sup_L decays
#          BR         NDA      ID1       ID2
     1.00000000E+00    2     1000022         2   # BR(~u_L -> ~chi_10 u)
#
#         PDG            Width
DECAY   2000002     2.08370308E+02   # sup_R decays
#          BR         NDA      ID1       ID2
     9.99836441E-01    2     1000022         2   # BR(~u_R -> ~chi_10 u)
     6.22547006E-06    2     1000023         2   # BR(~u_R -> ~chi_20 u)
     1.57333665E-04    2     1000025         2   # BR(~u_R -> ~chi_30 u)
#
#         PDG            Width
DECAY   1000001     2.28192538E-01   # sdown_L decays
#          BR         NDA      ID1       ID2
     1.00000000E+00    2     1000022         1   # BR(~d_L -> ~chi_10 d)
#
#         PDG            Width
DECAY   2000001     9.12440936E-01   # sdown_R decays
#          BR         NDA      ID1       ID2
     1.00000000E+00    2     1000022         1   # BR(~d_R -> ~chi_10 d)
#
#         PDG            Width
DECAY   1000004     2.28013693E-01   # scharm_L decays
#          BR         NDA      ID1       ID2
     1.00000000E+00    2     1000022         4   # BR(~c_L -> ~chi_10 c)
#
#         PDG            Width
DECAY   2000004     2.08370308E+02   # scharm_R decays
#          BR         NDA      ID1       ID2
     9.99836441E-01    2     1000022         4   # BR(~c_R -> ~chi_10 c)
     6.22547006E-06    2     1000023         4   # BR(~c_R -> ~chi_20 c)
     1.57333665E-04    2     1000025         4   # BR(~c_R -> ~chi_30 c)
#
#         PDG            Width
DECAY   1000003     2.28192538E-01   # sstrange_L decays
#          BR         NDA      ID1       ID2
     1.00000000E+00    2     1000022         3   # BR(~s_L -> ~chi_10 s)
#
#         PDG            Width
DECAY   2000003     9.12440936E-01   # sstrange_R decays
#          BR         NDA      ID1       ID2
     1.00000000E+00    2     1000022         3   # BR(~s_R -> ~chi_10 s)
#
#         PDG            Width
DECAY   1000011     1.22270636E+02   # selectron_L decays
#          BR         NDA      ID1       ID2
     9.99797670E-01    2     1000022        11   # BR(~e_L -> ~chi_10 e-)
     4.96700304E-06    2     1000023        11   # BR(~e_L -> ~chi_20 e-)
     1.94696944E-04    2     1000025        11   # BR(~e_L -> ~chi_30 e-)
     2.66560513E-06    2    -1000024        12   # BR(~e_L -> ~chi_1- nu_e)
#
#         PDG            Width
DECAY   2000011     4.89079630E+02   # selectron_R decays
#          BR         NDA      ID1       ID2
     9.99836671E-01    2     1000022        11   # BR(~e_R -> ~chi_10 e-)
     6.21669616E-06    2     1000023        11   # BR(~e_R -> ~chi_20 e-)
     1.57111889E-04    2     1000025        11   # BR(~e_R -> ~chi_30 e-)
#
#         PDG            Width
DECAY   1000013     1.22270636E+02   # smuon_L decays
#          BR         NDA      ID1       ID2
     9.99797670E-01    2     1000022        13   # BR(~mu_L -> ~chi_10 mu-)
     4.96700304E-06    2     1000023        13   # BR(~mu_L -> ~chi_20 mu-)
     1.94696944E-04    2     1000025        13   # BR(~mu_L -> ~chi_30 mu-)
     2.66560513E-06    2    -1000024        14   # BR(~mu_L -> ~chi_1- nu_mu)
#
#         PDG            Width
DECAY   2000013     4.89079630E+02   # smuon_R decays
#          BR         NDA      ID1       ID2
     9.99836671E-01    2     1000022        13   # BR(~mu_R -> ~chi_10 mu-)
     6.21669616E-06    2     1000023        13   # BR(~mu_R -> ~chi_20 mu-)
     1.57111889E-04    2     1000025        13   # BR(~mu_R -> ~chi_30 mu-)
#
#         PDG            Width
DECAY   1000015     1.18200449E+04   # stau_1 decays
#          BR         NDA      ID1       ID2
     2.59056945E-02    2     1000022        15   # BR(~tau_1 -> ~chi_10  tau-)
     2.51328745E-05    2     1000023        15   # BR(~tau_1 -> ~chi_20  tau-)
     2.48691650E-05    2     1000025        15   # BR(~tau_1 -> ~chi_30  tau-)
     2.77126658E-05    2    -1000024        16   # BR(~tau_1 -> ~chi_1-  nu_tau)
     9.74016591E-01    2     1000039        15   # BR(~tau_1 -> ~G       tau-)
#
#         PDG            Width
DECAY   2000015     3.06098998E+02   # stau_2 decays
#          BR         NDA      ID1       ID2
     9.96538107E-01    2     1000022        15   # BR(~tau_2 -> ~chi_10  tau-)
     1.08183660E-03    2     1000023        15   # BR(~tau_2 -> ~chi_20  tau-)
     1.40860801E-03    2     1000025        15   # BR(~tau_2 -> ~chi_30  tau-)
     9.71448174E-04    2    -1000024        16   # BR(~tau_2 -> ~chi_1-  nu_tau)
#
#         PDG            Width
DECAY   1000012     1.22270693E+02   # snu_eL decays
#          BR         NDA      ID1       ID2
     9.99863172E-01    2     1000022        12   # BR(~nu_eL -> ~chi_10 nu_e)
     7.60638520E-06    2     1000023        12   # BR(~nu_eL -> ~chi_20 nu_e)
     1.23551976E-04    2     1000025        12   # BR(~nu_eL -> ~chi_30 nu_e)
     5.66980629E-06    2     1000024        11   # BR(~nu_eL -> ~chi_1+ e-)
#
#         PDG            Width
DECAY   1000014     1.22270693E+02   # snu_muL decays
#          BR         NDA      ID1       ID2
     9.99863172E-01    2     1000022        14   # BR(~nu_muL -> ~chi_10 nu_mu)
     7.60638520E-06    2     1000023        14   # BR(~nu_muL -> ~chi_20 nu_mu)
     1.23551976E-04    2     1000025        14   # BR(~nu_muL -> ~chi_30 nu_mu)
     5.66980629E-06    2     1000024        13   # BR(~nu_muL -> ~chi_1+ mu-)
#
#         PDG            Width
DECAY   1000016     1.22895292E+02   # snu_tauL decays
#          BR         NDA      ID1       ID2
     9.94781506E-01    2     1000022        16   # BR(~nu_tauL -> ~chi_10 nu_tau)
     7.56772681E-06    2     1000023        16   # BR(~nu_tauL -> ~chi_20 nu_tau)
     1.22924040E-04    2     1000025        16   # BR(~nu_tauL -> ~chi_30 nu_tau)
     5.08800191E-03    2     1000024        15   # BR(~nu_tauL -> ~chi_1+ tau-)
#
#         PDG            Width
DECAY   1000024     7.52096105E+01   # chargino1+ decays
#          BR         NDA      ID1       ID2
     4.03757004E-07    2     1000002        -1   # BR(~chi_1+ -> ~u_L     db)
     1.89738511E-07    2    -1000001         2   # BR(~chi_1+ -> ~d_L*    u )
     4.03757004E-07    2     1000004        -3   # BR(~chi_1+ -> ~c_L     sb)
     1.89738511E-07    2    -1000003         4   # BR(~chi_1+ -> ~s_L*    c )
     1.72041641E-01    2     1000006        -5   # BR(~chi_1+ -> ~t_1     bb)
     6.90509412E-02    2    -1000005         6   # BR(~chi_1+ -> ~b_1*    t )
     7.18890639E-01    2    -2000005         6   # BR(~chi_1+ -> ~b_2*    t )
     2.75010072E-02    2     1000022        24   # BR(~chi_1+ -> ~chi_10  W+)
     1.25097832E-02    2     1000022        37   # BR(~chi_1+ -> ~chi_10  H+)
     4.01142018E-06    2     1000039        24   # BR(~chi_1+ -> ~G       W+)
     7.89275084E-07    2     1000039        37   # BR(~chi_1+ -> ~G       H+)
#
#         PDG            Width
DECAY   1000037     3.02893019E+05   # chargino2+ decays
#          BR         NDA      ID1       ID2
     3.50050330E-03    2     1000002        -1   # BR(~chi_2+ -> ~u_L     db)
     3.50050447E-03    2    -1000001         2   # BR(~chi_2+ -> ~d_L*    u )
     3.50050330E-03    2     1000004        -3   # BR(~chi_2+ -> ~c_L     sb)
     3.50050447E-03    2    -1000003         4   # BR(~chi_2+ -> ~s_L*    c )
     9.40476873E-01    2     1000006        -5   # BR(~chi_2+ -> ~t_1     bb)
     7.60351742E-04    2    -1000005         6   # BR(~chi_2+ -> ~b_1*    t )
     3.33079825E-03    2    -2000005         6   # BR(~chi_2+ -> ~b_2*    t )
     2.58737472E-15    2     1000012       -11   # BR(~chi_2+ -> ~nu_eL   e+  )
     2.58737472E-15    2     1000014       -13   # BR(~chi_2+ -> ~nu_muL  mu+ )
     1.81160789E-15    2    -1000011        12   # BR(~chi_2+ -> ~e_L+    nu_e)
     1.81160789E-15    2    -1000013        14   # BR(~chi_2+ -> ~mu_L+   nu_mu)
     2.81072958E-15    2    -1000015        16   # BR(~chi_2+ -> ~tau_1+  nu_tau)
     4.78417914E-17    2    -2000015        16   # BR(~chi_2+ -> ~tau_2+  nu_tau)
     6.42219327E-04    2     1000024        23   # BR(~chi_2+ -> ~chi_1+  Z )
     7.55134711E-08    2     1000022        24   # BR(~chi_2+ -> ~chi_10  W+)
     6.23248490E-04    2     1000023        24   # BR(~chi_2+ -> ~chi_20  W+)
     6.23166435E-04    2     1000025        24   # BR(~chi_2+ -> ~chi_30  W+)
     6.47921314E-04    2     1000024        25   # BR(~chi_2+ -> ~chi_1+  h )
     5.68753790E-04    2     1000024        35   # BR(~chi_2+ -> ~chi_1+  H )
     5.68828552E-04    2     1000024        36   # BR(~chi_2+ -> ~chi_1+  A )
     1.07607364E-07    2     1000022        37   # BR(~chi_2+ -> ~chi_10  H+)
     5.68806070E-04    2     1000023        37   # BR(~chi_2+ -> ~chi_20  H+)
     5.68722460E-04    2     1000025        37   # BR(~chi_2+ -> ~chi_30  H+)
     3.66181013E-02    2     1000039        24   # BR(~chi_2+ -> ~G       W+)
     1.05091531E-08    2     1000039        37   # BR(~chi_2+ -> ~G       H+)
#
#         PDG            Width
DECAY   1000022     1.E-08   # neutralino1 decays (OJ Mods)
#          BR         NDA      ID1       ID2
     1.00000000E+00    2     1000039        22   # BR(~chi_10 -> ~G        gam)
#
#         PDG            Width
DECAY   1000023     1.E-08   # neutralino2 decays (OJ Mods)
#          BR         NDA      ID1       ID2
     2.33248942E-02    2     1000022        23   # BR(~chi_20 -> ~chi_10   Z )
     9.08078033E-04    2     1000022        25   # BR(~chi_20 -> ~chi_10   h )
     1.04975278E-02    2     1000022        35   # BR(~chi_20 -> ~chi_10   H )
     4.27770161E-04    2     1000022        36   # BR(~chi_20 -> ~chi_10   A )
     2.25252267E-08    2     1000002        -2   # BR(~chi_20 -> ~u_L      ub)
     2.25252267E-08    2    -1000002         2   # BR(~chi_20 -> ~u_L*     u )
     8.42498110E-08    2     1000001        -1   # BR(~chi_20 -> ~d_L      db)
     8.42498110E-08    2    -1000001         1   # BR(~chi_20 -> ~d_L*     d )
     1.93909993E-07    2     2000001        -1   # BR(~chi_20 -> ~d_R      db)
     1.93909993E-07    2    -2000001         1   # BR(~chi_20 -> ~d_R*     d )
     2.25252267E-08    2     1000004        -4   # BR(~chi_20 -> ~c_L      cb)
     2.25252267E-08    2    -1000004         4   # BR(~chi_20 -> ~c_L*     c )
     8.42498110E-08    2     1000003        -3   # BR(~chi_20 -> ~s_L      sb)
     8.42498110E-08    2    -1000003         3   # BR(~chi_20 -> ~s_L*     s )
     1.93909993E-07    2     2000003        -3   # BR(~chi_20 -> ~s_R      sb)
     1.93909993E-07    2    -2000003         3   # BR(~chi_20 -> ~s_R*     s )
     3.36471233E-01    2     1000006        -6   # BR(~chi_20 -> ~t_1      tb)
     3.36471233E-01    2    -1000006         6   # BR(~chi_20 -> ~t_1*     t )
     7.01505580E-02    2     1000005        -5   # BR(~chi_20 -> ~b_1      bb)
     7.01505580E-02    2    -1000005         5   # BR(~chi_20 -> ~b_1*     b )
     7.57964853E-02    2     2000005        -5   # BR(~chi_20 -> ~b_2      bb)
     7.57964853E-02    2    -2000005         5   # BR(~chi_20 -> ~b_2*     b )
     3.03240048E-11    2     1000039        22   # BR(~chi_20 -> ~G        gam)
     1.31969498E-07    2     1000039        23   # BR(~chi_20 -> ~G        Z)
     3.29348799E-06    2     1000039        25   # BR(~chi_20 -> ~G        h)
     2.63882975E-08    2     1000039        35   # BR(~chi_20 -> ~G        H)
     6.80388104E-07    2     1000039        36   # BR(~chi_20 -> ~G        A)
#
#         PDG            Width
DECAY   1000025     8.80905599E+01   # neutralino3 decays
#          BR         NDA      ID1       ID2
     9.21095478E-04    2     1000022        23   # BR(~chi_30 -> ~chi_10   Z )
     2.34340041E-02    2     1000022        25   # BR(~chi_30 -> ~chi_10   h )
     4.15593671E-04    2     1000022        35   # BR(~chi_30 -> ~chi_10   H )
     1.05061777E-02    2     1000022        36   # BR(~chi_30 -> ~chi_10   A )
     2.19491715E-06    2     1000002        -2   # BR(~chi_30 -> ~u_L      ub)
     2.19491715E-06    2    -1000002         2   # BR(~chi_30 -> ~u_L*     u )
     5.33151659E-07    2     1000001        -1   # BR(~chi_30 -> ~d_L      db)
     5.33151659E-07    2    -1000001         1   # BR(~chi_30 -> ~d_L*     d )
     4.89114457E-06    2     2000001        -1   # BR(~chi_30 -> ~d_R      db)
     4.89114457E-06    2    -2000001         1   # BR(~chi_30 -> ~d_R*     d )
     2.19491715E-06    2     1000004        -4   # BR(~chi_30 -> ~c_L      cb)
     2.19491715E-06    2    -1000004         4   # BR(~chi_30 -> ~c_L*     c )
     5.33151659E-07    2     1000003        -3   # BR(~chi_30 -> ~s_L      sb)
     5.33151659E-07    2    -1000003         3   # BR(~chi_30 -> ~s_L*     s )
     4.89114457E-06    2     2000003        -3   # BR(~chi_30 -> ~s_R      sb)
     4.89114457E-06    2    -2000003         3   # BR(~chi_30 -> ~s_R*     s )
     3.35834338E-01    2     1000006        -6   # BR(~chi_30 -> ~t_1      tb)
     3.35834338E-01    2    -1000006         6   # BR(~chi_30 -> ~t_1*     t )
     6.26152278E-02    2     1000005        -5   # BR(~chi_30 -> ~b_1      bb)
     6.26152278E-02    2    -1000005         5   # BR(~chi_30 -> ~b_1*     b )
     8.38967093E-02    2     2000005        -5   # BR(~chi_30 -> ~b_2      bb)
     8.38967093E-02    2    -2000005         5   # BR(~chi_30 -> ~b_2*     b )
     8.80282741E-10    2     1000039        22   # BR(~chi_30 -> ~G        gam)
     3.29318568E-06    2     1000039        23   # BR(~chi_30 -> ~G        Z)
     1.28443189E-07    2     1000039        25   # BR(~chi_30 -> ~G        h)
     6.74981211E-07    2     1000039        35   # BR(~chi_30 -> ~G        H)
     2.71813628E-08    2     1000039        36   # BR(~chi_30 -> ~G        A)
#
#         PDG            Width
DECAY   1000035     3.02894309E+05   # neutralino4 decays
#          BR         NDA      ID1       ID2
     1.51999684E-11    2     1000022        23   # BR(~chi_40 -> ~chi_10   Z )
     6.20636416E-04    2     1000023        23   # BR(~chi_40 -> ~chi_20   Z )
     2.15807630E-05    2     1000025        23   # BR(~chi_40 -> ~chi_30   Z )
     6.23242101E-04    2     1000024       -24   # BR(~chi_40 -> ~chi_1+   W-)
     6.23242101E-04    2    -1000024        24   # BR(~chi_40 -> ~chi_1-   W+)
     7.86328412E-08    2     1000022        25   # BR(~chi_40 -> ~chi_10   h )
     1.44675141E-08    2     1000022        35   # BR(~chi_40 -> ~chi_10   H )
     9.29871808E-08    2     1000022        36   # BR(~chi_40 -> ~chi_10   A )
     2.12798737E-05    2     1000023        25   # BR(~chi_40 -> ~chi_20   h )
     5.44287033E-04    2     1000023        35   # BR(~chi_40 -> ~chi_20   H )
     2.50195503E-05    2     1000023        36   # BR(~chi_40 -> ~chi_20   A )
     6.26560808E-04    2     1000025        25   # BR(~chi_40 -> ~chi_30   h )
     2.44492498E-05    2     1000025        35   # BR(~chi_40 -> ~chi_30   H )
     5.43713668E-04    2     1000025        36   # BR(~chi_40 -> ~chi_30   A )
     5.68816092E-04    2     1000024       -37   # BR(~chi_40 -> ~chi_1+   H-)
     5.68816092E-04    2    -1000024        37   # BR(~chi_40 -> ~chi_1-   H+)
     1.67548236E-03    2     1000002        -2   # BR(~chi_40 -> ~u_L      ub)
     1.67548236E-03    2    -1000002         2   # BR(~chi_40 -> ~u_L*     u )
     2.65542958E-23    2     2000002        -2   # BR(~chi_40 -> ~u_R      ub)
     2.65542958E-23    2    -2000002         2   # BR(~chi_40 -> ~u_R*     u )
     1.67548318E-03    2     1000001        -1   # BR(~chi_40 -> ~d_L      db)
     1.67548318E-03    2    -1000001         1   # BR(~chi_40 -> ~d_L*     d )
     3.16969597E-17    2     2000001        -1   # BR(~chi_40 -> ~d_R      db)
     3.16969597E-17    2    -2000001         1   # BR(~chi_40 -> ~d_R*     d )
     1.67548236E-03    2     1000004        -4   # BR(~chi_40 -> ~c_L      cb)
     1.67548236E-03    2    -1000004         4   # BR(~chi_40 -> ~c_L*     c )
     2.65542958E-23    2     2000004        -4   # BR(~chi_40 -> ~c_R      cb)
     2.65542958E-23    2    -2000004         4   # BR(~chi_40 -> ~c_R*     c )
     1.67548318E-03    2     1000003        -3   # BR(~chi_40 -> ~s_L      sb)
     1.67548318E-03    2    -1000003         3   # BR(~chi_40 -> ~s_L*     s )
     3.16969597E-17    2     2000003        -3   # BR(~chi_40 -> ~s_R      sb)
     3.16969597E-17    2    -2000003         3   # BR(~chi_40 -> ~s_R*     s )
     2.04556446E-03    2     1000006        -6   # BR(~chi_40 -> ~t_1      tb)
     2.04556446E-03    2    -1000006         6   # BR(~chi_40 -> ~t_1*     t )
     2.25208934E-01    2     1000005        -5   # BR(~chi_40 -> ~b_1      bb)
     2.25208934E-01    2    -1000005         5   # BR(~chi_40 -> ~b_1*     b )
     2.45029628E-01    2     2000005        -5   # BR(~chi_40 -> ~b_2      bb)
     2.45029628E-01    2    -2000005         5   # BR(~chi_40 -> ~b_2*     b )
     9.05799637E-16    2     1000011       -11   # BR(~chi_40 -> ~e_L-     e+)
     9.05799637E-16    2    -1000011        11   # BR(~chi_40 -> ~e_L+     e-)
     1.54224179E-28    2     2000011       -11   # BR(~chi_40 -> ~e_R-     e+)
     1.54224179E-28    2    -2000011        11   # BR(~chi_40 -> ~e_R+     e-)
     9.05799637E-16    2     1000013       -13   # BR(~chi_40 -> ~mu_L-    mu+)
     9.05799637E-16    2    -1000013        13   # BR(~chi_40 -> ~mu_L+    mu-)
     1.54224179E-28    2     2000013       -13   # BR(~chi_40 -> ~mu_R-    mu+)
     1.54224179E-28    2    -2000013        13   # BR(~chi_40 -> ~mu_R+    mu-)
     1.29368289E-15    2     1000012       -12   # BR(~chi_40 -> ~nu_eL    nu_eb)
     1.29368289E-15    2    -1000012        12   # BR(~chi_40 -> ~nu_eL*   nu_e )
     1.29368289E-15    2     1000014       -14   # BR(~chi_40 -> ~nu_muL   nu_mub)
     1.29368289E-15    2    -1000014        14   # BR(~chi_40 -> ~nu_muL*  nu_mu )
     1.29368289E-15    2     1000016       -16   # BR(~chi_40 -> ~nu_tau1  nu_taub)
     1.29368289E-15    2    -1000016        16   # BR(~chi_40 -> ~nu_tau1* nu_tau )
     8.86677291E-03    2     1000039        22   # BR(~chi_40 -> ~G        gam)
     2.77511756E-02    2     1000039        23   # BR(~chi_40 -> ~G        Z)
     1.67684528E-09    2     1000039        25   # BR(~chi_40 -> ~G        h)
     1.05265590E-08    2     1000039        35   # BR(~chi_40 -> ~G        H)
     2.07436372E-12    2     1000039        36   # BR(~chi_40 -> ~G        A)
#
#
#
#
