#
#                              ======================
#                              | THE SUSYHIT OUTPUT |
#                              ======================
#
#
#              ------------------------------------------------------
#              |     This is the output of the SUSY-HIT package     |
#              |  created by A.Djouadi, M.Muehlleitner and M.Spira. |
#              |  In case of problems with SUSY-HIT email to        |
#              |           margarete.muehlleitner@cern.ch           |
#              |           michael.spira@psi.ch                     |
#              |           abdelhak.djouadi@cern.ch                 |
#              ------------------------------------------------------
#
#              ------------------------------------------------------
#              |  SUSY Les Houches Accord - MSSM Spectrum + Decays  |
#              |              based on the decay programs           |
#              |                                                    |
#              |                     SDECAY 1.3b                    |
#              |                                                    |
#              |  Authors: M.Muhlleitner, A.Djouadi and Y.Mambrini  |
#              |  Ref.:    Comput.Phys.Commun.168(2005)46           |
#              |           [hep-ph/0311167]                         |
#              |                                                    |
#              |                     HDECAY 3.4                     |
#              |                                                    |
#              |  By: A.Djouadi,J.Kalinowski,M.Muhlleitner,M.Spira  |
#              |  Ref.:    Comput.Phys.Commun.108(1998)56           |
#              |           [hep-ph/9704448]                         |
#              |                                                    |
#              |                                                    |
#              |  If not stated otherwise all DRbar couplings and   |
#              |  soft SUSY breaking masses are given at the scale  |
#              |  Q=  0.91187600E+02
#              |                                                    |
#              ------------------------------------------------------
#
#
BLOCK DCINFO  # Decay Program information
     1   SDECAY/HDECAY # decay calculator
     2   1.3b  /3.4    # version number
#
BLOCK SPINFO  # Spectrum calculator information
     1   SuSpect     # RGE +Spectrum calculator            
     2   2.41         # version number                     
#
BLOCK MODSEL  # Model selection
     1     0   # #general MSSM low scale                           
#
BLOCK SMINPUTS  # Standard Model inputs
         1     1.27934000E+02   # alpha_em^-1(M_Z)^MSbar
         2     1.16639000E-05   # G_F [GeV^-2]
         3     1.17200000E-01   # alpha_S(M_Z)^MSbar
         4     9.11870000E+01   # M_Z pole mass
         5     4.25000000E+00   # mb(mb)^MSbar
         6     1.72500000E+02   # mt pole mass
         7     1.77700000E+00   # mtau pole mass
#
BLOCK MINPAR  # Input parameters - minimal models
#
BLOCK EXTPAR  # Input parameters - non-minimal models
         0     9.11876000E+01   # EWSB                
         1     1.40000000E+03   # M_1                 
         2     1.00000000E+05   # M_2                 
         3     2.40000000E+03   # M_3                 
        11     0.00000000E+00   # A_t                 
        12     0.00000000E+00   # A_b                 
        13     0.00000000E+00   # A_tau               
        14     0.00000000E+00   # A_u                 
        15     0.00000000E+00   # A_d                 
        16     0.00000000E+00   # A_e                 
        23     1.00000000E+05   # mu(EWSB)            
        25     1.50000000E+00   # tanbeta(in)         
        26     2.00000000E+03   # MA_pole             
        31     1.00000000E+05   # M_eL                
        32     1.00000000E+05   # M_muL               
        33     1.00000000E+05   # M_tauL              
        34     1.00000000E+05   # M_eR                
        35     1.00000000E+05   # M_muR               
        36     1.00000000E+05   # M_tauR              
        41     3.00000000E+03   # M_q1L               
        42     3.00000000E+03   # M_q2L               
        43     3.00000000E+03   # M_q3L               
        44     1.00000000E+05   # M_uR                
        45     1.00000000E+05   # M_cR                
        46     1.00000000E+05   # M_tR                
        47     3.00000000E+03   # M_dR                
        48     3.00000000E+03   # M_sR                
        49     3.00000000E+03   # M_bR                
#
BLOCK MASS  # Mass Spectrum
# PDG code           mass       particle
        24     8.05766362E+01   # W+
        25     1.25000000E+02   # h
        35     2.00636193E+03   # H
        36     2.00000000E+03   # A
        37     2.02283911E+03   # H+
         5     4.87877839E+00   # b-quark pole mass calculated from mb(mb)_Msbar
   1000001     3.00021858E+03   # ~d_L
   2000001     3.00004271E+03   # ~d_R
   1000002     2.99982412E+03   # ~u_L
   2000002     9.99999974E+04   # ~u_R
   1000003     3.00021858E+03   # ~s_L
   2000003     3.00004271E+03   # ~s_R
   1000004     2.99982412E+03   # ~c_L
   2000004     9.99999974E+04   # ~c_R
   1000005     2.95161669E+03   # ~b_1
   2000005     3.04787371E+03   # ~b_2
   1000006     3.00184332E+03   # ~t_1
   2000006     1.00000155E+05   # ~t_2
   1000011     1.00000004E+05   # ~e_L
   2000011     1.00000004E+05   # ~e_R
   1000012     9.99999922E+04   # ~nu_eL
   1000013     1.00000004E+05   # ~mu_L
   2000013     1.00000004E+05   # ~mu_R
   1000014     9.99999922E+04   # ~nu_muL
   1000015     9.99986692E+04   # ~tau_1
   2000015     1.00001339E+05   # ~tau_2
   1000016     9.99999922E+04   # ~nu_tauL
   1000021     2.40000000E+03   # ~g
   1000022     1.39998126E+03   # ~chi_10
   1000023     9.99230880E+04   # ~chi_20
   1000025    -1.00000002E+05   # ~chi_30
   1000035     1.00076933E+05   # ~chi_40
   1000024     9.99230788E+04   # ~chi_1+
   1000037     1.00076924E+05   # ~chi_2+
   1000039     5.00000000E-09   # ~gravitino
#
BLOCK NMIX  # Neutralino Mixing Matrix
  1  1     9.99999897E-01   # N_11
  1  2    -3.33397219E-07   # N_12
  1  3     3.75559555E-04   # N_13
  1  4    -2.53266981E-04   # N_14
  2  1     3.14634980E-04   # N_21
  2  2     7.07148862E-01   # N_22
  2  3    -5.00008660E-01   # N_23
  2  4     4.99931723E-01   # N_24
  3  1     8.64738114E-05   # N_31
  3  2    -7.69223349E-05   # N_32
  3  3    -7.07106742E-01   # N_33
  3  4    -7.07106811E-01   # N_34
  4  1     3.14191500E-04   # N_41
  4  2    -7.07064700E-01   # N_42
  4  3    -4.99991249E-01   # N_43
  4  4     5.00068157E-01   # N_44
#
BLOCK UMIX  # Chargino Mixing Matrix U
  1  1    -7.07052387E-01   # U_11
  1  2     7.07161171E-01   # U_12
  2  1     7.07161171E-01   # U_21
  2  2     7.07052387E-01   # U_22
#
BLOCK VMIX  # Chargino Mixing Matrix V
  1  1    -7.07161171E-01   # V_11
  1  2     7.07052387E-01   # V_12
  2  1     7.07052387E-01   # V_21
  2  2     7.07161171E-01   # V_22
#
BLOCK STOPMIX  # Stop Mixing Matrix
  1  1     9.99999514E-01   # cos(theta_t)
  1  2     9.85900484E-04   # sin(theta_t)
  2  1    -9.85900484E-04   # -sin(theta_t)
  2  2     9.99999514E-01   # cos(theta_t)
#
BLOCK SBOTMIX  # Sbottom Mixing Matrix
  1  1     7.06460430E-01   # cos(theta_b)
  1  2     7.07752542E-01   # sin(theta_b)
  2  1    -7.07752542E-01   # -sin(theta_b)
  2  2     7.06460430E-01   # cos(theta_b)
#
BLOCK STAUMIX  # Stau Mixing Matrix
  1  1     7.07086832E-01   # cos(theta_tau)
  1  2     7.07126730E-01   # sin(theta_tau)
  2  1    -7.07126730E-01   # -sin(theta_tau)
  2  2     7.07086832E-01   # cos(theta_tau)
#
BLOCK ALPHA  # Higgs mixing
          -4.51367358E-01   # Mixing angle in the neutral Higgs boson sector
#
BLOCK HMIX Q=  9.11876000E+01  # DRbar Higgs Parameters
         1     1.00000000E+05   # mu(Q)               
         2     1.49999982E+00   # tanbeta(Q)          
         3     2.55470678E+02   # vev(Q)              
         4    -2.17462503E+09   # MA^2(Q)             
#
BLOCK GAUGE Q=  9.11876000E+01  # The gauge couplings
     1     3.50072578E-01   # gprime(Q) DRbar
     2     6.14211559E-01   # g(Q) DRbar
     3     1.07194713E+00   # g3(Q) DRbar
#
BLOCK AU Q=  9.11876000E+01  # The trilinear couplings
  1  1     0.00000000E+00   # A_u(Q) DRbar
  2  2     0.00000000E+00   # A_c(Q) DRbar
  3  3     0.00000000E+00   # A_t(Q) DRbar
#
BLOCK AD Q=  9.11876000E+01  # The trilinear couplings
  1  1     0.00000000E+00   # A_d(Q) DRbar
  2  2     0.00000000E+00   # A_s(Q) DRbar
  3  3     0.00000000E+00   # A_b(Q) DRbar
#
BLOCK AE Q=  9.11876000E+01  # The trilinear couplings
  1  1     0.00000000E+00   # A_e(Q) DRbar
  2  2     0.00000000E+00   # A_mu(Q) DRbar
  3  3     0.00000000E+00   # A_tau(Q) DRbar
#
BLOCK Yu Q=  9.11876000E+01  # The Yukawa couplings
  1  1     0.00000000E+00   # y_u(Q) DRbar
  2  2     0.00000000E+00   # y_c(Q) DRbar
  3  3     9.83111033E-01   # y_t(Q) DRbar
#
BLOCK Yd Q=  9.11876000E+01  # The Yukawa couplings
  1  1     0.00000000E+00   # y_d(Q) DRbar
  2  2     0.00000000E+00   # y_s(Q) DRbar
  3  3     1.92132290E-02   # y_b(Q) DRbar
#
BLOCK Ye Q=  9.11876000E+01  # The Yukawa couplings
  1  1     0.00000000E+00   # y_e(Q) DRbar
  2  2     0.00000000E+00   # y_mu(Q) DRbar
  3  3     1.77632158E-02   # y_tau(Q) DRbar
#
BLOCK MSOFT Q=  9.11876000E+01  # The soft SUSY breaking masses at the scale Q
         1     1.40000000E+03   # M_1                 
         2     1.00000000E+05   # M_2                 
         3     2.40000000E+03   # M_3                 
        14     0.00000000E+00   # A_u                 
        15     0.00000000E+00   # A_d                 
        16     0.00000000E+00   # A_e                 
        21    -1.06558462E+10   # M^2_Hd              
        22    -1.00547842E+10   # M^2_Hu              
        31     1.00000000E+05   # M_eL                
        32     1.00000000E+05   # M_muL               
        33     1.00000000E+05   # M_tauL              
        34     1.00000000E+05   # M_eR                
        35     1.00000000E+05   # M_muR               
        36     1.00000000E+05   # M_tauR              
        41     3.00000000E+03   # M_q1L               
        42     3.00000000E+03   # M_q2L               
        43     3.00000000E+03   # M_q3L               
        44     1.00000000E+05   # M_uR                
        45     1.00000000E+05   # M_cR                
        46     1.00000000E+05   # M_tR                
        47     3.00000000E+03   # M_dR                
        48     3.00000000E+03   # M_sR                
        49     3.00000000E+03   # M_bR                
#
#
#
#                             =================
#                             |The decay table|
#                             =================
#
# - The QCD corrections to the decays gluino -> squark  + quark
#                                     squark -> gaugino + quark_prime
#                                     squark -> squark_prime + Higgs
#                                     squark -> gluino  + quark
#   are included.
#
# - The multi-body decays for the inos, stops and sbottoms are included.
#
# - The loop induced decays for the gluino, neutralinos and stops
#   are included.
#
# - The SUSY decays of the top quark are included.
#
# - Possible decays of the NLSP in GMSB models are included.
#
#
#         PDG            Width
DECAY         6     1.30234371E+00   # top decays
#          BR         NDA      ID1       ID2
     1.00000000E+00    2           5        24   # BR(t ->  b    W+)
#
#         PDG            Width
DECAY   1000021     1.E-04   # gluino decays (OJ Mods)
#          BR         NDA      ID1       ID2
     2.19247362E-02    2     1000022        21   # BR(~g -> ~chi_10 g)
#          BR         NDA      ID1       ID2
     7.29666753E-03    2     1000039        21   # BR(~g -> ~G      g)
#           BR         NDA      ID1       ID2       ID3
     2.73917009E-01    3     1000022         1        -1   # BR(~g -> ~chi_10 d  db)
     5.48163781E-02    3     1000022         2        -2   # BR(~g -> ~chi_10 u  ub)
     2.73917009E-01    3     1000022         3        -3   # BR(~g -> ~chi_10 s  sb)
     5.48163781E-02    3     1000022         4        -4   # BR(~g -> ~chi_10 c  cb)
     2.75931713E-01    3     1000022         5        -5   # BR(~g -> ~chi_10 b  bb)
     3.73801095E-02    3     1000022         6        -6   # BR(~g -> ~chi_10 t  tb)
#
#         PDG            Width
DECAY   1000006     2.62068951E+01   # stop1 decays
#          BR         NDA      ID1       ID2
     9.01260650E-03    2     1000022         6   # BR(~t_1 -> ~chi_10 t )
     9.90987394E-01    2     1000021         6   # BR(~t_1 -> ~g      t )
#
#         PDG            Width
DECAY   2000006     4.76659878E+03   # stop2 decays
#          BR         NDA      ID1       ID2
     4.40538886E-02    2     1000022         6   # BR(~t_2 -> ~chi_10 t )
     3.26834990E-07    2     1000024         5   # BR(~t_2 -> ~chi_1+ b )
     5.53907663E-01    2     1000021         6   # BR(~t_2 -> ~g      t )
     1.25727780E-02    2     1000006        25   # BR(~t_2 -> ~t_1    h )
     5.97952412E-02    2     1000006        35   # BR(~t_2 -> ~t_1    H )
     5.15088164E-02    2     1000006        36   # BR(~t_2 -> ~t_1    A )
     5.12549348E-02    2     1000005        37   # BR(~t_2 -> ~b_1    H+)
     5.18300770E-02    2     2000005        37   # BR(~t_2 -> ~b_2    H+)
     5.77575834E-02    2     1000006        23   # BR(~t_2 -> ~t_1    Z )
     5.84679044E-02    2     1000005        24   # BR(~t_2 -> ~b_1    W+)
     5.88507860E-02    2     2000005        24   # BR(~t_2 -> ~b_2    W+)
#
#         PDG            Width
DECAY   1000005     2.40892054E+01   # sbottom1 decays
#          BR         NDA      ID1       ID2
     2.38526360E-02    2     1000022         5   # BR(~b_1 -> ~chi_10 b )
     9.76147364E-01    2     1000021         5   # BR(~b_1 -> ~g      b )
#
#         PDG            Width
DECAY   2000005     3.03984433E+01   # sbottom2 decays
#          BR         NDA      ID1       ID2
     2.01852711E-02    2     1000022         5   # BR(~b_2 -> ~chi_10 b )
     9.78930594E-01    2     1000021         5   # BR(~b_2 -> ~g      b )
     8.84134701E-04    2     1000005        23   # BR(~b_2 -> ~b_1    Z )
#
#         PDG            Width
DECAY   1000002     1.47673766E+01   # sup_L decays
#          BR         NDA      ID1       ID2
     1.68041210E-02    2     1000022         2   # BR(~u_L -> ~chi_10 u)
     9.83195879E-01    2     1000021         2   # BR(~u_L -> ~g      u)
#
#         PDG            Width
DECAY   2000002     3.94185887E+03   # sup_R decays
#          BR         NDA      ID1       ID2
     5.32786638E-02    2     1000022         2   # BR(~u_R -> ~chi_10 u)
     6.65169904E-13    2     1000023         2   # BR(~u_R -> ~chi_20 u)
     9.46721336E-01    2     1000021         2   # BR(~u_R -> ~g      u)
#
#         PDG            Width
DECAY   1000001     1.47829376E+01   # sdown_L decays
#          BR         NDA      ID1       ID2
     1.67910701E-02    2     1000022         1   # BR(~d_L -> ~chi_10 d)
     9.83208930E-01    2     1000021         1   # BR(~d_L -> ~g      d)
#
#         PDG            Width
DECAY   2000001     1.55205711E+01   # sdown_R decays
#          BR         NDA      ID1       ID2
     6.39643164E-02    2     1000022         1   # BR(~d_R -> ~chi_10 d)
     9.36035684E-01    2     1000021         1   # BR(~d_R -> ~g      d)
#
#         PDG            Width
DECAY   1000004     1.47673766E+01   # scharm_L decays
#          BR         NDA      ID1       ID2
     1.68041210E-02    2     1000022         4   # BR(~c_L -> ~chi_10 c)
     9.83195879E-01    2     1000021         4   # BR(~c_L -> ~g      c)
#
#         PDG            Width
DECAY   2000004     3.94185887E+03   # scharm_R decays
#          BR         NDA      ID1       ID2
     5.32786638E-02    2     1000022         4   # BR(~c_R -> ~chi_10 c)
     6.65169904E-13    2     1000023         4   # BR(~c_R -> ~chi_20 c)
     9.46721336E-01    2     1000021         4   # BR(~c_R -> ~g      c)
#
#         PDG            Width
DECAY   1000003     1.47829376E+01   # sstrange_L decays
#          BR         NDA      ID1       ID2
     1.67910701E-02    2     1000022         3   # BR(~s_L -> ~chi_10 s)
     9.83208930E-01    2     1000021         3   # BR(~s_L -> ~g      s)
#
#         PDG            Width
DECAY   2000003     1.55205711E+01   # sstrange_R decays
#          BR         NDA      ID1       ID2
     6.39643164E-02    2     1000022         3   # BR(~s_R -> ~chi_10 s)
     9.36035684E-01    2     1000021         3   # BR(~s_R -> ~g      s)
#
#         PDG            Width
DECAY   1000011     1.21856933E+02   # selectron_L decays
#          BR         NDA      ID1       ID2
     9.99989074E-01    2     1000022        11   # BR(~e_L -> ~chi_10 e-)
     3.64323393E-06    2     1000023        11   # BR(~e_L -> ~chi_20 e-)
     3.76324660E-24    2     1000025        11   # BR(~e_L -> ~chi_30 e-)
     7.28252783E-06    2    -1000024        12   # BR(~e_L -> ~chi_1- nu_e)
#
#         PDG            Width
DECAY   2000011     4.87422977E+02   # selectron_R decays
#          BR         NDA      ID1       ID2
     1.00000000E+00    2     1000022        11   # BR(~e_R -> ~chi_10 e-)
     2.34176648E-13    2     1000023        11   # BR(~e_R -> ~chi_20 e-)
     1.19690447E-23    2     1000025        11   # BR(~e_R -> ~chi_30 e-)
#
#         PDG            Width
DECAY   1000013     1.21856933E+02   # smuon_L decays
#          BR         NDA      ID1       ID2
     9.99989074E-01    2     1000022        13   # BR(~mu_L -> ~chi_10 mu-)
     3.64323393E-06    2     1000023        13   # BR(~mu_L -> ~chi_20 mu-)
     3.76324660E-24    2     1000025        13   # BR(~mu_L -> ~chi_30 mu-)
     7.28252783E-06    2    -1000024        14   # BR(~mu_L -> ~chi_1- nu_mu)
#
#         PDG            Width
DECAY   2000013     4.87422977E+02   # smuon_R decays
#          BR         NDA      ID1       ID2
     1.00000000E+00    2     1000022        13   # BR(~mu_R -> ~chi_10 mu-)
     2.34176648E-13    2     1000023        13   # BR(~mu_R -> ~chi_20 mu-)
     1.19690447E-23    2     1000025        13   # BR(~mu_R -> ~chi_30 mu-)
#
#         PDG            Width
DECAY   1000015     7.65136752E+02   # stau_1 decays
#          BR         NDA      ID1       ID2
     3.98162731E-01    2     1000022        15   # BR(~tau_1 -> ~chi_10  tau-)
     2.96315521E-07    2     1000023        15   # BR(~tau_1 -> ~chi_20  tau-)
     5.92809418E-07    2    -1000024        16   # BR(~tau_1 -> ~chi_1-  nu_tau)
     6.01836380E-01    2     1000039        15   # BR(~tau_1 -> ~G       tau-)
#
#         PDG            Width
DECAY   2000015     3.04630290E+02   # stau_2 decays
#          BR         NDA      ID1       ID2
     9.99997868E-01    2     1000022        15   # BR(~tau_2 -> ~chi_10  tau-)
     7.10724800E-07    2     1000023        15   # BR(~tau_2 -> ~chi_20  tau-)
     1.42165445E-06    2    -1000024        16   # BR(~tau_2 -> ~chi_1-  nu_tau)
#
#         PDG            Width
DECAY   1000012     1.21857203E+02   # snu_eL decays
#          BR         NDA      ID1       ID2
     9.99989079E-01    2     1000022        12   # BR(~nu_eL -> ~chi_10 nu_e)
     3.63841638E-06    2     1000023        12   # BR(~nu_eL -> ~chi_20 nu_e)
     7.28251976E-06    2     1000024        11   # BR(~nu_eL -> ~chi_1+ e-)
#
#         PDG            Width
DECAY   1000014     1.21857203E+02   # snu_muL decays
#          BR         NDA      ID1       ID2
     9.99989079E-01    2     1000022        14   # BR(~nu_muL -> ~chi_10 nu_mu)
     3.63841638E-06    2     1000023        14   # BR(~nu_muL -> ~chi_20 nu_mu)
     7.28251976E-06    2     1000024        13   # BR(~nu_muL -> ~chi_1+ mu-)
#
#         PDG            Width
DECAY   1000016     1.21857203E+02   # snu_tauL decays
#          BR         NDA      ID1       ID2
     9.99989085E-01    2     1000022        16   # BR(~nu_tauL -> ~chi_10 nu_tau)
     3.63841640E-06    2     1000023        16   # BR(~nu_tauL -> ~chi_20 nu_tau)
     7.27693812E-06    2     1000024        15   # BR(~nu_tauL -> ~chi_1+ tau-)
#
#         PDG            Width
DECAY   1000024     3.89436199E+03   # chargino1+ decays
#          BR         NDA      ID1       ID2
     1.25107662E-01    2     1000002        -1   # BR(~chi_1+ -> ~u_L     db)
     1.25069128E-01    2    -1000001         2   # BR(~chi_1+ -> ~d_L*    u )
     1.25107662E-01    2     1000004        -3   # BR(~chi_1+ -> ~c_L     sb)
     1.25069128E-01    2    -1000003         4   # BR(~chi_1+ -> ~s_L*    c )
     1.11297935E-01    2     1000006        -5   # BR(~chi_1+ -> ~t_1     bb)
     1.36705834E-01    2    -1000005         6   # BR(~chi_1+ -> ~b_1*    t )
     1.32664426E-01    2    -2000005         6   # BR(~chi_1+ -> ~b_2*    t )
     6.81164625E-03    2     1000022        24   # BR(~chi_1+ -> ~chi_10  W+)
     6.82113359E-03    2     1000022        37   # BR(~chi_1+ -> ~chi_10  H+)
     7.90398519E-02    2     1000039        24   # BR(~chi_1+ -> ~G       W+)
     2.63055947E-02    2     1000039        37   # BR(~chi_1+ -> ~G       H+)
#
#         PDG            Width
DECAY   1000037     3.89869130E+03   # chargino2+ decays
#          BR         NDA      ID1       ID2
     1.25036182E-01    2     1000002        -1   # BR(~chi_2+ -> ~u_L     db)
     1.25074615E-01    2    -1000001         2   # BR(~chi_2+ -> ~d_L*    u )
     1.25036182E-01    2     1000004        -3   # BR(~chi_2+ -> ~c_L     sb)
     1.25074615E-01    2    -1000003         4   # BR(~chi_2+ -> ~s_L*    c )
     1.10933225E-01    2     1000006        -5   # BR(~chi_2+ -> ~t_1     bb)
     8.30722907E-07    2     2000006        -5   # BR(~chi_2+ -> ~t_2     bb)
     1.31244568E-01    2    -1000005         6   # BR(~chi_2+ -> ~b_1*    t )
     1.37487225E-01    2    -2000005         6   # BR(~chi_2+ -> ~b_2*    t )
     1.01689872E-07    2     1000012       -11   # BR(~chi_2+ -> ~nu_eL   e+  )
     1.01689872E-07    2     1000014       -13   # BR(~chi_2+ -> ~nu_muL  mu+ )
     1.01611915E-07    2     1000016       -15   # BR(~chi_2+ -> ~nu_tau1 tau+)
     1.01689976E-07    2    -1000011        12   # BR(~chi_2+ -> ~e_L+    nu_e)
     1.01689976E-07    2    -1000013        14   # BR(~chi_2+ -> ~mu_L+   nu_mu)
     4.96219116E-08    2    -1000015        16   # BR(~chi_2+ -> ~tau_1+  nu_tau)
     5.19791909E-08    2    -2000015        16   # BR(~chi_2+ -> ~tau_2+  nu_tau)
     2.60238002E-04    2     1000024        23   # BR(~chi_2+ -> ~chi_1+  Z )
     6.79066801E-03    2     1000022        24   # BR(~chi_2+ -> ~chi_10  W+)
     2.97695379E-04    2     1000023        24   # BR(~chi_2+ -> ~chi_20  W+)
     6.65708242E-12    2     1000024        25   # BR(~chi_2+ -> ~chi_1+  h )
     6.79589844E-03    2     1000022        37   # BR(~chi_2+ -> ~chi_10  H+)
     7.95095662E-02    2     1000039        24   # BR(~chi_2+ -> ~G       W+)
     2.64578804E-02    2     1000039        37   # BR(~chi_2+ -> ~G       H+)
#
#         PDG            Width
DECAY   1000022     1.E-08   # neutralino1 decays (OJ Mods)
#          BR         NDA      ID1       ID2
     7.57936959E-01    2     1000039        22   # BR(~chi_10 -> ~G        gam)
     2.42063039E-01    2     1000039        23   # BR(~chi_10 -> ~G        Z)
     1.99699575E-09    2     1000039        25   # BR(~chi_10 -> ~G        h)
#
#         PDG            Width
DECAY   1000023     1.E-08   # neutralino2 decays (OJ Mods)
#          BR         NDA      ID1       ID2
     2.56135049E-04    2     1000022        23   # BR(~chi_20 -> ~chi_10   Z )
     6.42510997E-03    2     1000022        25   # BR(~chi_20 -> ~chi_10   h )
     7.74324469E-04    2     1000022        35   # BR(~chi_20 -> ~chi_10   H )
     6.54108043E-03    2     1000022        36   # BR(~chi_20 -> ~chi_10   A )
     6.05967295E-02    2     1000002        -2   # BR(~chi_20 -> ~u_L      ub)
     6.05967295E-02    2    -1000002         2   # BR(~chi_20 -> ~u_L*     u )
     6.05762288E-02    2     1000001        -1   # BR(~chi_20 -> ~d_L      db)
     6.05762288E-02    2    -1000001         1   # BR(~chi_20 -> ~d_L*     d )
     1.73167233E-09    2     2000001        -1   # BR(~chi_20 -> ~d_R      db)
     1.73167233E-09    2    -2000001         1   # BR(~chi_20 -> ~d_R*     d )
     6.05967295E-02    2     1000004        -4   # BR(~chi_20 -> ~c_L      cb)
     6.05967295E-02    2    -1000004         4   # BR(~chi_20 -> ~c_L*     c )
     6.05762288E-02    2     1000003        -3   # BR(~chi_20 -> ~s_L      sb)
     6.05762288E-02    2    -1000003         3   # BR(~chi_20 -> ~s_L*     s )
     1.73167233E-09    2     2000003        -3   # BR(~chi_20 -> ~s_R      sb)
     1.73167233E-09    2    -2000003         3   # BR(~chi_20 -> ~s_R*     s )
     1.34621369E-01    2     1000006        -6   # BR(~chi_20 -> ~t_1      tb)
     1.34621369E-01    2    -1000006         6   # BR(~chi_20 -> ~t_1*     t )
     2.89883705E-02    2     1000005        -5   # BR(~chi_20 -> ~b_1      bb)
     2.89883705E-02    2    -1000005         5   # BR(~chi_20 -> ~b_1*     b )
     2.66015379E-02    2     2000005        -5   # BR(~chi_20 -> ~b_2      bb)
     2.66015379E-02    2    -2000005         5   # BR(~chi_20 -> ~b_2*     b )
     1.29383293E-02    2     1000039        22   # BR(~chi_20 -> ~G        gam)
     6.50688454E-02    2     1000039        23   # BR(~chi_20 -> ~G        Z)
     2.82955169E-03    2     1000039        25   # BR(~chi_20 -> ~G        h)
     2.34687247E-02    2     1000039        35   # BR(~chi_20 -> ~G        H)
     1.01208548E-03    2     1000039        36   # BR(~chi_20 -> ~G        A)
#
#         PDG            Width
DECAY   1000025     1.49613835E+03   # neutralino3 decays
#          BR         NDA      ID1       ID2
     3.01964475E-02    2     1000022        23   # BR(~chi_30 -> ~chi_10   Z )
     3.25527722E-03    2     1000022        25   # BR(~chi_30 -> ~chi_10   h )
     2.70077240E-02    2     1000022        35   # BR(~chi_30 -> ~chi_10   H )
     1.23093040E-03    2     1000022        36   # BR(~chi_30 -> ~chi_10   A )
     9.87625698E-10    2     1000002        -2   # BR(~chi_30 -> ~u_L      ub)
     9.87625698E-10    2    -1000002         2   # BR(~chi_30 -> ~u_L*     u )
     1.77430233E-17    2     2000002        -2   # BR(~chi_30 -> ~u_R      ub)
     1.77430233E-17    2    -2000002         2   # BR(~chi_30 -> ~u_R*     u )
     2.35185972E-09    2     1000001        -1   # BR(~chi_30 -> ~d_L      db)
     2.35185972E-09    2    -1000001         1   # BR(~chi_30 -> ~d_L*     d )
     2.91366756E-10    2     2000001        -1   # BR(~chi_30 -> ~d_R      db)
     2.91366756E-10    2    -2000001         1   # BR(~chi_30 -> ~d_R*     d )
     9.87625698E-10    2     1000004        -4   # BR(~chi_30 -> ~c_L      cb)
     9.87625698E-10    2    -1000004         4   # BR(~chi_30 -> ~c_L*     c )
     1.77430233E-17    2     2000004        -4   # BR(~chi_30 -> ~c_R      cb)
     1.77430233E-17    2    -2000004         4   # BR(~chi_30 -> ~c_R*     c )
     2.35185972E-09    2     1000003        -3   # BR(~chi_30 -> ~s_L      sb)
     2.35185972E-09    2    -1000003         3   # BR(~chi_30 -> ~s_L*     s )
     2.91366756E-10    2     2000003        -3   # BR(~chi_30 -> ~s_R      sb)
     2.91366756E-10    2    -2000003         3   # BR(~chi_30 -> ~s_R*     s )
     3.51319579E-01    2     1000006        -6   # BR(~chi_30 -> ~t_1      tb)
     3.51319579E-01    2    -1000006         6   # BR(~chi_30 -> ~t_1*     t )
     1.15292696E-04    2     1000005        -5   # BR(~chi_30 -> ~b_1      bb)
     1.15292696E-04    2    -1000005         5   # BR(~chi_30 -> ~b_1*     b )
     1.17360118E-04    2     2000005        -5   # BR(~chi_30 -> ~b_2      bb)
     1.17360118E-04    2    -2000005         5   # BR(~chi_30 -> ~b_2*     b )
     5.86905770E-23    2     1000012       -12   # BR(~chi_30 -> ~nu_eL    nu_eb)
     5.86905770E-23    2    -1000012        12   # BR(~chi_30 -> ~nu_eL*   nu_e )
     5.86905770E-23    2     1000014       -14   # BR(~chi_30 -> ~nu_muL   nu_mub)
     5.86905770E-23    2    -1000014        14   # BR(~chi_30 -> ~nu_muL*  nu_mu )
     5.86905770E-23    2     1000016       -16   # BR(~chi_30 -> ~nu_tau1  nu_taub)
     5.86905770E-23    2    -1000016        16   # BR(~chi_30 -> ~nu_tau1* nu_tau )
     3.22936114E-10    2     1000039        22   # BR(~chi_30 -> ~G        gam)
     4.52704794E-03    2     1000039        23   # BR(~chi_30 -> ~G        Z)
     1.05051192E-01    2     1000039        25   # BR(~chi_30 -> ~G        h)
     1.26313641E-02    2     1000039        35   # BR(~chi_30 -> ~G        H)
     1.12995538E-01    2     1000039        36   # BR(~chi_30 -> ~G        A)
#
#         PDG            Width
DECAY   1000035     3.89951918E+03   # neutralino4 decays
#          BR         NDA      ID1       ID2
     2.56538188E-04    2     1000022        23   # BR(~chi_40 -> ~chi_10   Z )
     9.94232184E-19    2     1000023        23   # BR(~chi_40 -> ~chi_20   Z )
     2.97570720E-04    2     1000024       -24   # BR(~chi_40 -> ~chi_1+   W-)
     2.97570720E-04    2    -1000024        24   # BR(~chi_40 -> ~chi_1-   W+)
     6.40734384E-03    2     1000022        25   # BR(~chi_40 -> ~chi_10   h )
     7.69908513E-04    2     1000022        35   # BR(~chi_40 -> ~chi_10   H )
     6.52030914E-03    2     1000022        36   # BR(~chi_40 -> ~chi_10   A )
     3.18856347E-12    2     1000023        25   # BR(~chi_40 -> ~chi_20   h )
     6.05522114E-02    2     1000002        -2   # BR(~chi_40 -> ~u_L      ub)
     6.05522114E-02    2    -1000002         2   # BR(~chi_40 -> ~u_L*     u )
     1.78157769E-12    2     2000002        -2   # BR(~chi_40 -> ~u_R      ub)
     1.78157769E-12    2    -2000002         2   # BR(~chi_40 -> ~u_R*     u )
     6.05726476E-02    2     1000001        -1   # BR(~chi_40 -> ~d_L      db)
     6.05726476E-02    2    -1000001         1   # BR(~chi_40 -> ~d_L*     d )
     1.72651966E-09    2     2000001        -1   # BR(~chi_40 -> ~d_R      db)
     1.72651966E-09    2    -2000001         1   # BR(~chi_40 -> ~d_R*     d )
     6.05522114E-02    2     1000004        -4   # BR(~chi_40 -> ~c_L      cb)
     6.05522114E-02    2    -1000004         4   # BR(~chi_40 -> ~c_L*     c )
     1.78157769E-12    2     2000004        -4   # BR(~chi_40 -> ~c_R      cb)
     1.78157769E-12    2    -2000004         4   # BR(~chi_40 -> ~c_R*     c )
     6.05726476E-02    2     1000003        -3   # BR(~chi_40 -> ~s_L      sb)
     6.05726476E-02    2    -1000003         3   # BR(~chi_40 -> ~s_L*     s )
     1.72651966E-09    2     2000003        -3   # BR(~chi_40 -> ~s_R      sb)
     1.72651966E-09    2    -2000003         3   # BR(~chi_40 -> ~s_R*     s )
     1.34127090E-01    2     1000006        -6   # BR(~chi_40 -> ~t_1      tb)
     1.34127090E-01    2    -1000006         6   # BR(~chi_40 -> ~t_1*     t )
     2.64165062E-02    2     1000005        -5   # BR(~chi_40 -> ~b_1      bb)
     2.64165062E-02    2    -1000005         5   # BR(~chi_40 -> ~b_1*     b )
     2.91735024E-02    2     2000005        -5   # BR(~chi_40 -> ~b_2      bb)
     2.91735024E-02    2    -2000005         5   # BR(~chi_40 -> ~b_2*     b )
     5.08074212E-08    2     1000011       -11   # BR(~chi_40 -> ~e_L-     e+)
     5.08074212E-08    2    -1000011        11   # BR(~chi_40 -> ~e_L+     e-)
     1.30424122E-14    2     2000011       -11   # BR(~chi_40 -> ~e_R-     e+)
     1.30424122E-14    2    -2000011        11   # BR(~chi_40 -> ~e_R+     e-)
     5.08074212E-08    2     1000013       -13   # BR(~chi_40 -> ~mu_L-    mu+)
     5.08074212E-08    2    -1000013        13   # BR(~chi_40 -> ~mu_L+    mu-)
     1.30424122E-14    2     2000013       -13   # BR(~chi_40 -> ~mu_R-    mu+)
     1.30424122E-14    2    -2000013        13   # BR(~chi_40 -> ~mu_R+    mu-)
     2.47737530E-08    2     1000015       -15   # BR(~chi_40 -> ~tau_1-   tau+)
     2.47737530E-08    2    -1000015        15   # BR(~chi_40 -> ~tau_1+   tau-)
     2.59503000E-08    2     2000015       -15   # BR(~chi_40 -> ~tau_2-   tau+)
     2.59503000E-08    2    -2000015        15   # BR(~chi_40 -> ~tau_2+   tau-)
     5.08745157E-08    2     1000012       -12   # BR(~chi_40 -> ~nu_eL    nu_eb)
     5.08745157E-08    2    -1000012        12   # BR(~chi_40 -> ~nu_eL*   nu_e )
     5.08745157E-08    2     1000014       -14   # BR(~chi_40 -> ~nu_muL   nu_mub)
     5.08745157E-08    2    -1000014        14   # BR(~chi_40 -> ~nu_muL*  nu_mu )
     5.08745157E-08    2     1000016       -16   # BR(~chi_40 -> ~nu_tau1  nu_taub)
     5.08745157E-08    2    -1000016        16   # BR(~chi_40 -> ~nu_tau1* nu_tau )
     1.29724440E-02    2     1000039        22   # BR(~chi_40 -> ~G        gam)
     6.54985613E-02    2     1000039        23   # BR(~chi_40 -> ~G        Z)
     2.84976022E-03    2     1000039        25   # BR(~chi_40 -> ~G        h)
     2.36129850E-02    2     1000039        35   # BR(~chi_40 -> ~G        H)
     1.01684982E-03    2     1000039        36   # BR(~chi_40 -> ~G        A)
#
#
#
#
