#
#                              ======================
#                              | THE SUSYHIT OUTPUT |
#                              ======================
#
#
#              ------------------------------------------------------
#              |     This is the output of the SUSY-HIT package     |
#              |  created by A.Djouadi, M.Muehlleitner and M.Spira. |
#              |  In case of problems with SUSY-HIT email to        |
#              |           margarete.muehlleitner@cern.ch           |
#              |           michael.spira@psi.ch                     |
#              |           abdelhak.djouadi@cern.ch                 |
#              ------------------------------------------------------
#
#              ------------------------------------------------------
#              |  SUSY Les Houches Accord - MSSM Spectrum + Decays  |
#              |              based on the decay programs           |
#              |                                                    |
#              |                     SDECAY 1.3b                    |
#              |                                                    |
#              |  Authors: M.Muhlleitner, A.Djouadi and Y.Mambrini  |
#              |  Ref.:    Comput.Phys.Commun.168(2005)46           |
#              |           [hep-ph/0311167]                         |
#              |                                                    |
#              |                     HDECAY 3.4                     |
#              |                                                    |
#              |  By: A.Djouadi,J.Kalinowski,M.Muhlleitner,M.Spira  |
#              |  Ref.:    Comput.Phys.Commun.108(1998)56           |
#              |           [hep-ph/9704448]                         |
#              |                                                    |
#              |                                                    |
#              |  If not stated otherwise all DRbar couplings and   |
#              |  soft SUSY breaking masses are given at the scale  |
#              |  Q=  0.91187600E+02
#              |                                                    |
#              ------------------------------------------------------
#
#
BLOCK DCINFO  # Decay Program information
     1   SDECAY/HDECAY # decay calculator
     2   1.3b  /3.4    # version number
#
BLOCK SPINFO  # Spectrum calculator information
     1   SuSpect     # RGE +Spectrum calculator            
     2   2.41         # version number                     
#
BLOCK MODSEL  # Model selection
     1     0   # #general MSSM low scale                           
#
BLOCK SMINPUTS  # Standard Model inputs
         1     1.27934000E+02   # alpha_em^-1(M_Z)^MSbar
         2     1.16639000E-05   # G_F [GeV^-2]
         3     1.17200000E-01   # alpha_S(M_Z)^MSbar
         4     9.11870000E+01   # M_Z pole mass
         5     4.25000000E+00   # mb(mb)^MSbar
         6     1.72500000E+02   # mt pole mass
         7     1.77700000E+00   # mtau pole mass
#
BLOCK MINPAR  # Input parameters - minimal models
#
BLOCK EXTPAR  # Input parameters - non-minimal models
         0     9.11876000E+01   # EWSB                
         1     9.50000000E+02   # M_1                 
         2     1.00000000E+05   # M_2                 
         3     1.00000000E+05   # M_3                 
        11     0.00000000E+00   # A_t                 
        12     0.00000000E+00   # A_b                 
        13     0.00000000E+00   # A_tau               
        14     0.00000000E+00   # A_u                 
        15     0.00000000E+00   # A_d                 
        16     0.00000000E+00   # A_e                 
        23     3.50000000E+03   # mu(EWSB)            
        25     1.50000000E+00   # tanbeta(in)         
        26     2.00000000E+03   # MA_pole             
        31     1.00000000E+05   # M_eL                
        32     1.00000000E+05   # M_muL               
        33     1.00000000E+05   # M_tauL              
        34     1.00000000E+05   # M_eR                
        35     1.00000000E+05   # M_muR               
        36     1.00000000E+05   # M_tauR              
        41     1.00000000E+03   # M_q1L               
        42     1.00000000E+03   # M_q2L               
        43     1.00000000E+03   # M_q3L               
        44     1.00000000E+05   # M_uR                
        45     1.00000000E+05   # M_cR                
        46     1.00000000E+05   # M_tR                
        47     1.00000000E+03   # M_dR                
        48     1.00000000E+03   # M_sR                
        49     1.00000000E+03   # M_bR                
#
BLOCK MASS  # Mass Spectrum
# PDG code           mass       particle
        24     8.05807079E+01   # W+
        25     1.25000000E+02   # h
        35     2.00386689E+03   # H
        36     2.00000000E+03   # A
        37     2.02367772E+03   # H+
         5     4.87877839E+00   # b-quark pole mass calculated from mb(mb)_Msbar
   1000001     1.00066606E+03   # ~d_L
   2000001     1.00012797E+03   # ~d_R
   1000002     9.99461555E+02   # ~u_L
   2000002     9.99999974E+04   # ~u_R
   1000003     1.00066606E+03   # ~s_L
   2000003     1.00012797E+03   # ~s_R
   1000004     9.99461555E+02   # ~c_L
   2000004     9.99999974E+04   # ~c_R
   1000005     9.93601652E+02   # ~b_1
   2000005     1.00715321E+03   # ~b_2
   1000006     1.01027226E+03   # ~t_1
   2000006     1.00000106E+05   # ~t_2
   1000011     1.00000004E+05   # ~e_L
   2000011     1.00000004E+05   # ~e_R
   1000012     9.99999921E+04   # ~nu_eL
   1000013     1.00000004E+05   # ~mu_L
   2000013     1.00000004E+05   # ~mu_R
   1000014     9.99999921E+04   # ~nu_muL
   1000015     9.99999574E+04   # ~tau_1
   2000015     1.00000051E+05   # ~tau_2
   1000016     9.99999921E+04   # ~nu_tauL
   1000021     1.00000000E+05   # ~g
   1000022     9.49264633E+02   # ~chi_10
   1000023    -3.50001958E+03   # ~chi_20
   1000025     3.50069021E+03   # ~chi_30
   1000035     1.00000065E+05   # ~chi_40
   1000024     3.49993991E+03   # ~chi_1+
   1000037     1.00000065E+05   # ~chi_2+
   1000039     1.00000000E-09   # ~gravitino
#
BLOCK NMIX  # Neutralino Mixing Matrix
  1  1     9.99850559E-01   # N_11
  1  2    -1.31482230E-05   # N_12
  1  3     1.35370445E-02   # N_13
  1  4    -1.07520840E-02   # N_14
  2  1     1.96931229E-03   # N_21
  2  2    -1.49976043E-04   # N_22
  2  3    -7.07095510E-01   # N_23
  2  4    -7.07115294E-01   # N_24
  3  1     1.71750064E-02   # N_31
  3  2     8.04111414E-04   # N_32
  3  3    -7.06988312E-01   # N_33
  3  4     7.07016194E-01   # N_34
  4  1     3.69011381E-07   # N_41
  4  2    -9.99999665E-01   # N_42
  4  3    -4.62628127E-04   # N_43
  4  4     6.74711742E-04   # N_44
#
BLOCK UMIX  # Chargino Mixing Matrix U
  1  1    -6.54254765E-04   # U_11
  1  2     9.99999786E-01   # U_12
  2  1     9.99999786E-01   # U_21
  2  2     6.54254765E-04   # U_22
#
BLOCK VMIX  # Chargino Mixing Matrix V
  1  1    -9.54186407E-04   # V_11
  1  2     9.99999545E-01   # V_12
  2  1     9.99999545E-01   # V_21
  2  2     9.54186407E-04   # V_22
#
BLOCK STOPMIX  # Stop Mixing Matrix
  1  1     9.99999999E-01   # cos(theta_t)
  1  2     4.47213589E-05   # sin(theta_t)
  2  1    -4.47213589E-05   # -sin(theta_t)
  2  2     9.99999999E-01   # cos(theta_t)
#
BLOCK SBOTMIX  # Sbottom Mixing Matrix
  1  1     6.92925907E-01   # cos(theta_b)
  1  2     7.21008798E-01   # sin(theta_b)
  2  1    -7.21008798E-01   # -sin(theta_b)
  2  2     6.92925907E-01   # cos(theta_b)
#
BLOCK STAUMIX  # Stau Mixing Matrix
  1  1     7.06104297E-01   # cos(theta_tau)
  1  2     7.08107846E-01   # sin(theta_tau)
  2  1    -7.08107846E-01   # -sin(theta_tau)
  2  2     7.06104297E-01   # cos(theta_tau)
#
BLOCK ALPHA  # Higgs mixing
          -5.90224184E-01   # Mixing angle in the neutral Higgs boson sector
#
BLOCK HMIX Q=  9.11876000E+01  # DRbar Higgs Parameters
         1     3.50000000E+03   # mu(Q)               
         2     1.49999982E+00   # tanbeta(Q)          
         3     2.54865172E+02   # vev(Q)              
         4    -6.84841694E+07   # MA^2(Q)             
#
BLOCK GAUGE Q=  9.11876000E+01  # The gauge couplings
     1     3.50633401E-01   # gprime(Q) DRbar
     2     6.21067916E-01   # g(Q) DRbar
     3     1.02926434E+00   # g3(Q) DRbar
#
BLOCK AU Q=  9.11876000E+01  # The trilinear couplings
  1  1     0.00000000E+00   # A_u(Q) DRbar
  2  2     0.00000000E+00   # A_c(Q) DRbar
  3  3     0.00000000E+00   # A_t(Q) DRbar
#
BLOCK AD Q=  9.11876000E+01  # The trilinear couplings
  1  1     0.00000000E+00   # A_d(Q) DRbar
  2  2     0.00000000E+00   # A_s(Q) DRbar
  3  3     0.00000000E+00   # A_b(Q) DRbar
#
BLOCK AE Q=  9.11876000E+01  # The trilinear couplings
  1  1     0.00000000E+00   # A_e(Q) DRbar
  2  2     0.00000000E+00   # A_mu(Q) DRbar
  3  3     0.00000000E+00   # A_tau(Q) DRbar
#
BLOCK Yu Q=  9.11876000E+01  # The Yukawa couplings
  1  1     0.00000000E+00   # y_u(Q) DRbar
  2  2     0.00000000E+00   # y_c(Q) DRbar
  3  3     9.83262437E-01   # y_t(Q) DRbar
#
BLOCK Yd Q=  9.11876000E+01  # The Yukawa couplings
  1  1     0.00000000E+00   # y_d(Q) DRbar
  2  2     0.00000000E+00   # y_s(Q) DRbar
  3  3     2.58105608E-02   # y_b(Q) DRbar
#
BLOCK Ye Q=  9.11876000E+01  # The Yukawa couplings
  1  1     0.00000000E+00   # y_e(Q) DRbar
  2  2     0.00000000E+00   # y_mu(Q) DRbar
  3  3     1.77390799E-02   # y_tau(Q) DRbar
#
BLOCK MSOFT Q=  9.11876000E+01  # The soft SUSY breaking masses at the scale Q
         1     9.50000000E+02   # M_1                 
         2     1.00000000E+05   # M_2                 
         3     1.00000000E+05   # M_3                 
        14     0.00000000E+00   # A_u                 
        15     0.00000000E+00   # A_d                 
        16     0.00000000E+00   # A_e                 
        21     6.34934373E+08   # M^2_Hd              
        22    -1.14355794E+09   # M^2_Hu              
        31     1.00000000E+05   # M_eL                
        32     1.00000000E+05   # M_muL               
        33     1.00000000E+05   # M_tauL              
        34     1.00000000E+05   # M_eR                
        35     1.00000000E+05   # M_muR               
        36     1.00000000E+05   # M_tauR              
        41     1.00000000E+03   # M_q1L               
        42     1.00000000E+03   # M_q2L               
        43     1.00000000E+03   # M_q3L               
        44     1.00000000E+05   # M_uR                
        45     1.00000000E+05   # M_cR                
        46     1.00000000E+05   # M_tR                
        47     1.00000000E+03   # M_dR                
        48     1.00000000E+03   # M_sR                
        49     1.00000000E+03   # M_bR                
#
#
#
#                             =================
#                             |The decay table|
#                             =================
#
# - The QCD corrections to the decays gluino -> squark  + quark
#                                     squark -> gaugino + quark_prime
#                                     squark -> squark_prime + Higgs
#                                     squark -> gluino  + quark
#   are included.
#
# - The multi-body decays for the inos, stops and sbottoms are included.
#
# - The loop induced decays for the gluino, neutralinos and stops
#   are included.
#
# - The SUSY decays of the top quark are included.
#
# - Possible decays of the NLSP in GMSB models are included.
#
#
#         PDG            Width
DECAY         6     1.33141296E+00   # top decays
#          BR         NDA      ID1       ID2
     1.00000000E+00    2           5        24   # BR(t ->  b    W+)
#
#         PDG            Width
DECAY   1000021     1.E-04   # gluino decays (OJ Mods)
#          BR         NDA      ID1       ID2
     7.72137075E-04    2     1000001        -1   # BR(~g -> ~d_L  db)
     7.72137075E-04    2    -1000001         1   # BR(~g -> ~d_L* d )
     7.72137241E-04    2     2000001        -1   # BR(~g -> ~d_R  db)
     7.72137241E-04    2    -2000001         1   # BR(~g -> ~d_R* d )
     7.72137447E-04    2     1000002        -2   # BR(~g -> ~u_L  ub)
     7.72137447E-04    2    -1000002         2   # BR(~g -> ~u_L* u )
     2.08827679E-18    2     2000002        -2   # BR(~g -> ~u_R  ub)
     2.08827679E-18    2    -2000002         2   # BR(~g -> ~u_R* u )
     7.72137075E-04    2     1000003        -3   # BR(~g -> ~s_L  sb)
     7.72137075E-04    2    -1000003         3   # BR(~g -> ~s_L* s )
     7.72137241E-04    2     2000003        -3   # BR(~g -> ~s_R  sb)
     7.72137241E-04    2    -2000003         3   # BR(~g -> ~s_R* s )
     7.72137447E-04    2     1000004        -4   # BR(~g -> ~c_L  cb)
     7.72137447E-04    2    -1000004         4   # BR(~g -> ~c_L* c )
     2.08827679E-18    2     2000004        -4   # BR(~g -> ~c_R  cb)
     2.08827679E-18    2    -2000004         4   # BR(~g -> ~c_R* c )
     2.42621725E-01    2     1000005        -5   # BR(~g -> ~b_1  bb)
     2.42621725E-01    2    -1000005         5   # BR(~g -> ~b_1* b )
     2.41204806E-01    2     2000005        -5   # BR(~g -> ~b_2  bb)
     2.41204806E-01    2    -2000005         5   # BR(~g -> ~b_2* b )
     7.59798108E-04    2     1000006        -6   # BR(~g -> ~t_1  tb)
     7.59798108E-04    2    -1000006         6   # BR(~g -> ~t_1* t )
     2.15616954E-02    2     1000039        21   # BR(~g -> ~G g)
#
#         PDG            Width
DECAY   1000006     2.15282690E-04   # stop1 decays
#          BR         NDA      ID1       ID2
     9.86303784E-01    2     1000022         4   # BR(~t_1 -> ~chi_10 c )
     7.60410294E-03    2     1000022         2   # BR(~t_1 -> ~chi_10 u )
#           BR         NDA      ID1       ID2       ID3
     2.04256533E-03    3     1000005        -1         2   # BR(~t_1 -> ~b_1     db u)
     5.05132108E-07    3     2000005        -1         2   # BR(~t_1 -> ~b_2     db u)
     2.04256533E-03    3     1000005        -3         4   # BR(~t_1 -> ~b_1     sb c)
     5.05132108E-07    3     2000005        -3         4   # BR(~t_1 -> ~b_2     sb c)
     6.43892268E-04    3     1000005       -15        16   # BR(~t_1 -> ~b_1     tau+ nu_tau)
     3.25947083E-08    3     2000005       -15        16   # BR(~t_1 -> ~b_2     tau+ nu_tau)
     6.80855109E-04    3     1000005       -11        12   # BR(~t_1 -> ~b_1     e+   nu_e)
     1.68377369E-07    3     2000005       -11        12   # BR(~t_1 -> ~b_2     e+   nu_e)
     6.80855109E-04    3     1000005       -13        14   # BR(~t_1 -> ~b_1     mu+  nu_mu)
     1.68377369E-07    3     2000005       -13        14   # BR(~t_1 -> ~b_2     mu+  nu_mu)
#
#         PDG            Width
DECAY   2000006     2.18758248E+05   # stop2 decays
#          BR         NDA      ID1       ID2
     9.52727253E-04    2     1000022         6   # BR(~t_2 -> ~chi_10 t )
     2.26385598E-03    2     1000023         6   # BR(~t_2 -> ~chi_20 t )
     2.26345584E-03    2     1000025         6   # BR(~t_2 -> ~chi_30 t )
     9.94600982E-01    2     1000024         5   # BR(~t_2 -> ~chi_1+ b )
    -6.27249474E-05    2     1000006        25   # BR(~t_2 -> ~t_1    h )
     6.56335351E-05    2     1000006        35   # BR(~t_2 -> ~t_1    H )
     6.55222589E-05    2     1000006        36   # BR(~t_2 -> ~t_1    A )
     6.17014692E-05    2     1000005        37   # BR(~t_2 -> ~b_1    H+)
     6.93395413E-05    2     2000005        37   # BR(~t_2 -> ~b_2    H+)
    -4.51242411E-05    2     1000006        23   # BR(~t_2 -> ~t_1    Z )
    -1.13013577E-04    2     1000005        24   # BR(~t_2 -> ~b_1    W+)
    -1.22355116E-04    2     2000005        24   # BR(~t_2 -> ~b_2    W+)
#
#         PDG            Width
DECAY   1000005     3.13432997E-01   # sbottom1 decays
#          BR         NDA      ID1       ID2
     1.00000000E+00    2     1000022         5   # BR(~b_1 -> ~chi_10 b )
#
#         PDG            Width
DECAY   2000005     5.63886691E-01   # sbottom2 decays
#          BR         NDA      ID1       ID2
     1.00000000E+00    2     1000022         5   # BR(~b_2 -> ~chi_10 b )
#
#         PDG            Width
DECAY   1000002     2.56037424E-03   # sup_L decays
#          BR         NDA      ID1       ID2
     1.00000000E+00    2     1000022         2   # BR(~u_L -> ~chi_10 u)
#
#         PDG            Width
DECAY   2000002     2.08373503E+02   # sup_R decays
#          BR         NDA      ID1       ID2
     9.99701481E-01    2     1000022         2   # BR(~u_R -> ~chi_10 u)
     3.87378436E-06    2     1000023         2   # BR(~u_R -> ~chi_20 u)
     2.94645503E-04    2     1000025         2   # BR(~u_R -> ~chi_30 u)
#
#         PDG            Width
DECAY   1000001     2.65611999E-03   # sdown_L decays
#          BR         NDA      ID1       ID2
     1.00000000E+00    2     1000022         1   # BR(~d_L -> ~chi_10 d)
#
#         PDG            Width
DECAY   2000001     1.04525238E-02   # sdown_R decays
#          BR         NDA      ID1       ID2
     1.00000000E+00    2     1000022         1   # BR(~d_R -> ~chi_10 d)
#
#         PDG            Width
DECAY   1000004     2.56037424E-03   # scharm_L decays
#          BR         NDA      ID1       ID2
     1.00000000E+00    2     1000022         4   # BR(~c_L -> ~chi_10 c)
#
#         PDG            Width
DECAY   2000004     2.08373503E+02   # scharm_R decays
#          BR         NDA      ID1       ID2
     9.99701481E-01    2     1000022         4   # BR(~c_R -> ~chi_10 c)
     3.87378436E-06    2     1000023         4   # BR(~c_R -> ~chi_20 c)
     2.94645503E-04    2     1000025         4   # BR(~c_R -> ~chi_30 c)
#
#         PDG            Width
DECAY   1000003     2.65611999E-03   # sstrange_L decays
#          BR         NDA      ID1       ID2
     1.00000000E+00    2     1000022         3   # BR(~s_L -> ~chi_10 s)
#
#         PDG            Width
DECAY   2000003     1.04525238E-02   # sstrange_R decays
#          BR         NDA      ID1       ID2
     1.00000000E+00    2     1000022         3   # BR(~s_R -> ~chi_10 s)
#
#         PDG            Width
DECAY   1000011     1.22273055E+02   # selectron_L decays
#          BR         NDA      ID1       ID2
     9.99649277E-01    2     1000022        11   # BR(~e_L -> ~chi_10 e-)
     2.89586938E-06    2     1000023        11   # BR(~e_L -> ~chi_20 e-)
     3.45147286E-04    2     1000025        11   # BR(~e_L -> ~chi_30 e-)
     2.67982689E-06    2    -1000024        12   # BR(~e_L -> ~chi_1- nu_e)
#
#         PDG            Width
DECAY   2000011     4.89089297E+02   # selectron_R decays
#          BR         NDA      ID1       ID2
     9.99701819E-01    2     1000022        11   # BR(~e_R -> ~chi_10 e-)
     3.86939498E-06    2     1000023        11   # BR(~e_R -> ~chi_20 e-)
     2.94311538E-04    2     1000025        11   # BR(~e_R -> ~chi_30 e-)
#
#         PDG            Width
DECAY   1000013     1.22273055E+02   # smuon_L decays
#          BR         NDA      ID1       ID2
     9.99649277E-01    2     1000022        13   # BR(~mu_L -> ~chi_10 mu-)
     2.89586938E-06    2     1000023        13   # BR(~mu_L -> ~chi_20 mu-)
     3.45147286E-04    2     1000025        13   # BR(~mu_L -> ~chi_30 mu-)
     2.67982689E-06    2    -1000024        14   # BR(~mu_L -> ~chi_1- nu_mu)
#
#         PDG            Width
DECAY   2000013     4.89089297E+02   # smuon_R decays
#          BR         NDA      ID1       ID2
     9.99701819E-01    2     1000022        13   # BR(~mu_R -> ~chi_10 mu-)
     3.86939498E-06    2     1000023        13   # BR(~mu_R -> ~chi_20 mu-)
     2.94311538E-04    2     1000025        13   # BR(~mu_R -> ~chi_30 mu-)
#
#         PDG            Width
DECAY   1000015     1.18200800E+04   # stau_1 decays
#          BR         NDA      ID1       ID2
     2.59071690E-02    2     1000022        15   # BR(~tau_1 -> ~chi_10  tau-)
     2.53440405E-05    2     1000023        15   # BR(~tau_1 -> ~chi_20  tau-)
     2.60711998E-05    2     1000025        15   # BR(~tau_1 -> ~chi_30  tau-)
     2.77154788E-05    2    -1000024        16   # BR(~tau_1 -> ~chi_1-  nu_tau)
     9.74013700E-01    2     1000039        15   # BR(~tau_1 -> ~G       tau-)
#
#         PDG            Width
DECAY   2000015     3.06075689E+02   # stau_2 decays
#          BR         NDA      ID1       ID2
     9.96319082E-01    2     1000022        15   # BR(~tau_2 -> ~chi_10  tau-)
     1.06885709E-03    2     1000023        15   # BR(~tau_2 -> ~chi_20  tau-)
     1.64098886E-03    2     1000025        15   # BR(~tau_2 -> ~chi_30  tau-)
     9.71071572E-04    2    -1000024        16   # BR(~tau_2 -> ~chi_1-  nu_tau)
#
#         PDG            Width
DECAY   1000012     1.22273116E+02   # snu_eL decays
#          BR         NDA      ID1       ID2
     9.99741796E-01    2     1000022        12   # BR(~nu_eL -> ~chi_10 nu_e)
     4.98368876E-06    2     1000023        12   # BR(~nu_eL -> ~chi_20 nu_e)
     2.47520161E-04    2     1000025        12   # BR(~nu_eL -> ~chi_30 nu_e)
     5.70005613E-06    2     1000024        11   # BR(~nu_eL -> ~chi_1+ e-)
#
#         PDG            Width
DECAY   1000014     1.22273116E+02   # snu_muL decays
#          BR         NDA      ID1       ID2
     9.99741796E-01    2     1000022        14   # BR(~nu_muL -> ~chi_10 nu_mu)
     4.98368876E-06    2     1000023        14   # BR(~nu_muL -> ~chi_20 nu_mu)
     2.47520161E-04    2     1000025        14   # BR(~nu_muL -> ~chi_30 nu_mu)
     5.70005613E-06    2     1000024        13   # BR(~nu_muL -> ~chi_1+ mu-)
#
#         PDG            Width
DECAY   1000016     1.22897609E+02   # snu_tauL decays
#          BR         NDA      ID1       ID2
     9.94661701E-01    2     1000022        16   # BR(~nu_tauL -> ~chi_10 nu_tau)
     4.95836461E-06    2     1000023        16   # BR(~nu_tauL -> ~chi_20 nu_tau)
     2.46262410E-04    2     1000025        16   # BR(~nu_tauL -> ~chi_30 nu_tau)
     5.08707827E-03    2     1000024        15   # BR(~nu_tauL -> ~chi_1+ tau-)
#
#         PDG            Width
DECAY   1000024     8.02238360E+01   # chargino1+ decays
#          BR         NDA      ID1       ID2
     4.50732803E-07    2     1000002        -1   # BR(~chi_1+ -> ~u_L     db)
     2.11822440E-07    2    -1000001         2   # BR(~chi_1+ -> ~d_L*    u )
     4.50732803E-07    2     1000004        -3   # BR(~chi_1+ -> ~c_L     sb)
     2.11822440E-07    2    -1000003         4   # BR(~chi_1+ -> ~s_L*    c )
     9.65460883E-02    2     1000006        -5   # BR(~chi_1+ -> ~t_1     bb)
     6.32269195E-02    2    -1000005         6   # BR(~chi_1+ -> ~b_1*    t )
     7.99541848E-01    2    -2000005         6   # BR(~chi_1+ -> ~b_2*    t )
     3.74846128E-02    2     1000022        24   # BR(~chi_1+ -> ~chi_10  W+)
     3.19470530E-03    2     1000022        37   # BR(~chi_1+ -> ~chi_10  H+)
     3.76067402E-06    2     1000039        24   # BR(~chi_1+ -> ~G       W+)
     7.39975657E-07    2     1000039        37   # BR(~chi_1+ -> ~G       H+)
#
#         PDG            Width
DECAY   1000037     1.38421362E+05   # chargino2+ decays
#          BR         NDA      ID1       ID2
     7.35793341E-03    2     1000002        -1   # BR(~chi_2+ -> ~u_L     db)
     7.35793658E-03    2    -1000001         2   # BR(~chi_2+ -> ~d_L*    u )
     7.35793341E-03    2     1000004        -3   # BR(~chi_2+ -> ~c_L     sb)
     7.35793658E-03    2    -1000003         4   # BR(~chi_2+ -> ~s_L*    c )
     8.75045995E-01    2     1000006        -5   # BR(~chi_2+ -> ~t_1     bb)
     1.57140022E-03    2    -1000005         6   # BR(~chi_2+ -> ~b_1*    t )
     7.03731978E-03    2    -2000005         6   # BR(~chi_2+ -> ~b_2*    t )
     5.43990546E-15    2     1000012       -11   # BR(~chi_2+ -> ~nu_eL   e+  )
     5.43990546E-15    2     1000014       -13   # BR(~chi_2+ -> ~nu_muL  mu+ )
     3.80887067E-15    2    -1000011        12   # BR(~chi_2+ -> ~e_L+    nu_e)
     3.80887067E-15    2    -1000013        14   # BR(~chi_2+ -> ~mu_L+   nu_mu)
     5.90856923E-15    2    -1000015        16   # BR(~chi_2+ -> ~tau_1+  nu_tau)
     1.00602282E-16    2    -2000015        16   # BR(~chi_2+ -> ~tau_2+  nu_tau)
     1.35312318E-03    2     1000024        23   # BR(~chi_2+ -> ~chi_1+  Z )
     3.23660073E-07    2     1000022        24   # BR(~chi_2+ -> ~chi_10  W+)
     1.31397324E-03    2     1000023        24   # BR(~chi_2+ -> ~chi_20  W+)
     1.31363538E-03    2     1000025        24   # BR(~chi_2+ -> ~chi_30  W+)
     1.36223811E-03    2     1000024        25   # BR(~chi_2+ -> ~chi_1+  h )
     1.19579796E-03    2     1000024        35   # BR(~chi_2+ -> ~chi_1+  H )
     1.19595106E-03    2     1000024        36   # BR(~chi_2+ -> ~chi_1+  A )
     3.90449233E-07    2     1000022        37   # BR(~chi_2+ -> ~chi_10  H+)
     1.19590985E-03    2     1000023        37   # BR(~chi_2+ -> ~chi_20  H+)
     1.19555780E-03    2     1000025        37   # BR(~chi_2+ -> ~chi_30  H+)
     7.67866225E-02    2     1000039        24   # BR(~chi_2+ -> ~G       W+)
     2.20970716E-08    2     1000039        37   # BR(~chi_2+ -> ~G       H+)
#
#         PDG            Width
DECAY   1000022     1.E-08   # neutralino1 decays (OJ Mods)
#          BR         NDA      ID1       ID2
     7.64921711E-01    2     1000039        22   # BR(~chi_10 -> ~G        gam)
     2.35077368E-01    2     1000039        23   # BR(~chi_10 -> ~G        Z)
     9.20719886E-07    2     1000039        25   # BR(~chi_10 -> ~G        h)
#
#         PDG            Width
DECAY   1000023     1.E-08   # neutralino2 decays (OJ Mods)
#          BR         NDA      ID1       ID2
     3.51601817E-02    2     1000022        23   # BR(~chi_20 -> ~chi_10   Z )
     4.54021291E-04    2     1000022        25   # BR(~chi_20 -> ~chi_10   h )
     2.46544399E-03    2     1000022        35   # BR(~chi_20 -> ~chi_10   H )
     6.26774179E-04    2     1000022        36   # BR(~chi_20 -> ~chi_10   A )
     1.27265959E-08    2     1000002        -2   # BR(~chi_20 -> ~u_L      ub)
     1.27265959E-08    2    -1000002         2   # BR(~chi_20 -> ~u_L*     u )
     7.08280427E-08    2     1000001        -1   # BR(~chi_20 -> ~d_L      db)
     7.08280427E-08    2    -1000001         1   # BR(~chi_20 -> ~d_L*     d )
     1.43609472E-07    2     2000001        -1   # BR(~chi_20 -> ~d_R      db)
     1.43609472E-07    2    -2000001         1   # BR(~chi_20 -> ~d_R*     d )
     1.27265959E-08    2     1000004        -4   # BR(~chi_20 -> ~c_L      cb)
     1.27265959E-08    2    -1000004         4   # BR(~chi_20 -> ~c_L*     c )
     7.08280427E-08    2     1000003        -3   # BR(~chi_20 -> ~s_L      sb)
     7.08280427E-08    2    -1000003         3   # BR(~chi_20 -> ~s_L*     s )
     1.43609472E-07    2     2000003        -3   # BR(~chi_20 -> ~s_R      sb)
     1.43609472E-07    2    -2000003         3   # BR(~chi_20 -> ~s_R*     s )
     3.97552055E-01    2     1000006        -6   # BR(~chi_20 -> ~t_1      tb)
     3.97552055E-01    2    -1000006         6   # BR(~chi_20 -> ~t_1*     t )
     4.01167239E-02    2     1000005        -5   # BR(~chi_20 -> ~b_1      bb)
     4.01167239E-02    2    -1000005         5   # BR(~chi_20 -> ~b_1*     b )
     4.29755236E-02    2     2000005        -5   # BR(~chi_20 -> ~b_2      bb)
     4.29755236E-02    2    -2000005         5   # BR(~chi_20 -> ~b_2*     b )
     1.87393220E-11    2     1000039        22   # BR(~chi_20 -> ~G        gam)
     1.33461801E-07    2     1000039        23   # BR(~chi_20 -> ~G        Z)
     3.33087006E-06    2     1000039        25   # BR(~chi_20 -> ~G        h)
     2.67116486E-08    2     1000039        35   # BR(~chi_20 -> ~G        H)
     6.88124799E-07    2     1000039        36   # BR(~chi_20 -> ~G        A)
#
#         PDG            Width
DECAY   1000025     8.71463815E+01   # neutralino3 decays
#          BR         NDA      ID1       ID2
     4.62200269E-04    2     1000022        23   # BR(~chi_30 -> ~chi_10   Z )
     3.52666485E-02    2     1000022        25   # BR(~chi_30 -> ~chi_10   h )
     6.08411954E-04    2     1000022        35   # BR(~chi_30 -> ~chi_10   H )
     2.48289420E-03    2     1000022        36   # BR(~chi_30 -> ~chi_10   A )
     4.24905695E-06    2     1000002        -2   # BR(~chi_30 -> ~u_L      ub)
     4.24905695E-06    2    -1000002         2   # BR(~chi_30 -> ~u_L*     u )
     1.53701289E-06    2     1000001        -1   # BR(~chi_30 -> ~d_L      db)
     1.53701289E-06    2    -1000001         1   # BR(~chi_30 -> ~d_L*     d )
     1.08964387E-05    2     2000001        -1   # BR(~chi_30 -> ~d_R      db)
     1.08964387E-05    2    -2000001         1   # BR(~chi_30 -> ~d_R*     d )
     4.24905695E-06    2     1000004        -4   # BR(~chi_30 -> ~c_L      cb)
     4.24905695E-06    2    -1000004         4   # BR(~chi_30 -> ~c_L*     c )
     1.53701289E-06    2     1000003        -3   # BR(~chi_30 -> ~s_L      sb)
     1.53701289E-06    2    -1000003         3   # BR(~chi_30 -> ~s_L*     s )
     1.08964387E-05    2     2000003        -3   # BR(~chi_30 -> ~s_R      sb)
     1.08964387E-05    2    -2000003         3   # BR(~chi_30 -> ~s_R*     s )
     3.96598179E-01    2     1000006        -6   # BR(~chi_30 -> ~t_1      tb)
     3.96598179E-01    2    -1000006         6   # BR(~chi_30 -> ~t_1*     t )
     3.29259912E-02    2     1000005        -5   # BR(~chi_30 -> ~b_1      bb)
     3.29259912E-02    2    -1000005         5   # BR(~chi_30 -> ~b_1*     b )
     5.10345093E-02    2     2000005        -5   # BR(~chi_30 -> ~b_2      bb)
     5.10345093E-02    2    -2000005         5   # BR(~chi_30 -> ~b_2*     b )
     1.63681952E-09    2     1000039        22   # BR(~chi_30 -> ~G        gam)
     3.32958730E-06    2     1000039        23   # BR(~chi_30 -> ~G        Z)
     1.29938498E-07    2     1000039        25   # BR(~chi_30 -> ~G        h)
     6.82707153E-07    2     1000039        35   # BR(~chi_30 -> ~G        H)
     2.74846055E-08    2     1000039        36   # BR(~chi_30 -> ~G        A)
#
#         PDG            Width
DECAY   1000035     1.38421931E+05   # neutralino4 decays
#          BR         NDA      ID1       ID2
     1.99614036E-09    2     1000022        23   # BR(~chi_40 -> ~chi_10   Z )
     1.30765099E-03    2     1000023        23   # BR(~chi_40 -> ~chi_20   Z )
     4.54661267E-05    2     1000025        23   # BR(~chi_40 -> ~chi_30   Z )
     1.31395996E-03    2     1000024       -24   # BR(~chi_40 -> ~chi_1+   W-)
     1.31395996E-03    2    -1000024        24   # BR(~chi_40 -> ~chi_1-   W+)
     3.33991640E-07    2     1000022        25   # BR(~chi_40 -> ~chi_10   h )
     3.60137036E-08    2     1000022        35   # BR(~chi_40 -> ~chi_10   H )
     3.53952140E-07    2     1000022        36   # BR(~chi_40 -> ~chi_10   A )
     4.47655576E-05    2     1000023        25   # BR(~chi_40 -> ~chi_20   h )
     1.14433150E-03    2     1000023        35   # BR(~chi_40 -> ~chi_20   H )
     5.26048690E-05    2     1000023        36   # BR(~chi_40 -> ~chi_20   A )
     1.31713478E-03    2     1000025        25   # BR(~chi_40 -> ~chi_30   h )
     5.14244282E-05    2     1000025        35   # BR(~chi_40 -> ~chi_30   H )
     1.14298768E-03    2     1000025        36   # BR(~chi_40 -> ~chi_30   A )
     1.19592526E-03    2     1000024       -37   # BR(~chi_40 -> ~chi_1+   H-)
     1.19592526E-03    2    -1000024        37   # BR(~chi_40 -> ~chi_1-   H+)
     3.52012628E-03    2     1000002        -2   # BR(~chi_40 -> ~u_L      ub)
     3.52012628E-03    2    -1000002         2   # BR(~chi_40 -> ~u_L*     u )
     5.73100354E-23    2     2000002        -2   # BR(~chi_40 -> ~u_R      ub)
     5.73100354E-23    2    -2000002         2   # BR(~chi_40 -> ~u_R*     u )
     3.52012873E-03    2     1000001        -1   # BR(~chi_40 -> ~d_L      db)
     3.52012873E-03    2    -1000001         1   # BR(~chi_40 -> ~d_L*     d )
     6.79022364E-17    2     2000001        -1   # BR(~chi_40 -> ~d_R      db)
     6.79022364E-17    2    -2000001         1   # BR(~chi_40 -> ~d_R*     d )
     3.52012628E-03    2     1000004        -4   # BR(~chi_40 -> ~c_L      cb)
     3.52012628E-03    2    -1000004         4   # BR(~chi_40 -> ~c_L*     c )
     5.73100354E-23    2     2000004        -4   # BR(~chi_40 -> ~c_R      cb)
     5.73100354E-23    2    -2000004         4   # BR(~chi_40 -> ~c_R*     c )
     3.52012873E-03    2     1000003        -3   # BR(~chi_40 -> ~s_L      sb)
     3.52012873E-03    2    -1000003         3   # BR(~chi_40 -> ~s_L*     s )
     6.79022364E-17    2     2000003        -3   # BR(~chi_40 -> ~s_R      sb)
     6.79022364E-17    2    -2000003         3   # BR(~chi_40 -> ~s_R*     s )
     4.30435879E-03    2     1000006        -6   # BR(~chi_40 -> ~t_1      tb)
     4.30435879E-03    2    -1000006         6   # BR(~chi_40 -> ~t_1*     t )
     2.08782949E-01    2     1000005        -5   # BR(~chi_40 -> ~b_1      bb)
     2.08782949E-01    2    -1000005         5   # BR(~chi_40 -> ~b_1*     b )
     2.28740270E-01    2     2000005        -5   # BR(~chi_40 -> ~b_2      bb)
     2.28740270E-01    2    -2000005         5   # BR(~chi_40 -> ~b_2*     b )
     1.90442686E-15    2     1000011       -11   # BR(~chi_40 -> ~e_L-     e+)
     1.90442686E-15    2    -1000011        11   # BR(~chi_40 -> ~e_L+     e-)
     3.30622696E-28    2     2000011       -11   # BR(~chi_40 -> ~e_R-     e+)
     3.30622696E-28    2    -2000011        11   # BR(~chi_40 -> ~e_R+     e-)
     1.90442686E-15    2     1000013       -13   # BR(~chi_40 -> ~mu_L-    mu+)
     1.90442686E-15    2    -1000013        13   # BR(~chi_40 -> ~mu_L+    mu-)
     3.30622696E-28    2     2000013       -13   # BR(~chi_40 -> ~mu_R-    mu+)
     3.30622696E-28    2    -2000013        13   # BR(~chi_40 -> ~mu_R+    mu-)
     2.71994420E-15    2     1000012       -12   # BR(~chi_40 -> ~nu_eL    nu_eb)
     2.71994420E-15    2    -1000012        12   # BR(~chi_40 -> ~nu_eL*   nu_e )
     2.71994420E-15    2     1000014       -14   # BR(~chi_40 -> ~nu_muL   nu_mub)
     2.71994420E-15    2    -1000014        14   # BR(~chi_40 -> ~nu_muL*  nu_mu )
     2.71994420E-15    2     1000016       -16   # BR(~chi_40 -> ~nu_tau1  nu_taub)
     2.71994420E-15    2    -1000016        16   # BR(~chi_40 -> ~nu_tau1* nu_tau )
     1.85590376E-02    2     1000039        22   # BR(~chi_40 -> ~G        gam)
     5.82272888E-02    2     1000039        23   # BR(~chi_40 -> ~G        Z)
     3.52684651E-09    2     1000039        25   # BR(~chi_40 -> ~G        h)
     2.21326559E-08    2     1000039        35   # BR(~chi_40 -> ~G        H)
     4.36166095E-12    2     1000039        36   # BR(~chi_40 -> ~G        A)
#
#
#
#
