# SUSY Les Houches Accord 2 - MSSM spectrum + Decays
# SPheno v3.1.12 
# W. Porod, Comput. Phys. Commun. 153 (2003) 275-315, hep-ph/0301101
# in case of problems send email to porod@physik.uni-wuerzburg.de
# Created: 12.11.2012,  11:44
Block SPINFO         # Program information
     1   SPheno      # spectrum calculator
     2   v3.1.12     # version number
#
Block SPhenoINFO     # SPheno specific information
    1      2         # using 2-loop RGEs
    2      1         # using running masses for boundary conditions at mZ
Block MODSEL  # Model selection
    1    2    # mGMSB model
Block MINPAR  # Input parameters
    1    9.00000000E+04  # Lambda, scale of SUSY breaking
    2    2.50000000E+05  # M_M, messenger mass scale
    3    6.00000000E+01  # tanb at m_Z   
    4    1.00000000E+00  # Sign(mu)
    5    3.00000000E+00  # N_5 number of effective five-plets
    6    1.00000000E+00  # c_grav, Gravitino mass factor
Block gauge Q=  2.50000000E+05  # (GMSB scale)
   1    4.93924990E-01  # g'(Q)^DRbar
   2    6.49967823E-01  # g(Q)^DRbar
   3    9.42423533E-01  # g3(Q)^DRbar
Block SMINPUTS  # SM parameters
         1     1.27932528E+02  # alpha_em^-1(MZ)^MSbar
         2     1.16639000E-05  # G_mu [GeV^-2]
         3     1.17200000E-01  # alpha_s(MZ)^MSbar
         4     9.11876000E+01  # m_Z(pole)
         5     4.20000000E+00  # m_b(m_b), MSbar
         6     1.72500000E+02  # m_t(pole)
         7     1.77700000E+00  # m_tau(pole)
         8     0.00000000E+00  # m_nu_3
        11     5.10998910E-04  # m_e(pole)
        12     0.00000000E+00  # m_nu_1
        13     1.05658000E-01  # m_muon(pole)
        14     0.00000000E+00  # m_nu_2
        21     5.00000000E-03  # m_d(2 GeV), MSbar
        22     3.00000000E-03  # m_u(2 GeV), MSbar
        23     1.05000000E-01  # m_s(2 GeV), MSbar
        24     1.27000000E+00  # m_c(m_c), MSbar
Block gauge Q=  1.71928904E+03  # (SUSY scale)
   1    3.64297197E-01  # g'(Q)^DRbar
   2    6.40098381E-01  # g(Q)^DRbar
   3    1.03031167E+00  # g3(Q)^DRbar
Block Yu Q=  1.71928904E+03  # (SUSY scale)
  1  1     8.44462814E-06   # Y_u(Q)^DRbar
  2  2     3.57489677E-03   # Y_c(Q)^DRbar
  3  3     8.49566446E-01   # Y_t(Q)^DRbar
Block Yd Q=  1.71928904E+03  # (SUSY scale)
  1  1     6.91982269E-04   # Y_d(Q)^DRbar
  2  2     1.45316103E-02   # Y_s(Q)^DRbar
  3  3     7.07642196E-01   # Y_b(Q)^DRbar
Block Ye Q=  1.71928904E+03  # (SUSY scale)
  1  1     1.96504156E-04   # Y_e(Q)^DRbar
  2  2     4.06318512E-02   # Y_mu(Q)^DRbar
  3  3     6.87698724E-01   # Y_tau(Q)^DRbar
Block Au Q=  1.71928904E+03  # (SUSY scale)
  1  1    -5.71341320E+02   # A_u(Q)^DRbar
  2  2    -5.71337412E+02   # A_c(Q)^DRbar
  3  3    -5.30026826E+02   # A_t(Q)^DRbar
Block Ad Q=  1.71928904E+03  # (SUSY scale)
  1  1    -5.81135548E+02   # A_d(Q)^DRbar
  2  2    -5.81125254E+02   # A_s(Q)^DRbar
  3  3    -5.46483978E+02   # A_b(Q)^DRbar
Block Ae Q=  1.71928904E+03  # (SUSY scale)
  1  1    -3.68016860E+01   # A_e(Q)^DRbar
  2  2    -3.67939120E+01   # A_mu(Q)^DRbar
  3  3    -3.45919490E+01   # A_tau(Q)^DRbar
Block MSOFT Q=  1.71928904E+03  # soft SUSY breaking masses at Q
   1    3.84161596E+02  # M_1
   2    7.09112311E+02  # M_2
   3    1.84593694E+03  # M_3
  21   -1.64822458E+05  # M^2_(H,d)
  22   -3.49072225E+05  # M^2_(H,u)
  31    5.64513690E+02  # M_(L,11)
  32    5.64476958E+02  # M_(L,22)
  33    5.54051617E+02  # M_(L,33)
  34    2.72808170E+02  # M_(E,11)
  35    2.72652265E+02  # M_(E,22)
  36    2.24107330E+02  # M_(E,33)
  41    1.81048527E+03  # M_(Q,11)
  42    1.81046725E+03  # M_(Q,22)
  43    1.71164904E+03  # M_(Q,33)
  44    1.73779816E+03  # M_(U,11)
  45    1.73779602E+03  # M_(U,22)
  46    1.61484455E+03  # M_(U,33)
  47    1.73085432E+03  # M_(D,11)
  48    1.73081839E+03  # M_(D,22)
  49    1.64467030E+03  # M_(D,33)
Block MASS  # Mass spectrum
#   PDG code      mass          particle
         6     1.72500000E+02  # m_t(pole)
        23     9.11876000E+01  # m_Z(pole)
        24     8.03100278E+01  # W+
        15     1.77700000E+00  # m_tau(pole)
        25     1.17761897E+02  # h0
        35     4.31490572E+02  # H0
        36     4.31443207E+02  # A0
        37     4.40528490E+02  # H+
   1000001     1.88528637E+03  # ~d_L
   2000001     1.80171004E+03  # ~d_R
   1000002     1.88356153E+03  # ~u_L
   2000002     1.80797554E+03  # ~u_R
   1000003     1.88526698E+03  # ~s_L
   2000003     1.80166476E+03  # ~s_R
   1000004     1.88353999E+03  # ~c_L
   2000004     1.80797294E+03  # ~c_R
   1000005     1.69142646E+03  # ~b_1
   2000005     1.77305142E+03  # ~b_2
   1000006     1.66252486E+03  # ~t_1
   2000006     1.77799100E+03  # ~t_2
   1000011     5.77738933E+02  # ~e_L-
   2000011     2.84639090E+02  # ~e_R-
   1000012     5.71837819E+02  # ~nu_eL
   1000013     5.77759216E+02  # ~mu_L-
   2000013     2.84313129E+02  # ~mu_R-
   1000014     5.71785960E+02  # ~nu_muL
   1000015     1.78632842E+02  # ~tau_1-
   2000015     5.81427806E+02  # ~tau_2-
   1000016     5.57735435E+02  # ~nu_tauL
   1000021     1.94536232E+03  # ~g
   1000022     3.72739538E+02  # ~chi_10
   1000023     6.17261107E+02  # ~chi_20
   1000025    -6.45912762E+02  # ~chi_30
   1000035     7.54265938E+02  # ~chi_40
   1000024     6.15959260E+02  # ~chi_1+
   1000037     7.54340222E+02  # ~chi_2+
   1000039     5.40000000E-09  # ~G
# Higgs mixing
Block alpha # Effective Higgs mixing angle
          -1.88289086E-02   # alpha
Block Hmix Q=  1.71928904E+03  # Higgs mixing parameters
   1    6.41329674E+02  # mu
   2    5.97261765E+01  # tan[beta](Q)
   3    2.43552762E+02  # v(Q)
   4    1.76309015E+05  # m^2_A(Q)
Block stopmix # stop mixing matrix
   1  1     2.46507575E-01   # Re[R_st(1,1)]
   1  2     9.69140865E-01   # Re[R_st(1,2)]
   2  1    -9.69140865E-01   # Re[R_st(2,1)]
   2  2     2.46507575E-01   # Re[R_st(2,2)]
Block sbotmix # sbottom mixing matrix
   1  1     3.01049148E-01   # Re[R_sb(1,1)]
   1  2     9.53608625E-01   # Re[R_sb(1,2)]
   2  1    -9.53608625E-01   # Re[R_sb(2,1)]
   2  2     3.01049148E-01   # Re[R_sb(2,2)]
Block staumix # stau mixing matrix
   1  1     2.58013851E-01   # Re[R_sta(1,1)]
   1  2     9.66141218E-01   # Re[R_sta(1,2)]
   2  1    -9.66141218E-01   # Re[R_sta(2,1)]
   2  2     2.58013851E-01   # Re[R_sta(2,2)]
Block Nmix # neutralino mixing matrix
   1  1    -9.91998038E-01   # Re[N(1,1)]
   1  2     1.47014987E-02   # Re[N(1,2)]
   1  3    -1.07729267E-01   # Re[N(1,3)]
   1  4     6.41729204E-02   # Re[N(1,4)]
   2  1     1.15285553E-01   # Re[N(2,1)]
   2  2     4.58462058E-01   # Re[N(2,2)]
   2  3    -6.35158378E-01   # Re[N(2,3)]
   2  4     6.10815535E-01   # Re[N(2,4)]
   3  1     3.01039434E-02   # Re[N(3,1)]
   3  2    -4.02403457E-02   # Re[N(3,2)]
   3  3    -7.04434901E-01   # Re[N(3,3)]
   3  4    -7.07987244E-01   # Re[N(3,4)]
   4  1    -4.17478927E-02   # Re[N(4,1)]
   4  2     8.87680755E-01   # Re[N(4,2)]
   4  3     2.97892112E-01   # Re[N(4,3)]
   4  4    -3.48626277E-01   # Re[N(4,4)]
Block Umix # chargino mixing matrix
   1  1    -4.19882784E-01   # Re[U(1,1)]
   1  2     9.07578342E-01   # Re[U(1,2)]
   2  1     9.07578342E-01   # Re[U(2,1)]
   2  2     4.19882784E-01   # Re[U(2,2)]
Block Vmix # chargino mixing matrix
   1  1    -4.91365050E-01   # Re[V(1,1)]
   1  2     8.70953723E-01   # Re[V(1,2)]
   2  1     8.70953723E-01   # Re[V(2,1)]
   2  2     4.91365050E-01   # Re[V(2,2)]
DECAY   2000011     2.47550994E-05   # ~e^-_R
#    BR                NDA      ID1      ID2
     2.96601363E-06    2     1000039        11   # BR(~e^-_R -> ~G e^-)
#    BR                NDA      ID1      ID2       ID3
     1.24899286E-13    3     2000013        11       -13   # BR(~e^-_R -> ~mu^-_R e^- mu^+)
     3.71636742E-13    3    -2000013        11        13   # BR(~e^-_R -> ~mu^+_R e^- mu^-)
     1.93404534E-01    3     1000015        11       -15   # BR(~e^-_R -> ~tau^-_1 e^- tau^+)
     8.06592500E-01    3    -1000015        11        15   # BR(~e^-_R -> ~tau^+_1 e^- tau^-)
DECAY   1000011     2.42611352E-01   # ~e^-_L
#    BR                NDA      ID1      ID2
     9.99998499E-01    2     1000022        11   # BR(~e^-_L -> chi^0_1 e^-)
     7.16486632E-07    2     2000011        23   # BR(~e^-_L -> ~e^-_R Z)
     7.74566486E-07    2     2000011        25   # BR(~e^-_L -> ~e^-_R h^0)
     1.04258667E-08    2     1000039        11   # BR(~e^-_L -> ~G e^-)
DECAY   2000013     2.45602136E-05   # ~mu^-_R
#    BR                NDA      ID1      ID2
     2.97246878E-06    2     1000039        13   # BR(~mu^-_R -> ~G mu^-)
#    BR                NDA      ID1      ID2       ID3
     1.91952584E-01    3     1000015        13       -15   # BR(~mu^-_R -> ~tau^-_1 mu^- tau^+)
     8.08044444E-01    3    -1000015        13        15   # BR(~mu^-_R -> ~tau^+_1 mu^- tau^-)
DECAY   1000013     2.58277152E-01   # ~mu^-_L
#    BR                NDA      ID1      ID2
     9.40098173E-01    2     1000022        13   # BR(~mu^-_L -> chi^0_1 mu^-)
     2.88047235E-02    2     2000013        23   # BR(~mu^-_L -> ~mu^-_R Z)
     3.10970935E-02    2     2000013        25   # BR(~mu^-_L -> ~mu^-_R h^0)
     9.79520365E-09    2     1000039        13   # BR(~mu^-_L -> ~G mu^-)
DECAY   1000015     7.14495884E-12   # ~tau^-_1
#    BR                NDA      ID1      ID2
     1.00000000E+00    2     1000039        15   # BR(~tau^-_1 -> ~G tau^-)
DECAY   2000015     5.08575183E+00   # ~tau^-_2
#    BR                NDA      ID1      ID2
     5.58675227E-02    2     1000022        15   # BR(~tau^-_2 -> chi^0_1 tau^-)
     5.23302239E-01    2     1000015        23   # BR(~tau^-_2 -> ~tau^-_1 Z)
     4.20830238E-01    2     1000015        25   # BR(~tau^-_2 -> ~tau^-_1 h^0)
     5.13419910E-10    2     1000039        15   # BR(~tau^-_2 -> ~G tau^-)
DECAY   1000012     2.58674772E-01   # ~nu_e
#    BR                NDA      ID1      ID2
     9.99998703E-01    2     1000022        12   # BR(~nu_e -> chi^0_1 nu_e)
     1.28721320E-06    2     2000011        24   # BR(~nu_e -> ~e^-_R W^+)
     9.28913782E-09    2     1000039        12   # BR(~nu_e -> ~G nu_e)
DECAY   1000014     2.72826973E-01   # ~nu_mu
#    BR                NDA      ID1      ID2
     9.47786260E-01    2     1000022        14   # BR(~nu_mu -> chi^0_1 nu_mu)
     5.22137312E-02    2     2000013        24   # BR(~nu_mu -> ~mu^-_R W^+)
     8.80329466E-09    2     1000039        14   # BR(~nu_mu -> ~G nu_mu)
DECAY   1000016     5.06977028E+00   # ~nu_tau
#    BR                NDA      ID1      ID2
     4.60704701E-02    2     1000022        16   # BR(~nu_tau -> chi^0_1 nu_tau)
     9.53929529E-01    2     1000015        24   # BR(~nu_tau -> ~tau^-_1 W^+)
     4.18329042E-10    2     1000039        16   # BR(~nu_tau -> ~G nu_tau)
DECAY   2000001     9.66060784E-01   # ~d_R
#    BR                NDA      ID1      ID2
     9.86591098E-01    2     1000022         1   # BR(~d_R -> chi^0_1 d)
     1.13364337E-02    2     1000023         1   # BR(~d_R -> chi^0_2 d)
     7.59637415E-04    2     1000025         1   # BR(~d_R -> chi^0_3 d)
     1.29745333E-03    2     1000035         1   # BR(~d_R -> chi^0_4 d)
     1.41251690E-05    2    -1000024         2   # BR(~d_R -> chi^-_1 u)
     4.79624975E-07    2    -1000037         2   # BR(~d_R -> chi^-_2 u)
     7.72298427E-07    2     1000039         1   # BR(~d_R -> ~G d)
DECAY   1000001     1.69114607E+01   # ~d_L
#    BR                NDA      ID1      ID2
     1.72698061E-02    2     1000022         1   # BR(~d_L -> chi^0_1 d)
     6.90323866E-02    2     1000023         1   # BR(~d_L -> chi^0_2 d)
     7.47788800E-04    2     1000025         1   # BR(~d_L -> chi^0_3 d)
     2.57105285E-01    2     1000035         1   # BR(~d_L -> chi^0_4 d)
     1.27827963E-01    2    -1000024         2   # BR(~d_L -> chi^-_1 u)
     5.28016715E-01    2    -1000037         2   # BR(~d_L -> chi^-_2 u)
     5.53440106E-08    2     1000039         1   # BR(~d_L -> ~G d)
DECAY   2000003     9.78222850E-01   # ~s_R
#    BR                NDA      ID1      ID2
     9.74508336E-01    2     1000022         3   # BR(~s_R -> chi^0_1 s)
     1.41710687E-02    2     1000023         3   # BR(~s_R -> chi^0_2 s)
     3.57827008E-03    2     1000025         3   # BR(~s_R -> chi^0_3 s)
     1.38159381E-03    2     1000035         3   # BR(~s_R -> chi^0_4 s)
     6.15097595E-03    2    -1000024         4   # BR(~s_R -> chi^-_1 c)
     2.08992823E-04    2    -1000037         4   # BR(~s_R -> chi^-_2 c)
     7.62600744E-07    2     1000039         3   # BR(~s_R -> ~G s)
DECAY   1000003     1.69169996E+01   # ~s_L
#    BR                NDA      ID1      ID2
     1.72609740E-02    2     1000022         3   # BR(~s_L -> chi^0_1 s)
     6.91246666E-02    2     1000023         3   # BR(~s_L -> chi^0_2 s)
     9.33105268E-04    2     1000025         3   # BR(~s_L -> chi^0_3 s)
     2.57068930E-01    2     1000035         3   # BR(~s_L -> chi^0_4 s)
     1.27726799E-01    2    -1000024         4   # BR(~s_L -> chi^-_1 c)
     5.27885470E-01    2    -1000037         4   # BR(~s_L -> chi^-_2 c)
     5.53230445E-08    2     1000039         3   # BR(~s_L -> ~G s)
DECAY   1000005     2.67522839E+01   # ~b_1
#    BR                NDA      ID1      ID2
     5.05552663E-02    2     1000022         5   # BR(~b_1 -> chi^0_1 b)
     2.37751608E-01    2     1000023         5   # BR(~b_1 -> chi^0_2 b)
     2.21556799E-01    2     1000025         5   # BR(~b_1 -> chi^0_3 b)
     7.60518444E-03    2     1000035         5   # BR(~b_1 -> chi^0_4 b)
     4.63455152E-01    2    -1000024         6   # BR(~b_1 -> chi^-_1 t)
     1.90759694E-02    2    -1000037         6   # BR(~b_1 -> chi^-_2 t)
     2.03357001E-08    2     1000039         5   # BR(~b_1 -> ~G b)
DECAY   2000005     4.55895943E+01   # ~b_2
#    BR                NDA      ID1      ID2
     3.27379654E-03    2     1000022         5   # BR(~b_2 -> chi^0_1 b)
     1.14481615E-01    2     1000023         5   # BR(~b_2 -> chi^0_2 b)
     1.48984319E-01    2     1000025         5   # BR(~b_2 -> chi^0_3 b)
     1.26769425E-01    2     1000035         5   # BR(~b_2 -> chi^0_4 b)
     2.88874320E-01    2    -1000024         6   # BR(~b_2 -> chi^-_1 t)
     3.15178544E-01    2    -1000037         6   # BR(~b_2 -> chi^-_2 t)
     2.43796487E-03    2     1000006       -24   # BR(~b_2 -> ~t_1 W^-)
     1.51041501E-08    2     1000039         5   # BR(~b_2 -> ~G b)
DECAY   2000002     3.88003681E+00   # ~u_R
#    BR                NDA      ID1      ID2
     9.86601794E-01    2     1000022         2   # BR(~u_R -> chi^0_1 u)
     1.13435514E-02    2     1000023         2   # BR(~u_R -> chi^0_2 u)
     7.54208586E-04    2     1000025         2   # BR(~u_R -> chi^0_3 u)
     1.30025009E-03    2     1000035         2   # BR(~u_R -> chi^0_4 u)
     5.31718239E-10    2     1000024         1   # BR(~u_R -> chi^+_1 d)
     2.52721173E-11    2     1000037         1   # BR(~u_R -> chi^+_2 d)
     1.95655478E-07    2     1000039         2   # BR(~u_R -> ~G u)
DECAY   1000002     1.69870239E+01   # ~u_L
#    BR                NDA      ID1      ID2
     1.25575105E-02    2     1000022         2   # BR(~u_L -> chi^0_1 u)
     8.30731307E-02    2     1000023         2   # BR(~u_L -> chi^0_2 u)
     4.19536073E-04    2     1000025         2   # BR(~u_L -> chi^0_3 u)
     2.46589245E-01    2     1000035         2   # BR(~u_L -> chi^0_4 u)
     1.74043034E-01    2     1000024         1   # BR(~u_L -> chi^+_1 d)
     4.83317489E-01    2     1000037         1   # BR(~u_L -> chi^+_2 d)
     7.60099203E-11    2     2000001        24   # BR(~u_L -> ~d_R W^+)
     5.48462412E-08    2     1000039         2   # BR(~u_L -> ~G u)
DECAY   2000004     3.88077679E+00   # ~c_R
#    BR                NDA      ID1      ID2
     9.86410388E-01    2     1000022         4   # BR(~c_R -> chi^0_1 c)
     1.13866850E-02    2     1000023         4   # BR(~c_R -> chi^0_2 c)
     8.00976691E-04    2     1000025         4   # BR(~c_R -> chi^0_3 c)
     1.30194671E-03    2     1000035         4   # BR(~c_R -> chi^0_4 c)
     9.52813234E-05    2     1000024         3   # BR(~c_R -> chi^+_1 s)
     4.52639898E-06    2     1000037         3   # BR(~c_R -> chi^+_2 s)
     1.95616380E-07    2     1000039         4   # BR(~c_R -> ~G c)
DECAY   1000004     1.69931806E+01   # ~c_L
#    BR                NDA      ID1      ID2
     1.25530565E-02    2     1000022         4   # BR(~c_L -> chi^0_1 c)
     8.30466155E-02    2     1000023         4   # BR(~c_L -> chi^0_2 c)
     4.30076320E-04    2     1000025         4   # BR(~c_L -> chi^0_3 c)
     2.46499993E-01    2     1000035         4   # BR(~c_L -> chi^0_4 c)
     1.74275557E-01    2     1000024         3   # BR(~c_L -> chi^+_1 s)
     4.83194612E-01    2     1000037         3   # BR(~c_L -> chi^+_2 s)
     3.42723951E-08    2     2000003        24   # BR(~c_L -> ~s_R W^+)
     5.48231351E-08    2     1000039         4   # BR(~c_L -> ~G c)
DECAY   1000006     3.85646360E+01   # ~t_1
#    BR                NDA      ID1      ID2
     1.11391950E-03    2     1000022         4   # BR(~t_1 -> chi^0_1 c)
     8.91687507E-02    2     1000022         6   # BR(~t_1 -> chi^0_1 t)
     7.03618306E-03    2     1000023         4   # BR(~t_1 -> chi^0_2 c)
     1.91122696E-01    2     1000023         6   # BR(~t_1 -> chi^0_2 t)
     2.32297554E-01    2     1000025         6   # BR(~t_1 -> chi^0_3 t)
     1.90662500E-02    2     1000035         6   # BR(~t_1 -> chi^0_4 t)
     4.18725710E-01    2     1000024         5   # BR(~t_1 -> chi^+_1 b)
     4.14373453E-02    2     1000037         5   # BR(~t_1 -> chi^+_2 b)
     1.23940514E-08    2     1000039         6   # BR(~t_1 -> ~G t)
#    BR                NDA      ID1      ID2       ID3
     3.15794043E-05    3     1000022        24         5   # BR(~t_1 -> chi^0_1 W^+ b)
DECAY   2000006     4.65427104E+01   # ~t_2
#    BR                NDA      ID1      ID2
     5.95243878E-03    2     1000022         6   # BR(~t_2 -> chi^0_1 t)
     1.50921549E-01    2     1000023         6   # BR(~t_2 -> chi^0_2 t)
     1.90894125E-01    2     1000025         6   # BR(~t_2 -> chi^0_3 t)
     1.60035145E-01    2     1000035         6   # BR(~t_2 -> chi^0_4 t)
     2.36644299E-01    2     1000024         5   # BR(~t_2 -> chi^+_1 b)
     2.54239700E-01    2     1000037         5   # BR(~t_2 -> chi^+_2 b)
     2.89306875E-04    2     1000005        24   # BR(~t_2 -> ~b_1 W^+)
     1.02342196E-03    2     1000006        23   # BR(~t_2 -> ~t_1 Z)
     1.44454830E-08    2     1000039         6   # BR(~t_2 -> ~G t)
DECAY   1000024     2.72189959E+00   # chi^+_1
#    BR                NDA      ID1      ID2
     5.66663368E-08    2    -2000011        12   # BR(chi^+_1 -> ~e^+_R nu_e)
     2.35125373E-03    2    -1000011        12   # BR(chi^+_1 -> ~e^+_L nu_e)
     2.42470950E-03    2    -2000013        14   # BR(chi^+_1 -> ~mu^+_R nu_mu)
     2.33649967E-03    2    -1000013        14   # BR(chi^+_1 -> ~mu^+_L nu_mu)
     8.53624799E-01    2    -1000015        16   # BR(chi^+_1 -> ~tau^+_1 nu_tau)
     2.60065589E-04    2    -2000015        16   # BR(chi^+_1 -> ~tau^+_2 nu_tau)
     4.24871989E-03    2     1000012       -11   # BR(chi^+_1 -> ~nu_e e^+)
     4.31934423E-03    2     1000014       -13   # BR(chi^+_1 -> ~nu_mu mu^+)
     3.65749445E-02    2     1000016       -15   # BR(chi^+_1 -> ~nu_tau tau^+)
     9.38003258E-02    2     1000022        24   # BR(chi^+_1 -> chi^0_1 W^+)
#    BR                NDA      ID1      ID2       ID3
     5.26982864E-09    3     1000022        -1         2   # BR(chi^+_1 -> chi^0_1 d_bar u)
     2.22798575E-08    3     1000022        -3         4   # BR(chi^+_1 -> chi^0_1 s_bar c)
     3.53230740E-05    3     1000022        -5         6   # BR(chi^+_1 -> chi^0_1 b_bar t)
     3.88420459E-12    3     1000022       -11        12   # BR(chi^+_1 -> chi^0_1 e^+ nu_e)
     1.65500005E-07    3     1000022       -13        14   # BR(chi^+_1 -> chi^0_1 mu^+ nu_mu)
     2.37652252E-05    3     1000022       -15        16   # BR(chi^+_1 -> chi^0_1 tau^+ nu_tau)
DECAY   1000037     4.12403754E+00   # chi^+_2
#    BR                NDA      ID1      ID2
     1.36439143E-09    2    -2000011        12   # BR(chi^+_2 -> ~e^+_R nu_e)
     1.04950680E-01    2    -1000011        12   # BR(chi^+_2 -> ~e^+_L nu_e)
     5.84600394E-05    2    -2000013        14   # BR(chi^+_2 -> ~mu^+_R nu_mu)
     1.05006692E-01    2    -1000013        14   # BR(chi^+_2 -> ~mu^+_L nu_mu)
     2.70130270E-02    2    -1000015        16   # BR(chi^+_2 -> ~tau^+_1 nu_tau)
     1.21169317E-01    2    -2000015        16   # BR(chi^+_2 -> ~tau^+_2 nu_tau)
     1.02305789E-01    2     1000012       -11   # BR(chi^+_2 -> ~nu_e e^+)
     1.02447650E-01    2     1000014       -13   # BR(chi^+_2 -> ~nu_mu mu^+)
     1.46137370E-01    2     1000016       -15   # BR(chi^+_2 -> ~nu_tau tau^+)
     1.18369877E-02    2     1000022        24   # BR(chi^+_2 -> chi^0_1 W^+)
     1.11719761E-01    2     1000023        24   # BR(chi^+_2 -> chi^0_2 W^+)
     4.07474405E-02    2     1000025        24   # BR(chi^+_2 -> chi^0_3 W^+)
     8.85575364E-02    2     1000024        23   # BR(chi^+_2 -> chi^+_1 Z)
     3.79753374E-02    2     1000024        25   # BR(chi^+_2 -> chi^+_1 h^0)
#    BR                NDA      ID1      ID2       ID3
     4.74827237E-09    3     1000024         2        -2   # BR(chi^+_2 -> chi^+_1 u u_bar)
     4.73667578E-09    3     1000024         4        -4   # BR(chi^+_2 -> chi^+_1 c c_bar)
     6.02184878E-09    3     1000024         1        -1   # BR(chi^+_2 -> chi^+_1 d d_bar)
     9.58593804E-09    3     1000024         3        -3   # BR(chi^+_2 -> chi^+_1 s s_bar)
     8.49227316E-06    3     1000024         5        -5   # BR(chi^+_2 -> chi^+_1 b b_bar)
     1.12671268E-06    3     1000024        11       -11   # BR(chi^+_2 -> chi^+_1 e^- e^+)
     1.13929060E-06    3     1000024        13       -13   # BR(chi^+_2 -> chi^+_1 mu^- mu^+)
     5.58109446E-06    3     1000024        15       -15   # BR(chi^+_2 -> chi^+_1 tau^- tau^+)
     2.08799453E-06    3     1000024        12       -12   # BR(chi^+_2 -> chi^+_1 nu_e nu_bar_e)
     1.03769051E-07    3     1000022        -1         2   # BR(chi^+_2 -> chi^0_1 d_bar u)
     1.09518526E-07    3     1000022        -3         4   # BR(chi^+_2 -> chi^0_1 s_bar c)
     4.65477679E-05    3     1000022        -5         6   # BR(chi^+_2 -> chi^0_1 b_bar t)
     3.76146635E-13    3     1000022       -11        12   # BR(chi^+_2 -> chi^0_1 e^+ nu_e)
     1.60732608E-08    3     1000022       -13        14   # BR(chi^+_2 -> chi^0_1 mu^+ nu_mu)
     4.12806054E-06    3     1000022       -15        16   # BR(chi^+_2 -> chi^0_1 tau^+ nu_tau)
     2.64085519E-09    3     1000023        -1         2   # BR(chi^+_2 -> chi^0_2 d_bar u)
     5.14708095E-09    3     1000023        -3         4   # BR(chi^+_2 -> chi^0_2 s_bar c)
     6.31871864E-07    3     1000023       -11        12   # BR(chi^+_2 -> chi^0_2 e^+ nu_e)
     6.36930803E-07    3     1000023       -13        14   # BR(chi^+_2 -> chi^0_2 mu^+ nu_mu)
     2.54121367E-06    3     1000023       -15        16   # BR(chi^+_2 -> chi^0_2 tau^+ nu_tau)
     2.17178571E-11    3     1000025        -1         2   # BR(chi^+_2 -> chi^0_3 d_bar u)
     6.05299666E-10    3     1000025        -3         4   # BR(chi^+_2 -> chi^0_3 s_bar c)
     2.68090231E-09    3     1000025       -11        12   # BR(chi^+_2 -> chi^0_3 e^+ nu_e)
     4.88586474E-09    3     1000025       -13        14   # BR(chi^+_2 -> chi^0_3 mu^+ nu_mu)
     7.67684995E-07    3     1000025       -15        16   # BR(chi^+_2 -> chi^0_3 tau^+ nu_tau)
DECAY   1000022     1.83340342E+00   # chi^0_1
#    BR                NDA      ID1      ID2
     9.17859915E-02    2     2000011       -11   # BR(chi^0_1 -> ~e^-_R e^+)
     9.17859915E-02    2    -2000011        11   # BR(chi^0_1 -> ~e^+_R e^-)
     9.23732390E-02    2     2000013       -13   # BR(chi^0_1 -> ~mu^-_R mu^+)
     9.23732390E-02    2    -2000013        13   # BR(chi^0_1 -> ~mu^+_R mu^-)
     3.15840769E-01    2     1000015       -15   # BR(chi^0_1 -> ~tau^-_1 tau^+)
     3.15840769E-01    2    -1000015        15   # BR(chi^0_1 -> ~tau^+_1 tau^-)
     1.12704657E-10    2     1000039        22   # BR(chi^0_1 -> ~G photon)
     3.40125543E-11    2     1000039        23   # BR(chi^0_1 -> ~G Z)
     6.68911297E-13    2     1000039        25   # BR(chi^0_1 -> ~G h^0)
DECAY   1000023     2.86860687E+00   # chi^0_2
#    BR                NDA      ID1      ID2
     4.68096281E-03    2     2000011       -11   # BR(chi^0_2 -> ~e^-_R e^+)
     4.68096281E-03    2    -2000011        11   # BR(chi^0_2 -> ~e^+_R e^-)
     1.85049931E-03    2     1000011       -11   # BR(chi^0_2 -> ~e^-_L e^+)
     1.85049931E-03    2    -1000011        11   # BR(chi^0_2 -> ~e^+_L e^-)
     5.81153296E-03    2     2000013       -13   # BR(chi^0_2 -> ~mu^-_R mu^+)
     5.81153296E-03    2    -2000013        13   # BR(chi^0_2 -> ~mu^+_R mu^-)
     1.86570992E-03    2     1000013       -13   # BR(chi^0_2 -> ~mu^-_L mu^+)
     1.86570992E-03    2    -1000013        13   # BR(chi^0_2 -> ~mu^+_L mu^-)
     4.25665698E-01    2     1000015       -15   # BR(chi^0_2 -> ~tau^-_1 tau^+)
     4.25665698E-01    2    -1000015        15   # BR(chi^0_2 -> ~tau^+_1 tau^-)
     5.70669660E-03    2     2000015       -15   # BR(chi^0_2 -> ~tau^-_2 tau^+)
     5.70669660E-03    2    -2000015        15   # BR(chi^0_2 -> ~tau^+_2 tau^-)
     1.35997949E-03    2     1000012       -12   # BR(chi^0_2 -> ~nu_e nu_bar_e)
     1.35997949E-03    2    -1000012        12   # BR(chi^0_2 -> ~nu^*_e nu_e)
     1.36296772E-03    2     1000014       -14   # BR(chi^0_2 -> ~nu_mu nu_bar_mu)
     1.36296772E-03    2    -1000014        14   # BR(chi^0_2 -> ~nu^*_mu nu_mu)
     2.28045253E-03    2     1000016       -16   # BR(chi^0_2 -> ~nu_tau nu_bar_tau)
     2.28045253E-03    2    -1000016        16   # BR(chi^0_2 -> ~nu^*_tau nu_tau)
     6.82369969E-03    2     1000022        23   # BR(chi^0_2 -> chi^0_1 Z)
     9.19317075E-02    2     1000022        25   # BR(chi^0_2 -> chi^0_1 h^0)
     1.31231836E-10    2     1000039        22   # BR(chi^0_2 -> ~G photon)
     1.16165606E-12    2     1000039        23   # BR(chi^0_2 -> ~G Z)
     4.75305756E-10    2     1000039        25   # BR(chi^0_2 -> ~G h^0)
     1.71151322E-07    2     1000022        22   # BR(chi^0_2 -> chi^0_1 photon)
#    BR                NDA      ID1      ID2       ID3
     4.25184727E-09    3     1000022         2        -2   # BR(chi^0_2 -> chi^0_1 u u_bar)
     4.25486624E-09    3     1000022         4        -4   # BR(chi^0_2 -> chi^0_1 c c_bar)
     2.90267095E-09    3     1000022         1        -1   # BR(chi^0_2 -> chi^0_1 d d_bar)
     2.29621035E-08    3     1000022         3        -3   # BR(chi^0_2 -> chi^0_1 s s_bar)
     4.79232415E-05    3     1000022         5        -5   # BR(chi^0_2 -> chi^0_1 b b_bar)
     1.21452001E-06    3     1000022        11       -11   # BR(chi^0_2 -> chi^0_1 e^- e^+)
     1.35784769E-06    3     1000022        13       -13   # BR(chi^0_2 -> chi^0_1 mu^- mu^+)
     2.48915179E-05    3     1000022        15       -15   # BR(chi^0_2 -> chi^0_1 tau^- tau^+)
     7.63638414E-13    3     1000024         1        -2   # BR(chi^0_2 -> chi^+_1 d u_bar)
     7.63638414E-13    3    -1000024        -1         2   # BR(chi^0_2 -> chi^-_1 d_bar u)
     2.43105650E-13    3     1000024        11       -12   # BR(chi^0_2 -> chi^+_1 e^- nu_bar_e)
     2.43105650E-13    3    -1000024       -11        12   # BR(chi^0_2 -> chi^-_1 e^+ nu_e)
     2.35315367E-13    3     1000024        13       -14   # BR(chi^0_2 -> chi^+_1 mu^- nu_bar_mu)
     2.35315367E-13    3    -1000024       -13        14   # BR(chi^0_2 -> chi^-_1 mu^+ nu_mu)
DECAY   1000025     2.96780311E+00   # chi^0_3
#    BR                NDA      ID1      ID2
     3.38157605E-04    2     2000011       -11   # BR(chi^0_3 -> ~e^-_R e^+)
     3.38157605E-04    2    -2000011        11   # BR(chi^0_3 -> ~e^+_R e^-)
     9.46974046E-06    2     1000011       -11   # BR(chi^0_3 -> ~e^-_L e^+)
     9.46974046E-06    2    -1000011        11   # BR(chi^0_3 -> ~e^+_L e^-)
     1.45420272E-03    2     2000013       -13   # BR(chi^0_3 -> ~mu^-_R mu^+)
     1.45420272E-03    2    -2000013        13   # BR(chi^0_3 -> ~mu^+_R mu^-)
     8.27395899E-05    2     1000013       -13   # BR(chi^0_3 -> ~mu^-_L mu^+)
     8.27395899E-05    2    -1000013        13   # BR(chi^0_3 -> ~mu^+_L mu^-)
     4.21037330E-01    2     1000015       -15   # BR(chi^0_3 -> ~tau^-_1 tau^+)
     4.21037330E-01    2    -1000015        15   # BR(chi^0_3 -> ~tau^+_1 tau^-)
     1.90634263E-02    2     2000015       -15   # BR(chi^0_3 -> ~tau^-_2 tau^+)
     1.90634263E-02    2    -2000015        15   # BR(chi^0_3 -> ~tau^+_2 tau^-)
     6.82473935E-05    2     1000012       -12   # BR(chi^0_3 -> ~nu_e nu_bar_e)
     6.82473935E-05    2    -1000012        12   # BR(chi^0_3 -> ~nu^*_e nu_e)
     6.83371652E-05    2     1000014       -14   # BR(chi^0_3 -> ~nu_mu nu_bar_mu)
     6.83371652E-05    2    -1000014        14   # BR(chi^0_3 -> ~nu^*_mu nu_mu)
     9.44799651E-05    2     1000016       -16   # BR(chi^0_3 -> ~nu_tau nu_bar_tau)
     9.44799651E-05    2    -1000016        16   # BR(chi^0_3 -> ~nu^*_tau nu_tau)
     1.09058522E-01    2     1000022        23   # BR(chi^0_3 -> chi^0_1 Z)
     6.36924739E-03    2     1000022        25   # BR(chi^0_3 -> chi^0_1 h^0)
     5.83254877E-14    2     1000039        22   # BR(chi^0_3 -> ~G photon)
     1.32335387E-10    2     1000039        23   # BR(chi^0_3 -> ~G Z)
     7.17442793E-10    2     1000039        25   # BR(chi^0_3 -> ~G h^0)
     2.82117382E-08    2     1000022        22   # BR(chi^0_3 -> chi^0_1 photon)
     5.31748855E-09    2     1000023        22   # BR(chi^0_3 -> chi^0_2 photon)
#    BR                NDA      ID1      ID2       ID3
     7.98136664E-11    3     1000022         2        -2   # BR(chi^0_3 -> chi^0_1 u u_bar)
     8.86349517E-11    3     1000022         4        -4   # BR(chi^0_3 -> chi^0_1 c c_bar)
     1.01501956E-10    3     1000022         1        -1   # BR(chi^0_3 -> chi^0_1 d d_bar)
     3.49314272E-08    3     1000022         3        -3   # BR(chi^0_3 -> chi^0_1 s s_bar)
     8.31486049E-05    3     1000022         5        -5   # BR(chi^0_3 -> chi^0_1 b b_bar)
     4.42004064E-08    3     1000022        11       -11   # BR(chi^0_3 -> chi^0_1 e^- e^+)
     2.48589499E-07    3     1000022        13       -13   # BR(chi^0_3 -> chi^0_1 mu^- mu^+)
     3.51092072E-05    3     1000022        15       -15   # BR(chi^0_3 -> chi^0_1 tau^- tau^+)
     6.00310671E-07    3     1000023         2        -2   # BR(chi^0_3 -> chi^0_2 u u_bar)
     5.93317512E-07    3     1000023         4        -4   # BR(chi^0_3 -> chi^0_2 c c_bar)
     7.78621562E-07    3     1000023         1        -1   # BR(chi^0_3 -> chi^0_2 d d_bar)
     7.78532680E-07    3     1000023         3        -3   # BR(chi^0_3 -> chi^0_2 s s_bar)
     6.43582721E-07    3     1000023         5        -5   # BR(chi^0_3 -> chi^0_2 b b_bar)
     1.79041851E-07    3     1000023        11       -11   # BR(chi^0_3 -> chi^0_2 e^- e^+)
     1.78894840E-07    3     1000023        13       -13   # BR(chi^0_3 -> chi^0_2 mu^- mu^+)
     1.35528601E-07    3     1000023        15       -15   # BR(chi^0_3 -> chi^0_2 tau^- tau^+)
     1.06673097E-06    3     1000023        12       -12   # BR(chi^0_3 -> chi^0_2 nu_e nu_bar_e)
     2.66457543E-06    3     1000024         1        -2   # BR(chi^0_3 -> chi^+_1 d u_bar)
     2.66457543E-06    3    -1000024        -1         2   # BR(chi^0_3 -> chi^-_1 d_bar u)
     2.64221779E-06    3     1000024         3        -4   # BR(chi^0_3 -> chi^+_1 s c_bar)
     2.64221779E-06    3    -1000024        -3         4   # BR(chi^0_3 -> chi^-_1 s_bar c)
     8.86438763E-07    3     1000024        11       -12   # BR(chi^0_3 -> chi^+_1 e^- nu_bar_e)
     8.86438763E-07    3    -1000024       -11        12   # BR(chi^0_3 -> chi^-_1 e^+ nu_e)
     8.86413459E-07    3     1000024        13       -14   # BR(chi^0_3 -> chi^+_1 mu^- nu_bar_mu)
     8.86413459E-07    3    -1000024       -13        14   # BR(chi^0_3 -> chi^-_1 mu^+ nu_mu)
     8.57784469E-07    3     1000024        15       -16   # BR(chi^0_3 -> chi^+_1 tau^- nu_bar_tau)
     8.57784469E-07    3    -1000024       -15        16   # BR(chi^0_3 -> chi^-_1 tau^+ nu_tau)
DECAY   1000035     4.14753316E+00   # chi^0_4
#    BR                NDA      ID1      ID2
     6.15467959E-04    2     2000011       -11   # BR(chi^0_4 -> ~e^-_R e^+)
     6.15467959E-04    2    -2000011        11   # BR(chi^0_4 -> ~e^+_R e^-)
     4.72478633E-02    2     1000011       -11   # BR(chi^0_4 -> ~e^-_L e^+)
     4.72478633E-02    2    -1000011        11   # BR(chi^0_4 -> ~e^+_L e^-)
     6.37427105E-04    2     2000013       -13   # BR(chi^0_4 -> ~mu^-_R mu^+)
     6.37427105E-04    2    -2000013        13   # BR(chi^0_4 -> ~mu^+_R mu^-)
     4.73219060E-02    2     1000013       -13   # BR(chi^0_4 -> ~mu^-_L mu^+)
     4.73219060E-02    2    -1000013        13   # BR(chi^0_4 -> ~mu^+_L mu^-)
     1.68838680E-02    2     1000015       -15   # BR(chi^0_4 -> ~tau^-_1 tau^+)
     1.68838680E-02    2    -1000015        15   # BR(chi^0_4 -> ~tau^+_1 tau^-)
     6.69648800E-02    2     2000015       -15   # BR(chi^0_4 -> ~tau^-_2 tau^+)
     6.69648800E-02    2    -2000015        15   # BR(chi^0_4 -> ~tau^+_2 tau^-)
     5.56667120E-02    2     1000012       -12   # BR(chi^0_4 -> ~nu_e nu_bar_e)
     5.56667120E-02    2    -1000012        12   # BR(chi^0_4 -> ~nu^*_e nu_e)
     5.56940093E-02    2     1000014       -14   # BR(chi^0_4 -> ~nu_mu nu_bar_mu)
     5.56940093E-02    2    -1000014        14   # BR(chi^0_4 -> ~nu^*_mu nu_mu)
     6.32390750E-02    2     1000016       -16   # BR(chi^0_4 -> ~nu_tau nu_bar_tau)
     6.32390750E-02    2    -1000016        16   # BR(chi^0_4 -> ~nu^*_tau nu_tau)
     1.09061330E-01    2     1000024       -24   # BR(chi^0_4 -> chi^+_1 W^-)
     1.09061330E-01    2    -1000024        24   # BR(chi^0_4 -> chi^-_1 W^+)
     1.46669909E-03    2     1000022        23   # BR(chi^0_4 -> chi^0_1 Z)
     9.52940406E-04    2     1000023        23   # BR(chi^0_4 -> chi^0_2 Z)
     2.10532343E-02    2     1000025        23   # BR(chi^0_4 -> chi^0_3 Z)
     1.22732339E-02    2     1000022        25   # BR(chi^0_4 -> chi^0_1 h^0)
     3.75379624E-02    2     1000023        25   # BR(chi^0_4 -> chi^0_2 h^0)
     3.75280565E-10    2     1000039        22   # BR(chi^0_4 -> ~G photon)
     2.17104775E-09    2     1000039        23   # BR(chi^0_4 -> ~G Z)
     2.89981850E-10    2     1000039        25   # BR(chi^0_4 -> ~G h^0)
     3.92119068E-07    2     1000022        22   # BR(chi^0_4 -> chi^0_1 photon)
     1.52313177E-06    2     1000023        22   # BR(chi^0_4 -> chi^0_2 photon)
     8.26730747E-07    2     1000025        22   # BR(chi^0_4 -> chi^0_3 photon)
#    BR                NDA      ID1      ID2       ID3
     4.39190084E-08    3     1000022         2        -2   # BR(chi^0_4 -> chi^0_1 u u_bar)
     4.39105712E-08    3     1000022         4        -4   # BR(chi^0_4 -> chi^0_1 c c_bar)
     3.16492511E-07    3     1000022         6        -6   # BR(chi^0_4 -> chi^0_1 t t_bar)
     6.03359876E-08    3     1000022         1        -1   # BR(chi^0_4 -> chi^0_1 d d_bar)
     6.96293338E-08    3     1000022         3        -3   # BR(chi^0_4 -> chi^0_1 s s_bar)
     2.22539885E-05    3     1000022         5        -5   # BR(chi^0_4 -> chi^0_1 b b_bar)
     4.14861853E-07    3     1000022        11       -11   # BR(chi^0_4 -> chi^0_1 e^- e^+)
     4.28011621E-07    3     1000022        13       -13   # BR(chi^0_4 -> chi^0_1 mu^- mu^+)
     6.45854527E-06    3     1000022        15       -15   # BR(chi^0_4 -> chi^0_1 tau^- tau^+)
     4.16007754E-09    3     1000023         2        -2   # BR(chi^0_4 -> chi^0_2 u u_bar)
     4.15430483E-09    3     1000023         4        -4   # BR(chi^0_4 -> chi^0_2 c c_bar)
     3.54904742E-09    3     1000023         1        -1   # BR(chi^0_4 -> chi^0_2 d d_bar)
     4.62695417E-09    3     1000023         3        -3   # BR(chi^0_4 -> chi^0_2 s s_bar)
     2.56099889E-06    3     1000023         5        -5   # BR(chi^0_4 -> chi^0_2 b b_bar)
     9.54926055E-07    3     1000023        11       -11   # BR(chi^0_4 -> chi^0_2 e^- e^+)
     9.61473577E-07    3     1000023        13       -13   # BR(chi^0_4 -> chi^0_2 mu^- mu^+)
     3.81516345E-06    3     1000023        15       -15   # BR(chi^0_4 -> chi^0_2 tau^- tau^+)
     1.47933325E-06    3     1000023        12       -12   # BR(chi^0_4 -> chi^0_2 nu_e nu_bar_e)
     2.41813376E-12    3     1000025         2        -2   # BR(chi^0_4 -> chi^0_3 u u_bar)
     6.80176750E-11    3     1000025         4        -4   # BR(chi^0_4 -> chi^0_3 c c_bar)
     5.99118772E-12    3     1000025         1        -1   # BR(chi^0_4 -> chi^0_3 d d_bar)
     6.99212214E-10    3     1000025         3        -3   # BR(chi^0_4 -> chi^0_3 s s_bar)
     1.62886984E-06    3     1000025         5        -5   # BR(chi^0_4 -> chi^0_3 b b_bar)
     1.52608854E-10    3     1000025        11       -11   # BR(chi^0_4 -> chi^0_3 e^- e^+)
     2.06022728E-09    3     1000025        13       -13   # BR(chi^0_4 -> chi^0_3 mu^- mu^+)
     6.51165458E-07    3     1000025        15       -15   # BR(chi^0_4 -> chi^0_3 tau^- tau^+)
     2.66181797E-09    3     1000025        12       -12   # BR(chi^0_4 -> chi^0_3 nu_e nu_bar_e)
     2.72784251E-09    3     1000024         1        -2   # BR(chi^0_4 -> chi^+_1 d u_bar)
     2.72784251E-09    3    -1000024        -1         2   # BR(chi^0_4 -> chi^-_1 d_bar u)
     4.96543432E-09    3     1000024         3        -4   # BR(chi^0_4 -> chi^+_1 s c_bar)
     4.96543432E-09    3    -1000024        -3         4   # BR(chi^0_4 -> chi^-_1 s_bar c)
     6.00240420E-07    3     1000024        11       -12   # BR(chi^0_4 -> chi^+_1 e^- nu_bar_e)
     6.00240420E-07    3    -1000024       -11        12   # BR(chi^0_4 -> chi^-_1 e^+ nu_e)
     6.03539121E-07    3     1000024        13       -14   # BR(chi^0_4 -> chi^+_1 mu^- nu_bar_mu)
     6.03539121E-07    3    -1000024       -13        14   # BR(chi^0_4 -> chi^-_1 mu^+ nu_mu)
     1.76066484E-06    3     1000024        15       -16   # BR(chi^0_4 -> chi^+_1 tau^- nu_bar_tau)
     1.76066484E-06    3    -1000024       -15        16   # BR(chi^0_4 -> chi^-_1 tau^+ nu_tau)
DECAY   1000021     1.08366113E+01   # ~g
#    BR                NDA      ID1      ID2
     3.51939170E-02    2     2000002        -2   # BR(~g -> ~u_R u_bar)
     3.51939170E-02    2    -2000002         2   # BR(~g -> ~u^*_R u)
     7.41112099E-03    2     1000002        -2   # BR(~g -> ~u_L u_bar)
     7.41112099E-03    2    -1000002         2   # BR(~g -> ~u^*_L u)
     3.51927024E-02    2     2000004        -4   # BR(~g -> ~c_R c_bar)
     3.51927024E-02    2    -2000004         4   # BR(~g -> ~c^*_R c)
     7.41519605E-03    2     1000004        -4   # BR(~g -> ~c_L c_bar)
     7.41519605E-03    2    -1000004         4   # BR(~g -> ~c^*_L c)
     3.21844587E-02    2     1000006        -4   # BR(~g -> ~t_1 c_bar)
     3.21844587E-02    2    -1000006         4   # BR(~g -> ~t^*_1 c)
     7.79950667E-02    2     1000006        -6   # BR(~g -> ~t_1 t_bar)
     7.79950667E-02    2    -1000006         6   # BR(~g -> ~t^*_1 t)
     3.83487821E-02    2     2000001        -1   # BR(~g -> ~d_R d_bar)
     3.83487821E-02    2    -2000001         1   # BR(~g -> ~d^*_R d)
     7.00952057E-03    2     1000001        -1   # BR(~g -> ~d_L d_bar)
     7.00952057E-03    2    -1000001         1   # BR(~g -> ~d^*_L d)
     3.83717021E-02    2     2000003        -3   # BR(~g -> ~s_R s_bar)
     3.83717021E-02    2    -2000003         3   # BR(~g -> ~s^*_R s)
     7.01410156E-03    2     1000003        -3   # BR(~g -> ~s_L s_bar)
     7.01410156E-03    2    -1000003         3   # BR(~g -> ~s^*_L s)
     1.11722461E-01    2     1000005        -5   # BR(~g -> ~b_1 b_bar)
     1.11722461E-01    2    -1000005         5   # BR(~g -> ~b^*_1 b)
     5.51161984E-02    2     2000005        -5   # BR(~g -> ~b_2 b_bar)
     5.51161984E-02    2    -2000005         5   # BR(~g -> ~b^*_2 b)
     1.01756835E-06    2     1000022        21   # BR(~g -> chi^0_1 g)
     1.33691241E-04    2     1000023        21   # BR(~g -> chi^0_2 g)
     2.14595419E-04    2     1000025        21   # BR(~g -> chi^0_3 g)
     5.52546038E-05    2     1000035        21   # BR(~g -> chi^0_4 g)
#    BR                NDA      ID1      ID2       ID3
     5.70532047E-04    3     1000022         6        -6   # BR(~g -> chi^0_1 t t_bar)
     1.39582440E-02    3     1000023         6        -6   # BR(~g -> chi^0_2 t t_bar)
     1.76896486E-02    3     1000025         6        -6   # BR(~g -> chi^0_3 t t_bar)
     1.60409097E-02    3     1000035         6        -6   # BR(~g -> chi^0_4 t t_bar)
     1.10914593E-02    3     1000024         5        -6   # BR(~g -> chi^+_1 b t_bar)
     1.10914593E-02    3    -1000024        -5         6   # BR(~g -> chi^-_1 b_bar t)
     1.16013663E-02    3     1000037         5        -6   # BR(~g -> chi^+_2 b t_bar)
     1.16013663E-02    3    -1000037        -5         6   # BR(~g -> chi^-_2 b_bar t)
DECAY        25     2.52716251E-03   # h^0
#    BR                NDA      ID1      ID2
     1.24855583E-08    2          11       -11   # BR(h^0 -> e^- e^+)
     5.33732554E-04    2          13       -13   # BR(h^0 -> mu^- mu^+)
     1.45819322E-01    2          15       -15   # BR(h^0 -> tau^- tau^+)
     6.28997685E-07    2           1        -1   # BR(h^0 -> d d_bar)
     2.77380808E-04    2           3        -3   # BR(h^0 -> s s_bar)
     6.06500879E-01    2           5        -5   # BR(h^0 -> b b_bar)
     2.62867286E-07    2           2        -2   # BR(h^0 -> u u_bar)
     4.70989068E-02    2           4        -4   # BR(h^0 -> c c_bar)
     7.02162635E-02    2          21        21   # BR(h^0 -> g g)
     3.37412438E-03    2          22        22   # BR(h^0 -> photon photon)
# writing decays into V V* as 3-body decays
#    BR                NDA      ID1      ID2       ID3
     5.81723808E-03    3          24        11        12   # BR(h^0 -> W^+ e^- nu_e)
     5.81723808E-03    3          24        13        14   # BR(h^0 -> W^+ mu^- nu_mu)
     5.81723808E-03    3          24        15        16   # BR(h^0 -> W^+ tau^- nu_tau)
     2.03603333E-02    3          24         1        -2   # BR(h^0 -> W^+ d u_bar)
     2.03603333E-02    3          24         3        -4   # BR(h^0 -> W^+ s c_bar)
     5.81723808E-03    3         -24       -11       -12   # BR(h^0 -> W^- e^+ nu_bar_e)
     5.81723808E-03    3         -24       -13       -14   # BR(h^0 -> W^- mu^+ nu_bar_mu)
     5.81723808E-03    3         -24       -15       -16   # BR(h^0 -> W^- tau^+ nu_bar_tau)
     2.03603333E-02    3         -24        -1         2   # BR(h^0 -> W^- d_bar u)
     2.03603333E-02    3         -24        -3         4   # BR(h^0 -> W^- s_bar c)
     3.44180400E-04    3          23        11       -11   # BR(h^0 -> Z e^- e^+)
     3.44180400E-04    3          23        13       -13   # BR(h^0 -> Z mu^- mu^+)
     2.95011772E-04    3          23        15       -15   # BR(h^0 -> Z tau^- tau^+)
     1.96674514E-03    3          23        12       -12   # BR(h^0 -> Z nu_e nu_bar_e)
     1.37672160E-03    3          23         1        -1   # BR(h^0 -> Z u u_bar)
     1.37672160E-03    3          23         3        -3   # BR(h^0 -> Z c c_bar)
     1.37672160E-03    3          23         5        -5   # BR(h^0 -> Z t t_bar)
     1.37672160E-03    3          23         2        -2   # BR(h^0 -> Z u u_bar)
     1.37672160E-03    3          23         4        -4   # BR(h^0 -> Z c c_bar)
DECAY        35     1.86299347E+01   # H^0
#    BR                NDA      ID1      ID2
     1.77860548E-08    2          11       -11   # BR(H^0 -> e^- e^+)
     7.60447448E-04    2          13       -13   # BR(H^0 -> mu^- mu^+)
     2.17815301E-01    2          15       -15   # BR(H^0 -> tau^- tau^+)
     7.46695289E-07    2           1        -1   # BR(H^0 -> d d_bar)
     3.29291876E-04    2           3        -3   # BR(H^0 -> s s_bar)
     7.80781414E-01    2           5        -5   # BR(H^0 -> b b_bar)
     3.94336981E-14    2           2        -2   # BR(H^0 -> u u_bar)
     7.06696327E-09    2           4        -4   # BR(H^0 -> c c_bar)
     1.18943766E-04    2           6        -6   # BR(H^0 -> t t_bar)
     2.28800963E-05    2     1000015  -1000015   # BR(H^0 -> ~tau^-_1 ~tau^+_1)
     2.62306826E-06    2          23        23   # BR(H^0 -> Z Z)
     5.27898838E-06    2          24       -24   # BR(H^0 -> W^+ W^-)
     1.49810961E-05    2          25        25   # BR(H^0 -> h^0 h^0)
     1.47845200E-04    2          21        21   # BR(H^0 -> g g)
     2.21832750E-07    2          22        22   # BR(H^0 -> photon photon)
DECAY        36     1.86305411E+01   # A^0
#    BR                NDA      ID1      ID2
     1.77848895E-08    2          11       -11   # BR(A^0 -> e^- e^+)
     7.60397808E-04    2          13       -13   # BR(A^0 -> mu^- mu^+)
     2.17815806E-01    2          15       -15   # BR(A^0 -> tau^- tau^+)
     7.46645618E-07    2           1        -1   # BR(A^0 -> d d_bar)
     3.29269952E-04    2           3        -3   # BR(A^0 -> s s_bar)
     7.80817382E-01    2           5        -5   # BR(A^0 -> b b_bar)
     3.08875284E-14    2           2        -2   # BR(A^0 -> u u_bar)
     5.53541553E-09    2           4        -4   # BR(A^0 -> c c_bar)
     2.34214549E-04    2           6        -6   # BR(A^0 -> t t_bar)
     4.36034698E-06    2          25        23   # BR(A^0 -> h^0 Z)
     3.77394291E-05    2          21        21   # BR(A^0 -> g g)
     5.96776782E-08    2          22        22   # BR(A^0 -> photon photon)
DECAY        37     1.35970390E+01   # H^+
#    BR                NDA      ID1      ID2
     2.48818497E-08    2         -11        12   # BR(H^+ -> e^+ nu_e)
     1.06383029E-03    2         -13        12   # BR(H^+ -> mu^+ nu_e)
     3.04734402E-01    2         -15        12   # BR(H^+ -> tau^+ nu_e)
     9.25657633E-07    2          -1         2   # BR(H^+ -> d_bar u)
     4.08214053E-04    2          -3         4   # BR(H^+ -> s_bar c)
     6.93786046E-01    2          -5         6   # BR(H^+ -> b_bar t)
     6.55656586E-06    2          25        24   # BR(H^+ -> h^0 W^+)
DECAY         6     2.43000000E+00   # top
#    BR                NDA      ID1      ID2
     1.00000000E+00    2           5        24   # BR(t -> b W)
Block HiggsBoundsInputHiggsCouplingsFermions
# ScalarNormEffCoupSq PseudoSNormEffCoupSq NP IP1 IP2 IP2
    1.27650375E+00    0.00000000E+00        3  25   5   5  # h0-b-b eff. coupling^2, normalised to SM
    3.59972350E+03    0.00000000E+00        3  35   5   5  # H0-b-b eff. coupling^2, normalised to SM
    0.00000000E+00    3.60000000E+03        3  36   5   5  # A0-b-b eff. coupling^2, normalised to SM
#
    9.99923193E-01    0.00000000E+00        3  25   6   6  # h0-t-t eff. coupling^2, normalised to SM
    3.54584374E-04    0.00000000E+00        3  35   6   6  # H0-t-t eff. coupling^2, normalised to SM
    0.00000000E+00    2.77777778E-04        3  36   6   6  # A0-t-t eff. coupling^2, normalised to SM
#
    1.27650375E+00    0.00000000E+00        3  25  15  15  # h0-tau-tau eff. coupling^2, normalised to SM
    3.59972350E+03    0.00000000E+00        3  35  15  15  # H0-tau-tau eff. coupling^2, normalised to SM
    0.00000000E+00    3.60000000E+03        3  36  15  15  # A0-tau-tau eff. coupling^2, normalised to SM
#
Block HiggsBoundsInputHiggsCouplingsBosons
    9.99995318E-01        3  25  24  24  # h0-W-W eff. coupling^2, normalised to SM
    4.68195790E-06        3  35  24  24  # H0-W-W eff. coupling^2, normalised to SM
    0.00000000E+00        3  36  24  24  # A0-W-W eff. coupling^2, normalised to SM
#
    9.99995318E-01        3  25  23  23  # h0-Z-Z eff. coupling^2, normalised to SM
    4.68195790E-06        3  35  23  23  # H0-Z-Z eff. coupling^2, normalised to SM
    0.00000000E+00        3  36  23  23  # A0-Z-Z eff. coupling^2, normalised to SM
#
    1.15860156E+00        3  25  21  21  # h0-g-g eff. coupling^2, normalised to SM
    1.99912084E-01        3  35  21  21  # H0-g-g eff. coupling^2, normalised to SM
    2.88291694E-01        3  36  21  21  # A0-g-g eff. coupling^2, normalised to SM
#
    0.00000000E+00        3  25  25  23  # h0-h0-Z eff. coupling^2, normalised to SM
    0.00000000E+00        3  35  25  23  # H0-h0-Z eff. coupling^2, normalised to SM
    4.68195790E-06        3  36  25  23  # A0-h0-Z eff. coupling^2, normalised to SM
    0.00000000E+00        3  35  35  23  # H0-H0-Z eff. coupling^2, normalised to SM
    9.99995318E-01        3  36  35  23  # A0-H0-Z eff. coupling^2, normalised to SM
    0.00000000E+00        3  36  36  23  # A0-A0-Z eff. coupling^2, normalised to SM
#
    0.00000000E+00        4  25  21  21  23  # h0-g-g-Z eff. coupling^2, normalised to SM
    0.00000000E+00        4  35  21  21  23  # H0-g-g-Z eff. coupling^2, normalised to SM
    0.00000000E+00        4  36  21  21  23  # A0-g-g-Z eff. coupling^2, normalised to SM
Block SPhenoLowEnergy  # low energy observables
    1    3.34990729E-04   # BR(b -> s gamma)
    2    1.58856121E-06   # BR(b -> s mu+ mu-)
    3    3.53614546E-05   # BR(b -> s nu nu)
    4    3.03006349E-10   # BR(Bd -> mu+ mu-)
    5    2.03558101E-08   # BR(Bs -> mu+ mu-)
    6    5.10702115E-05   # BR(B_u -> tau nu)
    7    4.61783853E-01   # BR(B_u -> tau nu)/BR(B_u -> tau nu)_SM
    8    2.71660509E-01   # |Delta(M_Bd)| [ps^-1] 
    9    1.99230865E+01   # |Delta(M_Bs)| [ps^-1] 
   20    8.31404819E-14   # Delta(g-2)_electron/2
   21    1.79856842E-09   # Delta(g-2)_muon/2
   22    2.19474438E-07   # Delta(g-2)_tau/2
   23    0.00000000E+00   # electric dipole moment of the electron
   24    0.00000000E+00   # electric dipole moment of the muon
   25    0.00000000E+00   # electric dipole moment of the tau
   26    0.00000000E+00   # Br(mu -> e gamma)
   27    0.00000000E+00   # Br(tau -> e gamma)
   28    0.00000000E+00   # Br(tau -> mu gamma)
   29    0.00000000E+00   # Br(mu -> 3 e)
   30    0.00000000E+00   # Br(tau -> 3 e)
   31    0.00000000E+00   # Br(tau -> 3 mu)
   39    2.67518120E-03   # Delta(rho_parameter)
   40    0.00000000E+00   # BR(Z -> e mu)
   41    0.00000000E+00   # BR(Z -> e tau)
   42    0.00000000E+00   # BR(Z -> mu tau)
Block FWCOEF Q=  9.11876000E+01  # Wilson coefficients at scale Q
#    id        order  M        value         comment
Block FWCOEF Q=  1.60000000E+02  # Wilson coefficients at scale Q
#    id        order  M        value         comment
     0305 4422   00   0    -1.87762681E-01   # C7
     0305 4422   00   1    -3.35791924E-02   # C7
     0305 4322   00   1    -6.68637848E-04   # C7'
     0305 6421   00   0    -9.48910665E-02   # C8
     0305 6421   00   1    -5.25034864E-02   # C8
     0305 6321   00   1    -1.05745166E-03   # C8'
 03051111 4133   00   0    -9.24875155E-01   # C9 e+e-
 03051111 4133   00   1     1.63087230E-03   # C9 e+e-
 03051111 4233   00   1    -4.11044784E-04   # C9' e+e-
 03051111 4137   00   0    -3.96487837E+00   # C10 e+e-
 03051111 4137   00   1     6.09079348E-03   # C10 e+e-
 03051111 4237   00   1     9.57178721E-03   # C10' e+e-
 03051313 4133   00   0    -9.24875155E-01   # C9 mu+mu-
 03051313 4133   00   1     1.62999072E-03   # C9 mu+mu-
 03051313 4233   00   1    -4.12036003E-04   # C9' mu+mu-
 03051313 4137   00   0    -3.96487837E+00   # C10 mu+mu-
 03051313 4137   00   1     6.08991122E-03   # C10 mu+mu-
 03051313 4237   00   1     9.57277963E-03   # C10' mu+mu-
 03051212 4237   00   0     1.49022147E+00   # C11 nu_1 nu_1
 03051212 4237   00   1    -1.46054983E-03   # C11 nu_1 nu_1
 03051212 4137   00   1    -2.29060867E-03   # C11' nu_1 nu_1
 03051414 4237   00   0     1.49022147E+00   # C11 nu_2 nu_2
 03051414 4237   00   1    -1.46054883E-03   # C11 nu_2 nu_2
 03051414 4137   00   1    -2.29037145E-03   # C11' nu_2 nu_2
 03051616 4237   00   0     1.49022147E+00   # C11 nu_3 nu_3
 03051616 4237   00   1    -1.45847270E-03   # C11 nu_3 nu_3
 03051616 4137   00   1    -2.22350680E-03   # C11' nu_3 nu_3
