#
#                              ======================
#                              | THE SUSYHIT OUTPUT |
#                              ======================
#
#
#              ------------------------------------------------------
#              |     This is the output of the SUSY-HIT package     |
#              |  created by A.Djouadi, M.Muehlleitner and M.Spira. |
#              |  In case of problems with SUSY-HIT email to        |
#              |           margarete.muehlleitner@cern.ch           |
#              |           michael.spira@psi.ch                     |
#              |           abdelhak.djouadi@cern.ch                 |
#              ------------------------------------------------------
#
#              ------------------------------------------------------
#              |  SUSY Les Houches Accord - MSSM Spectrum + Decays  |
#              |              based on the decay programs           |
#              |                                                    |
#              |                     SDECAY 1.3b                    |
#              |                                                    |
#              |  Authors: M.Muhlleitner, A.Djouadi and Y.Mambrini  |
#              |  Ref.:    Comput.Phys.Commun.168(2005)46           |
#              |           [hep-ph/0311167]                         |
#              |                                                    |
#              |                     HDECAY 3.4                     |
#              |                                                    |
#              |  By: A.Djouadi,J.Kalinowski,M.Muhlleitner,M.Spira  |
#              |  Ref.:    Comput.Phys.Commun.108(1998)56           |
#              |           [hep-ph/9704448]                         |
#              |                                                    |
#              |                                                    |
#              |  If not stated otherwise all DRbar couplings and   |
#              |  soft SUSY breaking masses are given at the scale  |
#              |  Q=  0.91187600E+02
#              |                                                    |
#              ------------------------------------------------------
#
#
BLOCK DCINFO  # Decay Program information
     1   SDECAY/HDECAY # decay calculator
     2   1.3b  /3.4    # version number
#
BLOCK SPINFO  # Spectrum calculator information
     1   SuSpect     # RGE +Spectrum calculator            
     2   2.41         # version number                     
#
BLOCK MODSEL  # Model selection
     1     0   # #general MSSM low scale                           
#
BLOCK SMINPUTS  # Standard Model inputs
         1     1.27934000E+02   # alpha_em^-1(M_Z)^MSbar
         2     1.16639000E-05   # G_F [GeV^-2]
         3     1.17200000E-01   # alpha_S(M_Z)^MSbar
         4     9.11870000E+01   # M_Z pole mass
         5     4.25000000E+00   # mb(mb)^MSbar
         6     1.72500000E+02   # mt pole mass
         7     1.77700000E+00   # mtau pole mass
#
BLOCK MINPAR  # Input parameters - minimal models
#
BLOCK EXTPAR  # Input parameters - non-minimal models
         0     9.11876000E+01   # EWSB                
         1     4.00000000E+02   # M_1                 
         2     6.00000000E+02   # M_2                 
         3     1.00000000E+05   # M_3                 
        11     0.00000000E+00   # A_t                 
        12     0.00000000E+00   # A_b                 
        13     0.00000000E+00   # A_tau               
        14     0.00000000E+00   # A_u                 
        15     0.00000000E+00   # A_d                 
        16     0.00000000E+00   # A_e                 
        23     1.00000000E+05   # mu(EWSB)            
        25     1.50000000E+00   # tanbeta(in)         
        26     2.00000000E+03   # MA_pole             
        31     1.00000000E+05   # M_eL                
        32     1.00000000E+05   # M_muL               
        33     1.00000000E+05   # M_tauL              
        34     1.00000000E+05   # M_eR                
        35     1.00000000E+05   # M_muR               
        36     1.00000000E+05   # M_tauR              
        41     1.00000000E+05   # M_q1L               
        42     1.00000000E+05   # M_q2L               
        43     1.00000000E+05   # M_q3L               
        44     1.00000000E+05   # M_uR                
        45     1.00000000E+05   # M_cR                
        46     1.00000000E+05   # M_tR                
        47     1.00000000E+05   # M_dR                
        48     1.00000000E+05   # M_sR                
        49     1.00000000E+05   # M_bR                
#
BLOCK MASS  # Mass Spectrum
# PDG code           mass       particle
        24     8.05676818E+01   # W+
        25     1.25000000E+02   # h
        35     2.00766762E+03   # H
        36     2.00000000E+03   # A
        37     2.02344440E+03   # H+
         5     4.87877839E+00   # b-quark pole mass calculated from mb(mb)_Msbar
   1000001     1.00000007E+05   # ~d_L
   2000001     1.00000001E+05   # ~d_R
   1000002     9.99999947E+04   # ~u_L
   2000002     9.99999975E+04   # ~u_R
   1000003     1.00000007E+05   # ~s_L
   2000003     1.00000001E+05   # ~s_R
   1000004     9.99999947E+04   # ~c_L
   2000004     9.99999975E+04   # ~c_R
   1000005     9.99980800E+04   # ~b_1
   2000005     1.00001928E+05   # ~b_2
   1000006     9.99522242E+04   # ~t_1
   2000006     1.00047951E+05   # ~t_2
   1000011     1.00000004E+05   # ~e_L
   2000011     1.00000004E+05   # ~e_R
   1000012     9.99999921E+04   # ~nu_eL
   1000013     1.00000004E+05   # ~mu_L
   2000013     1.00000004E+05   # ~mu_R
   1000014     9.99999921E+04   # ~nu_muL
   1000015     9.99986755E+04   # ~tau_1
   2000015     1.00001332E+05   # ~tau_2
   1000016     9.99999921E+04   # ~nu_tauL
   1000021     1.00000000E+05   # ~g
   1000022     3.99981583E+02   # ~chi_10
   1000023     5.99942494E+02   # ~chi_20
   1000025    -1.00000003E+05   # ~chi_30
   1000035     1.00000079E+05   # ~chi_40
   1000024     5.99942488E+02   # ~chi_1+
   1000037     1.00000062E+05   # ~chi_2+
   1000039     5.00000000E-09   # ~gravitino
#
BLOCK NMIX  # Neutralino Mixing Matrix
  1  1     9.99999887E-01   # N_11
  1  2    -1.62559867E-04   # N_12
  1  3     3.71902220E-04   # N_13
  1  4    -2.48759136E-04   # N_14
  2  1     1.62913819E-04   # N_21
  2  2     9.99999674E-01   # N_22
  2  3    -6.57208893E-04   # N_23
  2  4     4.40321026E-04   # N_24
  3  1     8.70504368E-05   # N_31
  3  2    -1.53377002E-04   # N_32
  3  3    -7.07106715E-01   # N_33
  3  4    -7.07106825E-01   # N_34
  4  1     4.38747639E-04   # N_41
  4  2    -7.76142210E-04   # N_42
  4  3    -7.07106444E-01   # N_43
  4  4     7.07106556E-01   # N_44
#
BLOCK UMIX  # Chargino Mixing Matrix U
  1  1    -9.99999568E-01   # U_11
  1  2     9.29519310E-04   # U_12
  2  1     9.29519310E-04   # U_21
  2  2     9.99999568E-01   # U_22
#
BLOCK VMIX  # Chargino Mixing Matrix V
  1  1    -9.99999806E-01   # V_11
  1  2     6.22765515E-04   # V_12
  2  1     6.22765515E-04   # V_21
  2  2     9.99999806E-01   # V_22
#
BLOCK STOPMIX  # Stop Mixing Matrix
  1  1     7.07117009E-01   # cos(theta_t)
  1  2     7.07096553E-01   # sin(theta_t)
  2  1    -7.07096553E-01   # -sin(theta_t)
  2  2     7.07117009E-01   # cos(theta_t)
#
BLOCK SBOTMIX  # Sbottom Mixing Matrix
  1  1     7.06618227E-01   # cos(theta_b)
  1  2     7.07594998E-01   # sin(theta_b)
  2  1    -7.07594998E-01   # -sin(theta_b)
  2  2     7.06618227E-01   # cos(theta_b)
#
BLOCK STAUMIX  # Stau Mixing Matrix
  1  1     7.07077104E-01   # cos(theta_tau)
  1  2     7.07136457E-01   # sin(theta_tau)
  2  1    -7.07136457E-01   # -sin(theta_tau)
  2  2     7.07077104E-01   # cos(theta_tau)
#
BLOCK ALPHA  # Higgs mixing
          -6.23539537E-01   # Mixing angle in the neutral Higgs boson sector
#
BLOCK HMIX Q=  9.11876000E+01  # DRbar Higgs Parameters
         1     1.00000000E+05   # mu(Q)               
         2     1.49999983E+00   # tanbeta(Q)          
         3     2.54989293E+02   # vev(Q)              
         4    -9.18408433E+06   # MA^2(Q)             
#
BLOCK GAUGE Q=  9.11876000E+01  # The gauge couplings
     1     3.49503789E-01   # gprime(Q) DRbar
     2     6.17028813E-01   # g(Q) DRbar
     3     9.84783345E-01   # g3(Q) DRbar
#
BLOCK AU Q=  9.11876000E+01  # The trilinear couplings
  1  1     0.00000000E+00   # A_u(Q) DRbar
  2  2     0.00000000E+00   # A_c(Q) DRbar
  3  3     0.00000000E+00   # A_t(Q) DRbar
#
BLOCK AD Q=  9.11876000E+01  # The trilinear couplings
  1  1     0.00000000E+00   # A_d(Q) DRbar
  2  2     0.00000000E+00   # A_s(Q) DRbar
  3  3     0.00000000E+00   # A_b(Q) DRbar
#
BLOCK AE Q=  9.11876000E+01  # The trilinear couplings
  1  1     0.00000000E+00   # A_e(Q) DRbar
  2  2     0.00000000E+00   # A_mu(Q) DRbar
  3  3     0.00000000E+00   # A_tau(Q) DRbar
#
BLOCK Yu Q=  9.11876000E+01  # The Yukawa couplings
  1  1     0.00000000E+00   # y_u(Q) DRbar
  2  2     0.00000000E+00   # y_c(Q) DRbar
  3  3     9.57023416E-01   # y_t(Q) DRbar
#
BLOCK Yd Q=  9.11876000E+01  # The Yukawa couplings
  1  1     0.00000000E+00   # y_d(Q) DRbar
  2  2     0.00000000E+00   # y_s(Q) DRbar
  3  3     2.56461040E-02   # y_b(Q) DRbar
#
BLOCK Ye Q=  9.11876000E+01  # The Yukawa couplings
  1  1     0.00000000E+00   # y_e(Q) DRbar
  2  2     0.00000000E+00   # y_mu(Q) DRbar
  3  3     1.77082761E-02   # y_tau(Q) DRbar
#
BLOCK MSOFT Q=  9.11876000E+01  # The soft SUSY breaking masses at the scale Q
         1     4.00000000E+02   # M_1                 
         2     6.00000000E+02   # M_2                 
         3     1.00000000E+05   # M_3                 
        14     0.00000000E+00   # A_u                 
        15     0.00000000E+00   # A_d                 
        16     0.00000000E+00   # A_e                 
        21    -1.13937297E+10   # M^2_Hd              
        22    -1.34858412E+10   # M^2_Hu              
        31     1.00000000E+05   # M_eL                
        32     1.00000000E+05   # M_muL               
        33     1.00000000E+05   # M_tauL              
        34     1.00000000E+05   # M_eR                
        35     1.00000000E+05   # M_muR               
        36     1.00000000E+05   # M_tauR              
        41     1.00000000E+05   # M_q1L               
        42     1.00000000E+05   # M_q2L               
        43     1.00000000E+05   # M_q3L               
        44     1.00000000E+05   # M_uR                
        45     1.00000000E+05   # M_cR                
        46     1.00000000E+05   # M_tR                
        47     1.00000000E+05   # M_dR                
        48     1.00000000E+05   # M_sR                
        49     1.00000000E+05   # M_bR                
#
#
#
#                             =================
#                             |The decay table|
#                             =================
#
# - The QCD corrections to the decays gluino -> squark  + quark
#                                     squark -> gaugino + quark_prime
#                                     squark -> squark_prime + Higgs
#                                     squark -> gluino  + quark
#   are included.
#
# - The multi-body decays for the inos, stops and sbottoms are included.
#
# - The loop induced decays for the gluino, neutralinos and stops
#   are included.
#
# - The SUSY decays of the top quark are included.
#
# - Possible decays of the NLSP in GMSB models are included.
#
#
#         PDG            Width
DECAY         6     1.31468472E+00   # top decays
#          BR         NDA      ID1       ID2
     1.00000000E+00    2           5        24   # BR(t ->  b    W+)
#
#         PDG            Width
DECAY   1000021     1.E-04   # gluino decays (OJ Mods)
#          BR         NDA      ID1       ID2
     2.89732739E-14    2     1000002        -2   # BR(~g -> ~u_L  ub)
     2.89732739E-14    2    -1000002         2   # BR(~g -> ~u_L* u )
     6.44652784E-15    2     2000002        -2   # BR(~g -> ~u_R  ub)
     6.44652784E-15    2    -2000002         2   # BR(~g -> ~u_R* u )
     2.89732739E-14    2     1000004        -4   # BR(~g -> ~c_L  cb)
     2.89732739E-14    2    -1000004         4   # BR(~g -> ~c_L* c )
     6.44652784E-15    2     2000004        -4   # BR(~g -> ~c_R  cb)
     6.44652784E-15    2    -2000004         4   # BR(~g -> ~c_R* c )
     1.00000000E+00    2     1000039        21   # BR(~g -> ~G g)
#
#         PDG            Width
DECAY   1000006     6.57414228E+02   # stop1 decays
#          BR         NDA      ID1       ID2
     1.67932068E-01    2     1000022         6   # BR(~t_1 -> ~chi_10 t )
     2.77366880E-01    2     1000023         6   # BR(~t_1 -> ~chi_20 t )
     5.54701052E-01    2     1000024         5   # BR(~t_1 -> ~chi_1+ b )
#
#         PDG            Width
DECAY   2000006     6.55891900E+02   # stop2 decays
#          BR         NDA      ID1       ID2
     1.68274676E-01    2     1000022         6   # BR(~t_2 -> ~chi_10 t )
     2.77487090E-01    2     1000023         6   # BR(~t_2 -> ~chi_20 t )
     0.00000000E+00    2     1000025         6   # BR(~t_2 -> ~chi_30 t )
     5.54941010E-01    2     1000024         5   # BR(~t_2 -> ~chi_1+ b )
     1.01890923E-06    2     1000037         5   # BR(~t_2 -> ~chi_2+ b )
    -7.03794913E-04    2     1000006        23   # BR(~t_2 -> ~t_1    Z )
#
#         PDG            Width
DECAY   1000005     5.77640487E+02   # sbottom1 decays
#          BR         NDA      ID1       ID2
     5.63109006E-02    2     1000022         5   # BR(~b_1 -> ~chi_10 b )
     3.14550562E-01    2     1000023         5   # BR(~b_1 -> ~chi_20 b )
     6.29138538E-01    2    -1000024         6   # BR(~b_1 -> ~chi_1- t )
#
#         PDG            Width
DECAY   2000005     5.80150608E+02   # sbottom2 decays
#          BR         NDA      ID1       ID2
     5.58948823E-02    2     1000022         5   # BR(~b_2 -> ~chi_10 b )
     3.14689232E-01    2     1000023         5   # BR(~b_2 -> ~chi_20 b )
     6.29415886E-01    2    -1000024         6   # BR(~b_2 -> ~chi_1- t )
#
#         PDG            Width
DECAY   1000002     1.10587101E+03   # sup_L decays
#          BR         NDA      ID1       ID2
     1.17231320E-02    2     1000022         2   # BR(~u_L -> ~chi_10 u)
     3.29439075E-01    2     1000023         2   # BR(~u_L -> ~chi_20 u)
     6.58837793E-01    2     1000024         1   # BR(~u_L -> ~chi_1+ d)
#
#         PDG            Width
DECAY   2000002     2.07785995E+02   # sup_R decays
#          BR         NDA      ID1       ID2
     9.99999973E-01    2     1000022         2   # BR(~u_R -> ~chi_10 u)
     2.65413546E-08    2     1000023         2   # BR(~u_R -> ~chi_20 u)
#
#         PDG            Width
DECAY   1000001     1.10587055E+03   # sdown_L decays
#          BR         NDA      ID1       ID2
     1.17635795E-02    2     1000022         1   # BR(~d_L -> ~chi_10 d)
     3.29398676E-01    2     1000023         1   # BR(~d_L -> ~chi_20 d)
     5.17522249E-17    2     1000025         1   # BR(~d_L -> ~chi_30 d)
     6.58837744E-01    2    -1000024         2   # BR(~d_L -> ~chi_1- u)
     1.49096058E-13    2     1000021         1   # BR(~d_L -> ~g      d)
#
#         PDG            Width
DECAY   2000001     5.19464986E+01   # sdown_R decays
#          BR         NDA      ID1       ID2
     9.99999973E-01    2     1000022         1   # BR(~d_R -> ~chi_10 d)
     2.65413546E-08    2     1000023         1   # BR(~d_R -> ~chi_20 d)
     6.47766003E-14    2     1000021         1   # BR(~d_R -> ~g      d)
#
#         PDG            Width
DECAY   1000004     1.10587101E+03   # scharm_L decays
#          BR         NDA      ID1       ID2
     1.17231320E-02    2     1000022         4   # BR(~c_L -> ~chi_10 c)
     3.29439075E-01    2     1000023         4   # BR(~c_L -> ~chi_20 c)
     6.58837793E-01    2     1000024         3   # BR(~c_L -> ~chi_1+ s)
#
#         PDG            Width
DECAY   2000004     2.07785995E+02   # scharm_R decays
#          BR         NDA      ID1       ID2
     9.99999973E-01    2     1000022         4   # BR(~c_R -> ~chi_10 c)
     2.65413546E-08    2     1000023         4   # BR(~c_R -> ~chi_20 c)
#
#         PDG            Width
DECAY   1000003     1.10587055E+03   # sstrange_L decays
#          BR         NDA      ID1       ID2
     1.17635795E-02    2     1000022         3   # BR(~s_L -> ~chi_10 s)
     3.29398676E-01    2     1000023         3   # BR(~s_L -> ~chi_20 s)
     5.17522249E-17    2     1000025         3   # BR(~s_L -> ~chi_30 s)
     6.58837744E-01    2    -1000024         4   # BR(~s_L -> ~chi_1- c)
     1.49096058E-13    2     1000021         3   # BR(~s_L -> ~g      s)
#
#         PDG            Width
DECAY   2000003     5.19464986E+01   # sstrange_R decays
#          BR         NDA      ID1       ID2
     9.99999973E-01    2     1000022         3   # BR(~s_R -> ~chi_10 s)
     2.65413546E-08    2     1000023         3   # BR(~s_R -> ~chi_20 s)
     6.47766003E-14    2     1000021         3   # BR(~s_R -> ~g      s)
#
#         PDG            Width
DECAY   1000011     1.25756250E+03   # selectron_L decays
#          BR         NDA      ID1       ID2
     9.65630682E-02    2     1000022        11   # BR(~e_L -> ~chi_10 e-)
     3.01182739E-01    2     1000023        11   # BR(~e_L -> ~chi_20 e-)
     1.30462050E-24    2     1000025        11   # BR(~e_L -> ~chi_30 e-)
     6.02254193E-01    2    -1000024        12   # BR(~e_L -> ~chi_1- nu_e)
#
#         PDG            Width
DECAY   2000011     4.86015311E+02   # selectron_R decays
#          BR         NDA      ID1       ID2
     9.99999973E-01    2     1000022        11   # BR(~e_R -> ~chi_10 e-)
     2.65398564E-08    2     1000023        11   # BR(~e_R -> ~chi_20 e-)
     3.03120875E-24    2     1000025        11   # BR(~e_R -> ~chi_30 e-)
#
#         PDG            Width
DECAY   1000013     1.25756250E+03   # smuon_L decays
#          BR         NDA      ID1       ID2
     9.65630682E-02    2     1000022        13   # BR(~mu_L -> ~chi_10 mu-)
     3.01182739E-01    2     1000023        13   # BR(~mu_L -> ~chi_20 mu-)
     1.30462050E-24    2     1000025        13   # BR(~mu_L -> ~chi_30 mu-)
     6.02254193E-01    2    -1000024        14   # BR(~mu_L -> ~chi_1- nu_mu)
#
#         PDG            Width
DECAY   2000013     4.86015311E+02   # smuon_R decays
#          BR         NDA      ID1       ID2
     9.99999973E-01    2     1000022        13   # BR(~mu_R -> ~chi_10 mu-)
     2.65398564E-08    2     1000023        13   # BR(~mu_R -> ~chi_20 mu-)
     3.03120875E-24    2     1000025        13   # BR(~mu_R -> ~chi_30 mu-)
#
#         PDG            Width
DECAY   1000015     1.33226580E+03   # stau_1 decays
#          BR         NDA      ID1       ID2
     2.27986964E-01    2     1000022        15   # BR(~tau_1 -> ~chi_10  tau-)
     1.42141121E-01    2     1000023        15   # BR(~tau_1 -> ~chi_20  tau-)
     2.84229718E-01    2    -1000024        16   # BR(~tau_1 -> ~chi_1-  nu_tau)
     3.45642197E-01    2     1000039        15   # BR(~tau_1 -> ~G       tau-)
#
#         PDG            Width
DECAY   2000015     8.71799290E+02   # stau_2 decays
#          BR         NDA      ID1       ID2
     3.48371648E-01    2     1000022        15   # BR(~tau_2 -> ~chi_10  tau-)
     2.17236214E-01    2     1000023        15   # BR(~tau_2 -> ~chi_20  tau-)
     4.34392138E-01    2    -1000024        16   # BR(~tau_2 -> ~chi_1-  nu_tau)
     2.46004993E-13    2    -1000037        16   # BR(~tau_2 -> ~chi_2-  nu_tau)
#
#         PDG            Width
DECAY   1000012     1.25756242E+03   # snu_eL decays
#          BR         NDA      ID1       ID2
     9.66739777E-02    2     1000022        12   # BR(~nu_eL -> ~chi_10 nu_e)
     3.01071572E-01    2     1000023        12   # BR(~nu_eL -> ~chi_20 nu_e)
     6.02254450E-01    2     1000024        11   # BR(~nu_eL -> ~chi_1+ e-)
#
#         PDG            Width
DECAY   1000014     1.25756242E+03   # snu_muL decays
#          BR         NDA      ID1       ID2
     9.66739777E-02    2     1000022        14   # BR(~nu_muL -> ~chi_10 nu_mu)
     3.01071572E-01    2     1000023        14   # BR(~nu_muL -> ~chi_20 nu_mu)
     6.02254450E-01    2     1000024        13   # BR(~nu_muL -> ~chi_1+ mu-)
#
#         PDG            Width
DECAY   1000016     1.25756242E+03   # snu_tauL decays
#          BR         NDA      ID1       ID2
     9.66739777E-02    2     1000022        16   # BR(~nu_tauL -> ~chi_10 nu_tau)
     3.01071572E-01    2     1000023        16   # BR(~nu_tauL -> ~chi_20 nu_tau)
     6.02254450E-01    2     1000024        15   # BR(~nu_tauL -> ~chi_1+ tau-)
#
#         PDG            Width
DECAY   1000024     8.85496339E-07   # chargino1+ decays
#          BR         NDA      ID1       ID2
     9.96242975E-01    2     1000022        24   # BR(~chi_1+ -> ~chi_10  W+)
     3.75702544E-03    2     1000039        24   # BR(~chi_1+ -> ~G       W+)
#
#         PDG            Width
DECAY   1000037     1.24221895E+03   # chargino2+ decays
#          BR         NDA      ID1       ID2
     2.28233253E-14    2     1000002        -1   # BR(~chi_2+ -> ~u_L     db)
     4.15519914E-14    2    -1000001         2   # BR(~chi_2+ -> ~d_L*    u )
     2.28233253E-14    2     1000004        -3   # BR(~chi_2+ -> ~c_L     sb)
     4.15519914E-14    2    -1000003         4   # BR(~chi_2+ -> ~s_L*    c )
     8.25166433E-07    2     1000006        -5   # BR(~chi_2+ -> ~t_1     bb)
     1.68625143E-19    2     1000012       -11   # BR(~chi_2+ -> ~nu_eL   e+  )
     1.68625143E-19    2     1000014       -13   # BR(~chi_2+ -> ~nu_muL  mu+ )
     2.58637647E-19    2    -1000011        12   # BR(~chi_2+ -> ~e_L+    nu_e)
     2.58637647E-19    2    -1000013        14   # BR(~chi_2+ -> ~mu_L+   nu_mu)
     6.59637518E-14    2    -1000015        16   # BR(~chi_2+ -> ~tau_1+  nu_tau)
     1.10582994E-01    2     1000024        23   # BR(~chi_2+ -> ~chi_1+  Z )
     3.42637903E-02    2     1000022        24   # BR(~chi_2+ -> ~chi_10  W+)
     1.07265807E-01    2     1000023        24   # BR(~chi_2+ -> ~chi_20  W+)
     1.12496667E-01    2     1000024        25   # BR(~chi_2+ -> ~chi_1+  h )
     1.09877546E-01    2     1000024        35   # BR(~chi_2+ -> ~chi_1+  H )
     1.09911316E-01    2     1000024        36   # BR(~chi_2+ -> ~chi_1+  A )
     3.53749993E-02    2     1000022        37   # BR(~chi_2+ -> ~chi_10  H+)
     1.09929778E-01    2     1000023        37   # BR(~chi_2+ -> ~chi_20  H+)
     1.35258759E-01    2     1000039        24   # BR(~chi_2+ -> ~G       W+)
     1.35037518E-01    2     1000039        37   # BR(~chi_2+ -> ~G       H+)
#
#         PDG            Width
DECAY   1000022     1.E-08   # neutralino1 decays (OJ Mods)
#          BR         NDA      ID1       ID2
     7.94054002E-01    2     1000039        22   # BR(~chi_10 -> ~G        gam)
     2.05945997E-01    2     1000039        23   # BR(~chi_10 -> ~G        Z)
     8.04567140E-11    2     1000039        25   # BR(~chi_10 -> ~G        h)
#
#         PDG            Width
DECAY   1000023     1.E-08   # neutralino2 decays (OJ Mods)
#          BR         NDA      ID1       ID2
     2.67019473E-07    2     1000022        23   # BR(~chi_20 -> ~chi_10   Z )
     9.96464694E-01    2     1000022        25   # BR(~chi_20 -> ~chi_10   h )
     9.21435934E-04    2     1000039        22   # BR(~chi_20 -> ~G        gam)
     2.61360308E-03    2     1000039        23   # BR(~chi_20 -> ~G        Z)
     1.09724592E-12    2     1000039        25   # BR(~chi_20 -> ~G        h)
#
#         PDG            Width
DECAY   1000025     1.23530467E+03   # neutralino3 decays
#          BR         NDA      ID1       ID2
     3.41694629E-02    2     1000022        23   # BR(~chi_30 -> ~chi_10   Z )
     1.06840379E-01    2     1000023        23   # BR(~chi_30 -> ~chi_20   Z )
     1.07682589E-01    2     1000024       -24   # BR(~chi_30 -> ~chi_1+   W-)
     1.07682589E-01    2    -1000024        24   # BR(~chi_30 -> ~chi_1-   W+)
     9.23684676E-04    2     1000022        25   # BR(~chi_30 -> ~chi_10   h )
     3.46153441E-02    2     1000022        35   # BR(~chi_30 -> ~chi_10   H )
     1.38891527E-03    2     1000022        36   # BR(~chi_30 -> ~chi_10   A )
     2.86514772E-03    2     1000023        25   # BR(~chi_30 -> ~chi_20   h )
     1.07372042E-01    2     1000023        35   # BR(~chi_30 -> ~chi_20   H )
     4.34283640E-03    2     1000023        36   # BR(~chi_30 -> ~chi_20   A )
     1.10356852E-01    2     1000024       -37   # BR(~chi_30 -> ~chi_1+   H-)
     1.10356852E-01    2    -1000024        37   # BR(~chi_30 -> ~chi_1-   H+)
     1.36650710E-16    2     1000002        -2   # BR(~chi_30 -> ~u_L      ub)
     1.36650710E-16    2    -1000002         2   # BR(~chi_30 -> ~u_L*     u )
     2.08709086E-17    2     2000002        -2   # BR(~chi_30 -> ~u_R      ub)
     2.08709086E-17    2    -2000002         2   # BR(~chi_30 -> ~u_R*     u )
     1.89735228E-18    2     2000001        -1   # BR(~chi_30 -> ~d_R      db)
     1.89735228E-18    2    -2000001         1   # BR(~chi_30 -> ~d_R*     d )
     1.36650710E-16    2     1000004        -4   # BR(~chi_30 -> ~c_L      cb)
     1.36650710E-16    2    -1000004         4   # BR(~chi_30 -> ~c_L*     c )
     2.08709086E-17    2     2000004        -4   # BR(~chi_30 -> ~c_R      cb)
     2.08709086E-17    2    -2000004         4   # BR(~chi_30 -> ~c_R*     c )
     1.89735228E-18    2     2000003        -3   # BR(~chi_30 -> ~s_R      sb)
     1.89735228E-18    2    -2000003         3   # BR(~chi_30 -> ~s_R*     s )
     2.18047101E-22    2     1000012       -12   # BR(~chi_30 -> ~nu_eL    nu_eb)
     2.18047101E-22    2    -1000012        12   # BR(~chi_30 -> ~nu_eL*   nu_e )
     2.18047101E-22    2     1000014       -14   # BR(~chi_30 -> ~nu_muL   nu_mub)
     2.18047101E-22    2    -1000014        14   # BR(~chi_30 -> ~nu_muL*  nu_mu )
     2.18047101E-22    2     1000016       -16   # BR(~chi_30 -> ~nu_tau1  nu_taub)
     2.18047101E-22    2    -1000016        16   # BR(~chi_30 -> ~nu_tau1* nu_tau )
     6.15903386E-15    2     1000039        22   # BR(~chi_30 -> ~G        gam)
     5.22342772E-03    2     1000039        23   # BR(~chi_30 -> ~G        Z)
     1.32281495E-01    2     1000039        25   # BR(~chi_30 -> ~G        h)
     3.52131282E-03    2     1000039        35   # BR(~chi_30 -> ~G        H)
     1.30377069E-01    2     1000039        36   # BR(~chi_30 -> ~G        A)
#
#         PDG            Width
DECAY   1000035     1.23921756E+03   # neutralino4 decays
#          BR         NDA      ID1       ID2
     1.34199351E-03    2     1000022        23   # BR(~chi_40 -> ~chi_10   Z )
     4.16269731E-03    2     1000023        23   # BR(~chi_40 -> ~chi_20   Z )
     1.07435326E-01    2     1000024       -24   # BR(~chi_40 -> ~chi_1+   W-)
     1.07435326E-01    2    -1000024        24   # BR(~chi_40 -> ~chi_1-   W+)
     3.51210915E-02    2     1000022        25   # BR(~chi_40 -> ~chi_10   h )
     9.35670304E-04    2     1000022        35   # BR(~chi_40 -> ~chi_10   H )
     3.40930917E-02    2     1000022        36   # BR(~chi_40 -> ~chi_10   A )
     1.09815856E-01    2     1000023        25   # BR(~chi_40 -> ~chi_20   h )
     2.92563787E-03    2     1000023        35   # BR(~chi_40 -> ~chi_20   H )
     1.05752088E-01    2     1000023        36   # BR(~chi_40 -> ~chi_20   A )
     1.10103451E-01    2     1000024       -37   # BR(~chi_40 -> ~chi_1+   H-)
     1.10103451E-01    2    -1000024        37   # BR(~chi_40 -> ~chi_1-   H+)
     3.54936968E-14    2     1000002        -2   # BR(~chi_40 -> ~u_L      ub)
     3.54936968E-14    2    -1000002         2   # BR(~chi_40 -> ~u_L*     u )
     7.83854867E-15    2     2000002        -2   # BR(~chi_40 -> ~u_R      ub)
     7.83854867E-15    2    -2000002         2   # BR(~chi_40 -> ~u_R*     u )
     4.65347828E-14    2     1000001        -1   # BR(~chi_40 -> ~d_L      db)
     4.65347828E-14    2    -1000001         1   # BR(~chi_40 -> ~d_L*     d )
     1.87547902E-15    2     2000001        -1   # BR(~chi_40 -> ~d_R      db)
     1.87547902E-15    2    -2000001         1   # BR(~chi_40 -> ~d_R*     d )
     3.54936968E-14    2     1000004        -4   # BR(~chi_40 -> ~c_L      cb)
     3.54936968E-14    2    -1000004         4   # BR(~chi_40 -> ~c_L*     c )
     7.83854867E-15    2     2000004        -4   # BR(~chi_40 -> ~c_R      cb)
     7.83854867E-15    2    -2000004         4   # BR(~chi_40 -> ~c_R*     c )
     4.65347828E-14    2     1000003        -3   # BR(~chi_40 -> ~s_L      sb)
     4.65347828E-14    2    -1000003         3   # BR(~chi_40 -> ~s_L*     s )
     1.87547902E-15    2     2000003        -3   # BR(~chi_40 -> ~s_R      sb)
     1.87547902E-15    2    -2000003         3   # BR(~chi_40 -> ~s_R*     s )
     6.97948740E-20    2     1000011       -11   # BR(~chi_40 -> ~e_L-     e+)
     6.97948740E-20    2    -1000011        11   # BR(~chi_40 -> ~e_L+     e-)
     6.19383671E-20    2     2000011       -11   # BR(~chi_40 -> ~e_R-     e+)
     6.19383671E-20    2    -2000011        11   # BR(~chi_40 -> ~e_R+     e-)
     6.97948740E-20    2     1000013       -13   # BR(~chi_40 -> ~mu_L-    mu+)
     6.97948740E-20    2    -1000013        13   # BR(~chi_40 -> ~mu_L+    mu-)
     6.19383671E-20    2     2000013       -13   # BR(~chi_40 -> ~mu_R-    mu+)
     6.19383671E-20    2    -2000013        13   # BR(~chi_40 -> ~mu_R+    mu-)
     3.53391133E-19    2     1000012       -12   # BR(~chi_40 -> ~nu_eL    nu_eb)
     3.53391133E-19    2    -1000012        12   # BR(~chi_40 -> ~nu_eL*   nu_e )
     3.53391133E-19    2     1000014       -14   # BR(~chi_40 -> ~nu_muL   nu_mub)
     3.53391133E-19    2    -1000014        14   # BR(~chi_40 -> ~nu_muL*  nu_mu )
     3.53391133E-19    2     1000016       -16   # BR(~chi_40 -> ~nu_tau1  nu_taub)
     3.53391133E-19    2    -1000016        16   # BR(~chi_40 -> ~nu_tau1* nu_tau )
     1.59892587E-13    2     1000039        22   # BR(~chi_40 -> ~G        gam)
     1.30286112E-01    2     1000039        23   # BR(~chi_40 -> ~G        Z)
     3.51888990E-03    2     1000039        25   # BR(~chi_40 -> ~G        h)
     1.31766205E-01    2     1000039        35   # BR(~chi_40 -> ~G        H)
     5.20311279E-03    2     1000039        36   # BR(~chi_40 -> ~G        A)
#
#
#
#
