#
#                              ======================
#                              | THE SUSYHIT OUTPUT |
#                              ======================
#
#
#              ------------------------------------------------------
#              |     This is the output of the SUSY-HIT package     |
#              |  created by A.Djouadi, M.Muehlleitner and M.Spira. |
#              |  In case of problems with SUSY-HIT email to        |
#              |           margarete.muehlleitner@cern.ch           |
#              |           michael.spira@psi.ch                     |
#              |           abdelhak.djouadi@cern.ch                 |
#              ------------------------------------------------------
#
#              ------------------------------------------------------
#              |  SUSY Les Houches Accord - MSSM Spectrum + Decays  |
#              |              based on the decay programs           |
#              |                                                    |
#              |                     SDECAY 1.3b                    |
#              |                                                    |
#              |  Authors: M.Muhlleitner, A.Djouadi and Y.Mambrini  |
#              |  Ref.:    Comput.Phys.Commun.168(2005)46           |
#              |           [hep-ph/0311167]                         |
#              |                                                    |
#              |                     HDECAY 3.4                     |
#              |                                                    |
#              |  By: A.Djouadi,J.Kalinowski,M.Muhlleitner,M.Spira  |
#              |  Ref.:    Comput.Phys.Commun.108(1998)56           |
#              |           [hep-ph/9704448]                         |
#              |                                                    |
#              |                                                    |
#              |  If not stated otherwise all DRbar couplings and   |
#              |  soft SUSY breaking masses are given at the scale  |
#              |  Q=  0.91187600E+02
#              |                                                    |
#              ------------------------------------------------------
#
#
BLOCK DCINFO  # Decay Program information
     1   SDECAY/HDECAY # decay calculator
     2   1.3b  /3.4    # version number
#
BLOCK SPINFO  # Spectrum calculator information
     1   SuSpect     # RGE +Spectrum calculator            
     2   2.41         # version number                     
#
BLOCK MODSEL  # Model selection
     1     0   # #general MSSM low scale                           
#
BLOCK SMINPUTS  # Standard Model inputs
         1     1.27934000E+02   # alpha_em^-1(M_Z)^MSbar
         2     1.16639000E-05   # G_F [GeV^-2]
         3     1.17200000E-01   # alpha_S(M_Z)^MSbar
         4     9.11870000E+01   # M_Z pole mass
         5     4.25000000E+00   # mb(mb)^MSbar
         6     1.72500000E+02   # mt pole mass
         7     1.77700000E+00   # mtau pole mass
#
BLOCK MINPAR  # Input parameters - minimal models
#
BLOCK EXTPAR  # Input parameters - non-minimal models
         0     9.11876000E+01   # EWSB                
         1     5.00000000E+01   # M_1                 
         2     1.00000000E+05   # M_2                 
         3     1.00000000E+05   # M_3                 
        11     0.00000000E+00   # A_t                 
        12     0.00000000E+00   # A_b                 
        13     0.00000000E+00   # A_tau               
        14     0.00000000E+00   # A_u                 
        15     0.00000000E+00   # A_d                 
        16     0.00000000E+00   # A_e                 
        23     3.50000000E+03   # mu(EWSB)            
        25     1.50000000E+00   # tanbeta(in)         
        26     2.00000000E+03   # MA_pole             
        31     1.00000000E+05   # M_eL                
        32     1.00000000E+05   # M_muL               
        33     1.00000000E+05   # M_tauL              
        34     1.00000000E+05   # M_eR                
        35     1.00000000E+05   # M_muR               
        36     1.00000000E+05   # M_tauR              
        41     2.00000000E+03   # M_q1L               
        42     2.00000000E+03   # M_q2L               
        43     2.00000000E+03   # M_q3L               
        44     1.00000000E+05   # M_uR                
        45     1.00000000E+05   # M_cR                
        46     1.00000000E+05   # M_tR                
        47     2.00000000E+03   # M_dR                
        48     2.00000000E+03   # M_sR                
        49     2.00000000E+03   # M_bR                
#
BLOCK MASS  # Mass Spectrum
# PDG code           mass       particle
        24     8.05845686E+01   # W+
        25     1.25000000E+02   # h
        35     2.00405670E+03   # H
        36     2.00000000E+03   # A
        37     2.02369023E+03   # H+
         5     4.87877839E+00   # b-quark pole mass calculated from mb(mb)_Msbar
   1000001     2.00033146E+03   # ~d_L
   2000001     2.00006396E+03   # ~d_R
   1000002     1.99973246E+03   # ~u_L
   2000002     9.99999974E+04   # ~u_R
   1000003     2.00033146E+03   # ~s_L
   2000003     2.00006396E+03   # ~s_R
   1000004     1.99973246E+03   # ~c_L
   2000004     9.99999974E+04   # ~c_R
   1000005     1.99679880E+03   # ~b_1
   2000005     2.00359420E+03   # ~b_2
   1000006     2.00516215E+03   # ~t_1
   2000006     1.00000106E+05   # ~t_2
   1000011     1.00000004E+05   # ~e_L
   2000011     1.00000004E+05   # ~e_R
   1000012     9.99999921E+04   # ~nu_eL
   1000013     1.00000004E+05   # ~mu_L
   2000013     1.00000004E+05   # ~mu_R
   1000014     9.99999921E+04   # ~nu_muL
   1000015     9.99999574E+04   # ~tau_1
   2000015     1.00000051E+05   # ~tau_2
   1000016     9.99999921E+04   # ~nu_tauL
   1000021     1.00000000E+05   # ~g
   1000022     4.94655272E+01   # ~chi_10
   1000023    -3.50002394E+03   # ~chi_20
   1000025     3.50049402E+03   # ~chi_30
   1000035     1.00000064E+05   # ~chi_40
   1000024     3.49994024E+03   # ~chi_1+
   1000037     1.00000064E+05   # ~chi_2+
   1000039     1.00000000E-09   # ~gravitino
#
BLOCK NMIX  # Neutralino Mixing Matrix
  1  1     9.99916382E-01   # N_11
  1  2    -9.44729183E-06   # N_12
  1  3     1.07212010E-02   # N_13
  1  4    -7.23086019E-03   # N_14
  2  1     2.46802234E-03   # N_21
  2  2    -1.49569501E-04   # N_22
  2  3    -7.07092530E-01   # N_23
  2  4    -7.07116710E-01   # N_24
  3  1     1.26940298E-02   # N_31
  3  2     8.01971303E-04   # N_32
  3  3    -7.07039601E-01   # N_33
  3  4     7.07059560E-01   # N_34
  4  1     3.64606102E-07   # N_41
  4  2    -9.99999667E-01   # N_42
  4  3    -4.61367433E-04   # N_43
  4  4     6.72873104E-04   # N_44
#
BLOCK UMIX  # Chargino Mixing Matrix U
  1  1    -6.52471877E-04   # U_11
  1  2     9.99999787E-01   # U_12
  2  1     9.99999787E-01   # U_21
  2  2     6.52471877E-04   # U_22
#
BLOCK VMIX  # Chargino Mixing Matrix V
  1  1    -9.51586184E-04   # V_11
  1  2     9.99999547E-01   # V_12
  2  1     9.99999547E-01   # V_21
  2  2     9.51586184E-04   # V_22
#
BLOCK STOPMIX  # Stop Mixing Matrix
  1  1     9.99999999E-01   # cos(theta_t)
  1  2     4.47213589E-05   # sin(theta_t)
  2  1    -4.47213589E-05   # -sin(theta_t)
  2  2     9.99999999E-01   # cos(theta_t)
#
BLOCK SBOTMIX  # Sbottom Mixing Matrix
  1  1     6.93049485E-01   # cos(theta_b)
  1  2     7.20890013E-01   # sin(theta_b)
  2  1    -7.20890013E-01   # -sin(theta_b)
  2  2     6.93049485E-01   # cos(theta_b)
#
BLOCK STAUMIX  # Stau Mixing Matrix
  1  1     7.06218707E-01   # cos(theta_tau)
  1  2     7.07993741E-01   # sin(theta_tau)
  2  1    -7.07993741E-01   # -sin(theta_tau)
  2  2     7.06218707E-01   # cos(theta_tau)
#
BLOCK ALPHA  # Higgs mixing
          -5.90341823E-01   # Mixing angle in the neutral Higgs boson sector
#
BLOCK HMIX Q=  9.11876000E+01  # DRbar Higgs Parameters
         1     3.50000000E+03   # mu(Q)               
         2     1.49999982E+00   # tanbeta(Q)          
         3     2.54858418E+02   # vev(Q)              
         4    -6.80597381E+07   # MA^2(Q)             
#
BLOCK GAUGE Q=  9.11876000E+01  # The gauge couplings
     1     3.50560047E-01   # gprime(Q) DRbar
     2     6.19391932E-01   # g(Q) DRbar
     3     1.02218775E+00   # g3(Q) DRbar
#
BLOCK AU Q=  9.11876000E+01  # The trilinear couplings
  1  1     0.00000000E+00   # A_u(Q) DRbar
  2  2     0.00000000E+00   # A_c(Q) DRbar
  3  3     0.00000000E+00   # A_t(Q) DRbar
#
BLOCK AD Q=  9.11876000E+01  # The trilinear couplings
  1  1     0.00000000E+00   # A_d(Q) DRbar
  2  2     0.00000000E+00   # A_s(Q) DRbar
  3  3     0.00000000E+00   # A_b(Q) DRbar
#
BLOCK AE Q=  9.11876000E+01  # The trilinear couplings
  1  1     0.00000000E+00   # A_e(Q) DRbar
  2  2     0.00000000E+00   # A_mu(Q) DRbar
  3  3     0.00000000E+00   # A_tau(Q) DRbar
#
BLOCK Yu Q=  9.11876000E+01  # The Yukawa couplings
  1  1     0.00000000E+00   # y_u(Q) DRbar
  2  2     0.00000000E+00   # y_c(Q) DRbar
  3  3     9.83711751E-01   # y_t(Q) DRbar
#
BLOCK Yd Q=  9.11876000E+01  # The Yukawa couplings
  1  1     0.00000000E+00   # y_d(Q) DRbar
  2  2     0.00000000E+00   # y_s(Q) DRbar
  3  3     2.58791168E-02   # y_b(Q) DRbar
#
BLOCK Ye Q=  9.11876000E+01  # The Yukawa couplings
  1  1     0.00000000E+00   # y_e(Q) DRbar
  2  2     0.00000000E+00   # y_mu(Q) DRbar
  3  3     1.77411741E-02   # y_tau(Q) DRbar
#
BLOCK MSOFT Q=  9.11876000E+01  # The soft SUSY breaking masses at the scale Q
         1     5.00000000E+01   # M_1                 
         2     1.00000000E+05   # M_2                 
         3     1.00000000E+05   # M_3                 
        14     0.00000000E+00   # A_u                 
        15     0.00000000E+00   # A_d                 
        16     0.00000000E+00   # A_e                 
        21     6.30055054E+08   # M^2_Hd              
        22    -1.15126382E+09   # M^2_Hu              
        31     1.00000000E+05   # M_eL                
        32     1.00000000E+05   # M_muL               
        33     1.00000000E+05   # M_tauL              
        34     1.00000000E+05   # M_eR                
        35     1.00000000E+05   # M_muR               
        36     1.00000000E+05   # M_tauR              
        41     2.00000000E+03   # M_q1L               
        42     2.00000000E+03   # M_q2L               
        43     2.00000000E+03   # M_q3L               
        44     1.00000000E+05   # M_uR                
        45     1.00000000E+05   # M_cR                
        46     1.00000000E+05   # M_tR                
        47     2.00000000E+03   # M_dR                
        48     2.00000000E+03   # M_sR                
        49     2.00000000E+03   # M_bR                
#
#
#
#                             =================
#                             |The decay table|
#                             =================
#
# - The QCD corrections to the decays gluino -> squark  + quark
#                                     squark -> gaugino + quark_prime
#                                     squark -> squark_prime + Higgs
#                                     squark -> gluino  + quark
#   are included.
#
# - The multi-body decays for the inos, stops and sbottoms are included.
#
# - The loop induced decays for the gluino, neutralinos and stops
#   are included.
#
# - The SUSY decays of the top quark are included.
#
# - Possible decays of the NLSP in GMSB models are included.
#
#
#         PDG            Width
DECAY         6     1.32407772E+00   # top decays
#          BR         NDA      ID1       ID2
     1.00000000E+00    2           5        24   # BR(t ->  b    W+)
#
#         PDG            Width
DECAY   1000021     1.E-04   # gluino decays (OJ Mods)
#          BR         NDA      ID1       ID2
     3.58033539E-04    2     1000001        -1   # BR(~g -> ~d_L  db)
     3.58033539E-04    2    -1000001         1   # BR(~g -> ~d_L* d )
     3.58033615E-04    2     2000001        -1   # BR(~g -> ~d_R  db)
     3.58033615E-04    2    -2000001         1   # BR(~g -> ~d_R* d )
     3.58033710E-04    2     1000002        -2   # BR(~g -> ~u_L  ub)
     3.58033710E-04    2    -1000002         2   # BR(~g -> ~u_L* u )
     9.68897887E-19    2     2000002        -2   # BR(~g -> ~u_R  ub)
     9.68897887E-19    2    -2000002         2   # BR(~g -> ~u_R* u )
     3.58033539E-04    2     1000003        -3   # BR(~g -> ~s_L  sb)
     3.58033539E-04    2    -1000003         3   # BR(~g -> ~s_L* s )
     3.58033615E-04    2     2000003        -3   # BR(~g -> ~s_R  sb)
     3.58033615E-04    2    -2000003         3   # BR(~g -> ~s_R* s )
     3.58033710E-04    2     1000004        -4   # BR(~g -> ~c_L  cb)
     3.58033710E-04    2    -1000004         4   # BR(~g -> ~c_L* c )
     9.68897887E-19    2     2000004        -4   # BR(~g -> ~c_R  cb)
     9.68897887E-19    2    -2000004         4   # BR(~g -> ~c_R* c )
     2.46235625E-01    2     1000005        -5   # BR(~g -> ~b_1  bb)
     2.46235625E-01    2    -1000005         5   # BR(~g -> ~b_1* b )
     2.46234443E-01    2     2000005        -5   # BR(~g -> ~b_2  bb)
     2.46234443E-01    2    -2000005         5   # BR(~g -> ~b_2* b )
     3.52383815E-04    2     1000006        -6   # BR(~g -> ~t_1  tb)
     3.52383815E-04    2    -1000006         6   # BR(~g -> ~t_1* t )
     1.00586937E-02    2     1000039        21   # BR(~g -> ~G g)
#
#         PDG            Width
DECAY   1000006     3.18186296E-01   # stop1 decays
#          BR         NDA      ID1       ID2
     1.00000000E+00    2     1000022         6   # BR(~t_1 -> ~chi_10 t )
#
#         PDG            Width
DECAY   2000006     5.21341396E+05   # stop2 decays
#          BR         NDA      ID1       ID2
     3.99751810E-04    2     1000022         6   # BR(~t_2 -> ~chi_10 t )
     9.62674857E-04    2     1000023         6   # BR(~t_2 -> ~chi_20 t )
     9.62567252E-04    2     1000025         6   # BR(~t_2 -> ~chi_30 t )
     9.97707526E-01    2     1000024         5   # BR(~t_2 -> ~chi_1+ b )
    -2.59676857E-05    2     1000006        25   # BR(~t_2 -> ~t_1    h )
     2.72032232E-05    2     1000006        35   # BR(~t_2 -> ~t_1    H )
     2.71547997E-05    2     1000006        36   # BR(~t_2 -> ~t_1    A )
     2.55839134E-05    2     1000005        37   # BR(~t_2 -> ~b_1    H+)
     2.87248426E-05    2     2000005        37   # BR(~t_2 -> ~b_2    H+)
    -1.84495961E-05    2     1000006        23   # BR(~t_2 -> ~t_1    Z )
    -4.64809552E-05    2     1000005        24   # BR(~t_2 -> ~b_1    W+)
    -5.02882677E-05    2     2000005        24   # BR(~t_2 -> ~b_2    W+)
#
#         PDG            Width
DECAY   1000005     1.89920771E+02   # sbottom1 decays
#          BR         NDA      ID1       ID2
     1.00000000E+00    2     1000022         5   # BR(~b_1 -> ~chi_10 b )
#
#         PDG            Width
DECAY   2000005     1.79813261E+02   # sbottom2 decays
#          BR         NDA      ID1       ID2
     1.00000000E+00    2     1000022         5   # BR(~b_2 -> ~chi_10 b )
#
#         PDG            Width
DECAY   1000002     3.19928133E-01   # sup_L decays
#          BR         NDA      ID1       ID2
     1.00000000E+00    2     1000022         2   # BR(~u_L -> ~chi_10 u)
#
#         PDG            Width
DECAY   2000002     2.08390290E+02   # sup_R decays
#          BR         NDA      ID1       ID2
     9.99832948E-01    2     1000022         2   # BR(~u_R -> ~chi_10 u)
     6.08467857E-06    2     1000023         2   # BR(~u_R -> ~chi_20 u)
     1.60967542E-04    2     1000025         2   # BR(~u_R -> ~chi_30 u)
#
#         PDG            Width
DECAY   1000001     3.20083974E-01   # sdown_L decays
#          BR         NDA      ID1       ID2
     1.00000000E+00    2     1000022         1   # BR(~d_L -> ~chi_10 d)
#
#         PDG            Width
DECAY   2000001     1.28004380E+00   # sdown_R decays
#          BR         NDA      ID1       ID2
     1.00000000E+00    2     1000022         1   # BR(~d_R -> ~chi_10 d)
#
#         PDG            Width
DECAY   1000004     3.19928133E-01   # scharm_L decays
#          BR         NDA      ID1       ID2
     1.00000000E+00    2     1000022         4   # BR(~c_L -> ~chi_10 c)
#
#         PDG            Width
DECAY   2000004     2.08390290E+02   # scharm_R decays
#          BR         NDA      ID1       ID2
     9.99832948E-01    2     1000022         4   # BR(~c_R -> ~chi_10 c)
     6.08467857E-06    2     1000023         4   # BR(~c_R -> ~chi_20 c)
     1.60967542E-04    2     1000025         4   # BR(~c_R -> ~chi_30 c)
#
#         PDG            Width
DECAY   1000003     3.20083974E-01   # sstrange_L decays
#          BR         NDA      ID1       ID2
     1.00000000E+00    2     1000022         3   # BR(~s_L -> ~chi_10 s)
#
#         PDG            Width
DECAY   2000003     1.28004380E+00   # sstrange_R decays
#          BR         NDA      ID1       ID2
     1.00000000E+00    2     1000022         3   # BR(~s_R -> ~chi_10 s)
#
#         PDG            Width
DECAY   1000011     1.22243897E+02   # selectron_L decays
#          BR         NDA      ID1       ID2
     9.99793872E-01    2     1000022        11   # BR(~e_L -> ~chi_10 e-)
     4.84461318E-06    2     1000023        11   # BR(~e_L -> ~chi_20 e-)
     1.98631752E-04    2     1000025        11   # BR(~e_L -> ~chi_30 e-)
     2.65150848E-06    2    -1000024        12   # BR(~e_L -> ~chi_1- nu_e)
#
#         PDG            Width
DECAY   2000011     4.88972691E+02   # selectron_R decays
#          BR         NDA      ID1       ID2
     9.99833180E-01    2     1000022        11   # BR(~e_R -> ~chi_10 e-)
     6.07622539E-06    2     1000023        11   # BR(~e_R -> ~chi_20 e-)
     1.60743878E-04    2     1000025        11   # BR(~e_R -> ~chi_30 e-)
#
#         PDG            Width
DECAY   1000013     1.22243897E+02   # smuon_L decays
#          BR         NDA      ID1       ID2
     9.99793872E-01    2     1000022        13   # BR(~mu_L -> ~chi_10 mu-)
     4.84461318E-06    2     1000023        13   # BR(~mu_L -> ~chi_20 mu-)
     1.98631752E-04    2     1000025        13   # BR(~mu_L -> ~chi_30 mu-)
     2.65150848E-06    2    -1000024        14   # BR(~mu_L -> ~chi_1- nu_mu)
#
#         PDG            Width
DECAY   2000013     4.88972691E+02   # smuon_R decays
#          BR         NDA      ID1       ID2
     9.99833180E-01    2     1000022        13   # BR(~mu_R -> ~chi_10 mu-)
     6.07622539E-06    2     1000023        13   # BR(~mu_R -> ~chi_20 mu-)
     1.60743878E-04    2     1000025        13   # BR(~mu_R -> ~chi_30 mu-)
#
#         PDG            Width
DECAY   1000015     1.18199476E+04   # stau_1 decays
#          BR         NDA      ID1       ID2
     2.58976496E-02    2     1000022        15   # BR(~tau_1 -> ~chi_10  tau-)
     2.51465615E-05    2     1000023        15   # BR(~tau_1 -> ~chi_20  tau-)
     2.48885350E-05    2     1000025        15   # BR(~tau_1 -> ~chi_30  tau-)
     2.77069489E-05    2    -1000024        16   # BR(~tau_1 -> ~chi_1-  nu_tau)
     9.74024608E-01    2     1000039        15   # BR(~tau_1 -> ~G       tau-)
#
#         PDG            Width
DECAY   2000015     3.06062742E+02   # stau_2 decays
#          BR         NDA      ID1       ID2
     9.96531303E-01    2     1000022        15   # BR(~tau_2 -> ~chi_10  tau-)
     1.08130660E-03    2     1000023        15   # BR(~tau_2 -> ~chi_20  tau-)
     1.41546605E-03    2     1000025        15   # BR(~tau_2 -> ~chi_30  tau-)
     9.71924289E-04    2    -1000024        16   # BR(~tau_2 -> ~chi_1-  nu_tau)
#
#         PDG            Width
DECAY   1000012     1.22243954E+02   # snu_eL decays
#          BR         NDA      ID1       ID2
     9.99860053E-01    2     1000022        12   # BR(~nu_eL -> ~chi_10 nu_e)
     7.44709469E-06    2     1000023        12   # BR(~nu_eL -> ~chi_20 nu_e)
     1.26859802E-04    2     1000025        12   # BR(~nu_eL -> ~chi_30 nu_e)
     5.63982241E-06    2     1000024        11   # BR(~nu_eL -> ~chi_1+ e-)
#
#         PDG            Width
DECAY   1000014     1.22243954E+02   # snu_muL decays
#          BR         NDA      ID1       ID2
     9.99860053E-01    2     1000022        14   # BR(~nu_muL -> ~chi_10 nu_mu)
     7.44709469E-06    2     1000023        14   # BR(~nu_muL -> ~chi_20 nu_mu)
     1.26859802E-04    2     1000025        14   # BR(~nu_muL -> ~chi_30 nu_mu)
     5.63982241E-06    2     1000024        13   # BR(~nu_muL -> ~chi_1+ mu-)
#
#         PDG            Width
DECAY   1000016     1.22868594E+02   # snu_tauL decays
#          BR         NDA      ID1       ID2
     9.94776957E-01    2     1000022        16   # BR(~nu_tauL -> ~chi_10 nu_tau)
     7.40923510E-06    2     1000023        16   # BR(~nu_tauL -> ~chi_20 nu_tau)
     1.26214871E-04    2     1000025        16   # BR(~nu_tauL -> ~chi_30 nu_tau)
     5.08941842E-03    2     1000024        15   # BR(~nu_tauL -> ~chi_1+ tau-)
#
#         PDG            Width
DECAY   1000024     5.12654395E+01   # chargino1+ decays
#          BR         NDA      ID1       ID2
     3.87291836E-07    2     1000002        -1   # BR(~chi_1+ -> ~u_L     db)
     1.81981559E-07    2    -1000001         2   # BR(~chi_1+ -> ~d_L*    u )
     3.87291836E-07    2     1000004        -3   # BR(~chi_1+ -> ~c_L     sb)
     1.81981559E-07    2    -1000003         4   # BR(~chi_1+ -> ~s_L*    c )
     1.67953129E-01    2     1000006        -5   # BR(~chi_1+ -> ~t_1     bb)
     8.48160533E-02    2    -1000005         6   # BR(~chi_1+ -> ~b_1*    t )
     6.88398377E-01    2    -2000005         6   # BR(~chi_1+ -> ~b_2*    t )
     4.10663828E-02    2     1000022        24   # BR(~chi_1+ -> ~chi_10  W+)
     1.77578756E-02    2     1000022        37   # BR(~chi_1+ -> ~chi_10  H+)
     5.88502573E-06    2     1000039        24   # BR(~chi_1+ -> ~G       W+)
     1.15793626E-06    2     1000039        37   # BR(~chi_1+ -> ~G       H+)
#
#         PDG            Width
DECAY   1000037     3.17695509E+05   # chargino2+ decays
#          BR         NDA      ID1       ID2
     3.33430367E-03    2     1000002        -1   # BR(~chi_2+ -> ~u_L     db)
     3.33430453E-03    2    -1000001         2   # BR(~chi_2+ -> ~d_L*    u )
     3.33430367E-03    2     1000004        -3   # BR(~chi_2+ -> ~c_L     sb)
     3.33430453E-03    2    -1000003         4   # BR(~chi_2+ -> ~s_L*    c )
     9.43220600E-01    2     1000006        -5   # BR(~chi_2+ -> ~t_1     bb)
     7.36773634E-04    2    -1000005         6   # BR(~chi_2+ -> ~b_1*    t )
     3.15565905E-03    2    -2000005         6   # BR(~chi_2+ -> ~b_2*    t )
     2.39704969E-15    2     1000012       -11   # BR(~chi_2+ -> ~nu_eL   e+  )
     2.39704969E-15    2     1000014       -13   # BR(~chi_2+ -> ~nu_muL  mu+ )
     1.66925243E-15    2    -1000011        12   # BR(~chi_2+ -> ~e_L+    nu_e)
     1.66925243E-15    2    -1000013        14   # BR(~chi_2+ -> ~mu_L+   nu_mu)
     2.62782164E-15    2    -1000015        16   # BR(~chi_2+ -> ~tau_1+  nu_tau)
     3.92809021E-17    2    -2000015        16   # BR(~chi_2+ -> ~tau_2+  nu_tau)
     6.10343650E-04    2     1000024        23   # BR(~chi_2+ -> ~chi_1+  Z )
     7.36364555E-08    2     1000022        24   # BR(~chi_2+ -> ~chi_10  W+)
     5.91912606E-04    2     1000023        24   # BR(~chi_2+ -> ~chi_20  W+)
     5.91832734E-04    2     1000025        24   # BR(~chi_2+ -> ~chi_30  W+)
     6.17075824E-04    2     1000024        25   # BR(~chi_2+ -> ~chi_1+  h )
     5.41673733E-04    2     1000024        35   # BR(~chi_2+ -> ~chi_1+  H )
     5.41746802E-04    2     1000024        36   # BR(~chi_2+ -> ~chi_1+  A )
     1.04382640E-07    2     1000022        37   # BR(~chi_2+ -> ~chi_10  H+)
     5.41725553E-04    2     1000023        37   # BR(~chi_2+ -> ~chi_20  H+)
     5.41643706E-04    2     1000025        37   # BR(~chi_2+ -> ~chi_30  H+)
     3.49716079E-02    2     1000039        24   # BR(~chi_2+ -> ~G       W+)
     1.00090889E-08    2     1000039        37   # BR(~chi_2+ -> ~G       H+)
#
#         PDG            Width
DECAY   1000022     1.E-08   # neutralino1 decays (OJ Mods)
#          BR         NDA      ID1       ID2
     1.00000000E+00    2     1000039        22   # BR(~chi_10 -> ~G        gam)
#
#         PDG            Width
DECAY   1000023     1.E-08   # neutralino2 decays (OJ Mods)
#          BR         NDA      ID1       ID2
     3.49229818E-02    2     1000022        23   # BR(~chi_20 -> ~chi_10   Z )
     1.30086254E-03    2     1000022        25   # BR(~chi_20 -> ~chi_10   h )
     1.48691417E-02    2     1000022        35   # BR(~chi_20 -> ~chi_10   H )
     6.48547025E-04    2     1000022        36   # BR(~chi_20 -> ~chi_10   A )
     2.14079528E-08    2     1000002        -2   # BR(~chi_20 -> ~u_L      ub)
     2.14079528E-08    2    -1000002         2   # BR(~chi_20 -> ~u_L*     u )
     8.10702543E-08    2     1000001        -1   # BR(~chi_20 -> ~d_L      db)
     8.10702543E-08    2    -1000001         1   # BR(~chi_20 -> ~d_L*     d )
     1.85808507E-07    2     2000001        -1   # BR(~chi_20 -> ~d_R      db)
     1.85808507E-07    2    -2000001         1   # BR(~chi_20 -> ~d_R*     d )
     2.14079528E-08    2     1000004        -4   # BR(~chi_20 -> ~c_L      cb)
     2.14079528E-08    2    -1000004         4   # BR(~chi_20 -> ~c_L*     c )
     8.10702543E-08    2     1000003        -3   # BR(~chi_20 -> ~s_L      sb)
     8.10702543E-08    2    -1000003         3   # BR(~chi_20 -> ~s_L*     s )
     1.85808507E-07    2     2000003        -3   # BR(~chi_20 -> ~s_R      sb)
     1.85808507E-07    2    -2000003         3   # BR(~chi_20 -> ~s_R*     s )
     3.30095813E-01    2     1000006        -6   # BR(~chi_20 -> ~t_1      tb)
     3.30095813E-01    2    -1000006         6   # BR(~chi_20 -> ~t_1*     t )
     6.92825721E-02    2     1000005        -5   # BR(~chi_20 -> ~b_1      bb)
     6.92825721E-02    2    -1000005         5   # BR(~chi_20 -> ~b_1*     b )
     7.47473243E-02    2     2000005        -5   # BR(~chi_20 -> ~b_2      bb)
     7.47473243E-02    2    -2000005         5   # BR(~chi_20 -> ~b_2*     b )
     4.34327055E-11    2     1000039        22   # BR(~chi_20 -> ~G        gam)
     1.93662229E-07    2     1000039        23   # BR(~chi_20 -> ~G        Z)
     4.83324970E-06    2     1000039        25   # BR(~chi_20 -> ~G        h)
     3.86965625E-08    2     1000039        35   # BR(~chi_20 -> ~G        H)
     9.98457489E-07    2     1000039        36   # BR(~chi_20 -> ~G        A)
#
#         PDG            Width
DECAY   1000025     6.00463677E+01   # neutralino3 decays
#          BR         NDA      ID1       ID2
     1.31720123E-03    2     1000022        23   # BR(~chi_30 -> ~chi_10   Z )
     3.51534594E-02    2     1000022        25   # BR(~chi_30 -> ~chi_10   h )
     6.29506835E-04    2     1000022        35   # BR(~chi_30 -> ~chi_10   H )
     1.48785598E-02    2     1000022        36   # BR(~chi_30 -> ~chi_10   A )
     2.18578541E-06    2     1000002        -2   # BR(~chi_30 -> ~u_L      ub)
     2.18578541E-06    2    -1000002         2   # BR(~chi_30 -> ~u_L*     u )
     5.42379303E-07    2     1000001        -1   # BR(~chi_30 -> ~d_L      db)
     5.42379303E-07    2    -1000001         1   # BR(~chi_30 -> ~d_L*     d )
     4.90523140E-06    2     2000001        -1   # BR(~chi_30 -> ~d_R      db)
     4.90523140E-06    2    -2000001         1   # BR(~chi_30 -> ~d_R*     d )
     2.18578541E-06    2     1000004        -4   # BR(~chi_30 -> ~c_L      cb)
     2.18578541E-06    2    -1000004         4   # BR(~chi_30 -> ~c_L*     c )
     5.42379303E-07    2     1000003        -3   # BR(~chi_30 -> ~s_L      sb)
     5.42379303E-07    2    -1000003         3   # BR(~chi_30 -> ~s_L*     s )
     4.90523140E-06    2     2000003        -3   # BR(~chi_30 -> ~s_R      sb)
     4.90523140E-06    2    -2000003         3   # BR(~chi_30 -> ~s_R*     s )
     3.29446316E-01    2     1000006        -6   # BR(~chi_30 -> ~t_1      tb)
     3.29446316E-01    2    -1000006         6   # BR(~chi_30 -> ~t_1*     t )
     6.18330754E-02    2     1000005        -5   # BR(~chi_30 -> ~b_1      bb)
     6.18330754E-02    2    -1000005         5   # BR(~chi_30 -> ~b_1*     b )
     8.27151816E-02    2     2000005        -5   # BR(~chi_30 -> ~b_2      bb)
     8.27151816E-02    2    -2000005         5   # BR(~chi_30 -> ~b_2*     b )
     1.31940045E-09    2     1000039        22   # BR(~chi_30 -> ~G        gam)
     4.83126925E-06    2     1000039        23   # BR(~chi_30 -> ~G        Z)
     1.88319038E-07    2     1000039        25   # BR(~chi_30 -> ~G        h)
     9.90144366E-07    2     1000039        35   # BR(~chi_30 -> ~G        H)
     3.98765640E-08    2     1000039        36   # BR(~chi_30 -> ~G        A)
#
#         PDG            Width
DECAY   1000035     3.17696865E+05   # neutralino4 decays
#          BR         NDA      ID1       ID2
     6.03258303E-12    2     1000022        23   # BR(~chi_40 -> ~chi_10   Z )
     5.89832009E-04    2     1000023        23   # BR(~chi_40 -> ~chi_20   Z )
     2.05095969E-05    2     1000025        23   # BR(~chi_40 -> ~chi_30   Z )
     5.91906520E-04    2     1000024       -24   # BR(~chi_40 -> ~chi_1+   W-)
     5.91906520E-04    2    -1000024        24   # BR(~chi_40 -> ~chi_1-   W+)
     7.69046227E-08    2     1000022        25   # BR(~chi_40 -> ~chi_10   h )
     1.37866199E-08    2     1000022        35   # BR(~chi_40 -> ~chi_10   H )
     9.04447362E-08    2     1000022        36   # BR(~chi_40 -> ~chi_10   A )
     2.02544962E-05    2     1000023        25   # BR(~chi_40 -> ~chi_20   h )
     5.18385984E-04    2     1000023        35   # BR(~chi_40 -> ~chi_20   H )
     2.38284210E-05    2     1000023        36   # BR(~chi_40 -> ~chi_20   A )
     5.96742511E-04    2     1000025        25   # BR(~chi_40 -> ~chi_30   h )
     2.32710631E-05    2     1000025        35   # BR(~chi_40 -> ~chi_30   H )
     5.17825694E-04    2     1000025        36   # BR(~chi_40 -> ~chi_30   A )
     5.41734928E-04    2     1000024       -37   # BR(~chi_40 -> ~chi_1+   H-)
     5.41734928E-04    2    -1000024        37   # BR(~chi_40 -> ~chi_1-   H+)
     1.59688061E-03    2     1000002        -2   # BR(~chi_40 -> ~u_L      ub)
     1.59688061E-03    2    -1000002         2   # BR(~chi_40 -> ~u_L*     u )
     2.47503961E-23    2     2000002        -2   # BR(~chi_40 -> ~u_R      ub)
     2.47503961E-23    2    -2000002         2   # BR(~chi_40 -> ~u_R*     u )
     1.59688113E-03    2     1000001        -1   # BR(~chi_40 -> ~d_L      db)
     1.59688113E-03    2    -1000001         1   # BR(~chi_40 -> ~d_L*     d )
     3.02226057E-17    2     2000001        -1   # BR(~chi_40 -> ~d_R      db)
     3.02226057E-17    2    -2000001         1   # BR(~chi_40 -> ~d_R*     d )
     1.59688061E-03    2     1000004        -4   # BR(~chi_40 -> ~c_L      cb)
     1.59688061E-03    2    -1000004         4   # BR(~chi_40 -> ~c_L*     c )
     2.47503961E-23    2     2000004        -4   # BR(~chi_40 -> ~c_R      cb)
     2.47503961E-23    2    -2000004         4   # BR(~chi_40 -> ~c_R*     c )
     1.59688113E-03    2     1000003        -3   # BR(~chi_40 -> ~s_L      sb)
     1.59688113E-03    2    -1000003         3   # BR(~chi_40 -> ~s_L*     s )
     3.02226057E-17    2     2000003        -3   # BR(~chi_40 -> ~s_R      sb)
     3.02226057E-17    2    -2000003         3   # BR(~chi_40 -> ~s_R*     s )
     1.94620748E-03    2     1000006        -6   # BR(~chi_40 -> ~t_1      tb)
     1.94620748E-03    2    -1000006         6   # BR(~chi_40 -> ~t_1*     t )
     2.25944206E-01    2     1000005        -5   # BR(~chi_40 -> ~b_1      bb)
     2.25944206E-01    2    -1000005         5   # BR(~chi_40 -> ~b_1*     b )
     2.45666213E-01    2     2000005        -5   # BR(~chi_40 -> ~b_2      bb)
     2.45666213E-01    2    -2000005         5   # BR(~chi_40 -> ~b_2*     b )
     8.34622232E-16    2     1000011       -11   # BR(~chi_40 -> ~e_L-     e+)
     8.34622232E-16    2    -1000011        11   # BR(~chi_40 -> ~e_L+     e-)
     1.42164782E-28    2     2000011       -11   # BR(~chi_40 -> ~e_R-     e+)
     1.42164782E-28    2    -2000011        11   # BR(~chi_40 -> ~e_R+     e-)
     8.34622232E-16    2     1000013       -13   # BR(~chi_40 -> ~mu_L-    mu+)
     8.34622232E-16    2    -1000013        13   # BR(~chi_40 -> ~mu_L+    mu-)
     1.42164782E-28    2     2000013       -13   # BR(~chi_40 -> ~mu_R-    mu+)
     1.42164782E-28    2    -2000013        13   # BR(~chi_40 -> ~mu_R+    mu-)
     1.19852069E-15    2     1000012       -12   # BR(~chi_40 -> ~nu_eL    nu_eb)
     1.19852069E-15    2    -1000012        12   # BR(~chi_40 -> ~nu_eL*   nu_e )
     1.19852069E-15    2     1000014       -14   # BR(~chi_40 -> ~nu_muL   nu_mub)
     1.19852069E-15    2    -1000014        14   # BR(~chi_40 -> ~nu_muL*  nu_mu )
     1.19852069E-15    2     1000016       -16   # BR(~chi_40 -> ~nu_tau1  nu_taub)
     1.19852069E-15    2    -1000016        16   # BR(~chi_40 -> ~nu_tau1* nu_tau )
     8.48450217E-03    2     1000039        22   # BR(~chi_40 -> ~G        gam)
     2.64869591E-02    2     1000039        23   # BR(~chi_40 -> ~G        Z)
     1.59657759E-09    2     1000039        25   # BR(~chi_40 -> ~G        h)
     1.00261417E-08    2     1000039        35   # BR(~chi_40 -> ~G        H)
     1.97565748E-12    2     1000039        36   # BR(~chi_40 -> ~G        A)
#
#
#
#
