#
#                              ======================
#                              | THE SUSYHIT OUTPUT |
#                              ======================
#
#
#              ------------------------------------------------------
#              |     This is the output of the SUSY-HIT package     |
#              |  created by A.Djouadi, M.Muehlleitner and M.Spira. |
#              |  In case of problems with SUSY-HIT email to        |
#              |           margarete.muehlleitner@cern.ch           |
#              |           michael.spira@psi.ch                     |
#              |           abdelhak.djouadi@cern.ch                 |
#              ------------------------------------------------------
#
#              ------------------------------------------------------
#              |  SUSY Les Houches Accord - MSSM Spectrum + Decays  |
#              |              based on the decay programs           |
#              |                                                    |
#              |                     SDECAY 1.3b                    |
#              |                                                    |
#              |  Authors: M.Muhlleitner, A.Djouadi and Y.Mambrini  |
#              |  Ref.:    Comput.Phys.Commun.168(2005)46           |
#              |           [hep-ph/0311167]                         |
#              |                                                    |
#              |                     HDECAY 3.4                     |
#              |                                                    |
#              |  By: A.Djouadi,J.Kalinowski,M.Muhlleitner,M.Spira  |
#              |  Ref.:    Comput.Phys.Commun.108(1998)56           |
#              |           [hep-ph/9704448]                         |
#              |                                                    |
#              |                                                    |
#              |  If not stated otherwise all DRbar couplings and   |
#              |  soft SUSY breaking masses are given at the scale  |
#              |  Q=  0.91187600E+02
#              |                                                    |
#              ------------------------------------------------------
#
#
BLOCK DCINFO  # Decay Program information
     1   SDECAY/HDECAY # decay calculator
     2   1.3b  /3.4    # version number
#
BLOCK SPINFO  # Spectrum calculator information
     1   SuSpect     # RGE +Spectrum calculator            
     2   2.41         # version number                     
#
BLOCK MODSEL  # Model selection
     1     0   # #general MSSM low scale                           
#
BLOCK SMINPUTS  # Standard Model inputs
         1     1.27934000E+02   # alpha_em^-1(M_Z)^MSbar
         2     1.16639000E-05   # G_F [GeV^-2]
         3     1.17200000E-01   # alpha_S(M_Z)^MSbar
         4     9.11870000E+01   # M_Z pole mass
         5     4.25000000E+00   # mb(mb)^MSbar
         6     1.72500000E+02   # mt pole mass
         7     1.77700000E+00   # mtau pole mass
#
BLOCK MINPAR  # Input parameters - minimal models
#
BLOCK EXTPAR  # Input parameters - non-minimal models
         0     9.11876000E+01   # EWSB                
         1     3.00000000E+02   # M_1                 
         2     1.00000000E+05   # M_2                 
         3     1.00000000E+05   # M_3                 
        11     0.00000000E+00   # A_t                 
        12     0.00000000E+00   # A_b                 
        13     0.00000000E+00   # A_tau               
        14     0.00000000E+00   # A_u                 
        15     0.00000000E+00   # A_d                 
        16     0.00000000E+00   # A_e                 
        23     3.50000000E+03   # mu(EWSB)            
        25     1.50000000E+00   # tanbeta(in)         
        26     2.00000000E+03   # MA_pole             
        31     1.00000000E+05   # M_eL                
        32     1.00000000E+05   # M_muL               
        33     1.00000000E+05   # M_tauL              
        34     1.00000000E+05   # M_eR                
        35     1.00000000E+05   # M_muR               
        36     1.00000000E+05   # M_tauR              
        41     1.90000000E+03   # M_q1L               
        42     1.90000000E+03   # M_q2L               
        43     1.90000000E+03   # M_q3L               
        44     1.00000000E+05   # M_uR                
        45     1.00000000E+05   # M_cR                
        46     1.00000000E+05   # M_tR                
        47     1.90000000E+03   # M_dR                
        48     1.90000000E+03   # M_sR                
        49     1.90000000E+03   # M_bR                
#
BLOCK MASS  # Mass Spectrum
# PDG code           mass       particle
        24     8.05841425E+01   # W+
        25     1.25000000E+02   # h
        35     2.00404800E+03   # H
        36     2.00000000E+03   # A
        37     2.02369078E+03   # H+
         5     4.87877839E+00   # b-quark pole mass calculated from mb(mb)_Msbar
   1000001     1.90034904E+03   # ~d_L
   2000001     1.90006733E+03   # ~d_R
   1000002     1.89971824E+03   # ~u_L
   2000002     9.99999974E+04   # ~u_R
   1000003     1.90034904E+03   # ~s_L
   2000003     1.90006733E+03   # ~s_R
   1000004     1.89971824E+03   # ~c_L
   2000004     9.99999974E+04   # ~c_R
   1000005     1.89663077E+03   # ~b_1
   2000005     1.90378240E+03   # ~b_2
   1000006     1.90543304E+03   # ~t_1
   2000006     1.00000106E+05   # ~t_2
   1000011     1.00000004E+05   # ~e_L
   2000011     1.00000004E+05   # ~e_R
   1000012     9.99999921E+04   # ~nu_eL
   1000013     1.00000004E+05   # ~mu_L
   2000013     1.00000004E+05   # ~mu_R
   1000014     9.99999921E+04   # ~nu_muL
   1000015     9.99999574E+04   # ~tau_1
   2000015     1.00000051E+05   # ~tau_2
   1000016     9.99999921E+04   # ~nu_tauL
   1000021     1.00000000E+05   # ~g
   1000022     2.99420637E+02   # ~chi_10
   1000023    -3.50002252E+03   # ~chi_20
   1000025     3.50053746E+03   # ~chi_30
   1000035     1.00000064E+05   # ~chi_40
   1000024     3.49994022E+03   # ~chi_1+
   1000037     1.00000064E+05   # ~chi_2+
   1000039     1.00000000E-09   # ~gravitino
#
BLOCK NMIX  # Neutralino Mixing Matrix
  1  1     9.99903688E-01   # N_11
  1  2    -1.02681636E-05   # N_12
  1  3     1.13076253E-02   # N_13
  1  4    -8.04683844E-03   # N_14
  2  1     2.30571759E-03   # N_21
  2  2    -1.49600648E-04   # N_22
  2  3    -7.07093521E-01   # N_23
  2  4    -7.07116266E-01   # N_24
  3  1     1.36856760E-02   # N_31
  3  2     8.02132126E-04   # N_32
  3  3    -7.07029474E-01   # N_33
  3  4     7.07051187E-01   # N_34
  4  1     3.65609930E-07   # N_41
  4  2    -9.99999667E-01   # N_42
  4  3    -4.61465668E-04   # N_43
  4  4     6.73016373E-04   # N_44
#
BLOCK UMIX  # Chargino Mixing Matrix U
  1  1    -6.52610801E-04   # U_11
  1  2     9.99999787E-01   # U_12
  2  1     9.99999787E-01   # U_21
  2  2     6.52610801E-04   # U_22
#
BLOCK VMIX  # Chargino Mixing Matrix V
  1  1    -9.51788796E-04   # V_11
  1  2     9.99999547E-01   # V_12
  2  1     9.99999547E-01   # V_21
  2  2     9.51788796E-04   # V_22
#
BLOCK STOPMIX  # Stop Mixing Matrix
  1  1     9.99999999E-01   # cos(theta_t)
  1  2     4.47213589E-05   # sin(theta_t)
  2  1    -4.47213589E-05   # -sin(theta_t)
  2  2     9.99999999E-01   # cos(theta_t)
#
BLOCK SBOTMIX  # Sbottom Mixing Matrix
  1  1     6.93040148E-01   # cos(theta_b)
  1  2     7.20898990E-01   # sin(theta_b)
  2  1    -7.20898990E-01   # -sin(theta_b)
  2  2     6.93040148E-01   # cos(theta_b)
#
BLOCK STAUMIX  # Stau Mixing Matrix
  1  1     7.06210408E-01   # cos(theta_tau)
  1  2     7.08002020E-01   # sin(theta_tau)
  2  1    -7.08002020E-01   # -sin(theta_tau)
  2  2     7.06210408E-01   # cos(theta_tau)
#
BLOCK ALPHA  # Higgs mixing
          -5.90333185E-01   # Mixing angle in the neutral Higgs boson sector
#
BLOCK HMIX Q=  9.11876000E+01  # DRbar Higgs Parameters
         1     3.50000000E+03   # mu(Q)               
         2     1.49999982E+00   # tanbeta(Q)          
         3     2.54862438E+02   # vev(Q)              
         4    -6.80973224E+07   # MA^2(Q)             
#
BLOCK GAUGE Q=  9.11876000E+01  # The gauge couplings
     1     3.50565803E-01   # gprime(Q) DRbar
     2     6.19514085E-01   # g(Q) DRbar
     3     1.02270739E+00   # g3(Q) DRbar
#
BLOCK AU Q=  9.11876000E+01  # The trilinear couplings
  1  1     0.00000000E+00   # A_u(Q) DRbar
  2  2     0.00000000E+00   # A_c(Q) DRbar
  3  3     0.00000000E+00   # A_t(Q) DRbar
#
BLOCK AD Q=  9.11876000E+01  # The trilinear couplings
  1  1     0.00000000E+00   # A_d(Q) DRbar
  2  2     0.00000000E+00   # A_s(Q) DRbar
  3  3     0.00000000E+00   # A_b(Q) DRbar
#
BLOCK AE Q=  9.11876000E+01  # The trilinear couplings
  1  1     0.00000000E+00   # A_e(Q) DRbar
  2  2     0.00000000E+00   # A_mu(Q) DRbar
  3  3     0.00000000E+00   # A_tau(Q) DRbar
#
BLOCK Yu Q=  9.11876000E+01  # The Yukawa couplings
  1  1     0.00000000E+00   # y_u(Q) DRbar
  2  2     0.00000000E+00   # y_c(Q) DRbar
  3  3     9.83704057E-01   # y_t(Q) DRbar
#
BLOCK Yd Q=  9.11876000E+01  # The Yukawa couplings
  1  1     0.00000000E+00   # y_d(Q) DRbar
  2  2     0.00000000E+00   # y_s(Q) DRbar
  3  3     2.58738111E-02   # y_b(Q) DRbar
#
BLOCK Ye Q=  9.11876000E+01  # The Yukawa couplings
  1  1     0.00000000E+00   # y_e(Q) DRbar
  2  2     0.00000000E+00   # y_mu(Q) DRbar
  3  3     1.77407830E-02   # y_tau(Q) DRbar
#
BLOCK MSOFT Q=  9.11876000E+01  # The soft SUSY breaking masses at the scale Q
         1     3.00000000E+02   # M_1                 
         2     1.00000000E+05   # M_2                 
         3     1.00000000E+05   # M_3                 
        14     0.00000000E+00   # A_u                 
        15     0.00000000E+00   # A_d                 
        16     0.00000000E+00   # A_e                 
        21     6.30405773E+08   # M^2_Hd              
        22    -1.15080066E+09   # M^2_Hu              
        31     1.00000000E+05   # M_eL                
        32     1.00000000E+05   # M_muL               
        33     1.00000000E+05   # M_tauL              
        34     1.00000000E+05   # M_eR                
        35     1.00000000E+05   # M_muR               
        36     1.00000000E+05   # M_tauR              
        41     1.90000000E+03   # M_q1L               
        42     1.90000000E+03   # M_q2L               
        43     1.90000000E+03   # M_q3L               
        44     1.00000000E+05   # M_uR                
        45     1.00000000E+05   # M_cR                
        46     1.00000000E+05   # M_tR                
        47     1.90000000E+03   # M_dR                
        48     1.90000000E+03   # M_sR                
        49     1.90000000E+03   # M_bR                
#
#
#
#                             =================
#                             |The decay table|
#                             =================
#
# - The QCD corrections to the decays gluino -> squark  + quark
#                                     squark -> gaugino + quark_prime
#                                     squark -> squark_prime + Higgs
#                                     squark -> gluino  + quark
#   are included.
#
# - The multi-body decays for the inos, stops and sbottoms are included.
#
# - The loop induced decays for the gluino, neutralinos and stops
#   are included.
#
# - The SUSY decays of the top quark are included.
#
# - Possible decays of the NLSP in GMSB models are included.
#
#
#         PDG            Width
DECAY         6     1.32461760E+00   # top decays
#          BR         NDA      ID1       ID2
     1.00000000E+00    2           5        24   # BR(t ->  b    W+)
#
#         PDG            Width
DECAY   1000021     1.E-04   # gluino decays (OJ Mods)
#          BR         NDA      ID1       ID2
    -3.82675012E-04    2     1000001        -1   # BR(~g -> ~d_L  db)
    -3.82675012E-04    2    -1000001         1   # BR(~g -> ~d_L* d )
    -3.82675094E-04    2     2000001        -1   # BR(~g -> ~d_R  db)
    -3.82675094E-04    2    -2000001         1   # BR(~g -> ~d_R* d )
    -3.82675195E-04    2     1000002        -2   # BR(~g -> ~u_L  ub)
    -3.82675195E-04    2    -1000002         2   # BR(~g -> ~u_L* u )
    -1.03550098E-18    2     2000002        -2   # BR(~g -> ~u_R  ub)
    -1.03550098E-18    2    -2000002         2   # BR(~g -> ~u_R* u )
    -3.82675012E-04    2     1000003        -3   # BR(~g -> ~s_L  sb)
    -3.82675012E-04    2    -1000003         3   # BR(~g -> ~s_L* s )
    -3.82675094E-04    2     2000003        -3   # BR(~g -> ~s_R  sb)
    -3.82675094E-04    2    -2000003         3   # BR(~g -> ~s_R* s )
    -3.82675195E-04    2     1000004        -4   # BR(~g -> ~c_L  cb)
    -3.82675195E-04    2    -1000004         4   # BR(~g -> ~c_L* c )
    -1.03550098E-18    2     2000004        -4   # BR(~g -> ~c_R  cb)
    -1.03550098E-18    2    -2000004         4   # BR(~g -> ~c_R* c )
     2.53652570E-01    2     1000005        -5   # BR(~g -> ~b_1  bb)
     2.53652570E-01    2    -1000005         5   # BR(~g -> ~b_1* b )
     2.54392814E-01    2     2000005        -5   # BR(~g -> ~b_2  bb)
     2.54392814E-01    2    -2000005         5   # BR(~g -> ~b_2* b )
    -3.76630358E-04    2     1000006        -6   # BR(~g -> ~t_1  tb)
    -3.76630358E-04    2    -1000006         6   # BR(~g -> ~t_1* t )
    -1.07454057E-02    2     1000039        21   # BR(~g -> ~G g)
#
#         PDG            Width
DECAY   1000006     2.89266182E-01   # stop1 decays
#          BR         NDA      ID1       ID2
     1.00000000E+00    2     1000022         6   # BR(~t_1 -> ~chi_10 t )
#
#         PDG            Width
DECAY   2000006    -5.18669385E+05   # stop2 decays
#          BR         NDA      ID1       ID2
    -4.01907479E-04    2     1000022         6   # BR(~t_2 -> ~chi_10 t )
    -9.66767276E-04    2     1000023         6   # BR(~t_2 -> ~chi_20 t )
    -9.66647633E-04    2     1000025         6   # BR(~t_2 -> ~chi_30 t )
     1.00230253E+00    2     1000024         5   # BR(~t_2 -> ~chi_1+ b )
     2.61291803E-05    2     1000006        25   # BR(~t_2 -> ~t_1    h )
    -2.73700540E-05    2     1000006        35   # BR(~t_2 -> ~t_1    H )
    -2.73215033E-05    2     1000006        36   # BR(~t_2 -> ~t_1    A )
    -2.57399871E-05    2     1000005        37   # BR(~t_2 -> ~b_1    H+)
    -2.89023875E-05    2     2000005        37   # BR(~t_2 -> ~b_2    H+)
     1.85807060E-05    2     1000006        23   # BR(~t_2 -> ~t_1    Z )
     4.67911519E-05    2     1000005        24   # BR(~t_2 -> ~b_1    W+)
     5.06265572E-05    2     2000005        24   # BR(~t_2 -> ~b_2    W+)
#
#         PDG            Width
DECAY   1000005    -1.60346410E+02   # sbottom1 decays
#          BR         NDA      ID1       ID2
     1.00000000E+00    2     1000022         5   # BR(~b_1 -> ~chi_10 b )
#
#         PDG            Width
DECAY   2000005    -1.53214102E+02   # sbottom2 decays
#          BR         NDA      ID1       ID2
     1.00000000E+00    2     1000022         5   # BR(~b_2 -> ~chi_10 b )
#
#         PDG            Width
DECAY   1000002     2.91617552E-01   # sup_L decays
#          BR         NDA      ID1       ID2
     1.00000000E+00    2     1000022         2   # BR(~u_L -> ~chi_10 u)
#
#         PDG            Width
DECAY   2000002     2.08398276E+02   # sup_R decays
#          BR         NDA      ID1       ID2
     9.99807599E-01    2     1000022         2   # BR(~u_R -> ~chi_10 u)
     5.31044632E-06    2     1000023         2   # BR(~u_R -> ~chi_20 u)
     1.87090229E-04    2     1000025         2   # BR(~u_R -> ~chi_30 u)
#
#         PDG            Width
DECAY   1000001     2.91782686E-01   # sdown_L decays
#          BR         NDA      ID1       ID2
     1.00000000E+00    2     1000022         1   # BR(~d_L -> ~chi_10 d)
#
#         PDG            Width
DECAY   2000001     1.16682216E+00   # sdown_R decays
#          BR         NDA      ID1       ID2
     1.00000000E+00    2     1000022         1   # BR(~d_R -> ~chi_10 d)
#
#         PDG            Width
DECAY   1000004     2.91617552E-01   # scharm_L decays
#          BR         NDA      ID1       ID2
     1.00000000E+00    2     1000022         4   # BR(~c_L -> ~chi_10 c)
#
#         PDG            Width
DECAY   2000004     2.08398276E+02   # scharm_R decays
#          BR         NDA      ID1       ID2
     9.99807599E-01    2     1000022         4   # BR(~c_R -> ~chi_10 c)
     5.31044632E-06    2     1000023         4   # BR(~c_R -> ~chi_20 c)
     1.87090229E-04    2     1000025         4   # BR(~c_R -> ~chi_30 c)
#
#         PDG            Width
DECAY   1000003     2.91782686E-01   # sstrange_L decays
#          BR         NDA      ID1       ID2
     1.00000000E+00    2     1000022         3   # BR(~s_L -> ~chi_10 s)
#
#         PDG            Width
DECAY   2000003     1.16682216E+00   # sstrange_R decays
#          BR         NDA      ID1       ID2
     1.00000000E+00    2     1000022         3   # BR(~s_R -> ~chi_10 s)
#
#         PDG            Width
DECAY   1000011     1.22245772E+02   # selectron_L decays
#          BR         NDA      ID1       ID2
     9.99765639E-01    2     1000022        11   # BR(~e_L -> ~chi_10 e-)
     4.15694126E-06    2     1000023        11   # BR(~e_L -> ~chi_20 e-)
     2.27550515E-04    2     1000025        11   # BR(~e_L -> ~chi_30 e-)
     2.65364339E-06    2    -1000024        12   # BR(~e_L -> ~chi_1- nu_e)
#
#         PDG            Width
DECAY   2000011     4.88980190E+02   # selectron_R decays
#          BR         NDA      ID1       ID2
     9.99807854E-01    2     1000022        11   # BR(~e_R -> ~chi_10 e-)
     5.30341398E-06    2     1000023        11   # BR(~e_R -> ~chi_20 e-)
     1.86842426E-04    2     1000025        11   # BR(~e_R -> ~chi_30 e-)
#
#         PDG            Width
DECAY   1000013     1.22245772E+02   # smuon_L decays
#          BR         NDA      ID1       ID2
     9.99765639E-01    2     1000022        13   # BR(~mu_L -> ~chi_10 mu-)
     4.15694126E-06    2     1000023        13   # BR(~mu_L -> ~chi_20 mu-)
     2.27550515E-04    2     1000025        13   # BR(~mu_L -> ~chi_30 mu-)
     2.65364339E-06    2    -1000024        14   # BR(~mu_L -> ~chi_1- nu_mu)
#
#         PDG            Width
DECAY   2000013     4.88980190E+02   # smuon_R decays
#          BR         NDA      ID1       ID2
     9.99807854E-01    2     1000022        13   # BR(~mu_R -> ~chi_10 mu-)
     5.30341398E-06    2     1000023        13   # BR(~mu_R -> ~chi_20 mu-)
     1.86842426E-04    2     1000025        13   # BR(~mu_R -> ~chi_30 mu-)
#
#         PDG            Width
DECAY   1000015     1.18199566E+04   # stau_1 decays
#          BR         NDA      ID1       ID2
     2.58981560E-02    2     1000022        15   # BR(~tau_1 -> ~chi_10  tau-)
     2.52105750E-05    2     1000023        15   # BR(~tau_1 -> ~chi_20  tau-)
     2.50597938E-05    2     1000025        15   # BR(~tau_1 -> ~chi_30  tau-)
     2.77068574E-05    2    -1000024        16   # BR(~tau_1 -> ~chi_1-  nu_tau)
     9.74023867E-01    2     1000039        15   # BR(~tau_1 -> ~G       tau-)
#
#         PDG            Width
DECAY   2000015     3.06063034E+02   # stau_2 decays
#          BR         NDA      ID1       ID2
     9.96488970E-01    2     1000022        15   # BR(~tau_2 -> ~chi_10  tau-)
     1.07723925E-03    2     1000023        15   # BR(~tau_2 -> ~chi_20  tau-)
     1.46195353E-03    2     1000025        15   # BR(~tau_2 -> ~chi_30  tau-)
     9.71836969E-04    2    -1000024        16   # BR(~tau_2 -> ~chi_1-  nu_tau)
#
#         PDG            Width
DECAY   1000012     1.22245830E+02   # snu_eL decays
#          BR         NDA      ID1       ID2
     9.99837625E-01    2     1000022        12   # BR(~nu_eL -> ~chi_10 nu_e)
     6.58926428E-06    2     1000023        12   # BR(~nu_eL -> ~chi_20 nu_e)
     1.50140936E-04    2     1000025        12   # BR(~nu_eL -> ~chi_30 nu_e)
     5.64436338E-06    2     1000024        11   # BR(~nu_eL -> ~chi_1+ e-)
#
#         PDG            Width
DECAY   1000014     1.22245830E+02   # snu_muL decays
#          BR         NDA      ID1       ID2
     9.99837625E-01    2     1000022        14   # BR(~nu_muL -> ~chi_10 nu_mu)
     6.58926428E-06    2     1000023        14   # BR(~nu_muL -> ~chi_20 nu_mu)
     1.50140936E-04    2     1000025        14   # BR(~nu_muL -> ~chi_30 nu_mu)
     5.64436338E-06    2     1000024        13   # BR(~nu_muL -> ~chi_1+ mu-)
#
#         PDG            Width
DECAY   1000016     1.22870443E+02   # snu_tauL decays
#          BR         NDA      ID1       ID2
     9.94754944E-01    2     1000022        16   # BR(~nu_tauL -> ~chi_10 nu_tau)
     6.55576771E-06    2     1000023        16   # BR(~nu_tauL -> ~chi_20 nu_tau)
     1.49377694E-04    2     1000025        16   # BR(~nu_tauL -> ~chi_30 nu_tau)
     5.08912233E-03    2     1000024        15   # BR(~nu_tauL -> ~chi_1+ tau-)
#
#         PDG            Width
DECAY   1000024     3.75216995E+01   # chargino1+ decays
#          BR         NDA      ID1       ID2
     5.78002107E-07    2     1000002        -1   # BR(~chi_1+ -> ~u_L     db)
     2.71599410E-07    2    -1000001         2   # BR(~chi_1+ -> ~d_L*    u )
     5.78002107E-07    2     1000004        -3   # BR(~chi_1+ -> ~c_L     sb)
     2.71599410E-07    2    -1000003         4   # BR(~chi_1+ -> ~s_L*    c )
    -2.32893675E-01    2     1000006        -5   # BR(~chi_1+ -> ~t_1     bb)
     1.21816491E-01    2    -1000005         6   # BR(~chi_1+ -> ~b_1*    t )
     1.02868968E+00    2    -2000005         6   # BR(~chi_1+ -> ~b_2*    t )
     6.32663566E-02    2     1000022        24   # BR(~chi_1+ -> ~chi_10  W+)
     1.91098221E-02    2     1000022        37   # BR(~chi_1+ -> ~chi_10  H+)
     8.04061080E-06    2     1000039        24   # BR(~chi_1+ -> ~G       W+)
     1.58206827E-06    2     1000039        37   # BR(~chi_1+ -> ~G       H+)
#
#         PDG            Width
DECAY   1000037    -3.01948472E+05   # chargino2+ decays
#          BR         NDA      ID1       ID2
    -3.78089422E-03    2     1000002        -1   # BR(~chi_2+ -> ~u_L     db)
    -3.78089522E-03    2    -1000001         2   # BR(~chi_2+ -> ~d_L*    u )
    -3.78089422E-03    2     1000004        -3   # BR(~chi_2+ -> ~c_L     sb)
    -3.78089522E-03    2    -1000003         4   # BR(~chi_2+ -> ~s_L*    c )
     1.06437056E+00    2     1000006        -5   # BR(~chi_2+ -> ~t_1     bb)
    -8.33380769E-04    2    -1000005         6   # BR(~chi_2+ -> ~b_1*    t )
    -3.58111900E-03    2    -2000005         6   # BR(~chi_2+ -> ~b_2*    t )
    -2.71812596E-15    2     1000012       -11   # BR(~chi_2+ -> ~nu_eL   e+  )
    -2.71812596E-15    2     1000014       -13   # BR(~chi_2+ -> ~nu_muL  mu+ )
    -1.89284285E-15    2    -1000011        12   # BR(~chi_2+ -> ~e_L+    nu_e)
    -1.89284285E-15    2    -1000013        14   # BR(~chi_2+ -> ~mu_L+   nu_mu)
    -2.97973896E-15    2    -1000015        16   # BR(~chi_2+ -> ~tau_1+  nu_tau)
    -4.45434807E-17    2    -2000015        16   # BR(~chi_2+ -> ~tau_2+  nu_tau)
    -6.92331040E-04    2     1000024        23   # BR(~chi_2+ -> ~chi_1+  Z )
    -9.92848543E-08    2     1000022        24   # BR(~chi_2+ -> ~chi_10  W+)
    -6.71490211E-04    2     1000023        24   # BR(~chi_2+ -> ~chi_20  W+)
    -6.71383724E-04    2     1000025        24   # BR(~chi_2+ -> ~chi_30  W+)
    -6.99730631E-04    2     1000024        25   # BR(~chi_2+ -> ~chi_1+  h )
    -6.14229308E-04    2     1000024        35   # BR(~chi_2+ -> ~chi_1+  H )
    -6.14311858E-04    2     1000024        36   # BR(~chi_2+ -> ~chi_1+  A )
    -1.34089686E-07    2     1000022        37   # BR(~chi_2+ -> ~chi_10  H+)
    -6.14288746E-04    2     1000023        37   # BR(~chi_2+ -> ~chi_20  H+)
    -6.14178241E-04    2     1000025        37   # BR(~chi_2+ -> ~chi_30  H+)
    -3.96402934E-02    2     1000039        24   # BR(~chi_2+ -> ~G       W+)
    -1.13501272E-08    2     1000039        37   # BR(~chi_2+ -> ~G       H+)
#
#         PDG            Width
DECAY   1000022     1.E-08   # neutralino1 decays (OJ Mods)
#          BR         NDA      ID1       ID2
     8.21672084E-01    2     1000039        22   # BR(~chi_10 -> ~G        gam)
     1.78327877E-01    2     1000039        23   # BR(~chi_10 -> ~G        Z)
     3.84958305E-08    2     1000039        25   # BR(~chi_10 -> ~G        h)
#
#         PDG            Width
DECAY   1000023     1.E-08   # neutralino2 decays (OJ Mods)
#          BR         NDA      ID1       ID2
     8.47755571E-02    2     1000022        23   # BR(~chi_20 -> ~chi_10   Z )
     2.37071846E-03    2     1000022        25   # BR(~chi_20 -> ~chi_10   h )
     2.45130128E-02    2     1000022        35   # BR(~chi_20 -> ~chi_10   H )
     1.64415508E-03    2     1000022        36   # BR(~chi_20 -> ~chi_10   A )
     4.05051114E-08    2     1000002        -2   # BR(~chi_20 -> ~u_L      ub)
     4.05051114E-08    2    -1000002         2   # BR(~chi_20 -> ~u_L*     u )
     1.69917494E-07    2     1000001        -1   # BR(~chi_20 -> ~d_L      db)
     1.69917494E-07    2    -1000001         1   # BR(~chi_20 -> ~d_L*     d )
     3.76367071E-07    2     2000001        -1   # BR(~chi_20 -> ~d_R      db)
     3.76367071E-07    2    -2000001         1   # BR(~chi_20 -> ~d_R*     d )
     4.05051114E-08    2     1000004        -4   # BR(~chi_20 -> ~c_L      cb)
     4.05051114E-08    2    -1000004         4   # BR(~chi_20 -> ~c_L*     c )
     1.69917494E-07    2     1000003        -3   # BR(~chi_20 -> ~s_L      sb)
     1.69917494E-07    2    -1000003         3   # BR(~chi_20 -> ~s_L*     s )
     3.76367071E-07    2     2000003        -3   # BR(~chi_20 -> ~s_R      sb)
     3.76367071E-07    2    -2000003         3   # BR(~chi_20 -> ~s_R*     s )
     7.67123327E-01    2     1000006        -6   # BR(~chi_20 -> ~t_1      tb)
     7.67123327E-01    2    -1000006         6   # BR(~chi_20 -> ~t_1*     t )
    -1.56393437E-01    2     1000005        -5   # BR(~chi_20 -> ~b_1      bb)
    -1.56393437E-01    2    -1000005         5   # BR(~chi_20 -> ~b_1*     b )
    -1.67389086E-01    2     2000005        -5   # BR(~chi_20 -> ~b_2      bb)
    -1.67389086E-01    2    -2000005         5   # BR(~chi_20 -> ~b_2*     b )
     8.04865803E-11    2     1000039        22   # BR(~chi_20 -> ~G        gam)
     4.13205271E-07    2     1000039        23   # BR(~chi_20 -> ~G        Z)
     1.03125871E-05    2     1000039        25   # BR(~chi_20 -> ~G        h)
     8.25755645E-08    2     1000039        35   # BR(~chi_20 -> ~G        H)
     2.13039005E-06    2     1000039        36   # BR(~chi_20 -> ~G        A)
#
#         PDG            Width
DECAY   1000025     2.79922324E+01   # neutralino3 decays
#          BR         NDA      ID1       ID2
     2.41518569E-03    2     1000022        23   # BR(~chi_30 -> ~chi_10   Z )
     8.57915157E-02    2     1000022        25   # BR(~chi_30 -> ~chi_10   h )
     1.60477183E-03    2     1000022        35   # BR(~chi_30 -> ~chi_10   H )
     2.46769790E-02    2     1000022        36   # BR(~chi_30 -> ~chi_10   A )
     5.71514447E-06    2     1000002        -2   # BR(~chi_30 -> ~u_L      ub)
     5.71514447E-06    2    -1000002         2   # BR(~chi_30 -> ~u_L*     u )
     1.57965357E-06    2     1000001        -1   # BR(~chi_30 -> ~d_L      db)
     1.57965357E-06    2    -1000001         1   # BR(~chi_30 -> ~d_L*     d )
     1.33027098E-05    2     2000001        -1   # BR(~chi_30 -> ~d_R      db)
     1.33027098E-05    2    -2000001         1   # BR(~chi_30 -> ~d_R*     d )
     5.71514447E-06    2     1000004        -4   # BR(~chi_30 -> ~c_L      cb)
     5.71514447E-06    2    -1000004         4   # BR(~chi_30 -> ~c_L*     c )
     1.57965357E-06    2     1000003        -3   # BR(~chi_30 -> ~s_L      sb)
     1.57965357E-06    2    -1000003         3   # BR(~chi_30 -> ~s_L*     s )
     1.33027098E-05    2     2000003        -3   # BR(~chi_30 -> ~s_R      sb)
     1.33027098E-05    2    -2000003         3   # BR(~chi_30 -> ~s_R*     s )
     7.69709685E-01    2     1000006        -6   # BR(~chi_30 -> ~t_1      tb)
     7.69709685E-01    2    -1000006         6   # BR(~chi_30 -> ~t_1*     t )
    -1.38426217E-01    2     1000005        -5   # BR(~chi_30 -> ~b_1      bb)
    -1.38426217E-01    2    -1000005         5   # BR(~chi_30 -> ~b_1*     b )
    -1.88569488E-01    2     2000005        -5   # BR(~chi_30 -> ~b_2      bb)
    -1.88569488E-01    2    -2000005         5   # BR(~chi_30 -> ~b_2*     b )
     3.27375709E-09    2     1000039        22   # BR(~chi_30 -> ~G        gam)
     1.03640231E-05    2     1000039        23   # BR(~chi_30 -> ~G        Z)
     4.04016858E-07    2     1000039        25   # BR(~chi_30 -> ~G        h)
     2.12415879E-06    2     1000039        35   # BR(~chi_30 -> ~G        H)
     8.55450760E-08    2     1000039        36   # BR(~chi_30 -> ~G        A)
#
#         PDG            Width
DECAY   1000035    -3.01949833E+05   # neutralino4 decays
#          BR         NDA      ID1       ID2
    -4.07327200E-11    2     1000022        23   # BR(~chi_40 -> ~chi_10   Z )
    -6.69063960E-04    2     1000023        23   # BR(~chi_40 -> ~chi_20   Z )
    -2.32643341E-05    2     1000025        23   # BR(~chi_40 -> ~chi_30   Z )
    -6.71482859E-04    2     1000024       -24   # BR(~chi_40 -> ~chi_1+   W-)
    -6.71482859E-04    2    -1000024        24   # BR(~chi_40 -> ~chi_1-   W+)
    -1.03597140E-07    2     1000022        25   # BR(~chi_40 -> ~chi_10   h )
    -1.59251938E-08    2     1000022        35   # BR(~chi_40 -> ~chi_10   H )
    -1.17976413E-07    2     1000022        36   # BR(~chi_40 -> ~chi_10   A )
    -2.29693093E-05    2     1000023        25   # BR(~chi_40 -> ~chi_20   h )
    -5.87820312E-04    2     1000023        35   # BR(~chi_40 -> ~chi_20   H )
    -2.70204130E-05    2     1000023        36   # BR(~chi_40 -> ~chi_20   A )
    -6.76655158E-04    2     1000025        25   # BR(~chi_40 -> ~chi_30   h )
    -2.63894327E-05    2     1000025        35   # BR(~chi_40 -> ~chi_30   H )
    -5.87170576E-04    2     1000025        36   # BR(~chi_40 -> ~chi_30   A )
    -6.14298043E-04    2     1000024       -37   # BR(~chi_40 -> ~chi_1+   H-)
    -6.14298043E-04    2    -1000024        37   # BR(~chi_40 -> ~chi_1-   H+)
    -1.81059475E-03    2     1000002        -2   # BR(~chi_40 -> ~u_L      ub)
    -1.81059475E-03    2    -1000002         2   # BR(~chi_40 -> ~u_L*     u )
    -2.82388475E-23    2     2000002        -2   # BR(~chi_40 -> ~u_R      ub)
    -2.82388475E-23    2    -2000002         2   # BR(~chi_40 -> ~u_R*     u )
    -1.81059538E-03    2     1000001        -1   # BR(~chi_40 -> ~d_L      db)
    -1.81059538E-03    2    -1000001         1   # BR(~chi_40 -> ~d_L*     d )
    -3.44438588E-17    2     2000001        -1   # BR(~chi_40 -> ~d_R      db)
    -3.44438588E-17    2    -2000001         1   # BR(~chi_40 -> ~d_R*     d )
    -1.81059475E-03    2     1000004        -4   # BR(~chi_40 -> ~c_L      cb)
    -1.81059475E-03    2    -1000004         4   # BR(~chi_40 -> ~c_L*     c )
    -2.82388475E-23    2     2000004        -4   # BR(~chi_40 -> ~c_R      cb)
    -2.82388475E-23    2    -2000004         4   # BR(~chi_40 -> ~c_R*     c )
    -1.81059538E-03    2     1000003        -3   # BR(~chi_40 -> ~s_L      sb)
    -1.81059538E-03    2    -1000003         3   # BR(~chi_40 -> ~s_L*     s )
    -3.44438588E-17    2     2000003        -3   # BR(~chi_40 -> ~s_R      sb)
    -3.44438588E-17    2    -2000003         3   # BR(~chi_40 -> ~s_R*     s )
    -2.20724197E-03    2     1000006        -6   # BR(~chi_40 -> ~t_1      tb)
    -2.20724197E-03    2    -1000006         6   # BR(~chi_40 -> ~t_1*     t )
     2.56240627E-01    2     1000005        -5   # BR(~chi_40 -> ~b_1      bb)
     2.56240627E-01    2    -1000005         5   # BR(~chi_40 -> ~b_1*     b )
     2.75944504E-01    2     2000005        -5   # BR(~chi_40 -> ~b_2      bb)
     2.75944504E-01    2    -2000005         5   # BR(~chi_40 -> ~b_2*     b )
    -9.46416369E-16    2     1000011       -11   # BR(~chi_40 -> ~e_L-     e+)
    -9.46416369E-16    2    -1000011        11   # BR(~chi_40 -> ~e_L+     e-)
    -1.62037449E-28    2     2000011       -11   # BR(~chi_40 -> ~e_R-     e+)
    -1.62037449E-28    2    -2000011        11   # BR(~chi_40 -> ~e_R+     e-)
    -9.46416369E-16    2     1000013       -13   # BR(~chi_40 -> ~mu_L-    mu+)
    -9.46416369E-16    2    -1000013        13   # BR(~chi_40 -> ~mu_L+    mu-)
    -1.62037449E-28    2     2000013       -13   # BR(~chi_40 -> ~mu_R-    mu+)
    -1.62037449E-28    2    -2000013        13   # BR(~chi_40 -> ~mu_R+    mu-)
    -1.35905750E-15    2     1000012       -12   # BR(~chi_40 -> ~nu_eL    nu_eb)
    -1.35905750E-15    2    -1000012        12   # BR(~chi_40 -> ~nu_eL*   nu_e )
    -1.35905750E-15    2     1000014       -14   # BR(~chi_40 -> ~nu_muL   nu_mub)
    -1.35905750E-15    2    -1000014        14   # BR(~chi_40 -> ~nu_muL*  nu_mu )
    -1.35905750E-15    2     1000016       -16   # BR(~chi_40 -> ~nu_tau1  nu_taub)
    -1.35905750E-15    2    -1000016        16   # BR(~chi_40 -> ~nu_tau1* nu_tau )
    -9.61453858E-03    2     1000039        22   # BR(~chi_40 -> ~G        gam)
    -3.00255661E-02    2     1000039        23   # BR(~chi_40 -> ~G        Z)
    -1.81056775E-09    2     1000039        25   # BR(~chi_40 -> ~G        h)
    -1.13693801E-08    2     1000039        35   # BR(~chi_40 -> ~G        H)
    -2.24035887E-12    2     1000039        36   # BR(~chi_40 -> ~G        A)
#
#
#
#
