# SUSY Les Houches Accord 2 - MSSM spectrum + Decays
# SPheno v3.1.12 
# W. Porod, Comput. Phys. Commun. 153 (2003) 275-315, hep-ph/0301101
# in case of problems send email to porod@physik.uni-wuerzburg.de
# Created: 23.11.2012,  13:30
Block SPINFO         # Program information
     1   SPheno      # spectrum calculator
     2   v3.1.12     # version number
#
Block SPhenoINFO     # SPheno specific information
    1      2         # using 2-loop RGEs
    2      1         # using running masses for boundary conditions at mZ
Block MODSEL  # Model selection
    1    2    # mGMSB model
Block MINPAR  # Input parameters
    1    1.20000000E+05  # Lambda, scale of SUSY breaking
    2    2.50000000E+05  # M_M, messenger mass scale
    3    5.00000000E+01  # tanb at m_Z   
    4    1.00000000E+00  # Sign(mu)
    5    3.00000000E+00  # N_5 number of effective five-plets
    6    1.00000000E+00  # c_grav, Gravitino mass factor
Block gauge Q=  2.50000000E+05  # (GMSB scale)
   1    4.93346143E-01  # g'(Q)^DRbar
   2    6.47862492E-01  # g(Q)^DRbar
   3    9.36518328E-01  # g3(Q)^DRbar
Block SMINPUTS  # SM parameters
         1     1.27932536E+02  # alpha_em^-1(MZ)^MSbar
         2     1.16639000E-05  # G_mu [GeV^-2]
         3     1.17200000E-01  # alpha_s(MZ)^MSbar
         4     9.11876000E+01  # m_Z(pole)
         5     4.20000000E+00  # m_b(m_b), MSbar
         6     1.72500000E+02  # m_t(pole)
         7     1.77700000E+00  # m_tau(pole)
         8     0.00000000E+00  # m_nu_3
        11     5.10998910E-04  # m_e(pole)
        12     0.00000000E+00  # m_nu_1
        13     1.05658000E-01  # m_muon(pole)
        14     0.00000000E+00  # m_nu_2
        21     5.00000000E-03  # m_d(2 GeV), MSbar
        22     3.00000000E-03  # m_u(2 GeV), MSbar
        23     1.05000000E-01  # m_s(2 GeV), MSbar
        24     1.27000000E+00  # m_c(m_c), MSbar
Block gauge Q=  2.26243397E+03  # (SUSY scale)
   1    3.64835529E-01  # g'(Q)^DRbar
   2    6.38573455E-01  # g(Q)^DRbar
   3    1.01715947E+00  # g3(Q)^DRbar
Block Yu Q=  2.26243397E+03  # (SUSY scale)
  1  1     8.35163358E-06   # Y_u(Q)^DRbar
  2  2     3.53552731E-03   # Y_c(Q)^DRbar
  3  3     8.40380577E-01   # Y_t(Q)^DRbar
Block Yd Q=  2.26243397E+03  # (SUSY scale)
  1  1     5.83622576E-04   # Y_d(Q)^DRbar
  2  2     1.22560633E-02   # Y_s(Q)^DRbar
  3  3     5.92504452E-01   # Y_b(Q)^DRbar
Block Ye Q=  2.26243397E+03  # (SUSY scale)
  1  1     1.58659944E-04   # Y_e(Q)^DRbar
  2  2     3.28062420E-02   # Y_mu(Q)^DRbar
  3  3     5.53948111E-01   # Y_tau(Q)^DRbar
Block Au Q=  2.26243397E+03  # (SUSY scale)
  1  1    -7.11024085E+02   # A_u(Q)^DRbar
  2  2    -7.11020577E+02   # A_c(Q)^DRbar
  3  3    -6.65409658E+02   # A_t(Q)^DRbar
Block Ad Q=  2.26243397E+03  # (SUSY scale)
  1  1    -7.32181186E+02   # A_d(Q)^DRbar
  2  2    -7.32172378E+02   # A_s(Q)^DRbar
  3  3    -6.99542670E+02   # A_b(Q)^DRbar
Block Ae Q=  2.26243397E+03  # (SUSY scale)
  1  1    -5.97642843E+01   # A_e(Q)^DRbar
  2  2    -5.97571597E+01   # A_mu(Q)^DRbar
  3  3    -5.77426130E+01   # A_tau(Q)^DRbar
Block MSOFT Q=  2.26243397E+03  # soft SUSY breaking masses at Q
   1    5.23895897E+02  # M_1
   2    9.59855978E+02  # M_2
   3    2.44599350E+03  # M_3
  21   -1.24374606E+03  # M^2_(H,d)
  22   -5.20673530E+05  # M^2_(H,u)
  31    7.47715193E+02  # M_(L,11)
  32    7.47678677E+02  # M_(L,22)
  33    7.37323209E+02  # M_(L,33)
  34    3.62999767E+02  # M_(E,11)
  35    3.62846036E+02  # M_(E,22)
  36    3.16355110E+02  # M_(E,33)
  41    2.36988290E+03  # M_(Q,11)
  42    2.36986636E+03  # M_(Q,22)
  43    2.26250647E+03  # M_(Q,33)
  44    2.27237777E+03  # M_(U,11)
  45    2.27237513E+03  # M_(U,22)
  46    2.12043885E+03  # M_(U,33)
  47    2.26292651E+03  # M_(D,11)
  48    2.26289418E+03  # M_(D,22)
  49    2.18694072E+03  # M_(D,33)
Block MASS  # Mass spectrum
#   PDG code      mass          particle
         6     1.72500000E+02  # m_t(pole)
        23     9.11876000E+01  # m_Z(pole)
        24     8.03094304E+01  # W+
        15     1.77700000E+00  # m_tau(pole)
        25     1.19783224E+02  # h0
        35     7.48335994E+02  # H0
        36     7.48298741E+02  # A0
        37     7.53426931E+02  # H+
   1000001     2.46729324E+03  # ~d_L
   2000001     2.35454118E+03  # ~d_R
   1000002     2.46599868E+03  # ~u_L
   2000002     2.36336438E+03  # ~u_R
   1000003     2.46727427E+03  # ~s_L
   2000003     2.35450092E+03  # ~s_R
   1000004     2.46597880E+03  # ~c_L
   2000004     2.36336120E+03  # ~c_R
   1000005     2.25803401E+03  # ~b_1
   2000005     2.34050637E+03  # ~b_2
   1000006     2.18292617E+03  # ~t_1
   2000006     2.34483712E+03  # ~t_2
   1000011     7.64687259E+02  # ~e_L-
   2000011     3.77443519E+02  # ~e_R-
   1000012     7.60131652E+02  # ~nu_eL
   1000013     7.64666720E+02  # ~mu_L-
   2000013     3.77192949E+02  # ~mu_R-
   1000014     7.60079610E+02  # ~nu_muL
   1000015     3.00559465E+02  # ~tau_1-
   2000015     7.58486833E+02  # ~tau_2-
   1000016     7.45632906E+02  # ~nu_tauL
   1000021     2.56960128E+03  # ~g
   1000022     5.09384637E+02  # ~chi_10
   1000023     7.86266557E+02  # ~chi_20
   1000025    -8.01223158E+02  # ~chi_30
   1000035     9.97255458E+02  # ~chi_40
   1000024     7.84071431E+02  # ~chi_1+
   1000037     9.97425453E+02  # ~chi_2+
   1000039     7.20000000E-09  # ~G
# Higgs mixing
Block alpha # Effective Higgs mixing angle
          -2.11752157E-02   # alpha
Block Hmix Q=  2.26243397E+03  # Higgs mixing parameters
   1    7.93187431E+02  # mu
   2    4.91617266E+01  # tan[beta](Q)
   3    2.43478952E+02  # v(Q)
   4    5.11843670E+05  # m^2_A(Q)
Block stopmix # stop mixing matrix
   1  1     1.66103427E-01   # Re[R_st(1,1)]
   1  2     9.86108337E-01   # Re[R_st(1,2)]
   2  1    -9.86108337E-01   # Re[R_st(2,1)]
   2  2     1.66103427E-01   # Re[R_st(2,2)]
Block sbotmix # sbottom mixing matrix
   1  1     2.32885262E-01   # Re[R_sb(1,1)]
   1  2     9.72504218E-01   # Re[R_sb(1,2)]
   2  1    -9.72504218E-01   # Re[R_sb(2,1)]
   2  2     2.32885262E-01   # Re[R_sb(2,2)]
Block staumix # stau mixing matrix
   1  1     1.59945624E-01   # Re[R_sta(1,1)]
   1  2     9.87125827E-01   # Re[R_sta(1,2)]
   2  1    -9.87125827E-01   # Re[R_sta(2,1)]
   2  2     1.59945624E-01   # Re[R_sta(2,2)]
Block Nmix # neutralino mixing matrix
   1  1    -9.93212807E-01   # Re[N(1,1)]
   1  2     1.08327854E-02   # Re[N(1,2)]
   1  3    -9.69119406E-02   # Re[N(1,3)]
   1  4     6.33959578E-02   # Re[N(1,4)]
   2  1     1.12134770E-01   # Re[N(2,1)]
   2  2     2.75772404E-01   # Re[N(2,2)]
   2  3    -6.80225151E-01   # Re[N(2,3)]
   2  4     6.69827678E-01   # Re[N(2,4)]
   3  1     2.33311993E-02   # Re[N(3,1)]
   3  2    -3.07662452E-02   # Re[N(3,2)]
   3  3    -7.05483560E-01   # Re[N(3,3)]
   3  4    -7.07673681E-01   # Re[N(3,4)]
   4  1    -2.02427608E-02   # Re[N(4,1)]
   4  2     9.60669386E-01   # Re[N(4,2)]
   4  3     1.73766411E-01   # Re[N(4,3)]
   4  4    -2.15661297E-01   # Re[N(4,4)]
Block Umix # chargino mixing matrix
   1  1    -2.45312605E-01   # Re[U(1,1)]
   1  2     9.69444029E-01   # Re[U(1,2)]
   2  1     9.69444029E-01   # Re[U(2,1)]
   2  2     2.45312605E-01   # Re[U(2,2)]
Block Vmix # chargino mixing matrix
   1  1    -3.04402902E-01   # Re[V(1,1)]
   1  2     9.52543371E-01   # Re[V(1,2)]
   2  1     9.52543371E-01   # Re[V(2,1)]
   2  2     3.04402902E-01   # Re[V(2,2)]
DECAY   2000011     2.23293212E-06   # ~e^-_R
#    BR                NDA      ID1      ID2
     7.58353995E-05    2     1000039        11   # BR(~e^-_R -> ~G e^-)
#    BR                NDA      ID1      ID2       ID3
     6.54028747E-14    3     2000013        11       -13   # BR(~e^-_R -> ~mu^-_R e^- mu^+)
     2.19083314E-13    3    -2000013        11        13   # BR(~e^-_R -> ~mu^+_R e^- mu^-)
     1.97972370E-01    3     1000015        11       -15   # BR(~e^-_R -> ~tau^-_1 e^- tau^+)
     8.01951795E-01    3    -1000015        11        15   # BR(~e^-_R -> ~tau^+_1 e^- tau^-)
DECAY   1000011     2.97361280E-01   # ~e^-_L
#    BR                NDA      ID1      ID2
     9.99999007E-01    2     1000022        11   # BR(~e^-_L -> chi^0_1 e^-)
     4.76750470E-07    2     2000011        23   # BR(~e^-_L -> ~e^-_R Z)
     4.96636829E-07    2     2000011        25   # BR(~e^-_L -> ~e^-_R h^0)
     1.94366981E-08    2     1000039        11   # BR(~e^-_L -> ~G e^-)
DECAY   2000013     2.20382974E-06   # ~mu^-_R
#    BR                NDA      ID1      ID2
     7.65821029E-05    2     1000039        13   # BR(~mu^-_R -> ~G mu^-)
#    BR                NDA      ID1      ID2       ID3
     1.97333186E-01    3     1000015        13       -15   # BR(~mu^-_R -> ~tau^-_1 mu^- tau^+)
     8.02590232E-01    3    -1000015        13        15   # BR(~mu^-_R -> ~tau^+_1 mu^- tau^-)
DECAY   1000013     3.09771195E-01   # ~mu^-_L
#    BR                NDA      ID1      ID2
     9.60039845E-01    2     1000022        13   # BR(~mu^-_L -> chi^0_1 mu^-)
     1.95760341E-02    2     2000013        23   # BR(~mu^-_L -> ~mu^-_R Z)
     2.03841022E-02    2     2000013        25   # BR(~mu^-_L -> ~mu^-_R h^0)
     1.86555268E-08    2     1000039        13   # BR(~mu^-_L -> ~G mu^-)
DECAY   1000015     5.42099440E-11   # ~tau^-_1
#    BR                NDA      ID1      ID2
     1.00000000E+00    2     1000039        15   # BR(~tau^-_1 -> ~G tau^-)
DECAY   2000015     4.11143455E+00   # ~tau^-_2
#    BR                NDA      ID1      ID2
     7.37105260E-02    2     1000022        15   # BR(~tau^-_2 -> chi^0_1 tau^-)
     4.77179382E-01    2     1000015        23   # BR(~tau^-_2 -> ~tau^-_1 Z)
     4.49110091E-01    2     1000015        25   # BR(~tau^-_2 -> ~tau^-_1 h^0)
     1.34966178E-09    2     1000039        15   # BR(~tau^-_2 -> ~G tau^-)
DECAY   1000012     3.12958207E-01   # ~nu_e
#    BR                NDA      ID1      ID2
     9.99999110E-01    2     1000022        12   # BR(~nu_e -> chi^0_1 nu_e)
     8.72310055E-07    2     2000011        24   # BR(~nu_e -> ~e^-_R W^+)
     1.79244308E-08    2     1000039        12   # BR(~nu_e -> ~G nu_e)
DECAY   1000014     3.24542768E-01   # ~nu_mu
#    BR                NDA      ID1      ID2
     9.64022849E-01    2     1000022        14   # BR(~nu_mu -> chi^0_1 nu_mu)
     3.59771342E-02    2     2000013        24   # BR(~nu_mu -> ~mu^-_R W^+)
     1.72787018E-08    2     1000039        14   # BR(~nu_mu -> ~G nu_mu)
DECAY   1000016     3.98316395E+00   # ~nu_tau
#    BR                NDA      ID1      ID2
     7.22167256E-02    2     1000022        16   # BR(~nu_tau -> chi^0_1 nu_tau)
     9.27783273E-01    2     1000015        24   # BR(~nu_tau -> ~tau^-_1 W^+)
     1.27904193E-09    2     1000039        16   # BR(~nu_tau -> ~G nu_tau)
DECAY   2000001     1.25659797E+00   # ~d_R
#    BR                NDA      ID1      ID2
     9.88260303E-01    2     1000022         1   # BR(~d_R -> chi^0_1 d)
     1.09497085E-02    2     1000023         1   # BR(~d_R -> chi^0_2 d)
     4.74111359E-04    2     1000025         1   # BR(~d_R -> chi^0_3 d)
     3.04276459E-04    2     1000035         1   # BR(~d_R -> chi^0_4 d)
     1.02753464E-05    2    -1000024         2   # BR(~d_R -> chi^-_1 u)
     5.19548273E-08    2    -1000037         2   # BR(~d_R -> chi^-_2 u)
     1.27298339E-06    2     1000039         1   # BR(~d_R -> ~G d)
DECAY   1000001     2.15552483E+01   # ~d_L
#    BR                NDA      ID1      ID2
     1.70193145E-02    2     1000022         1   # BR(~d_L -> chi^0_1 d)
     2.42588823E-02    2     1000023         1   # BR(~d_L -> chi^0_2 d)
     4.60903405E-04    2     1000025         1   # BR(~d_L -> chi^0_3 d)
     3.02331518E-01    2     1000035         1   # BR(~d_L -> chi^0_4 d)
     4.51637318E-02    2    -1000024         2   # BR(~d_L -> chi^-_1 u)
     6.10765555E-01    2    -1000037         2   # BR(~d_L -> chi^-_2 u)
     4.59642506E-13    2     2000002       -24   # BR(~d_L -> ~u_R W^-)
     8.12877616E-10    2     2000001        23   # BR(~d_L -> ~d_R Z)
     9.37645024E-08    2     1000039         1   # BR(~d_L -> ~G d)
DECAY   2000003     1.26788666E+00   # ~s_R
#    BR                NDA      ID1      ID2
     9.79549232E-01    2     1000022         3   # BR(~s_R -> chi^0_1 s)
     1.30324058E-02    2     1000023         3   # BR(~s_R -> chi^0_2 s)
     2.59147870E-03    2     1000025         3   # BR(~s_R -> chi^0_3 s)
     3.12054425E-04    2     1000035         3   # BR(~s_R -> chi^0_4 s)
     4.49084374E-03    2    -1000024         4   # BR(~s_R -> chi^-_1 c)
     2.27236372E-05    2    -1000037         4   # BR(~s_R -> chi^-_2 c)
     1.26154144E-06    2     1000039         3   # BR(~s_R -> ~G s)
DECAY   1000003     2.15610200E+01   # ~s_L
#    BR                NDA      ID1      ID2
     1.70137396E-02    2     1000022         3   # BR(~s_L -> chi^0_1 s)
     2.43695046E-02    2     1000023         3   # BR(~s_L -> chi^0_2 s)
     5.98712730E-04    2     1000025         3   # BR(~s_L -> chi^0_3 s)
     3.02260317E-01    2     1000035         3   # BR(~s_L -> chi^0_4 s)
     4.51481412E-02    2    -1000024         4   # BR(~s_L -> chi^-_1 c)
     6.10609050E-01    2    -1000037         4   # BR(~s_L -> chi^-_2 c)
     8.22846797E-08    2     2000004       -24   # BR(~s_L -> ~c_R W^-)
     3.58836270E-07    2     2000003        23   # BR(~s_L -> ~s_R Z)
     9.37357979E-08    2     1000039         3   # BR(~s_L -> ~G s)
DECAY   1000005     2.66494802E+01   # ~b_1
#    BR                NDA      ID1      ID2
     5.78572998E-02    2     1000022         5   # BR(~b_1 -> chi^0_1 b)
     2.35425645E-01    2     1000023         5   # BR(~b_1 -> chi^0_2 b)
     2.20358810E-01    2     1000025         5   # BR(~b_1 -> chi^0_3 b)
     4.65069784E-04    2     1000035         5   # BR(~b_1 -> chi^0_4 b)
     4.82047986E-01    2    -1000024         6   # BR(~b_1 -> chi^-_1 t)
     3.84514062E-03    2    -1000037         6   # BR(~b_1 -> chi^-_2 t)
     4.86906171E-08    2     1000039         5   # BR(~b_1 -> ~G b)
DECAY   2000005     5.63060486E+01   # ~b_2
#    BR                NDA      ID1      ID2
     4.35126735E-03    2     1000022         5   # BR(~b_2 -> chi^0_1 b)
     1.02486378E-01    2     1000023         5   # BR(~b_2 -> chi^0_2 b)
     1.15111044E-01    2     1000025         5   # BR(~b_2 -> chi^0_3 b)
     1.16679708E-01    2     1000035         5   # BR(~b_2 -> chi^0_4 b)
     3.88748847E-01    2    -1000024         6   # BR(~b_2 -> chi^-_1 t)
     2.67381543E-01    2    -1000037         6   # BR(~b_2 -> chi^-_2 t)
     5.24118563E-03    2     1000006       -24   # BR(~b_2 -> ~t_1 W^-)
     2.75724989E-08    2     1000039         5   # BR(~b_2 -> ~G b)
DECAY   2000002     5.04888211E+00   # ~u_R
#    BR                NDA      ID1      ID2
     9.88267575E-01    2     1000022         2   # BR(~u_R -> chi^0_1 u)
     1.09572556E-02    2     1000023         2   # BR(~u_R -> chi^0_2 u)
     4.69822450E-04    2     1000025         2   # BR(~u_R -> chi^0_3 u)
     3.05023644E-04    2     1000035         2   # BR(~u_R -> chi^0_4 u)
     5.30493733E-10    2     1000024         1   # BR(~u_R -> chi^+_1 d)
     5.06238103E-12    2     1000037         1   # BR(~u_R -> chi^+_2 d)
     3.22809150E-07    2     1000039         2   # BR(~u_R -> ~G u)
DECAY   1000002     2.16129312E+01   # ~u_L
#    BR                NDA      ID1      ID2
     1.34869724E-02    2     1000022         2   # BR(~u_L -> chi^0_1 u)
     3.29737160E-02    2     1000023         2   # BR(~u_L -> chi^0_2 u)
     2.56547956E-04    2     1000025         2   # BR(~u_L -> chi^0_3 u)
     2.96445912E-01    2     1000035         2   # BR(~u_L -> chi^0_4 u)
     6.93043992E-02    2     1000024         1   # BR(~u_L -> chi^+_1 d)
     5.87532357E-01    2     1000037         1   # BR(~u_L -> chi^+_2 d)
     2.49681250E-09    2     2000001        24   # BR(~u_L -> ~d_R W^+)
     8.59021742E-14    2     2000002        23   # BR(~u_L -> ~u_R Z)
     9.32691811E-08    2     1000039         2   # BR(~u_L -> ~G u)
DECAY   2000004     5.04982497E+00   # ~c_R
#    BR                NDA      ID1      ID2
     9.88080987E-01    2     1000022         4   # BR(~c_R -> chi^0_1 c)
     1.10010311E-02    2     1000023         4   # BR(~c_R -> chi^0_2 c)
     5.16344614E-04    2     1000025         4   # BR(~c_R -> chi^0_3 c)
     3.05352556E-04    2     1000035         4   # BR(~c_R -> chi^0_4 c)
     9.50557022E-05    2     1000024         3   # BR(~c_R -> chi^+_1 s)
     9.06592280E-07    2     1000037         3   # BR(~c_R -> chi^+_2 s)
     3.22746331E-07    2     1000039         4   # BR(~c_R -> ~G c)
DECAY   1000004     2.16189977E+01   # ~c_L
#    BR                NDA      ID1      ID2
     1.34831659E-02    2     1000022         4   # BR(~c_L -> chi^0_1 c)
     3.29729036E-02    2     1000023         4   # BR(~c_L -> chi^0_2 c)
     2.67670199E-04    2     1000025         4   # BR(~c_L -> chi^0_3 c)
     2.96360522E-01    2     1000035         4   # BR(~c_L -> chi^0_4 c)
     6.95393157E-02    2     1000024         3   # BR(~c_L -> chi^+_1 s)
     5.87375213E-01    2     1000037         3   # BR(~c_L -> chi^+_2 s)
     1.10164136E-06    2     2000003        24   # BR(~c_L -> ~s_R W^+)
     1.53598078E-08    2     2000004        23   # BR(~c_L -> ~c_R Z)
     9.32391509E-08    2     1000039         4   # BR(~c_L -> ~G c)
DECAY   1000006     5.05795164E+01   # ~t_1
#    BR                NDA      ID1      ID2
     3.09349526E-04    2     1000022         4   # BR(~t_1 -> chi^0_1 c)
     9.08394626E-02    2     1000022         6   # BR(~t_1 -> chi^0_1 t)
     7.27547325E-04    2     1000023         4   # BR(~t_1 -> chi^0_2 c)
     2.12481628E-01    2     1000023         6   # BR(~t_1 -> chi^0_2 t)
     2.31439929E-01    2     1000025         6   # BR(~t_1 -> chi^0_3 t)
     6.07145046E-03    2     1000035         6   # BR(~t_1 -> chi^0_4 t)
     4.45516174E-01    2     1000024         5   # BR(~t_1 -> chi^+_1 b)
     1.25969235E-02    2     1000037         5   # BR(~t_1 -> chi^+_2 b)
     2.11264400E-08    2     1000039         6   # BR(~t_1 -> ~G t)
#    BR                NDA      ID1      ID2       ID3
     1.75145423E-05    3     1000022        24         5   # BR(~t_1 -> chi^0_1 W^+ b)
DECAY   2000006     5.76273423E+01   # ~t_2
#    BR                NDA      ID1      ID2
     5.64981588E-03    2     1000022         6   # BR(~t_2 -> chi^0_1 t)
     1.97710106E-01    2     1000023         6   # BR(~t_2 -> chi^0_2 t)
     2.14299782E-01    2     1000025         6   # BR(~t_2 -> chi^0_3 t)
     1.35224272E-01    2     1000035         6   # BR(~t_2 -> chi^0_4 t)
     2.07024203E-01    2     1000024         5   # BR(~t_2 -> chi^+_1 b)
     2.35385146E-01    2     1000037         5   # BR(~t_2 -> chi^+_2 b)
     1.55558194E-04    2     1000005        24   # BR(~t_2 -> ~b_1 W^+)
     2.59540828E-03    2     1000006        23   # BR(~t_2 -> ~t_1 Z)
     1.95568228E-03    2     1000006        25   # BR(~t_2 -> ~t_1 h^0)
     2.66069695E-08    2     1000039         6   # BR(~t_2 -> ~G t)
DECAY   1000024     2.14019969E+00   # chi^+_1
#    BR                NDA      ID1      ID2
     5.61911263E-08    2    -2000011        12   # BR(chi^+_1 -> ~e^+_R nu_e)
     2.13256566E-04    2    -1000011        12   # BR(chi^+_1 -> ~e^+_L nu_e)
     2.40400866E-03    2    -2000013        14   # BR(chi^+_1 -> ~mu^+_R nu_mu)
     2.12786128E-04    2    -1000013        14   # BR(chi^+_1 -> ~mu^+_L nu_mu)
     8.17333190E-01    2    -1000015        16   # BR(chi^+_1 -> ~tau^+_1 nu_tau)
     7.09622037E-05    2    -2000015        16   # BR(chi^+_1 -> ~tau^+_2 nu_tau)
     4.97906360E-04    2     1000012       -11   # BR(chi^+_1 -> ~nu_e e^+)
     5.14152173E-04    2     1000014       -13   # BR(chi^+_1 -> ~nu_mu mu^+)
     1.11922350E-02    2     1000016       -15   # BR(chi^+_1 -> ~nu_tau tau^+)
     1.67395220E-01    2     1000022        24   # BR(chi^+_1 -> chi^0_1 W^+)
#    BR                NDA      ID1      ID2       ID3
     1.67141186E-09    3     1000022        -1         2   # BR(chi^+_1 -> chi^0_1 d_bar u)
     4.62432637E-09    3     1000022        -3         4   # BR(chi^+_1 -> chi^0_1 s_bar c)
     1.48397435E-04    3     1000022        -5         6   # BR(chi^+_1 -> chi^0_1 b_bar t)
     2.29426405E-12    3     1000022       -11        12   # BR(chi^+_1 -> chi^0_1 e^+ nu_e)
     9.79061294E-08    3     1000022       -13        14   # BR(chi^+_1 -> chi^0_1 mu^+ nu_mu)
     1.77243307E-05    3     1000022       -15        16   # BR(chi^+_1 -> chi^0_1 tau^+ nu_tau)
DECAY   1000037     7.57143263E+00   # chi^+_2
#    BR                NDA      ID1      ID2
     6.19463525E-11    2    -2000011        12   # BR(chi^+_2 -> ~e^+_R nu_e)
     8.53396076E-02    2    -1000011        12   # BR(chi^+_2 -> ~e^+_L nu_e)
     2.65496259E-06    2    -2000013        14   # BR(chi^+_2 -> ~mu^+_R nu_mu)
     8.53664904E-02    2    -1000013        14   # BR(chi^+_2 -> ~mu^+_L nu_mu)
     1.33643353E-03    2    -1000015        16   # BR(chi^+_2 -> ~tau^+_1 nu_tau)
     9.33315048E-02    2    -2000015        16   # BR(chi^+_2 -> ~tau^+_2 nu_tau)
     8.52047224E-02    2     1000012       -11   # BR(chi^+_2 -> ~nu_e e^+)
     8.52508261E-02    2     1000014       -13   # BR(chi^+_2 -> ~nu_mu mu^+)
     9.87257290E-02    2     1000016       -15   # BR(chi^+_2 -> ~nu_tau tau^+)
     1.64263907E-03    2     1000022        24   # BR(chi^+_2 -> chi^0_1 W^+)
     1.29843692E-01    2     1000023        24   # BR(chi^+_2 -> chi^0_2 W^+)
     1.08043560E-01    2     1000025        24   # BR(chi^+_2 -> chi^0_3 W^+)
     1.24119150E-01    2     1000024        23   # BR(chi^+_2 -> chi^+_1 Z)
     1.01746628E-01    2     1000024        25   # BR(chi^+_2 -> chi^+_1 h^0)
#    BR                NDA      ID1      ID2       ID3
     2.80217658E-09    3     1000024         2        -2   # BR(chi^+_2 -> chi^+_1 u u_bar)
     2.79856294E-09    3     1000024         4        -4   # BR(chi^+_2 -> chi^+_1 c c_bar)
     4.17941341E-09    3     1000024         1        -1   # BR(chi^+_2 -> chi^+_1 d d_bar)
     5.81808789E-09    3     1000024         3        -3   # BR(chi^+_2 -> chi^+_1 s s_bar)
     3.88366623E-06    3     1000024         5        -5   # BR(chi^+_2 -> chi^+_1 b b_bar)
     1.23795203E-06    3     1000024        11       -11   # BR(chi^+_2 -> chi^+_1 e^- e^+)
     1.26339383E-06    3     1000024        13       -13   # BR(chi^+_2 -> chi^+_1 mu^- mu^+)
     7.72491891E-06    3     1000024        15       -15   # BR(chi^+_2 -> chi^+_1 tau^- tau^+)
     1.98200937E-06    3     1000024        12       -12   # BR(chi^+_2 -> chi^+_1 nu_e nu_bar_e)
     8.04691579E-08    3     1000022        -1         2   # BR(chi^+_2 -> chi^0_1 d_bar u)
     8.04623135E-08    3     1000022        -3         4   # BR(chi^+_2 -> chi^0_1 s_bar c)
     1.07878339E-05    3     1000022        -5         6   # BR(chi^+_2 -> chi^0_1 b_bar t)
     1.16438212E-14    3     1000022       -11        12   # BR(chi^+_2 -> chi^0_1 e^+ nu_e)
     4.98224465E-10    3     1000022       -13        14   # BR(chi^+_2 -> chi^0_1 mu^+ nu_mu)
     1.66055597E-07    3     1000022       -15        16   # BR(chi^+_2 -> chi^0_1 tau^+ nu_tau)
     1.70998076E-09    3     1000023        -1         2   # BR(chi^+_2 -> chi^0_2 d_bar u)
     2.61089154E-09    3     1000023        -3         4   # BR(chi^+_2 -> chi^0_2 s_bar c)
     9.90609841E-06    3     1000023        -5         6   # BR(chi^+_2 -> chi^0_2 b_bar t)
     7.21168668E-07    3     1000023       -11        12   # BR(chi^+_2 -> chi^0_2 e^+ nu_e)
     7.32764464E-07    3     1000023       -13        14   # BR(chi^+_2 -> chi^0_2 mu^+ nu_mu)
     3.67551664E-06    3     1000023       -15        16   # BR(chi^+_2 -> chi^0_2 tau^+ nu_tau)
     4.58897987E-11    3     1000025        -1         2   # BR(chi^+_2 -> chi^0_3 d_bar u)
     6.06531615E-10    3     1000025        -3         4   # BR(chi^+_2 -> chi^0_3 s_bar c)
     1.84163158E-06    3     1000025        -5         6   # BR(chi^+_2 -> chi^0_3 b_bar t)
     1.03066196E-08    3     1000025       -11        12   # BR(chi^+_2 -> chi^0_3 e^+ nu_e)
     1.87933141E-08    3     1000025       -13        14   # BR(chi^+_2 -> chi^0_3 mu^+ nu_mu)
     2.22859114E-06    3     1000025       -15        16   # BR(chi^+_2 -> chi^0_3 tau^+ nu_tau)
DECAY   1000022     2.22498338E+00   # chi^0_1
#    BR                NDA      ID1      ID2
     1.21614114E-01    2     2000011       -11   # BR(chi^0_1 -> ~e^-_R e^+)
     1.21614114E-01    2    -2000011        11   # BR(chi^0_1 -> ~e^+_R e^-)
     1.22010515E-01    2     2000013       -13   # BR(chi^0_1 -> ~mu^-_R mu^+)
     1.22010515E-01    2    -2000013        13   # BR(chi^0_1 -> ~mu^+_R mu^-)
     2.56375370E-01    2     1000015       -15   # BR(chi^0_1 -> ~tau^-_1 tau^+)
     2.56375370E-01    2    -1000015        15   # BR(chi^0_1 -> ~tau^+_1 tau^-)
     2.50244901E-10    2     1000039        22   # BR(chi^0_1 -> ~G photon)
     7.50112633E-11    2     1000039        23   # BR(chi^0_1 -> ~G Z)
     1.45433129E-12    2     1000039        25   # BR(chi^0_1 -> ~G h^0)
DECAY   1000023     2.27136781E+00   # chi^0_2
#    BR                NDA      ID1      ID2
     6.82605955E-03    2     2000011       -11   # BR(chi^0_2 -> ~e^-_R e^+)
     6.82605955E-03    2    -2000011        11   # BR(chi^0_2 -> ~e^+_R e^-)
     2.37635928E-04    2     1000011       -11   # BR(chi^0_2 -> ~e^-_L e^+)
     2.37635928E-04    2    -1000011        11   # BR(chi^0_2 -> ~e^+_L e^-)
     7.94001915E-03    2     2000013       -13   # BR(chi^0_2 -> ~mu^-_R mu^+)
     7.94001915E-03    2    -2000013        13   # BR(chi^0_2 -> ~mu^+_R mu^-)
     2.42999682E-04    2     1000013       -13   # BR(chi^0_2 -> ~mu^-_L mu^+)
     2.42999682E-04    2    -1000013        13   # BR(chi^0_2 -> ~mu^+_L mu^-)
     3.94753832E-01    2     1000015       -15   # BR(chi^0_2 -> ~tau^-_1 tau^+)
     3.94753832E-01    2    -1000015        15   # BR(chi^0_2 -> ~tau^+_1 tau^-)
     2.61902917E-03    2     2000015       -15   # BR(chi^0_2 -> ~tau^-_2 tau^+)
     2.61902917E-03    2    -2000015        15   # BR(chi^0_2 -> ~tau^+_2 tau^-)
     1.34477050E-04    2     1000012       -12   # BR(chi^0_2 -> ~nu_e nu_bar_e)
     1.34477050E-04    2    -1000012        12   # BR(chi^0_2 -> ~nu^*_e nu_e)
     1.35004058E-04    2     1000014       -14   # BR(chi^0_2 -> ~nu_mu nu_bar_mu)
     1.35004058E-04    2    -1000014        14   # BR(chi^0_2 -> ~nu^*_mu nu_mu)
     3.19003806E-04    2     1000016       -16   # BR(chi^0_2 -> ~nu_tau nu_bar_tau)
     3.19003806E-04    2    -1000016        16   # BR(chi^0_2 -> ~nu^*_tau nu_tau)
     8.49017810E-03    2     1000022        23   # BR(chi^0_2 -> chi^0_1 Z)
     1.65066142E-01    2     1000022        25   # BR(chi^0_2 -> chi^0_1 h^0)
     1.60362869E-10    2     1000039        22   # BR(chi^0_2 -> ~G photon)
     7.28339479E-11    2     1000039        23   # BR(chi^0_2 -> ~G Z)
     1.36782150E-09    2     1000039        25   # BR(chi^0_2 -> ~G h^0)
     1.82224597E-07    2     1000022        22   # BR(chi^0_2 -> chi^0_1 photon)
#    BR                NDA      ID1      ID2       ID3
     2.38459870E-09    3     1000022         2        -2   # BR(chi^0_2 -> chi^0_1 u u_bar)
     2.38768433E-09    3     1000022         4        -4   # BR(chi^0_2 -> chi^0_1 c c_bar)
     8.91699165E-10    3     1000022         1        -1   # BR(chi^0_2 -> chi^0_1 d d_bar)
     4.19353836E-09    3     1000022         3        -3   # BR(chi^0_2 -> chi^0_1 s s_bar)
     7.80866221E-06    3     1000022         5        -5   # BR(chi^0_2 -> chi^0_1 b b_bar)
     1.00528563E-06    3     1000022        11       -11   # BR(chi^0_2 -> chi^0_1 e^- e^+)
     1.09257039E-06    3     1000022        13       -13   # BR(chi^0_2 -> chi^0_1 mu^- mu^+)
     1.74575983E-05    3     1000022        15       -15   # BR(chi^0_2 -> chi^0_1 tau^- tau^+)
     1.02946516E-11    3     1000024         1        -2   # BR(chi^0_2 -> chi^+_1 d u_bar)
     1.02946516E-11    3    -1000024        -1         2   # BR(chi^0_2 -> chi^-_1 d_bar u)
     1.81738624E-12    3     1000024         3        -4   # BR(chi^0_2 -> chi^+_1 s c_bar)
     1.81738624E-12    3    -1000024        -3         4   # BR(chi^0_2 -> chi^-_1 s_bar c)
     3.34296858E-12    3     1000024        11       -12   # BR(chi^0_2 -> chi^+_1 e^- nu_bar_e)
     3.34296858E-12    3    -1000024       -11        12   # BR(chi^0_2 -> chi^-_1 e^+ nu_e)
     3.30468238E-12    3     1000024        13       -14   # BR(chi^0_2 -> chi^+_1 mu^- nu_bar_mu)
     3.30468238E-12    3    -1000024       -13        14   # BR(chi^0_2 -> chi^-_1 mu^+ nu_mu)
     5.27550277E-14    3     1000024        15       -16   # BR(chi^0_2 -> chi^+_1 tau^- nu_bar_tau)
     5.27550277E-14    3    -1000024       -15        16   # BR(chi^0_2 -> chi^-_1 tau^+ nu_tau)
DECAY   1000025     2.20861789E+00   # chi^0_3
#    BR                NDA      ID1      ID2
     3.16604099E-04    2     2000011       -11   # BR(chi^0_3 -> ~e^-_R e^+)
     3.16604099E-04    2    -2000011        11   # BR(chi^0_3 -> ~e^+_R e^-)
     1.77701098E-06    2     1000011       -11   # BR(chi^0_3 -> ~e^-_L e^+)
     1.77701098E-06    2    -1000011        11   # BR(chi^0_3 -> ~e^+_L e^-)
     1.46752190E-03    2     2000013       -13   # BR(chi^0_3 -> ~mu^-_R mu^+)
     1.46752190E-03    2    -2000013        13   # BR(chi^0_3 -> ~mu^+_R mu^-)
     1.74529789E-05    2     1000013       -13   # BR(chi^0_3 -> ~mu^-_L mu^+)
     1.74529789E-05    2    -1000013        13   # BR(chi^0_3 -> ~mu^+_L mu^-)
     4.00223104E-01    2     1000015       -15   # BR(chi^0_3 -> ~tau^-_1 tau^+)
     4.00223104E-01    2    -1000015        15   # BR(chi^0_3 -> ~tau^+_1 tau^-)
     6.12536839E-03    2     2000015       -15   # BR(chi^0_3 -> ~tau^-_2 tau^+)
     6.12536839E-03    2    -2000015        15   # BR(chi^0_3 -> ~tau^+_2 tau^-)
     1.42895069E-05    2     1000012       -12   # BR(chi^0_3 -> ~nu_e nu_bar_e)
     1.42895069E-05    2    -1000012        12   # BR(chi^0_3 -> ~nu^*_e nu_e)
     1.43247698E-05    2     1000014       -14   # BR(chi^0_3 -> ~nu_mu nu_bar_mu)
     1.43247698E-05    2    -1000014        14   # BR(chi^0_3 -> ~nu^*_mu nu_mu)
     2.56688854E-05    2     1000016       -16   # BR(chi^0_3 -> ~nu_tau nu_bar_tau)
     2.56688854E-05    2    -1000016        16   # BR(chi^0_3 -> ~nu^*_tau nu_tau)
     1.76409493E-01    2     1000022        23   # BR(chi^0_3 -> chi^0_1 Z)
     7.14604614E-03    2     1000022        25   # BR(chi^0_3 -> chi^0_1 h^0)
     8.24757910E-14    2     1000039        22   # BR(chi^0_3 -> ~G photon)
     3.14311769E-10    2     1000039        23   # BR(chi^0_3 -> ~G Z)
     1.58436092E-09    2     1000039        25   # BR(chi^0_3 -> ~G h^0)
     1.02102697E-07    2     1000022        22   # BR(chi^0_3 -> chi^0_1 photon)
     1.15275662E-09    2     1000023        22   # BR(chi^0_3 -> chi^0_2 photon)
#    BR                NDA      ID1      ID2       ID3
     3.39045167E-11    3     1000022         2        -2   # BR(chi^0_3 -> chi^0_1 u u_bar)
     4.04122825E-11    3     1000022         4        -4   # BR(chi^0_3 -> chi^0_1 c c_bar)
     1.84634975E-11    3     1000022         1        -1   # BR(chi^0_3 -> chi^0_1 d d_bar)
     4.20041296E-09    3     1000022         3        -3   # BR(chi^0_3 -> chi^0_1 s s_bar)
     9.86320840E-06    3     1000022         5        -5   # BR(chi^0_3 -> chi^0_1 b b_bar)
     1.99629790E-08    3     1000022        11       -11   # BR(chi^0_3 -> chi^0_1 e^- e^+)
     1.29023645E-07    3     1000022        13       -13   # BR(chi^0_3 -> chi^0_1 mu^- mu^+)
     2.03611605E-05    3     1000022        15       -15   # BR(chi^0_3 -> chi^0_1 tau^- tau^+)
     3.63010460E-08    3     1000023         2        -2   # BR(chi^0_3 -> chi^0_2 u u_bar)
     3.47059594E-08    3     1000023         4        -4   # BR(chi^0_3 -> chi^0_2 c c_bar)
     4.71178384E-08    3     1000023         1        -1   # BR(chi^0_3 -> chi^0_2 d d_bar)
     4.70991711E-08    3     1000023         3        -3   # BR(chi^0_3 -> chi^0_2 s s_bar)
     2.21684202E-08    3     1000023         5        -5   # BR(chi^0_3 -> chi^0_2 b b_bar)
     1.08419342E-08    3     1000023        11       -11   # BR(chi^0_3 -> chi^0_2 e^- e^+)
     1.08326997E-08    3     1000023        13       -13   # BR(chi^0_3 -> chi^0_2 mu^- mu^+)
     8.36429771E-09    3     1000023        15       -15   # BR(chi^0_3 -> chi^0_2 tau^- tau^+)
     6.47908633E-08    3     1000023        12       -12   # BR(chi^0_3 -> chi^0_2 nu_e nu_bar_e)
     2.49278238E-07    3     1000024         1        -2   # BR(chi^0_3 -> chi^+_1 d u_bar)
     2.49278238E-07    3    -1000024        -1         2   # BR(chi^0_3 -> chi^-_1 d_bar u)
     2.42704761E-07    3     1000024         3        -4   # BR(chi^0_3 -> chi^+_1 s c_bar)
     2.42704761E-07    3    -1000024        -3         4   # BR(chi^0_3 -> chi^-_1 s_bar c)
     8.29940622E-08    3     1000024        11       -12   # BR(chi^0_3 -> chi^+_1 e^- nu_bar_e)
     8.29940622E-08    3    -1000024       -11        12   # BR(chi^0_3 -> chi^-_1 e^+ nu_e)
     8.29939150E-08    3     1000024        13       -14   # BR(chi^0_3 -> chi^+_1 mu^- nu_bar_mu)
     8.29939150E-08    3    -1000024       -13        14   # BR(chi^0_3 -> chi^-_1 mu^+ nu_mu)
     7.83728261E-08    3     1000024        15       -16   # BR(chi^0_3 -> chi^+_1 tau^- nu_bar_tau)
     7.83728261E-08    3    -1000024       -15        16   # BR(chi^0_3 -> chi^-_1 tau^+ nu_tau)
DECAY   1000035     7.56687809E+00   # chi^0_4
#    BR                NDA      ID1      ID2
     1.04969471E-04    2     2000011       -11   # BR(chi^0_4 -> ~e^-_R e^+)
     1.04969471E-04    2    -2000011        11   # BR(chi^0_4 -> ~e^+_R e^-)
     4.08759457E-02    2     1000011       -11   # BR(chi^0_4 -> ~e^-_L e^+)
     4.08759457E-02    2    -1000011        11   # BR(chi^0_4 -> ~e^+_L e^-)
     1.05394596E-04    2     2000013       -13   # BR(chi^0_4 -> ~mu^-_R mu^+)
     1.05394596E-04    2    -2000013        13   # BR(chi^0_4 -> ~mu^+_R mu^-)
     4.08960175E-02    2     1000013       -13   # BR(chi^0_4 -> ~mu^-_L mu^+)
     4.08960175E-02    2    -1000013        13   # BR(chi^0_4 -> ~mu^+_L mu^-)
     7.88557907E-04    2     1000015       -15   # BR(chi^0_4 -> ~tau^-_1 tau^+)
     7.88557907E-04    2    -1000015        15   # BR(chi^0_4 -> ~tau^+_1 tau^-)
     4.67866482E-02    2     2000015       -15   # BR(chi^0_4 -> ~tau^-_2 tau^+)
     4.67866482E-02    2    -2000015        15   # BR(chi^0_4 -> ~tau^+_2 tau^-)
     4.43591547E-02    2     1000012       -12   # BR(chi^0_4 -> ~nu_e nu_bar_e)
     4.43591547E-02    2    -1000012        12   # BR(chi^0_4 -> ~nu^*_e nu_e)
     4.43759996E-02    2     1000014       -14   # BR(chi^0_4 -> ~nu_mu nu_bar_mu)
     4.43759996E-02    2    -1000014        14   # BR(chi^0_4 -> ~nu^*_mu nu_mu)
     4.91288209E-02    2     1000016       -16   # BR(chi^0_4 -> ~nu_tau nu_bar_tau)
     4.91288209E-02    2    -1000016        16   # BR(chi^0_4 -> ~nu^*_tau nu_tau)
     1.29789894E-01    2     1000024       -24   # BR(chi^0_4 -> chi^+_1 W^-)
     1.29789894E-01    2    -1000024        24   # BR(chi^0_4 -> chi^-_1 W^+)
     1.79594264E-04    2     1000022        23   # BR(chi^0_4 -> chi^0_1 Z)
     1.95376893E-03    2     1000023        23   # BR(chi^0_4 -> chi^0_2 Z)
     9.96344241E-02    2     1000025        23   # BR(chi^0_4 -> chi^0_3 Z)
     1.72918016E-03    2     1000022        25   # BR(chi^0_4 -> chi^0_1 h^0)
     1.01234177E-01    2     1000023        25   # BR(chi^0_4 -> chi^0_2 h^0)
     7.98201352E-04    2     1000025        25   # BR(chi^0_4 -> chi^0_3 h^0)
     6.07019711E-10    2     1000039        22   # BR(chi^0_4 -> ~G photon)
     2.62067542E-09    2     1000039        23   # BR(chi^0_4 -> ~G Z)
     1.38534848E-10    2     1000039        25   # BR(chi^0_4 -> ~G h^0)
     2.23260159E-07    2     1000022        22   # BR(chi^0_4 -> chi^0_1 photon)
     9.21150292E-07    2     1000023        22   # BR(chi^0_4 -> chi^0_2 photon)
     8.23312014E-07    2     1000025        22   # BR(chi^0_4 -> chi^0_3 photon)
#    BR                NDA      ID1      ID2       ID3
     3.55631273E-08    3     1000022         2        -2   # BR(chi^0_4 -> chi^0_1 u u_bar)
     3.55599814E-08    3     1000022         4        -4   # BR(chi^0_4 -> chi^0_1 c c_bar)
     1.27962184E-06    3     1000022         6        -6   # BR(chi^0_4 -> chi^0_1 t t_bar)
     4.51060512E-08    3     1000022         1        -1   # BR(chi^0_4 -> chi^0_1 d d_bar)
     4.51061501E-08    3     1000022         3        -3   # BR(chi^0_4 -> chi^0_1 s s_bar)
     5.35921455E-08    3     1000022         5        -5   # BR(chi^0_4 -> chi^0_1 b b_bar)
     5.77702357E-08    3     1000022        11       -11   # BR(chi^0_4 -> chi^0_1 e^- e^+)
     5.76114540E-08    3     1000022        13       -13   # BR(chi^0_4 -> chi^0_1 mu^- mu^+)
     1.88192653E-07    3     1000022        15       -15   # BR(chi^0_4 -> chi^0_1 tau^- tau^+)
     2.84858282E-09    3     1000023         2        -2   # BR(chi^0_4 -> chi^0_2 u u_bar)
     2.84643625E-09    3     1000023         4        -4   # BR(chi^0_4 -> chi^0_2 c c_bar)
     2.11872829E-09    3     1000023         1        -1   # BR(chi^0_4 -> chi^0_2 d d_bar)
     2.82464162E-09    3     1000023         3        -3   # BR(chi^0_4 -> chi^0_2 s s_bar)
     1.67240528E-06    3     1000023         5        -5   # BR(chi^0_4 -> chi^0_2 b b_bar)
     1.07717678E-06    3     1000023        11       -11   # BR(chi^0_4 -> chi^0_2 e^- e^+)
     1.08907026E-06    3     1000023        13       -13   # BR(chi^0_4 -> chi^0_2 mu^- mu^+)
     4.25719900E-06    3     1000023        15       -15   # BR(chi^0_4 -> chi^0_2 tau^- tau^+)
     1.10077610E-06    3     1000023        12       -12   # BR(chi^0_4 -> chi^0_2 nu_e nu_bar_e)
     5.41505522E-12    3     1000025         2        -2   # BR(chi^0_4 -> chi^0_3 u u_bar)
     5.81324003E-12    3     1000025         4        -4   # BR(chi^0_4 -> chi^0_3 c c_bar)
     1.12113621E-11    3     1000025         1        -1   # BR(chi^0_4 -> chi^0_3 d d_bar)
     6.23435810E-10    3     1000025         3        -3   # BR(chi^0_4 -> chi^0_3 s s_bar)
     1.44384214E-06    3     1000025         5        -5   # BR(chi^0_4 -> chi^0_3 b b_bar)
     6.62241128E-10    3     1000025        11       -11   # BR(chi^0_4 -> chi^0_3 e^- e^+)
     8.41009015E-09    3     1000025        13       -13   # BR(chi^0_4 -> chi^0_3 mu^- mu^+)
     2.01207436E-06    3     1000025        15       -15   # BR(chi^0_4 -> chi^0_3 tau^- tau^+)
     1.11626269E-08    3     1000025        12       -12   # BR(chi^0_4 -> chi^0_3 nu_e nu_bar_e)
     1.80625804E-09    3     1000024         1        -2   # BR(chi^0_4 -> chi^+_1 d u_bar)
     1.80625804E-09    3    -1000024        -1         2   # BR(chi^0_4 -> chi^-_1 d_bar u)
     2.69482369E-09    3     1000024         3        -4   # BR(chi^0_4 -> chi^+_1 s c_bar)
     2.69482369E-09    3    -1000024        -3         4   # BR(chi^0_4 -> chi^-_1 s_bar c)
     1.12381863E-05    3     1000024         5        -6   # BR(chi^0_4 -> chi^+_1 b t_bar)
     1.12381863E-05    3    -1000024        -5         6   # BR(chi^0_4 -> chi^-_1 b_bar t)
     6.78831864E-07    3     1000024        11       -12   # BR(chi^0_4 -> chi^+_1 e^- nu_bar_e)
     6.78831864E-07    3    -1000024       -11        12   # BR(chi^0_4 -> chi^-_1 e^+ nu_e)
     6.89896827E-07    3     1000024        13       -14   # BR(chi^0_4 -> chi^+_1 mu^- nu_bar_mu)
     6.89896827E-07    3    -1000024       -13        14   # BR(chi^0_4 -> chi^-_1 mu^+ nu_mu)
     3.08680382E-06    3     1000024        15       -16   # BR(chi^0_4 -> chi^+_1 tau^- nu_bar_tau)
     3.08680382E-06    3    -1000024       -15        16   # BR(chi^0_4 -> chi^-_1 tau^+ nu_tau)
DECAY   1000021     1.54394320E+01   # ~g
#    BR                NDA      ID1      ID2
     4.06629244E-02    2     2000002        -2   # BR(~g -> ~u_R u_bar)
     4.06629244E-02    2    -2000002         2   # BR(~g -> ~u^*_R u)
     1.06928486E-02    2     1000002        -2   # BR(~g -> ~u_L u_bar)
     1.06928486E-02    2    -1000002         2   # BR(~g -> ~u^*_L u)
     4.06628219E-02    2     2000004        -4   # BR(~g -> ~c_R c_bar)
     4.06628219E-02    2    -2000004         4   # BR(~g -> ~c^*_R c)
     1.06964050E-02    2     1000004        -4   # BR(~g -> ~c_L c_bar)
     1.06964050E-02    2    -1000004         4   # BR(~g -> ~c^*_L c)
     8.24696955E-03    2     1000006        -4   # BR(~g -> ~t_1 c_bar)
     8.24696955E-03    2    -1000006         4   # BR(~g -> ~t^*_1 c)
     1.01832247E-01    2     1000006        -6   # BR(~g -> ~t_1 t_bar)
     1.01832247E-01    2    -1000006         6   # BR(~g -> ~t^*_1 t)
     3.96131479E-02    2     2000006        -6   # BR(~g -> ~t_2 t_bar)
     3.96131479E-02    2    -2000006         6   # BR(~g -> ~t^*_2 t)
     4.40585889E-02    2     2000001        -1   # BR(~g -> ~d_R d_bar)
     4.40585889E-02    2    -2000001         1   # BR(~g -> ~d^*_R d)
     1.04326563E-02    2     1000001        -1   # BR(~g -> ~d_L d_bar)
     1.04326563E-02    2    -1000001         1   # BR(~g -> ~d^*_L d)
     4.40742140E-02    2     2000003        -3   # BR(~g -> ~s_R s_bar)
     4.40742140E-02    2    -2000003         3   # BR(~g -> ~s^*_R s)
     1.04365139E-02    2     1000003        -3   # BR(~g -> ~s_L s_bar)
     1.04365139E-02    2    -1000003         3   # BR(~g -> ~s^*_L s)
     8.82989556E-02    2     1000005        -5   # BR(~g -> ~b_1 b_bar)
     8.82989556E-02    2    -1000005         5   # BR(~g -> ~b^*_1 b)
     5.01365697E-02    2     2000005        -5   # BR(~g -> ~b_2 b_bar)
     5.01365697E-02    2    -2000005         5   # BR(~g -> ~b^*_2 b)
     1.62840375E-06    2     1000022        21   # BR(~g -> chi^0_1 g)
     1.27879278E-04    2     1000023        21   # BR(~g -> chi^0_2 g)
     1.62668927E-04    2     1000025        21   # BR(~g -> chi^0_3 g)
     1.80980607E-05    2     1000035        21   # BR(~g -> chi^0_4 g)
DECAY        25     2.48049008E-03   # h^0
#    BR                NDA      ID1      ID2
     1.08930140E-08    2          11       -11   # BR(h^0 -> e^- e^+)
     4.65663589E-04    2          13       -13   # BR(h^0 -> mu^- mu^+)
     1.28232832E-01    2          15       -15   # BR(h^0 -> tau^- tau^+)
     6.06084749E-07    2           1        -1   # BR(h^0 -> d d_bar)
     2.67277868E-04    2           3        -3   # BR(h^0 -> s s_bar)
     5.81298554E-01    2           5        -5   # BR(h^0 -> b b_bar)
     2.69422919E-07    2           2        -2   # BR(h^0 -> u u_bar)
     4.82736057E-02    2           4        -4   # BR(h^0 -> c c_bar)
     7.26849333E-02    2          21        21   # BR(h^0 -> g g)
     3.55203059E-03    2          22        22   # BR(h^0 -> photon photon)
# writing decays into V V* as 3-body decays
#    BR                NDA      ID1      ID2       ID3
     7.56172128E-03    3          24        11        12   # BR(h^0 -> W^+ e^- nu_e)
     7.56172128E-03    3          24        13        14   # BR(h^0 -> W^+ mu^- nu_mu)
     7.56172128E-03    3          24        15        16   # BR(h^0 -> W^+ tau^- nu_tau)
     2.64660245E-02    3          24         1        -2   # BR(h^0 -> W^+ d u_bar)
     2.64660245E-02    3          24         3        -4   # BR(h^0 -> W^+ s c_bar)
     7.56172128E-03    3         -24       -11       -12   # BR(h^0 -> W^- e^+ nu_bar_e)
     7.56172128E-03    3         -24       -13       -14   # BR(h^0 -> W^- mu^+ nu_bar_mu)
     7.56172128E-03    3         -24       -15       -16   # BR(h^0 -> W^- tau^+ nu_bar_tau)
     2.64660245E-02    3         -24        -1         2   # BR(h^0 -> W^- d_bar u)
     2.64660245E-02    3         -24        -3         4   # BR(h^0 -> W^- s_bar c)
     4.89642688E-04    3          23        11       -11   # BR(h^0 -> Z e^- e^+)
     4.89642688E-04    3          23        13       -13   # BR(h^0 -> Z mu^- mu^+)
     4.19693732E-04    3          23        15       -15   # BR(h^0 -> Z tau^- tau^+)
     2.79795822E-03    3          23        12       -12   # BR(h^0 -> Z nu_e nu_bar_e)
     1.95857075E-03    3          23         1        -1   # BR(h^0 -> Z u u_bar)
     1.95857075E-03    3          23         3        -3   # BR(h^0 -> Z c c_bar)
     1.95857075E-03    3          23         5        -5   # BR(h^0 -> Z t t_bar)
     1.95857075E-03    3          23         2        -2   # BR(h^0 -> Z u u_bar)
     1.95857075E-03    3          23         4        -4   # BR(h^0 -> Z c c_bar)
DECAY        35     2.23423274E+01   # H^0
#    BR                NDA      ID1      ID2
     1.67663379E-08    2          11       -11   # BR(H^0 -> e^- e^+)
     7.16830602E-04    2          13       -13   # BR(H^0 -> mu^- mu^+)
     2.04374684E-01    2          15       -15   # BR(H^0 -> tau^- tau^+)
     7.70299739E-07    2           1        -1   # BR(H^0 -> d d_bar)
     3.39701589E-04    2           3        -3   # BR(H^0 -> s s_bar)
     7.93908044E-01    2           5        -5   # BR(H^0 -> b b_bar)
     7.07496010E-14    2           2        -2   # BR(H^0 -> u u_bar)
     1.26791484E-08    2           4        -4   # BR(H^0 -> c c_bar)
     5.58888365E-04    2           6        -6   # BR(H^0 -> t t_bar)
     1.25098897E-05    2     1000015  -1000015   # BR(H^0 -> ~tau^-_1 ~tau^+_1)
     4.03998289E-06    2          23        23   # BR(H^0 -> Z Z)
     7.78744001E-06    2          24       -24   # BR(H^0 -> W^+ W^-)
     1.05095624E-05    2          25        25   # BR(H^0 -> h^0 h^0)
     6.61148268E-05    2          21        21   # BR(H^0 -> g g)
     9.06583015E-08    2          22        22   # BR(H^0 -> photon photon)
DECAY        36     2.23421718E+01   # A^0
#    BR                NDA      ID1      ID2
     1.67664332E-08    2          11       -11   # BR(A^0 -> e^- e^+)
     7.16834736E-04    2          13       -13   # BR(A^0 -> mu^- mu^+)
     2.04380456E-01    2          15       -15   # BR(A^0 -> tau^- tau^+)
     7.70303748E-07    2           1        -1   # BR(A^0 -> d d_bar)
     3.39703350E-04    2           3        -3   # BR(A^0 -> s s_bar)
     7.93931725E-01    2           5        -5   # BR(A^0 -> b b_bar)
     6.30958430E-14    2           2        -2   # BR(A^0 -> u u_bar)
     1.13075070E-08    2           4        -4   # BR(A^0 -> c c_bar)
     6.03022201E-04    2           6        -6   # BR(A^0 -> t t_bar)
     7.41816051E-06    2          25        23   # BR(A^0 -> h^0 Z)
     2.00029718E-05    2          21        21   # BR(A^0 -> g g)
     3.94179036E-08    2          22        22   # BR(A^0 -> photon photon)
DECAY        37     1.87977415E+01   # H^+
#    BR                NDA      ID1      ID2
     2.00644159E-08    2         -11        12   # BR(H^+ -> e^+ nu_e)
     8.57837209E-04    2         -13        12   # BR(H^+ -> mu^+ nu_e)
     2.44582436E-01    2         -15        12   # BR(H^+ -> tau^+ nu_e)
     8.14474298E-07    2          -1         2   # BR(H^+ -> d_bar u)
     3.59192402E-04    2          -3         4   # BR(H^+ -> s_bar c)
     7.54190841E-01    2          -5         6   # BR(H^+ -> b_bar t)
     8.85811781E-06    2          25        24   # BR(H^+ -> h^0 W^+)
DECAY         6     2.43000000E+00   # top
#    BR                NDA      ID1      ID2
     1.00000000E+00    2           5        24   # BR(t -> b W)
Block HiggsBoundsInputHiggsCouplingsFermions
# ScalarNormEffCoupSq PseudoSNormEffCoupSq NP IP1 IP2 IP2
    1.12125519E+00    0.00000000E+00        3  25   5   5  # h0-b-b eff. coupling^2, normalised to SM
    2.49987874E+03    0.00000000E+00        3  35   5   5  # H0-b-b eff. coupling^2, normalised to SM
    0.00000000E+00    2.50000000E+03        3  36   5   5  # A0-b-b eff. coupling^2, normalised to SM
#
    9.99951498E-01    0.00000000E+00        3  25   6   6  # h0-t-t eff. coupling^2, normalised to SM
    4.48502077E-04    0.00000000E+00        3  35   6   6  # H0-t-t eff. coupling^2, normalised to SM
    0.00000000E+00    4.00000000E-04        3  36   6   6  # A0-t-t eff. coupling^2, normalised to SM
#
    1.12125519E+00    0.00000000E+00        3  25  15  15  # h0-tau-tau eff. coupling^2, normalised to SM
    2.49987874E+03    0.00000000E+00        3  35  15  15  # H0-tau-tau eff. coupling^2, normalised to SM
    0.00000000E+00    2.50000000E+03        3  36  15  15  # A0-tau-tau eff. coupling^2, normalised to SM
#
Block HiggsBoundsInputHiggsCouplingsBosons
    9.99998613E-01        3  25  24  24  # h0-W-W eff. coupling^2, normalised to SM
    1.38740480E-06        3  35  24  24  # H0-W-W eff. coupling^2, normalised to SM
    0.00000000E+00        3  36  24  24  # A0-W-W eff. coupling^2, normalised to SM
#
    9.99998613E-01        3  25  23  23  # h0-Z-Z eff. coupling^2, normalised to SM
    1.38740480E-06        3  35  23  23  # H0-Z-Z eff. coupling^2, normalised to SM
    0.00000000E+00        3  36  23  23  # A0-Z-Z eff. coupling^2, normalised to SM
#
    1.16091841E+00        3  25  21  21  # h0-g-g eff. coupling^2, normalised to SM
    4.91390094E-02        3  35  21  21  # H0-g-g eff. coupling^2, normalised to SM
    2.05105425E-01        3  36  21  21  # A0-g-g eff. coupling^2, normalised to SM
#
    0.00000000E+00        3  25  25  23  # h0-h0-Z eff. coupling^2, normalised to SM
    0.00000000E+00        3  35  25  23  # H0-h0-Z eff. coupling^2, normalised to SM
    1.38740480E-06        3  36  25  23  # A0-h0-Z eff. coupling^2, normalised to SM
    0.00000000E+00        3  35  35  23  # H0-H0-Z eff. coupling^2, normalised to SM
    9.99998613E-01        3  36  35  23  # A0-H0-Z eff. coupling^2, normalised to SM
    0.00000000E+00        3  36  36  23  # A0-A0-Z eff. coupling^2, normalised to SM
#
    0.00000000E+00        4  25  21  21  23  # h0-g-g-Z eff. coupling^2, normalised to SM
    0.00000000E+00        4  35  21  21  23  # H0-g-g-Z eff. coupling^2, normalised to SM
    0.00000000E+00        4  36  21  21  23  # A0-g-g-Z eff. coupling^2, normalised to SM
Block SPhenoLowEnergy  # low energy observables
    1    3.18944136E-04   # BR(b -> s gamma)
    2    1.58967530E-06   # BR(b -> s mu+ mu-)
    3    3.53905561E-05   # BR(b -> s nu nu)
    4    6.18021955E-11   # BR(Bd -> mu+ mu-)
    5    4.06391951E-09   # BR(Bs -> mu+ mu-)
    6    9.42214843E-05   # BR(B_u -> tau nu)
    7    8.51963577E-01   # BR(B_u -> tau nu)/BR(B_u -> tau nu)_SM
    8    2.73381829E-01   # |Delta(M_Bd)| [ps^-1] 
    9    2.02340183E+01   # |Delta(M_Bs)| [ps^-1] 
   20    3.78314750E-14   # Delta(g-2)_electron/2
   21    8.22565073E-10   # Delta(g-2)_muon/2
   22    7.88427477E-08   # Delta(g-2)_tau/2
   23    0.00000000E+00   # electric dipole moment of the electron
   24    0.00000000E+00   # electric dipole moment of the muon
   25    0.00000000E+00   # electric dipole moment of the tau
   26    0.00000000E+00   # Br(mu -> e gamma)
   27    0.00000000E+00   # Br(tau -> e gamma)
   28    0.00000000E+00   # Br(tau -> mu gamma)
   29    0.00000000E+00   # Br(mu -> 3 e)
   30    0.00000000E+00   # Br(tau -> 3 e)
   31    0.00000000E+00   # Br(tau -> 3 mu)
   39    1.71599393E-03   # Delta(rho_parameter)
   40    0.00000000E+00   # BR(Z -> e mu)
   41    0.00000000E+00   # BR(Z -> e tau)
   42    0.00000000E+00   # BR(Z -> mu tau)
Block FWCOEF Q=  9.11876000E+01  # Wilson coefficients at scale Q
#    id        order  M        value         comment
Block FWCOEF Q=  1.60000000E+02  # Wilson coefficients at scale Q
#    id        order  M        value         comment
     0305 4422   00   0    -1.87763559E-01   # C7
     0305 4422   00   1    -1.90233909E-02   # C7
     0305 4322   00   1    -4.04275818E-04   # C7'
     0305 6421   00   0    -9.48913469E-02   # C8
     0305 6421   00   1    -3.09477660E-02   # C8
     0305 6321   00   1    -6.53883648E-04   # C8'
 03051111 4133   00   0    -1.18175160E+00   # C9 e+e-
 03051111 4133   00   1     9.43652015E-04   # C9 e+e-
 03051111 4233   00   1    -1.38765591E-04   # C9' e+e-
 03051111 4137   00   0    -3.95207249E+00   # C10 e+e-
 03051111 4137   00   1     3.32930316E-03   # C10 e+e-
 03051111 4237   00   1     3.48096833E-03   # C10' e+e-
 03051313 4133   00   0    -1.18175160E+00   # C9 mu+mu-
 03051313 4133   00   1     9.43321630E-04   # C9 mu+mu-
 03051313 4233   00   1    -1.38851470E-04   # C9' mu+mu-
 03051313 4137   00   0    -3.95207249E+00   # C10 mu+mu-
 03051313 4137   00   1     3.32897243E-03   # C10 mu+mu-
 03051313 4237   00   1     3.48105425E-03   # C10' mu+mu-
 03051212 4237   00   0     1.49023395E+00   # C11 nu_1 nu_1
 03051212 4237   00   1    -8.01016020E-04   # C11 nu_1 nu_1
 03051212 4137   00   1    -8.35733650E-04   # C11' nu_1 nu_1
 03051414 4237   00   0     1.49023395E+00   # C11 nu_2 nu_2
 03051414 4237   00   1    -8.01015784E-04   # C11 nu_2 nu_2
 03051414 4137   00   1    -8.35713100E-04   # C11' nu_2 nu_2
 03051616 4237   00   0     1.49023395E+00   # C11 nu_3 nu_3
 03051616 4237   00   1    -8.00840887E-04   # C11 nu_3 nu_3
 03051616 4137   00   1    -8.29920879E-04   # C11' nu_3 nu_3
