# SUSY Les Houches Accord 2 - MSSM spectrum + Decays
# SPheno v3.1.12 
# W. Porod, Comput. Phys. Commun. 153 (2003) 275-315, hep-ph/0301101
# in case of problems send email to porod@physik.uni-wuerzburg.de
# Created: 09.12.2016,  15:23
Block SPINFO         # Program information
     1   SPheno      # spectrum calculator
     2   v3.1.12     # version number
#
Block SPhenoINFO     # SPheno specific information
    1      2         # using 2-loop RGEs
    2      1         # using running masses for boundary conditions at mZ
Block MODSEL  # Model selection
    1    2    # mGMSB model
Block MINPAR  # Input parameters
    1    1.50000000E+05  # Lambda, scale of SUSY breaking
    2    2.50000000E+05  # M_M, messenger mass scale
    3    5.00000000E+00  # tanb at m_Z   
    4    1.00000000E+00  # Sign(mu)
    5    3.00000000E+00  # N_5 number of effective five-plets
    6    1.00000000E+00  # c_grav, Gravitino mass factor
Block gauge Q=  2.50000000E+05  # (GMSB scale)
   1    4.92870705E-01  # g'(Q)^DRbar
   2    6.46262352E-01  # g(Q)^DRbar
   3    9.31976543E-01  # g3(Q)^DRbar
Block SMINPUTS  # SM parameters
         1     1.27932426E+02  # alpha_em^-1(MZ)^MSbar
         2     1.16639000E-05  # G_mu [GeV^-2]
         3     1.17200000E-01  # alpha_s(MZ)^MSbar
         4     9.11876000E+01  # m_Z(pole)
         5     4.20000000E+00  # m_b(m_b), MSbar
         6     1.72500000E+02  # m_t(pole)
         7     1.77700000E+00  # m_tau(pole)
         8     0.00000000E+00  # m_nu_3
        11     5.10998910E-04  # m_e(pole)
        12     0.00000000E+00  # m_nu_1
        13     1.05658000E-01  # m_muon(pole)
        14     0.00000000E+00  # m_nu_2
        21     5.00000000E-03  # m_d(2 GeV), MSbar
        22     3.00000000E-03  # m_u(2 GeV), MSbar
        23     1.05000000E-01  # m_s(2 GeV), MSbar
        24     1.27000000E+00  # m_c(m_c), MSbar
Block gauge Q=  2.81943696E+03  # (SUSY scale)
   1    3.65246567E-01  # g'(Q)^DRbar
   2    6.37369008E-01  # g(Q)^DRbar
   3    1.00699323E+00  # g3(Q)^DRbar
Block Yu Q=  2.81943696E+03  # (SUSY scale)
  1  1     8.44692287E-06   # Y_u(Q)^DRbar
  2  2     3.57586444E-03   # Y_c(Q)^DRbar
  3  3     8.49876787E-01   # Y_t(Q)^DRbar
Block Yd Q=  2.81943696E+03  # (SUSY scale)
  1  1     6.61632003E-05   # Y_d(Q)^DRbar
  2  2     1.38942670E-03   # Y_s(Q)^DRbar
  3  3     6.50578281E-02   # Y_b(Q)^DRbar
Block Ye Q=  2.81943696E+03  # (SUSY scale)
  1  1     1.43360939E-05   # Y_e(Q)^DRbar
  2  2     2.96423953E-03   # Y_mu(Q)^DRbar
  3  3     4.98553808E-02   # Y_tau(Q)^DRbar
Block Au Q=  2.81943696E+03  # (SUSY scale)
  1  1    -8.47089396E+02   # A_u(Q)^DRbar
  2  2    -8.47088530E+02   # A_c(Q)^DRbar
  3  3    -8.01017383E+02   # A_t(Q)^DRbar
Block Ad Q=  2.81943696E+03  # (SUSY scale)
  1  1    -9.01222286E+02   # A_d(Q)^DRbar
  2  2    -9.01221889E+02   # A_s(Q)^DRbar
  3  3    -8.85995330E+02   # A_b(Q)^DRbar
Block Ae Q=  2.81943696E+03  # (SUSY scale)
  1  1    -1.02672347E+02   # A_e(Q)^DRbar
  2  2    -1.02672262E+02   # A_mu(Q)^DRbar
  3  3    -1.02648204E+02   # A_tau(Q)^DRbar
Block MSOFT Q=  2.81943696E+03  # soft SUSY breaking masses at Q
   1    6.74472603E+02  # M_1
   2    1.22852146E+03  # M_2
   3    3.07914070E+03  # M_3
  21    8.56469017E+05  # M^2_(H,d)
  22   -7.66822914E+05  # M^2_(H,u)
  31    9.30818455E+02  # M_(L,11)
  32    9.30817985E+02  # M_(L,22)
  33    9.30685651E+02  # M_(L,33)
  34    4.52806697E+02  # M_(E,11)
  35    4.52804733E+02  # M_(E,22)
  36    4.52250798E+02  # M_(E,33)
  41    2.92827340E+03  # M_(Q,11)
  42    2.92827163E+03  # M_(Q,22)
  43    2.84182437E+03  # M_(Q,33)
  44    2.80602516E+03  # M_(U,11)
  45    2.80602194E+03  # M_(U,22)
  46    2.61998930E+03  # M_(U,33)
  47    2.79401494E+03  # M_(D,11)
  48    2.79401444E+03  # M_(D,22)
  49    2.79292549E+03  # M_(D,33)
Block MASS  # Mass spectrum
#   PDG code      mass          particle
         6     1.72500000E+02  # m_t(pole)
        23     9.11876000E+01  # m_Z(pole)
        24     8.03173677E+01  # W+
        15     1.77700000E+00  # m_tau(pole)
        25     1.16078983E+02  # h0
        35     1.42251748E+03  # H0
        36     1.42187132E+03  # A0
        37     1.42394630E+03  # H+
   1000001     3.04877312E+03  # ~d_L
   2000001     2.90723160E+03  # ~d_R
   1000002     3.04780320E+03  # ~u_L
   2000002     2.91848244E+03  # ~u_R
   1000003     3.04877099E+03  # ~s_L
   2000003     2.90723096E+03  # ~s_R
   1000004     3.04780125E+03  # ~c_L
   2000004     2.91847850E+03  # ~c_R
   1000005     2.90572591E+03  # ~b_1
   2000005     2.94334128E+03  # ~b_2
   1000006     2.69502577E+03  # ~t_1
   2000006     2.94958650E+03  # ~t_2
   1000011     9.51872233E+02  # ~e_L-
   2000011     4.70973526E+02  # ~e_R-
   1000012     9.48397482E+02  # ~nu_eL
   1000013     9.51871791E+02  # ~mu_L-
   2000013     4.70970613E+02  # ~mu_R-
   1000014     9.48396814E+02  # ~nu_muL
   1000015     4.70148921E+02  # ~tau_1-
   2000015     9.51747205E+02  # ~tau_2-
   1000016     9.48208455E+02  # ~nu_tauL
   1000021     3.22345599E+03  # ~g
   1000022     6.55792885E+02  # ~chi_10
   1000023     1.01050651E+03  # ~chi_20
   1000025    -1.02476819E+03  # ~chi_30
   1000035     1.27071641E+03  # ~chi_40
   1000024     1.00743122E+03  # ~chi_1+
   1000037     1.27082140E+03  # ~chi_2+
   1000039     9.00000000E-09  # ~G
# Higgs mixing
Block alpha # Effective Higgs mixing angle
          -2.09788105E-01   # alpha
Block Hmix Q=  2.81943696E+03  # Higgs mixing parameters
   1    1.01181968E+03  # mu
   2    4.74805990E+00  # tan[beta](Q)
   3    2.43571911E+02  # v(Q)
   4    1.76598301E+06  # m^2_A(Q)
Block stopmix # stop mixing matrix
   1  1     1.21041644E-01   # Re[R_st(1,1)]
   1  2     9.92647430E-01   # Re[R_st(1,2)]
   2  1    -9.92647430E-01   # Re[R_st(2,1)]
   2  2     1.21041644E-01   # Re[R_st(2,2)]
Block sbotmix # sbottom mixing matrix
   1  1     6.59937541E-02   # Re[R_sb(1,1)]
   1  2     9.97820036E-01   # Re[R_sb(1,2)]
   2  1    -9.97820036E-01   # Re[R_sb(2,1)]
   2  2     6.59937541E-02   # Re[R_sb(2,2)]
Block staumix # stau mixing matrix
   1  1     1.30327646E-02   # Re[R_sta(1,1)]
   1  2     9.99915070E-01   # Re[R_sta(1,2)]
   2  1    -9.99915070E-01   # Re[R_sta(2,1)]
   2  2     1.30327646E-02   # Re[R_sta(2,2)]
Block Nmix # neutralino mixing matrix
   1  1    -9.94495594E-01   # Re[N(1,1)]
   1  2     1.02160542E-02   # Re[N(1,2)]
   1  3    -8.33596244E-02   # Re[N(1,3)]
   1  4     6.26523644E-02   # Re[N(1,4)]
   2  1     1.02461898E-01   # Re[N(2,1)]
   2  2     2.57262925E-01   # Re[N(2,2)]
   2  3    -6.82448495E-01   # Re[N(2,3)]
   2  4     6.76447632E-01   # Re[N(2,4)]
   3  1     1.44338244E-02   # Re[N(3,1)]
   3  2    -1.89948175E-02   # Re[N(3,2)]
   3  3    -7.06291314E-01   # Re[N(3,3)]
   3  4    -7.07519217E-01   # Re[N(3,4)]
   4  1    -1.64844703E-02   # Re[N(4,1)]
   4  2     9.66100728E-01   # Re[N(4,2)]
   4  3     1.68724050E-01   # Re[N(4,3)]
   4  4    -1.94704496E-01   # Re[N(4,4)]
Block Umix # chargino mixing matrix
   1  1    -2.38883048E-01   # Re[U(1,1)]
   1  2     9.71048345E-01   # Re[U(1,2)]
   2  1     9.71048345E-01   # Re[U(2,1)]
   2  2     2.38883048E-01   # Re[U(2,2)]
Block Vmix # chargino mixing matrix
   1  1    -2.75564490E-01   # Re[V(1,1)]
   1  2     9.61282587E-01   # Re[V(1,2)]
   2  1     9.61282587E-01   # Re[V(2,1)]
   2  2     2.75564490E-01   # Re[V(2,2)]
DECAY   2000011     3.27831052E-10   # ~e^-_R
#    BR                NDA      ID1      ID2
     1.00000000E+00    2     1000039        11   # BR(~e^-_R -> ~G e^-)
DECAY   1000011     3.32535473E-01   # ~e^-_L
#    BR                NDA      ID1      ID2
     9.99999957E-01    2     1000022        11   # BR(~e^-_L -> chi^0_1 e^-)
     4.77095009E-09    2     2000011        23   # BR(~e^-_L -> ~e^-_R Z)
     4.82079984E-09    2     2000011        25   # BR(~e^-_L -> ~e^-_R h^0)
     3.32447384E-08    2     1000039        11   # BR(~e^-_L -> ~G e^-)
DECAY   2000013     3.27820847E-10   # ~mu^-_R
#    BR                NDA      ID1      ID2
     1.00000000E+00    2     1000039        13   # BR(~mu^-_R -> ~G mu^-)
DECAY   1000013     3.32671401E-01   # ~mu^-_L
#    BR                NDA      ID1      ID2
     9.99590059E-01    2     1000022        13   # BR(~mu^-_L -> chi^0_1 mu^-)
     2.03889171E-04    2     2000013        23   # BR(~mu^-_L -> ~mu^-_R Z)
     2.06019065E-04    2     2000013        25   # BR(~mu^-_L -> ~mu^-_R h^0)
     3.32310760E-08    2     1000039        13   # BR(~mu^-_L -> ~G mu^-)
DECAY   1000015     3.24952597E-10   # ~tau^-_1
#    BR                NDA      ID1      ID2
     1.00000000E+00    2     1000039        15   # BR(~tau^-_1 -> ~G tau^-)
DECAY   2000015     3.71021424E-01   # ~tau^-_2
#    BR                NDA      ID1      ID2
     8.95939381E-01    2     1000022        15   # BR(~tau^-_2 -> chi^0_1 tau^-)
     5.17763635E-02    2     1000015        23   # BR(~tau^-_2 -> ~tau^-_1 Z)
     5.22842260E-02    2     1000015        25   # BR(~tau^-_2 -> ~tau^-_1 h^0)
     2.97762920E-08    2     1000039        15   # BR(~tau^-_2 -> ~G tau^-)
DECAY   1000012     3.51247771E-01   # ~nu_e
#    BR                NDA      ID1      ID2
     9.99999960E-01    2     1000022        12   # BR(~nu_e -> chi^0_1 nu_e)
     8.72289333E-09    2     2000011        24   # BR(~nu_e -> ~e^-_R W^+)
     3.09033808E-08    2     1000039        12   # BR(~nu_e -> ~G nu_e)
DECAY   1000014     3.51377604E-01   # ~nu_mu
#    BR                NDA      ID1      ID2
     9.99627177E-01    2     1000022        14   # BR(~nu_mu -> chi^0_1 nu_mu)
     3.72791975E-04    2     2000013        24   # BR(~nu_mu -> ~mu^-_R W^+)
     3.08918532E-08    2     1000039        14   # BR(~nu_mu -> ~G nu_mu)
DECAY   1000016     3.88013455E-01   # ~nu_tau
#    BR                NDA      ID1      ID2
     9.04404725E-01    2     1000022        16   # BR(~nu_tau -> chi^0_1 nu_tau)
     9.55952466E-02    2     1000015        24   # BR(~nu_tau -> ~tau^-_1 W^+)
     2.79473054E-08    2     1000039        16   # BR(~nu_tau -> ~G nu_tau)
DECAY   2000001     1.54211382E+00   # ~d_R
#    BR                NDA      ID1      ID2
     9.90599712E-01    2     1000022         1   # BR(~d_R -> chi^0_1 d)
     9.02281420E-03    2     1000023         1   # BR(~d_R -> chi^0_2 d)
     1.77717254E-04    2     1000025         1   # BR(~d_R -> chi^0_3 d)
     1.97720348E-04    2     1000035         1   # BR(~d_R -> chi^0_4 d)
     1.29930018E-07    2    -1000024         2   # BR(~d_R -> chi^-_1 u)
     6.28835978E-10    2    -1000037         2   # BR(~d_R -> chi^-_2 u)
     1.90523842E-06    2     1000039         1   # BR(~d_R -> ~G d)
DECAY   1000001     2.58843923E+01   # ~d_L
#    BR                NDA      ID1      ID2
     1.73489697E-02    2     1000022         1   # BR(~d_L -> chi^0_1 d)
     2.13065801E-02    2     1000023         1   # BR(~d_L -> chi^0_2 d)
     1.77191095E-04    2     1000025         1   # BR(~d_L -> chi^0_3 d)
     3.05278367E-01    2     1000035         1   # BR(~d_L -> chi^0_4 d)
     4.31062800E-02    2    -1000024         2   # BR(~d_L -> chi^-_1 u)
     6.12782468E-01    2    -1000037         2   # BR(~d_L -> chi^-_2 u)
     1.15238793E-12    2     2000002       -24   # BR(~d_L -> ~u_R W^-)
     3.55260643E-11    2     2000001        23   # BR(~d_L -> ~d_R Z)
     3.91571904E-11    2     2000001        25   # BR(~d_L -> ~d_R h^0)
     1.43964420E-07    2     1000039         1   # BR(~d_L -> ~G d)
DECAY   2000003     1.54228904E+00   # ~s_R
#    BR                NDA      ID1      ID2
     9.90487974E-01    2     1000022         3   # BR(~s_R -> chi^0_1 s)
     9.04965014E-03    2     1000023         3   # BR(~s_R -> chi^0_2 s)
     2.05075938E-04    2     1000025         3   # BR(~s_R -> chi^0_3 s)
     1.97824743E-04    2     1000035         3   # BR(~s_R -> chi^0_4 s)
     5.72925919E-05    2    -1000024         4   # BR(~s_R -> chi^-_1 c)
     2.77273848E-07    2    -1000037         4   # BR(~s_R -> chi^-_2 c)
     1.90501987E-06    2     1000039         3   # BR(~s_R -> ~G s)
DECAY   1000003     2.58850588E+01   # ~s_L
#    BR                NDA      ID1      ID2
     1.73484957E-02    2     1000022         3   # BR(~s_L -> chi^0_1 s)
     2.13075476E-02    2     1000023         3   # BR(~s_L -> chi^0_2 s)
     1.78973007E-04    2     1000025         3   # BR(~s_L -> chi^0_3 s)
     3.05270290E-01    2     1000035         3   # BR(~s_L -> chi^0_4 s)
     4.31261916E-02    2    -1000024         4   # BR(~s_L -> chi^-_1 c)
     6.12768119E-01    2    -1000037         4   # BR(~s_L -> chi^-_2 c)
     2.06522569E-07    2     2000004       -24   # BR(~s_L -> ~c_R W^-)
     1.56660831E-08    2     2000003        23   # BR(~s_L -> ~s_R Z)
     1.72673189E-08    2     2000003        25   # BR(~s_L -> ~s_R h^0)
     1.43960208E-07    2     1000039         3   # BR(~s_L -> ~G s)
DECAY   1000005     2.14961497E+00   # ~b_1
#    BR                NDA      ID1      ID2
     7.13133146E-01    2     1000022         5   # BR(~b_1 -> chi^0_1 b)
     5.93505123E-02    2     1000023         5   # BR(~b_1 -> chi^0_2 b)
     4.21367083E-02    2     1000025         5   # BR(~b_1 -> chi^0_3 b)
     5.69628696E-03    2     1000035         5   # BR(~b_1 -> chi^0_4 b)
     1.62493371E-01    2    -1000024         6   # BR(~b_1 -> chi^-_1 t)
     1.62047649E-02    2    -1000037         6   # BR(~b_1 -> chi^-_2 t)
     9.83847504E-04    2     1000006       -24   # BR(~b_1 -> ~t_1 W^-)
     1.36325322E-06    2     1000039         5   # BR(~b_1 -> ~G b)
DECAY   2000005     5.73615225E+01   # ~b_2
#    BR                NDA      ID1      ID2
     7.44522515E-03    2     1000022         5   # BR(~b_2 -> chi^0_1 b)
     1.02189996E-02    2     1000023         5   # BR(~b_2 -> chi^0_2 b)
     1.79749811E-03    2     1000025         5   # BR(~b_2 -> chi^0_3 b)
     1.28904798E-01    2     1000035         5   # BR(~b_2 -> chi^0_4 b)
     5.32636026E-01    2    -1000024         6   # BR(~b_2 -> chi^-_1 t)
     3.04474754E-01    2    -1000037         6   # BR(~b_2 -> chi^-_2 t)
     1.45226446E-02    2     1000006       -24   # BR(~b_2 -> ~t_1 W^-)
     5.44811801E-08    2     1000039         5   # BR(~b_2 -> ~G b)
DECAY   2000002     6.19750386E+00   # ~u_R
#    BR                NDA      ID1      ID2
     9.90589057E-01    2     1000022         2   # BR(~u_R -> chi^0_1 u)
     9.03429045E-03    2     1000023         2   # BR(~u_R -> chi^0_2 u)
     1.77894686E-04    2     1000025         2   # BR(~u_R -> chi^0_3 u)
     1.98273598E-04    2     1000035         2   # BR(~u_R -> chi^0_4 u)
     5.30864175E-10    2     1000024         1   # BR(~u_R -> chi^+_1 d)
     4.35736659E-12    2     1000037         1   # BR(~u_R -> chi^+_2 d)
     4.83321626E-07    2     1000039         2   # BR(~u_R -> ~G u)
DECAY   1000002     2.59262963E+01   # ~u_L
#    BR                NDA      ID1      ID2
     1.39602638E-02    2     1000022         2   # BR(~u_L -> chi^0_1 u)
     2.88417524E-02    2     1000023         2   # BR(~u_L -> chi^0_2 u)
     9.85313166E-05    2     1000025         2   # BR(~u_L -> chi^0_3 u)
     3.00660966E-01    2     1000035         2   # BR(~u_L -> chi^0_4 u)
     5.72411012E-02    2     1000024         1   # BR(~u_L -> chi^+_1 d)
     5.99197242E-01    2     1000037         1   # BR(~u_L -> chi^+_2 d)
     8.33593745E-11    2     2000001        24   # BR(~u_L -> ~d_R W^+)
     4.23525971E-13    2     2000002        23   # BR(~u_L -> ~u_R Z)
     3.58091463E-13    2     2000002        25   # BR(~u_L -> ~u_R h^0)
     1.43503249E-07    2     1000039         2   # BR(~u_L -> ~G u)
DECAY   2000004     6.19866491E+00   # ~c_R
#    BR                NDA      ID1      ID2
     9.90401763E-01    2     1000022         4   # BR(~c_R -> chi^0_1 c)
     9.07880778E-03    2     1000023         4   # BR(~c_R -> chi^0_2 c)
     2.24466332E-04    2     1000025         4   # BR(~c_R -> chi^0_3 c)
     1.98580257E-04    2     1000035         4   # BR(~c_R -> chi^0_4 c)
     9.51185307E-05    2     1000024         3   # BR(~c_R -> chi^+_1 s)
     7.80782142E-07    2     1000037         3   # BR(~c_R -> chi^+_2 s)
     4.83227470E-07    2     1000039         4   # BR(~c_R -> ~G c)
DECAY   1000004     2.59269356E+01   # ~c_L
#    BR                NDA      ID1      ID2
     1.39599945E-02    2     1000022         4   # BR(~c_L -> chi^0_1 c)
     2.88506375E-02    2     1000023         4   # BR(~c_L -> chi^0_2 c)
     1.10208706E-04    2     1000025         4   # BR(~c_L -> chi^0_3 c)
     3.00654914E-01    2     1000035         4   # BR(~c_L -> chi^0_4 c)
     5.72406216E-02    2     1000024         3   # BR(~c_L -> chi^+_1 s)
     5.99183303E-01    2     1000037         3   # BR(~c_L -> chi^+_2 s)
     3.67598119E-08    2     2000003        24   # BR(~c_L -> ~s_R W^+)
     7.59031151E-08    2     2000004        23   # BR(~c_L -> ~c_R Z)
     6.41771521E-08    2     2000004        25   # BR(~c_L -> ~c_R h^0)
     1.43499151E-07    2     1000039         4   # BR(~c_L -> ~G c)
DECAY   1000006     6.20734795E+01   # ~t_1
#    BR                NDA      ID1      ID2
     4.71371365E-10    2     1000022         4   # BR(~t_1 -> chi^0_1 c)
     9.15326170E-02    2     1000022         6   # BR(~t_1 -> chi^0_1 t)
     9.32960959E-10    2     1000023         4   # BR(~t_1 -> chi^0_2 c)
     2.15796329E-01    2     1000023         6   # BR(~t_1 -> chi^0_2 t)
     2.30413822E-01    2     1000025         6   # BR(~t_1 -> chi^0_3 t)
     6.41019958E-03    2     1000035         6   # BR(~t_1 -> chi^0_4 t)
     4.42746629E-01    2     1000024         5   # BR(~t_1 -> chi^+_1 b)
     1.30924745E-02    2     1000037         5   # BR(~t_1 -> chi^+_2 b)
     3.18745831E-08    2     1000039         6   # BR(~t_1 -> ~G t)
#    BR                NDA      ID1      ID2       ID3
     7.89591174E-06    3     1000022        24         5   # BR(~t_1 -> chi^0_1 W^+ b)
DECAY   2000006     5.76330255E+01   # ~t_2
#    BR                NDA      ID1      ID2
     7.05710332E-03    2     1000022         6   # BR(~t_2 -> chi^0_1 t)
     2.59975431E-01    2     1000023         6   # BR(~t_2 -> chi^0_2 t)
     2.77940637E-01    2     1000025         6   # BR(~t_2 -> chi^0_3 t)
     1.60199084E-01    2     1000035         6   # BR(~t_2 -> chi^0_4 t)
     7.63953422E-03    2     1000024         5   # BR(~t_2 -> chi^+_1 b)
     2.73773713E-01    2     1000037         5   # BR(~t_2 -> chi^+_2 b)
     7.60421577E-03    2     1000006        23   # BR(~t_2 -> ~t_1 Z)
     5.81022852E-03    2     1000006        25   # BR(~t_2 -> ~t_1 h^0)
     5.40567750E-08    2     1000039         6   # BR(~t_2 -> ~G t)
DECAY   1000024     6.77792365E-01   # chi^+_1
#    BR                NDA      ID1      ID2
     1.89616493E-09    2    -2000011        12   # BR(chi^+_1 -> ~e^+_R nu_e)
     3.94295519E-03    2    -1000011        12   # BR(chi^+_1 -> ~e^+_L nu_e)
     8.10669228E-05    2    -2000013        14   # BR(chi^+_1 -> ~mu^+_R nu_mu)
     3.94289816E-03    2    -1000013        14   # BR(chi^+_1 -> ~mu^+_L nu_mu)
     2.29715885E-02    2    -1000015        16   # BR(chi^+_1 -> ~tau^+_1 nu_tau)
     3.92679225E-03    2    -2000015        16   # BR(chi^+_1 -> ~tau^+_2 nu_tau)
     5.90266095E-03    2     1000012       -11   # BR(chi^+_1 -> ~nu_e e^+)
     5.90472375E-03    2     1000014       -13   # BR(chi^+_1 -> ~nu_mu mu^+)
     6.48909297E-03    2     1000016       -15   # BR(chi^+_1 -> ~nu_tau tau^+)
     9.44184399E-01    2     1000022        24   # BR(chi^+_1 -> chi^0_1 W^+)
#    BR                NDA      ID1      ID2       ID3
     6.92137617E-09    3     1000022        -1         2   # BR(chi^+_1 -> chi^0_1 d_bar u)
     6.96248910E-09    3     1000022        -3         4   # BR(chi^+_1 -> chi^0_1 s_bar c)
     2.65287830E-03    3     1000022        -5         6   # BR(chi^+_1 -> chi^0_1 b_bar t)
     7.68638032E-14    3     1000022       -11        12   # BR(chi^+_1 -> chi^0_1 e^+ nu_e)
     3.28609670E-09    3     1000022       -13        14   # BR(chi^+_1 -> chi^0_1 mu^+ nu_mu)
     9.25386826E-07    3     1000022       -15        16   # BR(chi^+_1 -> chi^0_1 tau^+ nu_tau)
DECAY   1000037     1.21044124E+01   # chi^+_2
#    BR                NDA      ID1      ID2
     9.46217520E-13    2    -2000011        12   # BR(chi^+_2 -> ~e^+_R nu_e)
     7.70847777E-02    2    -1000011        12   # BR(chi^+_2 -> ~e^+_L nu_e)
     4.04540247E-08    2    -2000013        14   # BR(chi^+_2 -> ~mu^+_R nu_mu)
     7.70850511E-02    2    -1000013        14   # BR(chi^+_2 -> ~mu^+_L nu_mu)
     1.14868740E-05    2    -1000015        16   # BR(chi^+_2 -> ~tau^+_1 nu_tau)
     7.71621345E-02    2    -2000015        16   # BR(chi^+_2 -> ~tau^+_2 nu_tau)
     7.69558598E-02    2     1000012       -11   # BR(chi^+_2 -> ~nu_e e^+)
     7.69561654E-02    2     1000014       -13   # BR(chi^+_2 -> ~nu_mu mu^+)
     7.70423542E-02    2     1000016       -15   # BR(chi^+_2 -> ~nu_tau tau^+)
     9.46133399E-04    2     1000022        24   # BR(chi^+_2 -> chi^0_1 W^+)
     1.43422237E-01    2     1000023        24   # BR(chi^+_2 -> chi^0_2 W^+)
     1.28165592E-01    2     1000025        24   # BR(chi^+_2 -> chi^0_3 W^+)
     1.44297979E-01    2     1000024        23   # BR(chi^+_2 -> chi^+_1 Z)
     1.20705592E-01    2     1000024        25   # BR(chi^+_2 -> chi^+_1 h^0)
#    BR                NDA      ID1      ID2       ID3
     2.10400956E-09    3     1000024         2        -2   # BR(chi^+_2 -> chi^+_1 u u_bar)
     2.10361522E-09    3     1000024         4        -4   # BR(chi^+_2 -> chi^+_1 c c_bar)
     2.74781979E-09    3     1000024         1        -1   # BR(chi^+_2 -> chi^+_1 d d_bar)
     2.74985322E-09    3     1000024         3        -3   # BR(chi^+_2 -> chi^+_1 s s_bar)
     8.87948712E-09    3     1000024         5        -5   # BR(chi^+_2 -> chi^+_1 b b_bar)
     4.73348428E-07    3     1000024        11       -11   # BR(chi^+_2 -> chi^+_1 e^- e^+)
     4.73458204E-07    3     1000024        13       -13   # BR(chi^+_2 -> chi^+_1 mu^- mu^+)
     4.99617978E-07    3     1000024        15       -15   # BR(chi^+_2 -> chi^+_1 tau^- tau^+)
     1.13517543E-06    3     1000024        12       -12   # BR(chi^+_2 -> chi^+_1 nu_e nu_bar_e)
     7.13082666E-08    3     1000022        -1         2   # BR(chi^+_2 -> chi^0_1 d_bar u)
     7.13063748E-08    3     1000022        -3         4   # BR(chi^+_2 -> chi^0_1 s_bar c)
     9.56288122E-06    3     1000022        -5         6   # BR(chi^+_2 -> chi^0_1 b_bar t)
     6.82897396E-12    3     1000022       -13        14   # BR(chi^+_2 -> chi^0_1 mu^+ nu_mu)
     1.93099733E-09    3     1000022       -15        16   # BR(chi^+_2 -> chi^0_1 tau^+ nu_tau)
     1.17818781E-09    3     1000023        -1         2   # BR(chi^+_2 -> chi^0_2 d_bar u)
     1.17927214E-09    3     1000023        -3         4   # BR(chi^+_2 -> chi^0_2 s_bar c)
     9.69636583E-05    3     1000023        -5         6   # BR(chi^+_2 -> chi^0_2 b_bar t)
     2.58662256E-07    3     1000023       -11        12   # BR(chi^+_2 -> chi^0_2 e^+ nu_e)
     2.58709599E-07    3     1000023       -13        14   # BR(chi^+_2 -> chi^0_2 mu^+ nu_mu)
     2.68349933E-07    3     1000023       -15        16   # BR(chi^+_2 -> chi^0_2 tau^+ nu_tau)
     1.45384895E-11    3     1000025        -1         2   # BR(chi^+_2 -> chi^0_3 d_bar u)
     1.54830452E-11    3     1000025        -3         4   # BR(chi^+_2 -> chi^0_3 s_bar c)
     5.45180379E-05    3     1000025        -5         6   # BR(chi^+_2 -> chi^0_3 b_bar t)
     2.19751947E-09    3     1000025       -11        12   # BR(chi^+_2 -> chi^0_3 e^+ nu_e)
     2.23769971E-09    3     1000025       -13        14   # BR(chi^+_2 -> chi^0_3 mu^+ nu_mu)
     1.34526309E-08    3     1000025       -15        16   # BR(chi^+_2 -> chi^0_3 tau^+ nu_tau)
DECAY   1000022     2.42779873E+00   # chi^0_1
#    BR                NDA      ID1      ID2
     1.66248631E-01    2     2000011       -11   # BR(chi^0_1 -> ~e^-_R e^+)
     1.66248631E-01    2    -2000011        11   # BR(chi^0_1 -> ~e^+_R e^-)
     1.66253041E-01    2     2000013       -13   # BR(chi^0_1 -> ~mu^-_R mu^+)
     1.66253041E-01    2    -2000013        13   # BR(chi^0_1 -> ~mu^+_R mu^-)
     1.67498327E-01    2     1000015       -15   # BR(chi^0_1 -> ~tau^-_1 tau^+)
     1.67498327E-01    2    -1000015        15   # BR(chi^0_1 -> ~tau^+_1 tau^-)
     5.20044091E-10    2     1000039        22   # BR(chi^0_1 -> ~G photon)
     1.52397798E-10    2     1000039        23   # BR(chi^0_1 -> ~G Z)
     4.36649747E-12    2     1000039        25   # BR(chi^0_1 -> ~G h^0)
DECAY   1000023     8.56277106E-01   # chi^0_2
#    BR                NDA      ID1      ID2
     2.01475928E-02    2     2000011       -11   # BR(chi^0_2 -> ~e^-_R e^+)
     2.01475928E-02    2    -2000011        11   # BR(chi^0_2 -> ~e^+_R e^-)
     3.02277512E-03    2     1000011       -11   # BR(chi^0_2 -> ~e^-_L e^+)
     3.02277512E-03    2    -1000011        11   # BR(chi^0_2 -> ~e^+_L e^-)
     2.01788264E-02    2     2000013       -13   # BR(chi^0_2 -> ~mu^-_R mu^+)
     2.01788264E-02    2    -2000013        13   # BR(chi^0_2 -> ~mu^+_R mu^-)
     3.02354385E-03    2     1000013       -13   # BR(chi^0_2 -> ~mu^-_L mu^+)
     3.02354385E-03    2    -1000013        13   # BR(chi^0_2 -> ~mu^+_L mu^-)
     2.90007452E-02    2     1000015       -15   # BR(chi^0_2 -> ~tau^-_1 tau^+)
     2.90007452E-02    2    -1000015        15   # BR(chi^0_2 -> ~tau^+_1 tau^-)
     3.24077487E-03    2     2000015       -15   # BR(chi^0_2 -> ~tau^-_2 tau^+)
     3.24077487E-03    2    -2000015        15   # BR(chi^0_2 -> ~tau^+_2 tau^-)
     1.33438698E-03    2     1000012       -12   # BR(chi^0_2 -> ~nu_e nu_bar_e)
     1.33438698E-03    2    -1000012        12   # BR(chi^0_2 -> ~nu^*_e nu_e)
     1.33441479E-03    2     1000014       -14   # BR(chi^0_2 -> ~nu_mu nu_bar_mu)
     1.33441479E-03    2    -1000014        14   # BR(chi^0_2 -> ~nu^*_mu nu_mu)
     1.34226259E-03    2     1000016       -16   # BR(chi^0_2 -> ~nu_tau nu_bar_tau)
     1.34226259E-03    2    -1000016        16   # BR(chi^0_2 -> ~nu^*_tau nu_tau)
     1.72930377E-02    2     1000022        23   # BR(chi^0_2 -> chi^0_1 Z)
     8.17446727E-01    2     1000022        25   # BR(chi^0_2 -> chi^0_1 h^0)
     8.18298222E-10    2     1000039        22   # BR(chi^0_2 -> ~G photon)
     8.91506097E-10    2     1000039        23   # BR(chi^0_2 -> ~G Z)
     1.12435260E-08    2     1000039        25   # BR(chi^0_2 -> ~G h^0)
     3.97656611E-07    2     1000022        22   # BR(chi^0_2 -> chi^0_1 photon)
#    BR                NDA      ID1      ID2       ID3
     8.12622680E-09    3     1000022         2        -2   # BR(chi^0_2 -> chi^0_1 u u_bar)
     8.14091274E-09    3     1000022         4        -4   # BR(chi^0_2 -> chi^0_1 c c_bar)
     4.95681507E-07    3     1000022         6        -6   # BR(chi^0_2 -> chi^0_1 t t_bar)
     3.04944709E-09    3     1000022         1        -1   # BR(chi^0_2 -> chi^0_1 d d_bar)
     3.06968676E-09    3     1000022         3        -3   # BR(chi^0_2 -> chi^0_1 s s_bar)
     4.81521861E-08    3     1000022         5        -5   # BR(chi^0_2 -> chi^0_1 b b_bar)
     2.64588797E-06    3     1000022        11       -11   # BR(chi^0_2 -> chi^0_1 e^- e^+)
     2.64841929E-06    3     1000022        13       -13   # BR(chi^0_2 -> chi^0_1 mu^- mu^+)
     3.31849850E-06    3     1000022        15       -15   # BR(chi^0_2 -> chi^0_1 tau^- tau^+)
     1.43941768E-10    3     1000024         1        -2   # BR(chi^0_2 -> chi^+_1 d u_bar)
     1.43941768E-10    3    -1000024        -1         2   # BR(chi^0_2 -> chi^-_1 d_bar u)
     6.27278067E-11    3     1000024         3        -4   # BR(chi^0_2 -> chi^+_1 s c_bar)
     6.27278067E-11    3    -1000024        -3         4   # BR(chi^0_2 -> chi^-_1 s_bar c)
     4.76454072E-11    3     1000024        11       -12   # BR(chi^0_2 -> chi^+_1 e^- nu_bar_e)
     4.76454072E-11    3    -1000024       -11        12   # BR(chi^0_2 -> chi^-_1 e^+ nu_e)
     4.73660710E-11    3     1000024        13       -14   # BR(chi^0_2 -> chi^+_1 mu^- nu_bar_mu)
     4.73660710E-11    3    -1000024       -13        14   # BR(chi^0_2 -> chi^-_1 mu^+ nu_mu)
     8.73781341E-12    3     1000024        15       -16   # BR(chi^0_2 -> chi^+_1 tau^- nu_bar_tau)
     8.73781341E-12    3    -1000024       -15        16   # BR(chi^0_2 -> chi^-_1 tau^+ nu_tau)
DECAY   1000025     7.28319312E-01   # chi^0_3
#    BR                NDA      ID1      ID2
     4.84036456E-04    2     2000011       -11   # BR(chi^0_3 -> ~e^-_R e^+)
     4.84036456E-04    2    -2000011        11   # BR(chi^0_3 -> ~e^+_R e^-)
     6.15442691E-06    2     1000011       -11   # BR(chi^0_3 -> ~e^-_L e^+)
     6.15442691E-06    2    -1000011        11   # BR(chi^0_3 -> ~e^+_L e^-)
     5.21930941E-04    2     2000013       -13   # BR(chi^0_3 -> ~mu^-_R mu^+)
     5.21930941E-04    2    -2000013        13   # BR(chi^0_3 -> ~mu^+_R mu^-)
     7.32797130E-06    2     1000013       -13   # BR(chi^0_3 -> ~mu^-_L mu^+)
     7.32797130E-06    2    -1000013        13   # BR(chi^0_3 -> ~mu^+_L mu^-)
     1.12225905E-02    2     1000015       -15   # BR(chi^0_3 -> ~tau^-_1 tau^+)
     1.12225905E-02    2    -1000015        15   # BR(chi^0_3 -> ~tau^+_1 tau^-)
     3.39341865E-04    2     2000015       -15   # BR(chi^0_3 -> ~tau^-_2 tau^+)
     3.39341865E-04    2    -2000015        15   # BR(chi^0_3 -> ~tau^+_2 tau^-)
     4.35193475E-05    2     1000012       -12   # BR(chi^0_3 -> ~nu_e nu_bar_e)
     4.35193475E-05    2    -1000012        12   # BR(chi^0_3 -> ~nu^*_e nu_e)
     4.35200797E-05    2     1000014       -14   # BR(chi^0_3 -> ~nu_mu nu_bar_mu)
     4.35200797E-05    2    -1000014        14   # BR(chi^0_3 -> ~nu^*_mu nu_mu)
     4.37266665E-05    2     1000016       -16   # BR(chi^0_3 -> ~nu_tau nu_bar_tau)
     4.37266665E-05    2    -1000016        16   # BR(chi^0_3 -> ~nu^*_tau nu_tau)
     9.55672914E-01    2     1000022        23   # BR(chi^0_3 -> chi^0_1 Z)
     1.88076244E-02    2     1000022        25   # BR(chi^0_3 -> chi^0_1 h^0)
     2.08116085E-13    2     1000039        22   # BR(chi^0_3 -> ~G photon)
     1.41588932E-09    2     1000039        23   # BR(chi^0_3 -> ~G Z)
     6.51730033E-09    2     1000039        25   # BR(chi^0_3 -> ~G h^0)
     8.20163995E-07    2     1000022        22   # BR(chi^0_3 -> chi^0_1 photon)
     1.00581634E-09    2     1000023        22   # BR(chi^0_3 -> chi^0_2 photon)
#    BR                NDA      ID1      ID2       ID3
     5.61612816E-11    3     1000022         2        -2   # BR(chi^0_3 -> chi^0_1 u u_bar)
     8.47706179E-11    3     1000022         4        -4   # BR(chi^0_3 -> chi^0_1 c c_bar)
     8.77659788E-05    3     1000022         6        -6   # BR(chi^0_3 -> chi^0_1 t t_bar)
     1.46962442E-11    3     1000022         1        -1   # BR(chi^0_3 -> chi^0_1 d d_bar)
     4.32418777E-11    3     1000022         3        -3   # BR(chi^0_3 -> chi^0_1 s s_bar)
     6.31428215E-08    3     1000022         5        -5   # BR(chi^0_3 -> chi^0_1 b b_bar)
     2.61373284E-08    3     1000022        11       -11   # BR(chi^0_3 -> chi^0_1 e^- e^+)
     2.96237952E-08    3     1000022        13       -13   # BR(chi^0_3 -> chi^0_1 mu^- mu^+)
     1.01019174E-06    3     1000022        15       -15   # BR(chi^0_3 -> chi^0_1 tau^- tau^+)
     8.79411317E-08    3     1000023         2        -2   # BR(chi^0_3 -> chi^0_2 u u_bar)
     8.36921428E-08    3     1000023         4        -4   # BR(chi^0_3 -> chi^0_2 c c_bar)
     1.14199693E-07    3     1000023         1        -1   # BR(chi^0_3 -> chi^0_2 d d_bar)
     1.14150097E-07    3     1000023         3        -3   # BR(chi^0_3 -> chi^0_2 s s_bar)
     4.89641643E-08    3     1000023         5        -5   # BR(chi^0_3 -> chi^0_2 b b_bar)
     2.62750325E-08    3     1000023        11       -11   # BR(chi^0_3 -> chi^0_2 e^- e^+)
     2.62677261E-08    3     1000023        13       -13   # BR(chi^0_3 -> chi^0_2 mu^- mu^+)
     2.40357032E-08    3     1000023        15       -15   # BR(chi^0_3 -> chi^0_2 tau^- tau^+)
     1.57500228E-07    3     1000023        12       -12   # BR(chi^0_3 -> chi^0_2 nu_e nu_bar_e)
     8.04478961E-07    3     1000024         1        -2   # BR(chi^0_3 -> chi^+_1 d u_bar)
     8.04478961E-07    3    -1000024        -1         2   # BR(chi^0_3 -> chi^-_1 d_bar u)
     7.83702794E-07    3     1000024         3        -4   # BR(chi^0_3 -> chi^+_1 s c_bar)
     7.83702794E-07    3    -1000024        -3         4   # BR(chi^0_3 -> chi^-_1 s_bar c)
     2.68093323E-07    3     1000024        11       -12   # BR(chi^0_3 -> chi^+_1 e^- nu_bar_e)
     2.68093323E-07    3    -1000024       -11        12   # BR(chi^0_3 -> chi^-_1 e^+ nu_e)
     2.68089244E-07    3     1000024        13       -14   # BR(chi^0_3 -> chi^+_1 mu^- nu_bar_mu)
     2.68089244E-07    3    -1000024       -13        14   # BR(chi^0_3 -> chi^-_1 mu^+ nu_mu)
     2.54625408E-07    3     1000024        15       -16   # BR(chi^0_3 -> chi^+_1 tau^- nu_bar_tau)
     2.54625408E-07    3    -1000024       -15        16   # BR(chi^0_3 -> chi^-_1 tau^+ nu_tau)
DECAY   1000035     1.21693163E+01   # chi^0_4
#    BR                NDA      ID1      ID2
     5.60380209E-05    2     2000011       -11   # BR(chi^0_4 -> ~e^-_R e^+)
     5.60380209E-05    2    -2000011        11   # BR(chi^0_4 -> ~e^+_R e^-)
     3.71899093E-02    2     1000011       -11   # BR(chi^0_4 -> ~e^-_L e^+)
     3.71899093E-02    2    -1000011        11   # BR(chi^0_4 -> ~e^+_L e^-)
     5.60539266E-05    2     2000013       -13   # BR(chi^0_4 -> ~mu^-_R mu^+)
     5.60539266E-05    2    -2000013        13   # BR(chi^0_4 -> ~mu^+_R mu^-)
     3.71900588E-02    2     1000013       -13   # BR(chi^0_4 -> ~mu^-_L mu^+)
     3.71900588E-02    2    -1000013        13   # BR(chi^0_4 -> ~mu^+_L mu^-)
     6.05697445E-05    2     1000015       -15   # BR(chi^0_4 -> ~tau^-_1 tau^+)
     6.05697445E-05    2    -1000015        15   # BR(chi^0_4 -> ~tau^+_1 tau^-)
     3.72322409E-02    2     2000015       -15   # BR(chi^0_4 -> ~tau^-_2 tau^+)
     3.72322409E-02    2    -2000015        15   # BR(chi^0_4 -> ~tau^+_2 tau^-)
     3.93973799E-02    2     1000012       -12   # BR(chi^0_4 -> ~nu_e nu_bar_e)
     3.93973799E-02    2    -1000012        12   # BR(chi^0_4 -> ~nu^*_e nu_e)
     3.93975196E-02    2     1000014       -14   # BR(chi^0_4 -> ~nu_mu nu_bar_mu)
     3.93975196E-02    2    -1000014        14   # BR(chi^0_4 -> ~nu^*_mu nu_mu)
     3.94368840E-02    2     1000016       -16   # BR(chi^0_4 -> ~nu_tau nu_bar_tau)
     3.94368840E-02    2    -1000016        16   # BR(chi^0_4 -> ~nu^*_tau nu_tau)
     1.46091458E-01    2     1000024       -24   # BR(chi^0_4 -> chi^+_1 W^-)
     1.46091458E-01    2    -1000024        24   # BR(chi^0_4 -> chi^-_1 W^+)
     7.70073946E-05    2     1000022        23   # BR(chi^0_4 -> chi^0_1 Z)
     8.63136646E-04    2     1000023        23   # BR(chi^0_4 -> chi^0_2 Z)
     1.23297796E-01    2     1000025        23   # BR(chi^0_4 -> chi^0_3 Z)
     1.01860144E-03    2     1000022        25   # BR(chi^0_4 -> chi^0_1 h^0)
     1.21795820E-01    2     1000023        25   # BR(chi^0_4 -> chi^0_2 h^0)
     5.22135676E-04    2     1000025        25   # BR(chi^0_4 -> chi^0_3 h^0)
     8.36563115E-10    2     1000039        22   # BR(chi^0_4 -> ~G photon)
     3.53793521E-09    2     1000039        23   # BR(chi^0_4 -> ~G Z)
     1.95969289E-10    2     1000039        25   # BR(chi^0_4 -> ~G h^0)
     1.33216525E-07    2     1000022        22   # BR(chi^0_4 -> chi^0_1 photon)
     3.19507978E-07    2     1000023        22   # BR(chi^0_4 -> chi^0_2 photon)
     6.97736392E-07    2     1000025        22   # BR(chi^0_4 -> chi^0_3 photon)
#    BR                NDA      ID1      ID2       ID3
     3.15993073E-08    3     1000022         2        -2   # BR(chi^0_4 -> chi^0_1 u u_bar)
     3.15969735E-08    3     1000022         4        -4   # BR(chi^0_4 -> chi^0_1 c c_bar)
     2.62025552E-06    3     1000022         6        -6   # BR(chi^0_4 -> chi^0_1 t t_bar)
     3.95099800E-08    3     1000022         1        -1   # BR(chi^0_4 -> chi^0_1 d d_bar)
     3.95100699E-08    3     1000022         3        -3   # BR(chi^0_4 -> chi^0_1 s s_bar)
     4.60935134E-08    3     1000022         5        -5   # BR(chi^0_4 -> chi^0_1 b b_bar)
     2.75470487E-08    3     1000022        11       -11   # BR(chi^0_4 -> chi^0_1 e^- e^+)
     2.75513985E-08    3     1000022        13       -13   # BR(chi^0_4 -> chi^0_1 mu^- mu^+)
     2.86699912E-08    3     1000022        15       -15   # BR(chi^0_4 -> chi^0_1 tau^- tau^+)
     1.95454164E-09    3     1000023         2        -2   # BR(chi^0_4 -> chi^0_2 u u_bar)
     1.95346000E-09    3     1000023         4        -4   # BR(chi^0_4 -> chi^0_2 c c_bar)
     1.45760773E-09    3     1000023         1        -1   # BR(chi^0_4 -> chi^0_2 d d_bar)
     1.45854395E-09    3     1000023         3        -3   # BR(chi^0_4 -> chi^0_2 s s_bar)
     3.77522648E-09    3     1000023         5        -5   # BR(chi^0_4 -> chi^0_2 b b_bar)
     4.19991682E-07    3     1000023        11       -11   # BR(chi^0_4 -> chi^0_2 e^- e^+)
     4.20039268E-07    3     1000023        13       -13   # BR(chi^0_4 -> chi^0_2 mu^- mu^+)
     4.28275695E-07    3     1000023        15       -15   # BR(chi^0_4 -> chi^0_2 tau^- tau^+)
     4.95657782E-07    3     1000023        12       -12   # BR(chi^0_4 -> chi^0_2 nu_e nu_bar_e)
     1.76037253E-12    3     1000025         2        -2   # BR(chi^0_4 -> chi^0_3 u u_bar)
     2.06584048E-12    3     1000025         4        -4   # BR(chi^0_4 -> chi^0_3 c c_bar)
     3.19742909E-12    3     1000025         1        -1   # BR(chi^0_4 -> chi^0_3 d d_bar)
     4.08577718E-12    3     1000025         3        -3   # BR(chi^0_4 -> chi^0_3 s s_bar)
     2.00317270E-09    3     1000025         5        -5   # BR(chi^0_4 -> chi^0_3 b b_bar)
     1.27446795E-10    3     1000025        11       -11   # BR(chi^0_4 -> chi^0_3 e^- e^+)
     1.65107017E-10    3     1000025        13       -13   # BR(chi^0_4 -> chi^0_3 mu^- mu^+)
     1.07057057E-08    3     1000025        15       -15   # BR(chi^0_4 -> chi^0_3 tau^- tau^+)
     2.45744965E-09    3     1000025        12       -12   # BR(chi^0_4 -> chi^0_3 nu_e nu_bar_e)
     1.23295134E-09    3     1000024         1        -2   # BR(chi^0_4 -> chi^+_1 d u_bar)
     1.23295134E-09    3    -1000024        -1         2   # BR(chi^0_4 -> chi^-_1 d_bar u)
     1.23451228E-09    3     1000024         3        -4   # BR(chi^0_4 -> chi^+_1 s c_bar)
     1.23451228E-09    3    -1000024        -3         4   # BR(chi^0_4 -> chi^-_1 s_bar c)
     1.00968699E-04    3     1000024         5        -6   # BR(chi^0_4 -> chi^+_1 b t_bar)
     1.00968699E-04    3    -1000024        -5         6   # BR(chi^0_4 -> chi^-_1 b_bar t)
     2.45863050E-07    3     1000024        11       -12   # BR(chi^0_4 -> chi^+_1 e^- nu_bar_e)
     2.45863050E-07    3    -1000024       -11        12   # BR(chi^0_4 -> chi^-_1 e^+ nu_e)
     2.45912380E-07    3     1000024        13       -14   # BR(chi^0_4 -> chi^+_1 mu^- nu_bar_mu)
     2.45912380E-07    3    -1000024       -13        14   # BR(chi^0_4 -> chi^-_1 mu^+ nu_mu)
     2.57573355E-07    3     1000024        15       -16   # BR(chi^0_4 -> chi^+_1 tau^- nu_bar_tau)
     2.57573355E-07    3    -1000024       -15        16   # BR(chi^0_4 -> chi^-_1 tau^+ nu_tau)
DECAY   1000021     2.24618991E+01   # ~g
#    BR                NDA      ID1      ID2
     4.70410275E-02    2     2000002        -2   # BR(~g -> ~u_R u_bar)
     4.70410275E-02    2    -2000002         2   # BR(~g -> ~u^*_R u)
     1.62690098E-02    2     1000002        -2   # BR(~g -> ~u_L u_bar)
     1.62690098E-02    2    -1000002         2   # BR(~g -> ~u^*_L u)
     4.70413918E-02    2     2000004        -4   # BR(~g -> ~c_R c_bar)
     4.70413918E-02    2    -2000004         4   # BR(~g -> ~c^*_R c)
     1.62692080E-02    2     1000004        -4   # BR(~g -> ~c_L c_bar)
     1.62692080E-02    2    -1000004         4   # BR(~g -> ~c^*_L c)
     1.23206946E-08    2     1000006        -4   # BR(~g -> ~t_1 c_bar)
     1.23206946E-08    2    -1000006         4   # BR(~g -> ~t^*_1 c)
     1.14495441E-01    2     1000006        -6   # BR(~g -> ~t_1 t_bar)
     1.14495441E-01    2    -1000006         6   # BR(~g -> ~t^*_1 t)
     3.49785558E-02    2     2000006        -6   # BR(~g -> ~t_2 t_bar)
     3.49785558E-02    2    -2000006         6   # BR(~g -> ~t^*_2 t)
     5.03907292E-02    2     2000001        -1   # BR(~g -> ~d_R d_bar)
     5.03907292E-02    2    -2000001         1   # BR(~g -> ~d^*_R d)
     1.60948149E-02    2     1000001        -1   # BR(~g -> ~d_L d_bar)
     1.60948149E-02    2    -1000001         1   # BR(~g -> ~d^*_L d)
     5.03909059E-02    2     2000003        -3   # BR(~g -> ~s_R s_bar)
     5.03909059E-02    2    -2000003         3   # BR(~g -> ~s^*_R s)
     1.60952019E-02    2     1000003        -3   # BR(~g -> ~s_L s_bar)
     1.60952019E-02    2    -1000003         3   # BR(~g -> ~s^*_L s)
     5.07496583E-02    2     1000005        -5   # BR(~g -> ~b_1 b_bar)
     5.07496583E-02    2    -1000005         5   # BR(~g -> ~b^*_1 b)
     4.00851812E-02    2     2000005        -5   # BR(~g -> ~b_2 b_bar)
     4.00851812E-02    2    -2000005         5   # BR(~g -> ~b^*_2 b)
     2.64458483E-06    2     1000022        21   # BR(~g -> chi^0_1 g)
     8.94682634E-05    2     1000023        21   # BR(~g -> chi^0_2 g)
     9.65032512E-05    2     1000025        21   # BR(~g -> chi^0_3 g)
     9.10876513E-06    2     1000035        21   # BR(~g -> chi^0_4 g)
DECAY        25     2.60922737E-03   # h^0
#    BR                NDA      ID1      ID2
     8.40390576E-09    2          11       -11   # BR(h^0 -> e^- e^+)
     3.59288611E-04    2          13       -13   # BR(h^0 -> mu^- mu^+)
     1.01460474E-01    2          15       -15   # BR(h^0 -> tau^- tau^+)
     7.45149497E-07    2           1        -1   # BR(h^0 -> d d_bar)
     3.28610455E-04    2           3        -3   # BR(h^0 -> s s_bar)
     6.96154356E-01    2           5        -5   # BR(h^0 -> b b_bar)
     2.44799213E-07    2           2        -2   # BR(h^0 -> u u_bar)
     4.38608705E-02    2           4        -4   # BR(h^0 -> c c_bar)
     6.00385220E-02    2          21        21   # BR(h^0 -> g g)
     2.93908158E-03    2          22        22   # BR(h^0 -> photon photon)
# writing decays into V V* as 3-body decays
#    BR                NDA      ID1      ID2       ID3
     4.40028928E-03    3          24        11        12   # BR(h^0 -> W^+ e^- nu_e)
     4.40028928E-03    3          24        13        14   # BR(h^0 -> W^+ mu^- nu_mu)
     4.40028928E-03    3          24        15        16   # BR(h^0 -> W^+ tau^- nu_tau)
     1.54010125E-02    3          24         1        -2   # BR(h^0 -> W^+ d u_bar)
     1.54010125E-02    3          24         3        -4   # BR(h^0 -> W^+ s c_bar)
     4.40028928E-03    3         -24       -11       -12   # BR(h^0 -> W^- e^+ nu_bar_e)
     4.40028928E-03    3         -24       -13       -14   # BR(h^0 -> W^- mu^+ nu_bar_mu)
     4.40028928E-03    3         -24       -15       -16   # BR(h^0 -> W^- tau^+ nu_bar_tau)
     1.54010125E-02    3         -24        -1         2   # BR(h^0 -> W^- d_bar u)
     1.54010125E-02    3         -24        -3         4   # BR(h^0 -> W^- s_bar c)
     2.39820442E-04    3          23        11       -11   # BR(h^0 -> Z e^- e^+)
     2.39820442E-04    3          23        13       -13   # BR(h^0 -> Z mu^- mu^+)
     2.05560379E-04    3          23        15       -15   # BR(h^0 -> Z tau^- tau^+)
     1.37040253E-03    3          23        12       -12   # BR(h^0 -> Z nu_e nu_bar_e)
     9.59281769E-04    3          23         1        -1   # BR(h^0 -> Z u u_bar)
     9.59281769E-04    3          23         3        -3   # BR(h^0 -> Z c c_bar)
     9.59281769E-04    3          23         5        -5   # BR(h^0 -> Z t t_bar)
     9.59281769E-04    3          23         2        -2   # BR(h^0 -> Z u u_bar)
     9.59281769E-04    3          23         4        -4   # BR(h^0 -> Z c c_bar)
DECAY        35     3.55478537E+00   # H^0
#    BR                NDA      ID1      ID2
     1.56523814E-09    2          11       -11   # BR(H^0 -> e^- e^+)
     6.69183652E-05    2          13       -13   # BR(H^0 -> mu^- mu^+)
     1.89294832E-02    2          15       -15   # BR(H^0 -> tau^- tau^+)
     1.13706634E-07    2           1        -1   # BR(H^0 -> d d_bar)
     5.01445843E-05    2           3        -3   # BR(H^0 -> s s_bar)
     1.09939187E-01    2           5        -5   # BR(H^0 -> b b_bar)
     8.40207339E-11    2           2        -2   # BR(H^0 -> u u_bar)
     1.50574705E-05    2           4        -4   # BR(H^0 -> c c_bar)
     8.07368115E-01    2           6        -6   # BR(H^0 -> t t_bar)
     1.33441453E-04    2     2000011  -2000011   # BR(H^0 -> ~e^-_R ~e^+_R)
     1.33410852E-04    2     2000013  -2000013   # BR(H^0 -> ~mu^-_R ~mu^+_R)
     1.24921350E-04    2     1000015  -1000015   # BR(H^0 -> ~tau^-_1 ~tau^+_1)
     1.65185457E-06    2     1000015  -2000015   # BR(H^0 -> ~tau^-_1 ~tau^+_2)
     1.65185457E-06    2    -1000015   2000015   # BR(H^0 -> ~tau^+_1 ~tau^-_2)
     2.96211499E-04    2     1000022   1000022   # BR(H^0 -> chi^0_1 chi^0_1)
     2.06071659E-02    2          23        23   # BR(H^0 -> Z Z)
     3.90213721E-02    2          24       -24   # BR(H^0 -> W^+ W^-)
     2.82209947E-03    2          25        25   # BR(H^0 -> h^0 h^0)
     4.84459045E-04    2          21        21   # BR(H^0 -> g g)
     4.59376482E-06    2          22        22   # BR(H^0 -> photon photon)
DECAY        36     3.26239829E+00   # A^0
#    BR                NDA      ID1      ID2
     1.71349086E-09    2          11       -11   # BR(A^0 -> e^- e^+)
     7.32565907E-05    2          13       -13   # BR(A^0 -> mu^- mu^+)
     2.07225329E-02    2          15       -15   # BR(A^0 -> tau^- tau^+)
     1.24475850E-07    2           1        -1   # BR(A^0 -> d d_bar)
     5.48938105E-05    2           3        -3   # BR(A^0 -> s s_bar)
     1.20351873E-01    2           5        -5   # BR(A^0 -> b b_bar)
     8.11538556E-11    2           2        -2   # BR(A^0 -> u u_bar)
     1.45436850E-05    2           4        -4   # BR(A^0 -> c c_bar)
     8.12287752E-01    2           6        -6   # BR(A^0 -> t t_bar)
     4.04700064E-03    2     1000022   1000022   # BR(A^0 -> chi^0_1 chi^0_1)
     4.22724644E-02    2          25        23   # BR(A^0 -> h^0 Z)
     1.74082295E-04    2          21        21   # BR(A^0 -> g g)
     1.47438744E-06    2          22        22   # BR(A^0 -> photon photon)
DECAY        37     2.82958612E+00   # H^+
#    BR                NDA      ID1      ID2
     1.97846865E-09    2         -11        12   # BR(H^+ -> e^+ nu_e)
     8.45851424E-05    2         -13        12   # BR(H^+ -> mu^+ nu_e)
     2.39271088E-02    2         -15        12   # BR(H^+ -> tau^+ nu_e)
     1.26504162E-07    2          -1         2   # BR(H^+ -> d_bar u)
     7.05228581E-05    2          -3         4   # BR(H^+ -> s_bar c)
     9.28269079E-01    2          -5         6   # BR(H^+ -> b_bar t)
     6.77730842E-13    2    -2000011   1000012   # BR(H^+ -> ~e^+_R ~nu_e)
     2.89863061E-08    2    -2000013   1000014   # BR(H^+ -> ~mu^+_R ~nu_mu)
     9.06356660E-06    2    -1000015   1000016   # BR(H^+ -> ~tau^+_1 ~nu_tau)
     4.76394827E-02    2          25        24   # BR(H^+ -> h^0 W^+)
DECAY         6     2.43000000E+00   # top
#    BR                NDA      ID1      ID2
     1.00000000E+00    2           5        24   # BR(t -> b W)
Block HiggsBoundsInputHiggsCouplingsFermions
# ScalarNormEffCoupSq PseudoSNormEffCoupSq NP IP1 IP2 IP2
    1.12759838E+00    0.00000000E+00        3  25   5   5  # h0-b-b eff. coupling^2, normalised to SM
    2.48724016E+01    0.00000000E+00        3  35   5   5  # H0-b-b eff. coupling^2, normalised to SM
    0.00000000E+00    2.50000000E+01        3  36   5   5  # A0-b-b eff. coupling^2, normalised to SM
#
    9.94896065E-01    0.00000000E+00        3  25   6   6  # h0-t-t eff. coupling^2, normalised to SM
    4.51039353E-02    0.00000000E+00        3  35   6   6  # H0-t-t eff. coupling^2, normalised to SM
    0.00000000E+00    4.00000000E-02        3  36   6   6  # A0-t-t eff. coupling^2, normalised to SM
#
    1.12759838E+00    0.00000000E+00        3  25  15  15  # h0-tau-tau eff. coupling^2, normalised to SM
    2.48724016E+01    0.00000000E+00        3  35  15  15  # H0-tau-tau eff. coupling^2, normalised to SM
    0.00000000E+00    2.50000000E+01        3  36  15  15  # A0-tau-tau eff. coupling^2, normalised to SM
#
Block HiggsBoundsInputHiggsCouplingsBosons
    9.99846433E-01        3  25  24  24  # h0-W-W eff. coupling^2, normalised to SM
    1.53567322E-04        3  35  24  24  # H0-W-W eff. coupling^2, normalised to SM
    0.00000000E+00        3  36  24  24  # A0-W-W eff. coupling^2, normalised to SM
#
    9.99846433E-01        3  25  23  23  # h0-Z-Z eff. coupling^2, normalised to SM
    1.53567322E-04        3  35  23  23  # H0-Z-Z eff. coupling^2, normalised to SM
    0.00000000E+00        3  36  23  23  # A0-Z-Z eff. coupling^2, normalised to SM
#
    1.15044632E+00        3  25  21  21  # h0-g-g eff. coupling^2, normalised to SM
    4.07514196E-02        3  35  21  21  # H0-g-g eff. coupling^2, normalised to SM
    2.11217140E-01        3  36  21  21  # A0-g-g eff. coupling^2, normalised to SM
#
    0.00000000E+00        3  25  25  23  # h0-h0-Z eff. coupling^2, normalised to SM
    0.00000000E+00        3  35  25  23  # H0-h0-Z eff. coupling^2, normalised to SM
    1.53567322E-04        3  36  25  23  # A0-h0-Z eff. coupling^2, normalised to SM
    0.00000000E+00        3  35  35  23  # H0-H0-Z eff. coupling^2, normalised to SM
    9.99846433E-01        3  36  35  23  # A0-H0-Z eff. coupling^2, normalised to SM
    0.00000000E+00        3  36  36  23  # A0-A0-Z eff. coupling^2, normalised to SM
#
    0.00000000E+00        4  25  21  21  23  # h0-g-g-Z eff. coupling^2, normalised to SM
    0.00000000E+00        4  35  21  21  23  # H0-g-g-Z eff. coupling^2, normalised to SM
    0.00000000E+00        4  36  21  21  23  # A0-g-g-Z eff. coupling^2, normalised to SM
Block SPhenoLowEnergy  # low energy observables
    1    3.11587608E-04   # BR(b -> s gamma)
    2    1.59384335E-06   # BR(b -> s mu+ mu-)
    3    3.54414520E-05   # BR(b -> s nu nu)
    4    5.18839609E-11   # BR(Bd -> mu+ mu-)
    5    3.38928538E-09   # BR(Bs -> mu+ mu-)
    6    1.10541772E-04   # BR(B_u -> tau nu)
    7    9.99533852E-01   # BR(B_u -> tau nu)/BR(B_u -> tau nu)_SM
    8    2.73642627E-01   # |Delta(M_Bd)| [ps^-1] 
    9    2.03096700E+01   # |Delta(M_Bs)| [ps^-1] 
   20    2.18838094E-15   # Delta(g-2)_electron/2
   21    4.53809815E-11   # Delta(g-2)_muon/2
   22    1.72301460E-09   # Delta(g-2)_tau/2
   23    0.00000000E+00   # electric dipole moment of the electron
   24    0.00000000E+00   # electric dipole moment of the muon
   25    0.00000000E+00   # electric dipole moment of the tau
   26    0.00000000E+00   # Br(mu -> e gamma)
   27    0.00000000E+00   # Br(tau -> e gamma)
   28    0.00000000E+00   # Br(tau -> mu gamma)
   29    0.00000000E+00   # Br(mu -> 3 e)
   30    0.00000000E+00   # Br(tau -> 3 e)
   31    0.00000000E+00   # Br(tau -> 3 mu)
   39    4.80760854E-04   # Delta(rho_parameter)
   40    0.00000000E+00   # BR(Z -> e mu)
   41    0.00000000E+00   # BR(Z -> e tau)
   42    0.00000000E+00   # BR(Z -> mu tau)
Block FWCOEF Q=  9.11876000E+01  # Wilson coefficients at scale Q
#    id        order  M        value         comment
Block FWCOEF Q=  1.60000000E+02  # Wilson coefficients at scale Q
#    id        order  M        value         comment
     0305 4422   00   0    -1.87751897E-01   # C7
     0305 4422   00   1    -1.33687509E-02   # C7
     0305 4322   00   1    -2.92672220E-04   # C7'
     0305 6421   00   0    -9.48876211E-02   # C8
     0305 6421   00   1    -1.71644996E-02   # C8
     0305 6321   00   1    -3.72981538E-04   # C8'
 03051111 4133   00   0    -1.38746644E+00   # C9 e+e-
 03051111 4133   00   1     4.01607954E-04   # C9 e+e-
 03051111 4233   00   1    -5.43083924E-07   # C9' e+e-
 03051111 4137   00   0    -3.94141952E+00   # C10 e+e-
 03051111 4137   00   1    -1.95428668E-03   # C10 e+e-
 03051111 4237   00   1     1.43934070E-05   # C10' e+e-
 03051313 4133   00   0    -1.38746644E+00   # C9 mu+mu-
 03051313 4133   00   1     4.01606053E-04   # C9 mu+mu-
 03051313 4233   00   1    -5.43084945E-07   # C9' mu+mu-
 03051313 4137   00   0    -3.94141952E+00   # C10 mu+mu-
 03051313 4137   00   1    -1.95428858E-03   # C10 mu+mu-
 03051313 4237   00   1     1.43934080E-05   # C10' mu+mu-
 03051212 4237   00   0     1.49006809E+00   # C11 nu_1 nu_1
 03051212 4237   00   1     4.68986449E-04   # C11 nu_1 nu_1
 03051212 4137   00   1    -3.46447181E-06   # C11' nu_1 nu_1
 03051414 4237   00   0     1.49006809E+00   # C11 nu_2 nu_2
 03051414 4237   00   1     4.68986450E-04   # C11 nu_2 nu_2
 03051414 4137   00   1    -3.46447157E-06   # C11' nu_2 nu_2
 03051616 4237   00   0     1.49006809E+00   # C11 nu_3 nu_3
 03051616 4237   00   1     4.68986715E-04   # C11 nu_3 nu_3
 03051616 4137   00   1    -3.46440432E-06   # C11' nu_3 nu_3
