# SUSY Les Houches Accord 2 - MSSM spectrum + Decays
# SPheno v3.1.12 
# W. Porod, Comput. Phys. Commun. 153 (2003) 275-315, hep-ph/0301101
# in case of problems send email to porod@physik.uni-wuerzburg.de
# Created: 09.12.2016,  15:23
Block SPINFO         # Program information
     1   SPheno      # spectrum calculator
     2   v3.1.12     # version number
#
Block SPhenoINFO     # SPheno specific information
    1      2         # using 2-loop RGEs
    2      1         # using running masses for boundary conditions at mZ
Block MODSEL  # Model selection
    1    2    # mGMSB model
Block MINPAR  # Input parameters
    1    1.30000000E+05  # Lambda, scale of SUSY breaking
    2    2.50000000E+05  # M_M, messenger mass scale
    3    4.00000000E+01  # tanb at m_Z   
    4    1.00000000E+00  # Sign(mu)
    5    3.00000000E+00  # N_5 number of effective five-plets
    6    1.00000000E+00  # c_grav, Gravitino mass factor
Block gauge Q=  2.50000000E+05  # (GMSB scale)
   1    4.93189385E-01  # g'(Q)^DRbar
   2    6.47301227E-01  # g(Q)^DRbar
   3    9.34913391E-01  # g3(Q)^DRbar
Block SMINPUTS  # SM parameters
         1     1.27932518E+02  # alpha_em^-1(MZ)^MSbar
         2     1.16639000E-05  # G_mu [GeV^-2]
         3     1.17200000E-01  # alpha_s(MZ)^MSbar
         4     9.11876000E+01  # m_Z(pole)
         5     4.20000000E+00  # m_b(m_b), MSbar
         6     1.72500000E+02  # m_t(pole)
         7     1.77700000E+00  # m_tau(pole)
         8     0.00000000E+00  # m_nu_3
        11     5.10998910E-04  # m_e(pole)
        12     0.00000000E+00  # m_nu_1
        13     1.05658000E-01  # m_muon(pole)
        14     0.00000000E+00  # m_nu_2
        21     5.00000000E-03  # m_d(2 GeV), MSbar
        22     3.00000000E-03  # m_u(2 GeV), MSbar
        23     1.05000000E-01  # m_s(2 GeV), MSbar
        24     1.27000000E+00  # m_c(m_c), MSbar
Block gauge Q=  2.44945116E+03  # (SUSY scale)
   1    3.64991627E-01  # g'(Q)^DRbar
   2    6.38148487E-01  # g(Q)^DRbar
   3    1.01349709E+00  # g3(Q)^DRbar
Block Yu Q=  2.44945116E+03  # (SUSY scale)
  1  1     8.32462329E-06   # Y_u(Q)^DRbar
  2  2     3.52409198E-03   # Y_c(Q)^DRbar
  3  3     8.37381906E-01   # Y_t(Q)^DRbar
Block Yd Q=  2.44945116E+03  # (SUSY scale)
  1  1     4.75267697E-04   # Y_d(Q)^DRbar
  2  2     9.98061604E-03   # Y_s(Q)^DRbar
  3  3     4.79400184E-01   # Y_b(Q)^DRbar
Block Ye Q=  2.44945116E+03  # (SUSY scale)
  1  1     1.23060556E-04   # Y_e(Q)^DRbar
  2  2     2.54451429E-02   # Y_mu(Q)^DRbar
  3  3     4.28892271E-01   # Y_tau(Q)^DRbar
Block Au Q=  2.44945116E+03  # (SUSY scale)
  1  1    -7.56781430E+02   # A_u(Q)^DRbar
  2  2    -7.56778736E+02   # A_c(Q)^DRbar
  3  3    -7.11476798E+02   # A_t(Q)^DRbar
Block Ad Q=  2.44945116E+03  # (SUSY scale)
  1  1    -7.87728489E+02   # A_d(Q)^DRbar
  2  2    -7.87722252E+02   # A_s(Q)^DRbar
  3  3    -7.60682974E+02   # A_b(Q)^DRbar
Block Ae Q=  2.44945116E+03  # (SUSY scale)
  1  1    -7.35734541E+01   # A_e(Q)^DRbar
  2  2    -7.35685009E+01   # A_mu(Q)^DRbar
  3  3    -7.21700639E+01   # A_tau(Q)^DRbar
Block MSOFT Q=  2.44945116E+03  # soft SUSY breaking masses at Q
   1    5.72668886E+02  # M_1
   2    1.04698828E+03  # M_2
   3    2.65212573E+03  # M_3
  21    2.32110674E+05  # M^2_(H,d)
  22   -5.79726312E+05  # M^2_(H,u)
  31    8.08781265E+02  # M_(L,11)
  32    8.08755079E+02  # M_(L,22)
  33    8.01344608E+02  # M_(L,33)
  34    3.92983378E+02  # M_(E,11)
  35    3.92873443E+02  # M_(E,22)
  36    3.60481427E+02  # M_(E,33)
  41    2.55589611E+03  # M_(Q,11)
  42    2.55588395E+03  # M_(Q,22)
  43    2.45550964E+03  # M_(Q,33)
  44    2.45012019E+03  # M_(U,11)
  45    2.45011739E+03  # M_(U,22)
  46    2.28914060E+03  # M_(U,33)
  47    2.43981560E+03  # M_(D,11)
  48    2.43979270E+03  # M_(D,22)
  49    2.38687933E+03  # M_(D,33)
Block MASS  # Mass spectrum
#   PDG code      mass          particle
         6     1.72500000E+02  # m_t(pole)
        23     9.11876000E+01  # m_Z(pole)
        24     8.03107486E+01  # W+
        15     1.77700000E+00  # m_tau(pole)
        25     1.20257804E+02  # h0
        35     9.47415593E+02  # H0
        36     9.47373781E+02  # A0
        37     9.51350467E+02  # H+
   1000001     2.66098917E+03  # ~d_L
   2000001     2.53864440E+03  # ~d_R
   1000002     2.65978786E+03  # ~u_L
   2000002     2.54826443E+03  # ~u_R
   1000003     2.66097498E+03  # ~s_L
   2000003     2.53861580E+03  # ~s_R
   1000004     2.65977318E+03  # ~c_L
   2000004     2.54826106E+03  # ~c_R
   1000005     2.47078886E+03  # ~b_1
   2000005     2.54181979E+03  # ~b_2
   1000006     2.35683145E+03  # ~t_1
   2000006     2.54570949E+03  # ~t_2
   1000011     8.27079350E+02  # ~e_L-
   2000011     4.08708288E+02  # ~e_R-
   1000012     8.22836925E+02  # ~nu_eL
   1000013     8.27058825E+02  # ~mu_L-
   2000013     4.08537781E+02  # ~mu_R-
   1000014     8.22799443E+02  # ~nu_muL
   1000015     3.58029986E+02  # ~tau_1-
   2000015     8.21149358E+02  # ~tau_2-
   1000016     8.12313249E+02  # ~nu_tauL
   1000021     2.78348056E+03  # ~g
   1000022     5.57028004E+02  # ~chi_10
   1000023     8.38485076E+02  # ~chi_20
   1000025    -8.50797578E+02  # ~chi_30
   1000035     1.08397281E+03  # ~chi_40
   1000024     8.36477715E+02  # ~chi_1+
   1000037     1.08415268E+03  # ~chi_2+
   1000039     7.80000000E-09  # ~G
# Higgs mixing
Block alpha # Effective Higgs mixing angle
          -2.63608196E-02   # alpha
Block Hmix Q=  2.44945116E+03  # Higgs mixing parameters
   1    8.40338455E+02  # mu
   2    3.89004008E+01  # tan[beta](Q)
   3    2.43479664E+02  # v(Q)
   4    8.04900851E+05  # m^2_A(Q)
Block stopmix # stop mixing matrix
   1  1     1.40645383E-01   # Re[R_st(1,1)]
   1  2     9.90060037E-01   # Re[R_st(1,2)]
   2  1    -9.90060037E-01   # Re[R_st(2,1)]
   2  2     1.40645383E-01   # Re[R_st(2,2)]
Block sbotmix # sbottom mixing matrix
   1  1     2.15849492E-01   # Re[R_sb(1,1)]
   1  2     9.76426647E-01   # Re[R_sb(1,2)]
   2  1    -9.76426647E-01   # Re[R_sb(2,1)]
   2  2     2.15849492E-01   # Re[R_sb(2,2)]
Block staumix # stau mixing matrix
   1  1     1.16444052E-01   # Re[R_sta(1,1)]
   1  2     9.93197253E-01   # Re[R_sta(1,2)]
   2  1    -9.93197253E-01   # Re[R_sta(2,1)]
   2  2     1.16444052E-01   # Re[R_sta(2,2)]
Block Nmix # neutralino mixing matrix
   1  1    -9.93309651E-01   # Re[N(1,1)]
   1  2     1.01585651E-02   # Re[N(1,2)]
   1  3    -9.53473369E-02   # Re[N(1,3)]
   1  4     6.43554735E-02   # Re[N(1,4)]
   2  1    -1.12276440E-01   # Re[N(2,1)]
   2  2    -2.35686359E-01   # Re[N(2,2)]
   2  3     6.86511516E-01   # Re[N(2,3)]
   2  4    -6.78636780E-01   # Re[N(2,4)]
   3  1    -2.16044745E-02   # Re[N(3,1)]
   3  2     2.83747608E-02   # Re[N(3,2)]
   3  3     7.05701942E-01   # Re[N(3,3)]
   3  4     7.07610690E-01   # Re[N(3,4)]
   4  1    -1.62230014E-02   # Re[N(4,1)]
   4  2     9.71361733E-01   # Re[N(4,2)]
   4  3     1.46954387E-01   # Re[N(4,3)]
   4  4    -1.86004316E-01   # Re[N(4,4)]
Block Umix # chargino mixing matrix
   1  1    -2.07770272E-01   # Re[U(1,1)]
   1  2     9.78177649E-01   # Re[U(1,2)]
   2  1     9.78177649E-01   # Re[U(2,1)]
   2  2     2.07770272E-01   # Re[U(2,2)]
Block Vmix # chargino mixing matrix
   1  1    -2.62871257E-01   # Re[V(1,1)]
   1  2     9.64830919E-01   # Re[V(1,2)]
   2  1     9.64830919E-01   # Re[V(2,1)]
   2  2     2.62871257E-01   # Re[V(2,2)]
DECAY   2000011     2.38754010E-07   # ~e^-_R
#    BR                NDA      ID1      ID2
     8.99663228E-04    2     1000039        11   # BR(~e^-_R -> ~G e^-)
#    BR                NDA      ID1      ID2       ID3
     1.96894736E-14    3     2000013        11       -13   # BR(~e^-_R -> ~mu^-_R e^- mu^+)
     6.85697719E-14    3    -2000013        11        13   # BR(~e^-_R -> ~mu^+_R e^- mu^-)
     2.03342334E-01    3     1000015        11       -15   # BR(~e^-_R -> ~tau^-_1 e^- tau^+)
     7.95758003E-01    3    -1000015        11        15   # BR(~e^-_R -> ~tau^+_1 e^- tau^-)
DECAY   1000011     3.11425851E-01   # ~e^-_L
#    BR                NDA      ID1      ID2
     9.99999388E-01    2     1000022        11   # BR(~e^-_L -> chi^0_1 e^-)
     2.89602799E-07    2     2000011        23   # BR(~e^-_L -> ~e^-_R Z)
     2.98582010E-07    2     2000011        25   # BR(~e^-_L -> ~e^-_R h^0)
     2.34069405E-08    2     1000039        11   # BR(~e^-_L -> ~G e^-)
DECAY   2000013     2.35088477E-07   # ~mu^-_R
#    BR                NDA      ID1      ID2
     9.11786361E-04    2     1000039        13   # BR(~mu^-_R -> ~G mu^-)
#    BR                NDA      ID1      ID2       ID3
     2.03028078E-01    3     1000015        13       -15   # BR(~mu^-_R -> ~tau^-_1 mu^- tau^+)
     7.96060135E-01    3    -1000015        13        15   # BR(~mu^-_R -> ~tau^+_1 mu^- tau^-)
DECAY   1000013     3.19259724E-01   # ~mu^-_L
#    BR                NDA      ID1      ID2
     9.75465226E-01    2     1000022        13   # BR(~mu^-_L -> chi^0_1 mu^-)
     1.20813393E-02    2     2000013        23   # BR(~mu^-_L -> ~mu^-_R Z)
     1.24534120E-02    2     2000013        25   # BR(~mu^-_L -> ~mu^-_R h^0)
     2.28297555E-08    2     1000039        13   # BR(~mu^-_L -> ~G mu^-)
DECAY   1000015     1.10794356E-10   # ~tau^-_1
#    BR                NDA      ID1      ID2
     1.00000000E+00    2     1000039        15   # BR(~tau^-_1 -> ~G tau^-)
DECAY   2000015     2.66114311E+00   # ~tau^-_2
#    BR                NDA      ID1      ID2
     1.16725501E-01    2     1000022        15   # BR(~tau^-_2 -> chi^0_1 tau^-)
     4.46354133E-01    2     1000015        23   # BR(~tau^-_2 -> ~tau^-_1 Z)
     4.36920364E-01    2     1000015        25   # BR(~tau^-_2 -> ~tau^-_1 h^0)
     2.64239564E-09    2     1000039        15   # BR(~tau^-_2 -> ~G tau^-)
DECAY   1000012     3.27114863E-01   # ~nu_e
#    BR                NDA      ID1      ID2
     9.99999447E-01    2     1000022        12   # BR(~nu_e -> chi^0_1 nu_e)
     5.31316578E-07    2     2000011        24   # BR(~nu_e -> ~e^-_R W^+)
     2.17186091E-08    2     1000039        12   # BR(~nu_e -> ~G nu_e)
DECAY   1000014     3.34481808E-01   # ~nu_mu
#    BR                NDA      ID1      ID2
     9.77779214E-01    2     1000022        14   # BR(~nu_mu -> chi^0_1 nu_mu)
     2.22207643E-02    2     2000013        24   # BR(~nu_mu -> ~mu^-_R W^+)
     2.12354205E-08    2     1000039        14   # BR(~nu_mu -> ~G nu_mu)
DECAY   1000016     2.56942504E+00   # ~nu_tau
#    BR                NDA      ID1      ID2
     1.20198029E-01    2     1000022        16   # BR(~nu_tau -> chi^0_1 nu_tau)
     8.79801968E-01    2     1000015        24   # BR(~nu_tau -> ~tau^-_1 W^+)
     2.59265754E-09    2     1000039        16   # BR(~nu_tau -> ~G nu_tau)
DECAY   2000001     1.35237748E+00   # ~d_R
#    BR                NDA      ID1      ID2
     9.88321937E-01    2     1000022         1   # BR(~d_R -> chi^0_1 d)
     1.10652888E-02    2     1000023         1   # BR(~d_R -> chi^0_2 d)
     4.09888682E-04    2     1000025         1   # BR(~d_R -> chi^0_3 d)
     1.94550846E-04    2     1000035         1   # BR(~d_R -> chi^0_4 d)
     6.85037466E-06    2    -1000024         2   # BR(~d_R -> chi^-_1 u)
     1.62317257E-08    2    -1000037         2   # BR(~d_R -> chi^-_2 u)
     1.46850305E-06    2     1000039         1   # BR(~d_R -> ~G d)
DECAY   1000001     2.30272536E+01   # ~d_L
#    BR                NDA      ID1      ID2
     1.70396182E-02    2     1000022         1   # BR(~d_L -> chi^0_1 d)
     1.74375549E-02    2     1000023         1   # BR(~d_L -> chi^0_2 d)
     3.98570810E-04    2     1000025         1   # BR(~d_L -> chi^0_3 d)
     3.09216528E-01    2     1000035         1   # BR(~d_L -> chi^0_4 d)
     3.28223019E-02    2    -1000024         2   # BR(~d_L -> chi^-_1 u)
     6.23085316E-01    2    -1000037         2   # BR(~d_L -> chi^-_2 u)
     6.12391161E-13    2     2000002       -24   # BR(~d_L -> ~u_R W^-)
     7.82254457E-10    2     2000001        23   # BR(~d_L -> ~d_R Z)
     4.40482359E-10    2     2000001        25   # BR(~d_L -> ~d_R h^0)
     1.09128156E-07    2     1000039         1   # BR(~d_L -> ~G d)
DECAY   2000003     1.36046927E+00   # ~s_R
#    BR                NDA      ID1      ID2
     9.82497184E-01    2     1000022         3   # BR(~s_R -> chi^0_1 s)
     1.24580951E-02    2     1000023         3   # BR(~s_R -> chi^0_2 s)
     1.83665974E-03    2     1000025         3   # BR(~s_R -> chi^0_3 s)
     1.96529106E-04    2     1000035         3   # BR(~s_R -> chi^0_4 s)
     3.00295290E-03    2    -1000024         4   # BR(~s_R -> chi^-_1 c)
     7.11979273E-06    2    -1000037         4   # BR(~s_R -> chi^-_2 c)
     1.45968645E-06    2     1000039         3   # BR(~s_R -> ~G s)
DECAY   1000003     2.30316270E+01   # ~s_L
#    BR                NDA      ID1      ID2
     1.70358731E-02    2     1000022         3   # BR(~s_L -> chi^0_1 s)
     1.75164245E-02    2     1000023         3   # BR(~s_L -> chi^0_2 s)
     4.91353990E-04    2     1000025         3   # BR(~s_L -> chi^0_3 s)
     3.09161590E-01    2     1000035         3   # BR(~s_L -> chi^0_4 s)
     3.28247415E-02    2    -1000024         4   # BR(~s_L -> chi^-_1 c)
     6.22969258E-01    2    -1000037         4   # BR(~s_L -> chi^-_2 c)
     1.09684619E-07    2     2000004       -24   # BR(~s_L -> ~c_R W^-)
     3.45102997E-07    2     2000003        23   # BR(~s_L -> ~s_R Z)
     1.94887861E-07    2     2000003        25   # BR(~s_L -> ~s_R h^0)
     1.09104523E-07    2     1000039         3   # BR(~s_L -> ~G s)
DECAY   1000005     2.04197354E+01   # ~b_1
#    BR                NDA      ID1      ID2
     7.66104271E-02    2     1000022         5   # BR(~b_1 -> chi^0_1 b)
     2.25774437E-01    2     1000023         5   # BR(~b_1 -> chi^0_2 b)
     2.09309274E-01    2     1000025         5   # BR(~b_1 -> chi^0_3 b)
     1.31758083E-03    2     1000035         5   # BR(~b_1 -> chi^0_4 b)
     4.80793773E-01    2    -1000024         6   # BR(~b_1 -> chi^-_1 t)
     6.08272937E-03    2    -1000037         6   # BR(~b_1 -> chi^-_2 t)
     1.11693212E-04    2     1000006       -24   # BR(~b_1 -> ~t_1 W^-)
     8.49349563E-08    2     1000039         5   # BR(~b_1 -> ~G b)
DECAY   2000005     5.66328368E+01   # ~b_2
#    BR                NDA      ID1      ID2
     4.97709060E-03    2     1000022         5   # BR(~b_2 -> chi^0_1 b)
     7.55201822E-02    2     1000023         5   # BR(~b_2 -> chi^0_2 b)
     8.25202133E-02    2     1000025         5   # BR(~b_2 -> chi^0_3 b)
     1.21055337E-01    2     1000035         5   # BR(~b_2 -> chi^0_4 b)
     4.35728328E-01    2    -1000024         6   # BR(~b_2 -> chi^-_1 t)
     2.73273131E-01    2    -1000037         6   # BR(~b_2 -> chi^-_2 t)
     6.92568298E-03    2     1000006       -24   # BR(~b_2 -> ~t_1 W^-)
     3.52869522E-08    2     1000039         5   # BR(~b_2 -> ~G b)
DECAY   2000002     5.43413958E+00   # ~u_R
#    BR                NDA      ID1      ID2
     9.88323536E-01    2     1000022         2   # BR(~u_R -> chi^0_1 u)
     1.10739543E-02    2     1000023         2   # BR(~u_R -> chi^0_2 u)
     4.07087374E-04    2     1000025         2   # BR(~u_R -> chi^0_3 u)
     1.95049636E-04    2     1000035         2   # BR(~u_R -> chi^0_4 u)
     5.29611036E-10    2     1000024         1   # BR(~u_R -> chi^+_1 d)
     2.84269998E-12    2     1000037         1   # BR(~u_R -> chi^+_2 d)
     3.72438950E-07    2     1000039         2   # BR(~u_R -> ~G u)
DECAY   1000002     2.30805313E+01   # ~u_L
#    BR                NDA      ID1      ID2
     1.37071860E-02    2     1000022         2   # BR(~u_L -> chi^0_1 u)
     2.50268215E-02    2     1000023         2   # BR(~u_L -> chi^0_2 u)
     2.21320226E-04    2     1000025         2   # BR(~u_L -> chi^0_3 u)
     3.04351433E-01    2     1000035         2   # BR(~u_L -> chi^0_4 u)
     5.23849211E-02    2     1000024         1   # BR(~u_L -> chi^+_1 d)
     6.04308208E-01    2     1000037         1   # BR(~u_L -> chi^+_2 d)
     2.08622444E-09    2     2000001        24   # BR(~u_L -> ~d_R W^+)
     1.68260519E-13    2     2000002        23   # BR(~u_L -> ~u_R Z)
     1.08630710E-07    2     1000039         2   # BR(~u_L -> ~G u)
DECAY   2000004     5.43515190E+00   # ~c_R
#    BR                NDA      ID1      ID2
     9.88137621E-01    2     1000022         4   # BR(~c_R -> chi^0_1 c)
     1.11177697E-02    2     1000023         4   # BR(~c_R -> chi^0_2 c)
     4.53608203E-04    2     1000025         4   # BR(~c_R -> chi^0_3 c)
     1.95223681E-04    2     1000035         4   # BR(~c_R -> chi^0_4 c)
     9.48959877E-05    2     1000024         3   # BR(~c_R -> chi^+_1 s)
     5.09142652E-07    2     1000037         3   # BR(~c_R -> chi^+_2 s)
     3.72366747E-07    2     1000039         4   # BR(~c_R -> ~G c)
DECAY   1000004     2.30850680E+01   # ~c_L
#    BR                NDA      ID1      ID2
     1.37044868E-02    2     1000022         4   # BR(~c_L -> chi^0_1 c)
     2.50312328E-02    2     1000023         4   # BR(~c_L -> chi^0_2 c)
     2.32618535E-04    2     1000025         4   # BR(~c_L -> chi^0_3 c)
     3.04290152E-01    2     1000035         4   # BR(~c_L -> chi^0_4 c)
     5.25487648E-02    2     1000024         3   # BR(~c_L -> chi^+_1 s)
     6.04191686E-01    2     1000037         3   # BR(~c_L -> chi^+_2 s)
     9.20201913E-07    2     2000003        24   # BR(~c_L -> ~s_R W^+)
     3.01268678E-08    2     2000004        23   # BR(~c_L -> ~c_R Z)
     1.08606266E-07    2     1000039         4   # BR(~c_L -> ~G c)
DECAY   1000006     5.45818264E+01   # ~t_1
#    BR                NDA      ID1      ID2
     1.43783224E-04    2     1000022         4   # BR(~t_1 -> chi^0_1 c)
     9.10947155E-02    2     1000022         6   # BR(~t_1 -> chi^0_1 t)
     2.53213338E-04    2     1000023         4   # BR(~t_1 -> chi^0_2 c)
     2.15829993E-01    2     1000023         6   # BR(~t_1 -> chi^0_2 t)
     2.31057826E-01    2     1000025         6   # BR(~t_1 -> chi^0_3 t)
     4.51958289E-03    2     1000035         6   # BR(~t_1 -> chi^0_4 t)
     4.47777620E-01    2     1000024         5   # BR(~t_1 -> chi^+_1 b)
     9.31125387E-03    2     1000037         5   # BR(~t_1 -> chi^+_2 b)
     2.45599182E-08    2     1000039         6   # BR(~t_1 -> ~G t)
#    BR                NDA      ID1      ID2       ID3
     1.19882942E-05    3     1000022        24         5   # BR(~t_1 -> chi^0_1 W^+ b)
DECAY   2000006     5.82076756E+01   # ~t_2
#    BR                NDA      ID1      ID2
     6.04215821E-03    2     1000022         6   # BR(~t_2 -> chi^0_1 t)
     2.20052386E-01    2     1000023         6   # BR(~t_2 -> chi^0_2 t)
     2.33326191E-01    2     1000025         6   # BR(~t_2 -> chi^0_3 t)
     1.38373478E-01    2     1000035         6   # BR(~t_2 -> chi^0_4 t)
     1.51099377E-01    2     1000024         5   # BR(~t_2 -> chi^+_1 b)
     2.45035010E-01    2     1000037         5   # BR(~t_2 -> chi^+_2 b)
     3.47879907E-03    2     1000006        23   # BR(~t_2 -> ~t_1 Z)
     2.59256539E-03    2     1000006        25   # BR(~t_2 -> ~t_1 h^0)
     3.39650799E-08    2     1000039         6   # BR(~t_2 -> ~G t)
DECAY   1000024     1.43059498E+00   # chi^+_1
#    BR                NDA      ID1      ID2
     5.27008798E-08    2    -2000011        12   # BR(chi^+_1 -> ~e^+_R nu_e)
     5.10517502E-05    2    -1000011        12   # BR(chi^+_1 -> ~e^+_L nu_e)
     2.25418073E-03    2    -2000013        14   # BR(chi^+_1 -> ~mu^+_R nu_mu)
     5.11310315E-05    2    -1000013        14   # BR(chi^+_1 -> ~mu^+_L nu_mu)
     7.24555894E-01    2    -1000015        16   # BR(chi^+_1 -> ~tau^+_1 nu_tau)
     5.26265355E-05    2    -2000015        16   # BR(chi^+_1 -> ~tau^+_2 nu_tau)
     1.71272168E-04    2     1000012       -11   # BR(chi^+_1 -> ~nu_e e^+)
     1.76390755E-04    2     1000014       -13   # BR(chi^+_1 -> ~nu_mu mu^+)
     4.03731860E-03    2     1000016       -15   # BR(chi^+_1 -> ~nu_tau tau^+)
     2.68370258E-01    2     1000022        24   # BR(chi^+_1 -> chi^0_1 W^+)
#    BR                NDA      ID1      ID2       ID3
     1.52126941E-09    3     1000022        -1         2   # BR(chi^+_1 -> chi^0_1 d_bar u)
     2.74076443E-09    3     1000022        -3         4   # BR(chi^+_1 -> chi^0_1 s_bar c)
     2.63527985E-04    3     1000022        -5         6   # BR(chi^+_1 -> chi^0_1 b_bar t)
     1.79130831E-12    3     1000022       -11        12   # BR(chi^+_1 -> chi^0_1 e^+ nu_e)
     7.64978216E-08    3     1000022       -13        14   # BR(chi^+_1 -> chi^0_1 mu^+ nu_mu)
     1.62146811E-05    3     1000022       -15        16   # BR(chi^+_1 -> chi^0_1 tau^+ nu_tau)
DECAY   1000037     8.98165140E+00   # chi^+_2
#    BR                NDA      ID1      ID2
     1.14403345E-11    2    -2000011        12   # BR(chi^+_2 -> ~e^+_R nu_e)
     8.17508794E-02    2    -1000011        12   # BR(chi^+_2 -> ~e^+_L nu_e)
     4.90217322E-07    2    -2000013        14   # BR(chi^+_2 -> ~mu^+_R nu_mu)
     8.17679262E-02    2    -1000013        14   # BR(chi^+_2 -> ~mu^+_L nu_mu)
     2.38467073E-04    2    -1000015        16   # BR(chi^+_2 -> ~tau^+_1 nu_tau)
     8.67141247E-02    2    -2000015        16   # BR(chi^+_2 -> ~tau^+_2 nu_tau)
     8.18175274E-02    2     1000012       -11   # BR(chi^+_2 -> ~nu_e e^+)
     8.18431659E-02    2     1000014       -13   # BR(chi^+_2 -> ~nu_mu mu^+)
     8.92089749E-02    2     1000016       -15   # BR(chi^+_2 -> ~nu_tau tau^+)
     7.35252002E-04    2     1000022        24   # BR(chi^+_2 -> chi^0_1 W^+)
     1.33161409E-01    2     1000023        24   # BR(chi^+_2 -> chi^0_2 W^+)
     1.18508758E-01    2     1000025        24   # BR(chi^+_2 -> chi^0_3 W^+)
     1.30207917E-01    2     1000024        23   # BR(chi^+_2 -> chi^+_1 Z)
     1.13928126E-01    2     1000024        25   # BR(chi^+_2 -> chi^+_1 h^0)
#    BR                NDA      ID1      ID2       ID3
     2.61386296E-09    3     1000024         2        -2   # BR(chi^+_2 -> chi^+_1 u u_bar)
     2.61191732E-09    3     1000024         4        -4   # BR(chi^+_2 -> chi^+_1 c c_bar)
     4.08094650E-09    3     1000024         1        -1   # BR(chi^+_2 -> chi^+_1 d d_bar)
     4.85686422E-09    3     1000024         3        -3   # BR(chi^+_2 -> chi^+_1 s s_bar)
     1.82612195E-06    3     1000024         5        -5   # BR(chi^+_2 -> chi^+_1 b b_bar)
     1.46372528E-06    3     1000024        11       -11   # BR(chi^+_2 -> chi^+_1 e^- e^+)
     1.48993953E-06    3     1000024        13       -13   # BR(chi^+_2 -> chi^+_1 mu^- mu^+)
     7.76742643E-06    3     1000024        15       -15   # BR(chi^+_2 -> chi^+_1 tau^- tau^+)
     2.46379876E-06    3     1000024        12       -12   # BR(chi^+_2 -> chi^+_1 nu_e nu_bar_e)
     7.61224232E-08    3     1000022        -1         2   # BR(chi^+_2 -> chi^0_1 d_bar u)
     7.61236105E-08    3     1000022        -3         4   # BR(chi^+_2 -> chi^0_1 s_bar c)
     5.60885079E-06    3     1000022        -5         6   # BR(chi^+_2 -> chi^0_1 b_bar t)
     1.26176679E-10    3     1000022       -13        14   # BR(chi^+_2 -> chi^0_1 mu^+ nu_mu)
     4.50654099E-08    3     1000022       -15        16   # BR(chi^+_2 -> chi^0_1 tau^+ nu_tau)
     1.66121027E-09    3     1000023        -1         2   # BR(chi^+_2 -> chi^0_2 d_bar u)
     2.07205879E-09    3     1000023        -3         4   # BR(chi^+_2 -> chi^0_2 s_bar c)
     5.66329557E-05    3     1000023        -5         6   # BR(chi^+_2 -> chi^0_2 b_bar t)
     9.24056971E-07    3     1000023       -11        12   # BR(chi^+_2 -> chi^0_2 e^+ nu_e)
     9.36654363E-07    3     1000023       -13        14   # BR(chi^+_2 -> chi^0_2 mu^+ nu_mu)
     3.91579901E-06    3     1000023       -15        16   # BR(chi^+_2 -> chi^0_2 tau^+ nu_tau)
     5.60378181E-11    3     1000025        -1         2   # BR(chi^+_2 -> chi^0_3 d_bar u)
     3.48143634E-10    3     1000025        -3         4   # BR(chi^+_2 -> chi^0_3 s_bar c)
     3.12873524E-05    3     1000025        -5         6   # BR(chi^+_2 -> chi^0_3 b_bar t)
     1.52846152E-08    3     1000025       -11        12   # BR(chi^+_2 -> chi^0_3 e^+ nu_e)
     2.48083507E-08    3     1000025       -13        14   # BR(chi^+_2 -> chi^0_3 mu^+ nu_mu)
     2.40964109E-06    3     1000025       -15        16   # BR(chi^+_2 -> chi^0_3 tau^+ nu_tau)
DECAY   1000022     2.25219989E+00   # chi^0_1
#    BR                NDA      ID1      ID2
     1.37829478E-01    2     2000011       -11   # BR(chi^0_1 -> ~e^-_R e^+)
     1.37829478E-01    2    -2000011        11   # BR(chi^0_1 -> ~e^+_R e^-)
     1.38100399E-01    2     2000013       -13   # BR(chi^0_1 -> ~mu^-_R mu^+)
     1.38100399E-01    2    -2000013        13   # BR(chi^0_1 -> ~mu^+_R mu^-)
     2.24070122E-01    2     1000015       -15   # BR(chi^0_1 -> ~tau^-_1 tau^+)
     2.24070122E-01    2    -1000015        15   # BR(chi^0_1 -> ~tau^+_1 tau^-)
     3.29534877E-10    2     1000039        22   # BR(chi^0_1 -> ~G photon)
     9.84172929E-11    2     1000039        23   # BR(chi^0_1 -> ~G Z)
     1.99963777E-12    2     1000039        25   # BR(chi^0_1 -> ~G h^0)
DECAY   1000023     1.55804986E+00   # chi^0_2
#    BR                NDA      ID1      ID2
     1.04510598E-02    2     2000011       -11   # BR(chi^0_2 -> ~e^-_R e^+)
     1.04510598E-02    2    -2000011        11   # BR(chi^0_2 -> ~e^+_R e^-)
     7.15776979E-05    2     1000011       -11   # BR(chi^0_2 -> ~e^-_L e^+)
     7.15776979E-05    2    -1000011        11   # BR(chi^0_2 -> ~e^+_L e^-)
     1.14679578E-02    2     2000013       -13   # BR(chi^0_2 -> ~mu^-_R mu^+)
     1.14679578E-02    2    -2000013        13   # BR(chi^0_2 -> ~mu^+_R mu^-)
     7.31239593E-05    2     1000013       -13   # BR(chi^0_2 -> ~mu^-_L mu^+)
     7.31239593E-05    2    -1000013        13   # BR(chi^0_2 -> ~mu^+_L mu^-)
     3.41629504E-01    2     1000015       -15   # BR(chi^0_2 -> ~tau^-_1 tau^+)
     3.41629504E-01    2    -1000015        15   # BR(chi^0_2 -> ~tau^+_1 tau^-)
     9.43053904E-04    2     2000015       -15   # BR(chi^0_2 -> ~tau^-_2 tau^+)
     9.43053904E-04    2    -2000015        15   # BR(chi^0_2 -> ~tau^+_2 tau^-)
     4.38180595E-05    2     1000012       -12   # BR(chi^0_2 -> ~nu_e nu_bar_e)
     4.38180595E-05    2    -1000012        12   # BR(chi^0_2 -> ~nu^*_e nu_e)
     4.40262413E-05    2     1000014       -14   # BR(chi^0_2 -> ~nu_mu nu_bar_mu)
     4.40262413E-05    2    -1000014        14   # BR(chi^0_2 -> ~nu^*_mu nu_mu)
     1.21025139E-04    2     1000016       -16   # BR(chi^0_2 -> ~nu_tau nu_bar_tau)
     1.21025139E-04    2    -1000016        16   # BR(chi^0_2 -> ~nu^*_tau nu_tau)
     1.15095280E-02    2     1000022        23   # BR(chi^0_2 -> chi^0_1 Z)
     2.58778636E-01    2     1000022        25   # BR(chi^0_2 -> chi^0_1 h^0)
     2.30469636E-10    2     1000039        22   # BR(chi^0_2 -> ~G photon)
     1.98278598E-10    2     1000039        23   # BR(chi^0_2 -> ~G Z)
     2.42947314E-09    2     1000039        25   # BR(chi^0_2 -> ~G h^0)
     2.48321804E-07    2     1000022        22   # BR(chi^0_2 -> chi^0_1 photon)
#    BR                NDA      ID1      ID2       ID3
     2.63769646E-09    3     1000022         2        -2   # BR(chi^0_2 -> chi^0_1 u u_bar)
     2.64136740E-09    3     1000022         4        -4   # BR(chi^0_2 -> chi^0_1 c c_bar)
     7.91061922E-10    3     1000022         1        -1   # BR(chi^0_2 -> chi^0_1 d d_bar)
     2.13658895E-09    3     1000022         3        -3   # BR(chi^0_2 -> chi^0_1 s s_bar)
     3.14281003E-06    3     1000022         5        -5   # BR(chi^0_2 -> chi^0_1 b b_bar)
     1.22580811E-06    3     1000022        11       -11   # BR(chi^0_2 -> chi^0_1 e^- e^+)
     1.29268967E-06    3     1000022        13       -13   # BR(chi^0_2 -> chi^0_1 mu^- mu^+)
     1.56223715E-05    3     1000022        15       -15   # BR(chi^0_2 -> chi^0_1 tau^- tau^+)
     9.21541399E-12    3     1000024         1        -2   # BR(chi^0_2 -> chi^+_1 d u_bar)
     9.21541399E-12    3    -1000024        -1         2   # BR(chi^0_2 -> chi^-_1 d_bar u)
     1.07169565E-12    3     1000024         3        -4   # BR(chi^0_2 -> chi^+_1 s c_bar)
     1.07169565E-12    3    -1000024        -3         4   # BR(chi^0_2 -> chi^-_1 s_bar c)
     2.96975286E-12    3     1000024        11       -12   # BR(chi^0_2 -> chi^+_1 e^- nu_bar_e)
     2.96975286E-12    3    -1000024       -11        12   # BR(chi^0_2 -> chi^-_1 e^+ nu_e)
     2.92911670E-12    3     1000024        13       -14   # BR(chi^0_2 -> chi^+_1 mu^- nu_bar_mu)
     2.92911670E-12    3    -1000024       -13        14   # BR(chi^0_2 -> chi^-_1 mu^+ nu_mu)
DECAY   1000025     1.47202977E+00   # chi^0_3
#    BR                NDA      ID1      ID2
     4.23091567E-04    2     2000011       -11   # BR(chi^0_3 -> ~e^-_R e^+)
     4.23091567E-04    2    -2000011        11   # BR(chi^0_3 -> ~e^+_R e^-)
     9.07994198E-07    2     1000011       -11   # BR(chi^0_3 -> ~e^-_L e^+)
     9.07994198E-07    2    -1000011        11   # BR(chi^0_3 -> ~e^+_L e^-)
     1.50482803E-03    2     2000013       -13   # BR(chi^0_3 -> ~mu^-_R mu^+)
     1.50482803E-03    2    -2000013        13   # BR(chi^0_3 -> ~mu^+_R mu^-)
     6.62671055E-06    2     1000013       -13   # BR(chi^0_3 -> ~mu^-_L mu^+)
     6.62671055E-06    2    -1000013        13   # BR(chi^0_3 -> ~mu^+_L mu^-)
     3.51845573E-01    2     1000015       -15   # BR(chi^0_3 -> ~tau^-_1 tau^+)
     3.51845573E-01    2    -1000015        15   # BR(chi^0_3 -> ~tau^+_1 tau^-)
     2.54377135E-03    2     2000015       -15   # BR(chi^0_3 -> ~tau^-_2 tau^+)
     2.54377135E-03    2    -2000015        15   # BR(chi^0_3 -> ~tau^+_2 tau^-)
     8.11700039E-06    2     1000012       -12   # BR(chi^0_3 -> ~nu_e nu_bar_e)
     8.11700039E-06    2    -1000012        12   # BR(chi^0_3 -> ~nu^*_e nu_e)
     8.13841279E-06    2     1000014       -14   # BR(chi^0_3 -> ~nu_mu nu_bar_mu)
     8.13841279E-06    2    -1000014        14   # BR(chi^0_3 -> ~nu^*_mu nu_mu)
     1.51841306E-05    2     1000016       -16   # BR(chi^0_3 -> ~nu_tau nu_bar_tau)
     1.51841306E-05    2    -1000016        16   # BR(chi^0_3 -> ~nu^*_tau nu_tau)
     2.77560042E-01    2     1000022        23   # BR(chi^0_3 -> chi^0_1 Z)
     9.70415559E-03    2     1000022        25   # BR(chi^0_3 -> chi^0_1 h^0)
     1.24190397E-13    2     1000039        22   # BR(chi^0_3 -> ~G photon)
     5.46382312E-10    2     1000039        23   # BR(chi^0_3 -> ~G Z)
     2.70486563E-09    2     1000039        25   # BR(chi^0_3 -> ~G h^0)
     2.16104880E-07    2     1000022        22   # BR(chi^0_3 -> chi^0_1 photon)
     8.20095029E-10    2     1000023        22   # BR(chi^0_3 -> chi^0_2 photon)
#    BR                NDA      ID1      ID2       ID3
     3.44082608E-11    3     1000022         2        -2   # BR(chi^0_3 -> chi^0_1 u u_bar)
     4.21861542E-11    3     1000022         4        -4   # BR(chi^0_3 -> chi^0_1 c c_bar)
     1.27780957E-11    3     1000022         1        -1   # BR(chi^0_3 -> chi^0_1 d d_bar)
     1.68418323E-09    3     1000022         3        -3   # BR(chi^0_3 -> chi^0_1 s s_bar)
     3.89062211E-06    3     1000022         5        -5   # BR(chi^0_3 -> chi^0_1 b b_bar)
     2.05455033E-08    3     1000022        11       -11   # BR(chi^0_3 -> chi^0_1 e^- e^+)
     1.04318193E-07    3     1000022        13       -13   # BR(chi^0_3 -> chi^0_1 mu^- mu^+)
     1.80227907E-05    3     1000022        15       -15   # BR(chi^0_3 -> chi^0_1 tau^- tau^+)
     2.10390839E-08    3     1000023         2        -2   # BR(chi^0_3 -> chi^0_2 u u_bar)
     1.96681096E-08    3     1000023         4        -4   # BR(chi^0_3 -> chi^0_2 c c_bar)
     2.73130829E-08    3     1000023         1        -1   # BR(chi^0_3 -> chi^0_2 d d_bar)
     2.72971121E-08    3     1000023         3        -3   # BR(chi^0_3 -> chi^0_2 s s_bar)
     7.86287303E-09    3     1000023         5        -5   # BR(chi^0_3 -> chi^0_2 b b_bar)
     6.29042634E-09    3     1000023        11       -11   # BR(chi^0_3 -> chi^0_2 e^- e^+)
     6.28515206E-09    3     1000023        13       -13   # BR(chi^0_3 -> chi^0_2 mu^- mu^+)
     4.87788995E-09    3     1000023        15       -15   # BR(chi^0_3 -> chi^0_2 tau^- tau^+)
     3.75715841E-08    3     1000023        12       -12   # BR(chi^0_3 -> chi^0_2 nu_e nu_bar_e)
     1.54374284E-07    3     1000024         1        -2   # BR(chi^0_3 -> chi^+_1 d u_bar)
     1.54374284E-07    3    -1000024        -1         2   # BR(chi^0_3 -> chi^-_1 d_bar u)
     1.48546502E-07    3     1000024         3        -4   # BR(chi^0_3 -> chi^+_1 s c_bar)
     1.48546502E-07    3    -1000024        -3         4   # BR(chi^0_3 -> chi^-_1 s_bar c)
     5.13903818E-08    3     1000024        11       -12   # BR(chi^0_3 -> chi^+_1 e^- nu_bar_e)
     5.13903818E-08    3    -1000024       -11        12   # BR(chi^0_3 -> chi^-_1 e^+ nu_e)
     5.13786073E-08    3     1000024        13       -14   # BR(chi^0_3 -> chi^+_1 mu^- nu_bar_mu)
     5.13786073E-08    3    -1000024       -13        14   # BR(chi^0_3 -> chi^-_1 mu^+ nu_mu)
     4.77388685E-08    3     1000024        15       -16   # BR(chi^0_3 -> chi^+_1 tau^- nu_bar_tau)
     4.77388685E-08    3    -1000024       -15        16   # BR(chi^0_3 -> chi^-_1 tau^+ nu_tau)
DECAY   1000035     8.98281360E+00   # chi^0_4
#    BR                NDA      ID1      ID2
     6.19402173E-05    2     2000011       -11   # BR(chi^0_4 -> ~e^-_R e^+)
     6.19402173E-05    2    -2000011        11   # BR(chi^0_4 -> ~e^+_R e^-)
     3.94931961E-02    2     1000011       -11   # BR(chi^0_4 -> ~e^-_L e^+)
     3.94931961E-02    2    -1000011        11   # BR(chi^0_4 -> ~e^+_L e^-)
     6.18478386E-05    2     2000013       -13   # BR(chi^0_4 -> ~mu^-_R mu^+)
     6.18478386E-05    2    -2000013        13   # BR(chi^0_4 -> ~mu^+_R mu^-)
     3.95042196E-02    2     1000013       -13   # BR(chi^0_4 -> ~mu^-_L mu^+)
     3.95042196E-02    2    -1000013        13   # BR(chi^0_4 -> ~mu^+_L mu^-)
     1.39099060E-04    2     1000015       -15   # BR(chi^0_4 -> ~tau^-_1 tau^+)
     1.39099060E-04    2    -1000015        15   # BR(chi^0_4 -> ~tau^+_1 tau^-)
     4.27023872E-02    2     2000015       -15   # BR(chi^0_4 -> ~tau^-_2 tau^+)
     4.27023872E-02    2    -2000015        15   # BR(chi^0_4 -> ~tau^+_2 tau^-)
     4.22098312E-02    2     1000012       -12   # BR(chi^0_4 -> ~nu_e nu_bar_e)
     4.22098312E-02    2    -1000012        12   # BR(chi^0_4 -> ~nu^*_e nu_e)
     4.22202895E-02    2     1000014       -14   # BR(chi^0_4 -> ~nu_mu nu_bar_mu)
     4.22202895E-02    2    -1000014        14   # BR(chi^0_4 -> ~nu^*_mu nu_mu)
     4.51776333E-02    2     1000016       -16   # BR(chi^0_4 -> ~nu_tau nu_bar_tau)
     4.51776333E-02    2    -1000016        16   # BR(chi^0_4 -> ~nu^*_tau nu_tau)
     1.33393369E-01    2     1000024       -24   # BR(chi^0_4 -> chi^+_1 W^-)
     1.33393369E-01    2    -1000024        24   # BR(chi^0_4 -> chi^-_1 W^+)
     7.90996781E-05    2     1000022        23   # BR(chi^0_4 -> chi^0_1 Z)
     2.25221115E-03    2     1000023        23   # BR(chi^0_4 -> chi^0_2 Z)
     1.12376688E-01    2     1000025        23   # BR(chi^0_4 -> chi^0_3 Z)
     7.78281304E-04    2     1000022        25   # BR(chi^0_4 -> chi^0_1 h^0)
     1.13228027E-01    2     1000023        25   # BR(chi^0_4 -> chi^0_2 h^0)
     1.21506121E-03    2     1000025        25   # BR(chi^0_4 -> chi^0_3 h^0)
     6.87816353E-10    2     1000039        22   # BR(chi^0_4 -> ~G photon)
     2.80834494E-09    2     1000039        23   # BR(chi^0_4 -> ~G Z)
     1.13039304E-10    2     1000039        25   # BR(chi^0_4 -> ~G h^0)
     1.88391924E-07    2     1000022        22   # BR(chi^0_4 -> chi^0_1 photon)
     8.30950418E-07    2     1000023        22   # BR(chi^0_4 -> chi^0_2 photon)
     8.17523028E-07    2     1000025        22   # BR(chi^0_4 -> chi^0_3 photon)
#    BR                NDA      ID1      ID2       ID3
     3.38877332E-08    3     1000022         2        -2   # BR(chi^0_4 -> chi^0_1 u u_bar)
     3.38851666E-08    3     1000022         4        -4   # BR(chi^0_4 -> chi^0_1 c c_bar)
     9.57436287E-07    3     1000022         6        -6   # BR(chi^0_4 -> chi^0_1 t t_bar)
     4.23180851E-08    3     1000022         1        -1   # BR(chi^0_4 -> chi^0_1 d d_bar)
     4.23199697E-08    3     1000022         3        -3   # BR(chi^0_4 -> chi^0_1 s s_bar)
     5.41477544E-08    3     1000022         5        -5   # BR(chi^0_4 -> chi^0_1 b b_bar)
     3.24807808E-08    3     1000022        11       -11   # BR(chi^0_4 -> chi^0_1 e^- e^+)
     3.23853391E-08    3     1000022        13       -13   # BR(chi^0_4 -> chi^0_1 mu^- mu^+)
     4.84803324E-08    3     1000022        15       -15   # BR(chi^0_4 -> chi^0_1 tau^- tau^+)
     2.81418343E-09    3     1000023         2        -2   # BR(chi^0_4 -> chi^0_2 u u_bar)
     2.81252982E-09    3     1000023         4        -4   # BR(chi^0_4 -> chi^0_2 c c_bar)
     1.97667496E-09    3     1000023         1        -1   # BR(chi^0_4 -> chi^0_2 d d_bar)
     2.32595289E-09    3     1000023         3        -3   # BR(chi^0_4 -> chi^0_2 s s_bar)
     8.21659954E-07    3     1000023         5        -5   # BR(chi^0_4 -> chi^0_2 b b_bar)
     1.31552598E-06    3     1000023        11       -11   # BR(chi^0_4 -> chi^0_2 e^- e^+)
     1.32802896E-06    3     1000023        13       -13   # BR(chi^0_4 -> chi^0_2 mu^- mu^+)
     4.32989488E-06    3     1000023        15       -15   # BR(chi^0_4 -> chi^0_2 tau^- tau^+)
     1.12571851E-06    3     1000023        12       -12   # BR(chi^0_4 -> chi^0_2 nu_e nu_bar_e)
     6.75023780E-12    3     1000025         2        -2   # BR(chi^0_4 -> chi^0_3 u u_bar)
     7.34085549E-12    3     1000025         4        -4   # BR(chi^0_4 -> chi^0_3 c c_bar)
     1.29654422E-11    3     1000025         1        -1   # BR(chi^0_4 -> chi^0_3 d d_bar)
     3.31058869E-10    3     1000025         3        -3   # BR(chi^0_4 -> chi^0_3 s s_bar)
     7.44479020E-07    3     1000025         5        -5   # BR(chi^0_4 -> chi^0_3 b b_bar)
     1.05694284E-09    3     1000025        11       -11   # BR(chi^0_4 -> chi^0_3 e^- e^+)
     9.96653572E-09    3     1000025        13       -13   # BR(chi^0_4 -> chi^0_3 mu^- mu^+)
     2.23396960E-06    3     1000025        15       -15   # BR(chi^0_4 -> chi^0_3 tau^- tau^+)
     1.78801813E-08    3     1000025        12       -12   # BR(chi^0_4 -> chi^0_3 nu_e nu_bar_e)
     1.74214868E-09    3     1000024         1        -2   # BR(chi^0_4 -> chi^+_1 d u_bar)
     1.74214868E-09    3    -1000024        -1         2   # BR(chi^0_4 -> chi^-_1 d_bar u)
     2.15401538E-09    3     1000024         3        -4   # BR(chi^0_4 -> chi^+_1 s c_bar)
     2.15401538E-09    3    -1000024        -3         4   # BR(chi^0_4 -> chi^-_1 s_bar c)
     5.88495681E-05    3     1000024         5        -6   # BR(chi^0_4 -> chi^+_1 b t_bar)
     5.88495681E-05    3    -1000024        -5         6   # BR(chi^0_4 -> chi^-_1 b_bar t)
     8.42278751E-07    3     1000024        11       -12   # BR(chi^0_4 -> chi^+_1 e^- nu_bar_e)
     8.42278751E-07    3    -1000024       -11        12   # BR(chi^0_4 -> chi^-_1 e^+ nu_e)
     8.54201953E-07    3     1000024        13       -14   # BR(chi^0_4 -> chi^+_1 mu^- nu_bar_mu)
     8.54201953E-07    3    -1000024       -13        14   # BR(chi^0_4 -> chi^-_1 mu^+ nu_mu)
     3.42426686E-06    3     1000024        15       -16   # BR(chi^0_4 -> chi^+_1 tau^- nu_bar_tau)
     3.42426686E-06    3    -1000024       -15        16   # BR(chi^0_4 -> chi^-_1 tau^+ nu_tau)
DECAY   1000021     1.71664714E+01   # ~g
#    BR                NDA      ID1      ID2
     4.34082715E-02    2     2000002        -2   # BR(~g -> ~u_R u_bar)
     4.34082715E-02    2    -2000002         2   # BR(~g -> ~u^*_R u)
     1.25114378E-02    2     1000002        -2   # BR(~g -> ~u_L u_bar)
     1.25114378E-02    2    -1000002         2   # BR(~g -> ~u^*_L u)
     4.34083741E-02    2     2000004        -4   # BR(~g -> ~c_R c_bar)
     4.34083741E-02    2    -2000004         4   # BR(~g -> ~c^*_R c)
     1.25139829E-02    2     1000004        -4   # BR(~g -> ~c_L c_bar)
     1.25139829E-02    2    -1000004         4   # BR(~g -> ~c^*_L c)
     3.81125037E-03    2     1000006        -4   # BR(~g -> ~t_1 c_bar)
     3.81125037E-03    2    -1000006         4   # BR(~g -> ~t^*_1 c)
     1.08192643E-01    2     1000006        -6   # BR(~g -> ~t_1 t_bar)
     1.08192643E-01    2    -1000006         6   # BR(~g -> ~t^*_1 t)
     3.76318153E-02    2     2000006        -6   # BR(~g -> ~t_2 t_bar)
     3.76318153E-02    2    -2000006         6   # BR(~g -> ~t^*_2 t)
     4.68619970E-02    2     2000001        -1   # BR(~g -> ~d_R d_bar)
     4.68619970E-02    2    -2000001         1   # BR(~g -> ~d^*_R d)
     1.22750101E-02    2     1000001        -1   # BR(~g -> ~d_L d_bar)
     1.22750101E-02    2    -1000001         1   # BR(~g -> ~d^*_L d)
     4.68723360E-02    2     2000003        -3   # BR(~g -> ~s_R s_bar)
     4.68723360E-02    2    -2000003         3   # BR(~g -> ~s^*_R s)
     1.22778394E-02    2     1000003        -3   # BR(~g -> ~s_L s_bar)
     1.22778394E-02    2    -1000003         3   # BR(~g -> ~s^*_L s)
     7.40473020E-02    2     1000005        -5   # BR(~g -> ~b_1 b_bar)
     7.40473020E-02    2    -1000005         5   # BR(~g -> ~b^*_1 b)
     4.60525375E-02    2     2000005        -5   # BR(~g -> ~b_2 b_bar)
     4.60525375E-02    2    -2000005         5   # BR(~g -> ~b^*_2 b)
     2.06718243E-06    2     1000022        21   # BR(~g -> chi^0_1 g)
     1.16598292E-04    2     1000023        21   # BR(~g -> chi^0_2 g)
     1.39739940E-04    2     1000025        21   # BR(~g -> chi^0_3 g)
     1.20000201E-05    2     1000035        21   # BR(~g -> chi^0_4 g)
DECAY        25     2.57185094E-03   # h^0
#    BR                NDA      ID1      ID2
     1.00241009E-08    2          11       -11   # BR(h^0 -> e^- e^+)
     4.28531633E-04    2          13       -13   # BR(h^0 -> mu^- mu^+)
     1.19066545E-01    2          15       -15   # BR(h^0 -> tau^- tau^+)
     6.16951263E-07    2           1        -1   # BR(h^0 -> d d_bar)
     2.72071629E-04    2           3        -3   # BR(h^0 -> s s_bar)
     5.91484129E-01    2           5        -5   # BR(h^0 -> b b_bar)
     2.59947440E-07    2           2        -2   # BR(h^0 -> u u_bar)
     4.65759086E-02    2           4        -4   # BR(h^0 -> c c_bar)
     7.01235965E-02    2          21        21   # BR(h^0 -> g g)
     3.45601020E-03    2          22        22   # BR(h^0 -> photon photon)
# writing decays into V V* as 3-body decays
#    BR                NDA      ID1      ID2       ID3
     7.70298738E-03    3          24        11        12   # BR(h^0 -> W^+ e^- nu_e)
     7.70298738E-03    3          24        13        14   # BR(h^0 -> W^+ mu^- nu_mu)
     7.70298738E-03    3          24        15        16   # BR(h^0 -> W^+ tau^- nu_tau)
     2.69604558E-02    3          24         1        -2   # BR(h^0 -> W^+ d u_bar)
     2.69604558E-02    3          24         3        -4   # BR(h^0 -> W^+ s c_bar)
     7.70298738E-03    3         -24       -11       -12   # BR(h^0 -> W^- e^+ nu_bar_e)
     7.70298738E-03    3         -24       -13       -14   # BR(h^0 -> W^- mu^+ nu_bar_mu)
     7.70298738E-03    3         -24       -15       -16   # BR(h^0 -> W^- tau^+ nu_bar_tau)
     2.69604558E-02    3         -24        -1         2   # BR(h^0 -> W^- d_bar u)
     2.69604558E-02    3         -24        -3         4   # BR(h^0 -> W^- s_bar c)
     5.08640075E-04    3          23        11       -11   # BR(h^0 -> Z e^- e^+)
     5.08640075E-04    3          23        13       -13   # BR(h^0 -> Z mu^- mu^+)
     4.35977207E-04    3          23        15       -15   # BR(h^0 -> Z tau^- tau^+)
     2.90651471E-03    3          23        12       -12   # BR(h^0 -> Z nu_e nu_bar_e)
     2.03456030E-03    3          23         1        -1   # BR(h^0 -> Z u u_bar)
     2.03456030E-03    3          23         3        -3   # BR(h^0 -> Z c c_bar)
     2.03456030E-03    3          23         5        -5   # BR(h^0 -> Z t t_bar)
     2.03456030E-03    3          23         2        -2   # BR(h^0 -> Z u u_bar)
     2.03456030E-03    3          23         4        -4   # BR(h^0 -> Z c c_bar)
DECAY        35     1.82342122E+01   # H^0
#    BR                NDA      ID1      ID2
     1.56429835E-08    2          11       -11   # BR(H^0 -> e^- e^+)
     6.68792820E-04    2          13       -13   # BR(H^0 -> mu^- mu^+)
     1.90006789E-01    2          15       -15   # BR(H^0 -> tau^- tau^+)
     7.93518977E-07    2           1        -1   # BR(H^0 -> d d_bar)
     3.49941489E-04    2           3        -3   # BR(H^0 -> s s_bar)
     8.07372990E-01    2           5        -5   # BR(H^0 -> b b_bar)
     1.69250148E-13    2           2        -2   # BR(H^0 -> u u_bar)
     3.03315672E-08    2           4        -4   # BR(H^0 -> c c_bar)
     1.49106573E-03    2           6        -6   # BR(H^0 -> t t_bar)
     4.39965626E-07    2     2000011  -2000011   # BR(H^0 -> ~e^-_R ~e^+_R)
     4.50021058E-07    2     2000013  -2000013   # BR(H^0 -> ~mu^-_R ~mu^+_R)
     7.76197041E-06    2     1000015  -1000015   # BR(H^0 -> ~tau^-_1 ~tau^+_1)
     1.39746013E-05    2          23        23   # BR(H^0 -> Z Z)
     2.67055928E-05    2          24       -24   # BR(H^0 -> W^+ W^-)
     1.60988492E-05    2          25        25   # BR(H^0 -> h^0 h^0)
     4.40992225E-05    2          21        21   # BR(H^0 -> g g)
     5.13607992E-08    2          22        22   # BR(H^0 -> photon photon)
DECAY        36     1.82336824E+01   # A^0
#    BR                NDA      ID1      ID2
     1.56438454E-08    2          11       -11   # BR(A^0 -> e^- e^+)
     6.68829700E-04    2          13       -13   # BR(A^0 -> mu^- mu^+)
     1.90019931E-01    2          15       -15   # BR(A^0 -> tau^- tau^+)
     7.93562440E-07    2           1        -1   # BR(A^0 -> d d_bar)
     3.49960609E-04    2           3        -3   # BR(A^0 -> s s_bar)
     8.07426536E-01    2           5        -5   # BR(A^0 -> b b_bar)
     1.52164654E-13    2           2        -2   # BR(A^0 -> u u_bar)
     2.72696422E-08    2           4        -4   # BR(A^0 -> c c_bar)
     1.49179793E-03    2           6        -6   # BR(A^0 -> t t_bar)
     2.60173137E-05    2          25        23   # BR(A^0 -> h^0 Z)
     1.60522103E-05    2          21        21   # BR(A^0 -> g g)
     3.84221817E-08    2          22        22   # BR(A^0 -> photon photon)
DECAY        37     1.57164361E+01   # H^+
#    BR                NDA      ID1      ID2
     1.82256490E-08    2         -11        12   # BR(H^+ -> e^+ nu_e)
     7.79210934E-04    2         -13        12   # BR(H^+ -> mu^+ nu_e)
     2.21380146E-01    2         -15        12   # BR(H^+ -> tau^+ nu_e)
     8.15536106E-07    2          -1         2   # BR(H^+ -> d_bar u)
     3.59677682E-04    2          -3         4   # BR(H^+ -> s_bar c)
     7.77450224E-01    2          -5         6   # BR(H^+ -> b_bar t)
     2.99077608E-05    2          25        24   # BR(H^+ -> h^0 W^+)
DECAY         6     2.43000000E+00   # top
#    BR                NDA      ID1      ID2
     1.00000000E+00    2           5        24   # BR(t -> b W)
Block HiggsBoundsInputHiggsCouplingsFermions
# ScalarNormEffCoupSq PseudoSNormEffCoupSq NP IP1 IP2 IP2
    1.11226572E+00    0.00000000E+00        3  25   5   5  # h0-b-b eff. coupling^2, normalised to SM
    1.59988773E+03    0.00000000E+00        3  35   5   5  # H0-b-b eff. coupling^2, normalised to SM
    0.00000000E+00    1.60000000E+03        3  36   5   5  # A0-b-b eff. coupling^2, normalised to SM
#
    9.99929834E-01    0.00000000E+00        3  25   6   6  # h0-t-t eff. coupling^2, normalised to SM
    6.95166074E-04    0.00000000E+00        3  35   6   6  # H0-t-t eff. coupling^2, normalised to SM
    0.00000000E+00    6.25000000E-04        3  36   6   6  # A0-t-t eff. coupling^2, normalised to SM
#
    1.11226572E+00    0.00000000E+00        3  25  15  15  # h0-tau-tau eff. coupling^2, normalised to SM
    1.59988773E+03    0.00000000E+00        3  35  15  15  # H0-tau-tau eff. coupling^2, normalised to SM
    0.00000000E+00    1.60000000E+03        3  36  15  15  # A0-tau-tau eff. coupling^2, normalised to SM
#
Block HiggsBoundsInputHiggsCouplingsBosons
    9.99998134E-01        3  25  24  24  # h0-W-W eff. coupling^2, normalised to SM
    1.86602583E-06        3  35  24  24  # H0-W-W eff. coupling^2, normalised to SM
    0.00000000E+00        3  36  24  24  # A0-W-W eff. coupling^2, normalised to SM
#
    9.99998134E-01        3  25  23  23  # h0-Z-Z eff. coupling^2, normalised to SM
    1.86602583E-06        3  35  23  23  # H0-Z-Z eff. coupling^2, normalised to SM
    0.00000000E+00        3  36  23  23  # A0-Z-Z eff. coupling^2, normalised to SM
#
    1.15992712E+00        3  25  21  21  # h0-g-g eff. coupling^2, normalised to SM
    2.27567524E-02        3  35  21  21  # H0-g-g eff. coupling^2, normalised to SM
    1.59512847E-01        3  36  21  21  # A0-g-g eff. coupling^2, normalised to SM
#
    0.00000000E+00        3  25  25  23  # h0-h0-Z eff. coupling^2, normalised to SM
    0.00000000E+00        3  35  25  23  # H0-h0-Z eff. coupling^2, normalised to SM
    1.86602583E-06        3  36  25  23  # A0-h0-Z eff. coupling^2, normalised to SM
    0.00000000E+00        3  35  35  23  # H0-H0-Z eff. coupling^2, normalised to SM
    9.99998134E-01        3  36  35  23  # A0-H0-Z eff. coupling^2, normalised to SM
    0.00000000E+00        3  36  36  23  # A0-A0-Z eff. coupling^2, normalised to SM
#
    0.00000000E+00        4  25  21  21  23  # h0-g-g-Z eff. coupling^2, normalised to SM
    0.00000000E+00        4  35  21  21  23  # H0-g-g-Z eff. coupling^2, normalised to SM
    0.00000000E+00        4  36  21  21  23  # A0-g-g-Z eff. coupling^2, normalised to SM
Block SPhenoLowEnergy  # low energy observables
    1    3.14387349E-04   # BR(b -> s gamma)
    2    1.59041742E-06   # BR(b -> s mu+ mu-)
    3    3.53950175E-05   # BR(b -> s nu nu)
    4    5.29103957E-11   # BR(Bd -> mu+ mu-)
    5    3.46114982E-09   # BR(Bs -> mu+ mu-)
    6    1.03743902E-04   # BR(B_u -> tau nu)
    7    9.38066584E-01   # BR(B_u -> tau nu)/BR(B_u -> tau nu)_SM
    8    2.73676870E-01   # |Delta(M_Bd)| [ps^-1] 
    9    2.02908614E+01   # |Delta(M_Bs)| [ps^-1] 
   20    2.51639865E-14   # Delta(g-2)_electron/2
   21    5.46049862E-10   # Delta(g-2)_muon/2
   22    4.59572643E-08   # Delta(g-2)_tau/2
   23    0.00000000E+00   # electric dipole moment of the electron
   24    0.00000000E+00   # electric dipole moment of the muon
   25    0.00000000E+00   # electric dipole moment of the tau
   26    0.00000000E+00   # Br(mu -> e gamma)
   27    0.00000000E+00   # Br(tau -> e gamma)
   28    0.00000000E+00   # Br(tau -> mu gamma)
   29    0.00000000E+00   # Br(mu -> 3 e)
   30    0.00000000E+00   # Br(tau -> 3 e)
   31    0.00000000E+00   # Br(tau -> 3 mu)
   39    1.10576165E-03   # Delta(rho_parameter)
   40    0.00000000E+00   # BR(Z -> e mu)
   41    0.00000000E+00   # BR(Z -> e tau)
   42    0.00000000E+00   # BR(Z -> mu tau)
Block FWCOEF Q=  9.11876000E+01  # Wilson coefficients at scale Q
#    id        order  M        value         comment
Block FWCOEF Q=  1.60000000E+02  # Wilson coefficients at scale Q
#    id        order  M        value         comment
     0305 4422   00   0    -1.87761622E-01   # C7
     0305 4422   00   1    -1.49775517E-02   # C7
     0305 4322   00   1    -3.22687882E-04   # C7'
     0305 6421   00   0    -9.48907281E-02   # C8
     0305 6421   00   1    -2.42057422E-02   # C8
     0305 6321   00   1    -5.16468720E-04   # C8'
 03051111 4133   00   0    -1.25601280E+00   # C9 e+e-
 03051111 4133   00   1     8.05323581E-04   # C9 e+e-
 03051111 4233   00   1    -6.37592531E-05   # C9' e+e-
 03051111 4137   00   0    -3.94831313E+00   # C10 e+e-
 03051111 4137   00   1     2.74704077E-03   # C10 e+e-
 03051111 4237   00   1     1.63294298E-03   # C10' e+e-
 03051313 4133   00   0    -1.25601280E+00   # C9 mu+mu-
 03051313 4133   00   1     8.05151124E-04   # C9 mu+mu-
 03051313 4233   00   1    -6.37754930E-05   # C9' mu+mu-
 03051313 4137   00   0    -3.94831313E+00   # C10 mu+mu-
 03051313 4137   00   1     2.74686808E-03   # C10 mu+mu-
 03051313 4237   00   1     1.63295922E-03   # C10' mu+mu-
 03051212 4237   00   0     1.49020640E+00   # C11 nu_1 nu_1
 03051212 4237   00   1    -6.61697556E-04   # C11 nu_1 nu_1
 03051212 4137   00   1    -3.92410924E-04   # C11' nu_1 nu_1
 03051414 4237   00   0     1.49020640E+00   # C11 nu_2 nu_2
 03051414 4237   00   1    -6.61697448E-04   # C11 nu_2 nu_2
 03051414 4137   00   1    -3.92407051E-04   # C11' nu_2 nu_2
 03051616 4237   00   0     1.49020640E+00   # C11 nu_3 nu_3
 03051616 4237   00   1    -6.61642311E-04   # C11 nu_3 nu_3
 03051616 4137   00   1    -3.91315227E-04   # C11' nu_3 nu_3
