#
#                              ======================
#                              | THE SUSYHIT OUTPUT |
#                              ======================
#
#
#              ------------------------------------------------------
#              |     This is the output of the SUSY-HIT package     |
#              |  created by A.Djouadi, M.Muehlleitner and M.Spira. |
#              |  In case of problems with SUSY-HIT email to        |
#              |           margarete.muehlleitner@cern.ch           |
#              |           michael.spira@psi.ch                     |
#              |           abdelhak.djouadi@cern.ch                 |
#              ------------------------------------------------------
#
#              ------------------------------------------------------
#              |  SUSY Les Houches Accord - MSSM Spectrum + Decays  |
#              |              based on the decay programs           |
#              |                                                    |
#              |                     SDECAY 1.3b                    |
#              |                                                    |
#              |  Authors: M.Muhlleitner, A.Djouadi and Y.Mambrini  |
#              |  Ref.:    Comput.Phys.Commun.168(2005)46           |
#              |           [hep-ph/0311167]                         |
#              |                                                    |
#              |                     HDECAY 3.4                     |
#              |                                                    |
#              |  By: A.Djouadi,J.Kalinowski,M.Muhlleitner,M.Spira  |
#              |  Ref.:    Comput.Phys.Commun.108(1998)56           |
#              |           [hep-ph/9704448]                         |
#              |                                                    |
#              |                                                    |
#              |  If not stated otherwise all DRbar couplings and   |
#              |  soft SUSY breaking masses are given at the scale  |
#              |  Q=  0.91187600E+02
#              |                                                    |
#              ------------------------------------------------------
#
#
BLOCK DCINFO  # Decay Program information
     1   SDECAY/HDECAY # decay calculator
     2   1.3b  /3.4    # version number
#
BLOCK SPINFO  # Spectrum calculator information
     1   SuSpect     # RGE +Spectrum calculator            
     2   2.41         # version number                     
#
BLOCK MODSEL  # Model selection
     1     0   # #general MSSM low scale                           
#
BLOCK SMINPUTS  # Standard Model inputs
         1     1.27934000E+02   # alpha_em^-1(M_Z)^MSbar
         2     1.16639000E-05   # G_F [GeV^-2]
         3     1.17200000E-01   # alpha_S(M_Z)^MSbar
         4     9.11870000E+01   # M_Z pole mass
         5     4.25000000E+00   # mb(mb)^MSbar
         6     1.72500000E+02   # mt pole mass
         7     1.77700000E+00   # mtau pole mass
#
BLOCK MINPAR  # Input parameters - minimal models
#
BLOCK EXTPAR  # Input parameters - non-minimal models
         0     9.11876000E+01   # EWSB                
         1     7.50000000E+02   # M_1                 
         2     1.00000000E+05   # M_2                 
         3     1.00000000E+05   # M_3                 
        11     0.00000000E+00   # A_t                 
        12     0.00000000E+00   # A_b                 
        13     0.00000000E+00   # A_tau               
        14     0.00000000E+00   # A_u                 
        15     0.00000000E+00   # A_d                 
        16     0.00000000E+00   # A_e                 
        23     3.50000000E+03   # mu(EWSB)            
        25     1.50000000E+00   # tanbeta(in)         
        26     2.00000000E+03   # MA_pole             
        31     1.00000000E+05   # M_eL                
        32     1.00000000E+05   # M_muL               
        33     1.00000000E+05   # M_tauL              
        34     1.00000000E+05   # M_eR                
        35     1.00000000E+05   # M_muR               
        36     1.00000000E+05   # M_tauR              
        41     8.00000000E+02   # M_q1L               
        42     8.00000000E+02   # M_q2L               
        43     8.00000000E+02   # M_q3L               
        44     1.00000000E+05   # M_uR                
        45     1.00000000E+05   # M_cR                
        46     1.00000000E+05   # M_tR                
        47     8.00000000E+02   # M_dR                
        48     8.00000000E+02   # M_sR                
        49     8.00000000E+02   # M_bR                
#
BLOCK MASS  # Mass Spectrum
# PDG code           mass       particle
        24     8.05803787E+01   # W+
        25     1.25000000E+02   # h
        35     2.00386921E+03   # H
        36     2.00000000E+03   # A
        37     2.02370768E+03   # H+
         5     4.87877839E+00   # b-quark pole mass calculated from mb(mb)_Msbar
   1000001     8.00833686E+02   # ~d_L
   2000001     8.00159968E+02   # ~d_R
   1000002     7.99325579E+02   # ~u_L
   2000002     9.99999974E+04   # ~u_R
   1000003     8.00833686E+02   # ~s_L
   2000003     8.00159968E+02   # ~s_R
   1000004     7.99325579E+02   # ~c_L
   2000004     9.99999974E+04   # ~c_R
   1000005     7.91995494E+02   # ~b_1
   2000005     8.08917176E+02   # ~b_2
   1000006     8.12793181E+02   # ~t_1
   2000006     1.00000106E+05   # ~t_2
   1000011     1.00000004E+05   # ~e_L
   2000011     1.00000004E+05   # ~e_R
   1000012     9.99999920E+04   # ~nu_eL
   1000013     1.00000004E+05   # ~mu_L
   2000013     1.00000004E+05   # ~mu_R
   1000014     9.99999920E+04   # ~nu_muL
   1000015     9.99999574E+04   # ~tau_1
   2000015     1.00000051E+05   # ~tau_2
   1000016     9.99999920E+04   # ~nu_tauL
   1000021     1.00000000E+05   # ~g
   1000022     7.49320116E+02   # ~chi_10
   1000023    -3.50002040E+03   # ~chi_20
   1000025     3.50063544E+03   # ~chi_30
   1000035     1.00000065E+05   # ~chi_40
   1000024     3.49993981E+03   # ~chi_1+
   1000037     1.00000065E+05   # ~chi_2+
   1000039     1.00000000E-09   # ~gravitino
#
BLOCK NMIX  # Neutralino Mixing Matrix
  1  1     9.99871026E-01   # N_11
  1  2    -1.21418162E-05   # N_12
  1  3     1.27203840E-02   # N_13
  1  4    -9.80424512E-03   # N_14
  2  1     2.06204870E-03   # N_21
  2  2    -1.50102501E-04   # N_22
  2  3    -7.07094965E-01   # N_23
  2  4    -7.07115574E-01   # N_24
  3  1     1.59273183E-02   # N_31
  3  2     8.04803151E-04   # N_32
  3  3    -7.07004022E-01   # N_33
  3  4     7.07029692E-01   # N_34
  4  1     3.68587677E-07   # N_41
  4  2    -9.99999665E-01   # N_42
  4  3    -4.63016946E-04   # N_43
  4  4     6.75278807E-04   # N_44
#
BLOCK UMIX  # Chargino Mixing Matrix U
  1  1    -6.54804637E-04   # U_11
  1  2     9.99999786E-01   # U_12
  2  1     9.99999786E-01   # U_21
  2  2     6.54804637E-04   # U_22
#
BLOCK VMIX  # Chargino Mixing Matrix V
  1  1    -9.54988360E-04   # V_11
  1  2     9.99999544E-01   # V_12
  2  1     9.99999544E-01   # V_21
  2  2     9.54988360E-04   # V_22
#
BLOCK STOPMIX  # Stop Mixing Matrix
  1  1     9.99999999E-01   # cos(theta_t)
  1  2     4.47213589E-05   # sin(theta_t)
  2  1    -4.47213589E-05   # -sin(theta_t)
  2  2     9.99999999E-01   # cos(theta_t)
#
BLOCK SBOTMIX  # Sbottom Mixing Matrix
  1  1     6.92886747E-01   # cos(theta_b)
  1  2     7.21046431E-01   # sin(theta_b)
  2  1    -7.21046431E-01   # -sin(theta_b)
  2  2     6.92886747E-01   # cos(theta_b)
#
BLOCK STAUMIX  # Stau Mixing Matrix
  1  1     7.06066989E-01   # cos(theta_tau)
  1  2     7.08145047E-01   # sin(theta_tau)
  2  1    -7.08145047E-01   # -sin(theta_tau)
  2  2     7.06066989E-01   # cos(theta_tau)
#
BLOCK ALPHA  # Higgs mixing
          -5.90186461E-01   # Mixing angle in the neutral Higgs boson sector
#
BLOCK HMIX Q=  9.11876000E+01  # DRbar Higgs Parameters
         1     3.50000000E+03   # mu(Q)               
         2     1.49999982E+00   # tanbeta(Q)          
         3     2.54856036E+02   # vev(Q)              
         4    -6.86030323E+07   # MA^2(Q)             
#
BLOCK GAUGE Q=  9.11876000E+01  # The gauge couplings
     1     3.50655860E-01   # gprime(Q) DRbar
     2     6.21612201E-01   # g(Q) DRbar
     3     1.03156197E+00   # g3(Q) DRbar
#
BLOCK AU Q=  9.11876000E+01  # The trilinear couplings
  1  1     0.00000000E+00   # A_u(Q) DRbar
  2  2     0.00000000E+00   # A_c(Q) DRbar
  3  3     0.00000000E+00   # A_t(Q) DRbar
#
BLOCK AD Q=  9.11876000E+01  # The trilinear couplings
  1  1     0.00000000E+00   # A_d(Q) DRbar
  2  2     0.00000000E+00   # A_s(Q) DRbar
  3  3     0.00000000E+00   # A_b(Q) DRbar
#
BLOCK AE Q=  9.11876000E+01  # The trilinear couplings
  1  1     0.00000000E+00   # A_e(Q) DRbar
  2  2     0.00000000E+00   # A_mu(Q) DRbar
  3  3     0.00000000E+00   # A_tau(Q) DRbar
#
BLOCK Yu Q=  9.11876000E+01  # The Yukawa couplings
  1  1     0.00000000E+00   # y_u(Q) DRbar
  2  2     0.00000000E+00   # y_c(Q) DRbar
  3  3     9.82952276E-01   # y_t(Q) DRbar
#
BLOCK Yd Q=  9.11876000E+01  # The Yukawa couplings
  1  1     0.00000000E+00   # y_d(Q) DRbar
  2  2     0.00000000E+00   # y_s(Q) DRbar
  3  3     2.57892751E-02   # y_b(Q) DRbar
#
BLOCK Ye Q=  9.11876000E+01  # The Yukawa couplings
  1  1     0.00000000E+00   # y_e(Q) DRbar
  2  2     0.00000000E+00   # y_mu(Q) DRbar
  3  3     1.77393031E-02   # y_tau(Q) DRbar
#
BLOCK MSOFT Q=  9.11876000E+01  # The soft SUSY breaking masses at the scale Q
         1     7.50000000E+02   # M_1                 
         2     1.00000000E+05   # M_2                 
         3     1.00000000E+05   # M_3                 
        14     0.00000000E+00   # A_u                 
        15     0.00000000E+00   # A_d                 
        16     0.00000000E+00   # A_e                 
        21     6.36536768E+08   # M^2_Hd              
        22    -1.14033453E+09   # M^2_Hu              
        31     1.00000000E+05   # M_eL                
        32     1.00000000E+05   # M_muL               
        33     1.00000000E+05   # M_tauL              
        34     1.00000000E+05   # M_eR                
        35     1.00000000E+05   # M_muR               
        36     1.00000000E+05   # M_tauR              
        41     8.00000000E+02   # M_q1L               
        42     8.00000000E+02   # M_q2L               
        43     8.00000000E+02   # M_q3L               
        44     1.00000000E+05   # M_uR                
        45     1.00000000E+05   # M_cR                
        46     1.00000000E+05   # M_tR                
        47     8.00000000E+02   # M_dR                
        48     8.00000000E+02   # M_sR                
        49     8.00000000E+02   # M_bR                
#
#
#
#                             =================
#                             |The decay table|
#                             =================
#
# - The QCD corrections to the decays gluino -> squark  + quark
#                                     squark -> gaugino + quark_prime
#                                     squark -> squark_prime + Higgs
#                                     squark -> gluino  + quark
#   are included.
#
# - The multi-body decays for the inos, stops and sbottoms are included.
#
# - The loop induced decays for the gluino, neutralinos and stops
#   are included.
#
# - The SUSY decays of the top quark are included.
#
# - Possible decays of the NLSP in GMSB models are included.
#
#
#         PDG            Width
DECAY         6     1.33376127E+00   # top decays
#          BR         NDA      ID1       ID2
     1.00000000E+00    2           5        24   # BR(t ->  b    W+)
#
#         PDG            Width
DECAY   1000021     1.E-04   # gluino decays (OJ Mods)
#          BR         NDA      ID1       ID2
     1.80422758E-04    2     1000001        -1   # BR(~g -> ~d_L  db)
     1.80422758E-04    2    -1000001         1   # BR(~g -> ~d_L* d )
     1.80422797E-04    2     2000001        -1   # BR(~g -> ~d_R  db)
     1.80422797E-04    2    -2000001         1   # BR(~g -> ~d_R* d )
     1.80422845E-04    2     1000002        -2   # BR(~g -> ~u_L  ub)
     1.80422845E-04    2    -1000002         2   # BR(~g -> ~u_L* u )
     4.87925709E-19    2     2000002        -2   # BR(~g -> ~u_R  ub)
     4.87925709E-19    2    -2000002         2   # BR(~g -> ~u_R* u )
     1.80422758E-04    2     1000003        -3   # BR(~g -> ~s_L  sb)
     1.80422758E-04    2    -1000003         3   # BR(~g -> ~s_L* s )
     1.80422797E-04    2     2000003        -3   # BR(~g -> ~s_R  sb)
     1.80422797E-04    2    -2000003         3   # BR(~g -> ~s_R* s )
     1.80422845E-04    2     1000004        -4   # BR(~g -> ~c_L  cb)
     1.80422845E-04    2    -1000004         4   # BR(~g -> ~c_L* c )
     4.87925709E-19    2     2000004        -4   # BR(~g -> ~c_R  cb)
     4.87925709E-19    2    -2000004         4   # BR(~g -> ~c_R* c )
     2.49271510E-01    2     1000005        -5   # BR(~g -> ~b_1  bb)
     2.49271510E-01    2    -1000005         5   # BR(~g -> ~b_1* b )
     2.46953434E-01    2     2000005        -5   # BR(~g -> ~b_2  bb)
     2.46953434E-01    2    -2000005         5   # BR(~g -> ~b_2* b )
     1.77527120E-04    2     1000006        -6   # BR(~g -> ~t_1  tb)
     1.77527120E-04    2    -1000006         6   # BR(~g -> ~t_1* t )
     5.02998551E-03    2     1000039        21   # BR(~g -> ~G g)
#
#         PDG            Width
DECAY   1000006     2.86941941E-04   # stop1 decays
#          BR         NDA      ID1       ID2
     9.78560437E-01    2     1000022         4   # BR(~t_1 -> ~chi_10 c )
     7.54440409E-03    2     1000022         2   # BR(~t_1 -> ~chi_10 u )
#           BR         NDA      ID1       ID2       ID3
     4.64896199E-03    3     1000005        -1         2   # BR(~t_1 -> ~b_1     db u)
     1.12488659E-06    3     2000005        -1         2   # BR(~t_1 -> ~b_2     db u)
     4.64896199E-03    3     1000005        -3         4   # BR(~t_1 -> ~b_1     sb c)
     1.12488659E-06    3     2000005        -3         4   # BR(~t_1 -> ~b_2     sb c)
     1.49479173E-03    3     1000005       -15        16   # BR(~t_1 -> ~b_1     tau+ nu_tau)
     1.35030157E-07    3     2000005       -15        16   # BR(~t_1 -> ~b_2     tau+ nu_tau)
     1.54965400E-03    3     1000005       -11        12   # BR(~t_1 -> ~b_1     e+   nu_e)
     3.74962198E-07    3     2000005       -11        12   # BR(~t_1 -> ~b_2     e+   nu_e)
     1.54965400E-03    3     1000005       -13        14   # BR(~t_1 -> ~b_1     mu+  nu_mu)
     3.74962198E-07    3     2000005       -13        14   # BR(~t_1 -> ~b_2     mu+  nu_mu)
#
#         PDG            Width
DECAY   2000006     9.07141865E+05   # stop2 decays
#          BR         NDA      ID1       ID2
     2.29707636E-04    2     1000022         6   # BR(~t_2 -> ~chi_10 t )
     5.43322765E-04    2     1000023         6   # BR(~t_2 -> ~chi_20 t )
     5.43238308E-04    2     1000025         6   # BR(~t_2 -> ~chi_30 t )
     9.98703558E-01    2     1000024         5   # BR(~t_2 -> ~chi_1+ b )
    -1.51861153E-05    2     1000006        25   # BR(~t_2 -> ~t_1    h )
     1.58844334E-05    2     1000006        35   # BR(~t_2 -> ~t_1    H )
     1.58579363E-05    2     1000006        36   # BR(~t_2 -> ~t_1    A )
     1.49305285E-05    2     1000005        37   # BR(~t_2 -> ~b_1    H+)
     1.67843726E-05    2     2000005        37   # BR(~t_2 -> ~b_2    H+)
    -1.09718426E-05    2     1000006        23   # BR(~t_2 -> ~t_1    Z )
    -2.74259710E-05    2     1000005        24   # BR(~t_2 -> ~b_1    W+)
    -2.96995914E-05    2     2000005        24   # BR(~t_2 -> ~b_2    W+)
#
#         PDG            Width
DECAY   1000005     1.60529604E+00   # sbottom1 decays
#          BR         NDA      ID1       ID2
     1.00000000E+00    2     1000022         5   # BR(~b_1 -> ~chi_10 b )
#
#         PDG            Width
DECAY   2000005     3.25988929E+00   # sbottom2 decays
#          BR         NDA      ID1       ID2
     1.00000000E+00    2     1000022         5   # BR(~b_2 -> ~chi_10 b )
#
#         PDG            Width
DECAY   1000002     2.92359115E-03   # sup_L decays
#          BR         NDA      ID1       ID2
     1.00000000E+00    2     1000022         2   # BR(~u_L -> ~chi_10 u)
#
#         PDG            Width
DECAY   2000002     2.08359725E+02   # sup_R decays
#          BR         NDA      ID1       ID2
     9.99742360E-01    2     1000022         2   # BR(~u_R -> ~chi_10 u)
     4.24724093E-06    2     1000023         2   # BR(~u_R -> ~chi_20 u)
     2.53392727E-04    2     1000025         2   # BR(~u_R -> ~chi_30 u)
#
#         PDG            Width
DECAY   1000001     3.06324440E-03   # sdown_L decays
#          BR         NDA      ID1       ID2
     1.00000000E+00    2     1000022         1   # BR(~d_L -> ~chi_10 d)
#
#         PDG            Width
DECAY   2000001     1.20019749E-02   # sdown_R decays
#          BR         NDA      ID1       ID2
     1.00000000E+00    2     1000022         1   # BR(~d_R -> ~chi_10 d)
#
#         PDG            Width
DECAY   1000004     2.92359115E-03   # scharm_L decays
#          BR         NDA      ID1       ID2
     1.00000000E+00    2     1000022         4   # BR(~c_L -> ~chi_10 c)
#
#         PDG            Width
DECAY   2000004     2.08359725E+02   # scharm_R decays
#          BR         NDA      ID1       ID2
     9.99742360E-01    2     1000022         4   # BR(~c_R -> ~chi_10 c)
     4.24724093E-06    2     1000023         4   # BR(~c_R -> ~chi_20 c)
     2.53392727E-04    2     1000025         4   # BR(~c_R -> ~chi_30 c)
#
#         PDG            Width
DECAY   1000003     3.06324440E-03   # sstrange_L decays
#          BR         NDA      ID1       ID2
     1.00000000E+00    2     1000022         3   # BR(~s_L -> ~chi_10 s)
#
#         PDG            Width
DECAY   2000003     1.20019749E-02   # sstrange_R decays
#          BR         NDA      ID1       ID2
     1.00000000E+00    2     1000022         3   # BR(~s_R -> ~chi_10 s)
#
#         PDG            Width
DECAY   1000011     1.22297038E+02   # selectron_L decays
#          BR         NDA      ID1       ID2
     9.99693638E-01    2     1000022        11   # BR(~e_L -> ~chi_10 e-)
     3.21791883E-06    2     1000023        11   # BR(~e_L -> ~chi_20 e-)
     3.00455889E-04    2     1000025        11   # BR(~e_L -> ~chi_30 e-)
     2.68851299E-06    2    -1000024        12   # BR(~e_L -> ~chi_1- nu_e)
#
#         PDG            Width
DECAY   2000011     4.89185220E+02   # selectron_R decays
#          BR         NDA      ID1       ID2
     9.99742671E-01    2     1000022        11   # BR(~e_R -> ~chi_10 e-)
     4.24211251E-06    2     1000023        11   # BR(~e_R -> ~chi_20 e-)
     2.53086681E-04    2     1000025        11   # BR(~e_R -> ~chi_30 e-)
#
#         PDG            Width
DECAY   1000013     1.22297038E+02   # smuon_L decays
#          BR         NDA      ID1       ID2
     9.99693638E-01    2     1000022        13   # BR(~mu_L -> ~chi_10 mu-)
     3.21791883E-06    2     1000023        13   # BR(~mu_L -> ~chi_20 mu-)
     3.00455889E-04    2     1000025        13   # BR(~mu_L -> ~chi_30 mu-)
     2.68851299E-06    2    -1000024        14   # BR(~mu_L -> ~chi_1- nu_mu)
#
#         PDG            Width
DECAY   2000013     4.89185220E+02   # smuon_R decays
#          BR         NDA      ID1       ID2
     9.99742671E-01    2     1000022        13   # BR(~mu_R -> ~chi_10 mu-)
     4.24211251E-06    2     1000023        13   # BR(~mu_R -> ~chi_20 mu-)
     2.53086681E-04    2     1000025        13   # BR(~mu_R -> ~chi_30 mu-)
#
#         PDG            Width
DECAY   1000015     1.18201595E+04   # stau_1 decays
#          BR         NDA      ID1       ID2
     2.59141801E-02    2     1000022        15   # BR(~tau_1 -> ~chi_10  tau-)
     2.53051729E-05    2     1000023        15   # BR(~tau_1 -> ~chi_20  tau-)
     2.56406447E-05    2     1000025        15   # BR(~tau_1 -> ~chi_30  tau-)
     2.77208823E-05    2    -1000024        16   # BR(~tau_1 -> ~chi_1-  nu_tau)
     9.74007153E-01    2     1000039        15   # BR(~tau_1 -> ~G       tau-)
#
#         PDG            Width
DECAY   2000015     3.06116190E+02   # stau_2 decays
#          BR         NDA      ID1       ID2
     9.96384316E-01    2     1000022        15   # BR(~tau_2 -> ~chi_10  tau-)
     1.07098380E-03    2     1000023        15   # BR(~tau_2 -> ~chi_20  tau-)
     1.57391781E-03    2     1000025        15   # BR(~tau_2 -> ~chi_30  tau-)
     9.70782271E-04    2    -1000024        16   # BR(~tau_2 -> ~chi_1-  nu_tau)
#
#         PDG            Width
DECAY   1000012     1.22297100E+02   # snu_eL decays
#          BR         NDA      ID1       ID2
     9.99779098E-01    2     1000022        12   # BR(~nu_eL -> ~chi_10 nu_e)
     5.40752668E-06    2     1000023        12   # BR(~nu_eL -> ~chi_20 nu_e)
     2.09775632E-04    2     1000025        12   # BR(~nu_eL -> ~chi_30 nu_e)
     5.71853169E-06    2     1000024        11   # BR(~nu_eL -> ~chi_1+ e-)
#
#         PDG            Width
DECAY   1000014     1.22297100E+02   # snu_muL decays
#          BR         NDA      ID1       ID2
     9.99779098E-01    2     1000022        14   # BR(~nu_muL -> ~chi_10 nu_mu)
     5.40752668E-06    2     1000023        14   # BR(~nu_muL -> ~chi_20 nu_mu)
     2.09775632E-04    2     1000025        14   # BR(~nu_muL -> ~chi_30 nu_mu)
     5.71853169E-06    2     1000024        13   # BR(~nu_muL -> ~chi_1+ mu-)
#
#         PDG            Width
DECAY   1000016     1.22921608E+02   # snu_tauL decays
#          BR         NDA      ID1       ID2
     9.94699678E-01    2     1000022        16   # BR(~nu_tauL -> ~chi_10 nu_tau)
     5.38005351E-06    2     1000023        16   # BR(~nu_tauL -> ~chi_20 nu_tau)
     2.08709858E-04    2     1000025        16   # BR(~nu_tauL -> ~chi_30 nu_tau)
     5.08623241E-03    2     1000024        15   # BR(~nu_tauL -> ~chi_1+ tau-)
#
#         PDG            Width
DECAY   1000024     1.13574955E+02   # chargino1+ decays
#          BR         NDA      ID1       ID2
     3.39058566E-07    2     1000002        -1   # BR(~chi_1+ -> ~u_L     db)
     1.59343436E-07    2    -1000001         2   # BR(~chi_1+ -> ~d_L*    u )
     3.39058566E-07    2     1000004        -3   # BR(~chi_1+ -> ~c_L     sb)
     1.59343436E-07    2    -1000003         4   # BR(~chi_1+ -> ~s_L*    c )
     3.29339535E-01    2     1000006        -5   # BR(~chi_1+ -> ~t_1     bb)
     4.22549376E-02    2    -1000005         6   # BR(~chi_1+ -> ~b_1*    t )
     6.00000153E-01    2    -2000005         6   # BR(~chi_1+ -> ~b_2*    t )
     2.50153712E-02    2     1000022        24   # BR(~chi_1+ -> ~chi_10  W+)
     3.38582758E-03    2     1000022        37   # BR(~chi_1+ -> ~chi_10  H+)
     2.65635160E-06    2     1000039        24   # BR(~chi_1+ -> ~G       W+)
     5.22652355E-07    2     1000039        37   # BR(~chi_1+ -> ~G       H+)
#
#         PDG            Width
DECAY   1000037     5.52670140E+05   # chargino2+ decays
#          BR         NDA      ID1       ID2
     1.95845998E-03    2     1000002        -1   # BR(~chi_2+ -> ~u_L     db)
     1.95846099E-03    2    -1000001         2   # BR(~chi_2+ -> ~d_L*    u )
     1.95845998E-03    2     1000004        -3   # BR(~chi_2+ -> ~c_L     sb)
     1.95846099E-03    2    -1000003         4   # BR(~chi_2+ -> ~s_L*    c )
     9.66769091E-01    2     1000006        -5   # BR(~chi_2+ -> ~t_1     bb)
     4.13556451E-04    2    -1000005         6   # BR(~chi_2+ -> ~b_1*    t )
     1.87946089E-03    2    -2000005         6   # BR(~chi_2+ -> ~b_2*    t )
     1.45219139E-15    2     1000012       -11   # BR(~chi_2+ -> ~nu_eL   e+  )
     1.45219139E-15    2     1000014       -13   # BR(~chi_2+ -> ~nu_muL  mu+ )
     1.01400027E-15    2    -1000011        12   # BR(~chi_2+ -> ~e_L+    nu_e)
     1.01400027E-15    2    -1000013        14   # BR(~chi_2+ -> ~mu_L+   nu_mu)
     1.57281729E-15    2    -1000015        16   # BR(~chi_2+ -> ~tau_1+  nu_tau)
     2.67852252E-17    2    -2000015        16   # BR(~chi_2+ -> ~tau_2+  nu_tau)
     3.60693680E-04    2     1000024        23   # BR(~chi_2+ -> ~chi_1+  Z )
     7.29832356E-08    2     1000022        24   # BR(~chi_2+ -> ~chi_10  W+)
     3.50398004E-04    2     1000023        24   # BR(~chi_2+ -> ~chi_20  W+)
     3.50321222E-04    2     1000025        24   # BR(~chi_2+ -> ~chi_30  W+)
     3.62655316E-04    2     1000024        25   # BR(~chi_2+ -> ~chi_1+  h )
     3.18346870E-04    2     1000024        35   # BR(~chi_2+ -> ~chi_1+  H )
     3.18386945E-04    2     1000024        36   # BR(~chi_2+ -> ~chi_1+  A )
     9.06483298E-08    2     1000022        37   # BR(~chi_2+ -> ~chi_10  H+)
     3.18375695E-04    2     1000023        37   # BR(~chi_2+ -> ~chi_20  H+)
     3.18295810E-04    2     1000025        37   # BR(~chi_2+ -> ~chi_30  H+)
     2.04064066E-02    2     1000039        24   # BR(~chi_2+ -> ~G       W+)
     5.88227573E-09    2     1000039        37   # BR(~chi_2+ -> ~G       H+)
#
#         PDG            Width
DECAY   1000022     1.E-08   # neutralino1 decays (OJ Mods)
#          BR         NDA      ID1       ID2
     7.69264643E-01    2     1000039        22   # BR(~chi_10 -> ~G        gam)
     2.30734842E-01    2     1000039        23   # BR(~chi_10 -> ~G        Z)
     5.15409129E-07    2     1000039        25   # BR(~chi_10 -> ~G        h)
#
#         PDG            Width
DECAY   1000023     1.E-08   # neutralino2 decays (OJ Mods)
#          BR         NDA      ID1       ID2
     2.00855745E-02    2     1000022        23   # BR(~chi_20 -> ~chi_10   Z )
     3.30414404E-04    2     1000022        25   # BR(~chi_20 -> ~chi_10   h )
     2.40307856E-03    2     1000022        35   # BR(~chi_20 -> ~chi_10   H )
     3.81044389E-04    2     1000022        36   # BR(~chi_20 -> ~chi_10   A )
     9.50350408E-09    2     1000002        -2   # BR(~chi_20 -> ~u_L      ub)
     9.50350408E-09    2    -1000002         2   # BR(~chi_20 -> ~u_L*     u )
     4.86640462E-08    2     1000001        -1   # BR(~chi_20 -> ~d_L      db)
     4.86640462E-08    2    -1000001         1   # BR(~chi_20 -> ~d_L*     d )
     1.01183383E-07    2     2000001        -1   # BR(~chi_20 -> ~d_R      db)
     1.01183383E-07    2    -2000001         1   # BR(~chi_20 -> ~d_R*     d )
     9.50350408E-09    2     1000004        -4   # BR(~chi_20 -> ~c_L      cb)
     9.50350408E-09    2    -1000004         4   # BR(~chi_20 -> ~c_L*     c )
     4.86640462E-08    2     1000003        -3   # BR(~chi_20 -> ~s_L      sb)
     4.86640462E-08    2    -1000003         3   # BR(~chi_20 -> ~s_L*     s )
     1.01183383E-07    2     2000003        -3   # BR(~chi_20 -> ~s_R      sb)
     1.01183383E-07    2    -2000003         3   # BR(~chi_20 -> ~s_R*     s )
     2.54349687E-01    2     1000006        -6   # BR(~chi_20 -> ~t_1      tb)
     2.54349687E-01    2    -1000006         6   # BR(~chi_20 -> ~t_1*     t )
     1.12615084E-01    2     1000005        -5   # BR(~chi_20 -> ~b_1      bb)
     1.12615084E-01    2    -1000005         5   # BR(~chi_20 -> ~b_1*     b )
     1.21433626E-01    2     2000005        -5   # BR(~chi_20 -> ~b_2      bb)
     1.21433626E-01    2    -2000005         5   # BR(~chi_20 -> ~b_2*     b )
     1.25266949E-11    2     1000039        22   # BR(~chi_20 -> ~G        gam)
     8.10127165E-08    2     1000039        23   # BR(~chi_20 -> ~G        Z)
     2.02182104E-06    2     1000039        25   # BR(~chi_20 -> ~G        h)
     1.62201065E-08    2     1000039        35   # BR(~chi_20 -> ~G        H)
     4.17694638E-07    2     1000039        36   # BR(~chi_20 -> ~G        A)
#
#         PDG            Width
DECAY   1000025     1.43990573E+02   # neutralino3 decays
#          BR         NDA      ID1       ID2
     3.35426402E-04    2     1000022        23   # BR(~chi_30 -> ~chi_10   Z )
     2.00578908E-02    2     1000022        25   # BR(~chi_30 -> ~chi_10   h )
     3.69199210E-04    2     1000022        35   # BR(~chi_30 -> ~chi_10   H )
     2.40541475E-03    2     1000022        36   # BR(~chi_30 -> ~chi_10   A )
     2.41658668E-06    2     1000002        -2   # BR(~chi_30 -> ~u_L      ub)
     2.41658668E-06    2    -1000002         2   # BR(~chi_30 -> ~u_L*     u )
     8.02550107E-07    2     1000001        -1   # BR(~chi_30 -> ~d_L      db)
     8.02550107E-07    2    -1000001         1   # BR(~chi_30 -> ~d_L*     d )
     6.00399654E-06    2     2000001        -1   # BR(~chi_30 -> ~d_R      db)
     6.00399654E-06    2    -2000001         1   # BR(~chi_30 -> ~d_R*     d )
     2.41658668E-06    2     1000004        -4   # BR(~chi_30 -> ~c_L      cb)
     2.41658668E-06    2    -1000004         4   # BR(~chi_30 -> ~c_L*     c )
     8.02550107E-07    2     1000003        -3   # BR(~chi_30 -> ~s_L      sb)
     8.02550107E-07    2    -1000003         3   # BR(~chi_30 -> ~s_L*     s )
     6.00399654E-06    2     2000003        -3   # BR(~chi_30 -> ~s_R      sb)
     6.00399654E-06    2    -2000003         3   # BR(~chi_30 -> ~s_R*     s )
     2.52981069E-01    2     1000006        -6   # BR(~chi_30 -> ~t_1      tb)
     2.52981069E-01    2    -1000006         6   # BR(~chi_30 -> ~t_1*     t )
     9.36181398E-02    2     1000005        -5   # BR(~chi_30 -> ~b_1      bb)
     9.36181398E-02    2    -1000005         5   # BR(~chi_30 -> ~b_1*     b )
     1.41799402E-01    2     2000005        -5   # BR(~chi_30 -> ~b_2      bb)
     1.41799402E-01    2    -2000005         5   # BR(~chi_30 -> ~b_2*     b )
     8.55650222E-10    2     1000039        22   # BR(~chi_30 -> ~G        gam)
     2.01503114E-06    2     1000039        23   # BR(~chi_30 -> ~G        Z)
     7.86677249E-08    2     1000039        25   # BR(~chi_30 -> ~G        h)
     4.13142404E-07    2     1000039        35   # BR(~chi_30 -> ~G        H)
     1.66329754E-08    2     1000039        36   # BR(~chi_30 -> ~G        A)
#
#         PDG            Width
DECAY   1000035     5.52672522E+05   # neutralino4 decays
#          BR         NDA      ID1       ID2
     2.88394706E-10    2     1000022        23   # BR(~chi_40 -> ~chi_10   Z )
     3.48572235E-04    2     1000023        23   # BR(~chi_40 -> ~chi_20   Z )
     1.21199177E-05    2     1000025        23   # BR(~chi_40 -> ~chi_30   Z )
     3.50394310E-04    2     1000024       -24   # BR(~chi_40 -> ~chi_1+   W-)
     3.50394310E-04    2    -1000024        24   # BR(~chi_40 -> ~chi_1-   W+)
     7.53523605E-08    2     1000022        25   # BR(~chi_40 -> ~chi_10   h )
     9.01133905E-09    2     1000022        35   # BR(~chi_40 -> ~chi_10   H )
     8.15240690E-08    2     1000022        36   # BR(~chi_40 -> ~chi_10   A )
     1.19221222E-05    2     1000023        25   # BR(~chi_40 -> ~chi_20   h )
     3.04639883E-04    2     1000023        35   # BR(~chi_40 -> ~chi_20   H )
     1.40044187E-05    2     1000023        36   # BR(~chi_40 -> ~chi_20   A )
     3.50656680E-04    2     1000025        25   # BR(~chi_40 -> ~chi_30   h )
     1.36962356E-05    2     1000025        35   # BR(~chi_40 -> ~chi_30   H )
     3.04299652E-04    2     1000025        36   # BR(~chi_40 -> ~chi_30   A )
     3.18379933E-04    2     1000024       -37   # BR(~chi_40 -> ~chi_1+   H-)
     3.18379933E-04    2    -1000024        37   # BR(~chi_40 -> ~chi_1-   H+)
     9.36682255E-04    2     1000002        -2   # BR(~chi_40 -> ~u_L      ub)
     9.36682255E-04    2    -1000002         2   # BR(~chi_40 -> ~u_L*     u )
     1.52653221E-23    2     2000002        -2   # BR(~chi_40 -> ~u_R      ub)
     1.52653221E-23    2    -2000002         2   # BR(~chi_40 -> ~u_R*     u )
     9.36683071E-04    2     1000001        -1   # BR(~chi_40 -> ~d_L      db)
     9.36683071E-04    2    -1000001         1   # BR(~chi_40 -> ~d_L*     d )
     1.79976181E-17    2     2000001        -1   # BR(~chi_40 -> ~d_R      db)
     1.79976181E-17    2    -2000001         1   # BR(~chi_40 -> ~d_R*     d )
     9.36682255E-04    2     1000004        -4   # BR(~chi_40 -> ~c_L      cb)
     9.36682255E-04    2    -1000004         4   # BR(~chi_40 -> ~c_L*     c )
     1.52653221E-23    2     2000004        -4   # BR(~chi_40 -> ~c_R      cb)
     1.52653221E-23    2    -2000004         4   # BR(~chi_40 -> ~c_R*     c )
     9.36683071E-04    2     1000003        -3   # BR(~chi_40 -> ~s_L      sb)
     9.36683071E-04    2    -1000003         3   # BR(~chi_40 -> ~s_L*     s )
     1.79976181E-17    2     2000003        -3   # BR(~chi_40 -> ~s_R      sb)
     1.79976181E-17    2    -2000003         3   # BR(~chi_40 -> ~s_R*     s )
     1.14650906E-03    2     1000006        -6   # BR(~chi_40 -> ~t_1      tb)
     1.14650906E-03    2    -1000006         6   # BR(~chi_40 -> ~t_1*     t )
     2.31713015E-01    2     1000005        -5   # BR(~chi_40 -> ~b_1      bb)
     2.31713015E-01    2    -1000005         5   # BR(~chi_40 -> ~b_1*     b )
     2.51671596E-01    2     2000005        -5   # BR(~chi_40 -> ~b_2      bb)
     2.51671596E-01    2    -2000005         5   # BR(~chi_40 -> ~b_2*     b )
     5.06997661E-16    2     1000011       -11   # BR(~chi_40 -> ~e_L-     e+)
     5.06997661E-16    2    -1000011        11   # BR(~chi_40 -> ~e_L+     e-)
     8.76740730E-29    2     2000011       -11   # BR(~chi_40 -> ~e_R-     e+)
     8.76740730E-29    2    -2000011        11   # BR(~chi_40 -> ~e_R+     e-)
     5.06997661E-16    2     1000013       -13   # BR(~chi_40 -> ~mu_L-    mu+)
     5.06997661E-16    2    -1000013        13   # BR(~chi_40 -> ~mu_L+    mu-)
     8.76740730E-29    2     2000013       -13   # BR(~chi_40 -> ~mu_R-    mu+)
     8.76740730E-29    2    -2000013        13   # BR(~chi_40 -> ~mu_R+    mu-)
     7.26093109E-16    2     1000012       -12   # BR(~chi_40 -> ~nu_eL    nu_eb)
     7.26093109E-16    2    -1000012        12   # BR(~chi_40 -> ~nu_eL*   nu_e )
     7.26093109E-16    2     1000014       -14   # BR(~chi_40 -> ~nu_muL   nu_mub)
     7.26093109E-16    2    -1000014        14   # BR(~chi_40 -> ~nu_muL*  nu_mu )
     7.26093109E-16    2     1000016       -16   # BR(~chi_40 -> ~nu_tau1  nu_taub)
     7.26093109E-16    2    -1000016        16   # BR(~chi_40 -> ~nu_tau1* nu_tau )
     4.92607874E-03    2     1000039        22   # BR(~chi_40 -> ~G        gam)
     1.54802405E-02    2     1000039        23   # BR(~chi_40 -> ~G        Z)
     9.39029401E-10    2     1000039        25   # BR(~chi_40 -> ~G        h)
     5.89156875E-09    2     1000039        35   # BR(~chi_40 -> ~G        H)
     1.16108080E-12    2     1000039        36   # BR(~chi_40 -> ~G        A)
#
#
#
#
