#
#                              ======================
#                              | THE SUSYHIT OUTPUT |
#                              ======================
#
#
#              ------------------------------------------------------
#              |     This is the output of the SUSY-HIT package     |
#              |  created by A.Djouadi, M.Muehlleitner and M.Spira. |
#              |  In case of problems with SUSY-HIT email to        |
#              |           margarete.muehlleitner@kit.edu           |
#              |           michael.spira@psi.ch                     |
#              |           abdelhak.djouadi@cern.ch                 |
#              ------------------------------------------------------
#
#              ------------------------------------------------------
#              |  SUSY Les Houches Accord - MSSM Spectrum + Decays  |
#              |              based on the decay programs           |
#              |                                                    |
#              |                     SDECAY 1.5                     |
#              |                                                    |
#              |  Authors: M.Muhlleitner, A.Djouadi and Y.Mambrini  |
#              |  Ref.:    Comput.Phys.Commun.168(2005)46           |
#              |           [hep-ph/0311167]                         |
#              |                                                    |
#              |                     HDECAY 3.4                     |
#              |                                                    |
#              |  By: A.Djouadi,J.Kalinowski,M.Muhlleitner,M.Spira  |
#              |  Ref.:    Comput.Phys.Commun.108(1998)56           |
#              |           [hep-ph/9704448]                         |
#              |                                                    |
#              |                                                    |
#              |  If not stated otherwise all DRbar couplings and   |
#              |  soft SUSY breaking masses are given at the scale  |
#              |  Q=  0.68226120E+04
#              |                                                    |
#              ------------------------------------------------------
#
#
BLOCK DCINFO  # Decay Program information
     1   SDECAY/HDECAY # decay calculator
     2   1.5  /3.4    # version number
#
BLOCK SPINFO  # Spectrum calculator information
     1   SuSpect     # RGE +Spectrum calculator            
     2   2.41        # version number                      
#
BLOCK MODSEL  # Model selection
     1     3   # #AMSB                                             
#
BLOCK SMINPUTS  # Standard Model inputs
         1     1.27934000E+02   # alpha_em^-1(M_Z)^MSbar
         2     1.16639000E-05   # G_F [GeV^-2]
         3     1.17200000E-01   # alpha_S(M_Z)^MSbar
         4     9.11870000E+01   # M_Z pole mass
         5     4.25000000E+00   # mb(mb)^MSbar
         6     1.73100000E+02   # mt pole mass
         7     1.77710000E+00   # mtau pole mass
#
BLOCK MINPAR  # Input parameters - minimal models
         1     5.00000000E+03   # m0                  
         2     4.50000000E+05   # M_3                 
         3     5.00000000E+00   # tanbeta(mZ)         
         4     1.00000000E+00   # sign(mu)            
         5     1.00000000E+00   # cQ                  
         6     1.00000000E+00   # cuR                 
#
BLOCK EXTPAR  # Input parameters - non-minimal models
         0     6.82261198E+03   # EWSB                
#
BLOCK MASS  # Mass Spectrum
# PDG code           mass       particle
        24     8.05025736E+01   # W+
        25     1.21734721E+02   # h
        35     8.33041540E+03   # H
        36     8.33006379E+03   # A
        37     8.33074616E+03   # H+
         5     4.87877839E+00   # b-quark pole mass calculated from mb(mb)_Msbar
   1000001     1.00000000E+10   # ~d_L
   2000001     1.00000000E+10   # ~d_R 
   1000002     1.00000000E+10   # ~u_L 
   2000002     1.00000000E+10   # ~u_R 
   1000003     1.00000000E+10   # ~s_L 
   2000003     1.00000000E+10   # ~s_R 
   1000004     1.00000000E+10   # ~c_L 
   2000004     1.00000000E+10   # ~c_R 
   1000005     1.00000000E+10   # ~b_1 
   2000005     1.00000000E+10   # ~b_2 
   1000006     1.00000000E+10   # ~t_1 
   2000006     1.00000000E+10   # ~t_2 
   1000011     1.00000000E+10   # ~e_L 
   2000011     1.00000000E+10   # ~e_R 
   1000012     1.00000000E+10   # ~nu_eL 
   1000013     1.00000000E+10   # ~mu_L 
   2000013     1.00000000E+10   # ~mu_R 
   1000014     1.00000000E+10   # ~nu_muL 
   1000015     1.00000000E+10   # ~tau_1 
   2000015     1.00000000E+10   # ~tau_2 
   1000016     1.00000000E+10   # ~nu_tauL 
   1000021     1.00000000E+10   # ~g 
   1000022     1.42983734E+03   # ~chi_10
   1000023     1.00000000E+10   # ~chi_20 
   1000025     1.00000000E+10   # ~chi_30 
   1000035     1.00000000E+10   # ~chi_40 
   1000024     1.42983739E+03   # ~chi_1+
   1000037     1.00000000E+10   # ~chi_2+ 
#
BLOCK NMIX  # Neutralino Mixing Matrix
  1  1     1.18618159E-04   # N_11
  1  2    -9.99911480E-01   # N_12
  1  3     1.23227152E-02   # N_13
  1  4    -5.01677681E-03   # N_14
  2  1     9.99882072E-01   # N_21
  2  2     3.16380898E-04   # N_22
  2  3     1.23136192E-02   # N_23
  2  4    -9.17153105E-03   # N_24
  3  1     2.22318065E-03   # N_31
  3  2    -5.16580831E-03   # N_32
  3  3    -7.07073588E-01   # N_33
  3  4    -7.07117610E-01   # N_34
  4  1     1.51949246E-02   # N_41
  4  2    -1.22574767E-02   # N_42
  4  3    -7.06925362E-01   # N_43
  4  4     7.07018671E-01   # N_44
#
BLOCK UMIX  # Chargino Mixing Matrix U
  1  1    -9.99848178E-01   # U_11
  1  2     1.74247451E-02   # U_12
  2  1     1.74247451E-02   # U_21
  2  2     9.99848178E-01   # U_22
#
BLOCK VMIX  # Chargino Mixing Matrix V
  1  1    -9.99974835E-01   # V_11
  1  2     7.09430570E-03   # V_12
  2  1     7.09430570E-03   # V_21
  2  2     9.99974835E-01   # V_22
#
BLOCK STOPMIX  # Stop Mixing Matrix
  1  1    -3.87731186E-02   # cos(theta_t)
  1  2     9.99248040E-01   # sin(theta_t)
  2  1    -9.99248040E-01   # -sin(theta_t)
  2  2    -3.87731186E-02   # cos(theta_t)
#
BLOCK SBOTMIX  # Sbottom Mixing Matrix
  1  1     9.99998595E-01   # cos(theta_b)
  1  2     1.67630487E-03   # sin(theta_b)
  2  1    -1.67630487E-03   # -sin(theta_b)
  2  2     9.99998595E-01   # cos(theta_b)
#
BLOCK STAUMIX  # Stau Mixing Matrix
  1  1     5.60692100E-02   # cos(theta_tau)
  1  2     9.98426884E-01   # sin(theta_tau)
  2  1    -9.98426884E-01   # -sin(theta_tau)
  2  2     5.60692100E-02   # cos(theta_tau)
#
BLOCK ALPHA  # Higgs mixing
          -2.09346624E-01   # Mixing angle in the neutral Higgs boson sector
#
BLOCK HMIX Q=  6.82261198E+03  # DRbar Higgs Parameters
         1     6.70233063E+03   # mu(Q)               
         2     4.70847720E+00   # tanbeta(Q)          
         3     2.43906353E+02   # vev(Q)              
         4     6.94840641E+07   # MA^2(Q)             
#
BLOCK GAUGE Q=  6.82261198E+03  # The gauge couplings
     1     3.66440892E-01   # gprime(Q) DRbar
     2     6.32773215E-01   # g(Q) DRbar
     3     9.66922783E-01   # g3(Q) DRbar
#
BLOCK AU Q=  6.82261198E+03  # The trilinear couplings
  1  1     1.43295974E+04   # A_u(Q) DRbar
  2  2     1.43295974E+04   # A_c(Q) DRbar
  3  3     6.75860254E+03   # A_t(Q) DRbar
#
BLOCK AD Q=  6.82261198E+03  # The trilinear couplings
  1  1     1.58845277E+04   # A_d(Q) DRbar
  2  2     1.58845277E+04   # A_s(Q) DRbar
  3  3     1.59777427E+04   # A_b(Q) DRbar
#
BLOCK AE Q=  6.82261198E+03  # The trilinear couplings
  1  1     4.48996465E+03   # A_e(Q) DRbar
  2  2     4.48996465E+03   # A_mu(Q) DRbar
  3  3     4.46947180E+03   # A_tau(Q) DRbar
#
BLOCK Yu Q=  6.82261198E+03  # The Yukawa couplings
  1  1     0.00000000E+00   # y_u(Q) DRbar
  2  2     0.00000000E+00   # y_c(Q) DRbar
  3  3     8.13376517E-01   # y_t(Q) DRbar
#
BLOCK Yd Q=  6.82261198E+03  # The Yukawa couplings
  1  1     0.00000000E+00   # y_d(Q) DRbar
  2  2     0.00000000E+00   # y_s(Q) DRbar
  3  3     6.52195923E-02   # y_b(Q) DRbar
#
BLOCK Ye Q=  6.82261198E+03  # The Yukawa couplings
  1  1     0.00000000E+00   # y_e(Q) DRbar
  2  2     0.00000000E+00   # y_mu(Q) DRbar
  3  3     4.88394842E-02   # y_tau(Q) DRbar
#
BLOCK MSOFT Q=  6.82261198E+03  # The soft SUSY breaking masses at the scale Q
         1     4.27754426E+03   # M_1                 
         2     1.34947681E+03   # M_2                 
         3    -7.74776980E+03   # M_3                 
        21     2.10726057E+07   # M^2_Hd              
        22    -4.11539370E+07   # M^2_Hu              
        31     4.68055327E+03   # M_eL                
        32     4.68055327E+03   # M_muL               
        33     4.67225158E+03   # M_tauL              
        34     4.59827806E+03   # M_eR                
        35     4.59827806E+03   # M_muR               
        36     4.58132226E+03   # M_tauR              
        41     8.79002762E+03   # M_q1L               
        42     8.79002762E+03   # M_q2L               
        43     7.55905012E+03   # M_q3L               
        44     8.83522000E+03   # M_uR                
        45     8.83522000E+03   # M_cR                
        46     6.15636810E+03   # M_tR                
        47     8.90785587E+03   # M_dR                
        48     8.90785587E+03   # M_sR                
        49     8.88038169E+03   # M_bR                
#
#
#
#                             =================
#                             |The decay table|
#                             =================
#
# - The QCD corrections to the decays gluino -> squark  + quark
#                                     squark -> gaugino + quark_prime
#                                     squark -> squark_prime + Higgs
#                                     squark -> gluino  + quark
#   are included.
#
# - The multi-body decays for the inos, stops and sbottoms are included.
#
# - The loop induced decays for the gluino, neutralinos and stops
#   are included.
#
# - The SUSY decays of the top quark are included.
#
#
#         PDG            Width
DECAY         6     1.40239523E+00   # top decays
#          BR         NDA      ID1       ID2
     1.00000000E+00    2           5        24   # BR(t ->  b    W+)
#
#         PDG            Width
DECAY   1000021     7.76084780E+00   # gluino decays
#          BR         NDA      ID1       ID2
     5.00000000E-01    2     1000006        -6   # BR(~g -> ~t_1  tb)
     5.00000000E-01    2    -1000006         6   # BR(~g -> ~t_1* t )
#
#         PDG            Width
DECAY   1000006     4.72935294E+00   # stop1 decays
#          BR         NDA      ID1       ID2
     3.37018569E-03    2     1000022         6   # BR(~t_1 -> ~chi_10 t )
     9.89880177E-01    2     1000023         6   # BR(~t_1 -> ~chi_20 t )
     6.74963771E-03    2     1000024         5   # BR(~t_1 -> ~chi_1+ b )
#
#         PDG            Width
DECAY   2000006     1.04985961E+02   # stop2 decays
#          BR         NDA      ID1       ID2
     2.64393696E-01    2     1000022         6   # BR(~t_2 -> ~chi_10 t )
     5.58035518E-03    2     1000023         6   # BR(~t_2 -> ~chi_20 t )
     3.30247262E-02    2     1000025         6   # BR(~t_2 -> ~chi_30 t )
     3.23241481E-02    2     1000035         6   # BR(~t_2 -> ~chi_40 t )
     5.29281349E-01    2     1000024         5   # BR(~t_2 -> ~chi_1+ b )
     4.69203160E-04    2     1000037         5   # BR(~t_2 -> ~chi_2+ b )
     6.54748068E-02    2     1000021         6   # BR(~t_2 -> ~g      t )
     6.05196159E-02    2     1000006        25   # BR(~t_2 -> ~t_1    h )
     8.93210013E-03    2     1000006        23   # BR(~t_2 -> ~t_1    Z )
#
#         PDG            Width
DECAY   1000005     1.05817301E+02   # sbottom1 decays
#          BR         NDA      ID1       ID2
     2.61999830E-01    2     1000022         5   # BR(~b_1 -> ~chi_10 b )
     5.17748670E-03    2     1000023         5   # BR(~b_1 -> ~chi_20 b )
     1.99635975E-04    2     1000025         5   # BR(~b_1 -> ~chi_30 b )
     2.03138979E-04    2     1000035         5   # BR(~b_1 -> ~chi_40 b )
     5.23508119E-01    2    -1000024         6   # BR(~b_1 -> ~chi_1- t )
     6.29509961E-02    2    -1000037         6   # BR(~b_1 -> ~chi_2- t )
     6.17500897E-02    2     1000021         5   # BR(~b_1 -> ~g      b )
     8.42107037E-02    2     1000006       -24   # BR(~b_1 -> ~t_1    W-)
#
#         PDG            Width
DECAY   2000005     7.21340241E+01   # sbottom2 decays
#          BR         NDA      ID1       ID2
    -2.59093539E-09    2     1000022         5   # BR(~b_2 -> ~chi_10 b )
     4.37821962E-02    2     1000023         5   # BR(~b_2 -> ~chi_20 b )
     1.06420886E-03    2     1000025         5   # BR(~b_2 -> ~chi_30 b )
     1.06700678E-03    2     1000035         5   # BR(~b_2 -> ~chi_40 b )
    -6.61429514E-09    2    -1000024         6   # BR(~b_2 -> ~chi_1- t )
     2.12796104E-03    2    -1000037         6   # BR(~b_2 -> ~chi_2- t )
     9.50844048E-01    2     1000021         5   # BR(~b_2 -> ~g      b )
     1.83640365E-04    2     1000005        25   # BR(~b_2 -> ~b_1    h )
     3.45969323E-04    2     1000005        23   # BR(~b_2 -> ~b_1    Z )
     6.15761313E-06    2     1000006       -24   # BR(~b_2 -> ~t_1    W-)
     5.78820862E-04    2     2000006       -24   # BR(~b_2 -> ~t_2    W-)
#
#         PDG            Width
DECAY   1000002     1.61356386E+02   # sup_L decays
#          BR         NDA      ID1       ID2
     2.01468061E-01    2     1000022         2   # BR(~u_L -> ~chi_10 u)
     4.80754046E-03    2     1000023         2   # BR(~u_L -> ~chi_20 u)
     9.43569768E-07    2     1000025         2   # BR(~u_L -> ~chi_30 u)
     3.65352441E-06    2     1000035         2   # BR(~u_L -> ~chi_40 u)
     4.03005639E-01    2     1000024         1   # BR(~u_L -> ~chi_1+ d)
     4.23097327E-06    2     1000037         1   # BR(~u_L -> ~chi_2+ d)
     3.90709932E-01    2     1000021         2   # BR(~u_L -> ~g      u)
#
#         PDG            Width
DECAY   2000002     7.83600987E+01   # sup_R decays
#          BR         NDA      ID1       ID2
     3.49998441E-09    2     1000022         2   # BR(~u_R -> ~chi_10 u)
     1.59545078E-01    2     1000023         2   # BR(~u_R -> ~chi_20 u)
     2.62739413E-07    2     1000025         2   # BR(~u_R -> ~chi_30 u)
     1.22638517E-05    2     1000035         2   # BR(~u_R -> ~chi_40 u)
     8.40442392E-01    2     1000021         2   # BR(~u_R -> ~g      u)
#
#         PDG            Width
DECAY   1000001     1.61365127E+02   # sdown_L decays
#          BR         NDA      ID1       ID2
     2.01483171E-01    2     1000022         1   # BR(~d_L -> ~chi_10 d)
     4.77620879E-03    2     1000023         1   # BR(~d_L -> ~chi_20 d)
     1.31670278E-06    2     1000025         1   # BR(~d_L -> ~chi_30 d)
     9.69820586E-06    2     1000035         1   # BR(~d_L -> ~chi_40 d)
     4.02896867E-01    2    -1000024         2   # BR(~d_L -> ~chi_1- u)
     2.55280388E-05    2    -1000037         2   # BR(~d_L -> ~chi_2- u)
     3.90807210E-01    2     1000021         1   # BR(~d_L -> ~g      d)
#
#         PDG            Width
DECAY   2000001     7.36328423E+01   # sdown_R decays
#          BR         NDA      ID1       ID2
     9.39357072E-10    2     1000022         1   # BR(~d_R -> ~chi_10 d)
     4.31608752E-02    2     1000023         1   # BR(~d_R -> ~chi_20 d)
     7.31568296E-08    2     1000025         1   # BR(~d_R -> ~chi_30 d)
     3.41482367E-06    2     1000035         1   # BR(~d_R -> ~chi_40 d)
     9.56835636E-01    2     1000021         1   # BR(~d_R -> ~g      d)
#
#         PDG            Width
DECAY   1000004     1.61356386E+02   # scharm_L decays
#          BR         NDA      ID1       ID2
     2.01468061E-01    2     1000022         4   # BR(~c_L -> ~chi_10 c)
     4.80754046E-03    2     1000023         4   # BR(~c_L -> ~chi_20 c)
     9.43569768E-07    2     1000025         4   # BR(~c_L -> ~chi_30 c)
     3.65352441E-06    2     1000035         4   # BR(~c_L -> ~chi_40 c)
     4.03005639E-01    2     1000024         3   # BR(~c_L -> ~chi_1+ s)
     4.23097327E-06    2     1000037         3   # BR(~c_L -> ~chi_2+ s)
     3.90709932E-01    2     1000021         4   # BR(~c_L -> ~g      c)
#
#         PDG            Width
DECAY   2000004     7.83600987E+01   # scharm_R decays
#          BR         NDA      ID1       ID2
     3.49998441E-09    2     1000022         4   # BR(~c_R -> ~chi_10 c)
     1.59545078E-01    2     1000023         4   # BR(~c_R -> ~chi_20 c)
     2.62739413E-07    2     1000025         4   # BR(~c_R -> ~chi_30 c)
     1.22638517E-05    2     1000035         4   # BR(~c_R -> ~chi_40 c)
     8.40442392E-01    2     1000021         4   # BR(~c_R -> ~g      c)
#
#         PDG            Width
DECAY   1000003     1.61365127E+02   # sstrange_L decays
#          BR         NDA      ID1       ID2
     2.01483171E-01    2     1000022         3   # BR(~s_L -> ~chi_10 s)
     4.77620879E-03    2     1000023         3   # BR(~s_L -> ~chi_20 s)
     1.31670278E-06    2     1000025         3   # BR(~s_L -> ~chi_30 s)
     9.69820586E-06    2     1000035         3   # BR(~s_L -> ~chi_40 s)
     4.02896867E-01    2    -1000024         4   # BR(~s_L -> ~chi_1- c)
     2.55280388E-05    2    -1000037         4   # BR(~s_L -> ~chi_2- c)
     3.90807210E-01    2     1000021         3   # BR(~s_L -> ~g      s)
#
#         PDG            Width
DECAY   2000003     7.36328423E+01   # sstrange_R decays
#          BR         NDA      ID1       ID2
     9.39357072E-10    2     1000022         3   # BR(~s_R -> ~chi_10 s)
     4.31608752E-02    2     1000023         3   # BR(~s_R -> ~chi_20 s)
     7.31568296E-08    2     1000025         3   # BR(~s_R -> ~chi_30 s)
     3.41482367E-06    2     1000035         3   # BR(~s_R -> ~chi_40 s)
     9.56835636E-01    2     1000021         3   # BR(~s_R -> ~g      s)
#
#         PDG            Width
DECAY   1000011     4.61628430E+01   # selectron_L decays
#          BR         NDA      ID1       ID2
     3.31892104E-01    2     1000022        11   # BR(~e_L -> ~chi_10 e-)
     4.31654044E-03    2     1000023        11   # BR(~e_L -> ~chi_20 e-)
     6.63791355E-01    2    -1000024        12   # BR(~e_L -> ~chi_1- nu_e)
#
#         PDG            Width
DECAY   2000011     5.43791307E-01   # selectron_R decays
#          BR         NDA      ID1       ID2
     5.18720558E-07    2     1000022        11   # BR(~e_R -> ~chi_10 e-)
     9.99999481E-01    2     1000023        11   # BR(~e_R -> ~chi_20 e-)
#
#         PDG            Width
DECAY   1000013     4.61628430E+01   # smuon_L decays
#          BR         NDA      ID1       ID2
     3.31892104E-01    2     1000022        13   # BR(~mu_L -> ~chi_10 mu-)
     4.31654044E-03    2     1000023        13   # BR(~mu_L -> ~chi_20 mu-)
     6.63791355E-01    2    -1000024        14   # BR(~mu_L -> ~chi_1- nu_mu)
#
#         PDG            Width
DECAY   2000013     5.43791307E-01   # smuon_R decays
#          BR         NDA      ID1       ID2
     5.18720558E-07    2     1000022        13   # BR(~mu_R -> ~chi_10 mu-)
     9.99999481E-01    2     1000023        13   # BR(~mu_R -> ~chi_20 mu-)
#
#         PDG            Width
DECAY   1000015     6.41942522E-01   # stau_1 decays
#          BR         NDA      ID1       ID2
     7.63030074E-02    2     1000022        15   # BR(~tau_1 -> ~chi_10  tau-)
     7.71092010E-01    2     1000023        15   # BR(~tau_1 -> ~chi_20  tau-)
     1.52604982E-01    2    -1000024        16   # BR(~tau_1 -> ~chi_1-  nu_tau)
#
#         PDG            Width
DECAY   2000015     4.58956763E+01   # stau_2 decays
#          BR         NDA      ID1       ID2
     3.31920060E-01    2     1000022        15   # BR(~tau_2 -> ~chi_10  tau-)
     4.23308425E-03    2     1000023        15   # BR(~tau_2 -> ~chi_20  tau-)
     6.63846783E-01    2    -1000024        16   # BR(~tau_2 -> ~chi_1-  nu_tau)
     7.29873962E-08    2     1000015        23   # BR(~tau_2 -> ~tau_1   Z)
#
#         PDG            Width
DECAY   1000012     4.61658443E+01   # snu_eL decays
#          BR         NDA      ID1       ID2
     3.31903546E-01    2     1000022        12   # BR(~nu_eL -> ~chi_10 nu_e)
     4.29645871E-03    2     1000023        12   # BR(~nu_eL -> ~chi_20 nu_e)
     6.63799996E-01    2     1000024        11   # BR(~nu_eL -> ~chi_1+ e-)
#
#         PDG            Width
DECAY   1000014     4.61658443E+01   # snu_muL decays
#          BR         NDA      ID1       ID2
     3.31903546E-01    2     1000022        14   # BR(~nu_muL -> ~chi_10 nu_mu)
     4.29645871E-03    2     1000023        14   # BR(~nu_muL -> ~chi_20 nu_mu)
     6.63799996E-01    2     1000024        13   # BR(~nu_muL -> ~chi_1+ mu-)
#
#         PDG            Width
DECAY   1000016     4.60450119E+01   # snu_tauL decays
#          BR         NDA      ID1       ID2
     3.31940953E-01    2     1000022        16   # BR(~nu_tauL -> ~chi_10 nu_tau)
     4.16020315E-03    2     1000023        16   # BR(~nu_tauL -> ~chi_20 nu_tau)
     6.63875318E-01    2     1000024        15   # BR(~nu_tauL -> ~chi_1+ tau-)
     2.35256222E-05    2    -1000015       -24   # BR(~nu_tauL -> ~tau_1+ W-)
#
#         PDG            Width
DECAY   1000024     0.00000000E+00   # stable chargino_1
#           BR         NDA      ID1       ID2       ID3
     3.74977162E-01    3     1000022         2        -1   # BR(~chi_1+ -> ~chi_10 u    db)
     3.74977162E-01    3     1000022         4        -3   # BR(~chi_1+ -> ~chi_10 c    sb)
     1.25022838E-01    3     1000022       -11        12   # BR(~chi_1+ -> ~chi_10 e+   nu_e)
     1.25022838E-01    3     1000022       -13        14   # BR(~chi_1+ -> ~chi_10 mu+  nu_mu)
#
#         PDG            Width
DECAY   1000037     5.09369986E+01   # chargino2+ decays
#          BR         NDA      ID1       ID2
     2.86828364E-02    2     1000006        -5   # BR(~chi_2+ -> ~t_1     bb)
     6.95645628E-06    2     1000012       -11   # BR(~chi_2+ -> ~nu_eL   e+  )
     6.95645628E-06    2     1000014       -13   # BR(~chi_2+ -> ~nu_muL  mu+ )
     8.35545049E-04    2     1000016       -15   # BR(~chi_2+ -> ~nu_tau1 tau+)
     4.19465795E-05    2    -1000011        12   # BR(~chi_2+ -> ~e_L+    nu_e)
     4.19465795E-05    2    -1000013        14   # BR(~chi_2+ -> ~mu_L+   nu_mu)
     8.64598113E-04    2    -1000015        16   # BR(~chi_2+ -> ~tau_1+  nu_tau)
     6.56250388E-05    2    -2000015        16   # BR(~chi_2+ -> ~tau_2+  nu_tau)
     2.91692342E-01    2     1000024        23   # BR(~chi_2+ -> ~chi_1+  Z )
     2.80263240E-01    2     1000022        24   # BR(~chi_2+ -> ~chi_10  W+)
     9.27242475E-02    2     1000023        24   # BR(~chi_2+ -> ~chi_20  W+)
     3.04773760E-01    2     1000024        25   # BR(~chi_2+ -> ~chi_1+  h )
#
#         PDG            Width
DECAY   1000022     0.00000000E+00   # stable neutralino 
#
#         PDG            Width
DECAY   1000023     1.00940690E-02   # neutralino2 decays
#          BR         NDA      ID1       ID2
     1.88591107E-02    2     1000022        23   # BR(~chi_20 -> ~chi_10   Z )
     3.24198689E-01    2     1000024       -24   # BR(~chi_20 -> ~chi_1+   W-)
     3.24198689E-01    2    -1000024        24   # BR(~chi_20 -> ~chi_1-   W+)
     3.32743512E-01    2     1000022        25   # BR(~chi_20 -> ~chi_10   h )
#
#         PDG            Width
DECAY   1000025     4.98475269E+01   # neutralino3 decays
#          BR         NDA      ID1       ID2
     2.53130422E-01    2     1000022        23   # BR(~chi_30 -> ~chi_10   Z )
     9.63404613E-02    2     1000023        23   # BR(~chi_30 -> ~chi_20   Z )
     2.86401577E-01    2     1000024       -24   # BR(~chi_30 -> ~chi_1+   W-)
     2.86401577E-01    2    -1000024        24   # BR(~chi_30 -> ~chi_1-   W+)
     4.69600864E-02    2     1000022        25   # BR(~chi_30 -> ~chi_10   h )
     2.15136623E-03    2     1000023        25   # BR(~chi_30 -> ~chi_20   h )
     1.34165032E-02    2     1000006        -6   # BR(~chi_30 -> ~t_1      tb)
     1.34165032E-02    2    -1000006         6   # BR(~chi_30 -> ~t_1*     t )
     1.06118142E-06    2     1000011       -11   # BR(~chi_30 -> ~e_L-     e+)
     1.06118142E-06    2    -1000011        11   # BR(~chi_30 -> ~e_L+     e-)
     4.99196289E-07    2     2000011       -11   # BR(~chi_30 -> ~e_R-     e+)
     4.99196289E-07    2    -2000011        11   # BR(~chi_30 -> ~e_R+     e-)
     1.06118142E-06    2     1000013       -13   # BR(~chi_30 -> ~mu_L-    mu+)
     1.06118142E-06    2    -1000013        13   # BR(~chi_30 -> ~mu_L+    mu-)
     4.99196289E-07    2     2000013       -13   # BR(~chi_30 -> ~mu_R-    mu+)
     4.99196289E-07    2    -2000013        13   # BR(~chi_30 -> ~mu_R+    mu-)
     4.50698919E-04    2     1000015       -15   # BR(~chi_30 -> ~tau_1-   tau+)
     4.50698919E-04    2    -1000015        15   # BR(~chi_30 -> ~tau_1+   tau-)
     4.28094050E-04    2     2000015       -15   # BR(~chi_30 -> ~tau_2-   tau+)
     4.28094050E-04    2    -2000015        15   # BR(~chi_30 -> ~tau_2+   tau-)
     2.93938709E-06    2     1000012       -12   # BR(~chi_30 -> ~nu_eL    nu_eb)
     2.93938709E-06    2    -1000012        12   # BR(~chi_30 -> ~nu_eL*   nu_e )
     2.93938709E-06    2     1000014       -14   # BR(~chi_30 -> ~nu_muL   nu_mub)
     2.93938709E-06    2    -1000014        14   # BR(~chi_30 -> ~nu_muL*  nu_mu )
     2.95918655E-06    2     1000016       -16   # BR(~chi_30 -> ~nu_tau1  nu_taub)
     2.95918655E-06    2    -1000016        16   # BR(~chi_30 -> ~nu_tau1* nu_tau )
#
#         PDG            Width
DECAY   1000035     5.04369745E+01   # neutralino4 decays
#          BR         NDA      ID1       ID2
     4.44323299E-02    2     1000022        23   # BR(~chi_40 -> ~chi_10   Z )
     2.04412799E-03    2     1000023        23   # BR(~chi_40 -> ~chi_20   Z )
     2.83037295E-01    2     1000024       -24   # BR(~chi_40 -> ~chi_1+   W-)
     2.83037295E-01    2    -1000024        24   # BR(~chi_40 -> ~chi_1-   W+)
     2.61371626E-01    2     1000022        25   # BR(~chi_40 -> ~chi_10   h )
     9.95028316E-02    2     1000023        25   # BR(~chi_40 -> ~chi_20   h )
     1.22558875E-02    2     1000006        -6   # BR(~chi_40 -> ~t_1      tb)
     1.22558875E-02    2    -1000006         6   # BR(~chi_40 -> ~t_1*     t )
     8.34429801E-07    2     1000011       -11   # BR(~chi_40 -> ~e_L-     e+)
     8.34429801E-07    2    -1000011        11   # BR(~chi_40 -> ~e_L+     e-)
     2.30640056E-05    2     2000011       -11   # BR(~chi_40 -> ~e_R-     e+)
     2.30640056E-05    2    -2000011        11   # BR(~chi_40 -> ~e_R+     e-)
     8.34429801E-07    2     1000013       -13   # BR(~chi_40 -> ~mu_L-    mu+)
     8.34429801E-07    2    -1000013        13   # BR(~chi_40 -> ~mu_L+    mu-)
     2.30640056E-05    2     2000013       -13   # BR(~chi_40 -> ~mu_R-    mu+)
     2.30640056E-05    2    -2000013        13   # BR(~chi_40 -> ~mu_R+    mu-)
     4.58715589E-04    2     1000015       -15   # BR(~chi_40 -> ~tau_1-   tau+)
     4.58715589E-04    2    -1000015        15   # BR(~chi_40 -> ~tau_1+   tau-)
     4.31776107E-04    2     2000015       -15   # BR(~chi_40 -> ~tau_2-   tau+)
     4.31776107E-04    2    -2000015        15   # BR(~chi_40 -> ~tau_2+   tau-)
     3.09542943E-05    2     1000012       -12   # BR(~chi_40 -> ~nu_eL    nu_eb)
     3.09542943E-05    2    -1000012        12   # BR(~chi_40 -> ~nu_eL*   nu_e )
     3.09542943E-05    2     1000014       -14   # BR(~chi_40 -> ~nu_muL   nu_mub)
     3.09542943E-05    2    -1000014        14   # BR(~chi_40 -> ~nu_muL*  nu_mu )
     3.11626673E-05    2     1000016       -16   # BR(~chi_40 -> ~nu_tau1  nu_taub)
     3.11626673E-05    2    -1000016        16   # BR(~chi_40 -> ~nu_tau1* nu_tau )
#
#
#         PDG            Width
DECAY        36     2.33486884E+01   # A decays
#          BR         NDA      ID1       ID2
     7.67065503E-02    2           5        -5   # BR(A -> b       bb     )
     1.63941688E-02    2         -15        15   # BR(A -> tau+    tau-   )
     5.79527003E-05    2         -13        13   # BR(A -> mu+     mu-    )
     6.26503802E-05    2           3        -3   # BR(A -> s       sb     )
     5.75006352E-06    2           4        -4   # BR(A -> c       cb     )
     5.78964733E-01    2           6        -6   # BR(A -> t       tb     )
     1.30573841E-04    2          21        21   # BR(A -> g       g      )
     3.14014758E-07    2          22        22   # BR(A -> gam     gam    )
     2.46435850E-07    2          23        22   # BR(A -> Z       gam    )
     4.35856090E-05    2          23        25   # BR(A -> Z       h      )
     9.77466384E-04    2     1000024  -1000024   # BR(A -> ~chi_1+ ~chi_1-)
     1.08637117E-01    2     1000024  -1000037   # BR(A -> ~chi_1+ ~chi_2-)
     1.08637117E-01    2     1000037  -1000024   # BR(A -> ~chi_2+ ~chi_1-)
     4.88862062E-04    2     1000022   1000022   # BR(A -> ~chi_10 ~chi_10)
     4.05301540E-04    2     1000022   1000023   # BR(A -> ~chi_10 ~chi_20)
     3.39482208E-03    2     1000022   1000025   # BR(A -> ~chi_10 ~chi_30)
     1.05092789E-01    2     1000022   1000035   # BR(A -> ~chi_10 ~chi_40)
#
#         PDG            Width
DECAY        37     2.31167139E+01   # H+ decays
#          BR         NDA      ID1       ID2
     1.20881654E-04    2           4        -5   # BR(H+ -> c       bb     )
     1.65600394E-02    2         -15        16   # BR(H+ -> tau+    nu_tau )
     5.85390462E-05    2         -13        14   # BR(H+ -> mu+     nu_mu  )
     7.73585352E-07    2           2        -5   # BR(H+ -> u       bb     )
     3.03109291E-06    2           2        -3   # BR(H+ -> u       sb     )
     6.79193498E-05    2           4        -3   # BR(H+ -> c       sb     )
     6.52497536E-01    2           6        -5   # BR(H+ -> t       bb     )
     4.40373084E-05    2          24        25   # BR(H+ -> W+      h      )
     8.42430001E-15    2          24        36   # BR(H+ -> W+      A      )
     6.50427384E-12    2     1000024   1000022   # BR(H+ -> ~chi_1+ ~chi_10)
     5.54740310E-04    2     1000024   1000023   # BR(H+ -> ~chi_1+ ~chi_20)
     1.10245857E-01    2     1000024   1000025   # BR(H+ -> ~chi_1+ ~chi_30)
     1.09832300E-01    2     1000024   1000035   # BR(H+ -> ~chi_1+ ~chi_40)
     1.10014345E-01    2     1000037   1000022   # BR(H+ -> ~chi_2+ ~chi_10)
