#
#                              ======================
#                              | THE SUSYHIT OUTPUT |
#                              ======================
#
#
#              ------------------------------------------------------
#              |     This is the output of the SUSY-HIT package     |
#              |  created by A.Djouadi, M.Muehlleitner and M.Spira. |
#              |  In case of problems with SUSY-HIT email to        |
#              |           margarete.muehlleitner@kit.edu           |
#              |           michael.spira@psi.ch                     |
#              |           abdelhak.djouadi@cern.ch                 |
#              ------------------------------------------------------
#
#              ------------------------------------------------------
#              |  SUSY Les Houches Accord - MSSM Spectrum + Decays  |
#              |              based on the decay programs           |
#              |                                                    |
#              |                     SDECAY 1.5                     |
#              |                                                    |
#              |  Authors: M.Muhlleitner, A.Djouadi and Y.Mambrini  |
#              |  Ref.:    Comput.Phys.Commun.168(2005)46           |
#              |           [hep-ph/0311167]                         |
#              |                                                    |
#              |                     HDECAY 3.4                     |
#              |                                                    |
#              |  By: A.Djouadi,J.Kalinowski,M.Muhlleitner,M.Spira  |
#              |  Ref.:    Comput.Phys.Commun.108(1998)56           |
#              |           [hep-ph/9704448]                         |
#              |                                                    |
#              |                                                    |
#              |  If not stated otherwise all DRbar couplings and   |
#              |  soft SUSY breaking masses are given at the scale  |
#              |  Q=  0.64090499E+04
#              |                                                    |
#              ------------------------------------------------------
#
#
BLOCK DCINFO  # Decay Program information
     1   SDECAY/HDECAY # decay calculator
     2   1.5  /3.4    # version number
#
BLOCK SPINFO  # Spectrum calculator information
     1   SuSpect     # RGE +Spectrum calculator            
     2   2.41        # version number                      
#
BLOCK MODSEL  # Model selection
     1     3   # #AMSB                                             
#
BLOCK SMINPUTS  # Standard Model inputs
         1     1.27934000E+02   # alpha_em^-1(M_Z)^MSbar
         2     1.16639000E-05   # G_F [GeV^-2]
         3     1.17200000E-01   # alpha_S(M_Z)^MSbar
         4     9.11870000E+01   # M_Z pole mass
         5     4.25000000E+00   # mb(mb)^MSbar
         6     1.73100000E+02   # mt pole mass
         7     1.77710000E+00   # mtau pole mass
#
BLOCK MINPAR  # Input parameters - minimal models
         1     5.00000000E+03   # m0                  
         2     4.10000000E+05   # M_3                 
         3     5.00000000E+00   # tanbeta(mZ)         
         4     1.00000000E+00   # sign(mu)            
         5     1.00000000E+00   # cQ                  
         6     1.00000000E+00   # cuR                 
#
BLOCK EXTPAR  # Input parameters - non-minimal models
         0     6.40904987E+03   # EWSB                
#
BLOCK MASS  # Mass Spectrum
# PDG code           mass       particle
        24     8.05013259E+01   # W+
        25     1.21409506E+02   # h
        35     7.89660771E+03   # H
        36     7.89628188E+03   # A
        37     7.89697908E+03   # H+
         5     4.87877839E+00   # b-quark pole mass calculated from mb(mb)_Msbar
   1000001     1.00000000E+10   # ~d_L
   2000001     1.00000000E+10   # ~d_R 
   1000002     1.00000000E+10   # ~u_L 
   2000002     1.00000000E+10   # ~u_R 
   1000003     1.00000000E+10   # ~s_L 
   2000003     1.00000000E+10   # ~s_R 
   1000004     1.00000000E+10   # ~c_L 
   2000004     1.00000000E+10   # ~c_R 
   1000005     1.00000000E+10   # ~b_1 
   2000005     1.00000000E+10   # ~b_2 
   1000006     1.00000000E+10   # ~t_1 
   2000006     1.00000000E+10   # ~t_2 
   1000011     1.00000000E+10   # ~e_L 
   2000011     1.00000000E+10   # ~e_R 
   1000012     1.00000000E+10   # ~nu_eL 
   1000013     1.00000000E+10   # ~mu_L 
   2000013     1.00000000E+10   # ~mu_R 
   1000014     1.00000000E+10   # ~nu_muL 
   1000015     1.00000000E+10   # ~tau_1 
   2000015     1.00000000E+10   # ~tau_2 
   1000016     1.00000000E+10   # ~nu_tauL 
   1000021     1.00000000E+10   # ~g 
   1000022     1.30641872E+03   # ~chi_10
   1000023     1.00000000E+10   # ~chi_20 
   1000025     1.00000000E+10   # ~chi_30 
   1000035     1.00000000E+10   # ~chi_40 
   1000024     1.30641878E+03   # ~chi_1+
   1000037     1.00000000E+10   # ~chi_2+ 
#
BLOCK NMIX  # Neutralino Mixing Matrix
  1  1     1.42038612E-04   # N_11
  1  2    -9.99894574E-01   # N_12
  1  3     1.34508095E-02   # N_13
  1  4    -5.46767742E-03   # N_14
  2  1     9.99862247E-01   # N_21
  2  2     3.75357561E-04   # N_22
  2  3     1.33245598E-02   # N_23
  2  4    -9.88954674E-03   # N_24
  3  1     2.43071942E-03   # N_31
  3  2    -5.64457288E-03   # N_32
  3  3    -7.07067169E-01   # N_33
  3  4    -7.07119685E-01   # N_34
  4  1     1.64182639E-02   # N_41
  4  2    -1.33730262E-02   # N_42
  4  3    -7.06892885E-01   # N_43
  4  4     7.07003573E-01   # N_44
#
BLOCK UMIX  # Chargino Mixing Matrix U
  1  1    -9.99819114E-01   # U_11
  1  2     1.90194418E-02   # U_12
  2  1     1.90194418E-02   # U_21
  2  2     9.99819114E-01   # U_22
#
BLOCK VMIX  # Chargino Mixing Matrix V
  1  1    -9.99970109E-01   # V_11
  1  2     7.73182802E-03   # V_12
  2  1     7.73182802E-03   # V_21
  2  2     9.99970109E-01   # V_22
#
BLOCK STOPMIX  # Stop Mixing Matrix
  1  1    -3.96098326E-02   # cos(theta_t)
  1  2     9.99215223E-01   # sin(theta_t)
  2  1    -9.99215223E-01   # -sin(theta_t)
  2  2    -3.96098326E-02   # cos(theta_t)
#
BLOCK SBOTMIX  # Sbottom Mixing Matrix
  1  1     9.99998521E-01   # cos(theta_b)
  1  2     1.71988308E-03   # sin(theta_b)
  2  1    -1.71988308E-03   # -sin(theta_b)
  2  2     9.99998521E-01   # cos(theta_b)
#
BLOCK STAUMIX  # Stau Mixing Matrix
  1  1     6.37691136E-02   # cos(theta_tau)
  1  2     9.97964679E-01   # sin(theta_tau)
  2  1    -9.97964679E-01   # -sin(theta_tau)
  2  2     6.37691136E-02   # cos(theta_tau)
#
BLOCK ALPHA  # Higgs mixing
          -2.09231188E-01   # Mixing angle in the neutral Higgs boson sector
#
BLOCK HMIX Q=  6.40904987E+03  # DRbar Higgs Parameters
         1     6.13759678E+03   # mu(Q)               
         2     4.71133438E+00   # tanbeta(Q)          
         3     2.43876326E+02   # vev(Q)              
         4     6.24577726E+07   # MA^2(Q)             
#
BLOCK GAUGE Q=  6.40904987E+03  # The gauge couplings
     1     3.66271794E-01   # gprime(Q) DRbar
     2     6.33131405E-01   # g(Q) DRbar
     3     9.69764754E-01   # g3(Q) DRbar
#
BLOCK AU Q=  6.40904987E+03  # The trilinear couplings
  1  1     1.31067665E+04   # A_u(Q) DRbar
  2  2     1.31067665E+04   # A_c(Q) DRbar
  3  3     6.18568043E+03   # A_t(Q) DRbar
#
BLOCK AD Q=  6.40904987E+03  # The trilinear couplings
  1  1     1.45537756E+04   # A_d(Q) DRbar
  2  2     1.45537756E+04   # A_s(Q) DRbar
  3  3     1.46287351E+04   # A_b(Q) DRbar
#
BLOCK AE Q=  6.40904987E+03  # The trilinear couplings
  1  1     4.09321059E+03   # A_e(Q) DRbar
  2  2     4.09321059E+03   # A_mu(Q) DRbar
  3  3     4.07451547E+03   # A_tau(Q) DRbar
#
BLOCK Yu Q=  6.40904987E+03  # The Yukawa couplings
  1  1     0.00000000E+00   # y_u(Q) DRbar
  2  2     0.00000000E+00   # y_c(Q) DRbar
  3  3     8.15381980E-01   # y_t(Q) DRbar
#
BLOCK Yd Q=  6.40904987E+03  # The Yukawa couplings
  1  1     0.00000000E+00   # y_d(Q) DRbar
  2  2     0.00000000E+00   # y_s(Q) DRbar
  3  3     6.53861640E-02   # y_b(Q) DRbar
#
BLOCK Ye Q=  6.40904987E+03  # The Yukawa couplings
  1  1     0.00000000E+00   # y_e(Q) DRbar
  2  2     0.00000000E+00   # y_mu(Q) DRbar
  3  3     4.88705505E-02   # y_tau(Q) DRbar
#
BLOCK MSOFT Q=  6.40904987E+03  # The soft SUSY breaking masses at the scale Q
         1     3.89401843E+03   # M_1                 
         2     1.23172848E+03   # M_2                 
         3    -7.09959192E+03   # M_3                 
        21     2.16557811E+07   # M^2_Hd              
        22    -3.42925640E+07   # M^2_Hu              
        31     4.73167737E+03   # M_eL                
        32     4.73167737E+03   # M_muL               
        33     4.72398820E+03   # M_tauL              
        34     4.66737408E+03   # M_eR                
        35     4.66737408E+03   # M_muR               
        36     4.65172993E+03   # M_tauR              
        41     8.29126676E+03   # M_q1L               
        42     8.29126676E+03   # M_q2L               
        43     7.11627172E+03   # M_q3L               
        44     8.33337201E+03   # M_uR                
        45     8.33337201E+03   # M_cR                
        46     5.77041004E+03   # M_tR                
        47     8.39758495E+03   # M_dR                
        48     8.39758495E+03   # M_sR                
        49     8.37216575E+03   # M_bR                
#
#
#
#                             =================
#                             |The decay table|
#                             =================
#
# - The QCD corrections to the decays gluino -> squark  + quark
#                                     squark -> gaugino + quark_prime
#                                     squark -> squark_prime + Higgs
#                                     squark -> gluino  + quark
#   are included.
#
# - The multi-body decays for the inos, stops and sbottoms are included.
#
# - The loop induced decays for the gluino, neutralinos and stops
#   are included.
#
# - The SUSY decays of the top quark are included.
#
#
#         PDG            Width
DECAY         6     1.40403777E+00   # top decays
#          BR         NDA      ID1       ID2
     1.00000000E+00    2           5        24   # BR(t ->  b    W+)
#
#         PDG            Width
DECAY   1000021     4.87639742E+00   # gluino decays
#          BR         NDA      ID1       ID2
     5.00000000E-01    2     1000006        -6   # BR(~g -> ~t_1  tb)
     5.00000000E-01    2    -1000006         6   # BR(~g -> ~t_1* t )
#
#         PDG            Width
DECAY   1000006     4.79724955E+00   # stop1 decays
#          BR         NDA      ID1       ID2
     3.04859851E-03    2     1000022         6   # BR(~t_1 -> ~chi_10 t )
     9.90844617E-01    2     1000023         6   # BR(~t_1 -> ~chi_20 t )
     6.10678448E-03    2     1000024         5   # BR(~t_1 -> ~chi_1+ b )
#
#         PDG            Width
DECAY   2000006     1.12654395E+02   # stop2 decays
#          BR         NDA      ID1       ID2
     2.32700614E-01    2     1000022         6   # BR(~t_2 -> ~chi_10 t )
     5.16372596E-03    2     1000023         6   # BR(~t_2 -> ~chi_20 t )
     3.82859799E-02    2     1000025         6   # BR(~t_2 -> ~chi_30 t )
     3.75294256E-02    2     1000035         6   # BR(~t_2 -> ~chi_40 t )
     4.65894288E-01    2     1000024         5   # BR(~t_2 -> ~chi_1+ b )
     5.43277062E-04    2     1000037         5   # BR(~t_2 -> ~chi_2+ b )
     1.22861054E-01    2     1000021         6   # BR(~t_2 -> ~g      t )
     5.05167423E-02    2     1000006        25   # BR(~t_2 -> ~t_1    h )
     4.65048937E-02    2     1000006        23   # BR(~t_2 -> ~t_1    Z )
#
#         PDG            Width
DECAY   1000005     1.17250440E+02   # sbottom1 decays
#          BR         NDA      ID1       ID2
     2.23317522E-01    2     1000022         5   # BR(~b_1 -> ~chi_10 b )
     4.61779898E-03    2     1000023         5   # BR(~b_1 -> ~chi_20 b )
     2.25178188E-04    2     1000025         5   # BR(~b_1 -> ~chi_30 b )
     2.29862810E-04    2     1000035         5   # BR(~b_1 -> ~chi_40 b )
     4.46160030E-01    2    -1000024         6   # BR(~b_1 -> ~chi_1- t )
     7.11017411E-02    2    -1000037         6   # BR(~b_1 -> ~chi_2- t )
     1.13284282E-01    2     1000021         5   # BR(~b_1 -> ~g      b )
     1.41063585E-01    2     1000006       -24   # BR(~b_1 -> ~t_1    W-)
#
#         PDG            Width
DECAY   2000005     8.43313760E+01   # sbottom2 decays
#          BR         NDA      ID1       ID2
     6.38707085E-09    2     1000022         5   # BR(~b_2 -> ~chi_10 b )
     3.65452886E-02    2     1000023         5   # BR(~b_2 -> ~chi_20 b )
     9.79497466E-04    2     1000025         5   # BR(~b_2 -> ~chi_30 b )
     9.82510804E-04    2     1000035         5   # BR(~b_2 -> ~chi_40 b )
     1.10437457E-08    2    -1000024         6   # BR(~b_2 -> ~chi_1- t )
     1.95860988E-03    2    -1000037         6   # BR(~b_2 -> ~chi_2- t )
     9.58729085E-01    2     1000021         5   # BR(~b_2 -> ~g      b )
     1.41856641E-04    2     1000005        25   # BR(~b_2 -> ~b_1    h )
     2.44051906E-04    2     1000005        23   # BR(~b_2 -> ~b_1    Z )
     5.12710920E-06    2     1000006       -24   # BR(~b_2 -> ~t_1    W-)
     4.13955086E-04    2     2000006       -24   # BR(~b_2 -> ~t_2    W-)
#
#         PDG            Width
DECAY   1000002     1.68627178E+02   # sup_L decays
#          BR         NDA      ID1       ID2
     1.82554404E-01    2     1000022         2   # BR(~u_L -> ~chi_10 u)
     4.50026319E-03    2     1000023         2   # BR(~u_L -> ~chi_20 u)
     1.16323973E-06    2     1000025         2   # BR(~u_L -> ~chi_30 u)
     4.51994157E-06    2     1000035         2   # BR(~u_L -> ~chi_40 u)
     3.65183978E-01    2     1000024         1   # BR(~u_L -> ~chi_1+ d)
     5.18859242E-06    2     1000037         1   # BR(~u_L -> ~chi_2+ d)
     4.47750484E-01    2     1000021         2   # BR(~u_L -> ~g      u)
#
#         PDG            Width
DECAY   2000002     9.05529626E+01   # sup_R decays
#          BR         NDA      ID1       ID2
     4.10386002E-09    2     1000022         2   # BR(~u_R -> ~chi_10 u)
     1.34904341E-01    2     1000023         2   # BR(~u_R -> ~chi_20 u)
     2.91761281E-07    2     1000025         2   # BR(~u_R -> ~chi_30 u)
     1.32999506E-05    2     1000035         2   # BR(~u_R -> ~chi_40 u)
     8.65082063E-01    2     1000021         2   # BR(~u_R -> ~g      u)
#
#         PDG            Width
DECAY   1000001     1.68637715E+02   # sdown_L decays
#          BR         NDA      ID1       ID2
     1.82570712E-01    2     1000022         1   # BR(~d_L -> ~chi_10 d)
     4.46542483E-03    2     1000023         1   # BR(~d_L -> ~chi_20 d)
     1.62300941E-06    2     1000025         1   # BR(~d_L -> ~chi_30 d)
     1.18691876E-05    2     1000035         1   # BR(~d_L -> ~chi_40 d)
     3.65066312E-01    2    -1000024         2   # BR(~d_L -> ~chi_1- u)
     3.14009483E-05    2    -1000037         2   # BR(~d_L -> ~chi_2- u)
     4.47852658E-01    2     1000021         1   # BR(~d_L -> ~g      d)
#
#         PDG            Width
DECAY   2000001     8.58096325E+01   # sdown_R decays
#          BR         NDA      ID1       ID2
     1.09159373E-09    2     1000022         1   # BR(~d_R -> ~chi_10 d)
     3.61287184E-02    2     1000023         1   # BR(~d_R -> ~chi_20 d)
     8.00137546E-08    2     1000025         1   # BR(~d_R -> ~chi_30 d)
     3.64752160E-06    2     1000035         1   # BR(~d_R -> ~chi_40 d)
     9.63867553E-01    2     1000021         1   # BR(~d_R -> ~g      d)
#
#         PDG            Width
DECAY   1000004     1.68627178E+02   # scharm_L decays
#          BR         NDA      ID1       ID2
     1.82554404E-01    2     1000022         4   # BR(~c_L -> ~chi_10 c)
     4.50026319E-03    2     1000023         4   # BR(~c_L -> ~chi_20 c)
     1.16323973E-06    2     1000025         4   # BR(~c_L -> ~chi_30 c)
     4.51994157E-06    2     1000035         4   # BR(~c_L -> ~chi_40 c)
     3.65183978E-01    2     1000024         3   # BR(~c_L -> ~chi_1+ s)
     5.18859242E-06    2     1000037         3   # BR(~c_L -> ~chi_2+ s)
     4.47750484E-01    2     1000021         4   # BR(~c_L -> ~g      c)
#
#         PDG            Width
DECAY   2000004     9.05529626E+01   # scharm_R decays
#          BR         NDA      ID1       ID2
     4.10386002E-09    2     1000022         4   # BR(~c_R -> ~chi_10 c)
     1.34904341E-01    2     1000023         4   # BR(~c_R -> ~chi_20 c)
     2.91761281E-07    2     1000025         4   # BR(~c_R -> ~chi_30 c)
     1.32999506E-05    2     1000035         4   # BR(~c_R -> ~chi_40 c)
     8.65082063E-01    2     1000021         4   # BR(~c_R -> ~g      c)
#
#         PDG            Width
DECAY   1000003     1.68637715E+02   # sstrange_L decays
#          BR         NDA      ID1       ID2
     1.82570712E-01    2     1000022         3   # BR(~s_L -> ~chi_10 s)
     4.46542483E-03    2     1000023         3   # BR(~s_L -> ~chi_20 s)
     1.62300941E-06    2     1000025         3   # BR(~s_L -> ~chi_30 s)
     1.18691876E-05    2     1000035         3   # BR(~s_L -> ~chi_40 s)
     3.65066312E-01    2    -1000024         4   # BR(~s_L -> ~chi_1- c)
     3.14009483E-05    2    -1000037         4   # BR(~s_L -> ~chi_2- c)
     4.47852658E-01    2     1000021         3   # BR(~s_L -> ~g      s)
#
#         PDG            Width
DECAY   2000003     8.58096325E+01   # sstrange_R decays
#          BR         NDA      ID1       ID2
     1.09159373E-09    2     1000022         3   # BR(~s_R -> ~chi_10 s)
     3.61287184E-02    2     1000023         3   # BR(~s_R -> ~chi_20 s)
     8.00137546E-08    2     1000025         3   # BR(~s_R -> ~chi_30 s)
     3.64752160E-06    2     1000035         3   # BR(~s_R -> ~chi_40 s)
     9.63867553E-01    2     1000021         3   # BR(~s_R -> ~g      s)
#
#         PDG            Width
DECAY   1000011     4.89843458E+01   # selectron_L decays
#          BR         NDA      ID1       ID2
     3.28573376E-01    2     1000022        11   # BR(~e_L -> ~chi_10 e-)
     1.42710614E-02    2     1000023        11   # BR(~e_L -> ~chi_20 e-)
     6.57155563E-01    2    -1000024        12   # BR(~e_L -> ~chi_1- nu_e)
#
#         PDG            Width
DECAY   2000011     2.45645720E+00   # selectron_R decays
#          BR         NDA      ID1       ID2
     1.73821320E-07    2     1000022        11   # BR(~e_R -> ~chi_10 e-)
     9.99999826E-01    2     1000023        11   # BR(~e_R -> ~chi_20 e-)
#
#         PDG            Width
DECAY   1000013     4.89843458E+01   # smuon_L decays
#          BR         NDA      ID1       ID2
     3.28573376E-01    2     1000022        13   # BR(~mu_L -> ~chi_10 mu-)
     1.42710614E-02    2     1000023        13   # BR(~mu_L -> ~chi_20 mu-)
     6.57155563E-01    2    -1000024        14   # BR(~mu_L -> ~chi_1- nu_mu)
#
#         PDG            Width
DECAY   2000013     2.45645720E+00   # smuon_R decays
#          BR         NDA      ID1       ID2
     1.73821320E-07    2     1000022        13   # BR(~mu_R -> ~chi_10 mu-)
     9.99999826E-01    2     1000023        13   # BR(~mu_R -> ~chi_20 mu-)
#
#         PDG            Width
DECAY   1000015     2.56927051E+00   # stau_1 decays
#          BR         NDA      ID1       ID2
     2.60566001E-02    2     1000022        15   # BR(~tau_1 -> ~chi_10  tau-)
     9.21830570E-01    2     1000023        15   # BR(~tau_1 -> ~chi_20  tau-)
     5.21128299E-02    2    -1000024        16   # BR(~tau_1 -> ~chi_1-  nu_tau)
#
#         PDG            Width
DECAY   2000015     4.86770512E+01   # stau_2 decays
#          BR         NDA      ID1       ID2
     3.28557188E-01    2     1000022        15   # BR(~tau_2 -> ~chi_10  tau-)
     1.43203530E-02    2     1000023        15   # BR(~tau_2 -> ~chi_20  tau-)
     6.57122459E-01    2    -1000024        16   # BR(~tau_2 -> ~chi_1-  nu_tau)
#
#         PDG            Width
DECAY   1000012     4.89889700E+01   # snu_eL decays
#          BR         NDA      ID1       ID2
     3.28597212E-01    2     1000022        12   # BR(~nu_eL -> ~chi_10 nu_e)
     1.42170972E-02    2     1000023        12   # BR(~nu_eL -> ~chi_20 nu_e)
     6.57185691E-01    2     1000024        11   # BR(~nu_eL -> ~chi_1+ e-)
#
#         PDG            Width
DECAY   1000014     4.89889700E+01   # snu_muL decays
#          BR         NDA      ID1       ID2
     3.28597212E-01    2     1000022        14   # BR(~nu_muL -> ~chi_10 nu_mu)
     1.42170972E-02    2     1000023        14   # BR(~nu_muL -> ~chi_20 nu_mu)
     6.57185691E-01    2     1000024        13   # BR(~nu_muL -> ~chi_1+ mu-)
#
#         PDG            Width
DECAY   1000016     4.88743824E+01   # snu_tauL decays
#          BR         NDA      ID1       ID2
     3.28655440E-01    2     1000022        16   # BR(~nu_tauL -> ~chi_10 nu_tau)
     1.40416502E-02    2     1000023        16   # BR(~nu_tauL -> ~chi_20 nu_tau)
     6.57302910E-01    2     1000024        15   # BR(~nu_tauL -> ~chi_1+ tau-)
#
#         PDG            Width
DECAY   1000024     0.00000000E+00   # stable chargino_1
#           BR         NDA      ID1       ID2       ID3
     3.74979332E-01    3     1000022         2        -1   # BR(~chi_1+ -> ~chi_10 u    db)
     3.74979332E-01    3     1000022         4        -3   # BR(~chi_1+ -> ~chi_10 c    sb)
     1.25020668E-01    3     1000022       -11        12   # BR(~chi_1+ -> ~chi_10 e+   nu_e)
     1.25020668E-01    3     1000022       -13        14   # BR(~chi_1+ -> ~chi_10 mu+  nu_mu)
#
#         PDG            Width
DECAY   1000037     4.57551389E+01   # chargino2+ decays
#          BR         NDA      ID1       ID2
     8.74474760E-03    2     1000006        -5   # BR(~chi_2+ -> ~t_1     bb)
     5.31733141E-06    2     1000012       -11   # BR(~chi_2+ -> ~nu_eL   e+  )
     5.31733141E-06    2     1000014       -13   # BR(~chi_2+ -> ~nu_muL  mu+ )
     5.39991278E-04    2     1000016       -15   # BR(~chi_2+ -> ~nu_tau1 tau+)
     3.21527097E-05    2    -1000011        12   # BR(~chi_2+ -> ~e_L+    nu_e)
     3.21527097E-05    2    -1000013        14   # BR(~chi_2+ -> ~mu_L+   nu_mu)
     5.61956943E-04    2    -1000015        16   # BR(~chi_2+ -> ~tau_1+  nu_tau)
     5.12426315E-05    2    -2000015        16   # BR(~chi_2+ -> ~tau_2+  nu_tau)
     2.97822697E-01    2     1000024        23   # BR(~chi_2+ -> ~chi_1+  Z )
     2.86308853E-01    2     1000022        24   # BR(~chi_2+ -> ~chi_10  W+)
     9.48770789E-02    2     1000023        24   # BR(~chi_2+ -> ~chi_20  W+)
     3.11018492E-01    2     1000024        25   # BR(~chi_2+ -> ~chi_1+  h )
#
#         PDG            Width
DECAY   1000022     0.00000000E+00   # stable neutralino 
#
#         PDG            Width
DECAY   1000023     1.07813705E-02   # neutralino2 decays
#          BR         NDA      ID1       ID2
     1.86947557E-02    2     1000022        23   # BR(~chi_20 -> ~chi_10   Z )
     3.24321520E-01    2     1000024       -24   # BR(~chi_20 -> ~chi_1+   W-)
     3.24321520E-01    2    -1000024        24   # BR(~chi_20 -> ~chi_1-   W+)
     3.32662205E-01    2     1000022        25   # BR(~chi_20 -> ~chi_10   h )
#
#         PDG            Width
DECAY   1000025     4.44805444E+01   # neutralino3 decays
#          BR         NDA      ID1       ID2
     2.60053492E-01    2     1000022        23   # BR(~chi_30 -> ~chi_10   Z )
     9.90899387E-02    2     1000023        23   # BR(~chi_30 -> ~chi_20   Z )
     2.94529128E-01    2     1000024       -24   # BR(~chi_30 -> ~chi_1+   W-)
     2.94529128E-01    2    -1000024        24   # BR(~chi_30 -> ~chi_1-   W+)
     4.83658277E-02    2     1000022        25   # BR(~chi_30 -> ~chi_10   h )
     2.26399804E-03    2     1000023        25   # BR(~chi_30 -> ~chi_20   h )
     8.20489498E-07    2     1000011       -11   # BR(~chi_30 -> ~e_L-     e+)
     8.20489498E-07    2    -1000011        11   # BR(~chi_30 -> ~e_L+     e-)
     3.90211927E-07    2     2000011       -11   # BR(~chi_30 -> ~e_R-     e+)
     3.90211927E-07    2    -2000011        11   # BR(~chi_30 -> ~e_R+     e-)
     8.20489498E-07    2     1000013       -13   # BR(~chi_30 -> ~mu_L-    mu+)
     8.20489498E-07    2    -1000013        13   # BR(~chi_30 -> ~mu_L+    mu-)
     3.90211927E-07    2     2000013       -13   # BR(~chi_30 -> ~mu_R-    mu+)
     3.90211927E-07    2    -2000013        13   # BR(~chi_30 -> ~mu_R+    mu-)
     2.96291829E-04    2     1000015       -15   # BR(~chi_30 -> ~tau_1-   tau+)
     2.96291829E-04    2    -1000015        15   # BR(~chi_30 -> ~tau_1+   tau-)
     2.78691936E-04    2     2000015       -15   # BR(~chi_30 -> ~tau_2-   tau+)
     2.78691936E-04    2    -2000015        15   # BR(~chi_30 -> ~tau_2+   tau-)
     2.27223296E-06    2     1000012       -12   # BR(~chi_30 -> ~nu_eL    nu_eb)
     2.27223296E-06    2    -1000012        12   # BR(~chi_30 -> ~nu_eL*   nu_e )
     2.27223296E-06    2     1000014       -14   # BR(~chi_30 -> ~nu_muL   nu_mub)
     2.27223296E-06    2    -1000014        14   # BR(~chi_30 -> ~nu_muL*  nu_mu )
     2.29375916E-06    2     1000016       -16   # BR(~chi_30 -> ~nu_tau1  nu_taub)
     2.29375916E-06    2    -1000016        16   # BR(~chi_30 -> ~nu_tau1* nu_tau )
#
#         PDG            Width
DECAY   1000035     4.51025780E+01   # neutralino4 decays
#          BR         NDA      ID1       ID2
     4.56900348E-02    2     1000022        23   # BR(~chi_40 -> ~chi_10   Z )
     2.14917004E-03    2     1000023        23   # BR(~chi_40 -> ~chi_20   Z )
     2.90447858E-01    2     1000024       -24   # BR(~chi_40 -> ~chi_1+   W-)
     2.90447858E-01    2    -1000024        24   # BR(~chi_40 -> ~chi_1-   W+)
     2.67806587E-01    2     1000022        25   # BR(~chi_40 -> ~chi_10   h )
     1.02075510E-01    2     1000023        25   # BR(~chi_40 -> ~chi_20   h )
     6.77233982E-07    2     1000011       -11   # BR(~chi_40 -> ~e_L-     e+)
     6.77233982E-07    2    -1000011        11   # BR(~chi_40 -> ~e_L+     e-)
     1.75789837E-05    2     2000011       -11   # BR(~chi_40 -> ~e_R-     e+)
     1.75789837E-05    2    -2000011        11   # BR(~chi_40 -> ~e_R+     e-)
     6.77233982E-07    2     1000013       -13   # BR(~chi_40 -> ~mu_L-    mu+)
     6.77233982E-07    2    -1000013        13   # BR(~chi_40 -> ~mu_L+    mu-)
     1.75789837E-05    2     2000013       -13   # BR(~chi_40 -> ~mu_R-    mu+)
     1.75789837E-05    2    -2000013        13   # BR(~chi_40 -> ~mu_R+    mu-)
     3.02028366E-04    2     1000015       -15   # BR(~chi_40 -> ~tau_1-   tau+)
     3.02028366E-04    2    -1000015        15   # BR(~chi_40 -> ~tau_1+   tau-)
     2.81897335E-04    2     2000015       -15   # BR(~chi_40 -> ~tau_2-   tau+)
     2.81897335E-04    2    -2000015        15   # BR(~chi_40 -> ~tau_2+   tau-)
     2.36099378E-05    2     1000012       -12   # BR(~chi_40 -> ~nu_eL    nu_eb)
     2.36099378E-05    2    -1000012        12   # BR(~chi_40 -> ~nu_eL*   nu_e )
     2.36099378E-05    2     1000014       -14   # BR(~chi_40 -> ~nu_muL   nu_mub)
     2.36099378E-05    2    -1000014        14   # BR(~chi_40 -> ~nu_muL*  nu_mu )
     2.38333967E-05    2     1000016       -16   # BR(~chi_40 -> ~nu_tau1  nu_taub)
     2.38333967E-05    2    -1000016        16   # BR(~chi_40 -> ~nu_tau1* nu_tau )
#
#         PDG            Width
DECAY        36     2.73975574E+01   # A decays
#          BR         NDA      ID1       ID2
     6.25757185E-02    2           5        -5   # BR(A -> b       bb     )
     1.32599312E-02    2         -15        15   # BR(A -> tau+    tau-   )
     4.68733022E-05    2         -13        13   # BR(A -> mu+     mu-    )
     5.09954362E-05    2           3        -3   # BR(A -> s       sb     )
     4.66884691E-06    2           4        -4   # BR(A -> c       cb     )
     4.70109320E-01    2           6        -6   # BR(A -> t       tb     )
     1.13103396E-04    2          21        21   # BR(A -> g       g      )
     2.65130038E-07    2          22        22   # BR(A -> gam     gam    )
     2.10991191E-07    2          23        22   # BR(A -> Z       gam    )
     3.87349311E-05    2          23        25   # BR(A -> Z       h      )
     9.44919036E-04    2     1000024  -1000024   # BR(A -> ~chi_1+ ~chi_1-)
     1.50697280E-01    2     1000024  -1000037   # BR(A -> ~chi_1+ ~chi_2-)
     1.50697280E-01    2     1000037  -1000024   # BR(A -> ~chi_2+ ~chi_1-)
     4.72608583E-04    2     1000022   1000022   # BR(A -> ~chi_10 ~chi_10)
     3.20435852E-05    2     1000023   1000023   # BR(A -> ~chi_20 ~chi_20)
     4.03574820E-04    2     1000022   1000023   # BR(A -> ~chi_10 ~chi_20)
     1.03882155E-02    2     1000022   1000025   # BR(A -> ~chi_10 ~chi_30)
     1.40164257E-01    2     1000022   1000035   # BR(A -> ~chi_10 ~chi_40)
#
#         PDG            Width
DECAY        37     2.71693492E+01   # H+ decays
#          BR         NDA      ID1       ID2
     9.84843161E-05    2           4        -5   # BR(H+ -> c       bb     )
     1.33724882E-02    2         -15        16   # BR(H+ -> tau+    nu_tau )
     4.72711866E-05    2         -13        14   # BR(H+ -> mu+     nu_mu  )
     6.30253216E-07    2           2        -5   # BR(H+ -> u       bb     )
     2.46293226E-06    2           2        -3   # BR(H+ -> u       sb     )
     5.51775174E-05    2           4        -3   # BR(H+ -> c       sb     )
     5.29197149E-01    2           6        -5   # BR(H+ -> t       bb     )
     3.90740903E-05    2          24        25   # BR(H+ -> W+      h      )
     7.98258728E-15    2          24        36   # BR(H+ -> W+      A      )
     9.02402122E-12    2     1000024   1000022   # BR(H+ -> ~chi_1+ ~chi_10)
     5.59715547E-04    2     1000024   1000023   # BR(H+ -> ~chi_1+ ~chi_20)
     1.52381248E-01    2     1000024   1000025   # BR(H+ -> ~chi_1+ ~chi_30)
     1.52026010E-01    2     1000024   1000035   # BR(H+ -> ~chi_1+ ~chi_40)
     1.52220289E-01    2     1000037   1000022   # BR(H+ -> ~chi_2+ ~chi_10)
