#
#                              ======================
#                              | THE SUSYHIT OUTPUT |
#                              ======================
#
#
#              ------------------------------------------------------
#              |     This is the output of the SUSY-HIT package     |
#              |  created by A.Djouadi, M.Muehlleitner and M.Spira. |
#              |  In case of problems with SUSY-HIT email to        |
#              |           margarete.muehlleitner@kit.edu           |
#              |           michael.spira@psi.ch                     |
#              |           abdelhak.djouadi@cern.ch                 |
#              ------------------------------------------------------
#
#              ------------------------------------------------------
#              |  SUSY Les Houches Accord - MSSM Spectrum + Decays  |
#              |              based on the decay programs           |
#              |                                                    |
#              |                     SDECAY 1.5                     |
#              |                                                    |
#              |  Authors: M.Muhlleitner, A.Djouadi and Y.Mambrini  |
#              |  Ref.:    Comput.Phys.Commun.168(2005)46           |
#              |           [hep-ph/0311167]                         |
#              |                                                    |
#              |                     HDECAY 3.4                     |
#              |                                                    |
#              |  By: A.Djouadi,J.Kalinowski,M.Muhlleitner,M.Spira  |
#              |  Ref.:    Comput.Phys.Commun.108(1998)56           |
#              |           [hep-ph/9704448]                         |
#              |                                                    |
#              |                                                    |
#              |  If not stated otherwise all DRbar couplings and   |
#              |  soft SUSY breaking masses are given at the scale  |
#              |  Q=  0.87837858E+04
#              |                                                    |
#              ------------------------------------------------------
#
#
BLOCK DCINFO  # Decay Program information
     1   SDECAY/HDECAY # decay calculator
     2   1.5  /3.4    # version number
#
BLOCK SPINFO  # Spectrum calculator information
     1   SuSpect     # RGE +Spectrum calculator            
     2   2.41        # version number                      
#
BLOCK MODSEL  # Model selection
     1     3   # #AMSB                                             
#
BLOCK SMINPUTS  # Standard Model inputs
         1     1.27934000E+02   # alpha_em^-1(M_Z)^MSbar
         2     1.16639000E-05   # G_F [GeV^-2]
         3     1.17200000E-01   # alpha_S(M_Z)^MSbar
         4     9.11870000E+01   # M_Z pole mass
         5     4.25000000E+00   # mb(mb)^MSbar
         6     1.73100000E+02   # mt pole mass
         7     1.77710000E+00   # mtau pole mass
#
BLOCK MINPAR  # Input parameters - minimal models
         1     5.00000000E+03   # m0                  
         2     6.35000000E+05   # M_3                 
         3     5.00000000E+00   # tanbeta(mZ)         
         4     1.00000000E+00   # sign(mu)            
         5     1.00000000E+00   # cQ                  
         6     1.00000000E+00   # cuR                 
#
BLOCK EXTPAR  # Input parameters - non-minimal models
         0     8.78378580E+03   # EWSB                
#
BLOCK MASS  # Mass Spectrum
# PDG code           mass       particle
        24     8.05075744E+01   # W+
        25     1.22945752E+02   # h
        35     1.04693658E+04   # H
        36     1.04689685E+04   # A
        37     1.04696638E+04   # H+
         5     4.87877839E+00   # b-quark pole mass calculated from mb(mb)_Msbar
   1000001     1.00000000E+10   # ~d_L
   2000001     1.00000000E+10   # ~d_R  
   1000002     1.00000000E+10   # ~u_L  
   2000002     1.00000000E+10   # ~u_R  
   1000003     1.00000000E+10   # ~s_L  
   2000003     1.00000000E+10   # ~s_R  
   1000004     1.00000000E+10   # ~c_L  
   2000004     1.00000000E+10   # ~c_R  
   1000005     1.00000000E+10   # ~b_1  
   2000005     1.00000000E+10   # ~b_2  
   1000006     1.00000000E+10   # ~t_1  
   2000006     1.00000000E+10   # ~t_2  
   1000011     1.00000000E+10   # ~e_L  
   2000011     1.00000000E+10   # ~e_R  
   1000012     1.00000000E+10   # ~nu_eL  
   1000013     1.00000000E+10   # ~mu_L  
   2000013     1.00000000E+10   # ~mu_R  
   1000014     1.00000000E+10   # ~nu_muL  
   1000015     1.00000000E+10   # ~tau_1  
   2000015     1.00000000E+10   # ~tau_2  
   1000016     1.00000000E+10   # ~nu_tauL  
   1000021     1.00000000E+10   # ~g  
   1000022     1.99631523E+03   # ~chi_10
   1000023     1.00000000E+10   # ~chi_20  
   1000025     1.00000000E+10   # ~chi_30  
   1000035     1.00000000E+10   # ~chi_40  
   1000024     1.99631525E+03   # ~chi_1+
   1000037     1.00000000E+10   # ~chi_2+  
#
BLOCK NMIX  # Neutralino Mixing Matrix
  1  1     6.09059798E-05   # N_11
  1  2    -9.99953769E-01   # N_12
  1  3     8.89918764E-03   # N_13
  1  4    -3.64159796E-03   # N_14
  2  1     9.99934149E-01   # N_21
  2  2     1.67610616E-04   # N_22
  2  3     9.16416062E-03   # N_23
  2  4    -6.90557769E-03   # N_24
  3  1     1.59759117E-03   # N_31
  3  2    -3.71757743E-03   # N_32
  3  3    -7.07089557E-01   # N_33
  3  4    -7.07112428E-01   # N_34
  4  1     1.13640209E-02   # N_41
  4  2    -8.86634024E-03   # N_42
  4  3    -7.07008614E-01   # N_43
  4  4     7.07058036E-01   # N_44
#
BLOCK UMIX  # Chargino Mixing Matrix U
  1  1    -9.99920812E-01   # U_11
  1  2     1.25845262E-02   # U_12
  2  1     1.25845262E-02   # U_21
  2  2     9.99920812E-01   # U_22
#
BLOCK VMIX  # Chargino Mixing Matrix V
  1  1    -9.99986740E-01   # V_11
  1  2     5.14981374E-03   # V_12
  2  1     5.14981374E-03   # V_21
  2  2     9.99986740E-01   # V_22
#
BLOCK STOPMIX  # Stop Mixing Matrix
  1  1    -3.37614356E-02   # cos(theta_t)
  1  2     9.99429920E-01   # sin(theta_t)
  2  1    -9.99429920E-01   # -sin(theta_t)
  2  2    -3.37614356E-02   # cos(theta_t)
#
BLOCK SBOTMIX  # Sbottom Mixing Matrix
  1  1     9.99998968E-01   # cos(theta_b)
  1  2     1.43666243E-03   # sin(theta_b)
  2  1    -1.43666243E-03   # -sin(theta_b)
  2  2     9.99998968E-01   # cos(theta_b)
#
BLOCK STAUMIX  # Stau Mixing Matrix
  1  1     3.59346307E-02   # cos(theta_tau)
  1  2     9.99354143E-01   # sin(theta_tau)
  2  1    -9.99354143E-01   # -sin(theta_tau)
  2  2     3.59346307E-02   # cos(theta_tau)
#
BLOCK ALPHA  # Higgs mixing
          -2.09822718E-01   # Mixing angle in the neutral Higgs boson sector
#
BLOCK HMIX Q=  8.78378580E+03  # DRbar Higgs Parameters
         1     9.28917118E+03   # mu(Q)               
         2     4.69687244E+00   # tanbeta(Q)          
         3     2.44003087E+02   # vev(Q)              
         4     1.09491244E+08   # MA^2(Q)             
#
BLOCK GAUGE Q=  8.78378580E+03  # The gauge couplings
     1     3.67145612E-01   # gprime(Q) DRbar
     2     6.31451713E-01   # g(Q) DRbar
     3     9.56042963E-01   # g3(Q) DRbar
#
BLOCK AU Q=  8.78378580E+03  # The trilinear couplings
  1  1     1.99224663E+04   # A_u(Q) DRbar
  2  2     1.99224663E+04   # A_c(Q) DRbar
  3  3     9.36859422E+03   # A_t(Q) DRbar
#
BLOCK AD Q=  8.78378580E+03  # The trilinear couplings
  1  1     2.19340802E+04   # A_d(Q) DRbar
  2  2     2.19340802E+04   # A_s(Q) DRbar
  3  3     2.21270521E+04   # A_b(Q) DRbar
#
BLOCK AE Q=  8.78378580E+03  # The trilinear couplings
  1  1     6.32322316E+03   # A_e(Q) DRbar
  2  2     6.32322316E+03   # A_mu(Q) DRbar
  3  3     6.29444811E+03   # A_tau(Q) DRbar
#
BLOCK Yu Q=  8.78378580E+03  # The Yukawa couplings
  1  1     0.00000000E+00   # y_u(Q) DRbar
  2  2     0.00000000E+00   # y_c(Q) DRbar
  3  3     8.05851395E-01   # y_t(Q) DRbar
#
BLOCK Yd Q=  8.78378580E+03  # The Yukawa couplings
  1  1     0.00000000E+00   # y_d(Q) DRbar
  2  2     0.00000000E+00   # y_s(Q) DRbar
  3  3     6.45377712E-02   # y_b(Q) DRbar
#
BLOCK Ye Q=  8.78378580E+03  # The Yukawa couplings
  1  1     0.00000000E+00   # y_e(Q) DRbar
  2  2     0.00000000E+00   # y_mu(Q) DRbar
  3  3     4.87193506E-02   # y_tau(Q) DRbar
#
BLOCK MSOFT Q=  8.78378580E+03  # The soft SUSY breaking masses at the scale Q
         1     6.05757461E+03   # M_1                 
         2     1.89155760E+03   # M_2                 
         3    -1.06942932E+04   # M_3                 
        21     1.76923532E+07   # M^2_Hd              
        22    -8.03057319E+07   # M^2_Hu              
        31     4.37097788E+03   # M_eL                
        32     4.37097788E+03   # M_muL               
        33     4.35876343E+03   # M_tauL              
        34     4.17099723E+03   # M_eR                
        35     4.17099723E+03   # M_muR               
        36     4.14532252E+03   # M_tauR              
        41     1.11931239E+04   # M_q1L               
        42     1.11931239E+04   # M_q2L               
        43     9.67598421E+03   # M_q3L               
        44     1.12526656E+04   # M_uR                
        45     1.12526656E+04   # M_cR                
        46     7.97276319E+03   # M_tR                
        47     1.13650873E+04   # M_dR                
        48     1.13650873E+04   # M_sR                
        49     1.13279684E+04   # M_bR                
#
#
#
#                             =================
#                             |The decay table|
#                             =================
#
# - The QCD corrections to the decays gluino -> squark  + quark
#                                     squark -> gaugino + quark_prime
#                                     squark -> squark_prime + Higgs
#                                     squark -> gluino  + quark
#   are included.
#
# - The multi-body decays for the inos, stops and sbottoms are included.
#
# - The loop induced decays for the gluino, neutralinos and stops
#   are included.
#
# - The SUSY decays of the top quark are included.
#
#
#         PDG            Width
DECAY         6     1.39632687E+00   # top decays
#          BR         NDA      ID1       ID2
     1.00000000E+00    2           5        24   # BR(t ->  b    W+)
#
#         PDG            Width
DECAY   1000021     2.25454630E+01   # gluino decays
#          BR         NDA      ID1       ID2
     1.24787930E-02    2     1000005        -5   # BR(~g -> ~b_1  bb)
     1.24787930E-02    2    -1000005         5   # BR(~g -> ~b_1* b )
     4.80204523E-01    2     1000006        -6   # BR(~g -> ~t_1  tb)
     4.80204523E-01    2    -1000006         6   # BR(~g -> ~t_1* t )
     7.31668366E-03    2     2000006        -6   # BR(~g -> ~t_2  tb)
     7.31668366E-03    2    -2000006         6   # BR(~g -> ~t_2* t )
#
#         PDG            Width
DECAY   1000006     4.54315646E+00   # stop1 decays
#          BR         NDA      ID1       ID2
     3.98114549E-03    2     1000022         6   # BR(~t_1 -> ~chi_10 t )
     9.88050255E-01    2     1000023         6   # BR(~t_1 -> ~chi_20 t )
     7.96859948E-03    2     1000024         5   # BR(~t_1 -> ~chi_1+ b )
#
#         PDG            Width
DECAY   2000006     1.20314888E+02   # stop2 decays
#          BR         NDA      ID1       ID2
     2.94603514E-01    2     1000022         6   # BR(~t_2 -> ~chi_10 t )
     5.19373623E-03    2     1000023         6   # BR(~t_2 -> ~chi_20 t )
     1.00031286E-02    2     1000025         6   # BR(~t_2 -> ~chi_30 t )
     9.70449868E-03    2     1000035         6   # BR(~t_2 -> ~chi_40 t )
     5.89533055E-01    2     1000024         5   # BR(~t_2 -> ~chi_1+ b )
     1.41535702E-04    2     1000037         5   # BR(~t_2 -> ~chi_2+ b )
     7.92077938E-02    2     1000006        25   # BR(~t_2 -> ~t_1    h )
     1.16127383E-02    2     1000006        23   # BR(~t_2 -> ~t_1    Z )
#
#         PDG            Width
DECAY   1000005     9.67266224E+01   # sbottom1 decays
#          BR         NDA      ID1       ID2
     3.65804607E-01    2     1000022         5   # BR(~b_1 -> ~chi_10 b )
     6.13688989E-03    2     1000023         5   # BR(~b_1 -> ~chi_20 b )
     7.36708795E-05    2     1000025         5   # BR(~b_1 -> ~chi_30 b )
     7.43439843E-05    2     1000035         5   # BR(~b_1 -> ~chi_40 b )
     7.31202288E-01    2    -1000024         6   # BR(~b_1 -> ~chi_1- t )
     2.28213476E-02    2    -1000037         6   # BR(~b_1 -> ~chi_2- t )
    -1.26113147E-01    2     1000006       -24   # BR(~b_1 -> ~t_1    W-)
#
#         PDG            Width
DECAY   2000005     3.82352826E+01   # sbottom2 decays
#          BR         NDA      ID1       ID2
     5.01133237E-08    2     1000022         5   # BR(~b_2 -> ~chi_10 b )
     9.35597484E-02    2     1000023         5   # BR(~b_2 -> ~chi_20 b )
     1.56994648E-03    2     1000025         5   # BR(~b_2 -> ~chi_30 b )
     1.57219980E-03    2     1000035         5   # BR(~b_2 -> ~chi_40 b )
     9.93966472E-08    2    -1000024         6   # BR(~b_2 -> ~chi_1- t )
     3.13839536E-03    2    -1000037         6   # BR(~b_2 -> ~chi_2- t )
     8.96366920E-01    2     1000021         5   # BR(~b_2 -> ~g      b )
     5.02858776E-04    2     1000005        25   # BR(~b_2 -> ~b_1    h )
     1.40997940E-03    2     1000005        23   # BR(~b_2 -> ~b_1    Z )
     9.38494826E-06    2     1000006       -24   # BR(~b_2 -> ~t_1    W-)
     1.87041704E-03    2     2000006       -24   # BR(~b_2 -> ~t_2    W-)
#
#         PDG            Width
DECAY   1000002     1.52128193E+02   # sup_L decays
#          BR         NDA      ID1       ID2
     2.68809563E-01    2     1000022         2   # BR(~u_L -> ~chi_10 u)
     5.72586771E-03    2     1000023         2   # BR(~u_L -> ~chi_20 u)
     3.98261381E-07    2     1000025         2   # BR(~u_L -> ~chi_30 u)
     1.52177432E-06    2     1000035         2   # BR(~u_L -> ~chi_40 u)
     5.37667274E-01    2     1000024         1   # BR(~u_L -> ~chi_1+ d)
     1.81804989E-06    2     1000037         1   # BR(~u_L -> ~chi_2+ d)
     1.87793557E-01    2     1000021         2   # BR(~u_L -> ~g      u)
#
#         PDG            Width
DECAY   2000002     4.51699994E+01   # sup_R decays
#          BR         NDA      ID1       ID2
     2.02999324E-09    2     1000022         2   # BR(~u_R -> ~chi_10 u)
     3.11886945E-01    2     1000023         2   # BR(~u_R -> ~chi_20 u)
     1.84903131E-07    2     1000025         2   # BR(~u_R -> ~chi_30 u)
     9.34973696E-06    2     1000035         2   # BR(~u_R -> ~chi_40 u)
     6.88103519E-01    2     1000021         2   # BR(~u_R -> ~g      u)
#
#         PDG            Width
DECAY   1000001     1.52131038E+02   # sdown_L decays
#          BR         NDA      ID1       ID2
     2.68823393E-01    2     1000022         1   # BR(~d_L -> ~chi_10 d)
     5.70627809E-03    2     1000023         1   # BR(~d_L -> ~chi_20 d)
     5.56235713E-07    2     1000025         1   # BR(~d_L -> ~chi_30 d)
     4.19920043E-06    2     1000035         1   # BR(~d_L -> ~chi_40 d)
     5.37598653E-01    2    -1000024         2   # BR(~d_L -> ~chi_1- u)
     1.08583819E-05    2    -1000037         2   # BR(~d_L -> ~chi_2- u)
     1.87856062E-01    2     1000021         1   # BR(~d_L -> ~g      d)
#
#         PDG            Width
DECAY   2000001     3.96469114E+01   # sdown_R decays
#          BR         NDA      ID1       ID2
     5.84340354E-10    2     1000022         1   # BR(~d_R -> ~chi_10 d)
     9.09161270E-02    2     1000023         1   # BR(~d_R -> ~chi_20 d)
     5.69040100E-08    2     1000025         1   # BR(~d_R -> ~chi_30 d)
     2.87748052E-06    2     1000035         1   # BR(~d_R -> ~chi_40 d)
     9.09080938E-01    2     1000021         1   # BR(~d_R -> ~g      d)
#
#         PDG            Width
DECAY   1000004     1.52128193E+02   # scharm_L decays
#          BR         NDA      ID1       ID2
     2.68809563E-01    2     1000022         4   # BR(~c_L -> ~chi_10 c)
     5.72586771E-03    2     1000023         4   # BR(~c_L -> ~chi_20 c)
     3.98261381E-07    2     1000025         4   # BR(~c_L -> ~chi_30 c)
     1.52177432E-06    2     1000035         4   # BR(~c_L -> ~chi_40 c)
     5.37667274E-01    2     1000024         3   # BR(~c_L -> ~chi_1+ s)
     1.81804989E-06    2     1000037         3   # BR(~c_L -> ~chi_2+ s)
     1.87793557E-01    2     1000021         4   # BR(~c_L -> ~g      c)
#
#         PDG            Width
DECAY   2000004     4.51699994E+01   # scharm_R decays
#          BR         NDA      ID1       ID2
     2.02999324E-09    2     1000022         4   # BR(~c_R -> ~chi_10 c)
     3.11886945E-01    2     1000023         4   # BR(~c_R -> ~chi_20 c)
     1.84903131E-07    2     1000025         4   # BR(~c_R -> ~chi_30 c)
     9.34973696E-06    2     1000035         4   # BR(~c_R -> ~chi_40 c)
     6.88103519E-01    2     1000021         4   # BR(~c_R -> ~g      c)
#
#         PDG            Width
DECAY   1000003     1.52131038E+02   # sstrange_L decays
#          BR         NDA      ID1       ID2
     2.68823393E-01    2     1000022         3   # BR(~s_L -> ~chi_10 s)
     5.70627809E-03    2     1000023         3   # BR(~s_L -> ~chi_20 s)
     5.56235713E-07    2     1000025         3   # BR(~s_L -> ~chi_30 s)
     4.19920043E-06    2     1000035         3   # BR(~s_L -> ~chi_40 s)
     5.37598653E-01    2    -1000024         4   # BR(~s_L -> ~chi_1- c)
     1.08583819E-05    2    -1000037         4   # BR(~s_L -> ~chi_2- c)
     1.87856062E-01    2     1000021         3   # BR(~s_L -> ~g      s)
#
#         PDG            Width
DECAY   2000003     3.96469114E+01   # sstrange_R decays
#          BR         NDA      ID1       ID2
     5.84340354E-10    2     1000022         3   # BR(~s_R -> ~chi_10 s)
     9.09161270E-02    2     1000023         3   # BR(~s_R -> ~chi_20 s)
     5.69040100E-08    2     1000025         3   # BR(~s_R -> ~chi_30 s)
     2.87748052E-06    2     1000035         3   # BR(~s_R -> ~chi_40 s)
     9.09080938E-01    2     1000021         3   # BR(~s_R -> ~g      s)
#
#         PDG            Width
DECAY   1000011     3.25725514E+01   # selectron_L decays
#          BR         NDA      ID1       ID2
     3.33332244E-01    2     1000022        11   # BR(~e_L -> ~chi_10 e-)
     6.66667756E-01    2    -1000024        12   # BR(~e_L -> ~chi_1- nu_e)
#
#         PDG            Width
DECAY   2000011     4.93253821E-08   # selectron_R decays
#          BR         NDA      ID1       ID2
     1.00000000E+00    2     1000022        11   # BR(~e_R -> ~chi_10 e-)
#
#         PDG            Width
DECAY   1000013     3.25725514E+01   # smuon_L decays
#          BR         NDA      ID1       ID2
     3.33332244E-01    2     1000022        13   # BR(~mu_L -> ~chi_10 mu-)
     6.66667756E-01    2    -1000024        14   # BR(~mu_L -> ~chi_1- nu_mu)
#
#         PDG            Width
DECAY   2000013     4.93253821E-08   # smuon_R decays
#          BR         NDA      ID1       ID2
     1.00000000E+00    2     1000022        13   # BR(~mu_R -> ~chi_10 mu-)
#
#         PDG            Width
DECAY   1000015     3.96241000E-02   # stau_1 decays
#          BR         NDA      ID1       ID2
     3.33334040E-01    2     1000022        15   # BR(~tau_1 -> ~chi_10  tau-)
     6.66665960E-01    2    -1000024        16   # BR(~tau_1 -> ~chi_1-  nu_tau)
#
#         PDG            Width
DECAY   2000015     3.23932631E+01   # stau_2 decays
#          BR         NDA      ID1       ID2
     3.32841417E-01    2     1000022        15   # BR(~tau_2 -> ~chi_10  tau-)
     6.65686440E-01    2    -1000024        16   # BR(~tau_2 -> ~chi_1-  nu_tau)
     7.87967887E-04    2     1000015        25   # BR(~tau_2 -> ~tau_1   h)
     6.84174947E-04    2     1000015        23   # BR(~tau_2 -> ~tau_1   Z)
#
#         PDG            Width
DECAY   1000012     3.25674612E+01   # snu_eL decays
#          BR         NDA      ID1       ID2
     3.33334421E-01    2     1000022        12   # BR(~nu_eL -> ~chi_10 nu_e)
     6.66665579E-01    2     1000024        11   # BR(~nu_eL -> ~chi_1+ e-)
#
#         PDG            Width
DECAY   1000014     3.25674612E+01   # snu_muL decays
#          BR         NDA      ID1       ID2
     3.33334421E-01    2     1000022        14   # BR(~nu_muL -> ~chi_10 nu_mu)
     6.66665579E-01    2     1000024        13   # BR(~nu_muL -> ~chi_1+ mu-)
#
#         PDG            Width
DECAY   1000016     3.24254382E+01   # snu_tauL decays
#          BR         NDA      ID1       ID2
     3.32871247E-01    2     1000022        16   # BR(~nu_tauL -> ~chi_10 nu_tau)
     6.65738898E-01    2     1000024        15   # BR(~nu_tauL -> ~chi_1+ tau-)
     1.38985486E-03    2    -1000015       -24   # BR(~nu_tauL -> ~tau_1+ W-)
#
#         PDG            Width
DECAY   1000024     0.00000000E+00   # stable chargino_1
#           BR         NDA      ID1       ID2       ID3
     3.74964600E-01    3     1000022         2        -1   # BR(~chi_1+ -> ~chi_10 u    db)
     3.74964600E-01    3     1000022         4        -3   # BR(~chi_1+ -> ~chi_10 c    sb)
     1.25035400E-01    3     1000022       -11        12   # BR(~chi_1+ -> ~chi_10 e+   nu_e)
     1.25035400E-01    3     1000022       -13        14   # BR(~chi_1+ -> ~chi_10 mu+  nu_mu)
#
#         PDG            Width
DECAY   1000037     7.78855025E+01   # chargino2+ decays
#          BR         NDA      ID1       ID2
     1.22994202E-01    2     1000006        -5   # BR(~chi_2+ -> ~t_1     bb)
     7.59766159E-06    2     1000012       -11   # BR(~chi_2+ -> ~nu_eL   e+  )
     7.59766159E-06    2     1000014       -13   # BR(~chi_2+ -> ~nu_muL  mu+ )
     1.71803684E-03    2     1000016       -15   # BR(~chi_2+ -> ~nu_tau1 tau+)
     4.53628653E-05    2    -1000011        12   # BR(~chi_2+ -> ~e_L+    nu_e)
     4.53628653E-05    2    -1000013        14   # BR(~chi_2+ -> ~mu_L+   nu_mu)
     1.78060458E-03    2    -1000015        16   # BR(~chi_2+ -> ~tau_1+  nu_tau)
     6.76890916E-05    2    -2000015        16   # BR(~chi_2+ -> ~tau_2+  nu_tau)
     2.62963020E-01    2     1000024        23   # BR(~chi_2+ -> ~chi_1+  Z )
     2.52120159E-01    2     1000022        24   # BR(~chi_2+ -> ~chi_10  W+)
     8.30181028E-02    2     1000023        24   # BR(~chi_2+ -> ~chi_20  W+)
     2.75232265E-01    2     1000024        25   # BR(~chi_2+ -> ~chi_1+  h )
#
#         PDG            Width
DECAY   1000022     0.00000000E+00   # stable neutralino 
#
#         PDG            Width
DECAY   1000023     3.59964804E+01   # neutralino2 decays
#          BR         NDA      ID1       ID2
     4.22954687E-06    2     1000022        23   # BR(~chi_20 -> ~chi_10   Z )
     7.05390980E-05    2     1000024       -24   # BR(~chi_20 -> ~chi_1+   W-)
     7.05390980E-05    2    -1000024        24   # BR(~chi_20 -> ~chi_1-   W+)
     7.25679142E-05    2     1000022        25   # BR(~chi_20 -> ~chi_10   h )
     2.41246265E-02    2     1000011       -11   # BR(~chi_20 -> ~e_L-     e+)
     2.41246265E-02    2    -1000011        11   # BR(~chi_20 -> ~e_L+     e-)
     1.17270184E-01    2     2000011       -11   # BR(~chi_20 -> ~e_R-     e+)
     1.17270184E-01    2    -2000011        11   # BR(~chi_20 -> ~e_R+     e-)
     2.41246265E-02    2     1000013       -13   # BR(~chi_20 -> ~mu_L-    mu+)
     2.41246265E-02    2    -1000013        13   # BR(~chi_20 -> ~mu_L+    mu-)
     1.17270184E-01    2     2000013       -13   # BR(~chi_20 -> ~mu_R-    mu+)
     1.17270184E-01    2    -2000013        13   # BR(~chi_20 -> ~mu_R+    mu-)
     1.19929765E-01    2     1000015       -15   # BR(~chi_20 -> ~tau_1-   tau+)
     1.19929765E-01    2    -1000015        15   # BR(~chi_20 -> ~tau_1+   tau-)
     2.45240265E-02    2     2000015       -15   # BR(~chi_20 -> ~tau_2-   tau+)
     2.45240265E-02    2    -2000015        15   # BR(~chi_20 -> ~tau_2+   tau-)
     2.41125303E-02    2     1000012       -12   # BR(~chi_20 -> ~nu_eL    nu_eb)
     2.41125303E-02    2    -1000012        12   # BR(~chi_20 -> ~nu_eL*   nu_e )
     2.41125303E-02    2     1000014       -14   # BR(~chi_20 -> ~nu_muL   nu_mub)
     2.41125303E-02    2    -1000014        14   # BR(~chi_20 -> ~nu_muL*  nu_mu )
     2.44225888E-02    2     1000016       -16   # BR(~chi_20 -> ~nu_tau1  nu_taub)
     2.44225888E-02    2    -1000016        16   # BR(~chi_20 -> ~nu_tau1* nu_tau )
#
#         PDG            Width
DECAY   1000025     7.65088407E+01   # neutralino3 decays
#          BR         NDA      ID1       ID2
     2.27678100E-01    2     1000022        23   # BR(~chi_30 -> ~chi_10   Z )
     8.63395000E-02    2     1000023        23   # BR(~chi_30 -> ~chi_20   Z )
     2.56662387E-01    2     1000024       -24   # BR(~chi_30 -> ~chi_1+   W-)
     2.56662387E-01    2    -1000024        24   # BR(~chi_30 -> ~chi_1-   W+)
     4.18852588E-02    2     1000022        25   # BR(~chi_30 -> ~chi_10   h )
     1.78426506E-03    2     1000023        25   # BR(~chi_30 -> ~chi_20   h )
     6.26910886E-02    2     1000006        -6   # BR(~chi_30 -> ~t_1      tb)
     6.26910886E-02    2    -1000006         6   # BR(~chi_30 -> ~t_1*     t )
     1.13367423E-06    2     1000011       -11   # BR(~chi_30 -> ~e_L-     e+)
     1.13367423E-06    2    -1000011        11   # BR(~chi_30 -> ~e_L+     e-)
     5.29073492E-07    2     2000011       -11   # BR(~chi_30 -> ~e_R-     e+)
     5.29073492E-07    2    -2000011        11   # BR(~chi_30 -> ~e_R+     e-)
     1.13367423E-06    2     1000013       -13   # BR(~chi_30 -> ~mu_L-    mu+)
     1.13367423E-06    2    -1000013        13   # BR(~chi_30 -> ~mu_L+    mu-)
     5.29073492E-07    2     2000013       -13   # BR(~chi_30 -> ~mu_R-    mu+)
     5.29073492E-07    2    -2000013        13   # BR(~chi_30 -> ~mu_R+    mu-)
     9.14780285E-04    2     1000015       -15   # BR(~chi_30 -> ~tau_1-   tau+)
     9.14780285E-04    2    -1000015        15   # BR(~chi_30 -> ~tau_1+   tau-)
     8.75403190E-04    2     2000015       -15   # BR(~chi_30 -> ~tau_2-   tau+)
     8.75403190E-04    2    -2000015        15   # BR(~chi_30 -> ~tau_2+   tau-)
     3.14777799E-06    2     1000012       -12   # BR(~chi_30 -> ~nu_eL    nu_eb)
     3.14777799E-06    2    -1000012        12   # BR(~chi_30 -> ~nu_eL*   nu_e )
     3.14777799E-06    2     1000014       -14   # BR(~chi_30 -> ~nu_muL   nu_mub)
     3.14777799E-06    2    -1000014        14   # BR(~chi_30 -> ~nu_muL*  nu_mu )
     3.15779164E-06    2     1000016       -16   # BR(~chi_30 -> ~nu_tau1  nu_taub)
     3.15779164E-06    2    -1000016        16   # BR(~chi_30 -> ~nu_tau1* nu_tau )
#
#         PDG            Width
DECAY   1000035     7.73081991E+01   # neutralino4 decays
#          BR         NDA      ID1       ID2
     3.96117777E-02    2     1000022        23   # BR(~chi_40 -> ~chi_10   Z )
     1.69149301E-03    2     1000023        23   # BR(~chi_40 -> ~chi_20   Z )
     2.53998115E-01    2     1000024       -24   # BR(~chi_40 -> ~chi_1+   W-)
     2.53998115E-01    2    -1000024        24   # BR(~chi_40 -> ~chi_1-   W+)
     2.35826868E-01    2     1000022        25   # BR(~chi_40 -> ~chi_10   h )
     8.94418996E-02    2     1000023        25   # BR(~chi_40 -> ~chi_20   h )
     6.07609881E-02    2     1000006        -6   # BR(~chi_40 -> ~t_1      tb)
     6.07609881E-02    2    -1000006         6   # BR(~chi_40 -> ~t_1*     t )
     7.36320077E-07    2     1000011       -11   # BR(~chi_40 -> ~e_L-     e+)
     7.36320077E-07    2    -1000011        11   # BR(~chi_40 -> ~e_L+     e-)
     2.64978465E-05    2     2000011       -11   # BR(~chi_40 -> ~e_R-     e+)
     2.64978465E-05    2    -2000011        11   # BR(~chi_40 -> ~e_R+     e-)
     7.36320077E-07    2     1000013       -13   # BR(~chi_40 -> ~mu_L-    mu+)
     7.36320077E-07    2    -1000013        13   # BR(~chi_40 -> ~mu_L+    mu-)
     2.64978465E-05    2     2000013       -13   # BR(~chi_40 -> ~mu_R-    mu+)
     2.64978465E-05    2    -2000013        13   # BR(~chi_40 -> ~mu_R+    mu-)
     9.22106779E-04    2     1000015       -15   # BR(~chi_40 -> ~tau_1-   tau+)
     9.22106779E-04    2    -1000015        15   # BR(~chi_40 -> ~tau_1+   tau-)
     8.74526418E-04    2     2000015       -15   # BR(~chi_40 -> ~tau_2-   tau+)
     8.74526418E-04    2    -2000015        15   # BR(~chi_40 -> ~tau_2+   tau-)
     3.45553566E-05    2     1000012       -12   # BR(~chi_40 -> ~nu_eL    nu_eb)
     3.45553566E-05    2    -1000012        12   # BR(~chi_40 -> ~nu_eL*   nu_e )
     3.45553566E-05    2     1000014       -14   # BR(~chi_40 -> ~nu_muL   nu_mub)
     3.45553566E-05    2    -1000014        14   # BR(~chi_40 -> ~nu_muL*  nu_mu )
     3.46652589E-05    2     1000016       -16   # BR(~chi_40 -> ~nu_tau1  nu_taub)
     3.46652589E-05    2    -1000016        16   # BR(~chi_40 -> ~nu_tau1* nu_tau )
#
#         PDG            Width
DECAY        36     1.94791924E+01   # A decays
#          BR         NDA      ID1       ID2
     1.11270833E-01    2           5        -5   # BR(A -> b       bb     )
     2.45749765E-02    2         -15        15   # BR(A -> tau+    tau-   )
     8.68715101E-05    2         -13        13   # BR(A -> mu+     mu-    )
     9.14369165E-05    2           3        -3   # BR(A -> s       sb     )
     8.47674482E-06    2           4        -4   # BR(A -> c       cb     )
     8.53407593E-01    2           6        -6   # BR(A -> t       tb     )
     1.45306668E-04    2          21        21   # BR(A -> g       g      )
     3.75640121E-07    2          22        22   # BR(A -> gam     gam    )
     2.87975223E-07    2          23        22   # BR(A -> Z       gam    )
     4.32828417E-05    2          23        25   # BR(A -> Z       h      )
     7.56812312E-04    2     1000024  -1000024   # BR(A -> ~chi_1+ ~chi_1-)
     3.78457556E-04    2     1000022   1000022   # BR(A -> ~chi_10 ~chi_10)
     2.79046895E-04    2     1000022   1000023   # BR(A -> ~chi_10 ~chi_20)
     4.47812090E-03    2     1000015  -2000015   # BR(A -> ~tau_1- ~tau_2+)
     4.47812090E-03    2    -1000015   2000015   # BR(A -> ~tau_1+ ~tau_2-)
#
#         PDG            Width
DECAY        37     1.91911172E+01   # H+ decays
#          BR         NDA      ID1       ID2
     1.76088987E-04    2           4        -5   # BR(H+ -> c       bb     )
     2.49455247E-02    2         -15        16   # BR(H+ -> tau+    nu_tau )
     8.81813826E-05    2         -13        14   # BR(H+ -> mu+     nu_mu  )
     1.12688479E-06    2           2        -5   # BR(H+ -> u       bb     )
     4.44782191E-06    2           2        -3   # BR(H+ -> u       sb     )
     9.97434481E-05    2           4        -3   # BR(H+ -> c       sb     )
     9.65173781E-01    2           6        -5   # BR(H+ -> t       bb     )
     4.39435185E-05    2          24        25   # BR(H+ -> W+      h      )
     1.11505527E-14    2          24        36   # BR(H+ -> W+      A      )
     1.32539165E-12    2     1000024   1000022   # BR(H+ -> ~chi_1+ ~chi_10)
     3.64005451E-04    2     1000024   1000023   # BR(H+ -> ~chi_1+ ~chi_20)
     1.25307544E-05    2    -1000011   1000012   # BR(H+ -> ~e_L+   ~nu_eL )
     1.25307544E-05    2    -1000013   1000014   # BR(H+ -> ~mu_L+  ~nu_muL)
     9.03107718E-03    2    -1000015   1000016   # BR(H+ -> ~tau_1+ ~nu_tauL)
     4.70179989E-05    2    -2000015   1000016   # BR(H+ -> ~tau_2+ ~nu_tauL)
