#  ISAJET SUSY parameters in SUSY Les Houches Accord 2 format
#  Created by ISALHA 2.0 Last revision: H Baer 27 May 2014
Block SPINFO   # Program information
     1   ISASUGRA/ISASUSY from ISAJET   # Spectrum Calculator
     2   7.85   04-NOV-2015 13:42:47    # Version number
Block MODSEL   # Model selection
     1     2   # Minimal gauge mediated (GMSB) model               
Block SMINPUTS   # Standard Model inputs
     1     1.28000000E+02   # alpha_em^(-1)
     2     1.16570000E-05   # G_Fermi
     3     1.19999997E-01   # alpha_s(M_Z)
     4     9.11699982E+01   # m_{Z}(pole)
     5     4.19999981E+00   # m_{b}(m_{b})
     6     1.73000000E+02   # m_{top}(pole)
     7     1.77699995E+00   # m_{tau}(pole)
Block MINPAR   # SUSY breaking input parameters
     1     1.27000000E+06   # Lambda scale of soft SSB
     2     2.00000000E+06   # M_mess overall messenger scale
     3     4.60000000E+01   # tan(beta)
     4     1.00000000E+00   # sign(mu)
     5     1.00000000E+00   # N_5 messenger index
     6     1.00000000E+05   # c_grav gravitino mass factor
    51     1.00000000E+00   # N5_1  U(1)_Y messenger index
    52     1.00000000E+00   # N5_2 SU(2)_L messenger index
    53     1.00000000E+00   # N5_3 SU(3)_C messenger index
   101     1.00000000E+00   # Rsl
   102     0.00000000E+00   # dmH_d^2
   103     0.00000000E+00   # dmH_u^2
   104     0.00000000E+00   # d_Y
Block MASS   # Scalar and gaugino mass spectrum
#  PDG code   mass                 particle
         6     1.73000000E+02   #  top            
        24     8.04229965E+01   #  W^+
        25     1.24468292E+02   #  h^0            
        35     4.40675391E+03   #  H^0            
        36     4.37795020E+03   #  A^0            
        37     4.40763867E+03   #  H^+            
   1000001     1.19670508E+04   #  dnl            
   1000002     1.19667783E+04   #  upl            
   1000003     1.19670508E+04   #  stl            
   1000004     1.19667783E+04   #  chl            
   1000005     1.09277461E+04   #  b1             
   1000006     1.03240859E+04   #  t1             
   1000011     4.37249072E+03   #  el-            
   1000012     4.35442578E+03   #  nuel           
   1000013     4.37249072E+03   #  mul-           
   1000014     4.35442578E+03   #  numl           
   1000015     1.89567175E+03   #  tau1           
   1000016     4.26253174E+03   #  nutl           
   1000021     8.67182715E+03   #  glss           
   1000022     1.92003174E+03   #  z1ss           
   1000023     3.42983594E+03   #  z2ss           
   1000024     3.48115845E+03   #  w1ss           
   1000025    -3.44652295E+03   #  z3ss           
   1000035     3.58973413E+03   #  z4ss           
   1000037     3.53776758E+03   #  w2ss           
   1000039     6.11029044E-02   #  gvss
   2000001     1.12391797E+04   #  dnr            
   2000002     1.13142139E+04   #  upr            
   2000003     1.12391797E+04   #  str            
   2000004     1.13142139E+04   #  chr            
   2000005     1.14171738E+04   #  b2             
   2000006     1.14817842E+04   #  t2             
   2000011     2.24779517E+03   #  er-            
   2000013     2.24779517E+03   #  mur-           
   2000015     4.26763184E+03   #  tau2           
Block ALPHA   # Effective Higgs mixing parameter
         -2.17610151E-02   # alpha
Block STOPMIX   # stop mixing matrix
  1  1     7.14887632E-03   # O_{11}
  1  2     9.99974430E-01   # O_{12}
  2  1    -9.99974430E-01   # O_{21}
  2  2     7.14887632E-03   # O_{22}
Block SBOTMIX   # sbottom mixing matrix
  1  1     6.38396963E-02   # O_{11}
  1  2     9.97960150E-01   # O_{12}
  2  1    -9.97960150E-01   # O_{21}
  2  2     6.38396963E-02   # O_{22}
Block STAUMIX   # stau mixing matrix
  1  1     1.07004549E-02   # O_{11}
  1  2     9.99942720E-01   # O_{12}
  2  1    -9.99942720E-01   # O_{21}
  2  2     1.07004549E-02   # O_{22}
Block NMIX   # neutralino mixing matrix
  1  1     9.99814868E-01   #
  1  2    -2.16789369E-04   #
  1  3     1.69888791E-02   #
  1  4    -9.03159846E-03   #
  2  1    -1.72834676E-02   #
  2  2    -3.56337458E-01   #
  2  3     6.62402034E-01   #
  2  4    -6.58747494E-01   #
  3  1     5.62419929E-03   #
  3  2    -7.28129642E-03   #
  3  3    -7.07011223E-01   #
  3  4    -7.07142472E-01   #
  4  1     6.31581247E-03   #
  4  2    -9.34328914E-01   #
  4  3    -2.47123256E-01   #
  4  4     2.56748170E-01   #
Block UMIX   # chargino U mixing matrix
  1  1    -4.88497585E-01   # U_{11}
  1  2     8.72565269E-01   # U_{12}
  2  1    -8.72565269E-01   # U_{21}
  2  2    -4.88497585E-01   # U_{22}
Block VMIX   # chargino V mixing matrix
  1  1    -5.00918567E-01   # V_{11}
  1  2     8.65494430E-01   # V_{12}
  2  1    -8.65494430E-01   # V_{21}
  2  2    -5.00918567E-01   # V_{22}
Block GAUGE Q=  1.05683623E+04   #
     1     3.57524991E-01   # g`
     2     6.52378619E-01   # g_2
     3     1.21928000E+00   # g_3
Block YU Q=  1.05683623E+04   #
  3  3     7.99152434E-01   # y_t
Block YD Q=  1.05683623E+04   #
  3  3     4.64982897E-01   # y_b
Block YE Q=  1.05683623E+04   #
  3  3     5.22988558E-01   # y_tau
Block HMIX Q=  1.05683623E+04   # Higgs mixing parameters
     1     3.39961475E+03   # mu(Q)
     2     4.50241241E+01   # tan(beta)(Q)
     3     2.53042969E+02   # Higgs vev at Q
     4     1.91664480E+07   # m_A^2(Q)
Block MSOFT Q=  1.05683623E+04   # DRbar SUSY breaking parameters
     1     1.95406360E+03   # M_1(Q)          
     2     3.44484985E+03   # M_2(Q)          
     3     7.96794043E+03   # M_3(Q)          
    21     8.54866200E+06   # MHd^2(Q)        
    22    -9.02492800E+06   # MHu^2(Q)        
    31     4.33877979E+03   # MeL(Q)          
    32     4.33877979E+03   # MmuL(Q)         
    33     4.24924854E+03   # MtauL(Q)        
    34     2.24550537E+03   # MeR(Q)          
    35     2.24550537E+03   # MmuR(Q)         
    36     1.93640222E+03   # MtauR(Q)        
    41     1.15807725E+04   # MqL1(Q)         
    42     1.15807725E+04   # MqL2(Q)         
    43     1.10764297E+04   # MqL3(Q)         
    44     1.09193848E+04   # MuR(Q)          
    45     1.09193848E+04   # McR(Q)          
    46     1.00835996E+04   # MtR(Q)          
    47     1.08431729E+04   # MdR(Q)          
    48     1.08431729E+04   # MsR(Q)          
    49     1.05625186E+04   # MbR(Q)          
Block AU Q=  1.05683623E+04   #
  1  1    -2.14013379E+03   # A_u
  2  2    -2.14013379E+03   # A_c
  3  3    -2.14013379E+03   # A_t
Block AD Q=  1.05683623E+04   #
  1  1    -2.28403125E+03   # A_d
  2  2    -2.28403125E+03   # A_s
  3  3    -2.28403125E+03   # A_b
Block AE Q=  1.05683623E+04   #
  1  1    -2.73332611E+02   # A_e
  2  2    -2.73332611E+02   # A_mu
  3  3    -2.73332611E+02   # A_tau
#  ISAJET decay tables in SUSY Les Houches accord format
#  Created by ISALHD. Last revision: C. Balazs, 2005 May 25
Block DCINFO                           # Program information
     1   ISASUGRA from ISAJET          # Spectrum Calculator
     2   7.85   04-NOV-2015 13:42:47   # Version number
#         PDG         Width
DECAY         6  1.16039467E+00   # TP    decays
#          BR          NDA       ID1       ID2       ID3       ID4
      3.33333343E-01    3            2        -1         5             # TP     -->  UP     DB     BT          
      3.33333343E-01    3            4        -3         5             # TP     -->  CH     SB     BT          
      1.11111112E-01    3          -11        12         5             # TP     -->  E+     NUE    BT          
      1.11111112E-01    3          -13        14         5             # TP     -->  MU+    NUM    BT          
      1.11111112E-01    3          -15        16         5             # TP     -->  TAU+   NUT    BT          
#         PDG         Width
DECAY   1000021  2.40437314E-01   # GLSS  decays
#          BR          NDA       ID1       ID2       ID3       ID4
      8.87207035E-03    3      1000024         1        -2             # GLSS   -->  W1SS+  DN     UB          
      8.87207035E-03    3     -1000024         2        -1             # GLSS   -->  W1SS-  UP     DB          
      8.87207035E-03    3      1000024         3        -4             # GLSS   -->  W1SS+  ST     CB          
      8.87207035E-03    3     -1000024         4        -3             # GLSS   -->  W1SS-  CH     SB          
      1.07132219E-01    3      1000024         5        -6             # GLSS   -->  W1SS+  BT     TB          
      1.07132219E-01    3     -1000024         6        -5             # GLSS   -->  W1SS-  TP     BB          
      2.65310686E-02    3      1000037         1        -2             # GLSS   -->  W2SS+  DN     UB          
      2.65310686E-02    3     -1000037         2        -1             # GLSS   -->  W2SS-  UP     DB          
      2.65310686E-02    3      1000037         3        -4             # GLSS   -->  W2SS+  ST     CB          
      2.65310686E-02    3     -1000037         4        -3             # GLSS   -->  W2SS-  CH     SB          
      7.11040497E-02    3      1000037         5        -6             # GLSS   -->  W2SS+  BT     TB          
      7.11040497E-02    3     -1000037         6        -5             # GLSS   -->  W2SS-  TP     BB          
      1.34967595E-05    2      1000022        21                       # GLSS   -->  Z1SS   GL                 
      2.54818927E-02    3      1000022         2        -2             # GLSS   -->  Z1SS   UP     UB          
      7.44725671E-03    3      1000022         1        -1             # GLSS   -->  Z1SS   DN     DB          
      7.44725671E-03    3      1000022         3        -3             # GLSS   -->  Z1SS   ST     SB          
      2.54818927E-02    3      1000022         4        -4             # GLSS   -->  Z1SS   CH     CB          
      8.95487983E-03    3      1000022         5        -5             # GLSS   -->  Z1SS   BT     BB          
      4.32638787E-02    3      1000022         6        -6             # GLSS   -->  Z1SS   TP     TB          
      3.33316711E-04    2      1000023        21                       # GLSS   -->  Z2SS   GL                 
      2.41281511E-03    3      1000023         2        -2             # GLSS   -->  Z2SS   UP     UB          
      2.32532807E-03    3      1000023         1        -1             # GLSS   -->  Z2SS   DN     DB          
      2.32532807E-03    3      1000023         3        -3             # GLSS   -->  Z2SS   ST     SB          
      2.41281511E-03    3      1000023         4        -4             # GLSS   -->  Z2SS   CH     CB          
      3.02081071E-02    3      1000023         5        -5             # GLSS   -->  Z2SS   BT     BB          
      9.11472291E-02    3      1000023         6        -6             # GLSS   -->  Z2SS   TP     TB          
      3.57414916E-04    2      1000025        21                       # GLSS   -->  Z3SS   GL                 
      5.29704607E-07    3      1000025         2        -2             # GLSS   -->  Z3SS   UP     UB          
      6.31827504E-07    3      1000025         1        -1             # GLSS   -->  Z3SS   DN     DB          
      6.31827504E-07    3      1000025         3        -3             # GLSS   -->  Z3SS   ST     SB          
      5.29704607E-07    3      1000025         4        -4             # GLSS   -->  Z3SS   CH     CB          
      3.04480493E-02    3      1000025         5        -5             # GLSS   -->  Z3SS   BT     BB          
      1.04045607E-01    3      1000025         6        -6             # GLSS   -->  Z3SS   TP     TB          
      3.01676209E-05    2      1000035        21                       # GLSS   -->  Z4SS   GL                 
      1.48541080E-02    3      1000035         2        -2             # GLSS   -->  Z4SS   UP     UB          
      1.49255488E-02    3      1000035         1        -1             # GLSS   -->  Z4SS   DN     DB          
      1.49255488E-02    3      1000035         3        -3             # GLSS   -->  Z4SS   ST     SB          
      1.48541080E-02    3      1000035         4        -4             # GLSS   -->  Z4SS   CH     CB          
      2.29745209E-02    3      1000035         5        -5             # GLSS   -->  Z4SS   BT     BB          
      3.52420136E-02    3      1000035         6        -6             # GLSS   -->  Z4SS   TP     TB          
      6.28946845E-17    2      1000039        21                       # GLSS   -->  GVSS   GL                 
#         PDG         Width
DECAY   1000002  2.59507416E+02   # UPL   decays
#          BR          NDA       ID1       ID2       ID3       ID4
      6.16710493E-03    2      1000022         2                       # UPL    -->  Z1SS   UP                 
      2.11345479E-02    2      1000023         2                       # UPL    -->  Z2SS   UP                 
      6.37841413E-06    2      1000025         2                       # UPL    -->  Z3SS   UP                 
      1.39978051E-01    2      1000035         2                       # UPL    -->  Z4SS   UP                 
      5.08900404E-01    2      1000021         2                       # UPL    -->  GLSS   UP                 
      8.16211924E-02    2      1000024         1                       # UPL    -->  W1SS+  DN                 
      2.42192343E-01    2      1000037         1                       # UPL    -->  W2SS+  DN                 
#         PDG         Width
DECAY   1000001  2.59518921E+02   # DNL   decays
#          BR          NDA       ID1       ID2       ID3       ID4
      6.19625067E-03    2      1000022         1                       # DNL    -->  Z1SS   DN                 
      2.03962307E-02    2      1000023         1                       # DNL    -->  Z2SS   DN                 
      1.12771650E-05    2      1000025         1                       # DNL    -->  Z3SS   DN                 
      1.40671402E-01    2      1000035         1                       # DNL    -->  Z4SS   DN                 
      5.08939683E-01    2      1000021         1                       # DNL    -->  GLSS   DN                 
      7.76225328E-02    2     -1000024         2                       # DNL    -->  W1SS-  UP                 
      2.46162623E-01    2     -1000037         2                       # DNL    -->  W2SS-  UP                 
#         PDG         Width
DECAY   1000003  2.59518921E+02   # STL   decays
#          BR          NDA       ID1       ID2       ID3       ID4
      6.19625067E-03    2      1000022         3                       # STL    -->  Z1SS   ST                 
      2.03962307E-02    2      1000023         3                       # STL    -->  Z2SS   ST                 
      1.12771659E-05    2      1000025         3                       # STL    -->  Z3SS   ST                 
      1.40671402E-01    2      1000035         3                       # STL    -->  Z4SS   ST                 
      5.08939683E-01    2      1000021         3                       # STL    -->  GLSS   ST                 
      7.76225254E-02    2     -1000024         4                       # STL    -->  W1SS-  CH                 
      2.46162608E-01    2     -1000037         4                       # STL    -->  W2SS-  CH                 
#         PDG         Width
DECAY   1000004  2.59507416E+02   # CHL   decays
#          BR          NDA       ID1       ID2       ID3       ID4
      6.16710493E-03    2      1000022         4                       # CHL    -->  Z1SS   CH                 
      2.11345479E-02    2      1000023         4                       # CHL    -->  Z2SS   CH                 
      6.37841367E-06    2      1000025         4                       # CHL    -->  Z3SS   CH                 
      1.39978036E-01    2      1000035         4                       # CHL    -->  Z4SS   CH                 
      5.08900404E-01    2      1000021         4                       # CHL    -->  GLSS   CH                 
      8.16211998E-02    2      1000024         3                       # CHL    -->  W1SS+  ST                 
      2.42192343E-01    2      1000037         3                       # CHL    -->  W2SS+  ST                 
#         PDG         Width
DECAY   1000005  1.54957916E+02   # BT1   decays
#          BR          NDA       ID1       ID2       ID3       ID4
      3.77153717E-02    2      1000022         5                       # BT1    -->  Z1SS   BT                 
      1.13421470E-01    2      1000023         5                       # BT1    -->  Z2SS   BT                 
      1.20529540E-01    2      1000025         5                       # BT1    -->  Z3SS   BT                 
      8.33242480E-03    2      1000035         5                       # BT1    -->  Z4SS   BT                 
      4.76799279E-01    2      1000021         5                       # BT1    -->  GLSS   BT                 
      2.02751189E-01    2     -1000024         6                       # BT1    -->  W1SS-  TP                 
      4.04493511E-02    2     -1000037         6                       # BT1    -->  W2SS-  TP                 
      1.37782411E-06    2          -24   1000006                       # BT1    -->  W-     TP1                
#         PDG         Width
DECAY   1000006  2.59944824E+02   # TP1   decays
#          BR          NDA       ID1       ID2       ID3       ID4
      1.69722766E-01    2      1000021         6                       # TP1    -->  GLSS   TP                 
      8.36271495E-02    2      1000022         6                       # TP1    -->  Z1SS   TP                 
      1.63697958E-01    2      1000023         6                       # TP1    -->  Z2SS   TP                 
      1.87370583E-01    2      1000025         6                       # TP1    -->  Z3SS   TP                 
      2.34291609E-02    2      1000035         6                       # TP1    -->  Z4SS   TP                 
      2.81281710E-01    2      1000024         5                       # TP1    -->  W1SS+  BT                 
      9.08707008E-02    2      1000037         5                       # TP1    -->  W2SS+  BT                 
#         PDG         Width
DECAY   2000002  1.18796196E+02   # UPR   decays
#          BR          NDA       ID1       ID2       ID3       ID4
      2.03000084E-01    2      1000022         2                       # UPR    -->  Z1SS   UP                 
      5.30360157E-05    2      1000023         2                       # UPR    -->  Z2SS   UP                 
      5.60496210E-06    2      1000025         2                       # UPR    -->  Z3SS   UP                 
      6.94608707E-06    2      1000035         2                       # UPR    -->  Z4SS   UP                 
      7.96934366E-01    2      1000021         2                       # UPR    -->  GLSS   UP                 
#         PDG         Width
DECAY   2000001  9.65266190E+01   # DNR   decays
#          BR          NDA       ID1       ID2       ID3       ID4
      6.19950145E-02    2      1000022         1                       # DNR    -->  Z1SS   DN                 
      1.61658372E-05    2      1000023         1                       # DNR    -->  Z2SS   DN                 
      1.70839144E-06    2      1000025         1                       # DNR    -->  Z3SS   DN                 
      2.11661791E-06    2      1000035         1                       # DNR    -->  Z4SS   DN                 
      9.37985003E-01    2      1000021         1                       # DNR    -->  GLSS   DN                 
#         PDG         Width
DECAY   2000003  9.65266190E+01   # STR   decays
#          BR          NDA       ID1       ID2       ID3       ID4
      6.19950145E-02    2      1000022         3                       # STR    -->  Z1SS   ST                 
      1.61658372E-05    2      1000023         3                       # STR    -->  Z2SS   ST                 
      1.70839144E-06    2      1000025         3                       # STR    -->  Z3SS   ST                 
      2.11661791E-06    2      1000035         3                       # STR    -->  Z4SS   ST                 
      9.37985003E-01    2      1000021         3                       # STR    -->  GLSS   ST                 
#         PDG         Width
DECAY   2000004  1.18796165E+02   # CHR   decays
#          BR          NDA       ID1       ID2       ID3       ID4
      2.03000143E-01    2      1000022         4                       # CHR    -->  Z1SS   CH                 
      5.30360267E-05    2      1000023         4                       # CHR    -->  Z2SS   CH                 
      5.60496301E-06    2      1000025         4                       # CHR    -->  Z3SS   CH                 
      6.94608889E-06    2      1000035         4                       # CHR    -->  Z4SS   CH                 
      7.96934247E-01    2      1000021         4                       # CHR    -->  GLSS   CH                 
#         PDG         Width
DECAY   2000005  3.73675079E+02   # BT2   decays
#          BR          NDA       ID1       ID2       ID3       ID4
      4.02444089E-03    2      1000022         5                       # BT2    -->  Z1SS   BT                 
      5.69564998E-02    2      1000023         5                       # BT2    -->  Z2SS   BT                 
      5.33942059E-02    2      1000025         5                       # BT2    -->  Z3SS   BT                 
      1.00530557E-01    2      1000035         5                       # BT2    -->  Z4SS   BT                 
      2.68646985E-01    2      1000021         5                       # BT2    -->  GLSS   BT                 
      2.64498830E-01    2     -1000024         6                       # BT2    -->  W1SS-  TP                 
      2.44342297E-01    2     -1000037         6                       # BT2    -->  W2SS-  TP                 
      7.92972103E-04    2          -24   1000006                       # BT2    -->  W-     TP1                
      2.98497034E-03    2           23   1000005                       # BT2    -->  Z0     BT1                
      3.82822868E-03    2           25   1000005                       # BT2    -->  HL0    BT1                
#         PDG         Width
DECAY   2000006  3.81658630E+02   # TP2   decays
#          BR          NDA       ID1       ID2       ID3       ID4
      2.71725208E-01    2      1000021         6                       # TP2    -->  GLSS   TP                 
      1.30607978E-01    2      1000024         5                       # TP2    -->  W1SS+  BT                 
      1.81806684E-01    2      1000037         5                       # TP2    -->  W2SS+  BT                 
      4.64846293E-04    2           23   1000006                       # TP2    -->  Z0     TP1                
      2.07402720E-03    2           25   1000006                       # TP2    -->  HL0    TP1                
      8.51027761E-03    2           24   1000005                       # TP2    -->  W+     BT1                
      4.02184622E-03    2      1000022         6                       # TP2    -->  Z1SS   TP                 
      1.41548753E-01    2      1000023         6                       # TP2    -->  Z2SS   TP                 
      1.48770496E-01    2      1000025         6                       # TP2    -->  Z3SS   TP                 
      1.10469878E-01    2      1000035         6                       # TP2    -->  Z4SS   TP                 
#         PDG         Width
DECAY   1000011  1.01981201E+01   # EL-   decays
#          BR          NDA       ID1       ID2       ID3       ID4
      3.54798287E-01    2      1000022        11                       # EL-    -->  Z1SS   E-                 
      3.57465185E-02    2      1000023        11                       # EL-    -->  Z2SS   E-                 
      4.54415976E-06    2      1000025        11                       # EL-    -->  Z3SS   E-                 
      1.66185915E-01    2      1000035        11                       # EL-    -->  Z4SS   E-                 
      1.15473509E-01    2     -1000024        12                       # EL-    -->  W1SS-  NUE                
      3.27791214E-01    2     -1000037        12                       # EL-    -->  W2SS-  NUE                
      4.83266864E-20    2           11   1000039                       # EL-    -->  E-     GVSS               
#         PDG         Width
DECAY   1000013  1.01981201E+01   # MUL-  decays
#          BR          NDA       ID1       ID2       ID3       ID4
      3.54798287E-01    2      1000022        13                       # MUL-   -->  Z1SS   MU-                
      3.57465185E-02    2      1000023        13                       # MUL-   -->  Z2SS   MU-                
      4.54415976E-06    2      1000025        13                       # MUL-   -->  Z3SS   MU-                
      1.66185915E-01    2      1000035        13                       # MUL-   -->  Z4SS   MU-                
      1.15473509E-01    2     -1000024        14                       # MUL-   -->  W1SS-  NUM                
      3.27791214E-01    2     -1000037        14                       # MUL-   -->  W2SS-  NUM                
      4.83266864E-20    2           13   1000039                       # MUL-   -->  MU-    GVSS               
#         PDG         Width
DECAY   1000015  0   # TAU1- decays
#          BR          NDA       ID1       ID2       ID3       ID4
      1.00000000E+00    2           15   1000039                       # TAU1-  -->  TAU-   GVSS               
#         PDG         Width
DECAY   1000012  9.93810654E+00   # NUEL  decays
#          BR          NDA       ID1       ID2       ID3       ID4
      3.61708283E-01    2      1000022        12                       # NUEL   -->  Z1SS   NUE                
      3.19670439E-02    2      1000023        12                       # NUEL   -->  Z2SS   NUE                
      2.76856154E-05    2      1000025        12                       # NUEL   -->  Z3SS   NUE                
      1.66496500E-01    2      1000035        12                       # NUEL   -->  Z4SS   NUE                
      1.20536134E-01    2      1000024        11                       # NUEL   -->  W1SS+  E-                 
      3.19264352E-01    2      1000037        11                       # NUEL   -->  W2SS+  E-                 
      4.85750796E-20    2           12   1000039                       # NUEL   -->  NUE    GVSS               
#         PDG         Width
DECAY   1000014  9.93810558E+00   # NUML  decays
#          BR          NDA       ID1       ID2       ID3       ID4
      3.61708283E-01    2      1000022        14                       # NUML   -->  Z1SS   NUM                
      3.19670476E-02    2      1000023        14                       # NUML   -->  Z2SS   NUM                
      2.76856154E-05    2      1000025        14                       # NUML   -->  Z3SS   NUM                
      1.66496500E-01    2      1000035        14                       # NUML   -->  Z4SS   NUM                
      1.20536134E-01    2      1000024        13                       # NUML   -->  W1SS+  MU-                
      3.19264323E-01    2      1000037        13                       # NUML   -->  W2SS+  MU-                
      4.85750829E-20    2           14   1000039                       # NUML   -->  NUM    GVSS               
#         PDG         Width
DECAY   1000016  1.40713377E+01   # NUTL  decays
#          BR          NDA       ID1       ID2       ID3       ID4
      2.44837955E-01    2      1000022        16                       # NUTL   -->  Z1SS   NUT                
      1.90642755E-02    2      1000023        16                       # NUTL   -->  Z2SS   NUT                
      1.64448738E-05    2      1000025        16                       # NUTL   -->  Z3SS   NUT                
      9.48098227E-02    2      1000035        16                       # NUTL   -->  Z4SS   NUT                
      2.07241565E-01    2      1000024        15                       # NUTL   -->  W1SS+  TAU-               
      2.22713217E-01    2      1000037        15                       # NUTL   -->  W2SS+  TAU-               
      2.11316720E-01    2           24   1000015                       # NUTL   -->  W+     TAU1-              
      3.08365274E-20    2           16   1000039                       # NUTL   -->  NUT    GVSS               
#         PDG         Width
DECAY   2000011  8.35425973E-01   # ER-   decays
#          BR          NDA       ID1       ID2       ID3       ID4
      1.00000000E+00    2      1000022        11                       # ER-    -->  Z1SS   E-                 
      9.19496701E-11    3      1000015        11       -15             # ER-    -->  TAU1-  E-     TAU+        
      1.17889420E-10    3     -1000015        11        15             # ER-    -->  TAU1+  E-     TAU-        
      2.52630711E-14    3      1000015        12       -16             # ER-    -->  TAU1-  NUE    ANUT        
      2.11806074E-20    2           11   1000039                       # ER-    -->  E-     GVSS               
#         PDG         Width
DECAY   2000013  8.35425973E-01   # MUR-  decays
#          BR          NDA       ID1       ID2       ID3       ID4
      1.00000000E+00    2      1000022        13                       # MUR-   -->  Z1SS   MU-                
      9.19496701E-11    3      1000015        13       -15             # MUR-   -->  TAU1-  MU-    TAU+        
      1.17889420E-10    3     -1000015        13        15             # MUR-   -->  TAU1+  MU-    TAU-        
      1.07538300E-09    3      1000015        14       -16             # MUR-   -->  TAU1-  NUM    ANUT        
      2.11806058E-20    2           13   1000039                       # MUR-   -->  MU-    GVSS               
#         PDG         Width
DECAY   2000015  1.77110920E+01   # TAU2- decays
#          BR          NDA       ID1       ID2       ID3       ID4
      1.94844618E-01    2      1000022        15                       # TAU2-  -->  Z1SS   TAU-               
      8.70184302E-02    2      1000023        15                       # TAU2-  -->  Z2SS   TAU-               
      7.78682381E-02    2      1000025        15                       # TAU2-  -->  Z3SS   TAU-               
      8.24813098E-02    2      1000035        15                       # TAU2-  -->  Z4SS   TAU-               
      5.25554568E-02    2     -1000024        16                       # TAU2-  -->  W1SS-  NUT                
      1.52542993E-01    2     -1000037        16                       # TAU2-  -->  W2SS-  NUT                
      8.54520872E-02    2           23   1000015                       # TAU2-  -->  Z0     TAU1-              
      2.67236859E-01    2           25   1000015                       # TAU2-  -->  HL0    TAU1-              
#         PDG         Width
DECAY   1000022  0   # Z1SS  decays
#          BR          NDA       ID1       ID2       ID3       ID4
      5.00000000E-01    2      1000015       -15                       # Z1SS   -->  TAU1-  TAU+               
      5.00000000E-01    2     -1000015        15                       # Z1SS   -->  TAU1+  TAU-               
      9.95601513E-19    2      1000039        22                       # Z1SS   -->  GVSS   GM                 
      2.49884025E-20    3      1000039        11       -11             # Z1SS   -->  GVSS   E-     E+          
      2.98414402E-19    2      1000039        23                       # Z1SS   -->  GVSS   Z0                 
      4.78253392E-23    2      1000039        25                       # Z1SS   -->  GVSS   HL0                
#         PDG         Width
DECAY   1000023  5.71807241E+00   # Z2SS  decays
#          BR          NDA       ID1       ID2       ID3       ID4
      4.99462409E-08    2      1000022        22                       # Z2SS   -->  Z1SS   GM                 
      2.12915018E-02    2      1000022        23                       # Z2SS   -->  Z1SS   Z0                 
      3.99469302E-09    3      1000022         2        -2             # Z2SS   -->  Z1SS   UP     UB          
      3.78410370E-09    3      1000022         1        -1             # Z2SS   -->  Z1SS   DN     DB          
      3.78410370E-09    3      1000022         3        -3             # Z2SS   -->  Z1SS   ST     SB          
      3.99469302E-09    3      1000022         4        -4             # Z2SS   -->  Z1SS   CH     CB          
      5.34225410E-06    3      1000022         5        -5             # Z2SS   -->  Z1SS   BT     BB          
      1.67625262E-06    3      1000022        11       -11             # Z2SS   -->  Z1SS   E-     E+          
      1.67625262E-06    3      1000022        13       -13             # Z2SS   -->  Z1SS   MU-    MU+         
      6.39642030E-06    3      1000022        15       -15             # Z2SS   -->  Z1SS   TAU-   TAU+        
      1.55216446E-06    3      1000022        12       -12             # Z2SS   -->  Z1SS   NUE    ANUE        
      1.55216446E-06    3      1000022        14       -14             # Z2SS   -->  Z1SS   NUM    ANUM        
      1.80014013E-06    3      1000022        16       -16             # Z2SS   -->  Z1SS   NUT    ANUT        
      2.92545527E-01    2      1000022        25                       # Z2SS   -->  Z1SS   HL0                
      1.48306499E-04    2      2000011       -11                       # Z2SS   -->  ER-    E+                 
      1.48306499E-04    2     -2000011        11                       # Z2SS   -->  ER+    E-                 
      1.48306499E-04    2      2000013       -13                       # Z2SS   -->  MUR-   MU+                
      1.48306499E-04    2     -2000013        13                       # Z2SS   -->  MUR+   MU-                
      3.42774838E-01    2      1000015       -15                       # Z2SS   -->  TAU1-  TAU+               
      3.42774838E-01    2     -1000015        15                       # Z2SS   -->  TAU1+  TAU-               
      8.92990040E-22    2      1000039        22                       # Z2SS   -->  GVSS   GM                 
      2.32718937E-23    3      1000039        11       -11             # Z2SS   -->  GVSS   E-     E+          
      8.13825038E-21    2      1000039        23                       # Z2SS   -->  GVSS   Z0                 
      5.28290086E-21    2      1000039        25                       # Z2SS   -->  GVSS   HL0                
#         PDG         Width
DECAY   1000025  6.10947227E+00   # Z3SS  decays
#          BR          NDA       ID1       ID2       ID3       ID4
      4.34908038E-08    2      1000022        22                       # Z3SS   -->  Z1SS   GM                 
      5.76268755E-11    2      1000023        22                       # Z3SS   -->  Z2SS   GM                 
      2.44083539E-01    2      1000022        23                       # Z3SS   -->  Z1SS   Z0                 
      4.19431894E-12    3      1000022         2        -2             # Z3SS   -->  Z1SS   UP     UB          
      9.98911891E-13    3      1000022         1        -1             # Z3SS   -->  Z1SS   DN     DB          
      9.98911891E-13    3      1000022         3        -3             # Z3SS   -->  Z1SS   ST     SB          
      4.19431894E-12    3      1000022         4        -4             # Z3SS   -->  Z1SS   CH     CB          
      5.93694813E-06    3      1000022         5        -5             # Z3SS   -->  Z1SS   BT     BB          
      8.86223803E-11    3      1000022        11       -11             # Z3SS   -->  Z1SS   E-     E+          
      8.86223803E-11    3      1000022        13       -13             # Z3SS   -->  Z1SS   MU-    MU+         
      5.02917374E-06    3      1000022        15       -15             # Z3SS   -->  Z1SS   TAU-   TAU+        
      5.60667179E-10    3      1000022        12       -12             # Z3SS   -->  Z1SS   NUE    ANUE        
      5.60667179E-10    3      1000022        14       -14             # Z3SS   -->  Z1SS   NUM    ANUM        
      6.58093247E-10    3      1000022        16       -16             # Z3SS   -->  Z1SS   NUT    ANUT        
      2.31669688E-08    3      1000023         2        -2             # Z3SS   -->  Z2SS   UP     UB          
      2.98739415E-08    3      1000023         1        -1             # Z3SS   -->  Z2SS   DN     DB          
      2.98739415E-08    3      1000023         3        -3             # Z3SS   -->  Z2SS   ST     SB          
      2.31669688E-08    3      1000023         4        -4             # Z3SS   -->  Z2SS   CH     CB          
      1.03585309E-08    3      1000023         5        -5             # Z3SS   -->  Z2SS   BT     BB          
      6.77686973E-09    3      1000023        11       -11             # Z3SS   -->  Z2SS   E-     E+          
      6.77686973E-09    3      1000023        13       -13             # Z3SS   -->  Z2SS   MU-    MU+         
      5.97455285E-09    3      1000023        15       -15             # Z3SS   -->  Z2SS   TAU-   TAU+        
      1.34839757E-08    3      1000023        12       -12             # Z3SS   -->  Z2SS   NUE    ANUE        
      1.34839757E-08    3      1000023        14       -14             # Z3SS   -->  Z2SS   NUM    ANUM        
      1.34839873E-08    3      1000023        16       -16             # Z3SS   -->  Z2SS   NUT    ANUT        
      2.29922105E-02    2      1000022        25                       # Z3SS   -->  Z1SS   HL0                
      1.49853722E-05    2      2000011       -11                       # Z3SS   -->  ER-    E+                 
      1.49853722E-05    2     -2000011        11                       # Z3SS   -->  ER+    E-                 
      1.49853722E-05    2      2000013       -13                       # Z3SS   -->  MUR-   MU+                
      1.49853722E-05    2     -2000013        13                       # Z3SS   -->  MUR+   MU-                
      3.66426557E-01    2      1000015       -15                       # Z3SS   -->  TAU1-  TAU+               
      3.66426557E-01    2     -1000015        15                       # Z3SS   -->  TAU1+  TAU-               
      4.96088677E-26    2      1000039        22                       # Z3SS   -->  GVSS   GM                 
      1.29323798E-27    3      1000039        11       -11             # Z3SS   -->  GVSS   E-     E+          
      5.85585672E-21    2      1000039        23                       # Z3SS   -->  GVSS   Z0                 
      6.37050766E-21    2      1000039        25                       # Z3SS   -->  GVSS   HL0                
#         PDG         Width
DECAY   1000035  2.43937182E+00   # Z4SS  decays
#          BR          NDA       ID1       ID2       ID3       ID4
      1.05271596E-07    2      1000022        22                       # Z4SS   -->  Z1SS   GM                 
      6.07919972E-08    2      1000023        22                       # Z4SS   -->  Z2SS   GM                 
      1.97171801E-07    2      1000025        22                       # Z4SS   -->  Z3SS   GM                 
      1.49695605E-01    2      1000024       -24                       # Z4SS   -->  W1SS+  W-                 
      1.49695605E-01    2     -1000024        24                       # Z4SS   -->  W1SS-  W+                 
      2.83408299E-04    3     -1000037         2        -1             # Z4SS   -->  W2SS-  UP     DB          
      9.44694257E-05    3     -1000037        12       -11             # Z4SS   -->  W2SS-  NUE    E+          
      9.44694257E-05    3     -1000037        14       -13             # Z4SS   -->  W2SS-  NUM    MU+         
      2.83408299E-04    3      1000037         1        -2             # Z4SS   -->  W2SS+  DN     UB          
      9.44694257E-05    3      1000037        11       -12             # Z4SS   -->  W2SS+  E-     ANUE        
      9.44694257E-05    3      1000037        13       -14             # Z4SS   -->  W2SS+  MU-    ANUM        
      2.83408299E-04    3     -1000037         4        -3             # Z4SS   -->  W2SS-  CH     SB          
      9.44694257E-05    3     -1000037        16       -15             # Z4SS   -->  W2SS-  NUT    TAU+        
      2.83408299E-04    3      1000037         3        -4             # Z4SS   -->  W2SS+  ST     CB          
      9.44694257E-05    3      1000037        15       -16             # Z4SS   -->  W2SS+  TAU-   ANUT        
      8.06879904E-03    2      1000022        23                       # Z4SS   -->  Z1SS   Z0                 
      1.65545775E-04    2      1000023        23                       # Z4SS   -->  Z2SS   Z0                 
      1.74087465E-01    2      1000025        23                       # Z4SS   -->  Z3SS   Z0                 
      9.68473017E-08    3      1000022         2        -2             # Z4SS   -->  Z1SS   UP     UB          
      9.77348975E-08    3      1000022         1        -1             # Z4SS   -->  Z1SS   DN     DB          
      9.77348975E-08    3      1000022         3        -3             # Z4SS   -->  Z1SS   ST     SB          
      9.68473017E-08    3      1000022         4        -4             # Z4SS   -->  Z1SS   CH     CB          
      2.22270205E-06    3      1000022         5        -5             # Z4SS   -->  Z1SS   BT     BB          
      4.39904288E-05    3      1000022        11       -11             # Z4SS   -->  Z1SS   E-     E+          
      4.39904288E-05    3      1000022        13       -13             # Z4SS   -->  Z1SS   MU-    MU+         
      5.53714272E-05    3      1000022        15       -15             # Z4SS   -->  Z1SS   TAU-   TAU+        
      4.60831870E-05    3      1000022        12       -12             # Z4SS   -->  Z1SS   NUE    ANUE        
      4.60831870E-05    3      1000022        14       -14             # Z4SS   -->  Z1SS   NUM    ANUM        
      5.40141482E-05    3      1000022        16       -16             # Z4SS   -->  Z1SS   NUT    ANUT        
      7.12051251E-12    3      1000023         2        -2             # Z4SS   -->  Z2SS   UP     UB          
      6.90529448E-12    3      1000023         1        -1             # Z4SS   -->  Z2SS   DN     DB          
      6.90529448E-12    3      1000023         3        -3             # Z4SS   -->  Z2SS   ST     SB          
      7.12051251E-12    3      1000023         4        -4             # Z4SS   -->  Z2SS   CH     CB          
      6.37682684E-10    3      1000023         5        -5             # Z4SS   -->  Z2SS   BT     BB          
      9.08500497E-10    3      1000023        11       -11             # Z4SS   -->  Z2SS   E-     E+          
      9.08500497E-10    3      1000023        13       -13             # Z4SS   -->  Z2SS   MU-    MU+         
      6.51194787E-09    3      1000023        15       -15             # Z4SS   -->  Z2SS   TAU-   TAU+        
      8.68729644E-10    3      1000023        12       -12             # Z4SS   -->  Z2SS   NUE    ANUE        
      8.68729644E-10    3      1000023        14       -14             # Z4SS   -->  Z2SS   NUM    ANUM        
      1.12064613E-09    3      1000023        16       -16             # Z4SS   -->  Z2SS   NUT    ANUT        
      4.17145754E-16    3      1000025         2        -2             # Z4SS   -->  Z3SS   UP     UB          
      7.41110895E-16    3      1000025         1        -1             # Z4SS   -->  Z3SS   DN     DB          
      7.41110895E-16    3      1000025         3        -3             # Z4SS   -->  Z3SS   ST     SB          
      4.17145754E-16    3      1000025         4        -4             # Z4SS   -->  Z3SS   CH     CB          
      5.73791792E-10    3      1000025         5        -5             # Z4SS   -->  Z3SS   BT     BB          
      2.35403822E-14    3      1000025        11       -11             # Z4SS   -->  Z3SS   E-     E+          
      2.35403822E-14    3      1000025        13       -13             # Z4SS   -->  Z3SS   MU-    MU+         
      3.25902283E-09    3      1000025        15       -15             # Z4SS   -->  Z3SS   TAU-   TAU+        
      1.53544197E-13    3      1000025        12       -12             # Z4SS   -->  Z3SS   NUE    ANUE        
      1.53544197E-13    3      1000025        14       -14             # Z4SS   -->  Z3SS   NUM    ANUM        
      1.98683518E-13    3      1000025        16       -16             # Z4SS   -->  Z3SS   NUT    ANUT        
      9.49510261E-02    2      1000022        25                       # Z4SS   -->  Z1SS   HL0                
      1.88907936E-01    2      1000023        25                       # Z4SS   -->  Z2SS   HL0                
      1.94509812E-05    2      1000025        25                       # Z4SS   -->  Z3SS   HL0                
      5.51678495E-05    2      2000011       -11                       # Z4SS   -->  ER-    E+                 
      5.51678495E-05    2     -2000011        11                       # Z4SS   -->  ER+    E-                 
      5.51678495E-05    2      2000013       -13                       # Z4SS   -->  MUR-   MU+                
      5.51678495E-05    2     -2000013        13                       # Z4SS   -->  MUR+   MU-                
      1.16097465E-01    2      1000015       -15                       # Z4SS   -->  TAU1-  TAU+               
      1.16097465E-01    2     -1000015        15                       # Z4SS   -->  TAU1+  TAU-               
      1.48879440E-20    2      1000039        22                       # Z4SS   -->  GVSS   GM                 
      3.89114010E-22    3      1000039        11       -11             # Z4SS   -->  GVSS   E-     E+          
      5.33448777E-20    2      1000039        23                       # Z4SS   -->  GVSS   Z0                 
      2.36808016E-21    2      1000039        25                       # Z4SS   -->  GVSS   HL0                
#         PDG         Width
DECAY   1000024  4.88435125E+00   # W1SS+ decays
#          BR          NDA       ID1       ID2       ID3       ID4
      2.01292867E-08    3      1000022         2        -1             # W1SS+  -->  Z1SS   UP     DB          
      2.01292867E-08    3      1000022         4        -3             # W1SS+  -->  Z1SS   CH     SB          
      8.72292367E-06    3      1000022       -11        12             # W1SS+  -->  Z1SS   E+     NUE         
      8.72292367E-06    3      1000022       -13        14             # W1SS+  -->  Z1SS   MU+    NUM         
      1.56897549E-05    3      1000022       -15        16             # W1SS+  -->  Z1SS   TAU+   NUT         
      2.71585643E-01    2      1000022        24                       # W1SS+  -->  Z1SS   W+                 
      5.52225210E-05    3      1000023         2        -1             # W1SS+  -->  Z2SS   UP     DB          
      5.52225210E-05    3      1000023         4        -3             # W1SS+  -->  Z2SS   CH     SB          
      1.84116543E-05    3      1000023       -11        12             # W1SS+  -->  Z2SS   E+     NUE         
      1.84116543E-05    3      1000023       -13        14             # W1SS+  -->  Z2SS   MU+    NUM         
      1.84121618E-05    3      1000023       -15        16             # W1SS+  -->  Z2SS   TAU+   NUT         
      3.67582675E-06    3      1000025         2        -1             # W1SS+  -->  Z3SS   UP     DB          
      3.67582675E-06    3      1000025         4        -3             # W1SS+  -->  Z3SS   CH     SB          
      1.22527979E-06    3      1000025       -11        12             # W1SS+  -->  Z3SS   E+     NUE         
      1.22527979E-06    3      1000025       -13        14             # W1SS+  -->  Z3SS   MU+    NUM         
      1.22527501E-06    3      1000025       -15        16             # W1SS+  -->  Z3SS   TAU+   NUT         
      7.28204489E-01    2     -1000015        16                       # W1SS+  -->  TAU1+  NUT                
#         PDG         Width
DECAY   1000037  1.58160937E+00   # W2SS+ decays
#          BR          NDA       ID1       ID2       ID3       ID4
      2.25171362E-07    3      1000022         2        -1             # W2SS+  -->  Z1SS   UP     DB          
      2.25171362E-07    3      1000022         4        -3             # W2SS+  -->  Z1SS   CH     SB          
      1.00889309E-04    3      1000022       -11        12             # W2SS+  -->  Z1SS   E+     NUE         
      1.00889309E-04    3      1000022       -13        14             # W2SS+  -->  Z1SS   MU+    NUM         
      1.25733000E-04    3      1000022       -15        16             # W2SS+  -->  Z1SS   TAU+   NUT         
      2.63568759E-01    2      1000022        24                       # W2SS+  -->  Z1SS   W+                 
      8.91028733E-13    3      1000023         2        -1             # W2SS+  -->  Z2SS   UP     DB          
      8.91028733E-13    3      1000023         4        -3             # W2SS+  -->  Z2SS   CH     SB          
      1.07487623E-10    3      1000023       -11        12             # W2SS+  -->  Z2SS   E+     NUE         
      1.07487623E-10    3      1000023       -13        14             # W2SS+  -->  Z2SS   MU+    NUM         
      1.01589748E-09    3      1000023       -15        16             # W2SS+  -->  Z2SS   TAU+   NUT         
      1.46268634E-02    2      1000023        24                       # W2SS+  -->  Z2SS   W+                 
      4.89708975E-16    3      1000025         2        -1             # W2SS+  -->  Z3SS   UP     DB          
      4.89708975E-16    3      1000025         4        -3             # W2SS+  -->  Z3SS   CH     SB          
      6.34528915E-14    3      1000025       -11        12             # W2SS+  -->  Z3SS   E+     NUE         
      6.34528915E-14    3      1000025       -13        14             # W2SS+  -->  Z3SS   MU+    NUM         
      4.35563752E-10    3      1000025       -15        16             # W2SS+  -->  Z3SS   TAU+   NUT         
      3.10915671E-02    2      1000025        24                       # W2SS+  -->  Z3SS   W+                 
      6.90306127E-01    2     -1000015        16                       # W2SS+  -->  TAU1+  NUT                
      1.40890706E-05    3      1000024         1        -1             # W2SS+  -->  W1SS+  DN     DB          
      1.40890706E-05    3      1000024         3        -3             # W2SS+  -->  W1SS+  ST     SB          
      1.09259390E-05    3      1000024         2        -2             # W2SS+  -->  W1SS+  UP     UB          
      1.09259390E-05    3      1000024         4        -4             # W2SS+  -->  W1SS+  CH     CB          
      6.35924789E-06    3      1000024        12       -12             # W2SS+  -->  W1SS+  NUE    ANUE        
      6.35924789E-06    3      1000024        14       -14             # W2SS+  -->  W1SS+  NUM    ANUM        
      6.35923107E-06    3      1000024        16       -16             # W2SS+  -->  W1SS+  NUT    ANUT        
      3.19611695E-06    3      1000024        11       -11             # W2SS+  -->  W1SS+  E-     E+          
      3.19611695E-06    3      1000024        13       -13             # W2SS+  -->  W1SS+  MU-    MU+         
      3.19612218E-06    3      1000024        15       -15             # W2SS+  -->  W1SS+  TAU-   TAU+        
#         PDG         Width
DECAY        25  4.92034433E-03   # HL0   decays
#          BR          NDA       ID1       ID2       ID3       ID4
      4.30890790E-09    2           11       -11                       # HL0    -->  E-     E+                 
      1.81929077E-04    2           13       -13                       # HL0    -->  MU-    MU+                
      5.20437919E-02    2           15       -15                       # HL0    -->  TAU-   TAU+               
      5.40176052E-06    2            1        -1                       # HL0    -->  DN     DB                 
      2.18258216E-03    2            3        -3                       # HL0    -->  ST     SB                 
      7.07516193E-01    2            5        -5                       # HL0    -->  BT     BB                 
      1.72436785E-06    2            2        -2                       # HL0    -->  UP     UB                 
      3.20711657E-02    2            4        -4                       # HL0    -->  CH     CB                 
      2.07217690E-03    2           22        22                       # HL0    -->  GM     GM                 
      4.24191691E-02    2           21        21                       # HL0    -->  GL     GL                 
      8.08613375E-03    3           24        11       -12             # HL0    -->  W+     E-     ANUE        
      8.08613375E-03    3           24        13       -14             # HL0    -->  W+     MU-    ANUM        
      8.08613375E-03    3           24        15       -16             # HL0    -->  W+     TAU-   ANUT        
      2.42584012E-02    3           24        -2         1             # HL0    -->  W+     UB     DN          
      2.42584012E-02    3           24        -4         3             # HL0    -->  W+     CB     ST          
      8.08613375E-03    3          -24       -11        12             # HL0    -->  W-     E+     NUE         
      8.08613375E-03    3          -24       -13        14             # HL0    -->  W-     MU+    NUM         
      8.08613375E-03    3          -24       -15        16             # HL0    -->  W-     TAU+   NUT         
      2.42584012E-02    3          -24         2        -1             # HL0    -->  W-     UP     DB          
      2.42584012E-02    3          -24         4        -3             # HL0    -->  W-     CH     SB          
      1.09119399E-03    3           23        12       -12             # HL0    -->  Z0     NUE    ANUE        
      1.09119399E-03    3           23        14       -14             # HL0    -->  Z0     NUM    ANUM        
      1.09119399E-03    3           23        16       -16             # HL0    -->  Z0     NUT    ANUT        
      5.49186952E-04    3           23        11       -11             # HL0    -->  Z0     E-     E+          
      5.49186952E-04    3           23        13       -13             # HL0    -->  Z0     MU-    MU+         
      5.49186952E-04    3           23        15       -15             # HL0    -->  Z0     TAU-   TAU+        
      1.88146811E-03    3           23         2        -2             # HL0    -->  Z0     UP     UB          
      1.88146811E-03    3           23         4        -4             # HL0    -->  Z0     CH     CB          
      2.42379447E-03    3           23         1        -1             # HL0    -->  Z0     DN     DB          
      2.42379447E-03    3           23         3        -3             # HL0    -->  Z0     ST     SB          
      2.42379447E-03    3           23         5        -5             # HL0    -->  Z0     BT     BB          
#         PDG         Width
DECAY        35  1.19470581E+02   # HH0   decays
#          BR          NDA       ID1       ID2       ID3       ID4
      1.32637501E-08    2           11       -11                       # HH0    -->  E-     E+                 
      5.60019456E-04    2           13       -13                       # HH0    -->  MU-    MU+                
      1.60397992E-01    2           15       -15                       # HH0    -->  TAU-   TAU+               
      1.60755044E-05    2            1        -1                       # HH0    -->  DN     DB                 
      6.49531418E-03    2            3        -3                       # HH0    -->  ST     SB                 
      8.31800342E-01    2            5        -5                       # HH0    -->  BT     BB                 
      1.15146261E-12    2            2        -2                       # HH0    -->  UP     UB                 
      1.37888403E-08    2            4        -4                       # HH0    -->  CH     CB                 
      7.26356055E-04    2            6        -6                       # HH0    -->  TP     TB                 
      5.44872258E-10    2           22        22                       # HH0    -->  GM     GM                 
      7.87912242E-08    2           21        21                       # HH0    -->  GL     GL                 
      1.48995156E-07    2           24       -24                       # HH0    -->  W+     W-                 
      7.64337997E-08    2           23        23                       # HH0    -->  Z0     Z0                 
      3.12259476E-06    2      1000022   1000022                       # HH0    -->  Z1SS   Z1SS               
      4.41411203E-07    2           25        25                       # HH0    -->  HL0    HL0                
      1.63924838E-08    2      1000015  -1000015                       # HH0    -->  TAU1-  TAU1+              
#         PDG         Width
DECAY        36  1.18695694E+02   # HA0   decays
#          BR          NDA       ID1       ID2       ID3       ID4
      1.32630946E-08    2           11       -11                       # HA0    -->  E-     E+                 
      5.59991749E-04    2           13       -13                       # HA0    -->  MU-    MU+                
      1.60390183E-01    2           15       -15                       # HA0    -->  TAU-   TAU+               
      1.60753698E-05    2            1        -1                       # HA0    -->  DN     DB                 
      6.49526250E-03    2            3        -3                       # HA0    -->  ST     SB                 
      8.31795335E-01    2            5        -5                       # HA0    -->  BT     BB                 
      1.14877563E-12    2            2        -2                       # HA0    -->  UP     UB                 
      1.37659102E-08    2            4        -4                       # HA0    -->  CH     CB                 
      7.28359562E-04    2            6        -6                       # HA0    -->  TP     TB                 
      5.55573054E-09    2           22        22                       # HA0    -->  GM     GM                 
      1.32776904E-06    2           21        21                       # HA0    -->  GL     GL                 
      1.33029935E-05    2      1000022   1000022                       # HA0    -->  Z1SS   Z1SS               
      1.48729598E-07    2           25        23                       # HA0    -->  HL0    Z0                 
#         PDG         Width
DECAY        37  1.12097916E+02   # H+    decays
#          BR          NDA       ID1       ID2       ID3       ID4
      1.41389602E-08    2           12       -11                       # H+     -->  NUE    E+                 
      5.96972415E-04    2           14       -13                       # H+     -->  NUM    MU+                
      1.70981988E-01    2           16       -15                       # H+     -->  NUT    TAU+               
      1.59208903E-05    2            2        -1                       # H+     -->  UP     DB                 
      6.43285736E-03    2            4        -3                       # H+     -->  CH     SB                 
      8.21972072E-01    2            6        -5                       # H+     -->  TP     BB                 
      1.58668513E-07    2           25        24                       # H+     -->  HL0    W+                 
