#  ISAJET SUSY parameters in SUSY Les Houches Accord 2 format
#  Created by ISALHA 2.0 Last revision: H Baer 27 May 2014
Block SPINFO   # Program information
     1   ISASUGRA/ISASUSY from ISAJET   # Spectrum Calculator
     2   7.85   04-NOV-2015 13:42:47    # Version number
Block MODSEL   # Model selection
     1     2   # Minimal gauge mediated (GMSB) model               
Block SMINPUTS   # Standard Model inputs
     1     1.28000000E+02   # alpha_em^(-1)
     2     1.16570000E-05   # G_Fermi
     3     1.19999997E-01   # alpha_s(M_Z)
     4     9.11699982E+01   # m_{Z}(pole)
     5     4.19999981E+00   # m_{b}(m_{b})
     6     1.73000000E+02   # m_{top}(pole)
     7     1.77699995E+00   # m_{tau}(pole)
Block MINPAR   # SUSY breaking input parameters
     1     1.37000000E+06   # Lambda scale of soft SSB
     2     2.00000000E+06   # M_mess overall messenger scale
     3     4.40000000E+01   # tan(beta)
     4     1.00000000E+00   # sign(mu)
     5     1.00000000E+00   # N_5 messenger index
     6     1.00000000E+05   # c_grav gravitino mass factor
    51     1.00000000E+00   # N5_1  U(1)_Y messenger index
    52     1.00000000E+00   # N5_2 SU(2)_L messenger index
    53     1.00000000E+00   # N5_3 SU(3)_C messenger index
   101     1.00000000E+00   # Rsl
   102     0.00000000E+00   # dmH_d^2
   103     0.00000000E+00   # dmH_u^2
   104     0.00000000E+00   # d_Y
Block MASS   # Scalar and gaugino mass spectrum
#  PDG code   mass                 particle
         6     1.73000000E+02   #  top            
        24     8.04229965E+01   #  W^+
        25     1.24623436E+02   #  h^0            
        35     4.83157031E+03   #  H^0            
        36     4.79999072E+03   #  A^0            
        37     4.83236523E+03   #  H^+            
   1000001     1.28762891E+04   #  dnl            
   1000002     1.28760361E+04   #  upl            
   1000003     1.28762891E+04   #  stl            
   1000004     1.28760361E+04   #  chl            
   1000005     1.17943477E+04   #  b1             
   1000006     1.11240635E+04   #  t1             
   1000011     4.70954541E+03   #  el-            
   1000012     4.69007959E+03   #  nuel           
   1000013     4.70954541E+03   #  mul-           
   1000014     4.69007959E+03   #  numl           
   1000015     2.10314624E+03   #  tau1           
   1000016     4.60072949E+03   #  nutl           
   1000021     9.42463477E+03   #  glss           
   1000022     2.10591187E+03   #  z1ss           
   1000023     3.60394849E+03   #  z2ss           
   1000024     3.67349121E+03   #  w1ss           
   1000025    -3.61190552E+03   #  z3ss           
   1000035     3.91530713E+03   #  z4ss           
   1000037     3.84383887E+03   #  w2ss           
   1000039     6.59141615E-02   #  gvss
   2000001     1.20925518E+04   #  dnr            
   2000002     1.21742041E+04   #  upr            
   2000003     1.20925518E+04   #  str            
   2000004     1.21742041E+04   #  chr            
   2000005     1.23105137E+04   #  b2             
   2000006     1.23802314E+04   #  t2             
   2000011     2.42265845E+03   #  er-            
   2000013     2.42265845E+03   #  mur-           
   2000015     4.60865820E+03   #  tau2           
Block ALPHA   # Effective Higgs mixing parameter
         -2.27455124E-02   # alpha
Block STOPMIX   # stop mixing matrix
  1  1     6.51529385E-03   # O_{11}
  1  2     9.99978781E-01   # O_{12}
  2  1    -9.99978781E-01   # O_{21}
  2  2     6.51529385E-03   # O_{22}
Block SBOTMIX   # sbottom mixing matrix
  1  1     5.94225898E-02   # O_{11}
  1  2     9.98232901E-01   # O_{12}
  2  1    -9.98232901E-01   # O_{21}
  2  2     5.94225898E-02   # O_{22}
Block STAUMIX   # stau mixing matrix
  1  1     8.03040341E-03   # O_{11}
  1  2     9.99967754E-01   # O_{12}
  2  1    -9.99967754E-01   # O_{21}
  2  2     8.03040341E-03   # O_{22}
Block NMIX   # neutralino mixing matrix
  1  1     9.99813735E-01   #
  1  2    -1.13292837E-04   #
  1  3     1.68499425E-02   #
  1  4    -9.39698890E-03   #
  2  1    -1.83202103E-02   #
  2  2    -1.68181255E-01   #
  2  3     6.97708249E-01   #
  2  4    -6.96119428E-01   #
  3  1    -5.26858401E-03   #
  3  2     6.76518865E-03   #
  3  3     7.07021832E-01   #
  3  4     7.07139552E-01   #
  4  1     2.97464267E-03   #
  4  2    -9.85732853E-01   #
  4  3    -1.14189424E-01   #
  4  4     1.23623155E-01   #
Block UMIX   # chargino U mixing matrix
  1  1    -2.28087261E-01   # U_{11}
  1  2     9.73640680E-01   # U_{12}
  2  1    -9.73640680E-01   # U_{21}
  2  2    -2.28087261E-01   # U_{22}
Block VMIX   # chargino V mixing matrix
  1  1    -2.41057262E-01   # V_{11}
  1  2     9.70510900E-01   # V_{12}
  2  1    -9.70510900E-01   # V_{21}
  2  2    -2.41057262E-01   # V_{22}
Block GAUGE Q=  1.13847949E+04   #
     1     3.57524991E-01   # g`
     2     6.52378619E-01   # g_2
     3     1.21928000E+00   # g_3
Block YU Q=  1.13847949E+04   #
  3  3     7.97015429E-01   # y_t
Block YD Q=  1.13847949E+04   #
  3  3     4.41513479E-01   # y_b
Block YE Q=  1.13847949E+04   #
  3  3     4.87736225E-01   # y_tau
Block HMIX Q=  1.13847949E+04   # Higgs mixing parameters
     1     3.56004517E+03   # mu(Q)
     2     4.28974876E+01   # tan(beta)(Q)
     3     2.53111191E+02   # Higgs vev at Q
     4     2.30399100E+07   # m_A^2(Q)
Block MSOFT Q=  1.13847949E+04   # DRbar SUSY breaking parameters
     1     2.14321875E+03   # M_1(Q)          
     2     3.77069458E+03   # M_2(Q)          
     3     8.67185938E+03   # M_3(Q)          
    21     1.12328310E+07   # MHd^2(Q)        
    22    -9.86287100E+06   # MHu^2(Q)        
    31     4.67274902E+03   # MeL(Q)          
    32     4.67274902E+03   # MmuL(Q)         
    33     4.58575098E+03   # MtauL(Q)        
    34     2.42028540E+03   # MeR(Q)          
    35     2.42028540E+03   # MmuR(Q)         
    36     2.13228662E+03   # MtauR(Q)        
    41     1.24548740E+04   # MqL1(Q)         
    42     1.24548740E+04   # MqL2(Q)         
    43     1.19359795E+04   # MqL3(Q)         
    44     1.17433096E+04   # MuR(Q)          
    45     1.17433096E+04   # McR(Q)          
    46     1.08590635E+04   # MtR(Q)          
    47     1.16603652E+04   # MdR(Q)          
    48     1.16603652E+04   # MsR(Q)          
    49     1.13920322E+04   # MbR(Q)          
Block AU Q=  1.13847949E+04   #
  1  1    -2.29810205E+03   # A_u
  2  2    -2.29810205E+03   # A_c
  3  3    -2.29810205E+03   # A_t
Block AD Q=  1.13847949E+04   #
  1  1    -2.45807275E+03   # A_d
  2  2    -2.45807275E+03   # A_s
  3  3    -2.45807275E+03   # A_b
Block AE Q=  1.13847949E+04   #
  1  1    -3.02587219E+02   # A_e
  2  2    -3.02587219E+02   # A_mu
  3  3    -3.02587219E+02   # A_tau
#  ISAJET decay tables in SUSY Les Houches accord format
#  Created by ISALHD. Last revision: C. Balazs, 2005 May 25
Block DCINFO                           # Program information
     1   ISASUGRA from ISAJET          # Spectrum Calculator
     2   7.85   04-NOV-2015 13:42:47   # Version number
#         PDG         Width
DECAY         6  1.16039467E+00   # TP    decays
#          BR          NDA       ID1       ID2       ID3       ID4
      3.33333343E-01    3            2        -1         5             # TP     -->  UP     DB     BT          
      3.33333343E-01    3            4        -3         5             # TP     -->  CH     SB     BT          
      1.11111112E-01    3          -11        12         5             # TP     -->  E+     NUE    BT          
      1.11111112E-01    3          -13        14         5             # TP     -->  MU+    NUM    BT          
      1.11111112E-01    3          -15        16         5             # TP     -->  TAU+   NUT    BT          
#         PDG         Width
DECAY   1000021  2.79037267E-01   # GLSS  decays
#          BR          NDA       ID1       ID2       ID3       ID4
      2.07418646E-03    3      1000024         1        -2             # GLSS   -->  W1SS+  DN     UB          
      2.07418646E-03    3     -1000024         2        -1             # GLSS   -->  W1SS-  UP     DB          
      2.07418646E-03    3      1000024         3        -4             # GLSS   -->  W1SS+  ST     CB          
      2.07418646E-03    3     -1000024         4        -3             # GLSS   -->  W1SS-  CH     SB          
      1.27992839E-01    3      1000024         5        -6             # GLSS   -->  W1SS+  BT     TB          
      1.27992839E-01    3     -1000024         6        -5             # GLSS   -->  W1SS-  TP     BB          
      3.27175409E-02    3      1000037         1        -2             # GLSS   -->  W2SS+  DN     UB          
      3.27175409E-02    3     -1000037         2        -1             # GLSS   -->  W2SS-  UP     DB          
      3.27175409E-02    3      1000037         3        -4             # GLSS   -->  W2SS+  ST     CB          
      3.27175409E-02    3     -1000037         4        -3             # GLSS   -->  W2SS-  CH     SB          
      5.11555150E-02    3      1000037         5        -6             # GLSS   -->  W2SS+  BT     TB          
      5.11555150E-02    3     -1000037         6        -5             # GLSS   -->  W2SS-  TP     BB          
      1.38238656E-05    2      1000022        21                       # GLSS   -->  Z1SS   GL                 
      2.49967184E-02    3      1000022         2        -2             # GLSS   -->  Z1SS   UP     UB          
      7.30705587E-03    3      1000022         1        -1             # GLSS   -->  Z1SS   DN     DB          
      7.30705587E-03    3      1000022         3        -3             # GLSS   -->  Z1SS   ST     SB          
      2.49967184E-02    3      1000022         4        -4             # GLSS   -->  Z1SS   CH     CB          
      8.64595547E-03    3      1000022         5        -5             # GLSS   -->  Z1SS   BT     BB          
      4.24818657E-02    3      1000022         6        -6             # GLSS   -->  Z1SS   TP     TB          
      3.20017658E-04    2      1000023        21                       # GLSS   -->  Z2SS   GL                 
      5.77937928E-04    3      1000023         2        -2             # GLSS   -->  Z2SS   UP     UB          
      5.30292455E-04    3      1000023         1        -1             # GLSS   -->  Z2SS   DN     DB          
      5.30292455E-04    3      1000023         3        -3             # GLSS   -->  Z2SS   ST     SB          
      5.77937928E-04    3      1000023         4        -4             # GLSS   -->  Z2SS   CH     CB          
      2.89179645E-02    3      1000023         5        -5             # GLSS   -->  Z2SS   BT     BB          
      1.05799586E-01    3      1000023         6        -6             # GLSS   -->  Z2SS   TP     TB          
      3.17134662E-04    2      1000025        21                       # GLSS   -->  Z3SS   GL                 
      4.92404581E-07    3      1000025         2        -2             # GLSS   -->  Z3SS   UP     UB          
      5.86095382E-07    3      1000025         1        -1             # GLSS   -->  Z3SS   DN     DB          
      5.86095382E-07    3      1000025         3        -3             # GLSS   -->  Z3SS   ST     SB          
      4.92404581E-07    3      1000025         4        -4             # GLSS   -->  Z3SS   CH     CB          
      2.87968665E-02    3      1000025         5        -5             # GLSS   -->  Z3SS   BT     BB          
      1.08996838E-01    3      1000025         6        -6             # GLSS   -->  Z3SS   TP     TB          
      2.93558764E-06    2      1000035        21                       # GLSS   -->  Z4SS   GL                 
      1.61914546E-02    3      1000035         2        -2             # GLSS   -->  Z4SS   UP     UB          
      1.62253696E-02    3      1000035         1        -1             # GLSS   -->  Z4SS   DN     DB          
      1.62253696E-02    3      1000035         3        -3             # GLSS   -->  Z4SS   ST     SB          
      1.61914546E-02    3      1000035         4        -4             # GLSS   -->  Z4SS   CH     CB          
      2.17872821E-02    3      1000035         5        -5             # GLSS   -->  Z4SS   BT     BB          
      2.47963183E-02    3      1000035         6        -6             # GLSS   -->  Z4SS   TP     TB          
      7.06137619E-17    2      1000039        21                       # GLSS   -->  GVSS   GL                 
#         PDG         Width
DECAY   1000002  2.71434753E+02   # UPL   decays
#          BR          NDA       ID1       ID2       ID3       ID4
      6.33816095E-03    2      1000022         2                       # UPL    -->  Z1SS   UP                 
      4.99100098E-03    2      1000023         2                       # UPL    -->  Z2SS   UP                 
      5.70151724E-06    2      1000025         2                       # UPL    -->  Z3SS   UP                 
      1.59623146E-01    2      1000035         2                       # UPL    -->  Z4SS   UP                 
      4.97367144E-01    2      1000021         2                       # UPL    -->  GLSS   UP                 
      1.95820257E-02    2      1000024         1                       # UPL    -->  W1SS+  DN                 
      3.12092841E-01    2      1000037         1                       # UPL    -->  W2SS+  DN                 
#         PDG         Width
DECAY   1000001  2.71441254E+02   # DNL   decays
#          BR          NDA       ID1       ID2       ID3       ID4
      6.35384535E-03    2      1000022         1                       # DNL    -->  Z1SS   DN                 
      4.60802903E-03    2      1000023         1                       # DNL    -->  Z2SS   DN                 
      1.01286287E-05    2      1000025         1                       # DNL    -->  Z3SS   DN                 
      1.59977093E-01    2      1000035         1                       # DNL    -->  Z4SS   DN                 
      4.97409314E-01    2      1000021         1                       # DNL    -->  GLSS   DN                 
      1.75315496E-02    2     -1000024         2                       # DNL    -->  W1SS-  UP                 
      3.14110041E-01    2     -1000037         2                       # DNL    -->  W2SS-  UP                 
#         PDG         Width
DECAY   1000003  2.71441254E+02   # STL   decays
#          BR          NDA       ID1       ID2       ID3       ID4
      6.35384535E-03    2      1000022         3                       # STL    -->  Z1SS   ST                 
      4.60802903E-03    2      1000023         3                       # STL    -->  Z2SS   ST                 
      1.01286287E-05    2      1000025         3                       # STL    -->  Z3SS   ST                 
      1.59977093E-01    2      1000035         3                       # STL    -->  Z4SS   ST                 
      4.97409314E-01    2      1000021         3                       # STL    -->  GLSS   ST                 
      1.75315496E-02    2     -1000024         4                       # STL    -->  W1SS-  CH                 
      3.14110041E-01    2     -1000037         4                       # STL    -->  W2SS-  CH                 
#         PDG         Width
DECAY   1000004  2.71434723E+02   # CHL   decays
#          BR          NDA       ID1       ID2       ID3       ID4
      6.33816095E-03    2      1000022         4                       # CHL    -->  Z1SS   CH                 
      4.99100098E-03    2      1000023         4                       # CHL    -->  Z2SS   CH                 
      5.70151724E-06    2      1000025         4                       # CHL    -->  Z3SS   CH                 
      1.59623131E-01    2      1000035         4                       # CHL    -->  Z4SS   CH                 
      4.97367144E-01    2      1000021         4                       # CHL    -->  GLSS   CH                 
      1.95820257E-02    2      1000024         3                       # CHL    -->  W1SS+  ST                 
      3.12092841E-01    2      1000037         3                       # CHL    -->  W2SS+  ST                 
#         PDG         Width
DECAY   1000005  1.56403885E+02   # BT1   decays
#          BR          NDA       ID1       ID2       ID3       ID4
      4.02104445E-02    2      1000022         5                       # BT1    -->  Z1SS   BT                 
      1.19029418E-01    2      1000023         5                       # BT1    -->  Z2SS   BT                 
      1.18541934E-01    2      1000025         5                       # BT1    -->  Z3SS   BT                 
      6.40663668E-04    2      1000035         5                       # BT1    -->  Z4SS   BT                 
      4.82878774E-01    2      1000021         5                       # BT1    -->  GLSS   BT                 
      2.33913645E-01    2     -1000024         6                       # BT1    -->  W1SS-  TP                 
      4.78374818E-03    2     -1000037         6                       # BT1    -->  W2SS-  TP                 
      1.34843333E-06    2          -24   1000006                       # BT1    -->  W-     TP1                
#         PDG         Width
DECAY   1000006  2.77245758E+02   # TP1   decays
#          BR          NDA       ID1       ID2       ID3       ID4
      1.56550750E-01    2      1000021         6                       # TP1    -->  GLSS   TP                 
      8.42745602E-02    2      1000022         6                       # TP1    -->  Z1SS   TP                 
      1.85310081E-01    2      1000023         6                       # TP1    -->  Z2SS   TP                 
      1.90707177E-01    2      1000025         6                       # TP1    -->  Z3SS   TP                 
      5.24876360E-03    2      1000035         6                       # TP1    -->  Z4SS   TP                 
      3.57367307E-01    2      1000024         5                       # TP1    -->  W1SS+  BT                 
      2.05413662E-02    2      1000037         5                       # TP1    -->  W2SS+  BT                 
#         PDG         Width
DECAY   2000002  1.21421440E+02   # UPR   decays
#          BR          NDA       ID1       ID2       ID3       ID4
      2.13212430E-01    2      1000022         2                       # UPR    -->  Z1SS   UP                 
      6.33227828E-05    2      1000023         2                       # UPR    -->  Z2SS   UP                 
      5.23260587E-06    2      1000025         2                       # UPR    -->  Z3SS   UP                 
      1.61212472E-06    2      1000035         2                       # UPR    -->  Z4SS   UP                 
      7.86717415E-01    2      1000021         2                       # UPR    -->  GLSS   UP                 
#         PDG         Width
DECAY   2000001  9.75522766E+01   # DNR   decays
#          BR          NDA       ID1       ID2       ID3       ID4
      6.58453032E-02    2      1000022         1                       # DNR    -->  Z1SS   DN                 
      1.95210923E-05    2      1000023         1                       # DNR    -->  Z2SS   DN                 
      1.61308276E-06    2      1000025         1                       # DNR    -->  Z3SS   DN                 
      4.96724056E-07    2      1000035         1                       # DNR    -->  Z4SS   DN                 
      9.34133053E-01    2      1000021         1                       # DNR    -->  GLSS   DN                 
#         PDG         Width
DECAY   2000003  9.75522766E+01   # STR   decays
#          BR          NDA       ID1       ID2       ID3       ID4
      6.58453032E-02    2      1000022         3                       # STR    -->  Z1SS   ST                 
      1.95210923E-05    2      1000023         3                       # STR    -->  Z2SS   ST                 
      1.61308276E-06    2      1000025         3                       # STR    -->  Z3SS   ST                 
      4.96724056E-07    2      1000035         3                       # STR    -->  Z4SS   ST                 
      9.34133053E-01    2      1000021         3                       # STR    -->  GLSS   ST                 
#         PDG         Width
DECAY   2000004  1.21421440E+02   # CHR   decays
#          BR          NDA       ID1       ID2       ID3       ID4
      2.13212430E-01    2      1000022         4                       # CHR    -->  Z1SS   CH                 
      6.33227755E-05    2      1000023         4                       # CHR    -->  Z2SS   CH                 
      5.23260542E-06    2      1000025         4                       # CHR    -->  Z3SS   CH                 
      1.61212461E-06    2      1000035         4                       # CHR    -->  Z4SS   CH                 
      7.86717415E-01    2      1000021         4                       # CHR    -->  GLSS   CH                 
#         PDG         Width
DECAY   2000005  3.93687744E+02   # BT2   decays
#          BR          NDA       ID1       ID2       ID3       ID4
      4.11286391E-03    2      1000022         5                       # BT2    -->  Z1SS   BT                 
      5.04061915E-02    2      1000023         5                       # BT2    -->  Z2SS   BT                 
      5.01668155E-02    2      1000025         5                       # BT2    -->  Z3SS   BT                 
      1.05706871E-01    2      1000035         5                       # BT2    -->  Z4SS   BT                 
      2.61501253E-01    2      1000021         5                       # BT2    -->  GLSS   BT                 
      2.96109527E-01    2     -1000024         6                       # BT2    -->  W1SS-  TP                 
      2.24960953E-01    2     -1000037         6                       # BT2    -->  W2SS-  TP                 
      8.00046371E-04    2          -24   1000006                       # BT2    -->  W-     TP1                
      2.90087564E-03    2           23   1000005                       # BT2    -->  Z0     BT1                
      3.33460583E-03    2           25   1000005                       # BT2    -->  HL0    BT1                
#         PDG         Width
DECAY   2000006  4.02480804E+02   # TP2   decays
#          BR          NDA       ID1       ID2       ID3       ID4
      2.64648467E-01    2      1000021         6                       # TP2    -->  GLSS   TP                 
      1.04742408E-01    2      1000024         5                       # TP2    -->  W1SS+  BT                 
      2.04936653E-01    2      1000037         5                       # TP2    -->  W2SS+  BT                 
      4.67917504E-04    2           23   1000006                       # TP2    -->  Z0     TP1                
      2.12038774E-03    2           25   1000006                       # TP2    -->  HL0    TP1                
      8.30838177E-03    2           24   1000005                       # TP2    -->  W+     BT1                
      4.11139382E-03    2      1000022         6                       # TP2    -->  Z1SS   TP                 
      1.50837213E-01    2      1000023         6                       # TP2    -->  Z2SS   TP                 
      1.52867660E-01    2      1000025         6                       # TP2    -->  Z3SS   TP                 
      1.06959529E-01    2      1000035         6                       # TP2    -->  Z4SS   TP                 
#         PDG         Width
DECAY   1000011  1.02749853E+01   # EL-   decays
#          BR          NDA       ID1       ID2       ID3       ID4
      3.72760117E-01    2      1000022        11                       # EL-    -->  Z1SS   E-                 
      1.05272727E-02    2      1000023        11                       # EL-    -->  Z2SS   E-                 
      4.89906779E-06    2      1000025        11                       # EL-    -->  Z3SS   E-                 
      1.78227827E-01    2      1000035        11                       # EL-    -->  Z4SS   E-                 
      3.07817739E-02    2     -1000024        12                       # EL-    -->  W1SS-  NUE                
      4.07698125E-01    2     -1000037        12                       # EL-    -->  W2SS-  NUE                
      5.97506548E-20    2           11   1000039                       # EL-    -->  E-     GVSS               
#         PDG         Width
DECAY   1000013  1.02749853E+01   # MUL-  decays
#          BR          NDA       ID1       ID2       ID3       ID4
      3.72760117E-01    2      1000022        13                       # MUL-   -->  Z1SS   MU-                
      1.05272727E-02    2      1000023        13                       # MUL-   -->  Z2SS   MU-                
      4.89906779E-06    2      1000025        13                       # MUL-   -->  Z3SS   MU-                
      1.78227827E-01    2      1000035        13                       # MUL-   -->  Z4SS   MU-                
      3.07817739E-02    2     -1000024        14                       # MUL-   -->  W1SS-  NUM                
      4.07698125E-01    2     -1000037        14                       # MUL-   -->  W2SS-  NUM                
      5.97506548E-20    2           13   1000039                       # MUL-   -->  MU-    GVSS               
#         PDG         Width
DECAY   1000015  0   # TAU1- decays
#          BR          NDA       ID1       ID2       ID3       ID4
      1.00000000E+00    2           15   1000039                       # TAU1-  -->  TAU-   GVSS               
#         PDG         Width
DECAY   1000012  1.00041218E+01   # NUEL  decays
#          BR          NDA       ID1       ID2       ID3       ID4
      3.79999995E-01    2      1000022        12                       # NUEL   -->  Z1SS   NUE                
      8.27405043E-03    2      1000023        12                       # NUEL   -->  Z2SS   NUE                
      3.04979403E-05    2      1000025        12                       # NUEL   -->  Z3SS   NUE                
      1.76741928E-01    2      1000035        12                       # NUEL   -->  Z4SS   NUE                
      3.42638865E-02    2      1000024        11                       # NUEL   -->  W1SS+  E-                 
      4.00689662E-01    2      1000037        11                       # NUEL   -->  W2SS+  E-                 
      6.01106012E-20    2           12   1000039                       # NUEL   -->  NUE    GVSS               
#         PDG         Width
DECAY   1000014  1.00041218E+01   # NUML  decays
#          BR          NDA       ID1       ID2       ID3       ID4
      3.79999995E-01    2      1000022        14                       # NUML   -->  Z1SS   NUM                
      8.27405043E-03    2      1000023        14                       # NUML   -->  Z2SS   NUM                
      3.04979403E-05    2      1000025        14                       # NUML   -->  Z3SS   NUM                
      1.76741928E-01    2      1000035        14                       # NUML   -->  Z4SS   NUM                
      3.42638865E-02    2      1000024        13                       # NUML   -->  W1SS+  MU-                
      4.00689662E-01    2      1000037        13                       # NUML   -->  W2SS+  MU-                
      6.01106012E-20    2           14   1000039                       # NUML   -->  NUM    GVSS               
#         PDG         Width
DECAY   1000016  1.35891542E+01   # NUTL  decays
#          BR          NDA       ID1       ID2       ID3       ID4
      2.69011796E-01    2      1000022        16                       # NUTL   -->  Z1SS   NUT                
      5.31853829E-03    2      1000023        16                       # NUTL   -->  Z2SS   NUT                
      1.95784778E-05    2      1000025        16                       # NUTL   -->  Z3SS   NUT                
      1.05654754E-01    2      1000035        16                       # NUTL   -->  Z4SS   NUT                
      2.18905419E-01    2      1000024        15                       # NUTL   -->  W1SS+  TAU-               
      2.52488792E-01    2      1000037        15                       # NUTL   -->  W2SS+  TAU-               
      1.48601100E-01    2           24   1000015                       # NUTL   -->  W+     TAU1-              
      4.01948127E-20    2           16   1000039                       # NUTL   -->  NUT    GVSS               
#         PDG         Width
DECAY   2000011  7.35709727E-01   # ER-   decays
#          BR          NDA       ID1       ID2       ID3       ID4
      1.00000000E+00    2      1000022        11                       # ER-    -->  Z1SS   E-                 
      5.36419346E-11    3      1000015        11       -15             # ER-    -->  TAU1-  E-     TAU+        
      6.78340092E-11    3     -1000015        11        15             # ER-    -->  TAU1+  E-     TAU-        
      1.29788843E-14    3      1000015        12       -16             # ER-    -->  TAU1-  NUE    ANUT        
      3.00596142E-20    2           11   1000039                       # ER-    -->  E-     GVSS               
#         PDG         Width
DECAY   2000013  7.35709608E-01   # MUR-  decays
#          BR          NDA       ID1       ID2       ID3       ID4
      1.00000000E+00    2      1000022        13                       # MUR-   -->  Z1SS   MU-                
      5.36419451E-11    3      1000015        13       -15             # MUR-   -->  TAU1-  MU-    TAU+        
      6.78340162E-11    3     -1000015        13        15             # MUR-   -->  TAU1+  MU-    TAU-        
      5.52468238E-10    3      1000015        14       -16             # MUR-   -->  TAU1-  NUM    ANUT        
      3.00596174E-20    2           13   1000039                       # MUR-   -->  MU-    GVSS               
#         PDG         Width
DECAY   2000015  1.74674015E+01   # TAU2- decays
#          BR          NDA       ID1       ID2       ID3       ID4
      2.10007474E-01    2      1000022        15                       # TAU2-  -->  Z1SS   TAU-               
      9.56772566E-02    2      1000023        15                       # TAU2-  -->  Z2SS   TAU-               
      9.18953270E-02    2      1000025        15                       # TAU2-  -->  Z3SS   TAU-               
      8.47306624E-02    2      1000035        15                       # TAU2-  -->  Z4SS   TAU-               
      1.45894047E-02    2     -1000024        16                       # TAU2-  -->  W1SS-  NUT                
      1.95598289E-01    2     -1000037        16                       # TAU2-  -->  W2SS-  NUT                
      5.89978099E-02    2           23   1000015                       # TAU2-  -->  Z0     TAU1-              
      2.48503774E-01    2           25   1000015                       # TAU2-  -->  HL0    TAU1-              
#         PDG         Width
DECAY   1000022  0   # Z1SS  decays
#          BR          NDA       ID1       ID2       ID3       ID4
      5.00000000E-01    2      1000015       -15                       # Z1SS   -->  TAU1-  TAU+               
      5.00000000E-01    2     -1000015        15                       # Z1SS   -->  TAU1+  TAU-               
      1.46658911E-16    2      1000039        22                       # Z1SS   -->  GVSS   GM                 
      3.70342988E-18    3      1000039        11       -11             # Z1SS   -->  GVSS   E-     E+          
      4.40046752E-17    2      1000039        23                       # Z1SS   -->  GVSS   Z0                 
      7.64921135E-21    2      1000039        25                       # Z1SS   -->  GVSS   HL0                
#         PDG         Width
DECAY   1000023  5.63647556E+00   # Z2SS  decays
#          BR          NDA       ID1       ID2       ID3       ID4
      5.58579281E-08    2      1000022        22                       # Z2SS   -->  Z1SS   GM                 
      2.13769451E-02    2      1000022        23                       # Z2SS   -->  Z1SS   Z0                 
      7.66084196E-10    3      1000022         2        -2             # Z2SS   -->  Z1SS   UP     UB          
      6.36029063E-10    3      1000022         1        -1             # Z2SS   -->  Z1SS   DN     DB          
      6.36029063E-10    3      1000022         3        -3             # Z2SS   -->  Z1SS   ST     SB          
      7.66084196E-10    3      1000022         4        -4             # Z2SS   -->  Z1SS   CH     CB          
      3.67039252E-06    3      1000022         5        -5             # Z2SS   -->  Z1SS   BT     BB          
      2.94344630E-07    3      1000022        11       -11             # Z2SS   -->  Z1SS   E-     E+          
      2.94344630E-07    3      1000022        13       -13             # Z2SS   -->  Z1SS   MU-    MU+         
      3.42002932E-06    3      1000022        15       -15             # Z2SS   -->  Z1SS   TAU-   TAU+        
      2.38255751E-07    3      1000022        12       -12             # Z2SS   -->  Z1SS   NUE    ANUE        
      2.38255751E-07    3      1000022        14       -14             # Z2SS   -->  Z1SS   NUM    ANUM        
      2.71378923E-07    3      1000022        16       -16             # Z2SS   -->  Z1SS   NUT    ANUT        
      3.41754317E-01    2      1000022        25                       # Z2SS   -->  Z1SS   HL0                
      1.63962759E-04    2      2000011       -11                       # Z2SS   -->  ER-    E+                 
      1.63962759E-04    2     -2000011        11                       # Z2SS   -->  ER+    E-                 
      1.63962759E-04    2      2000013       -13                       # Z2SS   -->  MUR-   MU+                
      1.63962759E-04    2     -2000013        13                       # Z2SS   -->  MUR+   MU-                
      3.18102211E-01    2      1000015       -15                       # Z2SS   -->  TAU1-  TAU+               
      3.18102211E-01    2     -1000015        15                       # Z2SS   -->  TAU1+  TAU-               
      2.69284448E-22    2      1000039        22                       # Z2SS   -->  GVSS   GM                 
      7.03983179E-24    3      1000039        11       -11             # Z2SS   -->  GVSS   E-     E+          
      7.76974546E-21    2      1000039        23                       # Z2SS   -->  GVSS   Z0                 
      6.57830851E-21    2      1000039        25                       # Z2SS   -->  GVSS   HL0                
#         PDG         Width
DECAY   1000025  5.34705973E+00   # Z3SS  decays
#          BR          NDA       ID1       ID2       ID3       ID4
      4.58577141E-08    2      1000022        22                       # Z3SS   -->  Z1SS   GM                 
      1.17993957E-11    2      1000023        22                       # Z3SS   -->  Z2SS   GM                 
      2.86286771E-01    2      1000022        23                       # Z3SS   -->  Z1SS   Z0                 
      3.05016342E-12    3      1000022         2        -2             # Z3SS   -->  Z1SS   UP     UB          
      7.19580537E-13    3      1000022         1        -1             # Z3SS   -->  Z1SS   DN     DB          
      7.19580537E-13    3      1000022         3        -3             # Z3SS   -->  Z1SS   ST     SB          
      3.05016342E-12    3      1000022         4        -4             # Z3SS   -->  Z1SS   CH     CB          
      4.10859775E-06    3      1000022         5        -5             # Z3SS   -->  Z1SS   BT     BB          
      5.91890703E-11    3      1000022        11       -11             # Z3SS   -->  Z1SS   E-     E+          
      5.91890703E-11    3      1000022        13       -13             # Z3SS   -->  Z1SS   MU-    MU+         
      3.42834051E-06    3      1000022        15       -15             # Z3SS   -->  Z1SS   TAU-   TAU+        
      3.80205617E-10    3      1000022        12       -12             # Z3SS   -->  Z1SS   NUE    ANUE        
      3.80205617E-10    3      1000022        14       -14             # Z3SS   -->  Z1SS   NUM    ANUM        
      4.36689296E-10    3      1000022        16       -16             # Z3SS   -->  Z1SS   NUT    ANUT        
      6.76979917E-10    3      1000023         2        -2             # Z3SS   -->  Z2SS   UP     UB          
      8.72969974E-10    3      1000023         1        -1             # Z3SS   -->  Z2SS   DN     DB          
      8.72969974E-10    3      1000023         3        -3             # Z3SS   -->  Z2SS   ST     SB          
      6.76979917E-10    3      1000023         4        -4             # Z3SS   -->  Z2SS   CH     CB          
      1.98032576E-10    3      1000023        11       -11             # Z3SS   -->  Z2SS   E-     E+          
      1.98032576E-10    3      1000023        13       -13             # Z3SS   -->  Z2SS   MU-    MU+         
      1.19170271E-10    3      1000023        15       -15             # Z3SS   -->  Z2SS   TAU-   TAU+        
      3.94024008E-10    3      1000023        12       -12             # Z3SS   -->  Z2SS   NUE    ANUE        
      3.94024008E-10    3      1000023        14       -14             # Z3SS   -->  Z2SS   NUM    ANUM        
      3.94024091E-10    3      1000023        16       -16             # Z3SS   -->  Z2SS   NUT    ANUT        
      2.32883561E-02    2      1000022        25                       # Z3SS   -->  Z1SS   HL0                
      1.44300657E-05    2      2000011       -11                       # Z3SS   -->  ER-    E+                 
      1.44300657E-05    2     -2000011        11                       # Z3SS   -->  ER+    E-                 
      1.44300657E-05    2      2000013       -13                       # Z3SS   -->  MUR-   MU+                
      1.44300657E-05    2     -2000013        13                       # Z3SS   -->  MUR+   MU-                
      3.45179766E-01    2      1000015       -15                       # Z3SS   -->  TAU1-  TAU+               
      3.45179766E-01    2     -1000015        15                       # Z3SS   -->  TAU1+  TAU-               
      5.62322117E-26    2      1000039        22                       # Z3SS   -->  GVSS   GM                 
      1.47026946E-27    3      1000039        11       -11             # Z3SS   -->  GVSS   E-     E+          
      7.25454119E-21    2      1000039        23                       # Z3SS   -->  GVSS   Z0                 
      7.92532892E-21    2      1000039        25                       # Z3SS   -->  GVSS   HL0                
#         PDG         Width
DECAY   1000035  8.81996059E+00   # Z4SS  decays
#          BR          NDA       ID1       ID2       ID3       ID4
      2.56098831E-12    2      1000022        22                       # Z4SS   -->  Z1SS   GM                 
      1.00625407E-07    2      1000023        22                       # Z4SS   -->  Z2SS   GM                 
      2.29089935E-07    2      1000025        22                       # Z4SS   -->  Z3SS   GM                 
      2.85080969E-01    2      1000024       -24                       # Z4SS   -->  W1SS+  W-                 
      2.85080969E-01    2     -1000024        24                       # Z4SS   -->  W1SS-  W+                 
      7.00343167E-04    3     -1000037         2        -1             # Z4SS   -->  W2SS-  UP     DB          
      2.33447718E-04    3     -1000037        12       -11             # Z4SS   -->  W2SS-  NUE    E+          
      2.33447718E-04    3     -1000037        14       -13             # Z4SS   -->  W2SS-  NUM    MU+         
      7.00343167E-04    3      1000037         1        -2             # Z4SS   -->  W2SS+  DN     UB          
      2.33447718E-04    3      1000037        11       -12             # Z4SS   -->  W2SS+  E-     ANUE        
      2.33447718E-04    3      1000037        13       -14             # Z4SS   -->  W2SS+  MU-    ANUM        
      7.00343167E-04    3     -1000037         4        -3             # Z4SS   -->  W2SS-  CH     SB          
      2.33447718E-04    3     -1000037        16       -15             # Z4SS   -->  W2SS-  NUT    TAU+        
      7.00343167E-04    3      1000037         3        -4             # Z4SS   -->  W2SS+  ST     CB          
      2.33447718E-04    3      1000037        15       -16             # Z4SS   -->  W2SS+  TAU-   ANUT        
      4.69753781E-04    2      1000022        23                       # Z4SS   -->  Z1SS   Z0                 
      3.64951236E-04    2      1000023        23                       # Z4SS   -->  Z2SS   Z0                 
      1.82039827E-01    2      1000025        23                       # Z4SS   -->  Z3SS   Z0                 
      3.36651027E-08    3      1000022         2        -2             # Z4SS   -->  Z1SS   UP     UB          
      3.38172441E-08    3      1000022         1        -1             # Z4SS   -->  Z1SS   DN     DB          
      3.38172441E-08    3      1000022         3        -3             # Z4SS   -->  Z1SS   ST     SB          
      3.36651027E-08    3      1000022         4        -4             # Z4SS   -->  Z1SS   CH     CB          
      1.20830592E-07    3      1000022         5        -5             # Z4SS   -->  Z1SS   BT     BB          
      1.59301217E-05    3      1000022        11       -11             # Z4SS   -->  Z1SS   E-     E+          
      1.59301217E-05    3      1000022        13       -13             # Z4SS   -->  Z1SS   MU-    MU+         
      1.89478360E-05    3      1000022        15       -15             # Z4SS   -->  Z1SS   TAU-   TAU+        
      1.65526963E-05    3      1000022        12       -12             # Z4SS   -->  Z1SS   NUE    ANUE        
      1.65526963E-05    3      1000022        14       -14             # Z4SS   -->  Z1SS   NUM    ANUM        
      1.91755917E-05    3      1000022        16       -16             # Z4SS   -->  Z1SS   NUT    ANUT        
      9.86346334E-12    3      1000023         2        -2             # Z4SS   -->  Z2SS   UP     UB          
      9.12597255E-12    3      1000023         1        -1             # Z4SS   -->  Z2SS   DN     DB          
      9.12597255E-12    3      1000023         3        -3             # Z4SS   -->  Z2SS   ST     SB          
      9.86346334E-12    3      1000023         4        -4             # Z4SS   -->  Z2SS   CH     CB          
      4.60329730E-09    3      1000023         5        -5             # Z4SS   -->  Z2SS   BT     BB          
      1.26955335E-09    3      1000023        11       -11             # Z4SS   -->  Z2SS   E-     E+          
      1.26955335E-09    3      1000023        13       -13             # Z4SS   -->  Z2SS   MU-    MU+         
      2.79097350E-08    3      1000023        15       -15             # Z4SS   -->  Z2SS   TAU-   TAU+        
      1.05328612E-09    3      1000023        12       -12             # Z4SS   -->  Z2SS   NUE    ANUE        
      1.05328612E-09    3      1000023        14       -14             # Z4SS   -->  Z2SS   NUM    ANUM        
      1.31938083E-09    3      1000023        16       -16             # Z4SS   -->  Z2SS   NUT    ANUT        
      3.32134896E-15    3      1000025         2        -2             # Z4SS   -->  Z3SS   UP     UB          
      5.91283461E-15    3      1000025         1        -1             # Z4SS   -->  Z3SS   DN     DB          
      5.91283461E-15    3      1000025         3        -3             # Z4SS   -->  Z3SS   ST     SB          
      3.32134896E-15    3      1000025         4        -4             # Z4SS   -->  Z3SS   CH     CB          
      4.49813742E-09    3      1000025         5        -5             # Z4SS   -->  Z3SS   BT     BB          
      1.79512519E-13    3      1000025        11       -11             # Z4SS   -->  Z3SS   E-     E+          
      1.79512519E-13    3      1000025        13       -13             # Z4SS   -->  Z3SS   MU-    MU+         
      2.37300952E-08    3      1000025        15       -15             # Z4SS   -->  Z3SS   TAU-   TAU+        
      1.18066928E-12    3      1000025        12       -12             # Z4SS   -->  Z3SS   NUE    ANUE        
      1.18066928E-12    3      1000025        14       -14             # Z4SS   -->  Z3SS   NUM    ANUM        
      1.48396952E-12    3      1000025        16       -16             # Z4SS   -->  Z3SS   NUT    ANUT        
      5.58062363E-03    2      1000022        25                       # Z4SS   -->  Z1SS   HL0                
      2.24791512E-01    2      1000023        25                       # Z4SS   -->  Z2SS   HL0                
      2.93679797E-04    2      1000025        25                       # Z4SS   -->  Z3SS   HL0                
      3.80442634E-06    2      2000011       -11                       # Z4SS   -->  ER-    E+                 
      3.80442634E-06    2     -2000011        11                       # Z4SS   -->  ER+    E-                 
      3.80442634E-06    2      2000013       -13                       # Z4SS   -->  MUR-   MU+                
      3.80442634E-06    2     -2000013        13                       # Z4SS   -->  MUR+   MU-                
      5.98834781E-03    2      1000015       -15                       # Z4SS   -->  TAU1-  TAU+               
      5.98834781E-03    2     -1000015        15                       # Z4SS   -->  TAU1+  TAU-               
      6.16333526E-21    2      1000039        22                       # Z4SS   -->  GVSS   GM                 
      1.61973124E-22    3      1000039        11       -11             # Z4SS   -->  GVSS   E-     E+          
      2.08719059E-20    2      1000039        23                       # Z4SS   -->  GVSS   Z0                 
      2.01525045E-22    2      1000039        25                       # Z4SS   -->  GVSS   HL0                
#         PDG         Width
DECAY   1000024  5.43088293E+00   # W1SS+ decays
#          BR          NDA       ID1       ID2       ID3       ID4
      3.25152594E-09    3      1000022         2        -1             # W1SS+  -->  Z1SS   UP     DB          
      3.25152594E-09    3      1000022         4        -3             # W1SS+  -->  Z1SS   CH     SB          
      1.36542087E-06    3      1000022       -11        12             # W1SS+  -->  Z1SS   E+     NUE         
      1.36542087E-06    3      1000022       -13        14             # W1SS+  -->  Z1SS   MU+    NUM         
      5.60592753E-06    3      1000022       -15        16             # W1SS+  -->  Z1SS   TAU+   NUT         
      3.17382365E-01    2      1000022        24                       # W1SS+  -->  Z1SS   W+                 
      2.60841305E-04    3      1000023         2        -1             # W1SS+  -->  Z2SS   UP     DB          
      2.60841305E-04    3      1000023         4        -3             # W1SS+  -->  Z2SS   CH     SB          
      8.69502692E-05    3      1000023       -11        12             # W1SS+  -->  Z2SS   E+     NUE         
      8.69502692E-05    3      1000023       -13        14             # W1SS+  -->  Z2SS   MU+    NUM         
      8.69505311E-05    3      1000023       -15        16             # W1SS+  -->  Z2SS   TAU+   NUT         
      1.01850630E-04    3      1000025         2        -1             # W1SS+  -->  Z3SS   UP     DB          
      1.01850630E-04    3      1000025         4        -3             # W1SS+  -->  Z3SS   CH     SB          
      3.39502403E-05    3      1000025       -11        12             # W1SS+  -->  Z3SS   E+     NUE         
      3.39502403E-05    3      1000025       -13        14             # W1SS+  -->  Z3SS   MU+    NUM         
      3.39502149E-05    3      1000025       -15        16             # W1SS+  -->  Z3SS   TAU+   NUT         
      6.81521237E-01    2     -1000015        16                       # W1SS+  -->  TAU1+  NUT                
#         PDG         Width
DECAY   1000037  3.06286621E+00   # W2SS+ decays
#          BR          NDA       ID1       ID2       ID3       ID4
      1.57624299E-07    3      1000022         2        -1             # W2SS+  -->  Z1SS   UP     DB          
      1.57624299E-07    3      1000022         4        -3             # W2SS+  -->  Z1SS   CH     SB          
      7.26374346E-05    3      1000022       -11        12             # W2SS+  -->  Z1SS   E+     NUE         
      7.26374346E-05    3      1000022       -13        14             # W2SS+  -->  Z1SS   MU+    NUM         
      8.51991790E-05    3      1000022       -15        16             # W2SS+  -->  Z1SS   TAU+   NUT         
      3.72295417E-02    2      1000022        24                       # W2SS+  -->  Z1SS   W+                 
      4.93665308E-12    3      1000023         2        -1             # W2SS+  -->  Z2SS   UP     DB          
      4.93665308E-12    3      1000023         4        -3             # W2SS+  -->  Z2SS   CH     SB          
      5.71856229E-10    3      1000023       -11        12             # W2SS+  -->  Z2SS   E+     NUE         
      5.71856229E-10    3      1000023       -13        14             # W2SS+  -->  Z2SS   MU+    NUM         
      1.96248386E-08    3      1000023       -15        16             # W2SS+  -->  Z2SS   TAU+   NUT         
      8.24164301E-02    2      1000023        24                       # W2SS+  -->  Z2SS   W+                 
      2.04220084E-14    3      1000025         2        -1             # W2SS+  -->  Z3SS   UP     DB          
      2.04220084E-14    3      1000025         4        -3             # W2SS+  -->  Z3SS   CH     SB          
      2.50409546E-12    3      1000025       -11        12             # W2SS+  -->  Z3SS   E+     NUE         
      2.50409546E-12    3      1000025       -13        14             # W2SS+  -->  Z3SS   MU+    NUM         
      1.66291994E-08    3      1000025       -15        16             # W2SS+  -->  Z3SS   TAU+   NUT         
      4.39824075E-01    2      1000025        24                       # W2SS+  -->  Z3SS   W+                 
      6.82648718E-02    2     -1000015        16                       # W2SS+  -->  TAU1+  NUT                
      1.24939114E-01    2      1000024        23                       # W2SS+  -->  W1SS+  Z0                 
      3.76019181E-12    3      1000024         1        -1             # W2SS+  -->  W1SS+  DN     DB          
      3.76019181E-12    3      1000024         3        -3             # W2SS+  -->  W1SS+  ST     SB          
      3.38790215E-12    3      1000024         2        -2             # W2SS+  -->  W1SS+  UP     UB          
      3.38790215E-12    3      1000024         4        -4             # W2SS+  -->  W1SS+  CH     CB          
      4.02046618E-10    3      1000024        12       -12             # W2SS+  -->  W1SS+  NUE    ANUE        
      4.02046618E-10    3      1000024        14       -14             # W2SS+  -->  W1SS+  NUM    ANUM        
      4.67246908E-10    3      1000024        11       -11             # W2SS+  -->  W1SS+  E-     E+          
      4.67246908E-10    3      1000024        13       -13             # W2SS+  -->  W1SS+  MU-    MU+         
      5.84422566E-10    3      1000024        15       -15             # W2SS+  -->  W1SS+  TAU-   TAU+        
      2.47095123E-01    2      1000024        25                       # W2SS+  -->  W1SS+  HL0                
#         PDG         Width
DECAY        25  4.93864529E-03   # HL0   decays
#          BR          NDA       ID1       ID2       ID3       ID4
      4.29666569E-09    2           11       -11                       # HL0    -->  E-     E+                 
      1.81412208E-04    2           13       -13                       # HL0    -->  MU-    MU+                
      5.18960878E-02    2           15       -15                       # HL0    -->  TAU-   TAU+               
      5.38631457E-06    2            1        -1                       # HL0    -->  DN     DB                 
      2.17634160E-03    2            3        -3                       # HL0    -->  ST     SB                 
      7.05368519E-01    2            5        -5                       # HL0    -->  BT     BB                 
      1.72008822E-06    2            2        -2                       # HL0    -->  UP     UB                 
      3.19855176E-02    2            4        -4                       # HL0    -->  CH     CB                 
      2.07494153E-03    2           22        22                       # HL0    -->  GM     GM                 
      4.24597003E-02    2           21        21                       # HL0    -->  GL     GL                 
      8.20001774E-03    3           24        11       -12             # HL0    -->  W+     E-     ANUE        
      8.20001774E-03    3           24        13       -14             # HL0    -->  W+     MU-    ANUM        
      8.20001774E-03    3           24        15       -16             # HL0    -->  W+     TAU-   ANUT        
      2.46000513E-02    3           24        -2         1             # HL0    -->  W+     UB     DN          
      2.46000513E-02    3           24        -4         3             # HL0    -->  W+     CB     ST          
      8.20001774E-03    3          -24       -11        12             # HL0    -->  W-     E+     NUE         
      8.20001774E-03    3          -24       -13        14             # HL0    -->  W-     MU+    NUM         
      8.20001774E-03    3          -24       -15        16             # HL0    -->  W-     TAU+   NUT         
      2.46000513E-02    3          -24         2        -1             # HL0    -->  W-     UP     DB          
      2.46000513E-02    3          -24         4        -3             # HL0    -->  W-     CH     SB          
      1.11134024E-03    3           23        12       -12             # HL0    -->  Z0     NUE    ANUE        
      1.11134024E-03    3           23        14       -14             # HL0    -->  Z0     NUM    ANUM        
      1.11134024E-03    3           23        16       -16             # HL0    -->  Z0     NUT    ANUT        
      5.59326378E-04    3           23        11       -11             # HL0    -->  Z0     E-     E+          
      5.59326378E-04    3           23        13       -13             # HL0    -->  Z0     MU-    MU+         
      5.59326378E-04    3           23        15       -15             # HL0    -->  Z0     TAU-   TAU+        
      1.91620481E-03    3           23         2        -2             # HL0    -->  Z0     UP     UB          
      1.91620481E-03    3           23         4        -4             # HL0    -->  Z0     CH     CB          
      2.46854383E-03    3           23         1        -1             # HL0    -->  Z0     DN     DB          
      2.46854383E-03    3           23         3        -3             # HL0    -->  Z0     ST     SB          
      2.46854383E-03    3           23         5        -5             # HL0    -->  Z0     BT     BB          
#         PDG         Width
DECAY        35  1.18880859E+02   # HH0   decays
#          BR          NDA       ID1       ID2       ID3       ID4
      1.33713289E-08    2           11       -11                       # HH0    -->  E-     E+                 
      5.64561633E-04    2           13       -13                       # HH0    -->  MU-    MU+                
      1.61698982E-01    2           15       -15                       # HH0    -->  TAU-   TAU+               
      1.61965290E-05    2            1        -1                       # HH0    -->  DN     DB                 
      6.54422026E-03    2            3        -3                       # HH0    -->  ST     SB                 
      8.30305219E-01    2            5        -5                       # HH0    -->  BT     BB                 
      1.38536231E-12    2            2        -2                       # HH0    -->  UP     UB                 
      1.64348677E-08    2            4        -4                       # HH0    -->  CH     CB                 
      8.66668008E-04    2            6        -6                       # HH0    -->  TP     TB                 
      4.92629382E-10    2           22        22                       # HH0    -->  GM     GM                 
      5.69982497E-08    2           21        21                       # HH0    -->  GL     GL                 
      1.51238410E-07    2           24       -24                       # HH0    -->  W+     W-                 
      7.75920199E-08    2           23        23                       # HH0    -->  Z0     Z0                 
      3.36354833E-06    2      1000022   1000022                       # HH0    -->  Z1SS   Z1SS               
      4.58269426E-07    2           25        25                       # HH0    -->  HL0    HL0                
      8.83198403E-09    2      1000015  -1000015                       # HH0    -->  TAU1-  TAU1+              
#         PDG         Width
DECAY        36  1.18109802E+02   # HA0   decays
#          BR          NDA       ID1       ID2       ID3       ID4
      1.33706690E-08    2           11       -11                       # HA0    -->  E-     E+                 
      5.64533751E-04    2           13       -13                       # HA0    -->  MU-    MU+                
      1.61691085E-01    2           15       -15                       # HA0    -->  TAU-   TAU+               
      1.61964017E-05    2            1        -1                       # HA0    -->  DN     DB                 
      6.54416438E-03    2            3        -3                       # HA0    -->  ST     SB                 
      8.30299497E-01    2            5        -5                       # HA0    -->  BT     BB                 
      1.38265527E-12    2            2        -2                       # HA0    -->  UP     UB                 
      1.64136509E-08    2            4        -4                       # HA0    -->  CH     CB                 
      8.68705800E-04    2            6        -6                       # HA0    -->  TP     TB                 
      5.84144955E-09    2           22        22                       # HA0    -->  GM     GM                 
      1.21238349E-06    2           21        21                       # HA0    -->  GL     GL                 
      1.44267678E-05    2      1000022   1000022                       # HA0    -->  Z1SS   Z1SS               
      1.51012230E-07    2           25        23                       # HA0    -->  HL0    Z0                 
#         PDG         Width
DECAY        37  1.11652809E+02   # H+    decays
#          BR          NDA       ID1       ID2       ID3       ID4
      1.42393048E-08    2           12       -11                       # H+     -->  NUE    E+                 
      6.01209118E-04    2           14       -13                       # H+     -->  NUM    MU+                
      1.72195464E-01    2           16       -15                       # H+     -->  NUT    TAU+               
      1.60338823E-05    2            2        -1                       # H+     -->  UP     DB                 
      6.47851452E-03    2            4        -3                       # H+     -->  CH     SB                 
      8.20708573E-01    2            6        -5                       # H+     -->  TP     BB                 
      1.60920834E-07    2           25        24                       # H+     -->  HL0    W+                 
