#
#                              ======================
#                              | THE SUSYHIT OUTPUT |
#                              ======================
#
#
#              ------------------------------------------------------
#              |     This is the output of the SUSY-HIT package     |
#              |  created by A.Djouadi, M.Muehlleitner and M.Spira. |
#              |  In case of problems with SUSY-HIT email to        |
#              |           margarete.muehlleitner@kit.edu           |
#              |           michael.spira@psi.ch                     |
#              |           abdelhak.djouadi@cern.ch                 |
#              ------------------------------------------------------
#
#              ------------------------------------------------------
#              |  SUSY Les Houches Accord - MSSM Spectrum + Decays  |
#              |              based on the decay programs           |
#              |                                                    |
#              |                     SDECAY 1.5                     |
#              |                                                    |
#              |  Authors: M.Muhlleitner, A.Djouadi and Y.Mambrini  |
#              |  Ref.:    Comput.Phys.Commun.168(2005)46           |
#              |           [hep-ph/0311167]                         |
#              |                                                    |
#              |                     HDECAY 3.4                     |
#              |                                                    |
#              |  By: A.Djouadi,J.Kalinowski,M.Muhlleitner,M.Spira  |
#              |  Ref.:    Comput.Phys.Commun.108(1998)56           |
#              |           [hep-ph/9704448]                         |
#              |                                                    |
#              |                                                    |
#              |  If not stated otherwise all DRbar couplings and   |
#              |  soft SUSY breaking masses are given at the scale  |
#              |  Q=  0.60524258E+04
#              |                                                    |
#              ------------------------------------------------------
#
#
BLOCK DCINFO  # Decay Program information
     1   SDECAY/HDECAY # decay calculator
     2   1.5  /3.4    # version number
#
BLOCK SPINFO  # Spectrum calculator information
     1   SuSpect     # RGE +Spectrum calculator            
     2   2.41        # version number                      
#
BLOCK MODSEL  # Model selection
     1     3   # #AMSB                                             
#
BLOCK SMINPUTS  # Standard Model inputs
         1     1.27934000E+02   # alpha_em^-1(M_Z)^MSbar
         2     1.16639000E-05   # G_F [GeV^-2]
         3     1.17200000E-01   # alpha_S(M_Z)^MSbar
         4     9.11870000E+01   # M_Z pole mass
         5     4.25000000E+00   # mb(mb)^MSbar
         6     1.73100000E+02   # mt pole mass
         7     1.77710000E+00   # mtau pole mass
#
BLOCK MINPAR  # Input parameters - minimal models
         1     5.00000000E+03   # m0                  
         2     3.75000000E+05   # M_3                 
         3     5.00000000E+00   # tanbeta(mZ)         
         4     1.00000000E+00   # sign(mu)            
         5     1.00000000E+00   # cQ                  
         6     1.00000000E+00   # cuR                 
#
BLOCK EXTPAR  # Input parameters - non-minimal models
         0     6.05242579E+03   # EWSB                
#
BLOCK MASS  # Mass Spectrum
# PDG code           mass       particle
        24     8.05003074E+01   # W+
        25     1.21094167E+02   # h
        35     7.52897473E+03   # H
        36     7.52867133E+03   # A
        37     7.52938305E+03   # H+
         5     4.87877839E+00   # b-quark pole mass calculated from mb(mb)_Msbar
   1000001     1.00000000E+10   # ~d_L
   2000001     1.00000000E+10   # ~d_R  
   1000002     1.00000000E+10   # ~u_L  
   2000002     1.00000000E+10   # ~u_R  
   1000003     1.00000000E+10   # ~s_L  
   2000003     1.00000000E+10   # ~s_R  
   1000004     1.00000000E+10   # ~c_L  
   2000004     1.00000000E+10   # ~c_R  
   1000005     1.00000000E+10   # ~b_1  
   2000005     1.00000000E+10   # ~b_2  
   1000006     1.00000000E+10   # ~t_1  
   2000006     1.00000000E+10   # ~t_2  
   1000011     1.00000000E+10   # ~e_L  
   2000011     1.00000000E+10   # ~e_R  
   1000012     1.00000000E+10   # ~nu_eL  
   1000013     1.00000000E+10   # ~mu_L  
   2000013     1.00000000E+10   # ~mu_R  
   1000014     1.00000000E+10   # ~nu_muL  
   1000015     1.00000000E+10   # ~tau_1  
   2000015     1.00000000E+10   # ~tau_2  
   1000016     1.00000000E+10   # ~nu_tauL  
   1000021     1.00000000E+10   # ~g  
   1000022     1.19815381E+03   # ~chi_10
   1000023     1.00000000E+10   # ~chi_20  
   1000025     1.00000000E+10   # ~chi_30  
   1000035     1.00000000E+10   # ~chi_40  
   1000024     1.19815389E+03   # ~chi_1+
   1000037     1.00000000E+10   # ~chi_2+  
#
BLOCK NMIX  # Neutralino Mixing Matrix
  1  1     1.68799006E-04   # N_11
  1  2    -9.99875409E-01   # N_12
  1  3     1.46253901E-02   # N_13
  1  4    -5.93596403E-03   # N_14
  2  1     9.99840321E-01   # N_21
  2  2     4.41949463E-04   # N_22
  2  3     1.43632778E-02   # N_23
  2  4    -1.06223407E-02   # N_24
  3  1     2.64754439E-03   # N_31
  3  2    -6.14389361E-03   # N_32
  3  3    -7.07059871E-01   # N_33
  3  4    -7.07122041E-01   # N_34
  4  1     1.76718773E-02   # N_41
  4  2    -1.45335277E-02   # N_42
  4  3    -7.06856515E-01   # N_43
  4  4     7.06986810E-01   # N_44
#
BLOCK UMIX  # Chargino Mixing Matrix U
  1  1    -9.99786152E-01   # U_11
  1  2     2.06797192E-02   # U_12
  2  1     2.06797192E-02   # U_21
  2  2     9.99786152E-01   # U_22
#
BLOCK VMIX  # Chargino Mixing Matrix V
  1  1    -9.99964771E-01   # V_11
  1  2     8.39390273E-03   # V_12
  2  1     8.39390273E-03   # V_21
  2  2     9.99964771E-01   # V_22
#
BLOCK STOPMIX  # Stop Mixing Matrix
  1  1    -4.01669323E-02   # cos(theta_t)
  1  2     9.99192983E-01   # sin(theta_t)
  2  1    -9.99192983E-01   # -sin(theta_t)
  2  2    -4.01669323E-02   # cos(theta_t)
#
BLOCK SBOTMIX  # Sbottom Mixing Matrix
  1  1     9.99998468E-01   # cos(theta_b)
  1  2     1.75042785E-03   # sin(theta_b)
  2  1    -1.75042785E-03   # -sin(theta_b)
  2  2     9.99998468E-01   # cos(theta_b)
#
BLOCK STAUMIX  # Stau Mixing Matrix
  1  1     7.25257606E-02   # cos(theta_tau)
  1  2     9.97366539E-01   # sin(theta_tau)
  2  1    -9.97366539E-01   # -sin(theta_tau)
  2  2     7.25257606E-02   # cos(theta_tau)
#
BLOCK ALPHA  # Higgs mixing
          -2.09125225E-01   # Mixing angle in the neutral Higgs boson sector
#
BLOCK HMIX Q=  6.05242579E+03  # DRbar Higgs Parameters
         1     5.64193984E+03   # mu(Q)               
         2     4.71397005E+00   # tanbeta(Q)          
         3     2.43843483E+02   # vev(Q)              
         4     5.67956405E+07   # MA^2(Q)             
#
BLOCK GAUGE Q=  6.05242579E+03  # The gauge couplings
     1     3.66117130E-01   # gprime(Q) DRbar
     2     6.33485009E-01   # g(Q) DRbar
     3     9.72434844E-01   # g3(Q) DRbar
#
BLOCK AU Q=  6.05242579E+03  # The trilinear couplings
  1  1     1.20316568E+04   # A_u(Q) DRbar
  2  2     1.20316568E+04   # A_c(Q) DRbar
  3  3     5.68266517E+03   # A_t(Q) DRbar
#
BLOCK AD Q=  6.05242579E+03  # The trilinear couplings
  1  1     1.33822385E+04   # A_d(Q) DRbar
  2  2     1.33822385E+04   # A_s(Q) DRbar
  3  3     1.34416481E+04   # A_b(Q) DRbar
#
BLOCK AE Q=  6.05242579E+03  # The trilinear couplings
  1  1     3.74599883E+03   # A_e(Q) DRbar
  2  2     3.74599883E+03   # A_mu(Q) DRbar
  3  3     3.72888195E+03   # A_tau(Q) DRbar
#
BLOCK Yu Q=  6.05242579E+03  # The Yukawa couplings
  1  1     0.00000000E+00   # y_u(Q) DRbar
  2  2     0.00000000E+00   # y_c(Q) DRbar
  3  3     8.17228692E-01   # y_t(Q) DRbar
#
BLOCK Yd Q=  6.05242579E+03  # The Yukawa couplings
  1  1     0.00000000E+00   # y_d(Q) DRbar
  2  2     0.00000000E+00   # y_s(Q) DRbar
  3  3     6.55322569E-02   # y_b(Q) DRbar
#
BLOCK Ye Q=  6.05242579E+03  # The Yukawa couplings
  1  1     0.00000000E+00   # y_e(Q) DRbar
  2  2     0.00000000E+00   # y_mu(Q) DRbar
  3  3     4.88956849E-02   # y_tau(Q) DRbar
#
BLOCK MSOFT Q=  6.05242579E+03  # The soft SUSY breaking masses at the scale Q
         1     3.55885168E+03   # M_1                 
         2     1.12854640E+03   # M_2                 
         3    -6.52842489E+03   # M_3                 
        21     2.21226831E+07   # M^2_Hd              
        22    -2.87682671E+07   # M^2_Hu              
        31     4.77213229E+03   # M_eL                
        32     4.77213229E+03   # M_muL               
        33     4.76492175E+03   # M_tauL              
        34     4.72177495E+03   # M_eR                
        35     4.72177495E+03   # M_muR               
        36     4.70714695E+03   # M_tauR              
        41     7.86444093E+03   # M_q1L               
        42     7.86444093E+03   # M_q2L               
        43     6.73596244E+03   # M_q3L               
        44     7.90387449E+03   # M_uR                
        45     7.90387449E+03   # M_cR                
        46     5.43639732E+03   # M_tR                
        47     7.96080636E+03   # M_dR                
        48     7.96080636E+03   # M_sR                
        49     7.93716895E+03   # M_bR                
#
#
#
#                             =================
#                             |The decay table|
#                             =================
#
# - The QCD corrections to the decays gluino -> squark  + quark
#                                     squark -> gaugino + quark_prime
#                                     squark -> squark_prime + Higgs
#                                     squark -> gluino  + quark
#   are included.
#
# - The multi-body decays for the inos, stops and sbottoms are included.
#
# - The loop induced decays for the gluino, neutralinos and stops
#   are included.
#
# - The SUSY decays of the top quark are included.
#
#
#         PDG            Width
DECAY         6     1.40565097E+00   # top decays
#          BR         NDA      ID1       ID2
     1.00000000E+00    2           5        24   # BR(t ->  b    W+)
#
#         PDG            Width
DECAY   1000021     2.58773995E+00   # gluino decays
#          BR         NDA      ID1       ID2
     5.00000000E-01    2     1000006        -6   # BR(~g -> ~t_1  tb)
     5.00000000E-01    2    -1000006         6   # BR(~g -> ~t_1* t )
#
#         PDG            Width
DECAY   1000006     4.86674030E+00   # stop1 decays
#          BR         NDA      ID1       ID2
     2.69653664E-03    2     1000022         6   # BR(~t_1 -> ~chi_10 t )
     9.91900743E-01    2     1000023         6   # BR(~t_1 -> ~chi_20 t )
     5.40272046E-03    2     1000024         5   # BR(~t_1 -> ~chi_1+ b )
#
#         PDG            Width
DECAY   2000006     1.20930032E+02   # stop2 decays
#          BR         NDA      ID1       ID2
     2.05910911E-01    2     1000022         6   # BR(~t_2 -> ~chi_10 t )
     4.79209323E-03    2     1000023         6   # BR(~t_2 -> ~chi_20 t )
     4.30511274E-02    2     1000025         6   # BR(~t_2 -> ~chi_30 t )
     4.22538445E-02    2     1000035         6   # BR(~t_2 -> ~chi_40 t )
     4.12314222E-01    2     1000024         5   # BR(~t_2 -> ~chi_1+ b )
     6.09667406E-04    2     1000037         5   # BR(~t_2 -> ~chi_2+ b )
     1.86300170E-01    2     1000021         6   # BR(~t_2 -> ~g      t )
     4.22680053E-02    2     1000006        25   # BR(~t_2 -> ~t_1    h )
     6.24999598E-02    2     1000006        23   # BR(~t_2 -> ~t_1    Z )
#
#         PDG            Width
DECAY   1000005     1.27037972E+02   # sbottom1 decays
#          BR         NDA      ID1       ID2
     1.95802471E-01    2     1000022         5   # BR(~b_1 -> ~chi_10 b )
     4.22662546E-03    2     1000023         5   # BR(~b_1 -> ~chi_20 b )
     2.52056019E-04    2     1000025         5   # BR(~b_1 -> ~chi_30 b )
     2.58219587E-04    2     1000035         5   # BR(~b_1 -> ~chi_40 b )
     3.91135085E-01    2    -1000024         6   # BR(~b_1 -> ~chi_1- t )
     7.96477521E-02    2    -1000037         6   # BR(~b_1 -> ~chi_2- t )
     1.71762903E-01    2     1000021         5   # BR(~b_1 -> ~g      b )
     1.56914887E-01    2     1000006       -24   # BR(~b_1 -> ~t_1    W-)
#
#         PDG            Width
DECAY   2000005     9.71290779E+01   # sbottom2 decays
#          BR         NDA      ID1       ID2
     2.55546596E-08    2     1000022         5   # BR(~b_2 -> ~chi_10 b )
     3.11041824E-02    2     1000023         5   # BR(~b_2 -> ~chi_20 b )
     9.12902193E-04    2     1000025         5   # BR(~b_2 -> ~chi_30 b )
     9.16157827E-04    2     1000035         5   # BR(~b_2 -> ~chi_40 b )
     4.89955665E-08    2    -1000024         6   # BR(~b_2 -> ~chi_1- t )
     1.82540383E-03    2    -1000037         6   # BR(~b_2 -> ~chi_2- t )
     9.64641117E-01    2     1000021         5   # BR(~b_2 -> ~g      b )
     1.11665706E-04    2     1000005        25   # BR(~b_2 -> ~b_1    h )
     1.78358001E-04    2     1000005        23   # BR(~b_2 -> ~b_1    Z )
     4.20085077E-06    2     1000006       -24   # BR(~b_2 -> ~t_1    W-)
     3.05938045E-04    2     2000006       -24   # BR(~b_2 -> ~t_2    W-)
#
#         PDG            Width
DECAY   1000002     1.77294892E+02   # sup_L decays
#          BR         NDA      ID1       ID2
     1.65348364E-01    2     1000022         2   # BR(~u_L -> ~chi_10 u)
     4.20591375E-03    2     1000023         2   # BR(~u_L -> ~chi_20 u)
     1.41011702E-06    2     1000025         2   # BR(~u_L -> ~chi_30 u)
     5.49767963E-06    2     1000035         2   # BR(~u_L -> ~chi_40 u)
     3.30777354E-01    2     1000024         1   # BR(~u_L -> ~chi_1+ d)
     6.25660633E-06    2     1000037         1   # BR(~u_L -> ~chi_2+ d)
     4.99655204E-01    2     1000021         2   # BR(~u_L -> ~g      u)
#
#         PDG            Width
DECAY   2000002     1.03403525E+02   # sup_R decays
#          BR         NDA      ID1       ID2
     4.82391890E-09    2     1000022         2   # BR(~u_R -> ~chi_10 u)
     1.15946149E-01    2     1000023         2   # BR(~u_R -> ~chi_20 u)
     3.24564899E-07    2     1000025         2   # BR(~u_R -> ~chi_30 u)
     1.44478516E-05    2     1000035         2   # BR(~u_R -> ~chi_40 u)
     8.84039073E-01    2     1000021         2   # BR(~u_R -> ~g      u)
#
#         PDG            Width
DECAY   1000001     1.77307115E+02   # sdown_L decays
#          BR         NDA      ID1       ID2
     1.65366237E-01    2     1000022         1   # BR(~d_L -> ~chi_10 d)
     4.16754919E-03    2     1000023         1   # BR(~d_L -> ~chi_20 d)
     1.96725901E-06    2     1000025         1   # BR(~d_L -> ~chi_30 d)
     1.42845441E-05    2     1000035         1   # BR(~d_L -> ~chi_40 d)
     3.30651919E-01    2    -1000024         2   # BR(~d_L -> ~chi_1- u)
     3.79804731E-05    2    -1000037         2   # BR(~d_L -> ~chi_2- u)
     4.99760062E-01    2     1000021         1   # BR(~d_L -> ~g      d)
#
#         PDG            Width
DECAY   2000001     9.85688385E+01   # sdown_R decays
#          BR         NDA      ID1       ID2
     1.27485893E-09    2     1000022         1   # BR(~d_R -> ~chi_10 d)
     3.08210652E-02    2     1000023         1   # BR(~d_R -> ~chi_20 d)
     8.79778531E-08    2     1000025         1   # BR(~d_R -> ~chi_30 d)
     3.91638210E-06    2     1000035         1   # BR(~d_R -> ~chi_40 d)
     9.69174929E-01    2     1000021         1   # BR(~d_R -> ~g      d)
#
#         PDG            Width
DECAY   1000004     1.77294892E+02   # scharm_L decays
#          BR         NDA      ID1       ID2
     1.65348364E-01    2     1000022         4   # BR(~c_L -> ~chi_10 c)
     4.20591375E-03    2     1000023         4   # BR(~c_L -> ~chi_20 c)
     1.41011702E-06    2     1000025         4   # BR(~c_L -> ~chi_30 c)
     5.49767963E-06    2     1000035         4   # BR(~c_L -> ~chi_40 c)
     3.30777354E-01    2     1000024         3   # BR(~c_L -> ~chi_1+ s)
     6.25660633E-06    2     1000037         3   # BR(~c_L -> ~chi_2+ s)
     4.99655204E-01    2     1000021         4   # BR(~c_L -> ~g      c)
#
#         PDG            Width
DECAY   2000004     1.03403525E+02   # scharm_R decays
#          BR         NDA      ID1       ID2
     4.82391890E-09    2     1000022         4   # BR(~c_R -> ~chi_10 c)
     1.15946149E-01    2     1000023         4   # BR(~c_R -> ~chi_20 c)
     3.24564899E-07    2     1000025         4   # BR(~c_R -> ~chi_30 c)
     1.44478516E-05    2     1000035         4   # BR(~c_R -> ~chi_40 c)
     8.84039073E-01    2     1000021         4   # BR(~c_R -> ~g      c)
#
#         PDG            Width
DECAY   1000003     1.77307115E+02   # sstrange_L decays
#          BR         NDA      ID1       ID2
     1.65366237E-01    2     1000022         3   # BR(~s_L -> ~chi_10 s)
     4.16754919E-03    2     1000023         3   # BR(~s_L -> ~chi_20 s)
     1.96725901E-06    2     1000025         3   # BR(~s_L -> ~chi_30 s)
     1.42845441E-05    2     1000035         3   # BR(~s_L -> ~chi_40 s)
     3.30651919E-01    2    -1000024         4   # BR(~s_L -> ~chi_1- c)
     3.79804731E-05    2    -1000037         4   # BR(~s_L -> ~chi_2- c)
     4.99760062E-01    2     1000021         3   # BR(~s_L -> ~g      s)
#
#         PDG            Width
DECAY   2000003     9.85688385E+01   # sstrange_R decays
#          BR         NDA      ID1       ID2
     1.27485893E-09    2     1000022         3   # BR(~s_R -> ~chi_10 s)
     3.08210652E-02    2     1000023         3   # BR(~s_R -> ~chi_20 s)
     8.79778531E-08    2     1000025         3   # BR(~s_R -> ~chi_30 s)
     3.91638210E-06    2     1000035         3   # BR(~s_R -> ~chi_40 s)
     9.69174929E-01    2     1000021         3   # BR(~s_R -> ~g      s)
#
#         PDG            Width
DECAY   1000011     5.14480044E+01   # selectron_L decays
#          BR         NDA      ID1       ID2
     3.24930156E-01    2     1000022        11   # BR(~e_L -> ~chi_10 e-)
     2.51987549E-02    2     1000023        11   # BR(~e_L -> ~chi_20 e-)
     6.49871089E-01    2    -1000024        12   # BR(~e_L -> ~chi_1- nu_e)
#
#         PDG            Width
DECAY   2000011     4.85931051E+00   # selectron_R decays
#          BR         NDA      ID1       ID2
     1.29265758E-07    2     1000022        11   # BR(~e_R -> ~chi_10 e-)
     9.99999871E-01    2     1000023        11   # BR(~e_R -> ~chi_20 e-)
#
#         PDG            Width
DECAY   1000013     5.14480044E+01   # smuon_L decays
#          BR         NDA      ID1       ID2
     3.24930156E-01    2     1000022        13   # BR(~mu_L -> ~chi_10 mu-)
     2.51987549E-02    2     1000023        13   # BR(~mu_L -> ~chi_20 mu-)
     6.49871089E-01    2    -1000024        14   # BR(~mu_L -> ~chi_1- nu_mu)
#
#         PDG            Width
DECAY   2000013     4.85931051E+00   # smuon_R decays
#          BR         NDA      ID1       ID2
     1.29265758E-07    2     1000022        13   # BR(~mu_R -> ~chi_10 mu-)
     9.99999871E-01    2     1000023        13   # BR(~mu_R -> ~chi_20 mu-)
#
#         PDG            Width
DECAY   1000015     5.01850189E+00   # stau_1 decays
#          BR         NDA      ID1       ID2
     1.79815194E-02    2     1000022        15   # BR(~tau_1 -> ~chi_10  tau-)
     9.46055693E-01    2     1000023        15   # BR(~tau_1 -> ~chi_20  tau-)
     3.59627880E-02    2    -1000024        16   # BR(~tau_1 -> ~chi_1-  nu_tau)
#
#         PDG            Width
DECAY   2000015     5.10893603E+01   # stau_2 decays
#          BR         NDA      ID1       ID2
     3.24817351E-01    2     1000022        15   # BR(~tau_2 -> ~chi_10  tau-)
     2.55381563E-02    2     1000023        15   # BR(~tau_2 -> ~chi_20  tau-)
     6.49644493E-01    2    -1000024        16   # BR(~tau_2 -> ~chi_1-  nu_tau)
#
#         PDG            Width
DECAY   1000012     5.14539896E+01   # snu_eL decays
#          BR         NDA      ID1       ID2
     3.24969813E-01    2     1000022        12   # BR(~nu_eL -> ~chi_10 nu_e)
     2.51012233E-02    2     1000023        12   # BR(~nu_eL -> ~chi_20 nu_e)
     6.49928963E-01    2     1000024        11   # BR(~nu_eL -> ~chi_1+ e-)
#
#         PDG            Width
DECAY   1000014     5.14539896E+01   # snu_muL decays
#          BR         NDA      ID1       ID2
     3.24969813E-01    2     1000022        14   # BR(~nu_muL -> ~chi_10 nu_mu)
     2.51012233E-02    2     1000023        14   # BR(~nu_muL -> ~chi_20 nu_mu)
     6.49928963E-01    2     1000024        13   # BR(~nu_muL -> ~chi_1+ mu-)
#
#         PDG            Width
DECAY   1000016     5.13463732E+01   # snu_tauL decays
#          BR         NDA      ID1       ID2
     3.25026240E-01    2     1000022        16   # BR(~nu_tauL -> ~chi_10 nu_tau)
     2.49309101E-02    2     1000023        16   # BR(~nu_tauL -> ~chi_20 nu_tau)
     6.50042850E-01    2     1000024        15   # BR(~nu_tauL -> ~chi_1+ tau-)
#
#         PDG            Width
DECAY   1000024     0.00000000E+00   # stable chargino_1
#           BR         NDA      ID1       ID2       ID3
     3.74981205E-01    3     1000022         2        -1   # BR(~chi_1+ -> ~chi_10 u    db)
     3.74981205E-01    3     1000022         4        -3   # BR(~chi_1+ -> ~chi_10 c    sb)
     1.25018795E-01    3     1000022       -11        12   # BR(~chi_1+ -> ~chi_10 e+   nu_e)
     1.25018795E-01    3     1000022       -13        14   # BR(~chi_1+ -> ~chi_10 mu+  nu_mu)
#
#         PDG            Width
DECAY   1000037     4.17400250E+01   # chargino2+ decays
#          BR         NDA      ID1       ID2
     2.54747802E-05    2     1000006        -5   # BR(~chi_2+ -> ~t_1     bb)
     3.14996996E-06    2     1000012       -11   # BR(~chi_2+ -> ~nu_eL   e+  )
     3.14996996E-06    2     1000014       -13   # BR(~chi_2+ -> ~nu_muL  mu+ )
     2.73300894E-04    2     1000016       -15   # BR(~chi_2+ -> ~nu_tau1 tau+)
     1.90964423E-05    2    -1000011        12   # BR(~chi_2+ -> ~e_L+    nu_e)
     1.90964423E-05    2    -1000013        14   # BR(~chi_2+ -> ~mu_L+   nu_mu)
     2.89736568E-04    2    -1000015        16   # BR(~chi_2+ -> ~tau_1+  nu_tau)
     3.11458112E-05    2    -2000015        16   # BR(~chi_2+ -> ~tau_2+  nu_tau)
     3.00564824E-01    2     1000024        23   # BR(~chi_2+ -> ~chi_1+  Z )
     2.89093095E-01    2     1000022        24   # BR(~chi_2+ -> ~chi_10  W+)
     9.59595004E-02    2     1000023        24   # BR(~chi_2+ -> ~chi_20  W+)
     3.13718429E-01    2     1000024        25   # BR(~chi_2+ -> ~chi_1+  h )
#
#         PDG            Width
DECAY   1000022     0.00000000E+00   # stable neutralino 
#
#         PDG            Width
DECAY   1000023     1.14693100E-02   # neutralino2 decays
#          BR         NDA      ID1       ID2
     1.85296489E-02    2     1000022        23   # BR(~chi_20 -> ~chi_10   Z )
     3.24442774E-01    2     1000024       -24   # BR(~chi_20 -> ~chi_1+   W-)
     3.24442774E-01    2    -1000024        24   # BR(~chi_20 -> ~chi_1-   W+)
     3.32584803E-01    2     1000022        25   # BR(~chi_20 -> ~chi_10   h )
#
#         PDG            Width
DECAY   1000025     4.09444320E+01   # neutralino3 decays
#          BR         NDA      ID1       ID2
     2.59976958E-01    2     1000022        23   # BR(~chi_30 -> ~chi_10   Z )
     9.91749470E-02    2     1000023        23   # BR(~chi_30 -> ~chi_20   Z )
     2.94729849E-01    2     1000024       -24   # BR(~chi_30 -> ~chi_1+   W-)
     2.94729849E-01    2    -1000024        24   # BR(~chi_30 -> ~chi_1-   W+)
     4.84746954E-02    2     1000022        25   # BR(~chi_30 -> ~chi_10   h )
     2.31858911E-03    2     1000023        25   # BR(~chi_30 -> ~chi_20   h )
     4.83689383E-07    2     1000011       -11   # BR(~chi_30 -> ~e_L-     e+)
     4.83689383E-07    2    -1000011        11   # BR(~chi_30 -> ~e_L+     e-)
     2.35552976E-07    2     2000011       -11   # BR(~chi_30 -> ~e_R-     e+)
     2.35552976E-07    2    -2000011        11   # BR(~chi_30 -> ~e_R+     e-)
     4.83689383E-07    2     1000013       -13   # BR(~chi_30 -> ~mu_L-    mu+)
     4.83689383E-07    2    -1000013        13   # BR(~chi_30 -> ~mu_L+    mu-)
     2.35552976E-07    2     2000013       -13   # BR(~chi_30 -> ~mu_R-    mu+)
     2.35552976E-07    2    -2000013        13   # BR(~chi_30 -> ~mu_R+    mu-)
     1.52233643E-04    2     1000015       -15   # BR(~chi_30 -> ~tau_1-   tau+)
     1.52233643E-04    2    -1000015        15   # BR(~chi_30 -> ~tau_1+   tau-)
     1.39845237E-04    2     2000015       -15   # BR(~chi_30 -> ~tau_2-   tau+)
     1.39845237E-04    2    -2000015        15   # BR(~chi_30 -> ~tau_2+   tau-)
     1.33972788E-06    2     1000012       -12   # BR(~chi_30 -> ~nu_eL    nu_eb)
     1.33972788E-06    2    -1000012        12   # BR(~chi_30 -> ~nu_eL*   nu_e )
     1.33972788E-06    2     1000014       -14   # BR(~chi_30 -> ~nu_muL   nu_mub)
     1.33972788E-06    2    -1000014        14   # BR(~chi_30 -> ~nu_muL*  nu_mu )
     1.35987375E-06    2     1000016       -16   # BR(~chi_30 -> ~nu_tau1  nu_taub)
     1.35987375E-06    2    -1000016        16   # BR(~chi_30 -> ~nu_tau1* nu_tau )
#
#         PDG            Width
DECAY   1000035     4.15058622E+01   # neutralino4 decays
#          BR         NDA      ID1       ID2
     4.58305932E-02    2     1000022        23   # BR(~chi_40 -> ~chi_10   Z )
     2.20440258E-03    2     1000023        23   # BR(~chi_40 -> ~chi_20   Z )
     2.90722372E-01    2     1000024       -24   # BR(~chi_40 -> ~chi_1+   W-)
     2.90722372E-01    2    -1000024        24   # BR(~chi_40 -> ~chi_1-   W+)
     2.67656259E-01    2     1000022        25   # BR(~chi_40 -> ~chi_10   h )
     1.02141278E-01    2     1000023        25   # BR(~chi_40 -> ~chi_20   h )
     4.19397783E-07    2     1000011       -11   # BR(~chi_40 -> ~e_L-     e+)
     4.19397783E-07    2    -1000011        11   # BR(~chi_40 -> ~e_L+     e-)
     1.03766952E-05    2     2000011       -11   # BR(~chi_40 -> ~e_R-     e+)
     1.03766952E-05    2    -2000011        11   # BR(~chi_40 -> ~e_R+     e-)
     4.19397783E-07    2     1000013       -13   # BR(~chi_40 -> ~mu_L-    mu+)
     4.19397783E-07    2    -1000013        13   # BR(~chi_40 -> ~mu_L+    mu-)
     1.03766952E-05    2     2000013       -13   # BR(~chi_40 -> ~mu_R-    mu+)
     1.03766952E-05    2    -2000013        13   # BR(~chi_40 -> ~mu_R+    mu-)
     1.55838574E-04    2     1000015       -15   # BR(~chi_40 -> ~tau_1-   tau+)
     1.55838574E-04    2    -1000015        15   # BR(~chi_40 -> ~tau_1+   tau-)
     1.42391817E-04    2     2000015       -15   # BR(~chi_40 -> ~tau_2-   tau+)
     1.42391817E-04    2    -2000015        15   # BR(~chi_40 -> ~tau_2+   tau-)
     1.37774462E-05    2     1000012       -12   # BR(~chi_40 -> ~nu_eL    nu_eb)
     1.37774462E-05    2    -1000012        12   # BR(~chi_40 -> ~nu_eL*   nu_e )
     1.37774462E-05    2     1000014       -14   # BR(~chi_40 -> ~nu_muL   nu_mub)
     1.37774462E-05    2    -1000014        14   # BR(~chi_40 -> ~nu_muL*  nu_mu )
     1.39842944E-05    2     1000016       -16   # BR(~chi_40 -> ~nu_tau1  nu_taub)
     1.39842944E-05    2    -1000016        16   # BR(~chi_40 -> ~nu_tau1* nu_tau )
#
#         PDG            Width
DECAY        25     3.66725817E-03   # h decays
#          BR         NDA      ID1       ID2
     6.74407190E-01    2           5        -5   # BR(h -> b       bb     )
     6.84110134E-02    2         -15        15   # BR(h -> tau+    tau-   )
     2.42141769E-04    2         -13        13   # BR(h -> mu+     mu-    )
     5.16370960E-04    2           3        -3   # BR(h -> s       sb     )
     2.24686883E-02    2           4        -4   # BR(h -> c       cb     )
     6.81656230E-02    2          21        21   # BR(h -> g       g      )
     2.25115681E-03    2          22        22   # BR(h -> gam     gam    )
     1.18362465E-03    2          22        23   # BR(h -> Z       gam    )
     1.45176013E-01    2          24       -24   # BR(h -> W+      W-     )
     1.71781787E-02    2          23        23   # BR(h -> Z       Z      )
#
#         PDG            Width
DECAY        35     3.06752288E+01   # H decays
#          BR         NDA      ID1       ID2
     5.37030738E-02    2           5        -5   # BR(H -> b       bb     )
     1.13044083E-02    2         -15        15   # BR(H -> tau+    tau-   )
     3.99606198E-05    2         -13        13   # BR(H -> mu+     mu-    )
     4.35947511E-05    2           3        -3   # BR(H -> s       sb     )
     3.96044241E-06    2           4        -4   # BR(H -> c       cb     )
     4.02014361E-01    2           6        -6   # BR(H -> t       tb     )
     7.60739400E-05    2          21        21   # BR(H -> g       g      )
     3.40551482E-07    2          22        22   # BR(H -> gam     gam    )
     1.53104196E-07    2          23        22   # BR(H -> Z       gam    )
     3.58884481E-05    2          24       -24   # BR(H -> W+      W-     )
     1.79407395E-05    2          23        23   # BR(H -> Z       Z      )
     1.10025309E-04    2          25        25   # BR(H -> h       h      )
     2.23131255E-24    2          36        36   # BR(H -> A       A      )
     9.00782181E-17    2          23        36   # BR(H -> Z       A      )
     6.07868436E-04    2     1000024  -1000024   # BR(H -> ~chi_1+ ~chi_1-)
     1.77166308E-01    2     1000024  -1000037   # BR(H -> ~chi_1+ ~chi_2-)
     1.77166308E-01    2     1000037  -1000024   # BR(H -> ~chi_2+ ~chi_1-)
     3.04037889E-04    2     1000022   1000022   # BR(H -> ~chi_10 ~chi_10)
     3.34915360E-06    2     1000023   1000023   # BR(H -> ~chi_20 ~chi_20)
     1.64817051E-04    2     1000022   1000023   # BR(H -> ~chi_10 ~chi_20)
     1.59485306E-01    2     1000022   1000025   # BR(H -> ~chi_10 ~chi_30)
     1.77522234E-02    2     1000022   1000035   # BR(H -> ~chi_10 ~chi_40)
#
#         PDG            Width
DECAY        36     3.06811741E+01   # A decays
#          BR         NDA      ID1       ID2
     5.37674989E-02    2           5        -5   # BR(A -> b       bb     )
     1.13021902E-02    2         -15        15   # BR(A -> tau+    tau-   )
     3.99527701E-05    2         -13        13   # BR(A -> mu+     mu-    )
     4.37141715E-05    2           3        -3   # BR(A -> s       sb     )
     3.99313608E-06    2           4        -4   # BR(A -> c       cb     )
     4.02078654E-01    2           6        -6   # BR(A -> t       tb     )
     1.02435610E-04    2          21        21   # BR(A -> g       g      )
     2.33589936E-07    2          22        22   # BR(A -> gam     gam    )
     1.89108609E-07    2          23        22   # BR(A -> Z       gam    )
     3.58581185E-05    2          23        25   # BR(A -> Z       h      )
     9.55144976E-04    2     1000024  -1000024   # BR(A -> ~chi_1+ ~chi_1-)
     1.76961032E-01    2     1000024  -1000037   # BR(A -> ~chi_1+ ~chi_2-)
     1.76961032E-01    2     1000037  -1000024   # BR(A -> ~chi_2+ ~chi_1-)
     4.77751446E-04    2     1000022   1000022   # BR(A -> ~chi_10 ~chi_10)
     5.34854038E-05    2     1000023   1000023   # BR(A -> ~chi_20 ~chi_20)
     4.18903928E-04    2     1000022   1000023   # BR(A -> ~chi_10 ~chi_20)
     1.78168791E-02    2     1000022   1000025   # BR(A -> ~chi_10 ~chi_30)
     1.58981051E-01    2     1000022   1000035   # BR(A -> ~chi_10 ~chi_40)
#
#         PDG            Width
DECAY        37     3.04585535E+01   # H+ decays
#          BR         NDA      ID1       ID2
     8.45598345E-05    2           4        -5   # BR(H+ -> c       bb     )
     1.13858738E-02    2         -15        16   # BR(H+ -> tau+    nu_tau )
     4.02485881E-05    2         -13        14   # BR(H+ -> mu+     nu_mu  )
     5.41143284E-07    2           2        -5   # BR(H+ -> u       bb     )
     2.10876517E-06    2           2        -3   # BR(H+ -> u       sb     )
     4.72345596E-05    2           4        -3   # BR(H+ -> c       sb     )
     4.52334949E-01    2           6        -5   # BR(H+ -> t       bb     )
     3.61339687E-05    2          24        25   # BR(H+ -> W+      h      )
     7.89092500E-15    2          24        36   # BR(H+ -> W+      A      )
     1.29045765E-11    2     1000024   1000022   # BR(H+ -> ~chi_1+ ~chi_10)
     5.88563791E-04    2     1000024   1000023   # BR(H+ -> ~chi_1+ ~chi_20)
     1.78658726E-01    2     1000024   1000025   # BR(H+ -> ~chi_1+ ~chi_30)
     1.78296857E-01    2     1000024   1000035   # BR(H+ -> ~chi_1+ ~chi_40)
     1.78524203E-01    2     1000037   1000022   # BR(H+ -> ~chi_2+ ~chi_10)
