######################################################################
## PARAM_CARD AUTOMATICALY GENERATED BY MG5                       ####
######################################################################
###################################
## INFORMATION FOR CKMBLOCK
###################################
BLOCK CKMBLOCK # 
      1 4.880000e-01 #  cabi
###################################
## INFORMATION FOR GAUGEMASS
###################################
BLOCK GAUGEMASS # 
      1 9.118800e+01 #  mzinput
      2 8.041900e+01 #  mwinput
###################################
## INFORMATION FOR HIDDEN
###################################
BLOCK HIDDEN # 
      1 2.400000e-01 #  mzdinput
      2 3.000000e+01 #  mhsinput
      3 1.000000e-03 #  epsilon
      4 1.000000e-09 #  kap
      5 1.279000e+02 #  axm1
      6 1.000000e-01 #  ghchi2
      7 1.000000e-01 #  ghdchi1chi2
    8 1.000000e+00 # gXmu
    9 1.030000e-00 # gXe
   10 0.000000e-00 # gXpi
###################################
## INFORMATION FOR HIGGS
###################################
BLOCK HIGGS # 
      1 8.000000e+02 #  mhinput
###################################
## INFORMATION FOR MASS
###################################
BLOCK MASS # 
      4 1.420000e+00 #  mc
      5 4.700000e+00 #  mb
      6 1.743000e+02 #  mt
      11 5.110000e-04 #  me
      13 1.057000e-01 #  mm
      15 1.777000e+00 #  mta
      2110 1.395702e-01 #  mpip
      30000015 1.000000e+01 #  mchi1
      30000016 5.000000e+01 #  mchi2
      1 0.000000e+00 #  d : 0.0
      2 0.000000e+00 #  u : 0.0
      3 0.000000e+00 #  s : 0.0
      12 0.000000e+00 #  ve : 0.0
      14 0.000000e+00 #  vm : 0.0
      16 0.000000e+00 #  vt : 0.0
      21 0.000000e+00 #  g : 0.0
      22 0.000000e+00 #  a : 0.0
      23 9.118800e+01 #  z : mzinput
      24 8.041900e+01 #  w+ : mwinput
      25 8.000000e+02 #  h : mhinput
      3000001 1.000000e+01 #  zp : mzdinput
      3000005 3.000000e+01 #  hs : mhsinput
###################################
## INFORMATION FOR SMINPUTS
###################################
BLOCK SMINPUTS # 
      1 2.250000e-01 #  swsqsm
      2 1.279000e+02 #  aewm1
      3 1.166390e-05 #  gf
      4 1.180000e-01 #  as
###################################
## INFORMATION FOR YUKAWA
###################################
BLOCK YUKAWA # 
      4 1.420000e+00 #  ymc
      5 4.700000e+00 #  ymb
      6 1.743000e+02 #  ymt
      11 5.110000e-04 #  ymel
      13 1.057000e-01 #  ymmu
      15 1.777000e+00 #  ymtau
###################################
## INFORMATION FOR DECAY
###################################
BLOCK QNUMBERS 30000015 #  chi1
      1 0 #  3 times electric charge
      2 2 #  number of spin states (2s+1)
      3 1 #  colour rep (1: singlet, 3: triplet, 8: octet)
      4 0 #  particle/antiparticle distinction (0=own anti)
###################################
## INFORMATION FOR QNUMBERS 30000016
###################################
BLOCK QNUMBERS 30000016 #  chi2
      1 0 #  3 times electric charge
      2 2 #  number of spin states (2s+1)
      3 1 #  colour rep (1: singlet, 3: triplet, 8: octet)
      4 0 #  particle/antiparticle distinction (0=own anti)
###################################
## INFORMATION FOR QNUMBERS 3000001
###################################
BLOCK QNUMBERS 3000001 #  zp
      1 0 #  3 times electric charge
      2 3 #  number of spin states (2s+1)
      3 1 #  colour rep (1: singlet, 3: triplet, 8: octet)
      4 0 #  particle/antiparticle distinction (0=own anti)
###################################
## INFORMATION FOR QNUMBERS 2110
###################################
BLOCK QNUMBERS 2110 #  pip
      1 3 #  3 times electric charge
      2 1 #  number of spin states (2s+1)
      3 1 #  colour rep (1: singlet, 3: triplet, 8: octet)
      4 1 #  particle/antiparticle distinction (0=own anti)
###################################
## INFORMATION FOR QNUMBERS 3000005
###################################
BLOCK QNUMBERS 3000005 #  hs
      1 0 #  3 times electric charge
      2 1 #  number of spin states (2s+1)
      3 1 #  colour rep (1: singlet, 3: triplet, 8: octet)
      4 0 #  particle/antiparticle distinction (0=own anti)
#
#*************************
#      Decay widths      *
#*************************
#
#      PDG        Width
DECAY  1   0.000000e+00
#
#      PDG        Width
DECAY  2   0.000000e+00
#
#      PDG        Width
DECAY  3   0.000000e+00
#
#      PDG        Width
DECAY  4   0.000000e+00
#
#      PDG        Width
DECAY  5   0.000000e+00
#
#      PDG        Width
DECAY  6   1.508336e+00
#
#      PDG        Width
DECAY  11   0.000000e+00
#
#      PDG        Width
DECAY  12   0.000000e+00
#
#      PDG        Width
DECAY  13   0.000000e+00
#
#      PDG        Width
DECAY  14   0.000000e+00
#
#      PDG        Width
DECAY  15   0.000000e+00
#
#      PDG        Width
DECAY  16   0.000000e+00
#
#      PDG        Width
DECAY  21   0.000000e+00
#
#      PDG        Width
DECAY  22   0.000000e+00
#
#      PDG        Width
DECAY  23   2.441404e+00
#
#      PDG        Width
DECAY  24   2.047600e+00
#
#      PDG        Width
DECAY  25   5.000000e-03
#
#      PDG        Width
DECAY  2110   0.000000e+00
#
#      PDG        Width
DECAY  3000001   1.000000e-03
#
#      PDG        Width
DECAY  3000005   1.000000e-08
#
#      PDG        Width
DECAY  30000015   0.000000e+00
#
#      PDG        Width
DECAY  30000016   1.000000e-03
