# SUSY Les Houches Accord 2 - MSSM-RpV/Bi Spectrum + Decays + Flavor Observables
# SPheno module generated by SARAH
# ----------------------------------------------------------------------
# SPheno v3.3.6  
#   W. Porod, Comput. Phys. Commun. 153 (2003) 275-315, hep-ph/0301101
#   W. Porod, F.Staub, Comput.Phys.Commun.183 (2012) 2458-2469, arXiv:1104.1573
# SARAH: SARAHVER
#   F. Staub; arXiv:0806.0538 (online manual)
#   F. Staub; Comput. Phys. Commun. 181 (2010) 1077-1086; arXiv:0909.2863
#   F. Staub; Comput. Phys. Commun. 182 (2011)  808-833; arXiv:1002.0840
#   F. Staub; Comput. Phys. Commun. 184 (2013)  1792-1809; arXiv:1207.0906
#   F. Staub; Comput. Phys. Commun. 185 (2014)  1773-1790; arXiv:1309.7223 
# Including the calculation of flavor observables based on the FlavorKit 
#   W. Porod, F. Staub, A. Vicente; Eur.Phys.J. C74 (2014) 8, 2992; arXiv:1405.1434 
# Two-loop masss corrections to Higgs fields based on 
#   M. D. Goodsell, K. Nickel, F. Staub; arXiv:1411.0675 
#   M. D. Goodsell, K. Nickel, F. Staub; arXiv:1503.03098
#  
# in case of problems send email to florian.staub@cern.ch and goodsell@lpthe.jussieu.fr 
# ----------------------------------------------------------------------
# Created: 01.02.2018,  10:37
Block SPINFO         # Program information
     1   SPhenoSARAH      # spectrum calculator
     2   v3.3.6      # version number of SPheno
     9   SARAHVER    # version number of SARAH
Block MODSEL  # Input parameters
     1  0   #  SUSY Scale input
     2  1   #  Boundary conditions 
Block MINPAR  # Input parameters
    1    0.00000000E+00  # m0
    2    0.00000000E+00  # m12
    3    5.00000000E+00  # TanBeta
    4    0.00000000E+00  # SignumMue
    5    0.00000000E+00  # Azero
Block EXTPAR  # Input parameters
    1   -6.00000000E+02  # M1input
    2    2.00000000E+03  # M2input
    3    3.20000000E+03  # M3input
   23    2.00000000E+02  # Muinput
   25    5.00000000E+00  # TanBeta
   24    1.00000000E+06  # MA2input
Block gaugeGUT Q=  1.99800812E+03  # (GUT scale)
   1    4.70039408E-01  # g1(Q)^DRbar
   2    6.38065159E-01  # g2(Q)^DRbar
   3    1.02086217E+00  # g3(Q)^DRbar
Block SMINPUTS  # SM parameters
         1     1.27932506E+02  # alpha_em^-1(MZ)^MSbar
         2     1.16637000E-05  # G_mu [GeV^-2]
         3     1.18700000E-01  # alpha_s(MZ)^MSbar
         4     9.11887000E+01  # m_Z(pole)
         5     4.18000000E+00  # m_b(m_b), MSbar
         6     1.73500000E+02  # m_t(pole)
         7     1.77669000E+00  # m_tau(pole)
Block GAUGE Q=  1.99800812E+03  # (SUSY Scale)
   1    3.64090960E-01  # g1
   2    6.38065159E-01  # g2
   3    1.02086217E+00  # g3
Block HMIX Q=  1.99800812E+03  # (SUSY Scale)
   1    2.00000000E+02  # Mu
 101    1.92307692E+05  # Bmu
 102    4.77148877E+01  # vd
 103    2.38574438E+02  # vu
Block MSOFT Q=  1.99800812E+03  # (SUSY Scale)
  21    8.91709248E+05  # mHd2
  22    6.04599857E+04  # mHu2
   1   -6.00000000E+02  # M1
   2    2.00000000E+03  # M2
   3    3.20000000E+03  # M3
Block PHASES Q=  1.99800812E+03  # (SUSY Scale)
   1    1.00000000E+00  # pG
Block Yd Q=  1.99800812E+03  # (SUSY Scale)
  1  1     6.74005036E-05   # Real(Yd(1,1),dp)
  1  2     0.00000000E+00   # Real(Yd(1,2),dp)
  1  3     0.00000000E+00   # Real(Yd(1,3),dp)
  2  1     0.00000000E+00   # Real(Yd(2,1),dp)
  2  2     1.28060911E-03   # Real(Yd(2,2),dp)
  2  3     0.00000000E+00   # Real(Yd(2,3),dp)
  3  1     0.00000000E+00   # Real(Yd(3,1),dp)
  3  2     0.00000000E+00   # Real(Yd(3,2),dp)
  3  3     6.64660254E-02   # Real(Yd(3,3),dp)
Block Ye Q=  1.99800812E+03  # (SUSY Scale)
  1  1     1.43163611E-05   # Real(Ye(1,1),dp)
  1  2    -2.70343474E-14   # Real(Ye(1,2),dp)
  1  3     2.75175252E-14   # Real(Ye(1,3),dp)
  2  1     3.69441378E-11   # Real(Ye(2,1),dp)
  2  2     2.96016956E-03   # Real(Ye(2,2),dp)
  2  3     3.91795815E-11   # Real(Ye(2,3),dp)
  3  1     5.32923041E-10   # Real(Ye(3,1),dp)
  3  2    -5.54492230E-10   # Real(Ye(3,2),dp)
  3  3     4.97775214E-02   # Real(Ye(3,3),dp)
Block Yu Q=  1.99800812E+03  # (SUSY Scale)
  1  1     7.03501781E-06   # Real(Yu(1,1),dp)
  1  2     0.00000000E+00   # Real(Yu(1,2),dp)
  1  3     0.00000000E+00   # Real(Yu(1,3),dp)
  2  1     0.00000000E+00   # Real(Yu(2,1),dp)
  2  2     3.57378930E-03   # Real(Yu(2,2),dp)
  2  3     0.00000000E+00   # Real(Yu(2,3),dp)
  3  1     0.00000000E+00   # Real(Yu(3,1),dp)
  3  2     0.00000000E+00   # Real(Yu(3,2),dp)
  3  3     8.54691893E-01   # Real(Yu(3,3),dp)
Block RVSNVEV Q=  1.99800812E+03  # (SUSY Scale)
   1   -1.00554709E-02  # vL(1)
   2    1.37597873E-02  # vL(2)
   3   -8.64859758E-03  # vL(3)
Block RVKAPPA Q=  1.99800812E+03  # (SUSY Scale)
   1    4.18981154E-02  # Real(REps(1) ,dp)
   2   -4.37693037E-02  # Real(REps(2) ,dp)
   3    4.43253415E-02  # Real(REps(3) ,dp)
Block Td Q=  1.99800812E+03  # (SUSY Scale)
  1  1     0.00000000E+00   # Real(Td(1,1),dp)
  1  2     0.00000000E+00   # Real(Td(1,2),dp)
  1  3     0.00000000E+00   # Real(Td(1,3),dp)
  2  1     0.00000000E+00   # Real(Td(2,1),dp)
  2  2     0.00000000E+00   # Real(Td(2,2),dp)
  2  3     0.00000000E+00   # Real(Td(2,3),dp)
  3  1     0.00000000E+00   # Real(Td(3,1),dp)
  3  2     0.00000000E+00   # Real(Td(3,2),dp)
  3  3     0.00000000E+00   # Real(Td(3,3),dp)
Block Te Q=  1.99800812E+03  # (SUSY Scale)
  1  1     0.00000000E+00   # Real(Te(1,1),dp)
  1  2     0.00000000E+00   # Real(Te(1,2),dp)
  1  3     0.00000000E+00   # Real(Te(1,3),dp)
  2  1     0.00000000E+00   # Real(Te(2,1),dp)
  2  2     0.00000000E+00   # Real(Te(2,2),dp)
  2  3     0.00000000E+00   # Real(Te(2,3),dp)
  3  1     0.00000000E+00   # Real(Te(3,1),dp)
  3  2     0.00000000E+00   # Real(Te(3,2),dp)
  3  3     0.00000000E+00   # Real(Te(3,3),dp)
Block Tu Q=  1.99800812E+03  # (SUSY Scale)
  1  1     0.00000000E+00   # Real(Tu(1,1),dp)
  1  2     0.00000000E+00   # Real(Tu(1,2),dp)
  1  3     0.00000000E+00   # Real(Tu(1,3),dp)
  2  1     0.00000000E+00   # Real(Tu(2,1),dp)
  2  2     0.00000000E+00   # Real(Tu(2,2),dp)
  2  3     0.00000000E+00   # Real(Tu(2,3),dp)
  3  1     0.00000000E+00   # Real(Tu(3,1),dp)
  3  2     0.00000000E+00   # Real(Tu(3,2),dp)
  3  3    -2.70000000E+03   # Real(Tu(3,3),dp)
Block RVD Q=  1.99800812E+03  # (SUSY Scale)
   1    1.71259729E+02  # Real(Beps(1) ,dp)
   2   -2.33626509E+02  # Real(Beps(2) ,dp)
   3    1.47736937E+02  # Real(Beps(3) ,dp)
Block MSQ2 Q=  1.99800812E+03  # (SUSY Scale)
  1  1     4.00000000E+06   # Real(mq2(1,1),dp)
  1  2     0.00000000E+00   # Real(mq2(1,2),dp)
  1  3     0.00000000E+00   # Real(mq2(1,3),dp)
  2  1     0.00000000E+00   # Real(mq2(2,1),dp)
  2  2     4.00000000E+06   # Real(mq2(2,2),dp)
  2  3     0.00000000E+00   # Real(mq2(2,3),dp)
  3  1     0.00000000E+00   # Real(mq2(3,1),dp)
  3  2     0.00000000E+00   # Real(mq2(3,2),dp)
  3  3     4.00000000E+06   # Real(mq2(3,3),dp)
Block MSL2 Q=  1.99800812E+03  # (SUSY Scale)
  1  1     4.00000000E+06   # Real(ml2(1,1),dp)
  1  2     0.00000000E+00   # Real(ml2(1,2),dp)
  1  3     0.00000000E+00   # Real(ml2(1,3),dp)
  2  1     0.00000000E+00   # Real(ml2(2,1),dp)
  2  2     4.00000000E+06   # Real(ml2(2,2),dp)
  2  3     0.00000000E+00   # Real(ml2(2,3),dp)
  3  1     0.00000000E+00   # Real(ml2(3,1),dp)
  3  2     0.00000000E+00   # Real(ml2(3,2),dp)
  3  3     4.00000000E+06   # Real(ml2(3,3),dp)
Block MSD2 Q=  1.99800812E+03  # (SUSY Scale)
  1  1     4.00000000E+06   # Real(md2(1,1),dp)
  1  2     0.00000000E+00   # Real(md2(1,2),dp)
  1  3     0.00000000E+00   # Real(md2(1,3),dp)
  2  1     0.00000000E+00   # Real(md2(2,1),dp)
  2  2     4.00000000E+06   # Real(md2(2,2),dp)
  2  3     0.00000000E+00   # Real(md2(2,3),dp)
  3  1     0.00000000E+00   # Real(md2(3,1),dp)
  3  2     0.00000000E+00   # Real(md2(3,2),dp)
  3  3     4.00000000E+06   # Real(md2(3,3),dp)
Block MSU2 Q=  1.99800812E+03  # (SUSY Scale)
  1  1     4.00000000E+06   # Real(mu2(1,1),dp)
  1  2     0.00000000E+00   # Real(mu2(1,2),dp)
  1  3     0.00000000E+00   # Real(mu2(1,3),dp)
  2  1     0.00000000E+00   # Real(mu2(2,1),dp)
  2  2     4.00000000E+06   # Real(mu2(2,2),dp)
  2  3     0.00000000E+00   # Real(mu2(2,3),dp)
  3  1     0.00000000E+00   # Real(mu2(3,1),dp)
  3  2     0.00000000E+00   # Real(mu2(3,2),dp)
  3  3     4.00000000E+06   # Real(mu2(3,3),dp)
Block MSE2 Q=  1.99800812E+03  # (SUSY Scale)
  1  1     4.00000000E+06   # Real(me2(1,1),dp)
  1  2     0.00000000E+00   # Real(me2(1,2),dp)
  1  3     0.00000000E+00   # Real(me2(1,3),dp)
  2  1     0.00000000E+00   # Real(me2(2,1),dp)
  2  2     4.00000000E+06   # Real(me2(2,2),dp)
  2  3     0.00000000E+00   # Real(me2(2,3),dp)
  3  1     0.00000000E+00   # Real(me2(3,1),dp)
  3  2     0.00000000E+00   # Real(me2(3,2),dp)
  3  3     4.00000000E+06   # Real(me2(3,3),dp)
Block RVM2LH1 Q=  1.99800812E+03  # (SUSY Scale)
   1    0.00000000E+00  # mlHd2(1) 
   2    0.00000000E+00  # mlHd2(2) 
   3    0.00000000E+00  # mlHd2(3) 
Block MASS  # Mass spectrum
#   PDG code      mass          particle
   1000001     2.04877559E+03  # Sd_1
   1000003     2.07152658E+03  # Sd_2
   1000005     2.07172664E+03  # Sd_3
   2000001     2.07172673E+03  # Sd_4
   2000003     2.09031870E+03  # Sd_5
   2000005     2.09031899E+03  # Sd_6
   1000002     1.90447690E+03  # Su_1
   1000004     2.07174654E+03  # Su_2
   1000006     2.07174700E+03  # Su_3
   2000002     2.08887515E+03  # Su_4
   2000004     2.08887535E+03  # Su_5
   2000006     2.13978900E+03  # Su_6
        25     1.22326976E+02  # hh_1
        35     1.00440043E+03  # hh_2
   1000012     2.01389848E+03  # hh_3
   1000014     2.01395530E+03  # hh_4
   1000016     2.01395550E+03  # hh_5
        36     1.00355615E+03  # Ah_2
   1000017     2.01389845E+03  # Ah_3
   1000018     2.01395530E+03  # Ah_4
   1000019     2.01395550E+03  # Ah_5
        37     1.00700560E+03  # Hpm_2
   1000011     2.00273154E+03  # Hpm_3
   2000011     2.00285874E+03  # Hpm_4
   1000013     2.00285919E+03  # Hpm_5
   2000013     2.01575107E+03  # Hpm_6
   1000015     2.01579282E+03  # Hpm_7
   2000015     2.01579296E+03  # Hpm_8
        23     9.11887000E+01  # VZ
        24     8.03132184E+01  # VWm
         1     5.00000000E-03  # Fd_1
         3     9.50000000E-02  # Fd_2
         5     4.18000000E+00  # Fd_3
         2     2.50000000E-03  # Fu_1
         4     1.27000000E+00  # Fu_2
         6     1.73500000E+02  # Fu_3
   1000021     3.13324306E+03  # Glu
        12     1.87106592E-12  # Chi_1
        14     1.01879182E-11  # Chi_2
        16     5.61720921E-11  # Chi_3
   1000022     2.04436715E+02  # Chi_4
   1000023     2.04799391E+02  # Chi_5
   1000025     5.98970624E+02  # Chi_6
   1000035     2.00984609E+03  # Chi_7
        11     5.10998930E-04  # Cha_1
        13     1.05658372E-01  # Cha_2
        15     1.77669000E+00  # Cha_3
   1000024     2.04143623E+02  # Cha_4
   1000037     2.01006523E+03  # Cha_5
Block DSQMIX Q=  1.99800812E+03  # ()
  1  1     0.00000000E+00   # Real(ZD(1,1),dp)
  1  2     0.00000000E+00   # Real(ZD(1,2),dp)
  1  3     9.99687929E-01   # Real(ZD(1,3),dp)
  1  4     0.00000000E+00   # Real(ZD(1,4),dp)
  1  5     0.00000000E+00   # Real(ZD(1,5),dp)
  1  6     2.49808882E-02   # Real(ZD(1,6),dp)
  2  1     0.00000000E+00   # Real(ZD(2,1),dp)
  2  2     0.00000000E+00   # Real(ZD(2,2),dp)
  2  3    -2.49808882E-02   # Real(ZD(2,3),dp)
  2  4     0.00000000E+00   # Real(ZD(2,4),dp)
  2  5     0.00000000E+00   # Real(ZD(2,5),dp)
  2  6     9.99687929E-01   # Real(ZD(2,6),dp)
  3  1    -0.00000000E+00   # Real(ZD(3,1),dp)
  3  2    -6.80991216E-04   # Real(ZD(3,2),dp)
  3  3    -0.00000000E+00   # Real(ZD(3,3),dp)
  3  4    -0.00000000E+00   # Real(ZD(3,4),dp)
  3  5    -9.99999768E-01   # Real(ZD(3,5),dp)
  3  6    -0.00000000E+00   # Real(ZD(3,6),dp)
  4  1     3.58412056E-05   # Real(ZD(4,1),dp)
  4  2     0.00000000E+00   # Real(ZD(4,2),dp)
  4  3     0.00000000E+00   # Real(ZD(4,3),dp)
  4  4     9.99999999E-01   # Real(ZD(4,4),dp)
  4  5     0.00000000E+00   # Real(ZD(4,5),dp)
  4  6     0.00000000E+00   # Real(ZD(4,6),dp)
  5  1     0.00000000E+00   # Real(ZD(5,1),dp)
  5  2    -9.99999768E-01   # Real(ZD(5,2),dp)
  5  3     0.00000000E+00   # Real(ZD(5,3),dp)
  5  4     0.00000000E+00   # Real(ZD(5,4),dp)
  5  5     6.80991216E-04   # Real(ZD(5,5),dp)
  5  6     0.00000000E+00   # Real(ZD(5,6),dp)
  6  1    -9.99999999E-01   # Real(ZD(6,1),dp)
  6  2    -0.00000000E+00   # Real(ZD(6,2),dp)
  6  3    -0.00000000E+00   # Real(ZD(6,3),dp)
  6  4     3.58412056E-05   # Real(ZD(6,4),dp)
  6  5    -0.00000000E+00   # Real(ZD(6,5),dp)
  6  6    -0.00000000E+00   # Real(ZD(6,6),dp)
Block USQMIX Q=  1.99800812E+03  # ()
  1  1    -0.00000000E+00   # Real(ZU(1,1),dp)
  1  2    -0.00000000E+00   # Real(ZU(1,2),dp)
  1  3    -6.28624751E-01   # Real(ZU(1,3),dp)
  1  4    -0.00000000E+00   # Real(ZU(1,4),dp)
  1  5    -0.00000000E+00   # Real(ZU(1,5),dp)
  1  6    -7.77708765E-01   # Real(ZU(1,6),dp)
  2  1     0.00000000E+00   # Real(ZU(2,1),dp)
  2  2     1.06070418E-03   # Real(ZU(2,2),dp)
  2  3     0.00000000E+00   # Real(ZU(2,3),dp)
  2  4     0.00000000E+00   # Real(ZU(2,4),dp)
  2  5     9.99999437E-01   # Real(ZU(2,5),dp)
  2  6     0.00000000E+00   # Real(ZU(2,6),dp)
  3  1    -2.08803884E-06   # Real(ZU(3,1),dp)
  3  2    -0.00000000E+00   # Real(ZU(3,2),dp)
  3  3    -0.00000000E+00   # Real(ZU(3,3),dp)
  3  4    -1.00000000E+00   # Real(ZU(3,4),dp)
  3  5    -0.00000000E+00   # Real(ZU(3,5),dp)
  3  6    -0.00000000E+00   # Real(ZU(3,6),dp)
  4  1     0.00000000E+00   # Real(ZU(4,1),dp)
  4  2     9.99999437E-01   # Real(ZU(4,2),dp)
  4  3     0.00000000E+00   # Real(ZU(4,3),dp)
  4  4     0.00000000E+00   # Real(ZU(4,4),dp)
  4  5    -1.06070418E-03   # Real(ZU(4,5),dp)
  4  6     0.00000000E+00   # Real(ZU(4,6),dp)
  5  1    -1.00000000E+00   # Real(ZU(5,1),dp)
  5  2     0.00000000E+00   # Real(ZU(5,2),dp)
  5  3     0.00000000E+00   # Real(ZU(5,3),dp)
  5  4     2.08803884E-06   # Real(ZU(5,4),dp)
  5  5     0.00000000E+00   # Real(ZU(5,5),dp)
  5  6     0.00000000E+00   # Real(ZU(5,6),dp)
  6  1     0.00000000E+00   # Real(ZU(6,1),dp)
  6  2     0.00000000E+00   # Real(ZU(6,2),dp)
  6  3    -7.77708765E-01   # Real(ZU(6,3),dp)
  6  4     0.00000000E+00   # Real(ZU(6,4),dp)
  6  5     0.00000000E+00   # Real(ZU(6,5),dp)
  6  6     6.28624751E-01   # Real(ZU(6,6),dp)
Block SCALARMIX Q=  1.99800812E+03  # ()
  1  1     2.00555131E-01   # ZH(1,1)
  1  2     9.79682414E-01   # ZH(1,2)
  1  3    -4.15099614E-05   # ZH(1,3)
  1  4     5.68053851E-05   # ZH(1,4)
  1  5    -3.57000483E-05   # ZH(1,5)
  2  1    -9.79682418E-01   # ZH(2,1)
  2  2     2.00555129E-01   # ZH(2,2)
  2  3    -1.41270758E-05   # ZH(2,3)
  2  4     1.84087801E-05   # ZH(2,4)
  2  5    -1.27139582E-05   # ZH(2,5)
  3  1     5.29476818E-06   # ZH(3,1)
  3  2    -3.75157930E-05   # ZH(3,2)
  3  3     9.91447931E-05   # ZH(3,3)
  3  4    -7.50428330E-05   # ZH(3,4)
  3  5    -9.99999992E-01   # ZH(3,5)
  4  1    -6.41235729E-06   # ZH(4,1)
  4  2     5.75246680E-05   # ZH(4,2)
  4  3    -4.07346653E-02   # ZH(4,3)
  4  4    -9.99169995E-01   # ZH(4,4)
  4  5     7.09397256E-05   # ZH(4,5)
  5  1     5.78154097E-06   # ZH(5,1)
  5  2    -4.58848891E-05   # ZH(5,2)
  5  3    -9.99169993E-01   # ZH(5,3)
  5  4     4.07346553E-02   # ZH(5,4)
  5  5    -1.02117595E-04   # ZH(5,5)
Block PSEUDOSCALARMIX Q=  1.99800812E+03  # ()
  1  1     1.94653124E-01   # ZA(1,1)
  1  2    -9.80872140E-01   # ZA(1,2)
  1  3    -4.12687861E-05   # ZA(1,3)
  1  4     5.64716096E-05   # ZA(1,4)
  1  5    -3.54948862E-05   # ZA(1,5)
  2  1    -9.80872143E-01   # ZA(2,1)
  2  2    -1.94653123E-01   # ZA(2,2)
  2  3    -1.37480746E-05   # ZA(2,3)
  2  4     1.78910021E-05   # ZA(2,4)
  2  5    -1.23874883E-05   # ZA(2,5)
  3  1     5.24010111E-06   # ZA(3,1)
  3  2     3.72164984E-05   # ZA(3,2)
  3  3     8.96723077E-05   # ZA(3,3)
  3  4    -1.16176216E-04   # ZA(3,4)
  3  5    -9.99999989E-01   # ZA(3,5)
  4  1     6.34888421E-06   # ZA(4,1)
  4  2     5.72259444E-05   # ZA(4,2)
  4  3     3.73341895E-02   # ZA(4,3)
  4  4     9.99302828E-01   # ZA(4,4)
  4  5    -1.12745217E-04   # ZA(4,5)
  5  1    -5.69347490E-06   # ZA(5,1)
  5  2    -4.53269303E-05   # ZA(5,2)
  5  3     9.99302831E-01   # ZA(5,3)
  5  4    -3.73341764E-02   # ZA(5,4)
  5  5     9.39454186E-05   # ZA(5,5)
Block CHARGEMIX Q=  1.99800812E+03  # ()
  1  1     1.96015838E-01   # ZP(1,1)
  1  2    -9.80600727E-01   # ZP(1,2)
  1  3    -4.13253229E-05   # ZP(1,3)
  1  4     5.65490050E-05   # ZP(1,4)
  1  5    -3.55435010E-05   # ZP(1,5)
  1  6    -1.92921448E-15   # ZP(1,6)
  1  7     3.88158237E-13   # ZP(1,7)
  1  8    -7.25593125E-12   # ZP(1,8)
  2  1     9.80600730E-01   # ZP(2,1)
  2  2     1.96015837E-01   # ZP(2,2)
  2  3     1.38589500E-05   # ZP(2,3)
  2  4    -1.80422920E-05   # ZP(2,4)
  2  5     1.24829940E-05   # ZP(2,5)
  2  6     3.57945470E-11   # ZP(2,6)
  2  7    -7.78437304E-09   # ZP(2,7)
  2  8     1.31133319E-07   # ZP(2,8)
  3  1     4.86794160E-07   # ZP(3,1)
  3  2     2.56132412E-06   # ZP(3,2)
  3  3     2.19675092E-08   # ZP(3,3)
  3  4    -2.85910870E-08   # ZP(3,4)
  3  5    -6.79790158E-02   # ZP(3,5)
  3  6     3.62550263E-11   # ZP(3,6)
  3  7    -1.00634632E-08   # ZP(3,7)
  3  8    -9.97686751E-01   # ZP(3,8)
  4  1    -3.46320025E-08   # ZP(4,1)
  4  2    -2.42547954E-07   # ZP(4,2)
  4  3    -2.04074449E-09   # ZP(4,3)
  4  4    -4.08590772E-03   # ZP(4,4)
  4  5    -1.12880728E-09   # ZP(4,5)
  4  6    -1.05911082E-09   # ZP(4,6)
  4  7    -9.99991653E-01   # ZP(4,7)
  4  8     1.02800772E-08   # ZP(4,8)
  5  1     1.43584346E-10   # ZP(5,1)
  5  2     8.61512038E-10   # ZP(5,2)
  5  3    -1.97615653E-05   # ZP(5,3)
  5  4    -5.31162610E-12   # ZP(5,4)
  5  5     4.13515517E-12   # ZP(5,5)
  5  6    -1.00000000E+00   # ZP(5,6)
  5  7     1.05918148E-09   # ZP(5,7)
  5  8    -3.70536909E-11   # ZP(5,8)
  6  1    -4.70571828E-06   # ZP(6,1)
  6  2    -3.62812257E-05   # ZP(6,2)
  6  3     9.93583276E-01   # ZP(6,3)
  6  4     1.13101675E-01   # ZP(6,4)
  6  5    -2.63382465E-04   # ZP(6,5)
  6  6    -1.96347619E-05   # ZP(6,6)
  6  7    -4.62128884E-04   # ZP(6,7)
  6  8     1.79645395E-05   # ZP(6,8)
  7  1    -7.18390073E-06   # ZP(7,1)
  7  2    -6.34838885E-05   # ZP(7,2)
  7  3     1.13102496E-01   # ZP(7,3)
  7  4    -9.93574934E-01   # ZP(7,4)
  7  5    -4.35582557E-04   # ZP(7,5)
  7  6    -2.23507283E-06   # ZP(7,6)
  7  7     4.05968916E-03   # ZP(7,7)
  7  8     2.97098849E-05   # ZP(7,8)
  8  1    -5.25718253E-06   # ZP(8,1)
  8  2    -3.72501130E-05   # ZP(8,2)
  8  3     3.11678769E-04   # ZP(8,3)
  8  4    -4.03929066E-04   # ZP(8,4)
  8  5     9.97686621E-01   # ZP(8,5)
  8  6    -6.15264483E-09   # ZP(8,6)
  8  7     1.64861421E-06   # ZP(8,7)
  8  8    -6.79790070E-02   # ZP(8,8)
Block UVMIX Q=  1.99800812E+03  # ()
  1  1     0.00000000E+00   # Real(UV(1,1),dp)
  1  2     0.00000000E+00   # Real(UV(1,2),dp)
  1  3    -0.00000000E+00   # Real(UV(1,3),dp)
  1  4    -0.00000000E+00   # Real(UV(1,4),dp)
  1  5    -0.00000000E+00   # Real(UV(1,5),dp)
  1  6    -0.00000000E+00   # Real(UV(1,6),dp)
  1  7     0.00000000E+00   # Real(UV(1,7),dp)
  2  1     5.72006349E-01   # Real(UV(2,1),dp)
  2  2    -4.86122348E-01   # Real(UV(2,2),dp)
  2  3     6.60676669E-01   # Real(UV(2,3),dp)
  2  4     1.21985769E-07   # Real(UV(2,4),dp)
  2  5     7.23517022E-08   # Real(UV(2,5),dp)
  2  6     3.71462342E-04   # Real(UV(2,6),dp)
  2  7    -1.35508027E-10   # Real(UV(2,7),dp)
  3  1     3.20697183E-02   # Real(UV(3,1),dp)
  3  2     8.18096793E-01   # Real(UV(3,2),dp)
  3  3     5.74185657E-01   # Real(UV(3,3),dp)
  3  4    -1.15677476E-06   # Real(UV(3,4),dp)
  3  5    -6.15656977E-07   # Real(UV(3,5),dp)
  3  6    -4.43922414E-05   # Real(UV(3,6),dp)
  3  7     5.51662922E-09   # Real(UV(3,7),dp)
  4  1    -1.47658289E-04   # Real(UV(4,1),dp)
  4  2     1.53868059E-04   # Real(UV(4,2),dp)
  4  3    -1.56445974E-04   # Real(UV(4,3),dp)
  4  4    -4.57449569E-02   # Real(UV(4,4),dp)
  4  5    -3.61662308E-02   # Real(UV(4,5),dp)
  4  6     7.07012415E-01   # Real(UV(4,6),dp)
  4  7    -7.04792720E-01   # Real(UV(4,7),dp)
  5  1     0.00000000E+00   # Real(UV(5,1),dp)
  5  2    -0.00000000E+00   # Real(UV(5,2),dp)
  5  3     0.00000000E+00   # Real(UV(5,3),dp)
  5  4    -0.00000000E+00   # Real(UV(5,4),dp)
  5  5    -0.00000000E+00   # Real(UV(5,5),dp)
  5  6    -0.00000000E+00   # Real(UV(5,6),dp)
  5  7    -0.00000000E+00   # Real(UV(5,7),dp)
  6  1    -0.00000000E+00   # Real(UV(6,1),dp)
  6  2     0.00000000E+00   # Real(UV(6,2),dp)
  6  3    -0.00000000E+00   # Real(UV(6,3),dp)
  6  4    -0.00000000E+00   # Real(UV(6,4),dp)
  6  5     0.00000000E+00   # Real(UV(6,5),dp)
  6  6     0.00000000E+00   # Real(UV(6,6),dp)
  6  7     0.00000000E+00   # Real(UV(6,7),dp)
  7  1     2.42896642E-06   # Real(UV(7,1),dp)
  7  2    -3.05486518E-06   # Real(UV(7,2),dp)
  7  3     2.25350587E-06   # Real(UV(7,3),dp)
  7  4     7.01604508E-04   # Real(UV(7,4),dp)
  7  5    -9.99147113E-01   # Real(UV(7,5),dp)
  7  6    -1.15517805E-02   # Real(UV(7,6),dp)
  7  7     3.96372382E-02   # Real(UV(7,7),dp)
Block IMUVMIX Q=  1.99800812E+03  # ()
  1  1     8.19622002E-01   # Aimag(UV(1,1))
  1  2     3.07250148E-01   # Aimag(UV(1,2))
  1  3    -4.83546399E-01   # Aimag(UV(1,3))
  1  4    -1.18529508E-08   # Aimag(UV(1,4))
  1  5    -6.38941276E-09   # Aimag(UV(1,5))
  1  6    -2.68966438E-06   # Aimag(UV(1,6))
  1  7     5.16188365E-11   # Aimag(UV(1,7))
  2  1     0.00000000E+00   # Aimag(UV(2,1))
  2  2     0.00000000E+00   # Aimag(UV(2,2))
  2  3     0.00000000E+00   # Aimag(UV(2,3))
  2  4     0.00000000E+00   # Aimag(UV(2,4))
  2  5     0.00000000E+00   # Aimag(UV(2,5))
  2  6     0.00000000E+00   # Aimag(UV(2,6))
  2  7     0.00000000E+00   # Aimag(UV(2,7))
  3  1     0.00000000E+00   # Aimag(UV(3,1))
  3  2     0.00000000E+00   # Aimag(UV(3,2))
  3  3     0.00000000E+00   # Aimag(UV(3,3))
  3  4     0.00000000E+00   # Aimag(UV(3,4))
  3  5     0.00000000E+00   # Aimag(UV(3,5))
  3  6     0.00000000E+00   # Aimag(UV(3,6))
  3  7     0.00000000E+00   # Aimag(UV(3,7))
  4  1     0.00000000E+00   # Aimag(UV(4,1))
  4  2     0.00000000E+00   # Aimag(UV(4,2))
  4  3     0.00000000E+00   # Aimag(UV(4,3))
  4  4     0.00000000E+00   # Aimag(UV(4,4))
  4  5     0.00000000E+00   # Aimag(UV(4,5))
  4  6     0.00000000E+00   # Aimag(UV(4,6))
  4  7     0.00000000E+00   # Aimag(UV(4,7))
  5  1     1.47661335E-04   # Aimag(UV(5,1))
  5  2    -1.54000293E-04   # Aimag(UV(5,2))
  5  3     1.56370337E-04   # Aimag(UV(5,3))
  5  4    -6.22650044E-02   # Aimag(UV(5,4))
  5  5    -1.98050613E-02   # Aimag(UV(5,5))
  5  6    -7.07009772E-01   # Aimag(UV(5,6))
  5  7    -7.04178913E-01   # Aimag(UV(5,7))
  6  1    -2.42208396E-06   # Aimag(UV(6,1))
  6  2     1.54331604E-06   # Aimag(UV(6,2))
  6  3    -3.16554651E-06   # Aimag(UV(6,3))
  6  4    -9.97010519E-01   # Aimag(UV(6,4))
  6  5     2.19313512E-03   # Aimag(UV(6,5))
  6  6     1.17066061E-02   # Aimag(UV(6,6))
  6  7     7.63424497E-02   # Aimag(UV(6,7))
  7  1     0.00000000E+00   # Aimag(UV(7,1))
  7  2     0.00000000E+00   # Aimag(UV(7,2))
  7  3     0.00000000E+00   # Aimag(UV(7,3))
  7  4     0.00000000E+00   # Aimag(UV(7,4))
  7  5     0.00000000E+00   # Aimag(UV(7,5))
  7  6     0.00000000E+00   # Aimag(UV(7,6))
  7  7     0.00000000E+00   # Aimag(UV(7,7))
Block UELMIX Q=  1.99800812E+03  # ()
  1  1    -9.99999978E-01   # Real(ZEL(1,1),dp)
  1  2    -4.77350530E-08   # Real(ZEL(1,2),dp)
  1  3     4.84887046E-08   # Real(ZEL(1,3),dp)
  1  4    -2.32692809E-08   # Real(ZEL(1,4),dp)
  1  5    -2.08841250E-04   # Real(ZEL(1,5),dp)
  2  1    -2.35212475E-09   # Real(ZEL(2,1),dp)
  2  2     9.99999976E-01   # Real(ZEL(2,2),dp)
  2  3     5.06414953E-08   # Real(ZEL(2,3),dp)
  2  4    -7.69212118E-07   # Real(ZEL(2,4),dp)
  2  5    -2.17308157E-04   # Real(ZEL(2,5),dp)
  3  1     2.23747702E-09   # Real(ZEL(3,1),dp)
  3  2    -2.51545667E-09   # Real(ZEL(3,2),dp)
  3  3     9.99999975E-01   # Real(ZEL(3,3),dp)
  3  4    -4.30574566E-07   # Real(ZEL(3,4),dp)
  3  5     2.21466003E-04   # Real(ZEL(3,5),dp)
  4  1     2.08813040E-04   # Real(ZEL(4,1),dp)
  4  2    -2.17266628E-04   # Real(ZEL(4,2),dp)
  4  3     2.21443498E-04   # Real(ZEL(4,3),dp)
  4  4     1.63280871E-02   # Real(ZEL(4,4),dp)
  4  5    -9.99866618E-01   # Real(ZEL(4,5),dp)
  5  1    -3.43324447E-06   # Real(ZEL(5,1),dp)
  5  2     4.31733606E-06   # Real(ZEL(5,2),dp)
  5  3    -3.18559880E-06   # Real(ZEL(5,3),dp)
  5  4     9.99866688E-01   # Real(ZEL(5,4),dp)
  5  5     1.63280858E-02   # Real(ZEL(5,5),dp)
Block UERMIX Q=  1.99800812E+03  # ()
  1  1    -1.00000000E+00   # Real(ZER(1,1),dp)
  1  2    -2.41753381E-10   # Real(ZER(1,2),dp)
  1  3     1.46054416E-11   # Real(ZER(1,3),dp)
  1  4    -2.23817678E-13   # Real(ZER(1,4),dp)
  1  5     4.07896027E-12   # Real(ZER(1,5),dp)
  2  1    -2.41753381E-10   # Real(ZER(2,1),dp)
  2  2     1.00000000E+00   # Real(ZER(2,2),dp)
  2  3     3.15985974E-09   # Real(ZER(2,3),dp)
  2  4    -1.93433439E-09   # Real(ZER(2,4),dp)
  2  5     3.48139926E-08   # Real(ZER(2,5),dp)
  3  1     1.46054438E-11   # Real(ZER(3,1),dp)
  3  2    -3.15987142E-09   # Real(ZER(3,2),dp)
  3  3     1.00000000E+00   # Real(ZER(3,3),dp)
  3  4    -1.85706075E-08   # Real(ZER(3,4),dp)
  3  5     3.33931800E-07   # Real(ZER(3,5),dp)
  4  1    -4.08509636E-12   # Real(ZER(4,1),dp)
  4  2     3.48676815E-08   # Real(ZER(4,2),dp)
  4  3     3.34447724E-07   # Real(ZER(4,3),dp)
  4  4     5.60817550E-02   # Real(ZER(4,4),dp)
  4  5    -9.98426180E-01   # Real(ZER(4,5),dp)
  5  1     5.28982434E-15   # Real(ZER(5,1),dp)
  5  2    -2.11397119E-11   # Real(ZER(5,2),dp)
  5  3    -1.86100738E-10   # Real(ZER(5,3),dp)
  5  4     9.98426180E-01   # Real(ZER(5,4),dp)
  5  5     5.60817550E-02   # Real(ZER(5,5),dp)
Block UDLMIX Q=  1.99800812E+03  # ()
  1  1     1.00000000E+00   # Real(ZDL(1,1),dp)
  1  2     0.00000000E+00   # Real(ZDL(1,2),dp)
  1  3     0.00000000E+00   # Real(ZDL(1,3),dp)
  2  1     0.00000000E+00   # Real(ZDL(2,1),dp)
  2  2     1.00000000E+00   # Real(ZDL(2,2),dp)
  2  3     0.00000000E+00   # Real(ZDL(2,3),dp)
  3  1     0.00000000E+00   # Real(ZDL(3,1),dp)
  3  2     0.00000000E+00   # Real(ZDL(3,2),dp)
  3  3     1.00000000E+00   # Real(ZDL(3,3),dp)
Block UDRMIX Q=  1.99800812E+03  # ()
  1  1     1.00000000E+00   # Real(ZDR(1,1),dp)
  1  2     0.00000000E+00   # Real(ZDR(1,2),dp)
  1  3     0.00000000E+00   # Real(ZDR(1,3),dp)
  2  1     0.00000000E+00   # Real(ZDR(2,1),dp)
  2  2     1.00000000E+00   # Real(ZDR(2,2),dp)
  2  3     0.00000000E+00   # Real(ZDR(2,3),dp)
  3  1     0.00000000E+00   # Real(ZDR(3,1),dp)
  3  2     0.00000000E+00   # Real(ZDR(3,2),dp)
  3  3     1.00000000E+00   # Real(ZDR(3,3),dp)
Block UULMIX Q=  1.99800812E+03  # ()
  1  1     1.00000000E+00   # Real(ZUL(1,1),dp)
  1  2     0.00000000E+00   # Real(ZUL(1,2),dp)
  1  3     0.00000000E+00   # Real(ZUL(1,3),dp)
  2  1     0.00000000E+00   # Real(ZUL(2,1),dp)
  2  2     1.00000000E+00   # Real(ZUL(2,2),dp)
  2  3     0.00000000E+00   # Real(ZUL(2,3),dp)
  3  1     0.00000000E+00   # Real(ZUL(3,1),dp)
  3  2     0.00000000E+00   # Real(ZUL(3,2),dp)
  3  3     1.00000000E+00   # Real(ZUL(3,3),dp)
Block UURMIX Q=  1.99800812E+03  # ()
  1  1     1.00000000E+00   # Real(ZUR(1,1),dp)
  1  2     0.00000000E+00   # Real(ZUR(1,2),dp)
  1  3     0.00000000E+00   # Real(ZUR(1,3),dp)
  2  1     0.00000000E+00   # Real(ZUR(2,1),dp)
  2  2     1.00000000E+00   # Real(ZUR(2,2),dp)
  2  3     0.00000000E+00   # Real(ZUR(2,3),dp)
  3  1     0.00000000E+00   # Real(ZUR(3,1),dp)
  3  2     0.00000000E+00   # Real(ZUR(3,2),dp)
  3  3     1.00000000E+00   # Real(ZUR(3,3),dp)
Block SPheno # SPheno internal parameters 
         1    -1.00000000E+00  # ErrorLevel
         2     0.00000000E+00  # SPA_conventions
        11     1.00000000E+00  # Branching ratios
        13     1.00000000E+00  # 3 Body decays
        31     1.99800812E+03  # GUT scale
        33     1.99800812E+03  # Renormalization scale
        34     1.00000000E-04  # Precision
        35     4.00000000E+01  # Iterations
        38     2.00000000E+00  # RGE level
        40     7.29735257E-03  # Alpha
        41     2.49520000E+00  # Gamma_Z
        42     2.06000000E+00  # Gamma_W
        50     1.00000000E+00  # Rotate negative fermion masses
        51     0.00000000E+00  # Switch to SCKM matrix
        52     0.00000000E+00  # Ignore negative masses
        53     0.00000000E+00  # Ignore negative masses at MZ
        55     1.00000000E+00  # Calculate one loop masses
        56     1.00000000E+00  # Calculate two-loop Higgs masses
        57     0.00000000E+00  # Calculate low energy
        60     1.00000000E+00  # Include kinetic mixing
        65     1.00000000E+00  # Solution of tadpole equation
         8     3.00000000E+00  # Two-Loop Method: diagrammatic 
         9     1.00000000E+00  # Gauge-less limit
       400     1.00000000E-01  # Step-size for purely-numerical methode for 2-loop calculation
       401     1.00000000E-03  # Step-size for semi-analytical methode for 2-loop calculation
       410     0.00000000E+00  # indicative error in numerical derivation
Block HiggsLHC7 # Higgs production cross section at LHC7 [pb] 
  1        25        1.60070688E+01 # Gluon fusion 
  2        25        1.24009883E+00 # Vector boson fusion 
  3        25        5.86938267E-01 # W-H production 
  4        25        3.39025437E-01 # Z-H production 
  5        25        9.17854901E-02 # t-t-H production 
Block HiggsLHC8 # Higgs production cross section at LHC8 [pb] 
  1        25        2.02572330E+01 # Gluon fusion 
  2        25        1.59706521E+00 # Vector boson fusion 
  3        25        7.46384905E-01 # W-H production 
  4        25        4.23101933E-01 # Z-H production 
  5        25        1.38737243E-01 # t-t-H production 
Block EFFHIGGSCOUPLINGS # values of loop-induced couplings 
        25           22           22     0.18238593E-04 # H-Photon-Photon 
        25           21           21     0.58944544E-04 # H-Gluon-Gluon 
        25           22           23     0.00000000E+00 # H-Photon-Z (not yet calculated by SPheno) 
        35           22           22     0.49116954E-04 # H-Photon-Photon 
        35           21           21     0.79383748E-05 # H-Gluon-Gluon 
        35           22           23     0.00000000E+00 # H-Photon-Z (not yet calculated by SPheno) 
   1000012           22           22     0.49015181E-09 # H-Photon-Photon 
   1000012           21           21     0.59667015E-09 # H-Gluon-Gluon 
   1000012           22           23     0.00000000E+00 # H-Photon-Z (not yet calculated by SPheno) 
   1000014           22           22     0.70009971E-09 # H-Photon-Photon 
   1000014           21           21     0.91584646E-09 # H-Gluon-Gluon 
   1000014           22           23     0.00000000E+00 # H-Photon-Z (not yet calculated by SPheno) 
   1000016           22           22     0.57849861E-09 # H-Photon-Photon 
   1000016           21           21     0.73014645E-09 # H-Gluon-Gluon 
   1000016           22           23     0.00000000E+00 # H-Photon-Z (not yet calculated by SPheno) 
        36           22           22     0.15164194E-05 # A-Photon-Photon 
        36           21           21     0.11230511E-04 # A-Gluon-Gluon 
        36           22           23     0.00000000E+00 # A-Photon-Z (not yet calculated by SPheno) 
   1000017           22           22     0.11487123E-09 # A-Photon-Photon 
   1000017           21           21     0.79947866E-09 # A-Gluon-Gluon 
   1000017           22           23     0.00000000E+00 # A-Photon-Z (not yet calculated by SPheno) 
   1000018           22           22     0.16313626E-09 # A-Photon-Photon 
   1000018           21           21     0.12291310E-08 # A-Gluon-Gluon 
   1000018           22           23     0.00000000E+00 # A-Photon-Z (not yet calculated by SPheno) 
   1000019           22           22     0.13373345E-09 # A-Photon-Photon 
   1000019           21           21     0.97363016E-09 # A-Gluon-Gluon 
   1000019           22           23     0.00000000E+00 # A-Photon-Z (not yet calculated by SPheno) 
Block SPhenoLowEnergy # low energy observables 
      20    0.00000000E+00  # (g-2)_e
      21    0.00000000E+00  # (g-2)_mu
      22    0.00000000E+00  # (g-2)_tau
      23    0.00000000E+00  # EDM(e)
      24    0.00000000E+00  # EDM(mu)
      25    0.00000000E+00  # EDM(tau)
      39    0.00000000E+00  # delta(rho)
Block FlavorKitQFV # quark flavor violating observables 
     200    0.00000000E+00  # BR(B->X_s gamma)
     201    0.00000000E+00  # BR(B->X_s gamma)/BR(B->X_s gamma)_SM
     300    0.00000000E+00  # BR(D->mu nu)
     301    0.00000000E+00  # BR(D->mu nu)/BR(D->mu nu)_SM
     400    0.00000000E+00  # BR(Ds->mu nu)
     401    0.00000000E+00  # BR(Ds->mu nu)/BR(Ds->mu nu)_SM
     402    0.00000000E+00  # BR(Ds->tau nu)
     403    0.00000000E+00  # BR(Ds->tau nu)/BR(Ds->tau nu)_SM
     500    0.00000000E+00  # BR(B->mu nu)
     501    0.00000000E+00  # BR(B->mu nu)/BR(B->mu nu)_SM
     502    0.00000000E+00  # BR(B->tau nu)
     503    0.00000000E+00  # BR(B->tau nu)/BR(B->tau nu)_SM
     600    0.00000000E+00  # BR(K->mu nu)
     601    0.00000000E+00  # BR(K->mu nu)/BR(K->mu nu)_SM
     602    0.00000000E+00  # R_K = BR(K->e nu)/(K->mu nu)
     603    0.00000000E+00  # R_K^SM = BR(K->e nu)_SM/(K->mu nu)_SM
    1900    0.00000000E+00  # Delta(M_Bs)
    1901    0.00000000E+00  # Delta(M_Bs)/Delta(M_Bs)_SM
    1902    0.00000000E+00  # Delta(M_Bd)
    1903    0.00000000E+00  # Delta(M_Bd)/Delta(M_Bd)_SM
    4000    0.00000000E+00  # BR(B^0_d->e e)
    4001    0.00000000E+00  # BR(B^0_d->e e)/BR(B^0_d->e e)_SM
    4002    0.00000000E+00  # BR(B^0_s->e e)
    4003    0.00000000E+00  # BR(B^0_s->e e)/BR(B^0_s->e e)_SM
    4004    0.00000000E+00  # BR(B^0_d->mu mu)
    4005    0.00000000E+00  # BR(B^0_d->mu mu)/BR(B^0_d->mu mu)_SM
    4006    0.00000000E+00  # BR(B^0_s->mu mu)
    4007    0.00000000E+00  # BR(B^0_s->mu mu)/BR(B^0_s->mu mu)_SM
    4008    0.00000000E+00  # BR(B^0_d->tau tau)
    4009    0.00000000E+00  # BR(B^0_d->tau tau)/BR(B^0_d->tau tau)_SM
    4010    0.00000000E+00  # BR(B^0_s->tau tau)
    4011    0.00000000E+00  # BR(B^0_s->tau tau)/BR(B^0_s->tau tau)_SM
    5000    0.00000000E+00  # BR(B-> s e e)
    5001    0.00000000E+00  # BR(B-> s e e)/BR(B-> s e e)_SM
    5002    0.00000000E+00  # BR(B-> s mu mu)
    5003    0.00000000E+00  # BR(B-> s mu mu)/BR(B-> s mu mu)_SM
    6000    0.00000000E+00  # BR(B -> K mu mu)
    6001    0.00000000E+00  # BR(B -> K mu mu)/BR(B -> K mu mu)_SM
    7000    0.00000000E+00  # BR(B->s nu nu)
    7001    0.00000000E+00  # BR(B->s nu nu)/BR(B->s nu nu)_SM
    7002    0.00000000E+00  # BR(B->D nu nu)
    7003    0.00000000E+00  # BR(B->D nu nu)/BR(B->D nu nu)_SM
    8000    0.00000000E+00  # BR(K^+ -> pi^+ nu nu)
    8001    0.00000000E+00  # BR(K^+ -> pi^+ nu nu)/BR(K^+ -> pi^+ nu nu)_SM
    8002    0.00000000E+00  # BR(K_L -> pi^0 nu nu)
    8003    0.00000000E+00  # BR(K_L -> pi^0 nu nu)/BR(K_L -> pi^0 nu nu)_SM
    9100    0.00000000E+00  # Delta(M_K)
    9102    0.00000000E+00  # Delta(M_K)/Delta(M_K)_SM
    9103    0.00000000E+00  # epsilon_K
    9104    0.00000000E+00  # epsilon_K/epsilon_K^SM
Block FlavorKitLFV # lepton flavor violating observables 
     701    0.00000000E+00  # BR(mu->e gamma)
     702    0.00000000E+00  # BR(tau->e gamma)
     703    0.00000000E+00  # BR(tau->mu gamma)
     800    0.00000000E+00  # CR(mu-e, Al)
     801    0.00000000E+00  # CR(mu-e, Ti)
     802    0.00000000E+00  # CR(mu-e, Sr)
     803    0.00000000E+00  # CR(mu-e, Sb)
     804    0.00000000E+00  # CR(mu-e, Au)
     805    0.00000000E+00  # CR(mu-e, Pb)
     901    0.00000000E+00  # BR(mu->3e)
     902    0.00000000E+00  # BR(tau->3e)
     903    0.00000000E+00  # BR(tau->3mu)
     904    0.00000000E+00  # BR(tau- -> e- mu+ mu-)
     905    0.00000000E+00  # BR(tau- -> mu- e+ e-)
     906    0.00000000E+00  # BR(tau- -> e+ mu- mu-)
     907    0.00000000E+00  # BR(tau- -> mu+ e- e-)
    1001    0.00000000E+00  # BR(Z->e mu)
    1002    0.00000000E+00  # BR(Z->e tau)
    1003    0.00000000E+00  # BR(Z->mu tau)
    1101    0.00000000E+00  # BR(h->e mu)
    1102    0.00000000E+00  # BR(h->e tau)
    1103    0.00000000E+00  # BR(h->mu tau)
    2001    0.00000000E+00  # BR(tau->e pi)
    2002    0.00000000E+00  # BR(tau->e eta)
    2003    0.00000000E+00  # BR(tau->e eta')
    2004    0.00000000E+00  # BR(tau->mu pi)
    2005    0.00000000E+00  # BR(tau->mu eta)
    2006    0.00000000E+00  # BR(tau->mu eta')
Block FWCOEF Q=  1.60000000E+02  # Wilson coefficients at scale Q 
      030 4422   00   0     0.00000000E+00    # coeffC7sm
      030 4422   00   2     0.00000000E+00    # coeffC7
      030 4322   00   2     0.00000000E+00    # coeffC7p
      030 6421   00   0     0.00000000E+00    # coeffC8sm
      030 6421   00   2     0.00000000E+00    # coeffC8
      030 6321   00   2     0.00000000E+00    # coeffC8p
  0305111 4133   00   0     0.00000000E+00    # coeffC9eeSM
  0305111 4133   00   2     0.00000000E+00    # coeffC9ee
  0305111 4233   00   2     0.00000000E+00    # coeffC9Pee
  0305111 4137   00   0     0.00000000E+00    # coeffC10eeSM
  0305111 4137   00   2     0.00000000E+00    # coeffC10ee
  0305111 4237   00   2     0.00000000E+00    # coeffC10Pee
  0305131 4133   00   0     0.00000000E+00    # coeffC9mumuSM
  0305131 4133   00   2     0.00000000E+00    # coeffC9mumu
  0305131 4233   00   2     0.00000000E+00    # coeffC9Pmumu
  0305131 4137   00   0     0.00000000E+00    # coeffC10mumuSM
  0305131 4137   00   2     0.00000000E+00    # coeffC10mumu
  0305131 4237   00   2     0.00000000E+00    # coeffC10Pmumu
  0305121 4137   00   0     0.00000000E+00    # coeffC11nu1nu1SM
  0305121 4137   00   2     0.00000000E+00    # coeffC11nu1nu1
  0305121 4237   00   2     0.00000000E+00    # coeffC11Pnu1nu1
  0305141 4137   00   0     0.00000000E+00    # coeffC11nu2nu2SM
  0305141 4137   00   2     0.00000000E+00    # coeffC11nu2nu2
  0305141 4237   00   2     0.00000000E+00    # coeffC11Pnu2nu2
  0305161 4137   00   0     0.00000000E+00    # coeffC11nu3nu3SM
  0305161 4137   00   2     0.00000000E+00    # coeffC11nu3nu3
  0305161 4237   00   2     0.00000000E+00    # coeffC11Pnu3nu3
Block IMFWCOEF Q=  1.60000000E+02  # Im(Wilson coefficients) at scale Q 
      030 4422   00   0     0.00000000E+00    # coeffC7sm
      030 4422   00   2     0.00000000E+00    # coeffC7
      030 4322   00   2     0.00000000E+00    # coeffC7p
      030 6421   00   0     0.00000000E+00    # coeffC8sm
      030 6421   00   2     0.00000000E+00    # coeffC8
      030 6321   00   2     0.00000000E+00    # coeffC8p
  0305111 4133   00   0     0.00000000E+00    # coeffC9eeSM
  0305111 4133   00   2     0.00000000E+00    # coeffC9ee
  0305111 4233   00   2     0.00000000E+00    # coeffC9Pee
  0305111 4137   00   0     0.00000000E+00    # coeffC10eeSM
  0305111 4137   00   2     0.00000000E+00    # coeffC10ee
  0305111 4237   00   2     0.00000000E+00    # coeffC10Pee
  0305131 4133   00   0     0.00000000E+00    # coeffC9mumuSM
  0305131 4133   00   2     0.00000000E+00    # coeffC9mumu
  0305131 4233   00   2     0.00000000E+00    # coeffC9Pmumu
  0305131 4137   00   0     0.00000000E+00    # coeffC10mumuSM
  0305131 4137   00   2     0.00000000E+00    # coeffC10mumu
  0305131 4237   00   2     0.00000000E+00    # coeffC10Pmumu
  0305121 4137   00   0     0.00000000E+00    # coeffC11nu1nu1SM
  0305121 4137   00   2     0.00000000E+00    # coeffC11nu1nu1
  0305121 4237   00   2     0.00000000E+00    # coeffC11Pnu1nu1
  0305141 4137   00   0     0.00000000E+00    # coeffC11nu2nu2SM
  0305141 4137   00   2     0.00000000E+00    # coeffC11nu2nu2
  0305141 4237   00   2     0.00000000E+00    # coeffC11Pnu2nu2
  0305161 4137   00   0     0.00000000E+00    # coeffC11nu3nu3SM
  0305161 4137   00   2     0.00000000E+00    # coeffC11nu3nu3
  0305161 4237   00   2     0.00000000E+00    # coeffC11Pnu3nu3
DECAY   1000001     3.21654695E+01   # Sd_1
#    BR                NDA      ID1      ID2
     8.90609051E-01    2            6   -1000024   # BR(Sd_1 -> Fu_3 Cha_4 )
     2.94603151E-03    2            5    1000022   # BR(Sd_1 -> Fd_3 Chi_4 )
     2.77924228E-03    2            5    1000023   # BR(Sd_1 -> Fd_3 Chi_5 )
     7.94415143E-03    2            5    1000025   # BR(Sd_1 -> Fd_3 Chi_6 )
     3.62685744E-04    2            5    1000035   # BR(Sd_1 -> Fd_3 Chi_7 )
     9.53588372E-02    2      1000002        -24   # BR(Sd_1 -> Su_1 VWm )
DECAY   1000003     1.39570741E+00   # Sd_2
#    BR                NDA      ID1      ID2
     1.39333597E-01    2            6   -1000024   # BR(Sd_2 -> Fu_3 Cha_4 )
     6.54281698E-02    2            5    1000022   # BR(Sd_2 -> Fd_3 Chi_4 )
     6.67685576E-02    2            5    1000023   # BR(Sd_2 -> Fd_3 Chi_5 )
     7.25991356E-01    2            5    1000025   # BR(Sd_2 -> Fd_3 Chi_6 )
     2.46358586E-03    2      1000002        -24   # BR(Sd_2 -> Su_1 VWm )
DECAY   1000005     1.02080284E+00   # Sd_3
#    BR                NDA      ID1      ID2
     2.47338897E-03    2            3    1000022   # BR(Sd_3 -> Fd_2 Chi_4 )
     4.55434493E-03    2            3    1000023   # BR(Sd_3 -> Fd_2 Chi_5 )
     9.92906594E-01    2            3    1000025   # BR(Sd_3 -> Fd_2 Chi_6 )
DECAY   2000001     1.02066989E+00   # Sd_4
#    BR                NDA      ID1      ID2
     2.44111199E-03    2            1    1000022   # BR(Sd_4 -> Fd_1 Chi_4 )
     4.52221899E-03    2            1    1000023   # BR(Sd_4 -> Fd_1 Chi_5 )
     9.93036485E-01    2            1    1000025   # BR(Sd_4 -> Fd_1 Chi_6 )
DECAY   2000003     4.18396510E-01   # Sd_5
#    BR                NDA      ID1      ID2
     1.16815519E-02    2            4   -1000024   # BR(Sd_5 -> Fu_2 Cha_4 )
     2.29426987E-01    2            4   -1000037   # BR(Sd_5 -> Fu_2 Cha_5 )
     1.50511723E-02    2            3    1000022   # BR(Sd_5 -> Fd_2 Chi_4 )
     1.33715242E-03    2            3    1000023   # BR(Sd_5 -> Fd_2 Chi_5 )
     6.27296412E-01    2            3    1000025   # BR(Sd_5 -> Fd_2 Chi_6 )
     1.15206724E-01    2            3    1000035   # BR(Sd_5 -> Fd_2 Chi_7 )
DECAY   2000005     4.17824265E-01   # Sd_6
#    BR                NDA      ID1      ID2
     1.04569485E-02    2            2   -1000024   # BR(Sd_6 -> Fu_1 Cha_4 )
     2.29770612E-01    2            2   -1000037   # BR(Sd_6 -> Fu_1 Cha_5 )
     1.49925426E-02    2            1    1000022   # BR(Sd_6 -> Fd_1 Chi_4 )
     1.26002805E-03    2            1    1000023   # BR(Sd_6 -> Fd_1 Chi_5 )
     6.28154421E-01    2            1    1000025   # BR(Sd_6 -> Fd_1 Chi_6 )
     1.15365447E-01    2            1    1000035   # BR(Sd_6 -> Fd_1 Chi_7 )
DECAY   1000002     4.66714650E+01   # Su_1
#    BR                NDA      ID1      ID2
     2.79796549E-01    2            6    1000022   # BR(Su_1 -> Fu_3 Chi_4 )
     2.84842093E-01    2            6    1000023   # BR(Su_1 -> Fu_3 Chi_5 )
     6.08740310E-02    2            6    1000025   # BR(Su_1 -> Fu_3 Chi_6 )
     3.74487327E-01    2      1000024          5   # BR(Su_1 -> Cha_4^* Fd_3 )
DECAY   1000004     4.08377002E+00   # Su_2
#    BR                NDA      ID1      ID2
     2.50351984E-03    2            4    1000022   # BR(Su_2 -> Fu_2 Chi_4 )
     4.58312912E-03    2            4    1000023   # BR(Su_2 -> Fu_2 Chi_5 )
     9.92784657E-01    2            4    1000025   # BR(Su_2 -> Fu_2 Chi_6 )
     1.28680242E-04    2      1000024          3   # BR(Su_2 -> Cha_4^* Fd_2 )
DECAY   1000006     4.08273253E+00   # Su_3
#    BR                NDA      ID1      ID2
     2.44101484E-03    2            2    1000022   # BR(Su_3 -> Fu_1 Chi_4 )
     4.52211568E-03    2            2    1000023   # BR(Su_3 -> Fu_1 Chi_5 )
     9.93036867E-01    2            2    1000025   # BR(Su_3 -> Fu_1 Chi_6 )
DECAY   2000002     4.65530816E-01   # Su_4
#    BR                NDA      ID1      ID2
     3.64355686E-02    2            4    1000022   # BR(Su_4 -> Fu_2 Chi_4 )
     1.84113002E-02    2            4    1000023   # BR(Su_4 -> Fu_2 Chi_5 )
     5.37793885E-01    2            4    1000025   # BR(Su_4 -> Fu_2 Chi_6 )
     9.99317459E-02    2            4    1000035   # BR(Su_4 -> Fu_2 Chi_7 )
     1.08839772E-01    2      1000024          3   # BR(Su_4 -> Cha_4^* Fd_2 )
     1.98587728E-01    2      1000037          3   # BR(Su_4 -> Cha_5^* Fd_2 )
DECAY   2000004     4.64962904E-01   # Su_5
#    BR                NDA      ID1      ID2
     3.59271109E-02    2            2    1000022   # BR(Su_5 -> Fu_1 Chi_4 )
     1.78744837E-02    2            2    1000023   # BR(Su_5 -> Fu_1 Chi_5 )
     5.38447171E-01    2            2    1000025   # BR(Su_5 -> Fu_1 Chi_6 )
     1.00066773E-01    2            2    1000035   # BR(Su_5 -> Fu_1 Chi_7 )
     1.08852949E-01    2      1000024          1   # BR(Su_5 -> Cha_4^* Fd_1 )
     1.98831513E-01    2      1000037          1   # BR(Su_5 -> Cha_5^* Fd_1 )
DECAY   2000006     4.83246029E+01   # Su_6
#    BR                NDA      ID1      ID2
     3.12328373E-01    2            6    1000022   # BR(Su_6 -> Fu_3 Chi_4 )
     3.08155486E-01    2            6    1000023   # BR(Su_6 -> Fu_3 Chi_5 )
     2.95957768E-02    2            6    1000025   # BR(Su_6 -> Fu_3 Chi_6 )
     2.26469012E-01    2      1000024          5   # BR(Su_6 -> Cha_4^* Fd_3 )
     3.35668442E-03    2      1000037          5   # BR(Su_6 -> Cha_5^* Fd_3 )
     5.52677954E-03    2      1000002         25   # BR(Su_6 -> Su_1 hh_1 )
     4.62081005E-03    2      1000001         24   # BR(Su_6 -> Sd_1 VWm^* )
     1.09947079E-01    2      1000002         23   # BR(Su_6 -> Su_1 VZ )
DECAY        25     2.53662011E-03   # hh_1
#    BR                NDA      ID1      ID2
     1.19388943E-03    2           22         22   # BR(hh_1 -> VP VP )
     1.30616912E-01    2           21         21   # BR(hh_1 -> VG VG )
     2.13332732E-02    2           23         23   # BR(hh_1 -> VZ VZ )
     2.07723487E-01    2           24        -24   # BR(hh_1 -> VWm^* VWm_virt )
     3.38139396E-04    2          -13         13   # BR(hh_1 -> Cha_2^* Cha_2 )
     9.54951110E-02    2          -15         15   # BR(hh_1 -> Cha_3^* Cha_3 )
     1.89852956E-04    2           -3          3   # BR(hh_1 -> Fd_2^* Fd_2 )
     5.07850004E-01    2           -5          5   # BR(hh_1 -> Fd_3^* Fd_3 )
     3.52586593E-02    2           -4          4   # BR(hh_1 -> Fu_2^* Fu_2 )
DECAY        35     2.18283137E+00   # hh_2
#    BR                NDA      ID1      ID2
     5.56972159E-03    2           22         22   # BR(hh_2 -> VP VP )
     1.49206508E-03    2           21         21   # BR(hh_2 -> VG VG )
     2.17693687E-02    2          -15         15   # BR(hh_2 -> Cha_3^* Cha_3 )
     7.34820676E-03    2      1000024   -1000024   # BR(hh_2 -> Cha_4^* Cha_4 )
     4.95308407E-04    2      1000022    1000023   # BR(hh_2 -> Chi_4 Chi_5 )
     8.60724515E-02    2      1000022    1000025   # BR(hh_2 -> Chi_4 Chi_6 )
     4.87759908E-04    2      1000023    1000023   # BR(hh_2 -> Chi_5 Chi_5 )
     8.36746127E-02    2      1000023    1000025   # BR(hh_2 -> Chi_5 Chi_6 )
     1.16429496E-01    2           -5          5   # BR(hh_2 -> Fd_3^* Fd_3 )
     6.66845473E-01    2           -6          6   # BR(hh_2 -> Fu_3^* Fu_3 )
     5.52122243E-03    2           25         25   # BR(hh_2 -> hh_1 hh_1 )
     2.67423074E-03    2          -24         24   # BR(hh_2 -> VWm VWm^* )
     1.39818592E-03    2           23         23   # BR(hh_2 -> VZ VZ )
DECAY   1000012     2.35934903E+00   # hh_3
#    BR                NDA      ID1      ID2
     3.09233045E-02    2          -15   -1000024   # BR(hh_3 -> Cha_3^* Cha_4 )
     3.09233045E-02    2      1000024         15   # BR(hh_3 -> Cha_4^* Cha_3 )
     1.95783706E-04    2           12    1000023   # BR(hh_3 -> Chi_1 Chi_5 )
     2.19099404E-01    2           12    1000025   # BR(hh_3 -> Chi_1 Chi_6 )
     1.49630747E-04    2           14    1000022   # BR(hh_3 -> Chi_2 Chi_4 )
     3.65301205E-04    2           14    1000023   # BR(hh_3 -> Chi_2 Chi_5 )
     4.08804582E-01    2           14    1000025   # BR(hh_3 -> Chi_2 Chi_6 )
     1.13072806E-04    2           16    1000022   # BR(hh_3 -> Chi_3 Chi_4 )
     2.76050431E-04    2           16    1000023   # BR(hh_3 -> Chi_3 Chi_5 )
     3.08925017E-01    2           16    1000025   # BR(hh_3 -> Chi_3 Chi_6 )
DECAY   1000014     2.26262430E+00   # hh_4
#    BR                NDA      ID1      ID2
     1.08255118E-02    2          -13   -1000024   # BR(hh_4 -> Cha_2^* Cha_4 )
     1.08255118E-02    2      1000024         13   # BR(hh_4 -> Cha_4^* Cha_2 )
     1.01160115E-04    2           12    1000023   # BR(hh_4 -> Chi_1 Chi_5 )
     1.13208284E-01    2           12    1000025   # BR(hh_4 -> Chi_1 Chi_6 )
     1.86700899E-04    2           14    1000023   # BR(hh_4 -> Chi_2 Chi_5 )
     2.08936975E-01    2           14    1000025   # BR(hh_4 -> Chi_2 Chi_6 )
     2.39656881E-04    2           16    1000022   # BR(hh_4 -> Chi_3 Chi_4 )
     5.85086616E-04    2           16    1000023   # BR(hh_4 -> Chi_3 Chi_5 )
     6.54770431E-01    2           16    1000025   # BR(hh_4 -> Chi_3 Chi_6 )
DECAY   1000016     2.26228205E+00   # hh_5
#    BR                NDA      ID1      ID2
     1.07513088E-02    2          -11   -1000024   # BR(hh_5 -> Cha_1^* Cha_4 )
     1.07513088E-02    2      1000024         11   # BR(hh_5 -> Cha_4^* Cha_1 )
     2.32540996E-04    2           12    1000022   # BR(hh_5 -> Chi_1 Chi_4 )
     5.67714242E-04    2           12    1000023   # BR(hh_5 -> Chi_1 Chi_5 )
     6.35329029E-01    2           12    1000025   # BR(hh_5 -> Chi_1 Chi_6 )
     1.25080009E-04    2           14    1000022   # BR(hh_5 -> Chi_2 Chi_4 )
     3.05364232E-04    2           14    1000023   # BR(hh_5 -> Chi_2 Chi_5 )
     3.41733123E-01    2           14    1000025   # BR(hh_5 -> Chi_2 Chi_6 )
DECAY        36     2.27229324E+00   # Ah_2
#    BR                NDA      ID1      ID2
     1.98411702E-03    2           21         21   # BR(Ah_2 -> VG VG )
     2.09457559E-02    2          -15         15   # BR(Ah_2 -> Cha_3^* Cha_3 )
     1.07328593E-02    2      1000024   -1000024   # BR(Ah_2 -> Cha_4^* Cha_4 )
     2.28283865E-04    2      1000022    1000022   # BR(Ah_2 -> Chi_4 Chi_4 )
     4.74151493E-04    2      1000022    1000023   # BR(Ah_2 -> Chi_4 Chi_5 )
     7.96596289E-02    2      1000022    1000025   # BR(Ah_2 -> Chi_4 Chi_6 )
     2.49986325E-04    2      1000023    1000023   # BR(Ah_2 -> Chi_5 Chi_5 )
     8.41371624E-02    2      1000023    1000025   # BR(Ah_2 -> Chi_5 Chi_6 )
     1.12030907E-01    2           -5          5   # BR(Ah_2 -> Fd_3^* Fd_3 )
     6.84575266E-01    2           -6          6   # BR(Ah_2 -> Fu_3^* Fu_3 )
     4.84821795E-03    2           25         23   # BR(Ah_2 -> hh_1 VZ )
DECAY   1000017     2.35934899E+00   # Ah_3
#    BR                NDA      ID1      ID2
     3.09233045E-02    2          -15   -1000024   # BR(Ah_3 -> Cha_3^* Cha_4 )
     3.09233045E-02    2      1000024         15   # BR(Ah_3 -> Cha_4^* Cha_3 )
     1.95767187E-04    2           12    1000023   # BR(Ah_3 -> Chi_1 Chi_5 )
     2.19080917E-01    2           12    1000025   # BR(Ah_3 -> Chi_1 Chi_6 )
     1.49624143E-04    2           14    1000022   # BR(Ah_3 -> Chi_2 Chi_4 )
     3.65285082E-04    2           14    1000023   # BR(Ah_3 -> Chi_2 Chi_5 )
     4.08786538E-01    2           14    1000025   # BR(Ah_3 -> Chi_2 Chi_6 )
     1.13086179E-04    2           16    1000022   # BR(Ah_3 -> Chi_3 Chi_4 )
     2.76083078E-04    2           16    1000023   # BR(Ah_3 -> Chi_3 Chi_5 )
     3.08961550E-01    2           16    1000025   # BR(Ah_3 -> Chi_3 Chi_6 )
DECAY   1000018     2.26262440E+00   # Ah_4
#    BR                NDA      ID1      ID2
     1.08283899E-02    2          -13   -1000024   # BR(Ah_4 -> Cha_2^* Cha_4 )
     1.08283899E-02    2      1000024         13   # BR(Ah_4 -> Cha_4^* Cha_2 )
     1.11402381E-01    2           12    1000025   # BR(Ah_4 -> Chi_1 Chi_6 )
     1.88349452E-04    2           14    1000023   # BR(Ah_4 -> Chi_2 Chi_5 )
     2.10781871E-01    2           14    1000025   # BR(Ah_4 -> Chi_2 Chi_6 )
     2.39642593E-04    2           16    1000022   # BR(Ah_4 -> Chi_3 Chi_4 )
     5.85051737E-04    2           16    1000023   # BR(Ah_4 -> Chi_3 Chi_5 )
     6.54731397E-01    2           16    1000025   # BR(Ah_4 -> Chi_3 Chi_6 )
DECAY   1000019     2.26228196E+00   # Ah_5
#    BR                NDA      ID1      ID2
     1.07541682E-02    2          -11   -1000024   # BR(Ah_5 -> Cha_1^* Cha_4 )
     1.07541682E-02    2      1000024         11   # BR(Ah_5 -> Cha_4^* Cha_1 )
     2.33209152E-04    2           12    1000022   # BR(Ah_5 -> Chi_1 Chi_4 )
     5.69345445E-04    2           12    1000023   # BR(Ah_5 -> Chi_1 Chi_5 )
     6.37154508E-01    2           12    1000025   # BR(Ah_5 -> Chi_1 Chi_6 )
     1.24411535E-04    2           14    1000022   # BR(Ah_5 -> Chi_2 Chi_4 )
     3.03732251E-04    2           14    1000023   # BR(Ah_5 -> Chi_2 Chi_5 )
     3.39906773E-01    2           14    1000025   # BR(Ah_5 -> Chi_2 Chi_6 )
DECAY        37     2.27671760E+00   # Hpm_2
#    BR                NDA      ID1      ID2
     4.90204642E-03    2           12        -15   # BR(Hpm_2^* -> Chi_1 Cha_3^* )
     9.15122160E-03    2           14        -15   # BR(Hpm_2^* -> Chi_2 Cha_3^* )
     6.91203278E-03    2           16        -15   # BR(Hpm_2^* -> Chi_3 Cha_3^* )
     3.08276329E-03    2      1000022    1000024   # BR(Hpm_2^* -> Chi_4 Cha_4^* )
     7.39128314E-03    2      1000023    1000024   # BR(Hpm_2^* -> Chi_5 Cha_4^* )
     1.63258138E-01    2      1000025    1000024   # BR(Hpm_2^* -> Chi_6 Cha_4^* )
     8.02342527E-01    2            6         -5   # BR(Hpm_2^* -> Fu_3 Fd_3^* )
     2.83102386E-03    2           25         24   # BR(Hpm_2^* -> hh_1 VWm^* )
DECAY   1000011     8.93411071E+00   # Hpm_3
#    BR                NDA      ID1      ID2
     2.58979760E-03    2           12   -1000024   # BR(Hpm_3 -> Chi_1 Cha_4 )
     4.83467825E-03    2           14   -1000024   # BR(Hpm_3 -> Chi_2 Cha_4 )
     3.65169235E-03    2           16   -1000024   # BR(Hpm_3 -> Chi_3 Cha_4 )
     7.93263557E-03    2      1000022         15   # BR(Hpm_3 -> Chi_4 Cha_3 )
     1.00387718E-02    2      1000023         15   # BR(Hpm_3 -> Chi_5 Cha_3 )
     9.70952422E-01    2      1000025         15   # BR(Hpm_3 -> Chi_6 Cha_3 )
DECAY   2000011     8.76899012E+00   # Hpm_4
#    BR                NDA      ID1      ID2
     2.48856796E-03    2      1000022         13   # BR(Hpm_4 -> Chi_4 Cha_2 )
     4.59340414E-03    2      1000023         13   # BR(Hpm_4 -> Chi_5 Cha_2 )
     9.92877923E-01    2      1000025         13   # BR(Hpm_4 -> Chi_6 Cha_2 )
DECAY   1000013     8.76840464E+00   # Hpm_5
#    BR                NDA      ID1      ID2
     2.46887546E-03    2      1000022         11   # BR(Hpm_5 -> Chi_4 Cha_1 )
     4.57370626E-03    2      1000023         11   # BR(Hpm_5 -> Chi_5 Cha_1 )
     9.92957417E-01    2      1000025         11   # BR(Hpm_5 -> Chi_6 Cha_1 )
DECAY   2000013     2.23976104E+00   # Hpm_6
#    BR                NDA      ID1      ID2
     1.35446554E-03    2           12   -1000024   # BR(Hpm_6 -> Chi_1 Cha_4 )
     1.66798445E-04    2           12   -1000037   # BR(Hpm_6 -> Chi_1 Cha_5 )
     4.94921906E-04    2           14   -1000024   # BR(Hpm_6 -> Chi_2 Cha_4 )
     1.36659093E-02    2      1000022         11   # BR(Hpm_6 -> Chi_4 Cha_1 )
     1.78046441E-04    2      1000022         13   # BR(Hpm_6 -> Chi_4 Cha_2 )
     1.07908119E-02    2      1000023         11   # BR(Hpm_6 -> Chi_5 Cha_1 )
     1.40783595E-04    2      1000023         13   # BR(Hpm_6 -> Chi_5 Cha_2 )
     9.60542897E-01    2      1000025         11   # BR(Hpm_6 -> Chi_6 Cha_1 )
     1.24473313E-02    2      1000025         13   # BR(Hpm_6 -> Chi_6 Cha_2 )
     1.22838568E-04    2      1000035         11   # BR(Hpm_6 -> Chi_7 Cha_1 )
DECAY   1000015     2.24026581E+00   # Hpm_7
#    BR                NDA      ID1      ID2
     5.61792733E-04    2           14   -1000024   # BR(Hpm_7 -> Chi_2 Cha_4 )
     1.22740731E-03    2           16   -1000024   # BR(Hpm_7 -> Chi_3 Cha_4 )
     1.53731766E-04    2           16   -1000037   # BR(Hpm_7 -> Chi_3 Cha_5 )
     1.77045744E-04    2      1000022         11   # BR(Hpm_7 -> Chi_4 Cha_1 )
     1.37375081E-02    2      1000022         13   # BR(Hpm_7 -> Chi_4 Cha_2 )
     1.39798039E-04    2      1000023         11   # BR(Hpm_7 -> Chi_5 Cha_1 )
     1.08624242E-02    2      1000023         13   # BR(Hpm_7 -> Chi_5 Cha_2 )
     1.24441957E-02    2      1000025         11   # BR(Hpm_7 -> Chi_6 Cha_1 )
     9.60404183E-01    2      1000025         13   # BR(Hpm_7 -> Chi_6 Cha_2 )
     1.24527014E-04    2      1000035         13   # BR(Hpm_7 -> Chi_7 Cha_2 )
DECAY   2000015     2.36418488E+00   # Hpm_8
#    BR                NDA      ID1      ID2
     1.87054644E-04    2           12   -1000024   # BR(Hpm_8 -> Chi_1 Cha_4 )
     3.50070754E-04    2           14   -1000024   # BR(Hpm_8 -> Chi_2 Cha_4 )
     2.63528128E-04    2           16   -1000024   # BR(Hpm_8 -> Chi_3 Cha_4 )
     3.33103962E-02    2      1000022         15   # BR(Hpm_8 -> Chi_4 Cha_3 )
     3.03963533E-02    2      1000023         15   # BR(Hpm_8 -> Chi_5 Cha_3 )
     9.35157237E-01    2      1000025         15   # BR(Hpm_8 -> Chi_6 Cha_3 )
     1.13662901E-04    2      1000035         15   # BR(Hpm_8 -> Chi_7 Cha_3 )
DECAY   1000021     2.47598150E+02   # Glu
#    BR                NDA      ID1      ID2
     4.15522459E-02    2            1   -2000001   # BR(Glu -> Fd_1 Sd_4^* )
     4.15522459E-02    2           -1    2000001   # BR(Glu -> Fd_1^* Sd_4 )
     4.03964882E-02    2            1   -2000005   # BR(Glu -> Fd_1 Sd_6^* )
     4.03964882E-02    2           -1    2000005   # BR(Glu -> Fd_1^* Sd_6 )
     4.15522452E-02    2            3   -1000005   # BR(Glu -> Fd_2 Sd_3^* )
     4.15522452E-02    2           -3    1000005   # BR(Glu -> Fd_2^* Sd_3 )
     4.03965124E-02    2            3   -2000003   # BR(Glu -> Fd_2 Sd_5^* )
     4.03965124E-02    2           -3    2000003   # BR(Glu -> Fd_2^* Sd_5 )
     4.29766522E-02    2            5   -1000001   # BR(Glu -> Fd_3 Sd_1^* )
     4.29766522E-02    2           -5    1000001   # BR(Glu -> Fd_3^* Sd_1 )
     4.15743564E-02    2            5   -1000003   # BR(Glu -> Fd_3 Sd_2^* )
     4.15743564E-02    2           -5    1000003   # BR(Glu -> Fd_3^* Sd_2 )
     4.15509827E-02    2            2   -1000006   # BR(Glu -> Fu_1 Su_3^* )
     4.15509827E-02    2           -2    1000006   # BR(Glu -> Fu_1^* Su_3 )
     4.04860133E-02    2            2   -2000004   # BR(Glu -> Fu_1 Su_5^* )
     4.04860133E-02    2           -2    2000004   # BR(Glu -> Fu_1^* Su_5 )
     4.15508650E-02    2            4   -1000004   # BR(Glu -> Fu_2 Su_2^* )
     4.15508650E-02    2           -4    1000004   # BR(Glu -> Fu_2^* Su_2 )
     4.04861322E-02    2            4   -2000002   # BR(Glu -> Fu_2 Su_4^* )
     4.04861322E-02    2           -4    2000002   # BR(Glu -> Fu_2^* Su_4 )
     4.29924513E-02    2            6   -1000002   # BR(Glu -> Fu_3 Su_1^* )
     4.29924513E-02    2           -6    1000002   # BR(Glu -> Fu_3^* Su_1 )
     4.44294609E-02    2            6   -2000006   # BR(Glu -> Fu_3 Su_6^* )
     4.44294609E-02    2           -6    2000006   # BR(Glu -> Fu_3^* Su_6 )
DECAY         6     1.44298875E+00   # Fu_3
#    BR                NDA      ID1      ID2
     1.00000000E+00    2            5         24   # BR(Fu_3 -> Fd_3 VWm^* )
DECAY        13     1.07571184E-18   # Cha_2
#    BR                NDA      ID1      ID2
#    BR                NDA      ID1      ID2       ID3
     1.42596309E-02    3           11         12         12   # BR(Cha_2 -> Cha_1 Chi_1 Chi_1 )
     4.41840978E-02    3           11         12         14   # BR(Cha_2 -> Cha_1 Chi_1 Chi_2 )
     1.15524204E-01    3           11         12         16   # BR(Cha_2 -> Cha_1 Chi_1 Chi_3 )
     1.73856115E-02    3           11         14         14   # BR(Cha_2 -> Cha_1 Chi_2 Chi_2 )
     5.65700760E-02    3           11         14         16   # BR(Cha_2 -> Cha_1 Chi_2 Chi_3 )
     1.54773514E-04    3           11         16         16   # BR(Cha_2 -> Cha_1 Chi_3 Chi_3 )
     7.09833798E-02    3           12         -2          1   # BR(Cha_2 -> Chi_1 Fu_1^* Fd_1 )
     1.77690334E-01    3           14         -2          1   # BR(Cha_2 -> Chi_2 Fu_1^* Fd_1 )
     5.03247892E-01    3           16         -2          1   # BR(Cha_2 -> Chi_3 Fu_1^* Fd_1 )
DECAY        15     1.85587965E-12   # Cha_3
#    BR                NDA      ID1      ID2
#    BR                NDA      ID1      ID2       ID3
     3.13437247E-02    3           11         12         12   # BR(Cha_3 -> Cha_1 Chi_1 Chi_1 )
     7.37789909E-02    3           11         12         14   # BR(Cha_3 -> Cha_1 Chi_1 Chi_2 )
     4.42435761E-02    3           11         12         16   # BR(Cha_3 -> Cha_1 Chi_1 Chi_3 )
     2.84988166E-02    3           11         14         14   # BR(Cha_3 -> Cha_1 Chi_2 Chi_2 )
     2.16150893E-02    3           11         14         16   # BR(Cha_3 -> Cha_1 Chi_2 Chi_3 )
     4.28776880E-03    3           13         12         12   # BR(Cha_3 -> Cha_2 Chi_1 Chi_1 )
     1.87378260E-02    3           13         12         14   # BR(Cha_3 -> Cha_2 Chi_1 Chi_2 )
     3.64446767E-02    3           13         12         16   # BR(Cha_3 -> Cha_2 Chi_1 Chi_3 )
     2.00373478E-02    3           13         14         14   # BR(Cha_3 -> Cha_2 Chi_2 Chi_2 )
     7.18831915E-02    3           13         14         16   # BR(Cha_3 -> Cha_2 Chi_2 Chi_3 )
     4.28632411E-02    3           13         16         16   # BR(Cha_3 -> Cha_2 Chi_3 Chi_3 )
     1.39965363E-01    3           12         -2          1   # BR(Cha_3 -> Chi_1 Fu_1^* Fd_1 )
     1.77412094E-03    3           12         -4          3   # BR(Cha_3 -> Chi_1 Fu_2^* Fd_2 )
     2.61289719E-01    3           14         -2          1   # BR(Cha_3 -> Chi_2 Fu_1^* Fd_1 )
     3.31195911E-03    3           14         -4          3   # BR(Cha_3 -> Chi_2 Fu_2^* Fd_2 )
     1.97355363E-01    3           16         -2          1   # BR(Cha_3 -> Chi_3 Fu_1^* Fd_1 )
     2.50156376E-03    3           16         -4          3   # BR(Cha_3 -> Chi_3 Fu_2^* Fd_2 )
DECAY   1000024     4.21354120E-12   # Cha_4
#    BR                NDA      ID1      ID2
     8.13855924E-02    2          -13         25   # BR(Cha_4^* -> Cha_2^* hh_1 )
     5.64293154E-02    2          -15         25   # BR(Cha_4^* -> Cha_3^* hh_1 )
     3.70295607E-04    2          -13         23   # BR(Cha_4^* -> Cha_2^* VZ )
     3.78737400E-02    2          -15         23   # BR(Cha_4^* -> Cha_3^* VZ )
     7.95438778E-01    2           14         24   # BR(Cha_4^* -> Chi_2 VWm^* )
     2.83419774E-02    2           16         24   # BR(Cha_4^* -> Chi_3 VWm^* )
DECAY   1000037     2.56108755E+01   # Cha_5
#    BR                NDA      ID1      ID2
     7.93853163E-02    2      1000024         36   # BR(Cha_5^* -> Cha_4^* Ah_2 )
     1.69493265E-01    2      1000024         25   # BR(Cha_5^* -> Cha_4^* hh_1 )
     7.90658529E-02    2      1000024         35   # BR(Cha_5^* -> Cha_4^* hh_2 )
     1.63764059E-01    2      1000024         23   # BR(Cha_5^* -> Cha_4^* VZ )
     7.93215122E-02    2      1000022         37   # BR(Cha_5^* -> Chi_4 Hpm_2^* )
     7.89987777E-02    2      1000023         37   # BR(Cha_5^* -> Chi_5 Hpm_2^* )
     1.66018685E-01    2      1000022         24   # BR(Cha_5^* -> Chi_4 VWm^* )
     1.61739723E-01    2      1000023         24   # BR(Cha_5^* -> Chi_5 VWm^* )
     9.08102980E-04    2      1000025         24   # BR(Cha_5^* -> Chi_6 VWm^* )
     3.24089145E-03    2           -5    1000002   # BR(Cha_5^* -> Fd_3^* Su_1 )
#    BR                NDA      ID1      ID2       ID3
     2.18912494E-04    3      1000024          5         -5   # BR(Cha_5^* -> Cha_4^* Fd_3 Fd_3^* )
     7.20800071E-03    3      1000024          6         -6   # BR(Cha_5^* -> Cha_4^* Fu_3 Fu_3^* )
     5.09343198E-03    3      1000022          6         -5   # BR(Cha_5^* -> Chi_4 Fu_3 Fd_3^* )
     5.00463926E-03    3      1000023          6         -5   # BR(Cha_5^* -> Chi_5 Fu_3 Fd_3^* )
DECAY   1000022     3.90645875E-12   # Chi_4
#    BR                NDA      ID1      ID2
     1.35246570E-01    2           11         24   # BR(Chi_4 -> Cha_1 VWm^* )
     1.35246570E-01    2          -11        -24   # BR(Chi_4 -> Cha_1^* VWm )
     1.94694238E-01    2           13         24   # BR(Chi_4 -> Cha_2 VWm^* )
     1.94694238E-01    2          -13        -24   # BR(Chi_4 -> Cha_2^* VWm )
     1.67940833E-01    2           15         24   # BR(Chi_4 -> Cha_3 VWm^* )
     1.67940833E-01    2          -15        -24   # BR(Chi_4 -> Cha_3^* VWm )
     6.43312539E-04    2           16         25   # BR(Chi_4 -> Chi_3 hh_1 )
     2.87752619E-03    2           16         23   # BR(Chi_4 -> Chi_3 VZ )
#    BR                NDA      ID1      ID2       ID3
     2.21583140E-04    3     -1000024         -1          2   # BR(Chi_4 -> Cha_4 Fd_1^* Fu_1 )
     2.21583140E-04    3      1000024          1         -2   # BR(Chi_4 -> Cha_4^* Fd_1 Fu_1^* )
DECAY   1000023     3.86627689E-12   # Chi_5
#    BR                NDA      ID1      ID2
     1.34791268E-01    2           11         24   # BR(Chi_5 -> Cha_1 VWm^* )
     1.34791268E-01    2          -11        -24   # BR(Chi_5 -> Cha_1^* VWm )
     1.47046043E-01    2           13         24   # BR(Chi_5 -> Cha_2 VWm^* )
     1.47046043E-01    2          -13        -24   # BR(Chi_5 -> Cha_2^* VWm )
     1.93985898E-01    2           15         24   # BR(Chi_5 -> Cha_3 VWm^* )
     1.93985898E-01    2          -15        -24   # BR(Chi_5 -> Cha_3^* VWm )
     3.27736695E-03    2           16         25   # BR(Chi_5 -> Chi_3 hh_1 )
     3.76270424E-03    2           16         23   # BR(Chi_5 -> Chi_3 VZ )
#    BR                NDA      ID1      ID2       ID3
     2.79448995E-03    3           12        -11   -1000024   # BR(Chi_5 -> Chi_1 Cha_1^* Cha_4 )
     3.46184166E-04    3           12        -13   -1000024   # BR(Chi_5 -> Chi_1 Cha_2^* Cha_4 )
     2.79448995E-03    3           12    1000024         11   # BR(Chi_5 -> Chi_1 Cha_4^* Cha_1 )
     3.46191177E-04    3           12    1000024         13   # BR(Chi_5 -> Chi_1 Cha_4^* Cha_2 )
     1.36105924E-03    3           14        -11   -1000024   # BR(Chi_5 -> Chi_2 Cha_1^* Cha_4 )
     8.66591310E-04    3           14        -13   -1000024   # BR(Chi_5 -> Chi_2 Cha_2^* Cha_4 )
     1.36105924E-03    3           14    1000024         11   # BR(Chi_5 -> Chi_2 Cha_4^* Cha_1 )
     8.66608863E-04    3           14    1000024         13   # BR(Chi_5 -> Chi_2 Cha_4^* Cha_2 )
     2.45432737E-03    3           16        -13   -1000024   # BR(Chi_5 -> Chi_3 Cha_2^* Cha_4 )
     2.45437708E-03    3           16    1000024         13   # BR(Chi_5 -> Chi_3 Cha_4^* Cha_2 )
     2.47335208E-04    3      1000022         -1          1   # BR(Chi_5 -> Chi_4 Fd_1^* Fd_1 )
     1.30329586E-04    3      1000022         -3          3   # BR(Chi_5 -> Chi_4 Fd_2^* Fd_2 )
     1.90761165E-04    3      1000022         -2          2   # BR(Chi_5 -> Chi_4 Fu_1^* Fu_1 )
     1.24754930E-02    3     -1000024         -1          2   # BR(Chi_5 -> Cha_4 Fd_1^* Fu_1 )
     1.24754930E-02    3      1000024          1         -2   # BR(Chi_5 -> Cha_4^* Fd_1 Fu_1^* )
DECAY   1000025     1.08851416E+00   # Chi_6
#    BR                NDA      ID1      ID2
     2.51647931E-01    2     -1000024         24   # BR(Chi_6 -> Cha_4 VWm^* )
     2.51647931E-01    2      1000024        -24   # BR(Chi_6 -> Cha_4^* VWm )
     8.22034364E-02    2      1000022         25   # BR(Chi_6 -> Chi_4 hh_1 )
     1.58168857E-01    2      1000023         25   # BR(Chi_6 -> Chi_5 hh_1 )
     1.58981010E-01    2      1000022         23   # BR(Chi_6 -> Chi_4 VZ )
     9.58939500E-02    2      1000023         23   # BR(Chi_6 -> Chi_5 VZ )
#    BR                NDA      ID1      ID2       ID3
     7.01337685E-04    3     -1000024         -5          6   # BR(Chi_6 -> Cha_4 Fd_3^* Fu_3 )
     7.01337685E-04    3      1000024          5         -6   # BR(Chi_6 -> Cha_4^* Fd_3 Fu_3^* )
DECAY   1000035     2.52114476E+01   # Chi_7
#    BR                NDA      ID1      ID2
     4.54834927E-02    2      1000022         36   # BR(Chi_7 -> Chi_4 Ah_2 )
     3.52882441E-02    2      1000023         36   # BR(Chi_7 -> Chi_5 Ah_2 )
     8.02625867E-02    2     -1000024         37   # BR(Chi_7 -> Cha_4 Hpm_2^* )
     8.02625867E-02    2      1000024        -37   # BR(Chi_7 -> Cha_4^* Hpm_2 )
     1.57467605E-01    2     -1000024         24   # BR(Chi_7 -> Cha_4 VWm^* )
     1.57467605E-01    2      1000024        -24   # BR(Chi_7 -> Cha_4^* VWm )
     1.33137186E-01    2      1000022         25   # BR(Chi_7 -> Chi_4 hh_1 )
     3.46281458E-02    2      1000022         35   # BR(Chi_7 -> Chi_4 hh_2 )
     3.84358899E-02    2      1000023         25   # BR(Chi_7 -> Chi_5 hh_1 )
     4.57569157E-02    2      1000023         35   # BR(Chi_7 -> Chi_5 hh_2 )
     1.71251857E-04    2      1000025         25   # BR(Chi_7 -> Chi_6 hh_1 )
     3.94259188E-02    2      1000022         23   # BR(Chi_7 -> Chi_4 VZ )
     1.30968849E-01    2      1000023         23   # BR(Chi_7 -> Chi_5 VZ )
     7.82390947E-04    2      1000025         23   # BR(Chi_7 -> Chi_6 VZ )
#    BR                NDA      ID1      ID2       ID3
     2.12978356E-03    3      1000022         -6          6   # BR(Chi_7 -> Chi_4 Fu_3^* Fu_3 )
     5.52684005E-03    3      1000023         -6          6   # BR(Chi_7 -> Chi_5 Fu_3^* Fu_3 )
     1.33407456E-04    3      1000025         -6          6   # BR(Chi_7 -> Chi_6 Fu_3^* Fu_3 )
     5.97078213E-03    3     -1000024         -5          6   # BR(Chi_7 -> Cha_4 Fd_3^* Fu_3 )
     5.97078213E-03    3      1000024          5         -6   # BR(Chi_7 -> Cha_4^* Fd_3 Fu_3^* )
