#
#                              ======================
#                              | THE SUSYHIT OUTPUT |
#                              ======================
#
#
#              ------------------------------------------------------
#              |     This is the output of the SUSY-HIT package     |
#              |  created by A.Djouadi, M.Muehlleitner and M.Spira. |
#              |  In case of problems with SUSY-HIT email to        |
#              |           margarete.muehlleitner@cern.ch           |
#              |           michael.spira@psi.ch                     |
#              |           abdelhak.djouadi@cern.ch                 |
#              ------------------------------------------------------
#
#              ------------------------------------------------------
#              |  SUSY Les Houches Accord - MSSM Spectrum + Decays  |
#              |              based on the decay programs           |
#              |                                                    |
#              |                     SDECAY 1.3b                    |
#              |                                                    |
#              |  Authors: M.Muhlleitner, A.Djouadi and Y.Mambrini  |
#              |  Ref.:    Comput.Phys.Commun.168(2005)46           |
#              |           [hep-ph/0311167]                         |
#              |                                                    |
#              |                     HDECAY 3.4                     |
#              |                                                    |
#              |  By: A.Djouadi,J.Kalinowski,M.Muhlleitner,M.Spira  |
#              |  Ref.:    Comput.Phys.Commun.108(1998)56           |
#              |           [hep-ph/9704448]                         |
#              |                                                    |
#              |                                                    |
#              |  If not stated otherwise all DRbar couplings and   |
#              |  soft SUSY breaking masses are given at the scale  |
#              |  Q=  0.50007730E+04
#              |                                                    |
#              ------------------------------------------------------
#
#
BLOCK DCINFO  # Decay Program information
     1   SDECAY/HDECAY # decay calculator
     2   1.3b  /3.4    # version number
#
BLOCK SPINFO  # Spectrum calculator information
     1    SOFTSUSY    # spectrum calculator                
     2    3.4.0       # version number                     
#
BLOCK MODSEL  # Model selection
     1     0   #  nonUniversal                                     
#
BLOCK SMINPUTS  # Standard Model inputs
         1     1.25778332E+02   # alpha_em^-1(M_Z)^MSbar
         2     1.16570000E-05   # G_F [GeV^-2]
         3     1.17200002E-01   # alpha_S(M_Z)^MSbar
         4     9.11876000E+01   # M_Z pole mass
         5     4.25000000E+00   # mb(mb)^MSbar
         6     1.72500000E+02   # mt pole mass
         7     1.77682000E+00   # mtau pole mass
#
BLOCK MINPAR  # Input parameters - minimal models
         3     1.00000000E+01   # tanb                
#
BLOCK EXTPAR  # Input parameters - non-minimal models
         0    -1.00000000E+00   # Set                 
         1     6.00000000E+01   # M_1(MX)             
         2     3.00000000E+03   # M_2(MX)             
         3     1.66796600E+03   # M_3(MX)             
        11     5.00000000E+03   # At(MX)              
        12     5.00000000E+03   # Ab(MX)              
        13     0.00000000E+00   # Atau(MX)            
        23    -1.58723000E+02   # mu(MX)              
        26     3.00000000E+03   # mA(pole)            
        31     5.00000000E+03   # meL(MX)             
        32     5.00000000E+03   # mmuL(MX)            
        33     5.00000000E+03   # mtauL(MX)           
        34     5.00000000E+03   # meR(MX)             
        35     5.00000000E+03   # mmuR(MX)            
        36     5.00000000E+03   # mtauR(MX)           
        41     5.00000000E+03   # mqL1(MX)            
        42     5.00000000E+03   # mqL2(MX)            
        43     5.00000000E+03   # mqL3(MX)            
        44     5.00000000E+03   # muR(MX)             
        45     5.00000000E+03   # mcR(MX)             
        46     5.00000000E+03   # mtR(MX)             
        47     5.00000000E+03   # mdR(MX)             
        48     5.00000000E+03   # msR(MX)             
        49     5.00000000E+03   # mbR(MX)             
#
BLOCK MASS  # Mass Spectrum
# PDG code           mass       particle
        24     8.00905246E+01   # W+
        25     1.24749212E+02   # h
        35     3.00009166E+03   # H
        36     2.99999979E+03   # A
        37     3.00148480E+03   # H+
         5     4.87878001E+00   # b-quark pole mass calculated from mb(mb)_Msbar
   1000001     5.07203264E+03   # ~d_L
   2000001     5.05412267E+03   # ~d_R
   1000002     5.07155668E+03   # ~u_L
   2000002     5.05381121E+03   # ~u_R
   1000003     5.07203264E+03   # ~s_L
   2000003     5.05412267E+03   # ~s_R
   1000004     5.07155668E+03   # ~c_L
   2000004     5.05381121E+03   # ~c_R
   1000005     5.01811261E+03   # ~b_1
   2000005     5.05219241E+03   # ~b_2
   1000006     4.90929887E+03   # ~t_1
   2000006     5.06144858E+03   # ~t_2
   1000011     5.01917467E+03   # ~e_L
   2000011     5.00596252E+03   # ~e_R
   1000012     5.01822144E+03   # ~nu_eL
   1000013     5.01917467E+03   # ~mu_L
   2000013     5.00596252E+03   # ~mu_R
   1000014     5.01822144E+03   # ~nu_muL
   1000015     5.00483748E+03   # ~tau_1
   2000015     5.01863589E+03   # ~tau_2
   1000016     5.01766614E+03   # ~nu_tauL
   1000021     2.00000100E+03   # ~g
   1000022     5.78425085E+01   # ~chi_10
   1000023    -1.75655525E+02   # ~chi_20
   1000025     1.75673699E+02   # ~chi_30
   1000035     3.07434981E+03   # ~chi_40
   1000024     1.70000628E+02   # ~chi_1+
   1000037     3.07451805E+03   # ~chi_2+
#
BLOCK NMIX  # Neutralino Mixing Matrix
  1  1     9.59063104E-01   # N_11
  1  2    -9.56279861E-04   # N_12
  1  3    -2.74940264E-01   # N_13
  1  4    -6.78594099E-02   # N_14
  2  1    -1.47311656E-01   # N_21
  2  2     1.87611590E-02   # N_22
  2  3    -6.89010806E-01   # N_23
  2  4     7.09373952E-01   # N_24
  3  1     2.41861670E-01   # N_31
  3  2     1.69299914E-02   # N_32
  3  3     6.70574561E-01   # N_33
  3  4     7.01103464E-01   # N_34
  4  1    -4.13978254E-04   # N_41
  4  2     9.99680189E-01   # N_42
  4  3     1.31131926E-03   # N_43
  4  4    -2.52513213E-02   # N_44
#
BLOCK UMIX  # Chargino Mixing Matrix U
  1  1    -1.84865799E-03   # U_11
  1  2     9.99998291E-01   # U_12
  2  1    -9.99998291E-01   # U_21
  2  2    -1.84865799E-03   # U_22
#
BLOCK VMIX  # Chargino Mixing Matrix V
  1  1     3.57295435E-02   # V_11
  1  2    -9.99361496E-01   # V_12
  2  1    -9.99361496E-01   # V_21
  2  2    -3.57295435E-02   # V_22
#
BLOCK STOPMIX  # Stop Mixing Matrix
  1  1    -5.02213297E-01   # cos(theta_t)
  1  2     8.64743780E-01   # sin(theta_t)
  2  1    -8.64743780E-01   # -sin(theta_t)
  2  2    -5.02213297E-01   # cos(theta_t)
#
BLOCK SBOTMIX  # Sbottom Mixing Matrix
  1  1     9.99449845E-01   # cos(theta_b)
  1  2    -3.31663584E-02   # sin(theta_b)
  2  1     3.31663584E-02   # -sin(theta_b)
  2  2     9.99449845E-01   # cos(theta_b)
#
BLOCK STAUMIX  # Stau Mixing Matrix
  1  1    -1.87267525E-02   # cos(theta_tau)
  1  2     9.99824639E-01   # sin(theta_tau)
  2  1    -9.99824639E-01   # -sin(theta_tau)
  2  2    -1.87267525E-02   # cos(theta_tau)
#
BLOCK ALPHA  # Higgs mixing
          -1.05494603E-01   # Mixing angle in the neutral Higgs boson sector
#
BLOCK HMIX Q=  5.00077297E+03  # DRbar Higgs Parameters
         1    -1.61609865E+02   # mu(Q)MSSM           
         2     9.46879171E+00   # tan                 
         3     2.41654285E+02   # higgs               
         4     8.80146403E+06   # mA^2(Q)MSSM         
#
BLOCK GAUGE Q=  5.00077297E+03  # The gauge couplings
     1     3.71194218E-01   # gprime(Q) DRbar
     2     6.34545814E-01   # g(Q) DRbar
     3     9.98509069E-01   # g3(Q) DRbar
#
BLOCK AU Q=  5.00077297E+03  # The trilinear couplings
  1  1     5.00000001E+03   # A_u(Q) DRbar
  2  2     5.00000001E+03   # A_c(Q) DRbar
  3  3     5.00000002E+03   # A_t(Q) DRbar
#
BLOCK AD Q=  5.00077297E+03  # The trilinear couplings
  1  1     5.00000001E+03   # A_d(Q) DRbar
  2  2     5.00000001E+03   # A_s(Q) DRbar
  3  3     5.00000001E+03   # A_b(Q) DRbar
#
BLOCK AE Q=  5.00077297E+03  # The trilinear couplings
  1  1     0.00000000E+00   # A_e(Q) DRbar
  2  2     1.71103043E-07   # A_mu(Q) DRbar
  3  3     1.70725000E-07   # A_tau(Q) DRbar
#
BLOCK Yu Q=  5.00077297E+03  # The Yukawa couplings
  1  1     0.00000000E+00   # y_u(Q) DRbar
  2  2     0.00000000E+00   # y_c(Q) DRbar
  3  3     8.20529863E-01   # y_t(Q) DRbar
#
BLOCK Yd Q=  5.00077297E+03  # The Yukawa couplings
  1  1     0.00000000E+00   # y_d(Q) DRbar
  2  2     0.00000000E+00   # y_s(Q) DRbar
  3  3     1.29727510E-01   # y_b(Q) DRbar
#
BLOCK Ye Q=  5.00077297E+03  # The Yukawa couplings
  1  1     0.00000000E+00   # y_e(Q) DRbar
  2  2     0.00000000E+00   # y_mu(Q) DRbar
  3  3     9.73756735E-02   # y_tau(Q) DRbar
#
BLOCK MSOFT Q=  5.00077297E+03  # The soft SUSY breaking masses at the scale Q
         1     6.00000000E+01   # M_1(Q)              
         2     3.00000000E+03   # M_2(Q)              
         3     1.66796600E+03   # M_3(Q)              
        21     8.70878590E+06   # mH1^2(Q)            
        22     5.53666355E+05   # mH2^2(Q)            
        31     5.00000000E+03   # meL(Q)              
        32     5.00000000E+03   # mmuL(Q)             
        33     5.00000000E+03   # mtauL(Q)            
        34     5.00000000E+03   # meR(Q)              
        35     5.00000000E+03   # mmuR(Q)             
        36     5.00000000E+03   # mtauR(Q)            
        41     5.00000000E+03   # mqL1(Q)             
        42     5.00000000E+03   # mqL2(Q)             
        43     5.00000000E+03   # mqL3(Q)             
        44     5.00000000E+03   # muR(Q)              
        45     5.00000000E+03   # mcR(Q)              
        46     4.99999999E+03   # mtR(Q)              
        47     5.00000000E+03   # mdR(Q)              
        48     5.00000000E+03   # msR(Q)              
        49     5.00000000E+03   # mbR(Q)              
#
#
#
#                             =================
#                             |The decay table|
#                             =================
#
# - The QCD corrections to the decays gluino -> squark  + quark
#                                     squark -> gaugino + quark_prime
#                                     squark -> squark_prime + Higgs
#                                     squark -> gluino  + quark
#   are included.
#
# - The multi-body decays for the inos, stops and sbottoms are included.
#
# - The loop induced decays for the gluino, neutralinos and stops
#   are included.
#
# - The SUSY decays of the top quark are included.
#
#
#         PDG            Width
DECAY         6     1.41121344E+00   # top decays
#          BR         NDA      ID1       ID2
     1.00000000E+00    2           5        24   # BR(t ->  b    W+)
#
#         PDG            Width
DECAY   1000021     2.57619450E-03   # gluino decays
#          BR         NDA      ID1       ID2
     4.94748567E-05    2     1000022        21   # BR(~g -> ~chi_10 g)
     5.94136523E-03    2     1000023        21   # BR(~g -> ~chi_20 g)
     6.04967786E-03    2     1000025        21   # BR(~g -> ~chi_30 g)
#           BR         NDA      ID1       ID2       ID3
     8.38197197E-03    3     1000022         1        -1   # BR(~g -> ~chi_10 d  db)
     2.02991658E-04    3     1000023         1        -1   # BR(~g -> ~chi_20 d  db)
     4.87524630E-04    3     1000025         1        -1   # BR(~g -> ~chi_30 d  db)
     2.84924160E-02    3     1000022         2        -2   # BR(~g -> ~chi_10 u  ub)
     4.89091187E-04    3     1000023         2        -2   # BR(~g -> ~chi_20 u  ub)
     1.97280073E-03    3     1000025         2        -2   # BR(~g -> ~chi_30 u  ub)
     8.38197197E-03    3     1000022         3        -3   # BR(~g -> ~chi_10 s  sb)
     2.02991658E-04    3     1000023         3        -3   # BR(~g -> ~chi_20 s  sb)
     4.87524630E-04    3     1000025         3        -3   # BR(~g -> ~chi_30 s  sb)
     2.84924160E-02    3     1000022         4        -4   # BR(~g -> ~chi_10 c  cb)
     4.89091187E-04    3     1000023         4        -4   # BR(~g -> ~chi_20 c  cb)
     1.97280073E-03    3     1000025         4        -4   # BR(~g -> ~chi_30 c  cb)
     9.41550719E-03    3     1000022         5        -5   # BR(~g -> ~chi_10 b  bb)
     5.41049590E-03    3     1000023         5        -5   # BR(~g -> ~chi_20 b  bb)
     5.40805070E-03    3     1000025         5        -5   # BR(~g -> ~chi_30 b  bb)
     2.61815336E-02    3     1000022         6        -6   # BR(~g -> ~chi_10 t  tb)
     2.00783200E-01    3     1000023         6        -6   # BR(~g -> ~chi_20 t  tb)
     2.15469238E-01    3     1000025         6        -6   # BR(~g -> ~chi_30 t  tb)
     5.39378139E-05    3     1000024         1        -2   # BR(~g -> ~chi_1+ d  ub)
     5.39378139E-05    3    -1000024         2        -1   # BR(~g -> ~chi_1- u  db)
     5.39378139E-05    3     1000024         3        -4   # BR(~g -> ~chi_1+ s  cb)
     5.39378139E-05    3    -1000024         4        -3   # BR(~g -> ~chi_1- c  sb)
     2.22511056E-01    3     1000024         5        -6   # BR(~g -> ~chi_1+ b  tb)
     2.22511056E-01    3    -1000024         6        -5   # BR(~g -> ~chi_1- t  bb)
#
#         PDG            Width
DECAY   1000006     3.51135318E+02   # stop1 decays
#          BR         NDA      ID1       ID2
     2.08811229E-02    2     1000022         6   # BR(~t_1 -> ~chi_10 t )
     8.82813492E-02    2     1000023         6   # BR(~t_1 -> ~chi_20 t )
     1.01417552E-01    2     1000025         6   # BR(~t_1 -> ~chi_30 t )
     5.76833918E-03    2     1000035         6   # BR(~t_1 -> ~chi_40 t )
     1.38614850E-01    2     1000024         5   # BR(~t_1 -> ~chi_1+ b )
     1.15001105E-02    2     1000037         5   # BR(~t_1 -> ~chi_2+ b )
     6.33536676E-01    2     1000021         6   # BR(~t_1 -> ~g      t )
#
#         PDG            Width
DECAY   2000006     3.54909714E+02   # stop2 decays
#          BR         NDA      ID1       ID2
     1.32548917E-02    2     1000022         6   # BR(~t_2 -> ~chi_10 t )
     1.03389493E-01    2     1000023         6   # BR(~t_2 -> ~chi_20 t )
     8.69898975E-02    2     1000025         6   # BR(~t_2 -> ~chi_30 t )
     1.59146267E-02    2     1000035         6   # BR(~t_2 -> ~chi_40 t )
     5.50613402E-02    2     1000024         5   # BR(~t_2 -> ~chi_1+ b )
     3.16927928E-02    2     1000037         5   # BR(~t_2 -> ~chi_2+ b )
     6.90335387E-01    2     1000021         6   # BR(~t_2 -> ~g      t )
     7.83131617E-04    2     1000006        25   # BR(~t_2 -> ~t_1    h )
     2.57843993E-03    2     1000006        23   # BR(~t_2 -> ~t_1    Z )
#
#         PDG            Width
DECAY   1000005     3.29965480E+02   # sbottom1 decays
#          BR         NDA      ID1       ID2
     2.64158241E-03    2     1000022         5   # BR(~b_1 -> ~chi_10 b )
     2.48110193E-03    2     1000023         5   # BR(~b_1 -> ~chi_20 b )
     2.26252520E-03    2     1000025         5   # BR(~b_1 -> ~chi_30 b )
     2.31152308E-02    2     1000035         5   # BR(~b_1 -> ~chi_40 b )
     2.03817907E-01    2    -1000024         6   # BR(~b_1 -> ~chi_1- t )
     4.64041010E-02    2    -1000037         6   # BR(~b_1 -> ~chi_2- t )
     7.17615820E-01    2     1000021         5   # BR(~b_1 -> ~g      b )
     1.66173166E-03    2     1000006       -24   # BR(~b_1 -> ~t_1    W-)
#
#         PDG            Width
DECAY   2000005     2.45804428E+02   # sbottom2 decays
#          BR         NDA      ID1       ID2
     1.14406964E-02    2     1000022         5   # BR(~b_2 -> ~chi_10 b )
     3.64586151E-03    2     1000023         5   # BR(~b_2 -> ~chi_20 b )
     3.93362432E-03    2     1000025         5   # BR(~b_2 -> ~chi_30 b )
     2.91991260E-05    2     1000035         5   # BR(~b_2 -> ~chi_40 b )
     7.16065383E-03    2    -1000024         6   # BR(~b_2 -> ~chi_1- t )
     5.86419974E-05    2    -1000037         6   # BR(~b_2 -> ~chi_2- t )
     9.73721251E-01    2     1000021         5   # BR(~b_2 -> ~g      b )
     1.00722624E-05    2     1000006       -24   # BR(~b_2 -> ~t_1    W-)
#
#         PDG            Width
DECAY   1000002     2.65371952E+02   # sup_L decays
#          BR         NDA      ID1       ID2
     2.56527345E-03    2     1000022         2   # BR(~u_L -> ~chi_10 u)
     7.34289880E-06    2     1000023         2   # BR(~u_L -> ~chi_20 u)
     3.03839057E-04    2     1000025         2   # BR(~u_L -> ~chi_30 u)
     2.97969393E-02    2     1000035         2   # BR(~u_L -> ~chi_40 u)
     1.88883440E-04    2     1000024         1   # BR(~u_L -> ~chi_1+ d)
     5.95579865E-02    2     1000037         1   # BR(~u_L -> ~chi_2+ d)
     9.07579735E-01    2     1000021         2   # BR(~u_L -> ~g      u)
#
#         PDG            Width
DECAY   2000002     2.51301606E+02   # sup_R decays
#          BR         NDA      ID1       ID2
     4.36340626E-02    2     1000022         2   # BR(~u_R -> ~chi_10 u)
     1.02751924E-03    2     1000023         2   # BR(~u_R -> ~chi_20 u)
     2.76980781E-03    2     1000025         2   # BR(~u_R -> ~chi_30 u)
     3.24513568E-09    2     1000035         2   # BR(~u_R -> ~chi_40 u)
     9.52568607E-01    2     1000021         2   # BR(~u_R -> ~g      u)
#
#         PDG            Width
DECAY   1000001     2.65385049E+02   # sdown_L decays
#          BR         NDA      ID1       ID2
     2.61840409E-03    2     1000022         1   # BR(~d_L -> ~chi_10 d)
     1.66799664E-04    2     1000023         1   # BR(~d_L -> ~chi_20 d)
     6.76046417E-05    2     1000025         1   # BR(~d_L -> ~chi_30 d)
     2.98143479E-02    2     1000035         1   # BR(~d_L -> ~chi_40 d)
     5.05675654E-07    2    -1000024         2   # BR(~d_L -> ~chi_1- u)
     5.96494848E-02    2    -1000037         2   # BR(~d_L -> ~chi_2- u)
     9.07682853E-01    2     1000021         1   # BR(~d_L -> ~g      d)
#
#         PDG            Width
DECAY   2000001     2.42387813E+02   # sdown_R decays
#          BR         NDA      ID1       ID2
     1.13103809E-02    2     1000022         1   # BR(~d_R -> ~chi_10 d)
     2.66343219E-04    2     1000023         1   # BR(~d_R -> ~chi_20 d)
     7.17961763E-04    2     1000025         1   # BR(~d_R -> ~chi_30 d)
     8.41291639E-10    2     1000035         1   # BR(~d_R -> ~chi_40 d)
     9.87705313E-01    2     1000021         1   # BR(~d_R -> ~g      d)
#
#         PDG            Width
DECAY   1000004     2.65371952E+02   # scharm_L decays
#          BR         NDA      ID1       ID2
     2.56527345E-03    2     1000022         4   # BR(~c_L -> ~chi_10 c)
     7.34289880E-06    2     1000023         4   # BR(~c_L -> ~chi_20 c)
     3.03839057E-04    2     1000025         4   # BR(~c_L -> ~chi_30 c)
     2.97969393E-02    2     1000035         4   # BR(~c_L -> ~chi_40 c)
     1.88883440E-04    2     1000024         3   # BR(~c_L -> ~chi_1+ s)
     5.95579865E-02    2     1000037         3   # BR(~c_L -> ~chi_2+ s)
     9.07579735E-01    2     1000021         4   # BR(~c_L -> ~g      c)
#
#         PDG            Width
DECAY   2000004     2.51301606E+02   # scharm_R decays
#          BR         NDA      ID1       ID2
     4.36340626E-02    2     1000022         4   # BR(~c_R -> ~chi_10 c)
     1.02751924E-03    2     1000023         4   # BR(~c_R -> ~chi_20 c)
     2.76980781E-03    2     1000025         4   # BR(~c_R -> ~chi_30 c)
     3.24513568E-09    2     1000035         4   # BR(~c_R -> ~chi_40 c)
     9.52568607E-01    2     1000021         4   # BR(~c_R -> ~g      c)
#
#         PDG            Width
DECAY   1000003     2.65385049E+02   # sstrange_L decays
#          BR         NDA      ID1       ID2
     2.61840409E-03    2     1000022         3   # BR(~s_L -> ~chi_10 s)
     1.66799664E-04    2     1000023         3   # BR(~s_L -> ~chi_20 s)
     6.76046417E-05    2     1000025         3   # BR(~s_L -> ~chi_30 s)
     2.98143479E-02    2     1000035         3   # BR(~s_L -> ~chi_40 s)
     5.05675654E-07    2    -1000024         4   # BR(~s_L -> ~chi_1- c)
     5.96494848E-02    2    -1000037         4   # BR(~s_L -> ~chi_2- c)
     9.07682853E-01    2     1000021         3   # BR(~s_L -> ~g      s)
#
#         PDG            Width
DECAY   2000003     2.42387813E+02   # sstrange_R decays
#          BR         NDA      ID1       ID2
     1.13103809E-02    2     1000022         3   # BR(~s_R -> ~chi_10 s)
     2.66343219E-04    2     1000023         3   # BR(~s_R -> ~chi_20 s)
     7.17961763E-04    2     1000025         3   # BR(~s_R -> ~chi_30 s)
     8.41291639E-10    2     1000035         3   # BR(~s_R -> ~chi_40 s)
     9.87705313E-01    2     1000021         3   # BR(~s_R -> ~g      s)
#
#         PDG            Width
DECAY   1000011     3.04321634E+01   # selectron_L decays
#          BR         NDA      ID1       ID2
     2.07156831E-01    2     1000022        11   # BR(~e_L -> ~chi_10 e-)
     2.99463584E-03    2     1000023        11   # BR(~e_L -> ~chi_20 e-)
     1.65365261E-02    2     1000025        11   # BR(~e_L -> ~chi_30 e-)
     2.57599170E-01    2     1000035        11   # BR(~e_L -> ~chi_40 e-)
     4.50476072E-06    2    -1000024        12   # BR(~e_L -> ~chi_1- nu_e)
     5.15708333E-01    2    -1000037        12   # BR(~e_L -> ~chi_2- nu_e)
#
#         PDG            Width
DECAY   2000011     2.74320121E+01   # selectron_R decays
#          BR         NDA      ID1       ID2
     9.19964075E-01    2     1000022        11   # BR(~e_R -> ~chi_10 e-)
     2.16569146E-02    2     1000023        11   # BR(~e_R -> ~chi_20 e-)
     5.83789439E-02    2     1000025        11   # BR(~e_R -> ~chi_30 e-)
     6.65110130E-08    2     1000035        11   # BR(~e_R -> ~chi_40 e-)
#
#         PDG            Width
DECAY   1000013     3.04321634E+01   # smuon_L decays
#          BR         NDA      ID1       ID2
     2.07156831E-01    2     1000022        13   # BR(~mu_L -> ~chi_10 mu-)
     2.99463584E-03    2     1000023        13   # BR(~mu_L -> ~chi_20 mu-)
     1.65365261E-02    2     1000025        13   # BR(~mu_L -> ~chi_30 mu-)
     2.57599170E-01    2     1000035        13   # BR(~mu_L -> ~chi_40 mu-)
     4.50476072E-06    2    -1000024        14   # BR(~mu_L -> ~chi_1- nu_mu)
     5.15708333E-01    2    -1000037        14   # BR(~mu_L -> ~chi_2- nu_mu)
#
#         PDG            Width
DECAY   2000013     2.74320121E+01   # smuon_R decays
#          BR         NDA      ID1       ID2
     9.19964075E-01    2     1000022        13   # BR(~mu_R -> ~chi_10 mu-)
     2.16569146E-02    2     1000023        13   # BR(~mu_R -> ~chi_20 mu-)
     5.83789439E-02    2     1000025        13   # BR(~mu_R -> ~chi_30 mu-)
     6.65110130E-08    2     1000035        13   # BR(~mu_R -> ~chi_40 mu-)
#
#         PDG            Width
DECAY   1000015     2.93100038E+01   # stau_1 decays
#          BR         NDA      ID1       ID2
     8.63891776E-01    2     1000022        15   # BR(~tau_1 -> ~chi_10  tau-)
     3.51127874E-02    2     1000023        15   # BR(~tau_1 -> ~chi_20  tau-)
     6.85970973E-02    2     1000025        15   # BR(~tau_1 -> ~chi_30  tau-)
     9.57977728E-05    2     1000035        15   # BR(~tau_1 -> ~chi_40  tau-)
     3.21109122E-02    2    -1000024        16   # BR(~tau_1 -> ~chi_1-  nu_tau)
     1.91629700E-04    2    -1000037        16   # BR(~tau_1 -> ~chi_2-  nu_tau)
#
#         PDG            Width
DECAY   2000015     3.13670179E+01   # stau_2 decays
#          BR         NDA      ID1       ID2
     2.02649739E-01    2     1000022        15   # BR(~tau_2 -> ~chi_10  tau-)
     1.75792526E-02    2     1000023        15   # BR(~tau_2 -> ~chi_20  tau-)
     3.00274810E-02    2     1000025        15   # BR(~tau_2 -> ~chi_30  tau-)
     2.49740164E-01    2     1000035        15   # BR(~tau_2 -> ~chi_40  tau-)
     2.85127437E-05    2    -1000024        16   # BR(~tau_2 -> ~chi_1-  nu_tau)
     4.99974851E-01    2    -1000037        16   # BR(~tau_2 -> ~chi_2-  nu_tau)
#
#         PDG            Width
DECAY   1000012     3.04350138E+01   # snu_eL decays
#          BR         NDA      ID1       ID2
     2.08514898E-01    2     1000022        12   # BR(~nu_eL -> ~chi_10 nu_e)
     7.25400885E-03    2     1000023        12   # BR(~nu_eL -> ~chi_20 nu_e)
     1.02199332E-02    2     1000025        12   # BR(~nu_eL -> ~chi_30 nu_e)
     2.57658178E-01    2     1000035        12   # BR(~nu_eL -> ~chi_40 nu_e)
     1.68224782E-03    2     1000024        11   # BR(~nu_eL -> ~chi_1+ e-)
     5.14670734E-01    2     1000037        11   # BR(~nu_eL -> ~chi_2+ e-)
#
#         PDG            Width
DECAY   1000014     3.04350138E+01   # snu_muL decays
#          BR         NDA      ID1       ID2
     2.08514898E-01    2     1000022        14   # BR(~nu_muL -> ~chi_10 nu_mu)
     7.25400885E-03    2     1000023        14   # BR(~nu_muL -> ~chi_20 nu_mu)
     1.02199332E-02    2     1000025        14   # BR(~nu_muL -> ~chi_30 nu_mu)
     2.57658178E-01    2     1000035        14   # BR(~nu_muL -> ~chi_40 nu_mu)
     1.68224782E-03    2     1000024        13   # BR(~nu_muL -> ~chi_1+ mu-)
     5.14670734E-01    2     1000037        13   # BR(~nu_muL -> ~chi_2+ mu-)
#
#         PDG            Width
DECAY   1000016     3.13697528E+01   # snu_tauL decays
#          BR         NDA      ID1       ID2
     2.02279286E-01    2     1000022        16   # BR(~nu_tauL -> ~chi_10 nu_tau)
     7.03707520E-03    2     1000023        16   # BR(~nu_tauL -> ~chi_20 nu_tau)
     9.91430253E-03    2     1000025        16   # BR(~nu_tauL -> ~chi_30 nu_tau)
     2.49886477E-01    2     1000035        16   # BR(~nu_tauL -> ~chi_40 nu_tau)
     3.17361616E-02    2     1000024        15   # BR(~nu_tauL -> ~chi_1+ tau-)
     4.99146698E-01    2     1000037        15   # BR(~nu_tauL -> ~chi_2+ tau-)
#
#         PDG            Width
DECAY   1000024     5.13353717E-02   # chargino1+ decays
#          BR         NDA      ID1       ID2
     1.00000000E+00    2     1000022        24   # BR(~chi_1+ -> ~chi_10  W+)
#
#         PDG            Width
DECAY   1000037     2.34339075E+01   # chargino2+ decays
#          BR         NDA      ID1       ID2
     2.53911678E-01    2     1000024        23   # BR(~chi_2+ -> ~chi_1+  Z )
     1.78450323E-03    2     1000022        24   # BR(~chi_2+ -> ~chi_10  W+)
     2.45140269E-01    2     1000023        24   # BR(~chi_2+ -> ~chi_20  W+)
     2.43623655E-01    2     1000025        24   # BR(~chi_2+ -> ~chi_30  W+)
     2.55484587E-01    2     1000024        25   # BR(~chi_2+ -> ~chi_1+  h )
     5.53086418E-05    2     1000022        37   # BR(~chi_2+ -> ~chi_10  H+)
#
#         PDG            Width
DECAY   1000022     0.00000000E+00   # neutralino1 decays
#
#         PDG            Width
DECAY   1000023     2.13725431E-02   # neutralino2 decays
#          BR         NDA      ID1       ID2
     1.00000000E+00    2     1000022        23   # BR(~chi_20 -> ~chi_10   Z )
#
#         PDG            Width
DECAY   1000025     2.52408548E-02   # neutralino3 decays
#          BR         NDA      ID1       ID2
     1.00000000E+00    2     1000022        23   # BR(~chi_30 -> ~chi_10   Z )
#
#         PDG            Width
DECAY   1000035     2.34447285E+01   # neutralino4 decays
#          BR         NDA      ID1       ID2
     1.72180882E-03    2     1000022        23   # BR(~chi_40 -> ~chi_10   Z )
     1.14742955E-01    2     1000023        23   # BR(~chi_40 -> ~chi_20   Z )
     1.37044829E-01    2     1000025        23   # BR(~chi_40 -> ~chi_30   Z )
     2.45640126E-01    2     1000024       -24   # BR(~chi_40 -> ~chi_1+   W-)
     2.45640126E-01    2    -1000024        24   # BR(~chi_40 -> ~chi_1-   W+)
     1.60889347E-04    2     1000022        25   # BR(~chi_40 -> ~chi_10   h )
     5.27231451E-05    2     1000022        35   # BR(~chi_40 -> ~chi_10   H )
     5.97193168E-06    2     1000022        36   # BR(~chi_40 -> ~chi_10   A )
     1.39368083E-01    2     1000023        25   # BR(~chi_40 -> ~chi_20   h )
     1.15622487E-01    2     1000025        25   # BR(~chi_40 -> ~chi_30   h )
#
#         PDG            Width
DECAY        25     4.10054183E-03   # h decays
#          BR         NDA      ID1       ID2
     6.07410711E-01    2           5        -5   # BR(h -> b       bb     )
     6.32516011E-02    2         -15        15   # BR(h -> tau+    tau-   )
     2.23933771E-04    2         -13        13   # BR(h -> mu+     mu-    )
     4.74743224E-04    2           3        -3   # BR(h -> s       sb     )
     2.05679988E-02    2           4        -4   # BR(h -> c       cb     )
     6.65055744E-02    2          21        21   # BR(h -> g       g      )
     2.28217271E-03    2          22        22   # BR(h -> gam     gam    )
     1.47174984E-03    2          22        23   # BR(h -> Z       gam    )
     2.07645876E-01    2          24       -24   # BR(h -> W+      W-     )
     2.47170635E-02    2          23        23   # BR(h -> Z       Z      )
     5.44857573E-03    2     1000022   1000022   # BR(h -> ~chi_10 ~chi_10)
#
#         PDG            Width
DECAY        35     8.82377003E+00   # H decays
#          BR         NDA      ID1       ID2
     3.58674659E-01    2           5        -5   # BR(H -> b       bb     )
     6.31236554E-02    2         -15        15   # BR(H -> tau+    tau-   )
     2.23210260E-04    2         -13        13   # BR(H -> mu+     mu-    )
     2.73621424E-04    2           3        -3   # BR(H -> s       sb     )
     1.53149613E-06    2           4        -4   # BR(H -> c       cb     )
     1.53008604E-01    2           6        -6   # BR(H -> t       tb     )
     5.09208208E-05    2          21        21   # BR(H -> g       g      )
     1.51946736E-07    2          22        22   # BR(H -> gam     gam    )
     9.02378906E-08    2          23        22   # BR(H -> Z       gam    )
     7.53248029E-05    2          24       -24   # BR(H -> W+      W-     )
     3.76147119E-05    2          23        23   # BR(H -> Z       Z      )
     2.66956314E-04    2          25        25   # BR(H -> h       h      )
    -2.20108304E-24    2          36        36   # BR(H -> A       A      )
     7.55226268E-19    2          23        36   # BR(H -> Z       A      )
     3.50393305E-03    2     1000024  -1000024   # BR(H -> ~chi_1+ ~chi_1-)
     6.14667733E-02    2     1000022   1000022   # BR(H -> ~chi_10 ~chi_10)
     1.02262288E-02    2     1000023   1000023   # BR(H -> ~chi_20 ~chi_20)
     2.02355410E-02    2     1000025   1000025   # BR(H -> ~chi_30 ~chi_30)
     1.20935610E-01    2     1000022   1000023   # BR(H -> ~chi_10 ~chi_20)
     1.78710172E-01    2     1000022   1000025   # BR(H -> ~chi_10 ~chi_30)
     2.91854016E-02    2     1000023   1000025   # BR(H -> ~chi_20 ~chi_30)
#
#         PDG            Width
DECAY        36     8.82872703E+00   # A decays
#          BR         NDA      ID1       ID2
     3.58596218E-01    2           5        -5   # BR(A -> b       bb     )
     6.30900337E-02    2         -15        15   # BR(A -> tau+    tau-   )
     2.23091059E-04    2         -13        13   # BR(A -> mu+     mu-    )
     2.73675330E-04    2           3        -3   # BR(A -> s       sb     )
     1.53663915E-06    2           4        -4   # BR(A -> c       cb     )
     1.53437716E-01    2           6        -6   # BR(A -> t       tb     )
     1.51826836E-04    2          21        21   # BR(A -> g       g      )
     5.21420073E-07    2          22        22   # BR(A -> gam     gam    )
     1.83678899E-07    2          23        22   # BR(A -> Z       gam    )
     7.49973399E-05    2          23        25   # BR(A -> Z       h      )
     3.62607503E-03    2     1000024  -1000024   # BR(A -> ~chi_1+ ~chi_1-)
     5.54248866E-02    2     1000022   1000022   # BR(A -> ~chi_10 ~chi_10)
     1.60469941E-02    2     1000023   1000023   # BR(A -> ~chi_20 ~chi_20)
     1.31538246E-02    2     1000025   1000025   # BR(A -> ~chi_30 ~chi_30)
     1.94838202E-01    2     1000022   1000023   # BR(A -> ~chi_10 ~chi_20)
     1.11267480E-01    2     1000022   1000025   # BR(A -> ~chi_10 ~chi_30)
     2.97927371E-02    2     1000023   1000025   # BR(A -> ~chi_20 ~chi_30)
#
#         PDG            Width
DECAY        37     8.76256449E+00   # H+ decays
#          BR         NDA      ID1       ID2
     5.73942717E-04    2           4        -5   # BR(H+ -> c       bb     )
     6.35978663E-02    2         -15        16   # BR(H+ -> tau+    nu_tau )
     2.24886792E-04    2         -13        14   # BR(H+ -> mu+     nu_mu  )
     3.67321395E-06    2           2        -5   # BR(H+ -> u       bb     )
     1.31955402E-05    2           2        -3   # BR(H+ -> u       sb     )
     2.72885242E-04    2           4        -3   # BR(H+ -> c       sb     )
     5.10123026E-01    2           6        -5   # BR(H+ -> t       bb     )
     7.57246838E-05    2          24        25   # BR(H+ -> W+      h      )
     1.08299164E-12    2          24        36   # BR(H+ -> W+      A      )
     3.87376638E-01    2     1000024   1000022   # BR(H+ -> ~chi_1+ ~chi_10)
     5.78321319E-03    2     1000024   1000023   # BR(H+ -> ~chi_1+ ~chi_20)
     3.19549479E-02    2     1000024   1000025   # BR(H+ -> ~chi_1+ ~chi_30)
