#
#                              ======================
#                              | THE SUSYHIT OUTPUT |
#                              ======================
#
#
#              ------------------------------------------------------
#              |     This is the output of the SUSY-HIT package     |
#              |  created by A.Djouadi, M.Muehlleitner and M.Spira. |
#              |  In case of problems with SUSY-HIT email to        |
#              |           margarete.muehlleitner@cern.ch           |
#              |           michael.spira@psi.ch                     |
#              |           abdelhak.djouadi@cern.ch                 |
#              ------------------------------------------------------
#
#              ------------------------------------------------------
#              |  SUSY Les Houches Accord - MSSM Spectrum + Decays  |
#              |              based on the decay programs           |
#              |                                                    |
#              |                     SDECAY 1.3b                    |
#              |                                                    |
#              |  Authors: M.Muhlleitner, A.Djouadi and Y.Mambrini  |
#              |  Ref.:    Comput.Phys.Commun.168(2005)46           |
#              |           [hep-ph/0311167]                         |
#              |                                                    |
#              |                     HDECAY 3.4                     |
#              |                                                    |
#              |  By: A.Djouadi,J.Kalinowski,M.Muhlleitner,M.Spira  |
#              |  Ref.:    Comput.Phys.Commun.108(1998)56           |
#              |           [hep-ph/9704448]                         |
#              |                                                    |
#              |                                                    |
#              |  If not stated otherwise all DRbar couplings and   |
#              |  soft SUSY breaking masses are given at the scale  |
#              |  Q=  0.50007545E+04
#              |                                                    |
#              ------------------------------------------------------
#
#
BLOCK DCINFO  # Decay Program information
     1   SDECAY/HDECAY # decay calculator
     2   1.3b  /3.4    # version number
#
BLOCK SPINFO  # Spectrum calculator information
     1    SOFTSUSY    # spectrum calculator                
     2    3.4.0       # version number                     
#
BLOCK MODSEL  # Model selection
     1     0   #  nonUniversal                                     
#
BLOCK SMINPUTS  # Standard Model inputs
         1     1.25778332E+02   # alpha_em^-1(M_Z)^MSbar
         2     1.16570000E-05   # G_F [GeV^-2]
         3     1.17200002E-01   # alpha_S(M_Z)^MSbar
         4     9.11876000E+01   # M_Z pole mass
         5     4.25000000E+00   # mb(mb)^MSbar
         6     1.72500000E+02   # mt pole mass
         7     1.77682000E+00   # mtau pole mass
#
BLOCK MINPAR  # Input parameters - minimal models
         3     1.00000000E+01   # tanb                
#
BLOCK EXTPAR  # Input parameters - non-minimal models
         0    -1.00000000E+00   # Set                 
         1     6.00000000E+01   # M_1(MX)             
         2     3.00000000E+03   # M_2(MX)             
         3     1.48350000E+03   # M_3(MX)             
        11     5.00000000E+03   # At(MX)              
        12     5.00000000E+03   # Ab(MX)              
        13     0.00000000E+00   # Atau(MX)            
        23    -5.71388000E+02   # mu(MX)              
        26     3.00000000E+03   # mA(pole)            
        31     5.00000000E+03   # meL(MX)             
        32     5.00000000E+03   # mmuL(MX)            
        33     5.00000000E+03   # mtauL(MX)           
        34     5.00000000E+03   # meR(MX)             
        35     5.00000000E+03   # mmuR(MX)            
        36     5.00000000E+03   # mtauR(MX)           
        41     5.00000000E+03   # mqL1(MX)            
        42     5.00000000E+03   # mqL2(MX)            
        43     5.00000000E+03   # mqL3(MX)            
        44     5.00000000E+03   # muR(MX)             
        45     5.00000000E+03   # mcR(MX)             
        46     5.00000000E+03   # mtR(MX)             
        47     5.00000000E+03   # mdR(MX)             
        48     5.00000000E+03   # msR(MX)             
        49     5.00000000E+03   # mbR(MX)             
#
BLOCK MASS  # Mass Spectrum
# PDG code           mass       particle
        24     8.00931921E+01   # W+
        25     1.24709083E+02   # h
        35     3.00008453E+03   # H
        36     2.99999919E+03   # A
        37     3.00140405E+03   # H+
         5     4.87878001E+00   # b-quark pole mass calculated from mb(mb)_Msbar
   1000001     5.06954773E+03   # ~d_L
   2000001     5.05170615E+03   # ~d_R
   1000002     5.06907267E+03   # ~u_L
   2000002     5.05140872E+03   # ~u_R
   1000003     5.06954773E+03   # ~s_L
   2000003     5.05170615E+03   # ~s_R
   1000004     5.06907267E+03   # ~c_L
   2000004     5.05140872E+03   # ~c_R
   1000005     5.01542394E+03   # ~b_1
   2000005     5.05000211E+03   # ~b_2
   1000006     4.90621176E+03   # ~t_1
   2000006     5.05981425E+03   # ~t_2
   1000011     5.01909929E+03   # ~e_L
   2000011     5.00593951E+03   # ~e_R
   1000012     5.01814944E+03   # ~nu_eL
   1000013     5.01909929E+03   # ~mu_L
   2000013     5.00593951E+03   # ~mu_R
   1000014     5.01814944E+03   # ~nu_muL
   1000015     5.00474872E+03   # ~tau_1
   2000015     5.01865036E+03   # ~tau_2
   1000016     5.01759880E+03   # ~nu_tauL
   1000021     1.80000011E+03   # ~g
   1000022     6.02509625E+01   # ~chi_10
   1000023     6.00198751E+02   # ~chi_20
   1000025    -6.02417254E+02   # ~chi_30
   1000035     3.07418581E+03   # ~chi_40
   1000024     6.00000388E+02   # ~chi_1+
   1000037     3.07435344E+03   # ~chi_2+
#
BLOCK NMIX  # Neutralino Mixing Matrix
  1  1     9.97249069E-01   # N_11
  1  2     2.27042507E-04   # N_12
  1  3    -7.41227697E-02   # N_13
  1  4     2.41955589E-04   # N_14
  2  1     5.22689580E-02   # N_21
  2  2     1.97537615E-02   # N_22
  2  3     7.05593904E-01   # N_23
  2  4     7.06409929E-01   # N_24
  3  1    -5.25556805E-02   # N_31
  3  2     1.65491862E-02   # N_32
  3  3    -7.04725445E-01   # N_33
  3  4     7.07337311E-01   # N_34
  4  1    -3.89302008E-04   # N_41
  4  2     9.99667876E-01   # N_42
  4  3    -2.25942242E-03   # N_43
  4  4    -2.56686902E-02   # N_44
#
BLOCK UMIX  # Chargino Mixing Matrix U
  1  1     3.20242817E-03   # U_11
  1  2     9.99994872E-01   # U_12
  2  1    -9.99994872E-01   # U_21
  2  2     3.20242817E-03   # U_22
#
BLOCK VMIX  # Chargino Mixing Matrix V
  1  1     3.63249188E-02   # V_11
  1  2    -9.99340032E-01   # V_12
  2  1    -9.99340032E-01   # V_21
  2  2    -3.63249188E-02   # V_22
#
BLOCK STOPMIX  # Stop Mixing Matrix
  1  1    -5.05131309E-01   # cos(theta_t)
  1  2     8.63042502E-01   # sin(theta_t)
  2  1    -8.63042502E-01   # -sin(theta_t)
  2  2    -5.05131309E-01   # cos(theta_t)
#
BLOCK SBOTMIX  # Sbottom Mixing Matrix
  1  1     9.98477518E-01   # cos(theta_b)
  1  2    -5.51601854E-02   # sin(theta_b)
  2  1     5.51601854E-02   # -sin(theta_b)
  2  2     9.98477518E-01   # cos(theta_b)
#
BLOCK STAUMIX  # Stau Mixing Matrix
  1  1    -6.84566102E-02   # cos(theta_tau)
  1  2     9.97654095E-01   # sin(theta_tau)
  2  1    -9.97654095E-01   # -sin(theta_tau)
  2  2    -6.84566102E-02   # cos(theta_tau)
#
BLOCK ALPHA  # Higgs mixing
          -1.05476787E-01   # Mixing angle in the neutral Higgs boson sector
#
BLOCK HMIX Q=  5.00075450E+03  # DRbar Higgs Parameters
         1    -5.81798047E+02   # mu(Q)MSSM           
         2     9.46991774E+00   # tan                 
         3     2.41778128E+02   # higgs               
         4     8.64223636E+06   # mA^2(Q)MSSM         
#
BLOCK GAUGE Q=  5.00075450E+03  # The gauge couplings
     1     3.70918421E-01   # gprime(Q) DRbar
     2     6.33137965E-01   # g(Q) DRbar
     3     1.00004861E+00   # g3(Q) DRbar
#
BLOCK AU Q=  5.00075450E+03  # The trilinear couplings
  1  1     5.00000001E+03   # A_u(Q) DRbar
  2  2     5.00000001E+03   # A_c(Q) DRbar
  3  3     5.00000002E+03   # A_t(Q) DRbar
#
BLOCK AD Q=  5.00075450E+03  # The trilinear couplings
  1  1     5.00000001E+03   # A_d(Q) DRbar
  2  2     5.00000001E+03   # A_s(Q) DRbar
  3  3     5.00000001E+03   # A_b(Q) DRbar
#
BLOCK AE Q=  5.00075450E+03  # The trilinear couplings
  1  1     0.00000000E+00   # A_e(Q) DRbar
  2  2     1.42521186E-07   # A_mu(Q) DRbar
  3  3     1.42034952E-07   # A_tau(Q) DRbar
#
BLOCK Yu Q=  5.00075450E+03  # The Yukawa couplings
  1  1     0.00000000E+00   # y_u(Q) DRbar
  2  2     0.00000000E+00   # y_c(Q) DRbar
  3  3     8.19419202E-01   # y_t(Q) DRbar
#
BLOCK Yd Q=  5.00075450E+03  # The Yukawa couplings
  1  1     0.00000000E+00   # y_d(Q) DRbar
  2  2     0.00000000E+00   # y_s(Q) DRbar
  3  3     1.30014933E-01   # y_b(Q) DRbar
#
BLOCK Ye Q=  5.00075450E+03  # The Yukawa couplings
  1  1     0.00000000E+00   # y_e(Q) DRbar
  2  2     0.00000000E+00   # y_mu(Q) DRbar
  3  3     9.70806263E-02   # y_tau(Q) DRbar
#
BLOCK MSOFT Q=  5.00075450E+03  # The soft SUSY breaking masses at the scale Q
         1     6.00000000E+01   # M_1(Q)              
         2     3.00000000E+03   # M_2(Q)              
         3     1.48350000E+03   # M_3(Q)              
        21     8.38094207E+06   # mH1^2(Q)            
        22     2.34803718E+05   # mH2^2(Q)            
        31     5.00000000E+03   # meL(Q)              
        32     5.00000000E+03   # mmuL(Q)             
        33     5.00000000E+03   # mtauL(Q)            
        34     5.00000000E+03   # meR(Q)              
        35     5.00000000E+03   # mmuR(Q)             
        36     5.00000000E+03   # mtauR(Q)            
        41     5.00000000E+03   # mqL1(Q)             
        42     5.00000000E+03   # mqL2(Q)             
        43     5.00000000E+03   # mqL3(Q)             
        44     5.00000000E+03   # muR(Q)              
        45     5.00000000E+03   # mcR(Q)              
        46     4.99999999E+03   # mtR(Q)              
        47     5.00000000E+03   # mdR(Q)              
        48     5.00000000E+03   # msR(Q)              
        49     5.00000000E+03   # mbR(Q)              
#
#
#
#                             =================
#                             |The decay table|
#                             =================
#
# - The QCD corrections to the decays gluino -> squark  + quark
#                                     squark -> gaugino + quark_prime
#                                     squark -> squark_prime + Higgs
#                                     squark -> gluino  + quark
#   are included.
#
# - The multi-body decays for the inos, stops and sbottoms are included.
#
# - The loop induced decays for the gluino, neutralinos and stops
#   are included.
#
# - The SUSY decays of the top quark are included.
#
#
#         PDG            Width
DECAY         6     1.40484153E+00   # top decays
#          BR         NDA      ID1       ID2
     1.00000000E+00    2           5        24   # BR(t ->  b    W+)
#
#         PDG            Width
DECAY   1000021     7.71967080E-04   # gluino decays
#          BR         NDA      ID1       ID2
     1.21480717E-06    2     1000022        21   # BR(~g -> ~chi_10 g)
     1.05058015E-02    2     1000023        21   # BR(~g -> ~chi_20 g)
     1.02408114E-02    2     1000025        21   # BR(~g -> ~chi_30 g)
#           BR         NDA      ID1       ID2       ID3
     1.75175353E-02    3     1000022         1        -1   # BR(~g -> ~chi_10 d  db)
     2.82105985E-05    3     1000023         1        -1   # BR(~g -> ~chi_20 d  db)
     2.80591151E-05    3     1000025         1        -1   # BR(~g -> ~chi_30 d  db)
     5.97350346E-02    3     1000022         2        -2   # BR(~g -> ~chi_10 u  ub)
     1.42133420E-04    3     1000023         2        -2   # BR(~g -> ~chi_20 u  ub)
     4.28477729E-05    3     1000025         2        -2   # BR(~g -> ~chi_30 u  ub)
     1.75175353E-02    3     1000022         3        -3   # BR(~g -> ~chi_10 s  sb)
     2.82105985E-05    3     1000023         3        -3   # BR(~g -> ~chi_20 s  sb)
     2.80591151E-05    3     1000025         3        -3   # BR(~g -> ~chi_30 s  sb)
     5.97350346E-02    3     1000022         4        -4   # BR(~g -> ~chi_10 c  cb)
     1.42133420E-04    3     1000023         4        -4   # BR(~g -> ~chi_20 c  cb)
     4.28477729E-05    3     1000025         4        -4   # BR(~g -> ~chi_30 c  cb)
     1.78630943E-02    3     1000022         5        -5   # BR(~g -> ~chi_10 b  bb)
     5.18755006E-03    3     1000023         5        -5   # BR(~g -> ~chi_20 b  bb)
     5.13712384E-03    3     1000025         5        -5   # BR(~g -> ~chi_30 b  bb)
     5.60652983E-02    3     1000022         6        -6   # BR(~g -> ~chi_10 t  tb)
     1.84560912E-01    3     1000023         6        -6   # BR(~g -> ~chi_20 t  tb)
     1.61707812E-01    3     1000025         6        -6   # BR(~g -> ~chi_30 t  tb)
     5.64244702E-05    3     1000024         1        -2   # BR(~g -> ~chi_1+ d  ub)
     5.64244702E-05    3    -1000024         2        -1   # BR(~g -> ~chi_1- u  db)
     5.64244702E-05    3     1000024         3        -4   # BR(~g -> ~chi_1+ s  cb)
     5.64244702E-05    3    -1000024         4        -3   # BR(~g -> ~chi_1- c  sb)
     1.96758521E-01    3     1000024         5        -6   # BR(~g -> ~chi_1+ b  tb)
     1.96758521E-01    3    -1000024         6        -5   # BR(~g -> ~chi_1- t  bb)
#
#         PDG            Width
DECAY   1000006     3.64936196E+02   # stop1 decays
#          BR         NDA      ID1       ID2
     2.41409871E-02    2     1000022         6   # BR(~t_1 -> ~chi_10 t )
     8.87051266E-02    2     1000023         6   # BR(~t_1 -> ~chi_20 t )
     8.44124112E-02    2     1000025         6   # BR(~t_1 -> ~chi_30 t )
     5.61313444E-03    2     1000035         6   # BR(~t_1 -> ~chi_40 t )
     1.28727488E-01    2     1000024         5   # BR(~t_1 -> ~chi_1+ b )
     1.11889188E-02    2     1000037         5   # BR(~t_1 -> ~chi_2+ b )
     6.57211934E-01    2     1000021         6   # BR(~t_1 -> ~g      t )
#
#         PDG            Width
DECAY   2000006     3.68915809E+02   # stop2 decays
#          BR         NDA      ID1       ID2
     9.47731201E-03    2     1000022         6   # BR(~t_2 -> ~chi_10 t )
     8.83510166E-02    2     1000023         6   # BR(~t_2 -> ~chi_20 t )
     9.30923712E-02    2     1000025         6   # BR(~t_2 -> ~chi_30 t )
     1.51236426E-02    2     1000035         6   # BR(~t_2 -> ~chi_40 t )
     5.23276716E-02    2     1000024         5   # BR(~t_2 -> ~chi_1+ b )
     3.01104332E-02    2     1000037         5   # BR(~t_2 -> ~chi_2+ b )
     7.08157674E-01    2     1000021         6   # BR(~t_2 -> ~g      t )
     7.72523813E-04    2     1000006        25   # BR(~t_2 -> ~t_1    h )
     2.58735524E-03    2     1000006        23   # BR(~t_2 -> ~t_1    Z )
#
#         PDG            Width
DECAY   1000005     3.44452395E+02   # sbottom1 decays
#          BR         NDA      ID1       ID2
     2.25033665E-03    2     1000022         5   # BR(~b_1 -> ~chi_10 b )
     2.37788642E-03    2     1000023         5   # BR(~b_1 -> ~chi_20 b )
     2.36156026E-03    2     1000025         5   # BR(~b_1 -> ~chi_30 b )
     2.19626311E-02    2     1000035         5   # BR(~b_1 -> ~chi_40 b )
     1.89403303E-01    2    -1000024         6   # BR(~b_1 -> ~chi_1- t )
     4.40996704E-02    2    -1000037         6   # BR(~b_1 -> ~chi_2- t )
     7.35918952E-01    2     1000021         5   # BR(~b_1 -> ~g      b )
     1.62566042E-03    2     1000006       -24   # BR(~b_1 -> ~t_1    W-)
#
#         PDG            Width
DECAY   2000005     2.62557406E+02   # sbottom2 decays
#          BR         NDA      ID1       ID2
     1.11855662E-02    2     1000022         5   # BR(~b_2 -> ~chi_10 b )
     3.20100051E-03    2     1000023         5   # BR(~b_2 -> ~chi_20 b )
     3.25148146E-03    2     1000025         5   # BR(~b_2 -> ~chi_30 b )
     8.53622836E-05    2     1000035         5   # BR(~b_2 -> ~chi_40 b )
     7.03436265E-03    2    -1000024         6   # BR(~b_2 -> ~chi_1- t )
     1.71406460E-04    2    -1000037         6   # BR(~b_2 -> ~chi_2- t )
     9.75044024E-01    2     1000021         5   # BR(~b_2 -> ~g      b )
     2.67961888E-05    2     1000006       -24   # BR(~b_2 -> ~t_1    W-)
#
#         PDG            Width
DECAY   1000002     2.81814253E+02   # sup_L decays
#          BR         NDA      ID1       ID2
     2.64222267E-03    2     1000022         2   # BR(~u_L -> ~chi_10 u)
     6.07267866E-05    2     1000023         2   # BR(~u_L -> ~chi_20 u)
     2.67265056E-06    2     1000025         2   # BR(~u_L -> ~chi_30 u)
     2.78906689E-02    2     1000035         2   # BR(~u_L -> ~chi_40 u)
     1.78533159E-04    2     1000024         1   # BR(~u_L -> ~chi_1+ d)
     5.57462086E-02    2     1000037         1   # BR(~u_L -> ~chi_2+ d)
     9.13478967E-01    2     1000021         2   # BR(~u_L -> ~g      u)
#
#         PDG            Width
DECAY   2000002     2.67923933E+02   # sup_R decays
#          BR         NDA      ID1       ID2
     4.42077137E-02    2     1000022         2   # BR(~u_R -> ~chi_10 u)
     1.18177592E-04    2     1000023         2   # BR(~u_R -> ~chi_20 u)
     1.19452649E-04    2     1000025         2   # BR(~u_R -> ~chi_30 u)
     2.68371405E-09    2     1000035         2   # BR(~u_R -> ~chi_40 u)
     9.55554653E-01    2     1000021         2   # BR(~u_R -> ~g      u)
#
#         PDG            Width
DECAY   1000001     2.81826870E+02   # sdown_L decays
#          BR         NDA      ID1       ID2
     2.63006065E-03    2     1000022         1   # BR(~d_L -> ~chi_10 d)
     6.16591965E-06    2     1000023         1   # BR(~d_L -> ~chi_20 d)
     4.86264599E-05    2     1000025         1   # BR(~d_L -> ~chi_30 d)
     2.79065634E-02    2     1000035         1   # BR(~d_L -> ~chi_40 d)
     1.38768927E-06    2    -1000024         2   # BR(~d_L -> ~chi_1- u)
     5.58341160E-02    2    -1000037         2   # BR(~d_L -> ~chi_2- u)
     9.13573080E-01    2     1000021         1   # BR(~d_L -> ~g      d)
#
#         PDG            Width
DECAY   2000001     2.59016975E+02   # sdown_R decays
#          BR         NDA      ID1       ID2
     1.14326568E-02    2     1000022         1   # BR(~d_R -> ~chi_10 d)
     3.05622722E-05    2     1000023         1   # BR(~d_R -> ~chi_20 d)
     3.08920195E-05    2     1000025         1   # BR(~d_R -> ~chi_30 d)
     6.94136459E-10    2     1000035         1   # BR(~d_R -> ~chi_40 d)
     9.88505888E-01    2     1000021         1   # BR(~d_R -> ~g      d)
#
#         PDG            Width
DECAY   1000004     2.81814253E+02   # scharm_L decays
#          BR         NDA      ID1       ID2
     2.64222267E-03    2     1000022         4   # BR(~c_L -> ~chi_10 c)
     6.07267866E-05    2     1000023         4   # BR(~c_L -> ~chi_20 c)
     2.67265056E-06    2     1000025         4   # BR(~c_L -> ~chi_30 c)
     2.78906689E-02    2     1000035         4   # BR(~c_L -> ~chi_40 c)
     1.78533159E-04    2     1000024         3   # BR(~c_L -> ~chi_1+ s)
     5.57462086E-02    2     1000037         3   # BR(~c_L -> ~chi_2+ s)
     9.13478967E-01    2     1000021         4   # BR(~c_L -> ~g      c)
#
#         PDG            Width
DECAY   2000004     2.67923933E+02   # scharm_R decays
#          BR         NDA      ID1       ID2
     4.42077137E-02    2     1000022         4   # BR(~c_R -> ~chi_10 c)
     1.18177592E-04    2     1000023         4   # BR(~c_R -> ~chi_20 c)
     1.19452649E-04    2     1000025         4   # BR(~c_R -> ~chi_30 c)
     2.68371405E-09    2     1000035         4   # BR(~c_R -> ~chi_40 c)
     9.55554653E-01    2     1000021         4   # BR(~c_R -> ~g      c)
#
#         PDG            Width
DECAY   1000003     2.81826870E+02   # sstrange_L decays
#          BR         NDA      ID1       ID2
     2.63006065E-03    2     1000022         3   # BR(~s_L -> ~chi_10 s)
     6.16591965E-06    2     1000023         3   # BR(~s_L -> ~chi_20 s)
     4.86264599E-05    2     1000025         3   # BR(~s_L -> ~chi_30 s)
     2.79065634E-02    2     1000035         3   # BR(~s_L -> ~chi_40 s)
     1.38768927E-06    2    -1000024         4   # BR(~s_L -> ~chi_1- c)
     5.58341160E-02    2    -1000037         4   # BR(~s_L -> ~chi_2- c)
     9.13573080E-01    2     1000021         3   # BR(~s_L -> ~g      s)
#
#         PDG            Width
DECAY   2000003     2.59016975E+02   # sstrange_R decays
#          BR         NDA      ID1       ID2
     1.14326568E-02    2     1000022         3   # BR(~s_R -> ~chi_10 s)
     3.05622722E-05    2     1000023         3   # BR(~s_R -> ~chi_20 s)
     3.08920195E-05    2     1000025         3   # BR(~s_R -> ~chi_30 s)
     6.94136459E-10    2     1000035         3   # BR(~s_R -> ~chi_40 s)
     9.88505888E-01    2     1000021         3   # BR(~s_R -> ~g      s)
#
#         PDG            Width
DECAY   1000011     3.03189603E+01   # selectron_L decays
#          BR         NDA      ID1       ID2
     2.25417705E-01    2     1000022        11   # BR(~e_L -> ~chi_10 e-)
     1.62753105E-03    2     1000023        11   # BR(~e_L -> ~chi_20 e-)
     1.30026214E-04    2     1000025        11   # BR(~e_L -> ~chi_30 e-)
     2.57435676E-01    2     1000035        11   # BR(~e_L -> ~chi_40 e-)
     1.31551226E-05    2    -1000024        12   # BR(~e_L -> ~chi_1- nu_e)
     5.15375907E-01    2    -1000037        12   # BR(~e_L -> ~chi_2- nu_e)
#
#         PDG            Width
DECAY   2000011     2.73910685E+01   # selectron_R decays
#          BR         NDA      ID1       ID2
     9.94660823E-01    2     1000022        11   # BR(~e_R -> ~chi_10 e-)
     2.65524348E-03    2     1000023        11   # BR(~e_R -> ~chi_20 e-)
     2.68387425E-03    2     1000025        11   # BR(~e_R -> ~chi_30 e-)
     5.88253020E-08    2     1000035        11   # BR(~e_R -> ~chi_40 e-)
#
#         PDG            Width
DECAY   1000013     3.03189603E+01   # smuon_L decays
#          BR         NDA      ID1       ID2
     2.25417705E-01    2     1000022        13   # BR(~mu_L -> ~chi_10 mu-)
     1.62753105E-03    2     1000023        13   # BR(~mu_L -> ~chi_20 mu-)
     1.30026214E-04    2     1000025        13   # BR(~mu_L -> ~chi_30 mu-)
     2.57435676E-01    2     1000035        13   # BR(~mu_L -> ~chi_40 mu-)
     1.31551226E-05    2    -1000024        14   # BR(~mu_L -> ~chi_1- nu_mu)
     5.15375907E-01    2    -1000037        14   # BR(~mu_L -> ~chi_2- nu_mu)
#
#         PDG            Width
DECAY   2000013     2.73910685E+01   # smuon_R decays
#          BR         NDA      ID1       ID2
     9.94660823E-01    2     1000022        13   # BR(~mu_R -> ~chi_10 mu-)
     2.65524348E-03    2     1000023        13   # BR(~mu_R -> ~chi_20 mu-)
     2.68387425E-03    2     1000025        13   # BR(~mu_R -> ~chi_30 mu-)
     5.88253020E-08    2     1000035        13   # BR(~mu_R -> ~chi_40 mu-)
#
#         PDG            Width
DECAY   1000015     2.92191358E+01   # stau_1 decays
#          BR         NDA      ID1       ID2
     9.29984548E-01    2     1000022        15   # BR(~tau_1 -> ~chi_10  tau-)
     1.78654603E-02    2     1000023        15   # BR(~tau_1 -> ~chi_20  tau-)
     1.73403884E-02    2     1000025        15   # BR(~tau_1 -> ~chi_30  tau-)
     1.22206802E-03    2     1000035        15   # BR(~tau_1 -> ~chi_40  tau-)
     3.11411799E-02    2    -1000024        16   # BR(~tau_1 -> ~chi_1-  nu_tau)
     2.44635547E-03    2    -1000037        16   # BR(~tau_1 -> ~chi_2-  nu_tau)
#
#         PDG            Width
DECAY   2000015     3.12133993E+01   # stau_2 decays
#          BR         NDA      ID1       ID2
     2.21357631E-01    2     1000022        15   # BR(~tau_2 -> ~chi_10  tau-)
     1.63091282E-02    2     1000023        15   # BR(~tau_2 -> ~chi_20  tau-)
     1.52957789E-02    2     1000025        15   # BR(~tau_2 -> ~chi_30  tau-)
     2.48827591E-01    2     1000035        15   # BR(~tau_2 -> ~chi_40  tau-)
     6.64218100E-05    2    -1000024        16   # BR(~tau_2 -> ~chi_1-  nu_tau)
     4.98143449E-01    2    -1000037        16   # BR(~tau_2 -> ~chi_2-  nu_tau)
#
#         PDG            Width
DECAY   1000012     3.03221185E+01   # snu_eL decays
#          BR         NDA      ID1       ID2
     2.25001515E-01    2     1000022        12   # BR(~nu_eL -> ~chi_10 nu_e)
     7.57232844E-05    2     1000023        12   # BR(~nu_eL -> ~chi_20 nu_e)
     1.43648404E-03    2     1000025        12   # BR(~nu_eL -> ~chi_30 nu_e)
     2.57478023E-01    2     1000035        12   # BR(~nu_eL -> ~chi_40 nu_e)
     1.69205007E-03    2     1000024        11   # BR(~nu_eL -> ~chi_1+ e-)
     5.14316204E-01    2     1000037        11   # BR(~nu_eL -> ~chi_2+ e-)
#
#         PDG            Width
DECAY   1000014     3.03221185E+01   # snu_muL decays
#          BR         NDA      ID1       ID2
     2.25001515E-01    2     1000022        14   # BR(~nu_muL -> ~chi_10 nu_mu)
     7.57232844E-05    2     1000023        14   # BR(~nu_muL -> ~chi_20 nu_mu)
     1.43648404E-03    2     1000025        14   # BR(~nu_muL -> ~chi_30 nu_mu)
     2.57478023E-01    2     1000035        14   # BR(~nu_muL -> ~chi_40 nu_mu)
     1.69205007E-03    2     1000024        13   # BR(~nu_muL -> ~chi_1+ mu-)
     5.14316204E-01    2     1000037        13   # BR(~nu_muL -> ~chi_2+ mu-)
#
#         PDG            Width
DECAY   1000016     3.12267037E+01   # snu_tauL decays
#          BR         NDA      ID1       ID2
     2.18459612E-01    2     1000022        16   # BR(~nu_tauL -> ~chi_10 nu_tau)
     7.35211713E-05    2     1000023        16   # BR(~nu_tauL -> ~chi_20 nu_tau)
     1.39470950E-03    2     1000025        16   # BR(~nu_tauL -> ~chi_30 nu_tau)
     2.49925958E-01    2     1000035        16   # BR(~nu_tauL -> ~chi_40 nu_tau)
     3.09159232E-02    2     1000024        15   # BR(~nu_tauL -> ~chi_1+ tau-)
     4.99230276E-01    2     1000037        15   # BR(~nu_tauL -> ~chi_2+ tau-)
#
#         PDG            Width
DECAY   1000024     3.57456625E-01   # chargino1+ decays
#          BR         NDA      ID1       ID2
     1.00000000E+00    2     1000022        24   # BR(~chi_1+ -> ~chi_10  W+)
#
#         PDG            Width
DECAY   1000037     2.18126330E+01   # chargino2+ decays
#          BR         NDA      ID1       ID2
     2.53503891E-01    2     1000024        23   # BR(~chi_2+ -> ~chi_1+  Z )
     1.69243095E-04    2     1000022        24   # BR(~chi_2+ -> ~chi_10  W+)
     2.44760979E-01    2     1000023        24   # BR(~chi_2+ -> ~chi_20  W+)
     2.44332648E-01    2     1000025        24   # BR(~chi_2+ -> ~chi_30  W+)
     2.57229690E-01    2     1000024        25   # BR(~chi_2+ -> ~chi_1+  h )
     3.54829940E-06    2     1000022        37   # BR(~chi_2+ -> ~chi_10  H+)
#
#         PDG            Width
DECAY   1000022     0.00000000E+00   # neutralino1 decays
#
#         PDG            Width
DECAY   1000023     3.66216916E-01   # neutralino2 decays
#          BR         NDA      ID1       ID2
     5.14052829E-01    2     1000022        23   # BR(~chi_20 -> ~chi_10   Z )
     4.85947171E-01    2     1000022        25   # BR(~chi_20 -> ~chi_10   h )
#
#         PDG            Width
DECAY   1000025     3.61847623E-01   # neutralino3 decays
#          BR         NDA      ID1       ID2
     5.03962677E-01    2     1000022        23   # BR(~chi_30 -> ~chi_10   Z )
     4.96037323E-01    2     1000022        25   # BR(~chi_30 -> ~chi_10   h )
#
#         PDG            Width
DECAY   1000035     2.18262108E+01   # neutralino4 decays
#          BR         NDA      ID1       ID2
     1.29187616E-05    2     1000022        23   # BR(~chi_40 -> ~chi_10   Z )
     1.04468323E-01    2     1000023        23   # BR(~chi_40 -> ~chi_20   Z )
     1.48499214E-01    2     1000025        23   # BR(~chi_40 -> ~chi_30   Z )
     2.45096127E-01    2     1000024       -24   # BR(~chi_40 -> ~chi_1+   W-)
     2.45096127E-01    2    -1000024        24   # BR(~chi_40 -> ~chi_1-   W+)
     1.51365984E-04    2     1000022        25   # BR(~chi_40 -> ~chi_10   h )
     3.40219636E-06    2     1000022        35   # BR(~chi_40 -> ~chi_10   H )
     3.79273415E-07    2     1000022        36   # BR(~chi_40 -> ~chi_10   A )
     1.51924921E-01    2     1000023        25   # BR(~chi_40 -> ~chi_20   h )
     1.04747221E-01    2     1000025        25   # BR(~chi_40 -> ~chi_30   h )
#
#         PDG            Width
DECAY        25     4.06344181E-03   # h decays
#          BR         NDA      ID1       ID2
     6.10462027E-01    2           5        -5   # BR(h -> b       bb     )
     6.38020526E-02    2         -15        15   # BR(h -> tau+    tau-   )
     2.25882747E-04    2         -13        13   # BR(h -> mu+     mu-    )
     4.78905742E-04    2           3        -3   # BR(h -> s       sb     )
     2.07504396E-02    2           4        -4   # BR(h -> c       cb     )
     6.70490453E-02    2          21        21   # BR(h -> g       g      )
     2.30327524E-03    2          22        22   # BR(h -> gam     gam    )
     1.47995801E-03    2          22        23   # BR(h -> Z       gam    )
     2.08547229E-01    2          24       -24   # BR(h -> W+      W-     )
     2.48171356E-02    2          23        23   # BR(h -> Z       Z      )
     8.40492569E-05    2     1000022   1000022   # BR(h -> ~chi_10 ~chi_10)
#
#         PDG            Width
DECAY        35     8.57862691E+00   # H decays
#          BR         NDA      ID1       ID2
     3.72903636E-01    2           5        -5   # BR(H -> b       bb     )
     6.49428427E-02    2         -15        15   # BR(H -> tau+    tau-   )
     2.29643050E-04    2         -13        13   # BR(H -> mu+     mu-    )
     2.81507148E-04    2           3        -3   # BR(H -> s       sb     )
     1.57472279E-06    2           4        -4   # BR(H -> c       cb     )
     1.57327282E-01    2           6        -6   # BR(H -> t       tb     )
     5.23127424E-05    2          21        21   # BR(H -> g       g      )
     1.64361819E-07    2          22        22   # BR(H -> gam     gam    )
     9.28418841E-08    2          23        22   # BR(H -> Z       gam    )
     7.44606295E-05    2          24       -24   # BR(H -> W+      W-     )
     3.71831827E-05    2          23        23   # BR(H -> Z       Z      )
     2.71570999E-04    2          25        25   # BR(H -> h       h      )
     1.66530476E-23    2          36        36   # BR(H -> A       A      )
     6.01203090E-19    2          23        36   # BR(H -> Z       A      )
     3.01198596E-03    2     1000024  -1000024   # BR(H -> ~chi_1+ ~chi_1-)
     4.69218209E-03    2     1000022   1000022   # BR(H -> ~chi_10 ~chi_10)
     1.03133000E-04    2     1000023   1000023   # BR(H -> ~chi_20 ~chi_20)
     1.80810371E-03    2     1000025   1000025   # BR(H -> ~chi_30 ~chi_30)
     2.37450337E-01    2     1000022   1000023   # BR(H -> ~chi_10 ~chi_20)
     1.54602177E-01    2     1000022   1000025   # BR(H -> ~chi_10 ~chi_30)
     2.20981131E-03    2     1000023   1000025   # BR(H -> ~chi_20 ~chi_30)
#
#         PDG            Width
DECAY        36     8.58700536E+00   # A decays
#          BR         NDA      ID1       ID2
     3.72666842E-01    2           5        -5   # BR(A -> b       bb     )
     6.48814153E-02    2         -15        15   # BR(A -> tau+    tau-   )
     2.29425517E-04    2         -13        13   # BR(A -> mu+     mu-    )
     2.81446058E-04    2           3        -3   # BR(A -> s       sb     )
     1.57951912E-06    2           4        -4   # BR(A -> c       cb     )
     1.57719401E-01    2           6        -6   # BR(A -> t       tb     )
     1.56079034E-04    2          21        21   # BR(A -> g       g      )
     5.99126148E-07    2          22        22   # BR(A -> gam     gam    )
     1.88936251E-07    2          23        22   # BR(A -> Z       gam    )
     7.41069496E-05    2          23        25   # BR(A -> Z       h      )
     3.45121735E-03    2     1000024  -1000024   # BR(A -> ~chi_1+ ~chi_1-)
     4.70179882E-03    2     1000022   1000022   # BR(A -> ~chi_10 ~chi_10)
     8.02043386E-05    2     1000023   1000023   # BR(A -> ~chi_20 ~chi_20)
     3.29818442E-03    2     1000025   1000025   # BR(A -> ~chi_30 ~chi_30)
     1.57602098E-01    2     1000022   1000023   # BR(A -> ~chi_10 ~chi_20)
     2.33464936E-01    2     1000022   1000025   # BR(A -> ~chi_10 ~chi_30)
     1.39047744E-03    2     1000023   1000025   # BR(A -> ~chi_20 ~chi_30)
#
#         PDG            Width
DECAY        37     8.53214899E+00   # H+ decays
#          BR         NDA      ID1       ID2
     5.97954133E-04    2           4        -5   # BR(H+ -> c       bb     )
     6.53291406E-02    2         -15        16   # BR(H+ -> tau+    nu_tau )
     2.31008707E-04    2         -13        14   # BR(H+ -> mu+     nu_mu  )
     3.82688643E-06    2           2        -5   # BR(H+ -> u       bb     )
     1.35547991E-05    2           2        -3   # BR(H+ -> u       sb     )
     2.80314031E-04    2           4        -3   # BR(H+ -> c       sb     )
     5.29170362E-01    2           6        -5   # BR(H+ -> t       bb     )
     7.47363631E-05    2          24        25   # BR(H+ -> W+      h      )
     8.42797038E-13    2          24        36   # BR(H+ -> W+      A      )
     4.01669940E-01    2     1000024   1000022   # BR(H+ -> ~chi_1+ ~chi_10)
     2.49029926E-03    2     1000024   1000023   # BR(H+ -> ~chi_1+ ~chi_20)
     1.38863968E-04    2     1000024   1000025   # BR(H+ -> ~chi_1+ ~chi_30)
