#
#                              ======================
#                              | THE SUSYHIT OUTPUT |
#                              ======================
#
#
#              ------------------------------------------------------
#              |     This is the output of the SUSY-HIT package     |
#              |  created by A.Djouadi, M.Muehlleitner and M.Spira. |
#              |  In case of problems with SUSY-HIT email to        |
#              |           margarete.muehlleitner@cern.ch           |
#              |           michael.spira@psi.ch                     |
#              |           abdelhak.djouadi@cern.ch                 |
#              ------------------------------------------------------
#
#              ------------------------------------------------------
#              |  SUSY Les Houches Accord - MSSM Spectrum + Decays  |
#              |              based on the decay programs           |
#              |                                                    |
#              |                     SDECAY 1.3b                    |
#              |                                                    |
#              |  Authors: M.Muhlleitner, A.Djouadi and Y.Mambrini  |
#              |  Ref.:    Comput.Phys.Commun.168(2005)46           |
#              |           [hep-ph/0311167]                         |
#              |                                                    |
#              |                     HDECAY 3.4                     |
#              |                                                    |
#              |  By: A.Djouadi,J.Kalinowski,M.Muhlleitner,M.Spira  |
#              |  Ref.:    Comput.Phys.Commun.108(1998)56           |
#              |           [hep-ph/9704448]                         |
#              |                                                    |
#              |                                                    |
#              |  If not stated otherwise all DRbar couplings and   |
#              |  soft SUSY breaking masses are given at the scale  |
#              |  Q=  0.50007566E+04
#              |                                                    |
#              ------------------------------------------------------
#
#
BLOCK DCINFO  # Decay Program information
     1   SDECAY/HDECAY # decay calculator
     2   1.3b  /3.4    # version number
#
BLOCK SPINFO  # Spectrum calculator information
     1    SOFTSUSY    # spectrum calculator                
     2    3.4.0       # version number                     
#
BLOCK MODSEL  # Model selection
     1     0   #  nonUniversal                                     
#
BLOCK SMINPUTS  # Standard Model inputs
         1     1.25778332E+02   # alpha_em^-1(M_Z)^MSbar
         2     1.16570000E-05   # G_F [GeV^-2]
         3     1.17200002E-01   # alpha_S(M_Z)^MSbar
         4     9.11876000E+01   # M_Z pole mass
         5     4.25000000E+00   # mb(mb)^MSbar
         6     1.72500000E+02   # mt pole mass
         7     1.77682000E+00   # mtau pole mass
#
BLOCK MINPAR  # Input parameters - minimal models
         3     1.00000000E+01   # tanb                
#
BLOCK EXTPAR  # Input parameters - non-minimal models
         0    -1.00000000E+00   # Set                 
         1     6.00000000E+01   # M_1(MX)             
         2     3.00000000E+03   # M_2(MX)             
         3     1.03377100E+03   # M_3(MX)             
        11     5.00000000E+03   # At(MX)              
        12     5.00000000E+03   # Ab(MX)              
        13     0.00000000E+00   # Atau(MX)            
        23    -3.78797000E+02   # mu(MX)              
        26     3.00000000E+03   # mA(pole)            
        31     5.00000000E+03   # meL(MX)             
        32     5.00000000E+03   # mmuL(MX)            
        33     5.00000000E+03   # mtauL(MX)           
        34     5.00000000E+03   # meR(MX)             
        35     5.00000000E+03   # mmuR(MX)            
        36     5.00000000E+03   # mtauR(MX)           
        41     5.00000000E+03   # mqL1(MX)            
        42     5.00000000E+03   # mqL2(MX)            
        43     5.00000000E+03   # mqL3(MX)            
        44     5.00000000E+03   # muR(MX)             
        45     5.00000000E+03   # mcR(MX)             
        46     5.00000000E+03   # mtR(MX)             
        47     5.00000000E+03   # mdR(MX)             
        48     5.00000000E+03   # msR(MX)             
        49     5.00000000E+03   # mbR(MX)             
#
BLOCK MASS  # Mass Spectrum
# PDG code           mass       particle
        24     8.00907500E+01   # W+
        25     1.24503236E+02   # h
        35     3.00008689E+03   # H
        36     2.99999960E+03   # A
        37     3.00145140E+03   # H+
         5     4.87878001E+00   # b-quark pole mass calculated from mb(mb)_Msbar
   1000001     5.06533103E+03   # ~d_L
   2000001     5.04744813E+03   # ~d_R
   1000002     5.06485377E+03   # ~u_L
   2000002     5.04714364E+03   # ~u_R
   1000003     5.06533103E+03   # ~s_L
   2000003     5.04744813E+03   # ~s_R
   1000004     5.06485377E+03   # ~c_L
   2000004     5.04714364E+03   # ~c_R
   1000005     5.01160233E+03   # ~b_1
   2000005     5.04566106E+03   # ~b_2
   1000006     4.90213944E+03   # ~t_1
   2000006     5.05615319E+03   # ~t_2
   1000011     5.01912404E+03   # ~e_L
   2000011     5.00594907E+03   # ~e_R
   1000012     5.01817284E+03   # ~nu_eL
   1000013     5.01912404E+03   # ~mu_L
   2000013     5.00594907E+03   # ~mu_R
   1000014     5.01817284E+03   # ~nu_muL
   1000015     5.00479711E+03   # ~tau_1
   2000015     5.01862499E+03   # ~tau_2
   1000016     5.01761998E+03   # ~nu_tauL
   1000021     1.30000049E+03   # ~g
   1000022     6.00910956E+01   # ~chi_10
   1000023     4.01021080E+02   # ~chi_20
   1000025    -4.03143254E+02   # ~chi_30
   1000035     3.07420035E+03   # ~chi_40
   1000024     4.00000237E+02   # ~chi_1+
   1000037     3.07436821E+03   # ~chi_2+
#
BLOCK NMIX  # Neutralino Mixing Matrix
  1  1     9.93744233E-01   # N_11
  1  2     1.92463287E-04   # N_12
  1  3    -1.11553133E-01   # N_13
  1  4    -5.31600342E-03   # N_14
  2  1     8.26829491E-02   # N_21
  2  2     1.83255364E-02   # N_22
  2  3     7.02939696E-01   # N_23
  2  4     7.06189414E-01   # N_24
  3  1    -7.50717962E-02   # N_31
  3  2     1.75088421E-02   # N_32
  3  3    -7.02446701E-01   # N_33
  3  4     7.07549503E-01   # N_34
  4  1    -3.92174436E-04   # N_41
  4  2     9.99678737E-01   # N_42
  4  3    -5.61429075E-04   # N_43
  4  4    -2.53367889E-02   # N_44
#
BLOCK UMIX  # Chargino Mixing Matrix U
  1  1     7.97556679E-04   # U_11
  1  2     9.99999682E-01   # U_12
  2  1    -9.99999682E-01   # U_21
  2  2     7.97556679E-04   # U_22
#
BLOCK VMIX  # Chargino Mixing Matrix V
  1  1     3.58468826E-02   # V_11
  1  2    -9.99357294E-01   # V_12
  2  1    -9.99357294E-01   # V_21
  2  2    -3.58468826E-02   # V_22
#
BLOCK STOPMIX  # Stop Mixing Matrix
  1  1    -5.05875469E-01   # cos(theta_t)
  1  2     8.62606521E-01   # sin(theta_t)
  2  1    -8.62606521E-01   # -sin(theta_t)
  2  2    -5.05875469E-01   # cos(theta_t)
#
BLOCK SBOTMIX  # Sbottom Mixing Matrix
  1  1     9.98973014E-01   # cos(theta_b)
  1  2    -4.53091304E-02   # sin(theta_b)
  2  1     4.53091304E-02   # -sin(theta_b)
  2  2     9.98973014E-01   # cos(theta_b)
#
BLOCK STAUMIX  # Stau Mixing Matrix
  1  1    -4.53471580E-02   # cos(theta_tau)
  1  2     9.98971289E-01   # sin(theta_tau)
  2  1    -9.98971289E-01   # -sin(theta_tau)
  2  2    -4.53471580E-02   # cos(theta_tau)
#
BLOCK ALPHA  # Higgs mixing
          -1.05458582E-01   # Mixing angle in the neutral Higgs boson sector
#
BLOCK HMIX Q=  5.00075657E+03  # DRbar Higgs Parameters
         1    -3.85599070E+02   # mu(Q)MSSM           
         2     9.47171360E+00   # tan                 
         3     2.41762845E+02   # higgs               
         4     8.71236027E+06   # mA^2(Q)MSSM         
#
BLOCK GAUGE Q=  5.00075657E+03  # The gauge couplings
     1     3.71019440E-01   # gprime(Q) DRbar
     2     6.33614944E-01   # g(Q) DRbar
     3     1.00480272E+00   # g3(Q) DRbar
#
BLOCK AU Q=  5.00075657E+03  # The trilinear couplings
  1  1     5.00000001E+03   # A_u(Q) DRbar
  2  2     5.00000001E+03   # A_c(Q) DRbar
  3  3     5.00000001E+03   # A_t(Q) DRbar
#
BLOCK AD Q=  5.00075657E+03  # The trilinear couplings
  1  1     5.00000000E+03   # A_d(Q) DRbar
  2  2     5.00000000E+03   # A_s(Q) DRbar
  3  3     5.00000001E+03   # A_b(Q) DRbar
#
BLOCK AE Q=  5.00075657E+03  # The trilinear couplings
  1  1     0.00000000E+00   # A_e(Q) DRbar
  2  2     6.44304816E-08   # A_mu(Q) DRbar
  3  3     6.36348159E-08   # A_tau(Q) DRbar
#
BLOCK Yu Q=  5.00075657E+03  # The Yukawa couplings
  1  1     0.00000000E+00   # y_u(Q) DRbar
  2  2     0.00000000E+00   # y_c(Q) DRbar
  3  3     8.16961911E-01   # y_t(Q) DRbar
#
BLOCK Yd Q=  5.00075657E+03  # The Yukawa couplings
  1  1     0.00000000E+00   # y_d(Q) DRbar
  2  2     0.00000000E+00   # y_s(Q) DRbar
  3  3     1.29375792E-01   # y_b(Q) DRbar
#
BLOCK Ye Q=  5.00075657E+03  # The Yukawa couplings
  1  1     0.00000000E+00   # y_e(Q) DRbar
  2  2     0.00000000E+00   # y_mu(Q) DRbar
  3  3     9.72181961E-02   # y_tau(Q) DRbar
#
BLOCK MSOFT Q=  5.00075657E+03  # The soft SUSY breaking masses at the scale Q
         1     6.00000000E+01   # M_1(Q)              
         2     3.00000000E+03   # M_2(Q)              
         3     1.03377100E+03   # M_3(Q)              
        21     8.57893951E+06   # mH1^2(Q)            
        22     4.25674470E+05   # mH2^2(Q)            
        31     5.00000000E+03   # meL(Q)              
        32     5.00000000E+03   # mmuL(Q)             
        33     5.00000000E+03   # mtauL(Q)            
        34     5.00000000E+03   # meR(Q)              
        35     5.00000000E+03   # mmuR(Q)             
        36     5.00000000E+03   # mtauR(Q)            
        41     5.00000000E+03   # mqL1(Q)             
        42     5.00000000E+03   # mqL2(Q)             
        43     5.00000000E+03   # mqL3(Q)             
        44     5.00000000E+03   # muR(Q)              
        45     5.00000000E+03   # mcR(Q)              
        46     5.00000000E+03   # mtR(Q)              
        47     5.00000000E+03   # mdR(Q)              
        48     5.00000000E+03   # msR(Q)              
        49     5.00000000E+03   # mbR(Q)              
#
#
#
#                             =================
#                             |The decay table|
#                             =================
#
# - The QCD corrections to the decays gluino -> squark  + quark
#                                     squark -> gaugino + quark_prime
#                                     squark -> squark_prime + Higgs
#                                     squark -> gluino  + quark
#   are included.
#
# - The multi-body decays for the inos, stops and sbottoms are included.
#
# - The loop induced decays for the gluino, neutralinos and stops
#   are included.
#
# - The SUSY decays of the top quark are included.
#
#
#         PDG            Width
DECAY         6     1.40706613E+00   # top decays
#          BR         NDA      ID1       ID2
     1.00000000E+00    2           5        24   # BR(t ->  b    W+)
#
#         PDG            Width
DECAY   1000021     1.44065215E-04   # gluino decays
#          BR         NDA      ID1       ID2
     1.62466905E-08    2     1000022        21   # BR(~g -> ~chi_10 g)
     2.13698533E-02    2     1000023        21   # BR(~g -> ~chi_20 g)
     2.07279768E-02    2     1000025        21   # BR(~g -> ~chi_30 g)
#           BR         NDA      ID1       ID2       ID3
     1.78762803E-02    3     1000022         1        -1   # BR(~g -> ~chi_10 d  db)
     6.48104770E-05    3     1000023         1        -1   # BR(~g -> ~chi_20 d  db)
     5.30713476E-05    3     1000025         1        -1   # BR(~g -> ~chi_30 d  db)
     6.09499965E-02    3     1000022         2        -2   # BR(~g -> ~chi_10 u  ub)
     3.30658283E-04    3     1000023         2        -2   # BR(~g -> ~chi_20 u  ub)
     9.73246362E-05    3     1000025         2        -2   # BR(~g -> ~chi_30 u  ub)
     1.78762803E-02    3     1000022         3        -3   # BR(~g -> ~chi_10 s  sb)
     6.48104770E-05    3     1000023         3        -3   # BR(~g -> ~chi_20 s  sb)
     5.30713476E-05    3     1000025         3        -3   # BR(~g -> ~chi_30 s  sb)
     6.09499965E-02    3     1000022         4        -4   # BR(~g -> ~chi_10 c  cb)
     3.30658283E-04    3     1000023         4        -4   # BR(~g -> ~chi_20 c  cb)
     9.73246362E-05    3     1000025         4        -4   # BR(~g -> ~chi_30 c  cb)
     1.84156718E-02    3     1000022         5        -5   # BR(~g -> ~chi_10 b  bb)
     5.72025559E-03    3     1000023         5        -5   # BR(~g -> ~chi_20 b  bb)
     5.65548423E-03    3     1000025         5        -5   # BR(~g -> ~chi_30 b  bb)
     4.85460901E-02    3     1000022         6        -6   # BR(~g -> ~chi_10 t  tb)
     1.77277758E-01    3     1000023         6        -6   # BR(~g -> ~chi_20 t  tb)
     1.41769778E-01    3     1000025         6        -6   # BR(~g -> ~chi_30 t  tb)
     5.84468026E-05    3     1000024         1        -2   # BR(~g -> ~chi_1+ d  ub)
     5.84468026E-05    3    -1000024         2        -1   # BR(~g -> ~chi_1- u  db)
     5.84468026E-05    3     1000024         3        -4   # BR(~g -> ~chi_1+ s  cb)
     5.84468026E-05    3    -1000024         4        -3   # BR(~g -> ~chi_1- c  sb)
     2.00769522E-01    3     1000024         5        -6   # BR(~g -> ~chi_1+ b  tb)
     2.00769522E-01    3    -1000024         6        -5   # BR(~g -> ~chi_1- t  bb)
#
#         PDG            Width
DECAY   1000006     4.04938367E+02   # stop1 decays
#          BR         NDA      ID1       ID2
     2.13222969E-02    2     1000022         6   # BR(~t_1 -> ~chi_10 t )
     8.19051228E-02    2     1000023         6   # BR(~t_1 -> ~chi_20 t )
     7.66254816E-02    2     1000025         6   # BR(~t_1 -> ~chi_30 t )
     5.09360873E-03    2     1000035         6   # BR(~t_1 -> ~chi_40 t )
     1.17128079E-01    2     1000024         5   # BR(~t_1 -> ~chi_1+ b )
     1.01544773E-02    2     1000037         5   # BR(~t_1 -> ~chi_2+ b )
     6.87770934E-01    2     1000021         6   # BR(~t_1 -> ~g      t )
#
#         PDG            Width
DECAY   2000006     4.05195438E+02   # stop2 decays
#          BR         NDA      ID1       ID2
     8.91898754E-03    2     1000022         6   # BR(~t_2 -> ~chi_10 t )
     8.04958025E-02    2     1000023         6   # BR(~t_2 -> ~chi_20 t )
     8.64365662E-02    2     1000025         6   # BR(~t_2 -> ~chi_30 t )
     1.36953435E-02    2     1000035         6   # BR(~t_2 -> ~chi_40 t )
     4.86282647E-02    2     1000024         5   # BR(~t_2 -> ~chi_1+ b )
     2.72718844E-02    2     1000037         5   # BR(~t_2 -> ~chi_2+ b )
     7.31478278E-01    2     1000021         6   # BR(~t_2 -> ~g      t )
     7.03809780E-04    2     1000006        25   # BR(~t_2 -> ~t_1    h )
     2.37106290E-03    2     1000006        23   # BR(~t_2 -> ~t_1    Z )
#
#         PDG            Width
DECAY   1000005     3.82025718E+02   # sbottom1 decays
#          BR         NDA      ID1       ID2
     2.06092139E-03    2     1000022         5   # BR(~b_1 -> ~chi_10 b )
     2.12598513E-03    2     1000023         5   # BR(~b_1 -> ~chi_20 b )
     2.14569409E-03    2     1000025         5   # BR(~b_1 -> ~chi_30 b )
     1.97887668E-02    2     1000035         5   # BR(~b_1 -> ~chi_40 b )
     1.73046694E-01    2    -1000024         6   # BR(~b_1 -> ~chi_1- t )
     3.97277719E-02    2    -1000037         6   # BR(~b_1 -> ~chi_2- t )
     7.59627289E-01    2     1000021         5   # BR(~b_1 -> ~g      b )
     1.47687737E-03    2     1000006       -24   # BR(~b_1 -> ~t_1    W-)
#
#         PDG            Width
DECAY   2000005     2.98972825E+02   # sbottom2 decays
#          BR         NDA      ID1       ID2
     9.79377738E-03    2     1000022         5   # BR(~b_2 -> ~chi_10 b )
     2.87316358E-03    2     1000023         5   # BR(~b_2 -> ~chi_20 b )
     2.89410586E-03    2     1000025         5   # BR(~b_2 -> ~chi_30 b )
     5.01928578E-05    2     1000035         5   # BR(~b_2 -> ~chi_40 b )
     6.03006245E-03    2    -1000024         6   # BR(~b_2 -> ~chi_1- t )
     1.00775588E-04    2    -1000037         6   # BR(~b_2 -> ~chi_2- t )
     9.78242297E-01    2     1000021         5   # BR(~b_2 -> ~g      b )
     1.56248450E-05    2     1000006       -24   # BR(~b_2 -> ~t_1    W-)
#
#         PDG            Width
DECAY   1000002     3.18140406E+02   # sup_L decays
#          BR         NDA      ID1       ID2
     2.32688808E-03    2     1000022         2   # BR(~u_L -> ~chi_10 u)
     7.24455121E-05    2     1000023         2   # BR(~u_L -> ~chi_20 u)
     4.97376018E-07    2     1000025         2   # BR(~u_L -> ~chi_30 u)
     2.46613380E-02    2     1000035         2   # BR(~u_L -> ~chi_40 u)
     1.56760602E-04    2     1000024         1   # BR(~u_L -> ~chi_1+ d)
     4.92922660E-02    2     1000037         1   # BR(~u_L -> ~chi_2+ d)
     9.23489804E-01    2     1000021         2   # BR(~u_L -> ~g      u)
#
#         PDG            Width
DECAY   2000002     3.04408263E+02   # sup_R decays
#          BR         NDA      ID1       ID2
     3.86961459E-02    2     1000022         2   # BR(~u_R -> ~chi_10 u)
     2.64682851E-04    2     1000023         2   # BR(~u_R -> ~chi_20 u)
     2.18167269E-04    2     1000025         2   # BR(~u_R -> ~chi_30 u)
     2.39020459E-09    2     1000035         2   # BR(~u_R -> ~chi_40 u)
     9.60821002E-01    2     1000021         2   # BR(~u_R -> ~g      u)
#
#         PDG            Width
DECAY   1000001     3.18150083E+02   # sdown_L decays
#          BR         NDA      ID1       ID2
     2.31781987E-03    2     1000022         1   # BR(~d_L -> ~chi_10 d)
     2.91726786E-07    2     1000023         1   # BR(~d_L -> ~chi_20 d)
     6.30855732E-05    2     1000025         1   # BR(~d_L -> ~chi_30 d)
     2.46758564E-02    2     1000035         1   # BR(~d_L -> ~chi_40 d)
     7.76043611E-08    2    -1000024         2   # BR(~d_L -> ~chi_1- u)
     4.93695913E-02    2    -1000037         2   # BR(~d_L -> ~chi_2- u)
     9.23573278E-01    2     1000021         1   # BR(~d_L -> ~g      d)
#
#         PDG            Width
DECAY   2000001     2.95486296E+02   # sdown_R decays
#          BR         NDA      ID1       ID2
     9.96674030E-03    2     1000022         1   # BR(~d_R -> ~chi_10 d)
     6.81729147E-05    2     1000023         1   # BR(~d_R -> ~chi_20 d)
     5.61921516E-05    2     1000025         1   # BR(~d_R -> ~chi_30 d)
     6.15717923E-10    2     1000035         1   # BR(~d_R -> ~chi_40 d)
     9.89908894E-01    2     1000021         1   # BR(~d_R -> ~g      d)
#
#         PDG            Width
DECAY   1000004     3.18140406E+02   # scharm_L decays
#          BR         NDA      ID1       ID2
     2.32688808E-03    2     1000022         4   # BR(~c_L -> ~chi_10 c)
     7.24455121E-05    2     1000023         4   # BR(~c_L -> ~chi_20 c)
     4.97376018E-07    2     1000025         4   # BR(~c_L -> ~chi_30 c)
     2.46613380E-02    2     1000035         4   # BR(~c_L -> ~chi_40 c)
     1.56760602E-04    2     1000024         3   # BR(~c_L -> ~chi_1+ s)
     4.92922660E-02    2     1000037         3   # BR(~c_L -> ~chi_2+ s)
     9.23489804E-01    2     1000021         4   # BR(~c_L -> ~g      c)
#
#         PDG            Width
DECAY   2000004     3.04408263E+02   # scharm_R decays
#          BR         NDA      ID1       ID2
     3.86961459E-02    2     1000022         4   # BR(~c_R -> ~chi_10 c)
     2.64682851E-04    2     1000023         4   # BR(~c_R -> ~chi_20 c)
     2.18167269E-04    2     1000025         4   # BR(~c_R -> ~chi_30 c)
     2.39020459E-09    2     1000035         4   # BR(~c_R -> ~chi_40 c)
     9.60821002E-01    2     1000021         4   # BR(~c_R -> ~g      c)
#
#         PDG            Width
DECAY   1000003     3.18150083E+02   # sstrange_L decays
#          BR         NDA      ID1       ID2
     2.31781987E-03    2     1000022         3   # BR(~s_L -> ~chi_10 s)
     2.91726786E-07    2     1000023         3   # BR(~s_L -> ~chi_20 s)
     6.30855732E-05    2     1000025         3   # BR(~s_L -> ~chi_30 s)
     2.46758564E-02    2     1000035         3   # BR(~s_L -> ~chi_40 s)
     7.76043611E-08    2    -1000024         4   # BR(~s_L -> ~chi_1- c)
     4.93695913E-02    2    -1000037         4   # BR(~s_L -> ~chi_2- c)
     9.23573278E-01    2     1000021         3   # BR(~s_L -> ~g      s)
#
#         PDG            Width
DECAY   2000003     2.95486296E+02   # sstrange_R decays
#          BR         NDA      ID1       ID2
     9.96674030E-03    2     1000022         3   # BR(~s_R -> ~chi_10 s)
     6.81729147E-05    2     1000023         3   # BR(~s_R -> ~chi_20 s)
     5.61921516E-05    2     1000025         3   # BR(~s_R -> ~chi_30 s)
     6.15717923E-10    2     1000035         3   # BR(~s_R -> ~chi_40 s)
     9.89908894E-01    2     1000021         3   # BR(~s_R -> ~g      s)
#
#         PDG            Width
DECAY   1000011     3.03580261E+01   # selectron_L decays
#          BR         NDA      ID1       ID2
     2.23645338E-01    2     1000022        11   # BR(~e_L -> ~chi_10 e-)
     2.90357233E-03    2     1000023        11   # BR(~e_L -> ~chi_20 e-)
     4.55974837E-04    2     1000025        11   # BR(~e_L -> ~chi_30 e-)
     2.57498108E-01    2     1000035        11   # BR(~e_L -> ~chi_40 e-)
     8.29323917E-07    2    -1000024        12   # BR(~e_L -> ~chi_1- nu_e)
     5.15496178E-01    2    -1000037        12   # BR(~e_L -> ~chi_2- nu_e)
#
#         PDG            Width
DECAY   2000011     2.74060594E+01   # selectron_R decays
#          BR         NDA      ID1       ID2
     9.87682543E-01    2     1000022        11   # BR(~e_R -> ~chi_10 e-)
     6.75201103E-03    2     1000023        11   # BR(~e_R -> ~chi_20 e-)
     5.56538617E-03    2     1000025        11   # BR(~e_R -> ~chi_30 e-)
     5.96961341E-08    2     1000035        11   # BR(~e_R -> ~chi_40 e-)
#
#         PDG            Width
DECAY   1000013     3.03580261E+01   # smuon_L decays
#          BR         NDA      ID1       ID2
     2.23645338E-01    2     1000022        13   # BR(~mu_L -> ~chi_10 mu-)
     2.90357233E-03    2     1000023        13   # BR(~mu_L -> ~chi_20 mu-)
     4.55974837E-04    2     1000025        13   # BR(~mu_L -> ~chi_30 mu-)
     2.57498108E-01    2     1000035        13   # BR(~mu_L -> ~chi_40 mu-)
     8.29323917E-07    2    -1000024        14   # BR(~mu_L -> ~chi_1- nu_mu)
     5.15496178E-01    2    -1000037        14   # BR(~mu_L -> ~chi_2- nu_mu)
#
#         PDG            Width
DECAY   2000013     2.74060594E+01   # smuon_R decays
#          BR         NDA      ID1       ID2
     9.87682543E-01    2     1000022        13   # BR(~mu_R -> ~chi_10 mu-)
     6.75201103E-03    2     1000023        13   # BR(~mu_R -> ~chi_20 mu-)
     5.56538617E-03    2     1000025        13   # BR(~mu_R -> ~chi_30 mu-)
     5.96961341E-08    2     1000035        13   # BR(~mu_R -> ~chi_40 mu-)
#
#         PDG            Width
DECAY   1000015     2.92622691E+01   # stau_1 decays
#          BR         NDA      ID1       ID2
     9.24662228E-01    2     1000022        15   # BR(~tau_1 -> ~chi_10  tau-)
     2.17211171E-02    2     1000023        15   # BR(~tau_1 -> ~chi_20  tau-)
     2.02931056E-02    2     1000025        15   # BR(~tau_1 -> ~chi_30  tau-)
     5.41149388E-04    2     1000035        15   # BR(~tau_1 -> ~chi_40  tau-)
     3.16991984E-02    2    -1000024        16   # BR(~tau_1 -> ~chi_1-  nu_tau)
     1.08320168E-03    2    -1000037        16   # BR(~tau_1 -> ~chi_2-  nu_tau)
#
#         PDG            Width
DECAY   2000015     3.12764218E+01   # stau_2 decays
#          BR         NDA      ID1       ID2
     2.17952754E-01    2     1000022        15   # BR(~tau_2 -> ~chi_10  tau-)
     1.78067268E-02    2     1000023        15   # BR(~tau_2 -> ~chi_20  tau-)
     1.56843191E-02    2     1000025        15   # BR(~tau_2 -> ~chi_30  tau-)
     2.49341211E-01    2     1000035        15   # BR(~tau_2 -> ~chi_40  tau-)
     4.80313716E-05    2    -1000024        16   # BR(~tau_2 -> ~chi_1-  nu_tau)
     4.99166957E-01    2    -1000037        16   # BR(~tau_2 -> ~chi_2-  nu_tau)
#
#         PDG            Width
DECAY   1000012     3.03612223E+01   # snu_eL decays
#          BR         NDA      ID1       ID2
     2.23283789E-01    2     1000022        12   # BR(~nu_eL -> ~chi_10 nu_e)
     5.90017461E-04    2     1000023        12   # BR(~nu_eL -> ~chi_20 nu_e)
     2.46178213E-03    2     1000025        12   # BR(~nu_eL -> ~chi_30 nu_e)
     2.57541561E-01    2     1000035        12   # BR(~nu_eL -> ~chi_40 nu_e)
     1.67484155E-03    2     1000024        11   # BR(~nu_eL -> ~chi_1+ e-)
     5.14448008E-01    2     1000037        11   # BR(~nu_eL -> ~chi_2+ e-)
#
#         PDG            Width
DECAY   1000014     3.03612223E+01   # snu_muL decays
#          BR         NDA      ID1       ID2
     2.23283789E-01    2     1000022        14   # BR(~nu_muL -> ~chi_10 nu_mu)
     5.90017461E-04    2     1000023        14   # BR(~nu_muL -> ~chi_20 nu_mu)
     2.46178213E-03    2     1000025        14   # BR(~nu_muL -> ~chi_30 nu_mu)
     2.57541561E-01    2     1000035        14   # BR(~nu_muL -> ~chi_40 nu_mu)
     1.67484155E-03    2     1000024        13   # BR(~nu_muL -> ~chi_1+ mu-)
     5.14448008E-01    2     1000037        13   # BR(~nu_muL -> ~chi_2+ mu-)
#
#         PDG            Width
DECAY   1000016     3.12831875E+01   # snu_tauL decays
#          BR         NDA      ID1       ID2
     2.16679373E-01    2     1000022        16   # BR(~nu_tauL -> ~chi_10 nu_tau)
     5.72564000E-04    2     1000023        16   # BR(~nu_tauL -> ~chi_20 nu_tau)
     2.38895943E-03    2     1000025        16   # BR(~nu_tauL -> ~chi_30 nu_tau)
     2.49857692E-01    2     1000035        16   # BR(~nu_tauL -> ~chi_40 nu_tau)
     3.14026137E-02    2     1000024        15   # BR(~nu_tauL -> ~chi_1+ tau-)
     4.99098798E-01    2     1000037        15   # BR(~nu_tauL -> ~chi_2+ tau-)
#
#         PDG            Width
DECAY   1000024     2.30035569E-01   # chargino1+ decays
#          BR         NDA      ID1       ID2
     1.00000000E+00    2     1000022        24   # BR(~chi_1+ -> ~chi_10  W+)
#
#         PDG            Width
DECAY   1000037     2.25342081E+01   # chargino2+ decays
#          BR         NDA      ID1       ID2
     2.53619495E-01    2     1000024        23   # BR(~chi_2+ -> ~chi_1+  Z )
     1.38076095E-04    2     1000022        24   # BR(~chi_2+ -> ~chi_10  W+)
     2.45238819E-01    2     1000023        24   # BR(~chi_2+ -> ~chi_20  W+)
     2.44459986E-01    2     1000025        24   # BR(~chi_2+ -> ~chi_30  W+)
     2.56535384E-01    2     1000024        25   # BR(~chi_2+ -> ~chi_1+  h )
     8.23945771E-06    2     1000022        37   # BR(~chi_2+ -> ~chi_10  H+)
#
#         PDG            Width
DECAY   1000022     0.00000000E+00   # neutralino1 decays
#
#         PDG            Width
DECAY   1000023     2.27339486E-01   # neutralino2 decays
#          BR         NDA      ID1       ID2
     4.94177861E-01    2     1000022        23   # BR(~chi_20 -> ~chi_10   Z )
     5.05822139E-01    2     1000022        25   # BR(~chi_20 -> ~chi_10   h )
#
#         PDG            Width
DECAY   1000025     2.16775772E-01   # neutralino3 decays
#          BR         NDA      ID1       ID2
     5.81558967E-01    2     1000022        23   # BR(~chi_30 -> ~chi_10   Z )
     4.18441033E-01    2     1000022        25   # BR(~chi_30 -> ~chi_10   h )
#
#         PDG            Width
DECAY   1000035     2.25410916E+01   # neutralino4 decays
#          BR         NDA      ID1       ID2
     2.15604664E-06    2     1000022        23   # BR(~chi_40 -> ~chi_10   Z )
     1.20956139E-01    2     1000023        23   # BR(~chi_40 -> ~chi_20   Z )
     1.32346674E-01    2     1000025        23   # BR(~chi_40 -> ~chi_30   Z )
     2.45232780E-01    2     1000024       -24   # BR(~chi_40 -> ~chi_1+   W-)
     2.45232780E-01    2    -1000024        24   # BR(~chi_40 -> ~chi_1-   W+)
     1.25305745E-04    2     1000022        25   # BR(~chi_40 -> ~chi_10   h )
     7.94563750E-06    2     1000022        35   # BR(~chi_40 -> ~chi_10   H )
     8.51816774E-07    2     1000022        36   # BR(~chi_40 -> ~chi_10   A )
     1.34920642E-01    2     1000023        25   # BR(~chi_40 -> ~chi_20   h )
     1.21174725E-01    2     1000025        25   # BR(~chi_40 -> ~chi_30   h )
#
#         PDG            Width
DECAY        25     4.04719793E-03   # h decays
#          BR         NDA      ID1       ID2
     6.14650455E-01    2           5        -5   # BR(h -> b       bb     )
     6.39541258E-02    2         -15        15   # BR(h -> tau+    tau-   )
     2.26422052E-04    2         -13        13   # BR(h -> mu+     mu-    )
     4.80203522E-04    2           3        -3   # BR(h -> s       sb     )
     2.08060416E-02    2           4        -4   # BR(h -> c       cb     )
     6.69919629E-02    2          21        21   # BR(h -> g       g      )
     2.29597505E-03    2          22        22   # BR(h -> gam     gam    )
     1.45832903E-03    2          22        23   # BR(h -> Z       gam    )
     2.04801985E-01    2          24       -24   # BR(h -> W+      W-     )
     2.42782998E-02    2          23        23   # BR(h -> Z       Z      )
     5.62000964E-05    2     1000022   1000022   # BR(h -> ~chi_10 ~chi_10)
#
#         PDG            Width
DECAY        35     8.73338663E+00   # H decays
#          BR         NDA      ID1       ID2
     3.64925961E-01    2           5        -5   # BR(H -> b       bb     )
     6.38162514E-02    2         -15        15   # BR(H -> tau+    tau-   )
     2.25659334E-04    2         -13        13   # BR(H -> mu+     mu-    )
     2.76623723E-04    2           3        -3   # BR(H -> s       sb     )
     1.54628063E-06    2           4        -4   # BR(H -> c       cb     )
     1.54485687E-01    2           6        -6   # BR(H -> t       tb     )
     5.13753993E-05    2          21        21   # BR(H -> g       g      )
     1.39720923E-07    2          22        22   # BR(H -> gam     gam    )
     9.10923149E-08    2          23        22   # BR(H -> Z       gam    )
     7.40112487E-05    2          24       -24   # BR(H -> W+      W-     )
     3.69587672E-05    2          23        23   # BR(H -> Z       Z      )
     2.67858108E-04    2          25        25   # BR(H -> h       h      )
    -3.29937649E-23    2          36        36   # BR(H -> A       A      )
     6.70084820E-19    2          23        36   # BR(H -> Z       A      )
     3.30416467E-03    2     1000024  -1000024   # BR(H -> ~chi_1+ ~chi_1-)
     1.04817574E-02    2     1000022   1000022   # BR(H -> ~chi_10 ~chi_10)
     1.10131397E-03    2     1000023   1000023   # BR(H -> ~chi_20 ~chi_20)
     3.42812977E-03    2     1000025   1000025   # BR(H -> ~chi_30 ~chi_30)
     2.38854175E-01    2     1000022   1000023   # BR(H -> ~chi_10 ~chi_20)
     1.53350894E-01    2     1000022   1000025   # BR(H -> ~chi_10 ~chi_30)
     5.31740161E-03    2     1000023   1000025   # BR(H -> ~chi_20 ~chi_30)
#
#         PDG            Width
DECAY        36     8.73942868E+00   # A decays
#          BR         NDA      ID1       ID2
     3.64798457E-01    2           5        -5   # BR(A -> b       bb     )
     6.37740162E-02    2         -15        15   # BR(A -> tau+    tau-   )
     2.25509672E-04    2         -13        13   # BR(A -> mu+     mu-    )
     2.76642273E-04    2           3        -3   # BR(A -> s       sb     )
     1.55138264E-06    2           4        -4   # BR(A -> c       cb     )
     1.54909895E-01    2           6        -6   # BR(A -> t       tb     )
     1.53322903E-04    2          21        21   # BR(A -> g       g      )
     5.82114056E-07    2          22        22   # BR(A -> gam     gam    )
     1.85484079E-07    2          23        22   # BR(A -> Z       gam    )
     7.36817718E-05    2          23        25   # BR(A -> Z       h      )
     3.52146722E-03    2     1000024  -1000024   # BR(A -> ~chi_1+ ~chi_1-)
     1.02823397E-02    2     1000022   1000022   # BR(A -> ~chi_10 ~chi_10)
     7.73855537E-04    2     1000023   1000023   # BR(A -> ~chi_20 ~chi_20)
     5.66285974E-03    2     1000025   1000025   # BR(A -> ~chi_30 ~chi_30)
     1.57040828E-01    2     1000022   1000023   # BR(A -> ~chi_10 ~chi_20)
     2.34294153E-01    2     1000022   1000025   # BR(A -> ~chi_10 ~chi_30)
     4.21065280E-03    2     1000023   1000025   # BR(A -> ~chi_20 ~chi_30)
#
#         PDG            Width
DECAY        37     8.67146313E+00   # H+ decays
#          BR         NDA      ID1       ID2
     5.83729578E-04    2           4        -5   # BR(H+ -> c       bb     )
     6.43049711E-02    2         -15        16   # BR(H+ -> tau+    nu_tau )
     2.27387168E-04    2         -13        14   # BR(H+ -> mu+     nu_mu  )
     3.73584963E-06    2           2        -5   # BR(H+ -> u       bb     )
     1.33422723E-05    2           2        -3   # BR(H+ -> u       sb     )
     2.75917827E-04    2           4        -3   # BR(H+ -> c       sb     )
     5.17730788E-01    2           6        -5   # BR(H+ -> t       bb     )
     7.44150816E-05    2          24        25   # BR(H+ -> W+      h      )
     9.77354375E-13    2          24        36   # BR(H+ -> W+      A      )
     4.10809132E-01    2     1000024   1000022   # BR(H+ -> ~chi_1+ ~chi_10)
     5.22905190E-03    2     1000024   1000023   # BR(H+ -> ~chi_1+ ~chi_20)
     7.47528664E-04    2     1000024   1000025   # BR(H+ -> ~chi_1+ ~chi_30)
