#
#                              ======================
#                              | THE SUSYHIT OUTPUT |
#                              ======================
#
#
#              ------------------------------------------------------
#              |     This is the output of the SUSY-HIT package     |
#              |  created by A.Djouadi, M.Muehlleitner and M.Spira. |
#              |  In case of problems with SUSY-HIT email to        |
#              |           margarete.muehlleitner@cern.ch           |
#              |           michael.spira@psi.ch                     |
#              |           abdelhak.djouadi@cern.ch                 |
#              ------------------------------------------------------
#
#              ------------------------------------------------------
#              |  SUSY Les Houches Accord - MSSM Spectrum + Decays  |
#              |              based on the decay programs           |
#              |                                                    |
#              |                     SDECAY 1.3b                    |
#              |                                                    |
#              |  Authors: M.Muhlleitner, A.Djouadi and Y.Mambrini  |
#              |  Ref.:    Comput.Phys.Commun.168(2005)46           |
#              |           [hep-ph/0311167]                         |
#              |                                                    |
#              |                     HDECAY 3.4                     |
#              |                                                    |
#              |  By: A.Djouadi,J.Kalinowski,M.Muhlleitner,M.Spira  |
#              |  Ref.:    Comput.Phys.Commun.108(1998)56           |
#              |           [hep-ph/9704448]                         |
#              |                                                    |
#              |                                                    |
#              |  If not stated otherwise all DRbar couplings and   |
#              |  soft SUSY breaking masses are given at the scale  |
#              |  Q=  0.50007501E+04
#              |                                                    |
#              ------------------------------------------------------
#
#
BLOCK DCINFO  # Decay Program information
     1   SDECAY/HDECAY # decay calculator
     2   1.3b  /3.4    # version number
#
BLOCK SPINFO  # Spectrum calculator information
     1    SOFTSUSY    # spectrum calculator                
     2    3.4.0       # version number                     
#
BLOCK MODSEL  # Model selection
     1     0   #  nonUniversal                                     
#
BLOCK SMINPUTS  # Standard Model inputs
         1     1.25778332E+02   # alpha_em^-1(M_Z)^MSbar
         2     1.16570000E-05   # G_F [GeV^-2]
         3     1.17200002E-01   # alpha_S(M_Z)^MSbar
         4     9.11876000E+01   # M_Z pole mass
         5     4.25000000E+00   # mb(mb)^MSbar
         6     1.72500000E+02   # mt pole mass
         7     1.77682000E+00   # mtau pole mass
#
BLOCK MINPAR  # Input parameters - minimal models
         3     1.00000000E+01   # tanb                
#
BLOCK EXTPAR  # Input parameters - non-minimal models
         0    -1.00000000E+00   # Set                 
         1     6.00000000E+01   # M_1(MX)             
         2     3.00000000E+03   # M_2(MX)             
         3     1.12229400E+03   # M_3(MX)             
        11     5.00000000E+03   # At(MX)              
        12     5.00000000E+03   # Ab(MX)              
        13     0.00000000E+00   # Atau(MX)            
        23    -5.71478000E+02   # mu(MX)              
        26     3.00000000E+03   # mA(pole)            
        31     5.00000000E+03   # meL(MX)             
        32     5.00000000E+03   # mmuL(MX)            
        33     5.00000000E+03   # mtauL(MX)           
        34     5.00000000E+03   # meR(MX)             
        35     5.00000000E+03   # mmuR(MX)            
        36     5.00000000E+03   # mtauR(MX)           
        41     5.00000000E+03   # mqL1(MX)            
        42     5.00000000E+03   # mqL2(MX)            
        43     5.00000000E+03   # mqL3(MX)            
        44     5.00000000E+03   # muR(MX)             
        45     5.00000000E+03   # mcR(MX)             
        46     5.00000000E+03   # mtR(MX)             
        47     5.00000000E+03   # mdR(MX)             
        48     5.00000000E+03   # msR(MX)             
        49     5.00000000E+03   # mbR(MX)             
#
BLOCK MASS  # Mass Spectrum
# PDG code           mass       particle
        24     8.00922683E+01   # W+
        25     1.24561412E+02   # h
        35     3.00008434E+03   # H
        36     2.99999917E+03   # A
        37     3.00140324E+03   # H+
         5     4.87878001E+00   # b-quark pole mass calculated from mb(mb)_Msbar
   1000001     5.06596611E+03   # ~d_L
   2000001     5.04811040E+03   # ~d_R
   1000002     5.06548965E+03   # ~u_L
   2000002     5.04781251E+03   # ~u_R
   1000003     5.06596611E+03   # ~s_L
   2000003     5.04811040E+03   # ~s_R
   1000004     5.06548965E+03   # ~c_L
   2000004     5.04781251E+03   # ~c_R
   1000005     5.01205689E+03   # ~b_1
   2000005     5.04642631E+03   # ~b_2
   1000006     4.90255999E+03   # ~t_1
   2000006     5.05689008E+03   # ~t_2
   1000011     5.01910045E+03   # ~e_L
   2000011     5.00593966E+03   # ~e_R
   1000012     5.01815037E+03   # ~nu_eL
   1000013     5.01910045E+03   # ~mu_L
   2000013     5.00593966E+03   # ~mu_R
   1000014     5.01815037E+03   # ~nu_muL
   1000015     5.00474873E+03   # ~tau_1
   2000015     5.01865148E+03   # ~tau_2
   1000016     5.01759967E+03   # ~nu_tauL
   1000021     1.40000071E+03   # ~g
   1000022     6.02508705E+01   # ~chi_10
   1000023     6.00198471E+02   # ~chi_20
   1000025    -6.02418175E+02   # ~chi_30
   1000035     3.07418908E+03   # ~chi_40
   1000024     6.00000527E+02   # ~chi_1+
   1000037     3.07435675E+03   # ~chi_2+
#
BLOCK NMIX  # Neutralino Mixing Matrix
  1  1     9.97248685E-01   # N_11
  1  2     2.27014641E-04   # N_12
  1  3    -7.41279360E-02   # N_13
  1  4     2.40937653E-04   # N_14
  2  1     5.22733580E-02   # N_21
  2  2     1.97558123E-02   # N_22
  2  3     7.05593948E-01   # N_23
  2  4     7.06409502E-01   # N_24
  3  1    -5.25585857E-02   # N_31
  3  2     1.65504401E-02   # N_32
  3  3    -7.04724856E-01   # N_33
  3  4     7.07337653E-01   # N_34
  4  1    -3.89354314E-04   # N_41
  4  2     9.99667814E-01   # N_42
  4  3    -2.25999769E-03   # N_43
  4  4    -2.56710252E-02   # N_44
#
BLOCK UMIX  # Chargino Mixing Matrix U
  1  1     3.20324333E-03   # U_11
  1  2     9.99994870E-01   # U_12
  2  1    -9.99994870E-01   # U_21
  2  2     3.20324333E-03   # U_22
#
BLOCK VMIX  # Chargino Mixing Matrix V
  1  1     3.63282253E-02   # V_11
  1  2    -9.99339912E-01   # V_12
  2  1    -9.99339912E-01   # V_21
  2  2    -3.63282253E-02   # V_22
#
BLOCK STOPMIX  # Stop Mixing Matrix
  1  1    -5.06553845E-01   # cos(theta_t)
  1  2     8.62208329E-01   # sin(theta_t)
  2  1    -8.62208329E-01   # -sin(theta_t)
  2  2    -5.06553845E-01   # cos(theta_t)
#
BLOCK SBOTMIX  # Sbottom Mixing Matrix
  1  1     9.98458008E-01   # cos(theta_b)
  1  2    -5.55122172E-02   # sin(theta_b)
  2  1     5.55122172E-02   # -sin(theta_b)
  2  2     9.98458008E-01   # cos(theta_b)
#
BLOCK STAUMIX  # Stau Mixing Matrix
  1  1    -6.84610212E-02   # cos(theta_tau)
  1  2     9.97653792E-01   # sin(theta_tau)
  2  1    -9.97653792E-01   # -sin(theta_tau)
  2  2    -6.84610212E-02   # cos(theta_tau)
#
BLOCK ALPHA  # Higgs mixing
          -1.05459577E-01   # Mixing angle in the neutral Higgs boson sector
#
BLOCK HMIX Q=  5.00075008E+03  # DRbar Higgs Parameters
         1    -5.81788394E+02   # mu(Q)MSSM           
         2     9.47143385E+00   # tan                 
         3     2.41800573E+02   # higgs               
         4     8.64079658E+06   # mA^2(Q)MSSM         
#
BLOCK GAUGE Q=  5.00075008E+03  # The gauge couplings
     1     3.70925927E-01   # gprime(Q) DRbar
     2     6.33157262E-01   # g(Q) DRbar
     3     1.00371879E+00   # g3(Q) DRbar
#
BLOCK AU Q=  5.00075008E+03  # The trilinear couplings
  1  1     5.00000001E+03   # A_u(Q) DRbar
  2  2     5.00000001E+03   # A_c(Q) DRbar
  3  3     5.00000001E+03   # A_t(Q) DRbar
#
BLOCK AD Q=  5.00075008E+03  # The trilinear couplings
  1  1     5.00000000E+03   # A_d(Q) DRbar
  2  2     5.00000000E+03   # A_s(Q) DRbar
  3  3     5.00000001E+03   # A_b(Q) DRbar
#
BLOCK AE Q=  5.00075008E+03  # The trilinear couplings
  1  1     0.00000000E+00   # A_e(Q) DRbar
  2  2     8.05838231E-08   # A_mu(Q) DRbar
  3  3     7.98541873E-08   # A_tau(Q) DRbar
#
BLOCK Yu Q=  5.00075008E+03  # The Yukawa couplings
  1  1     0.00000000E+00   # y_u(Q) DRbar
  2  2     0.00000000E+00   # y_c(Q) DRbar
  3  3     8.17444693E-01   # y_t(Q) DRbar
#
BLOCK Yd Q=  5.00075008E+03  # The Yukawa couplings
  1  1     0.00000000E+00   # y_d(Q) DRbar
  2  2     0.00000000E+00   # y_s(Q) DRbar
  3  3     1.29636098E-01   # y_b(Q) DRbar
#
BLOCK Ye Q=  5.00075008E+03  # The Yukawa couplings
  1  1     0.00000000E+00   # y_e(Q) DRbar
  2  2     0.00000000E+00   # y_mu(Q) DRbar
  3  3     9.70869475E-02   # y_tau(Q) DRbar
#
BLOCK MSOFT Q=  5.00075008E+03  # The soft SUSY breaking masses at the scale Q
         1     6.00000000E+01   # M_1(Q)              
         2     3.00000000E+03   # M_2(Q)              
         3     1.12229400E+03   # M_3(Q)              
        21     8.38077251E+06   # mH1^2(Q)            
        22     2.33025879E+05   # mH2^2(Q)            
        31     5.00000000E+03   # meL(Q)              
        32     5.00000000E+03   # mmuL(Q)             
        33     5.00000000E+03   # mtauL(Q)            
        34     5.00000000E+03   # meR(Q)              
        35     5.00000000E+03   # mmuR(Q)             
        36     5.00000000E+03   # mtauR(Q)            
        41     5.00000000E+03   # mqL1(Q)             
        42     5.00000000E+03   # mqL2(Q)             
        43     5.00000000E+03   # mqL3(Q)             
        44     5.00000000E+03   # muR(Q)              
        45     5.00000000E+03   # mcR(Q)              
        46     5.00000000E+03   # mtR(Q)              
        47     5.00000000E+03   # mdR(Q)              
        48     5.00000000E+03   # msR(Q)              
        49     5.00000000E+03   # mbR(Q)              
#
#
#
#                             =================
#                             |The decay table|
#                             =================
#
# - The QCD corrections to the decays gluino -> squark  + quark
#                                     squark -> gaugino + quark_prime
#                                     squark -> squark_prime + Higgs
#                                     squark -> gluino  + quark
#   are included.
#
# - The multi-body decays for the inos, stops and sbottoms are included.
#
# - The loop induced decays for the gluino, neutralinos and stops
#   are included.
#
# - The SUSY decays of the top quark are included.
#
#
#         PDG            Width
DECAY         6     1.40496762E+00   # top decays
#          BR         NDA      ID1       ID2
     1.00000000E+00    2           5        24   # BR(t ->  b    W+)
#
#         PDG            Width
DECAY   1000021     1.30780508E-04   # gluino decays
#          BR         NDA      ID1       ID2
     2.46136249E-06    2     1000022        21   # BR(~g -> ~chi_10 g)
     2.18019047E-02    2     1000023        21   # BR(~g -> ~chi_20 g)
     2.12143538E-02    2     1000025        21   # BR(~g -> ~chi_30 g)
#           BR         NDA      ID1       ID2       ID3
     2.87970798E-02    3     1000022         1        -1   # BR(~g -> ~chi_10 d  db)
     2.80030307E-05    3     1000023         1        -1   # BR(~g -> ~chi_20 d  db)
     2.48761336E-05    3     1000025         1        -1   # BR(~g -> ~chi_30 d  db)
     9.81938376E-02    3     1000022         2        -2   # BR(~g -> ~chi_10 u  ub)
     1.41092844E-04    3     1000023         2        -2   # BR(~g -> ~chi_20 u  ub)
     3.79777302E-05    3     1000025         2        -2   # BR(~g -> ~chi_30 u  ub)
     2.87970798E-02    3     1000022         3        -3   # BR(~g -> ~chi_10 s  sb)
     2.80030307E-05    3     1000023         3        -3   # BR(~g -> ~chi_20 s  sb)
     2.48761336E-05    3     1000025         3        -3   # BR(~g -> ~chi_30 s  sb)
     9.81938376E-02    3     1000022         4        -4   # BR(~g -> ~chi_10 c  cb)
     1.41092844E-04    3     1000023         4        -4   # BR(~g -> ~chi_20 c  cb)
     3.79777302E-05    3     1000025         4        -4   # BR(~g -> ~chi_30 c  cb)
     2.93682876E-02    3     1000022         5        -5   # BR(~g -> ~chi_10 b  bb)
     4.95132319E-03    3     1000023         5        -5   # BR(~g -> ~chi_20 b  bb)
     4.87741690E-03    3     1000025         5        -5   # BR(~g -> ~chi_30 b  bb)
     8.27916689E-02    3     1000022         6        -6   # BR(~g -> ~chi_10 t  tb)
     1.42500104E-01    3     1000023         6        -6   # BR(~g -> ~chi_20 t  tb)
     1.07014399E-01    3     1000025         6        -6   # BR(~g -> ~chi_30 t  tb)
     5.46578993E-05    3     1000024         1        -2   # BR(~g -> ~chi_1+ d  ub)
     5.46578993E-05    3    -1000024         2        -1   # BR(~g -> ~chi_1- u  db)
     5.46578993E-05    3     1000024         3        -4   # BR(~g -> ~chi_1+ s  cb)
     5.46578993E-05    3    -1000024         4        -3   # BR(~g -> ~chi_1- c  sb)
     1.65406857E-01    3     1000024         5        -6   # BR(~g -> ~chi_1+ b  tb)
     1.65406857E-01    3    -1000024         6        -5   # BR(~g -> ~chi_1- t  bb)
#
#         PDG            Width
DECAY   1000006     3.95958659E+02   # stop1 decays
#          BR         NDA      ID1       ID2
     2.21831656E-02    2     1000022         6   # BR(~t_1 -> ~chi_10 t )
     8.15344659E-02    2     1000023         6   # BR(~t_1 -> ~chi_20 t )
     7.75639697E-02    2     1000025         6   # BR(~t_1 -> ~chi_30 t )
     5.22055009E-03    2     1000035         6   # BR(~t_1 -> ~chi_40 t )
     1.17765883E-01    2     1000024         5   # BR(~t_1 -> ~chi_1+ b )
     1.04064842E-02    2     1000037         5   # BR(~t_1 -> ~chi_2+ b )
     6.85325481E-01    2     1000021         6   # BR(~t_1 -> ~g      t )
#
#         PDG            Width
DECAY   2000006     3.97543967E+02   # stop2 decays
#          BR         NDA      ID1       ID2
     8.89429979E-03    2     1000022         6   # BR(~t_2 -> ~chi_10 t )
     8.17094260E-02    2     1000023         6   # BR(~t_2 -> ~chi_20 t )
     8.61200922E-02    2     1000025         6   # BR(~t_2 -> ~chi_30 t )
     1.39332685E-02    2     1000035         6   # BR(~t_2 -> ~chi_40 t )
     4.89372001E-02    2     1000024         5   # BR(~t_2 -> ~chi_1+ b )
     2.77406703E-02    2     1000037         5   # BR(~t_2 -> ~chi_2+ b )
     7.29498711E-01    2     1000021         6   # BR(~t_2 -> ~g      t )
     7.22375544E-04    2     1000006        25   # BR(~t_2 -> ~t_1    h )
     2.44395664E-03    2     1000006        23   # BR(~t_2 -> ~t_1    Z )
#
#         PDG            Width
DECAY   1000005     3.74151221E+02   # sbottom1 decays
#          BR         NDA      ID1       ID2
     2.07508641E-03    2     1000022         5   # BR(~b_1 -> ~chi_10 b )
     2.17992757E-03    2     1000023         5   # BR(~b_1 -> ~chi_20 b )
     2.16435552E-03    2     1000025         5   # BR(~b_1 -> ~chi_30 b )
     2.01642061E-02    2     1000035         5   # BR(~b_1 -> ~chi_40 b )
     1.73806345E-01    2    -1000024         6   # BR(~b_1 -> ~chi_1- t )
     4.04880042E-02    2    -1000037         6   # BR(~b_1 -> ~chi_2- t )
     7.57608025E-01    2     1000021         5   # BR(~b_1 -> ~g      b )
     1.51405052E-03    2     1000006       -24   # BR(~b_1 -> ~t_1    W-)
#
#         PDG            Width
DECAY   2000005     2.92340069E+02   # sbottom2 decays
#          BR         NDA      ID1       ID2
     1.00527938E-02    2     1000022         5   # BR(~b_2 -> ~chi_10 b )
     2.86319471E-03    2     1000023         5   # BR(~b_2 -> ~chi_20 b )
     2.90935480E-03    2     1000025         5   # BR(~b_2 -> ~chi_30 b )
     7.89685843E-05    2     1000035         5   # BR(~b_2 -> ~chi_40 b )
     6.31225228E-03    2    -1000024         6   # BR(~b_2 -> ~chi_1- t )
     1.58562518E-04    2    -1000037         6   # BR(~b_2 -> ~chi_2- t )
     9.77600562E-01    2     1000021         5   # BR(~b_2 -> ~g      b )
     2.43114572E-05    2     1000006       -24   # BR(~b_2 -> ~t_1    W-)
#
#         PDG            Width
DECAY   1000002     3.11451898E+02   # sup_L decays
#          BR         NDA      ID1       ID2
     2.39287545E-03    2     1000022         2   # BR(~u_L -> ~chi_10 u)
     5.49867368E-05    2     1000023         2   # BR(~u_L -> ~chi_20 u)
     2.42017681E-06    2     1000025         2   # BR(~u_L -> ~chi_30 u)
     2.51688054E-02    2     1000035         2   # BR(~u_L -> ~chi_40 u)
     1.61656925E-04    2     1000024         1   # BR(~u_L -> ~chi_1+ d)
     5.03058838E-02    2     1000037         1   # BR(~u_L -> ~chi_2+ d)
     9.21913371E-01    2     1000021         2   # BR(~u_L -> ~g      u)
#
#         PDG            Width
DECAY   2000002     2.97716151E+02   # sup_R decays
#          BR         NDA      ID1       ID2
     3.98189509E-02    2     1000022         2   # BR(~u_R -> ~chi_10 u)
     1.06422922E-04    2     1000023         2   # BR(~u_R -> ~chi_20 u)
     1.07564740E-04    2     1000025         2   # BR(~u_R -> ~chi_30 u)
     2.40917547E-09    2     1000035         2   # BR(~u_R -> ~chi_40 u)
     9.59967059E-01    2     1000021         2   # BR(~u_R -> ~g      u)
#
#         PDG            Width
DECAY   1000001     3.11462331E+02   # sdown_L decays
#          BR         NDA      ID1       ID2
     2.38188920E-03    2     1000022         1   # BR(~d_L -> ~chi_10 d)
     5.58363504E-06    2     1000023         1   # BR(~d_L -> ~chi_20 d)
     4.40279743E-05    2     1000025         1   # BR(~d_L -> ~chi_30 d)
     2.51834763E-02    2     1000035         1   # BR(~d_L -> ~chi_40 d)
     1.25694012E-06    2    -1000024         2   # BR(~d_L -> ~chi_1- u)
     5.03858777E-02    2    -1000037         2   # BR(~d_L -> ~chi_2- u)
     9.21997888E-01    2     1000021         1   # BR(~d_L -> ~g      d)
#
#         PDG            Width
DECAY   2000001     2.88799976E+02   # sdown_R decays
#          BR         NDA      ID1       ID2
     1.02626813E-02    2     1000022         1   # BR(~d_R -> ~chi_10 d)
     2.74288517E-05    2     1000023         1   # BR(~d_R -> ~chi_20 d)
     2.77231383E-05    2     1000025         1   # BR(~d_R -> ~chi_30 d)
     6.21011093E-10    2     1000035         1   # BR(~d_R -> ~chi_40 d)
     9.89682166E-01    2     1000021         1   # BR(~d_R -> ~g      d)
#
#         PDG            Width
DECAY   1000004     3.11451898E+02   # scharm_L decays
#          BR         NDA      ID1       ID2
     2.39287545E-03    2     1000022         4   # BR(~c_L -> ~chi_10 c)
     5.49867368E-05    2     1000023         4   # BR(~c_L -> ~chi_20 c)
     2.42017681E-06    2     1000025         4   # BR(~c_L -> ~chi_30 c)
     2.51688054E-02    2     1000035         4   # BR(~c_L -> ~chi_40 c)
     1.61656925E-04    2     1000024         3   # BR(~c_L -> ~chi_1+ s)
     5.03058838E-02    2     1000037         3   # BR(~c_L -> ~chi_2+ s)
     9.21913371E-01    2     1000021         4   # BR(~c_L -> ~g      c)
#
#         PDG            Width
DECAY   2000004     2.97716151E+02   # scharm_R decays
#          BR         NDA      ID1       ID2
     3.98189509E-02    2     1000022         4   # BR(~c_R -> ~chi_10 c)
     1.06422922E-04    2     1000023         4   # BR(~c_R -> ~chi_20 c)
     1.07564740E-04    2     1000025         4   # BR(~c_R -> ~chi_30 c)
     2.40917547E-09    2     1000035         4   # BR(~c_R -> ~chi_40 c)
     9.59967059E-01    2     1000021         4   # BR(~c_R -> ~g      c)
#
#         PDG            Width
DECAY   1000003     3.11462331E+02   # sstrange_L decays
#          BR         NDA      ID1       ID2
     2.38188920E-03    2     1000022         3   # BR(~s_L -> ~chi_10 s)
     5.58363504E-06    2     1000023         3   # BR(~s_L -> ~chi_20 s)
     4.40279743E-05    2     1000025         3   # BR(~s_L -> ~chi_30 s)
     2.51834763E-02    2     1000035         3   # BR(~s_L -> ~chi_40 s)
     1.25694012E-06    2    -1000024         4   # BR(~s_L -> ~chi_1- c)
     5.03858777E-02    2    -1000037         4   # BR(~s_L -> ~chi_2- c)
     9.21997888E-01    2     1000021         3   # BR(~s_L -> ~g      s)
#
#         PDG            Width
DECAY   2000003     2.88799976E+02   # sstrange_R decays
#          BR         NDA      ID1       ID2
     1.02626813E-02    2     1000022         3   # BR(~s_R -> ~chi_10 s)
     2.74288517E-05    2     1000023         3   # BR(~s_R -> ~chi_20 s)
     2.77231383E-05    2     1000025         3   # BR(~s_R -> ~chi_30 s)
     6.21011093E-10    2     1000035         3   # BR(~s_R -> ~chi_40 s)
     9.89682166E-01    2     1000021         3   # BR(~s_R -> ~g      s)
#
#         PDG            Width
DECAY   1000011     3.03206296E+01   # selectron_L decays
#          BR         NDA      ID1       ID2
     2.25414277E-01    2     1000022        11   # BR(~e_L -> ~chi_10 e-)
     1.62781992E-03    2     1000023        11   # BR(~e_L -> ~chi_20 e-)
     1.30029425E-04    2     1000025        11   # BR(~e_L -> ~chi_30 e-)
     2.57436694E-01    2     1000035        11   # BR(~e_L -> ~chi_40 e-)
     1.31619013E-05    2    -1000024        12   # BR(~e_L -> ~chi_1- nu_e)
     5.15378019E-01    2    -1000037        12   # BR(~e_L -> ~chi_2- nu_e)
#
#         PDG            Width
DECAY   2000011     2.73921773E+01   # selectron_R decays
#          BR         NDA      ID1       ID2
     9.94660080E-01    2     1000022        11   # BR(~e_R -> ~chi_10 e-)
     2.65569067E-03    2     1000023        11   # BR(~e_R -> ~chi_20 e-)
     2.68417080E-03    2     1000025        11   # BR(~e_R -> ~chi_30 e-)
     5.88409644E-08    2     1000035        11   # BR(~e_R -> ~chi_40 e-)
#
#         PDG            Width
DECAY   1000013     3.03206296E+01   # smuon_L decays
#          BR         NDA      ID1       ID2
     2.25414277E-01    2     1000022        13   # BR(~mu_L -> ~chi_10 mu-)
     1.62781992E-03    2     1000023        13   # BR(~mu_L -> ~chi_20 mu-)
     1.30029425E-04    2     1000025        13   # BR(~mu_L -> ~chi_30 mu-)
     2.57436694E-01    2     1000035        13   # BR(~mu_L -> ~chi_40 mu-)
     1.31619013E-05    2    -1000024        14   # BR(~mu_L -> ~chi_1- nu_mu)
     5.15378019E-01    2    -1000037        14   # BR(~mu_L -> ~chi_2- nu_mu)
#
#         PDG            Width
DECAY   2000013     2.73921773E+01   # smuon_R decays
#          BR         NDA      ID1       ID2
     9.94660080E-01    2     1000022        13   # BR(~mu_R -> ~chi_10 mu-)
     2.65569067E-03    2     1000023        13   # BR(~mu_R -> ~chi_20 mu-)
     2.68417080E-03    2     1000025        13   # BR(~mu_R -> ~chi_30 mu-)
     5.88409644E-08    2     1000035        13   # BR(~mu_R -> ~chi_40 mu-)
#
#         PDG            Width
DECAY   1000015     2.92204852E+01   # stau_1 decays
#          BR         NDA      ID1       ID2
     9.29978302E-01    2     1000022        15   # BR(~tau_1 -> ~chi_10  tau-)
     1.78671519E-02    2     1000023        15   # BR(~tau_1 -> ~chi_20  tau-)
     1.73418137E-02    2     1000025        15   # BR(~tau_1 -> ~chi_30  tau-)
     1.22223626E-03    2     1000035        15   # BR(~tau_1 -> ~chi_40  tau-)
     3.11438032E-02    2    -1000024        16   # BR(~tau_1 -> ~chi_1-  nu_tau)
     2.44669260E-03    2    -1000037        16   # BR(~tau_1 -> ~chi_2-  nu_tau)
#
#         PDG            Width
DECAY   2000015     3.12151823E+01   # stau_2 decays
#          BR         NDA      ID1       ID2
     2.21354092E-01    2     1000022        15   # BR(~tau_2 -> ~chi_10  tau-)
     1.63104954E-02    2     1000023        15   # BR(~tau_2 -> ~chi_20  tau-)
     1.52969222E-02    2     1000025        15   # BR(~tau_2 -> ~chi_30  tau-)
     2.48827908E-01    2     1000035        15   # BR(~tau_2 -> ~chi_40  tau-)
     6.64262204E-05    2    -1000024        16   # BR(~tau_2 -> ~chi_1-  nu_tau)
     4.98144156E-01    2    -1000037        16   # BR(~tau_2 -> ~chi_2-  nu_tau)
#
#         PDG            Width
DECAY   1000012     3.03237882E+01   # snu_eL decays
#          BR         NDA      ID1       ID2
     2.24998120E-01    2     1000022        12   # BR(~nu_eL -> ~chi_10 nu_e)
     7.57267194E-05    2     1000023        12   # BR(~nu_eL -> ~chi_20 nu_e)
     1.43665292E-03    2     1000025        12   # BR(~nu_eL -> ~chi_30 nu_e)
     2.57479027E-01    2     1000035        12   # BR(~nu_eL -> ~chi_40 nu_e)
     1.69236840E-03    2     1000024        11   # BR(~nu_eL -> ~chi_1+ e-)
     5.14318104E-01    2     1000037        11   # BR(~nu_eL -> ~chi_2+ e-)
#
#         PDG            Width
DECAY   1000014     3.03237882E+01   # snu_muL decays
#          BR         NDA      ID1       ID2
     2.24998120E-01    2     1000022        14   # BR(~nu_muL -> ~chi_10 nu_mu)
     7.57267194E-05    2     1000023        14   # BR(~nu_muL -> ~chi_20 nu_mu)
     1.43665292E-03    2     1000025        14   # BR(~nu_muL -> ~chi_30 nu_mu)
     2.57479027E-01    2     1000035        14   # BR(~nu_muL -> ~chi_40 nu_mu)
     1.69236840E-03    2     1000024        13   # BR(~nu_muL -> ~chi_1+ mu-)
     5.14318104E-01    2     1000037        13   # BR(~nu_muL -> ~chi_2+ mu-)
#
#         PDG            Width
DECAY   1000016     3.12284910E+01   # snu_tauL decays
#          BR         NDA      ID1       ID2
     2.18455839E-01    2     1000022        16   # BR(~nu_tauL -> ~chi_10 nu_tau)
     7.35243459E-05    2     1000023        16   # BR(~nu_tauL -> ~chi_20 nu_tau)
     1.39487042E-03    2     1000025        16   # BR(~nu_tauL -> ~chi_30 nu_tau)
     2.49926380E-01    2     1000035        16   # BR(~nu_tauL -> ~chi_40 nu_tau)
     3.09183702E-02    2     1000024        15   # BR(~nu_tauL -> ~chi_1+ tau-)
     4.99231017E-01    2     1000037        15   # BR(~nu_tauL -> ~chi_2+ tau-)
#
#         PDG            Width
DECAY   1000024     3.57536655E-01   # chargino1+ decays
#          BR         NDA      ID1       ID2
     1.00000000E+00    2     1000022        24   # BR(~chi_1+ -> ~chi_10  W+)
#
#         PDG            Width
DECAY   1000037     2.18173525E+01   # chargino2+ decays
#          BR         NDA      ID1       ID2
     2.53510764E-01    2     1000024        23   # BR(~chi_2+ -> ~chi_1+  Z )
     1.69237761E-04    2     1000022        24   # BR(~chi_2+ -> ~chi_10  W+)
     2.44774406E-01    2     1000023        24   # BR(~chi_2+ -> ~chi_20  W+)
     2.44346376E-01    2     1000025        24   # BR(~chi_2+ -> ~chi_30  W+)
     2.57195667E-01    2     1000024        25   # BR(~chi_2+ -> ~chi_1+  h )
     3.54910078E-06    2     1000022        37   # BR(~chi_2+ -> ~chi_10  H+)
#
#         PDG            Width
DECAY   1000022     0.00000000E+00   # neutralino1 decays
#
#         PDG            Width
DECAY   1000023     3.66297667E-01   # neutralino2 decays
#          BR         NDA      ID1       ID2
     5.14024843E-01    2     1000022        23   # BR(~chi_20 -> ~chi_10   Z )
     4.85975157E-01    2     1000022        25   # BR(~chi_20 -> ~chi_10   h )
#
#         PDG            Width
DECAY   1000025     3.61935125E-01   # neutralino3 decays
#          BR         NDA      ID1       ID2
     5.03954930E-01    2     1000022        23   # BR(~chi_30 -> ~chi_10   Z )
     4.96045070E-01    2     1000022        25   # BR(~chi_30 -> ~chi_10   h )
#
#         PDG            Width
DECAY   1000035     2.18309321E+01   # neutralino4 decays
#          BR         NDA      ID1       ID2
     1.29210052E-05    2     1000022        23   # BR(~chi_40 -> ~chi_10   Z )
     1.04467490E-01    2     1000023        23   # BR(~chi_40 -> ~chi_20   Z )
     1.48506873E-01    2     1000025        23   # BR(~chi_40 -> ~chi_30   Z )
     2.45109798E-01    2     1000024       -24   # BR(~chi_40 -> ~chi_1+   W-)
     2.45109798E-01    2    -1000024        24   # BR(~chi_40 -> ~chi_1-   W+)
     1.51336846E-04    2     1000022        25   # BR(~chi_40 -> ~chi_10   h )
     3.40272318E-06    2     1000022        35   # BR(~chi_40 -> ~chi_10   H )
     3.79404558E-07    2     1000022        36   # BR(~chi_40 -> ~chi_10   A )
     1.51908761E-01    2     1000023        25   # BR(~chi_40 -> ~chi_20   h )
     1.04729239E-01    2     1000025        25   # BR(~chi_40 -> ~chi_30   h )
#
#         PDG            Width
DECAY        25     4.04924379E-03   # h decays
#          BR         NDA      ID1       ID2
     6.13240179E-01    2           5        -5   # BR(h -> b       bb     )
     6.39492210E-02    2         -15        15   # BR(h -> tau+    tau-   )
     2.26404430E-04    2         -13        13   # BR(h -> mu+     mu-    )
     4.80122682E-04    2           3        -3   # BR(h -> s       sb     )
     2.08033569E-02    2           4        -4   # BR(h -> c       cb     )
     6.70500428E-02    2          21        21   # BR(h -> g       g      )
     2.29992715E-03    2          22        22   # BR(h -> gam     gam    )
     1.46538557E-03    2          22        23   # BR(h -> Z       gam    )
     2.05960367E-01    2          24       -24   # BR(h -> W+      W-     )
     2.44449571E-02    2          23        23   # BR(h -> Z       Z      )
     8.00367142E-05    2     1000022   1000022   # BR(h -> ~chi_10 ~chi_10)
#
#         PDG            Width
DECAY        35     8.57992951E+00   # H decays
#          BR         NDA      ID1       ID2
     3.72998392E-01    2           5        -5   # BR(H -> b       bb     )
     6.49537792E-02    2         -15        15   # BR(H -> tau+    tau-   )
     2.29681723E-04    2         -13        13   # BR(H -> mu+     mu-    )
     2.81554583E-04    2           3        -3   # BR(H -> s       sb     )
     1.57396622E-06    2           4        -4   # BR(H -> c       cb     )
     1.57251695E-01    2           6        -6   # BR(H -> t       tb     )
     5.22785962E-05    2          21        21   # BR(H -> g       g      )
     1.64244426E-07    2          22        22   # BR(H -> gam     gam    )
     9.27626636E-08    2          23        22   # BR(H -> Z       gam    )
     7.41767243E-05    2          24       -24   # BR(H -> W+      W-     )
     3.70414062E-05    2          23        23   # BR(H -> Z       Z      )
     2.71372774E-04    2          25        25   # BR(H -> h       h      )
     7.08155842E-24    2          36        36   # BR(H -> A       A      )
     4.71154919E-19    2          23        36   # BR(H -> Z       A      )
     3.01201768E-03    2     1000024  -1000024   # BR(H -> ~chi_1+ ~chi_1-)
     4.69251742E-03    2     1000022   1000022   # BR(H -> ~chi_10 ~chi_10)
     1.03154329E-04    2     1000023   1000023   # BR(H -> ~chi_20 ~chi_20)
     1.80820204E-03    2     1000025   1000025   # BR(H -> ~chi_30 ~chi_30)
     2.37425842E-01    2     1000022   1000023   # BR(H -> ~chi_10 ~chi_20)
     1.54596597E-01    2     1000022   1000025   # BR(H -> ~chi_10 ~chi_30)
     2.20986739E-03    2     1000023   1000025   # BR(H -> ~chi_20 ~chi_30)
#
#         PDG            Width
DECAY        36     8.58832232E+00   # A decays
#          BR         NDA      ID1       ID2
     3.72761041E-01    2           5        -5   # BR(A -> b       bb     )
     6.48922389E-02    2         -15        15   # BR(A -> tau+    tau-   )
     2.29463790E-04    2         -13        13   # BR(A -> mu+     mu-    )
     2.81492970E-04    2           3        -3   # BR(A -> s       sb     )
     1.57877134E-06    2           4        -4   # BR(A -> c       cb     )
     1.57644734E-01    2           6        -6   # BR(A -> t       tb     )
     1.56025915E-04    2          21        21   # BR(A -> g       g      )
     5.98925142E-07    2          22        22   # BR(A -> gam     gam    )
     1.88823092E-07    2          23        22   # BR(A -> Z       gam    )
     7.38251956E-05    2          23        25   # BR(A -> Z       h      )
     3.45124852E-03    2     1000024  -1000024   # BR(A -> ~chi_1+ ~chi_1-)
     4.70209858E-03    2     1000022   1000022   # BR(A -> ~chi_10 ~chi_10)
     8.02263742E-05    2     1000023   1000023   # BR(A -> ~chi_20 ~chi_20)
     3.29813238E-03    2     1000025   1000025   # BR(A -> ~chi_30 ~chi_30)
     1.57596556E-01    2     1000022   1000023   # BR(A -> ~chi_10 ~chi_20)
     2.33439957E-01    2     1000022   1000025   # BR(A -> ~chi_10 ~chi_30)
     1.39059312E-03    2     1000023   1000025   # BR(A -> ~chi_20 ~chi_30)
#
#         PDG            Width
DECAY        37     8.52698430E+00   # H+ decays
#          BR         NDA      ID1       ID2
     5.97343569E-04    2           4        -5   # BR(H+ -> c       bb     )
     6.53896244E-02    2         -15        16   # BR(H+ -> tau+    nu_tau )
     2.31222582E-04    2         -13        14   # BR(H+ -> mu+     nu_mu  )
     3.82297881E-06    2           2        -5   # BR(H+ -> u       bb     )
     1.35673491E-05    2           2        -3   # BR(H+ -> u       sb     )
     2.80572588E-04    2           4        -3   # BR(H+ -> c       sb     )
     5.28833792E-01    2           6        -5   # BR(H+ -> t       bb     )
     7.45086796E-05    2          24        25   # BR(H+ -> W+      h      )
     8.40941869E-13    2          24        36   # BR(H+ -> W+      A      )
     4.01944263E-01    2     1000024   1000022   # BR(H+ -> ~chi_1+ ~chi_10)
     2.49231974E-03    2     1000024   1000023   # BR(H+ -> ~chi_1+ ~chi_20)
     1.38963315E-04    2     1000024   1000025   # BR(H+ -> ~chi_1+ ~chi_30)
