#
#                              ======================
#                              | THE SUSYHIT OUTPUT |
#                              ======================
#
#
#              ------------------------------------------------------
#              |     This is the output of the SUSY-HIT package     |
#              |  created by A.Djouadi, M.Muehlleitner and M.Spira. |
#              |  In case of problems with SUSY-HIT email to        |
#              |           margarete.muehlleitner@cern.ch           |
#              |           michael.spira@psi.ch                     |
#              |           abdelhak.djouadi@cern.ch                 |
#              ------------------------------------------------------
#
#              ------------------------------------------------------
#              |  SUSY Les Houches Accord - MSSM Spectrum + Decays  |
#              |              based on the decay programs           |
#              |                                                    |
#              |                     SDECAY 1.3b                    |
#              |                                                    |
#              |  Authors: M.Muhlleitner, A.Djouadi and Y.Mambrini  |
#              |  Ref.:    Comput.Phys.Commun.168(2005)46           |
#              |           [hep-ph/0311167]                         |
#              |                                                    |
#              |                     HDECAY 3.4                     |
#              |                                                    |
#              |  By: A.Djouadi,J.Kalinowski,M.Muhlleitner,M.Spira  |
#              |  Ref.:    Comput.Phys.Commun.108(1998)56           |
#              |           [hep-ph/9704448]                         |
#              |                                                    |
#              |                                                    |
#              |  If not stated otherwise all DRbar couplings and   |
#              |  soft SUSY breaking masses are given at the scale  |
#              |  Q=  0.50007487E+04
#              |                                                    |
#              ------------------------------------------------------
#
#
BLOCK DCINFO  # Decay Program information
     1   SDECAY/HDECAY # decay calculator
     2   1.3b  /3.4    # version number
#
BLOCK SPINFO  # Spectrum calculator information
     1    SOFTSUSY    # spectrum calculator                
     2    3.4.0       # version number                     
#
BLOCK MODSEL  # Model selection
     1     0   #  nonUniversal                                     
#
BLOCK SMINPUTS  # Standard Model inputs
         1     1.25778332E+02   # alpha_em^-1(M_Z)^MSbar
         2     1.16570000E-05   # G_F [GeV^-2]
         3     1.17200002E-01   # alpha_S(M_Z)^MSbar
         4     9.11876000E+01   # M_Z pole mass
         5     4.25000000E+00   # mb(mb)^MSbar
         6     1.72500000E+02   # mt pole mass
         7     1.77682000E+00   # mtau pole mass
#
BLOCK MINPAR  # Input parameters - minimal models
         3     1.00000000E+01   # tanb                
#
BLOCK EXTPAR  # Input parameters - non-minimal models
         0    -1.00000000E+00   # Set                 
         1     6.00000000E+01   # M_1(MX)             
         2     3.00000000E+03   # M_2(MX)             
         3     1.03377200E+03   # M_3(MX)             
        11     5.00000000E+03   # At(MX)              
        12     5.00000000E+03   # Ab(MX)              
        13     0.00000000E+00   # Atau(MX)            
        23    -5.71508000E+02   # mu(MX)              
        26     3.00000000E+03   # mA(pole)            
        31     5.00000000E+03   # meL(MX)             
        32     5.00000000E+03   # mmuL(MX)            
        33     5.00000000E+03   # mtauL(MX)           
        34     5.00000000E+03   # meR(MX)             
        35     5.00000000E+03   # mmuR(MX)            
        36     5.00000000E+03   # mtauR(MX)           
        41     5.00000000E+03   # mqL1(MX)            
        42     5.00000000E+03   # mqL2(MX)            
        43     5.00000000E+03   # mqL3(MX)            
        44     5.00000000E+03   # muR(MX)             
        45     5.00000000E+03   # mcR(MX)             
        46     5.00000000E+03   # mtR(MX)             
        47     5.00000000E+03   # mdR(MX)             
        48     5.00000000E+03   # msR(MX)             
        49     5.00000000E+03   # mbR(MX)             
#
BLOCK MASS  # Mass Spectrum
# PDG code           mass       particle
        24     8.00919514E+01   # W+
        25     1.24509233E+02   # h
        35     3.00008427E+03   # H
        36     2.99999917E+03   # A
        37     3.00140302E+03   # H+
         5     4.87878001E+00   # b-quark pole mass calculated from mb(mb)_Msbar
   1000001     5.06530374E+03   # ~d_L
   2000001     5.04744537E+03   # ~d_R
   1000002     5.06482698E+03   # ~u_L
   2000002     5.04714739E+03   # ~u_R
   1000003     5.06530374E+03   # ~s_L
   2000003     5.04744537E+03   # ~s_R
   1000004     5.06482698E+03   # ~c_L
   2000004     5.04714739E+03   # ~c_R
   1000005     5.01146956E+03   # ~b_1
   2000005     5.04576700E+03   # ~b_2
   1000006     4.90194063E+03   # ~t_1
   2000006     5.05639524E+03   # ~t_2
   1000011     5.01910071E+03   # ~e_L
   2000011     5.00593970E+03   # ~e_R
   1000012     5.01815056E+03   # ~nu_eL
   1000013     5.01910071E+03   # ~mu_L
   2000013     5.00593970E+03   # ~mu_R
   1000014     5.01815056E+03   # ~nu_muL
   1000015     5.00474873E+03   # ~tau_1
   2000015     5.01865173E+03   # ~tau_2
   1000016     5.01759984E+03   # ~nu_tauL
   1000021     1.30000061E+03   # ~g
   1000022     6.02508421E+01   # ~chi_10
   1000023     6.00198193E+02   # ~chi_20
   1000025    -6.02418291E+02   # ~chi_30
   1000035     3.07418975E+03   # ~chi_40
   1000024     6.00000374E+02   # ~chi_1+
   1000037     3.07435742E+03   # ~chi_2+
#
BLOCK NMIX  # Neutralino Mixing Matrix
  1  1     9.97248540E-01   # N_11
  1  2     2.27006277E-04   # N_12
  1  3    -7.41298914E-02   # N_13
  1  4     2.40590817E-04   # N_14
  2  1     5.22749949E-02   # N_21
  2  2     1.97565177E-02   # N_22
  2  3     7.05593947E-01   # N_23
  2  4     7.06409362E-01   # N_24
  3  1    -5.25597139E-02   # N_31
  3  2     1.65508739E-02   # N_32
  3  3    -7.04724650E-01   # N_33
  3  4     7.07337764E-01   # N_34
  4  1    -3.89373694E-04   # N_41
  4  2     9.99667793E-01   # N_42
  4  3    -2.26019338E-03   # N_43
  4  4    -2.56718302E-02   # N_44
#
BLOCK UMIX  # Chargino Mixing Matrix U
  1  1     3.20352064E-03   # U_11
  1  2     9.99994869E-01   # U_12
  2  1    -9.99994869E-01   # U_21
  2  2     3.20352064E-03   # U_22
#
BLOCK VMIX  # Chargino Mixing Matrix V
  1  1     3.63293651E-02   # V_11
  1  2    -9.99339871E-01   # V_12
  2  1    -9.99339871E-01   # V_21
  2  2    -3.63293651E-02   # V_22
#
BLOCK STOPMIX  # Stop Mixing Matrix
  1  1    -5.06895818E-01   # cos(theta_t)
  1  2     8.62007326E-01   # sin(theta_t)
  2  1    -8.62007326E-01   # -sin(theta_t)
  2  2    -5.06895818E-01   # cos(theta_t)
#
BLOCK SBOTMIX  # Sbottom Mixing Matrix
  1  1     9.98452340E-01   # cos(theta_b)
  1  2    -5.56140697E-02   # sin(theta_b)
  2  1     5.56140697E-02   # -sin(theta_b)
  2  2     9.98452340E-01   # cos(theta_b)
#
BLOCK STAUMIX  # Stau Mixing Matrix
  1  1    -6.84631151E-02   # cos(theta_tau)
  1  2     9.97653648E-01   # sin(theta_tau)
  2  1    -9.97653648E-01   # -sin(theta_tau)
  2  2    -6.84631151E-02   # cos(theta_tau)
#
BLOCK ALPHA  # Higgs mixing
          -1.05453786E-01   # Mixing angle in the neutral Higgs boson sector
#
BLOCK HMIX Q=  5.00074866E+03  # DRbar Higgs Parameters
         1    -5.81785202E+02   # mu(Q)MSSM           
         2     9.47194414E+00   # tan                 
         3     2.41808990E+02   # higgs               
         4     8.64038465E+06   # mA^2(Q)MSSM         
#
BLOCK GAUGE Q=  5.00074866E+03  # The gauge couplings
     1     3.70927841E-01   # gprime(Q) DRbar
     2     6.33161602E-01   # g(Q) DRbar
     3     1.00480136E+00   # g3(Q) DRbar
#
BLOCK AU Q=  5.00074866E+03  # The trilinear couplings
  1  1     5.00000001E+03   # A_u(Q) DRbar
  2  2     5.00000001E+03   # A_c(Q) DRbar
  3  3     5.00000001E+03   # A_t(Q) DRbar
#
BLOCK AD Q=  5.00074866E+03  # The trilinear couplings
  1  1     5.00000000E+03   # A_d(Q) DRbar
  2  2     5.00000000E+03   # A_s(Q) DRbar
  3  3     5.00000001E+03   # A_b(Q) DRbar
#
BLOCK AE Q=  5.00074866E+03  # The trilinear couplings
  1  1     0.00000000E+00   # A_e(Q) DRbar
  2  2     6.47823877E-08   # A_mu(Q) DRbar
  3  3     6.39906685E-08   # A_tau(Q) DRbar
#
BLOCK Yu Q=  5.00074866E+03  # The Yukawa couplings
  1  1     0.00000000E+00   # y_u(Q) DRbar
  2  2     0.00000000E+00   # y_c(Q) DRbar
  3  3     8.16806831E-01   # y_t(Q) DRbar
#
BLOCK Yd Q=  5.00074866E+03  # The Yukawa couplings
  1  1     0.00000000E+00   # y_d(Q) DRbar
  2  2     0.00000000E+00   # y_s(Q) DRbar
  3  3     1.29521263E-01   # y_b(Q) DRbar
#
BLOCK Ye Q=  5.00074866E+03  # The Yukawa couplings
  1  1     0.00000000E+00   # y_e(Q) DRbar
  2  2     0.00000000E+00   # y_mu(Q) DRbar
  3  3     9.70887267E-02   # y_tau(Q) DRbar
#
BLOCK MSOFT Q=  5.00074866E+03  # The soft SUSY breaking masses at the scale Q
         1     6.00000000E+01   # M_1(Q)              
         2     3.00000000E+03   # M_2(Q)              
         3     1.03377200E+03   # M_3(Q)              
        21     8.38072590E+06   # mH1^2(Q)            
        22     2.32485743E+05   # mH2^2(Q)            
        31     5.00000000E+03   # meL(Q)              
        32     5.00000000E+03   # mmuL(Q)             
        33     5.00000000E+03   # mtauL(Q)            
        34     5.00000000E+03   # meR(Q)              
        35     5.00000000E+03   # mmuR(Q)             
        36     5.00000000E+03   # mtauR(Q)            
        41     5.00000000E+03   # mqL1(Q)             
        42     5.00000000E+03   # mqL2(Q)             
        43     5.00000000E+03   # mqL3(Q)             
        44     5.00000000E+03   # muR(Q)              
        45     5.00000000E+03   # mcR(Q)              
        46     5.00000000E+03   # mtR(Q)              
        47     5.00000000E+03   # mdR(Q)              
        48     5.00000000E+03   # msR(Q)              
        49     5.00000000E+03   # mbR(Q)              
#
#
#
#                             =================
#                             |The decay table|
#                             =================
#
# - The QCD corrections to the decays gluino -> squark  + quark
#                                     squark -> gaugino + quark_prime
#                                     squark -> squark_prime + Higgs
#                                     squark -> gluino  + quark
#   are included.
#
# - The multi-body decays for the inos, stops and sbottoms are included.
#
# - The loop induced decays for the gluino, neutralinos and stops
#   are included.
#
# - The SUSY decays of the top quark are included.
#
#
#         PDG            Width
DECAY         6     1.40500076E+00   # top decays
#          BR         NDA      ID1       ID2
     1.00000000E+00    2           5        24   # BR(t ->  b    W+)
#
#         PDG            Width
DECAY   1000021     7.48311178E-05   # gluino decays
#          BR         NDA      ID1       ID2
     3.17886418E-06    2     1000022        21   # BR(~g -> ~chi_10 g)
     2.71423696E-02    2     1000023        21   # BR(~g -> ~chi_20 g)
     2.63866003E-02    2     1000025        21   # BR(~g -> ~chi_30 g)
#           BR         NDA      ID1       ID2       ID3
     3.46431214E-02    3     1000022         1        -1   # BR(~g -> ~chi_10 d  db)
     2.72058071E-05    3     1000023         1        -1   # BR(~g -> ~chi_20 d  db)
     2.34354103E-05    3     1000025         1        -1   # BR(~g -> ~chi_30 d  db)
     1.18126864E-01    3     1000022         2        -2   # BR(~g -> ~chi_10 u  ub)
     1.37077106E-04    3     1000023         2        -2   # BR(~g -> ~chi_20 u  ub)
     3.57763705E-05    3     1000025         2        -2   # BR(~g -> ~chi_30 u  ub)
     3.46431214E-02    3     1000022         3        -3   # BR(~g -> ~chi_10 s  sb)
     2.72058071E-05    3     1000023         3        -3   # BR(~g -> ~chi_20 s  sb)
     2.34354103E-05    3     1000025         3        -3   # BR(~g -> ~chi_30 s  sb)
     1.18126864E-01    3     1000022         4        -4   # BR(~g -> ~chi_10 c  cb)
     1.37077106E-04    3     1000023         4        -4   # BR(~g -> ~chi_20 c  cb)
     3.57763705E-05    3     1000025         4        -4   # BR(~g -> ~chi_30 c  cb)
     3.53325502E-02    3     1000022         5        -5   # BR(~g -> ~chi_10 b  bb)
     4.76074356E-03    3     1000023         5        -5   # BR(~g -> ~chi_20 b  bb)
     4.67927779E-03    3     1000025         5        -5   # BR(~g -> ~chi_30 b  bb)
     9.53241742E-02    3     1000022         6        -6   # BR(~g -> ~chi_10 t  tb)
     1.20212461E-01    3     1000023         6        -6   # BR(~g -> ~chi_20 t  tb)
     8.30244087E-02    3     1000025         6        -6   # BR(~g -> ~chi_30 t  tb)
     5.27790618E-05    3     1000024         1        -2   # BR(~g -> ~chi_1+ d  ub)
     5.27790618E-05    3    -1000024         2        -1   # BR(~g -> ~chi_1- u  db)
     5.27790618E-05    3     1000024         3        -4   # BR(~g -> ~chi_1+ s  cb)
     5.27790618E-05    3    -1000024         4        -3   # BR(~g -> ~chi_1- c  sb)
     1.48468080E-01    3     1000024         5        -6   # BR(~g -> ~chi_1+ b  tb)
     1.48468080E-01    3    -1000024         6        -5   # BR(~g -> ~chi_1- t  bb)
#
#         PDG            Width
DECAY   1000006     4.02914200E+02   # stop1 decays
#          BR         NDA      ID1       ID2
     2.17841070E-02    2     1000022         6   # BR(~t_1 -> ~chi_10 t )
     8.00382409E-02    2     1000023         6   # BR(~t_1 -> ~chi_20 t )
     7.61343620E-02    2     1000025         6   # BR(~t_1 -> ~chi_30 t )
     5.14178234E-03    2     1000035         6   # BR(~t_1 -> ~chi_40 t )
     1.15474615E-01    2     1000024         5   # BR(~t_1 -> ~chi_1+ b )
     1.02495215E-02    2     1000037         5   # BR(~t_1 -> ~chi_2+ b )
     6.91177371E-01    2     1000021         6   # BR(~t_1 -> ~g      t )
#
#         PDG            Width
DECAY   2000006     4.03877054E+02   # stop2 decays
#          BR         NDA      ID1       ID2
     8.77780215E-03    2     1000022         6   # BR(~t_2 -> ~chi_10 t )
     8.03253726E-02    2     1000023         6   # BR(~t_2 -> ~chi_20 t )
     8.46678675E-02    2     1000025         6   # BR(~t_2 -> ~chi_30 t )
     1.36921906E-02    2     1000035         6   # BR(~t_2 -> ~chi_40 t )
     4.82361131E-02    2     1000024         5   # BR(~t_2 -> ~chi_1+ b )
     2.72608173E-02    2     1000037         5   # BR(~t_2 -> ~chi_2+ b )
     7.33914908E-01    2     1000021         6   # BR(~t_2 -> ~g      t )
     7.11380360E-04    2     1000006        25   # BR(~t_2 -> ~t_1    h )
     2.41354825E-03    2     1000006        23   # BR(~t_2 -> ~t_1    Z )
#
#         PDG            Width
DECAY   1000005     3.80782137E+02   # sbottom1 decays
#          BR         NDA      ID1       ID2
     2.03968653E-03    2     1000022         5   # BR(~b_1 -> ~chi_10 b )
     2.13888248E-03    2     1000023         5   # BR(~b_1 -> ~chi_20 b )
     2.12345260E-03    2     1000025         5   # BR(~b_1 -> ~chi_30 b )
     1.98017087E-02    2     1000035         5   # BR(~b_1 -> ~chi_40 b )
     1.70568400E-01    2    -1000024         6   # BR(~b_1 -> ~chi_1- t )
     3.97599142E-02    2    -1000037         6   # BR(~b_1 -> ~chi_2- t )
     7.62078321E-01    2     1000021         5   # BR(~b_1 -> ~g      b )
     1.48963453E-03    2     1000006       -24   # BR(~b_1 -> ~t_1    W-)
#
#         PDG            Width
DECAY   2000005     2.99022136E+02   # sbottom2 decays
#          BR         NDA      ID1       ID2
     9.82934745E-03    2     1000022         5   # BR(~b_2 -> ~chi_10 b )
     2.79528840E-03    2     1000023         5   # BR(~b_2 -> ~chi_20 b )
     2.84061566E-03    2     1000025         5   # BR(~b_2 -> ~chi_30 b )
     7.77982036E-05    2     1000035         5   # BR(~b_2 -> ~chi_40 b )
     6.16763069E-03    2    -1000024         6   # BR(~b_2 -> ~chi_1- t )
     1.56210822E-04    2    -1000037         6   # BR(~b_2 -> ~chi_2- t )
     9.78109294E-01    2     1000021         5   # BR(~b_2 -> ~g      b )
     2.38150940E-05    2     1000006       -24   # BR(~b_2 -> ~t_1    W-)
#
#         PDG            Width
DECAY   1000002     3.18103196E+02   # sup_L decays
#          BR         NDA      ID1       ID2
     2.34324148E-03    2     1000022         2   # BR(~u_L -> ~chi_10 u)
     5.38453211E-05    2     1000023         2   # BR(~u_L -> ~chi_20 u)
     2.36995239E-06    2     1000025         2   # BR(~u_L -> ~chi_30 u)
     2.46281939E-02    2     1000035         2   # BR(~u_L -> ~chi_40 u)
     1.58300537E-04    2     1000024         1   # BR(~u_L -> ~chi_1+ d)
     4.92253370E-02    2     1000037         1   # BR(~u_L -> ~chi_2+ d)
     9.23588712E-01    2     1000021         2   # BR(~u_L -> ~g      u)
#
#         PDG            Width
DECAY   2000002     3.04401733E+02   # sup_R decays
#          BR         NDA      ID1       ID2
     3.89511186E-02    2     1000022         2   # BR(~u_R -> ~chi_10 u)
     1.04100907E-04    2     1000023         2   # BR(~u_R -> ~chi_20 u)
     1.05215695E-04    2     1000025         2   # BR(~u_R -> ~chi_30 u)
     2.35509919E-09    2     1000035         2   # BR(~u_R -> ~chi_40 u)
     9.60839562E-01    2     1000021         2   # BR(~u_R -> ~g      u)
#
#         PDG            Width
DECAY   1000001     3.18113128E+02   # sdown_L decays
#          BR         NDA      ID1       ID2
     2.33248879E-03    2     1000022         1   # BR(~d_L -> ~chi_10 d)
     5.46783622E-06    2     1000023         1   # BR(~d_L -> ~chi_20 d)
     4.31132691E-05    2     1000025         1   # BR(~d_L -> ~chi_30 d)
     2.46426149E-02    2     1000035         1   # BR(~d_L -> ~chi_40 d)
     1.23098171E-06    2    -1000024         2   # BR(~d_L -> ~chi_1- u)
     4.93037463E-02    2    -1000037         2   # BR(~d_L -> ~chi_2- u)
     9.23671338E-01    2     1000021         1   # BR(~d_L -> ~g      d)
#
#         PDG            Width
DECAY   2000001     2.95483707E+02   # sdown_R decays
#          BR         NDA      ID1       ID2
     1.00322718E-02    2     1000022         1   # BR(~d_R -> ~chi_10 d)
     2.68123757E-05    2     1000023         1   # BR(~d_R -> ~chi_20 d)
     2.70995026E-05    2     1000025         1   # BR(~d_R -> ~chi_30 d)
     6.06664437E-10    2     1000035         1   # BR(~d_R -> ~chi_40 d)
     9.89913816E-01    2     1000021         1   # BR(~d_R -> ~g      d)
#
#         PDG            Width
DECAY   1000004     3.18103196E+02   # scharm_L decays
#          BR         NDA      ID1       ID2
     2.34324148E-03    2     1000022         4   # BR(~c_L -> ~chi_10 c)
     5.38453211E-05    2     1000023         4   # BR(~c_L -> ~chi_20 c)
     2.36995239E-06    2     1000025         4   # BR(~c_L -> ~chi_30 c)
     2.46281939E-02    2     1000035         4   # BR(~c_L -> ~chi_40 c)
     1.58300537E-04    2     1000024         3   # BR(~c_L -> ~chi_1+ s)
     4.92253370E-02    2     1000037         3   # BR(~c_L -> ~chi_2+ s)
     9.23588712E-01    2     1000021         4   # BR(~c_L -> ~g      c)
#
#         PDG            Width
DECAY   2000004     3.04401733E+02   # scharm_R decays
#          BR         NDA      ID1       ID2
     3.89511186E-02    2     1000022         4   # BR(~c_R -> ~chi_10 c)
     1.04100907E-04    2     1000023         4   # BR(~c_R -> ~chi_20 c)
     1.05215695E-04    2     1000025         4   # BR(~c_R -> ~chi_30 c)
     2.35509919E-09    2     1000035         4   # BR(~c_R -> ~chi_40 c)
     9.60839562E-01    2     1000021         4   # BR(~c_R -> ~g      c)
#
#         PDG            Width
DECAY   1000003     3.18113128E+02   # sstrange_L decays
#          BR         NDA      ID1       ID2
     2.33248879E-03    2     1000022         3   # BR(~s_L -> ~chi_10 s)
     5.46783622E-06    2     1000023         3   # BR(~s_L -> ~chi_20 s)
     4.31132691E-05    2     1000025         3   # BR(~s_L -> ~chi_30 s)
     2.46426149E-02    2     1000035         3   # BR(~s_L -> ~chi_40 s)
     1.23098171E-06    2    -1000024         4   # BR(~s_L -> ~chi_1- c)
     4.93037463E-02    2    -1000037         4   # BR(~s_L -> ~chi_2- c)
     9.23671338E-01    2     1000021         3   # BR(~s_L -> ~g      s)
#
#         PDG            Width
DECAY   2000003     2.95483707E+02   # sstrange_R decays
#          BR         NDA      ID1       ID2
     1.00322718E-02    2     1000022         3   # BR(~s_R -> ~chi_10 s)
     2.68123757E-05    2     1000023         3   # BR(~s_R -> ~chi_20 s)
     2.70995026E-05    2     1000025         3   # BR(~s_R -> ~chi_30 s)
     6.06664437E-10    2     1000035         3   # BR(~s_R -> ~chi_40 s)
     9.89913816E-01    2     1000021         3   # BR(~s_R -> ~g      s)
#
#         PDG            Width
DECAY   1000011     3.03210149E+01   # selectron_L decays
#          BR         NDA      ID1       ID2
     2.25413678E-01    2     1000022        11   # BR(~e_L -> ~chi_10 e-)
     1.62792588E-03    2     1000023        11   # BR(~e_L -> ~chi_20 e-)
     1.30032756E-04    2     1000025        11   # BR(~e_L -> ~chi_30 e-)
     2.57436845E-01    2     1000035        11   # BR(~e_L -> ~chi_40 e-)
     1.31641944E-05    2    -1000024        12   # BR(~e_L -> ~chi_1- nu_e)
     5.15378354E-01    2    -1000037        12   # BR(~e_L -> ~chi_2- nu_e)
#
#         PDG            Width
DECAY   2000011     2.73924600E+01   # selectron_R decays
#          BR         NDA      ID1       ID2
     9.94659798E-01    2     1000022        11   # BR(~e_R -> ~chi_10 e-)
     2.65585708E-03    2     1000023        11   # BR(~e_R -> ~chi_20 e-)
     2.68428603E-03    2     1000025        11   # BR(~e_R -> ~chi_30 e-)
     5.88467926E-08    2     1000035        11   # BR(~e_R -> ~chi_40 e-)
#
#         PDG            Width
DECAY   1000013     3.03210149E+01   # smuon_L decays
#          BR         NDA      ID1       ID2
     2.25413678E-01    2     1000022        13   # BR(~mu_L -> ~chi_10 mu-)
     1.62792588E-03    2     1000023        13   # BR(~mu_L -> ~chi_20 mu-)
     1.30032756E-04    2     1000025        13   # BR(~mu_L -> ~chi_30 mu-)
     2.57436845E-01    2     1000035        13   # BR(~mu_L -> ~chi_40 mu-)
     1.31641944E-05    2    -1000024        14   # BR(~mu_L -> ~chi_1- nu_mu)
     5.15378354E-01    2    -1000037        14   # BR(~mu_L -> ~chi_2- nu_mu)
#
#         PDG            Width
DECAY   2000013     2.73924600E+01   # smuon_R decays
#          BR         NDA      ID1       ID2
     9.94659798E-01    2     1000022        13   # BR(~mu_R -> ~chi_10 mu-)
     2.65585708E-03    2     1000023        13   # BR(~mu_R -> ~chi_20 mu-)
     2.68428603E-03    2     1000025        13   # BR(~mu_R -> ~chi_30 mu-)
     5.88467926E-08    2     1000035        13   # BR(~mu_R -> ~chi_40 mu-)
#
#         PDG            Width
DECAY   1000015     2.92208356E+01   # stau_1 decays
#          BR         NDA      ID1       ID2
     9.29976351E-01    2     1000022        15   # BR(~tau_1 -> ~chi_10  tau-)
     1.78676772E-02    2     1000023        15   # BR(~tau_1 -> ~chi_20  tau-)
     1.73422462E-02    2     1000025        15   # BR(~tau_1 -> ~chi_30  tau-)
     1.22231122E-03    2     1000035        15   # BR(~tau_1 -> ~chi_40  tau-)
     3.11445720E-02    2    -1000024        16   # BR(~tau_1 -> ~chi_1-  nu_tau)
     2.44684279E-03    2    -1000037        16   # BR(~tau_1 -> ~chi_2-  nu_tau)
#
#         PDG            Width
DECAY   2000015     3.12155997E+01   # stau_2 decays
#          BR         NDA      ID1       ID2
     2.21353501E-01    2     1000022        15   # BR(~tau_2 -> ~chi_10  tau-)
     1.63109470E-02    2     1000023        15   # BR(~tau_2 -> ~chi_20  tau-)
     1.52972965E-02    2     1000025        15   # BR(~tau_2 -> ~chi_30  tau-)
     2.48827819E-01    2     1000035        15   # BR(~tau_2 -> ~chi_40  tau-)
     6.64292546E-05    2    -1000024        16   # BR(~tau_2 -> ~chi_1-  nu_tau)
     4.98144007E-01    2    -1000037        16   # BR(~tau_2 -> ~chi_2-  nu_tau)
#
#         PDG            Width
DECAY   1000012     3.03241738E+01   # snu_eL decays
#          BR         NDA      ID1       ID2
     2.24997531E-01    2     1000022        12   # BR(~nu_eL -> ~chi_10 nu_e)
     7.57296100E-05    2     1000023        12   # BR(~nu_eL -> ~chi_20 nu_e)
     1.43671766E-03    2     1000025        12   # BR(~nu_eL -> ~chi_30 nu_e)
     2.57479176E-01    2     1000035        12   # BR(~nu_eL -> ~chi_40 nu_e)
     1.69247637E-03    2     1000024        11   # BR(~nu_eL -> ~chi_1+ e-)
     5.14318370E-01    2     1000037        11   # BR(~nu_eL -> ~chi_2+ e-)
#
#         PDG            Width
DECAY   1000014     3.03241738E+01   # snu_muL decays
#          BR         NDA      ID1       ID2
     2.24997531E-01    2     1000022        14   # BR(~nu_muL -> ~chi_10 nu_mu)
     7.57296100E-05    2     1000023        14   # BR(~nu_muL -> ~chi_20 nu_mu)
     1.43671766E-03    2     1000025        14   # BR(~nu_muL -> ~chi_30 nu_mu)
     2.57479176E-01    2     1000035        14   # BR(~nu_muL -> ~chi_40 nu_mu)
     1.69247637E-03    2     1000024        13   # BR(~nu_muL -> ~chi_1+ mu-)
     5.14318370E-01    2     1000037        13   # BR(~nu_muL -> ~chi_2+ mu-)
#
#         PDG            Width
DECAY   1000016     3.12289096E+01   # snu_tauL decays
#          BR         NDA      ID1       ID2
     2.18455114E-01    2     1000022        16   # BR(~nu_tauL -> ~chi_10 nu_tau)
     7.35271014E-05    2     1000023        16   # BR(~nu_tauL -> ~chi_20 nu_tau)
     1.39493231E-03    2     1000025        16   # BR(~nu_tauL -> ~chi_30 nu_tau)
     2.49926348E-01    2     1000035        16   # BR(~nu_tauL -> ~chi_40 nu_tau)
     3.09191558E-02    2     1000024        15   # BR(~nu_tauL -> ~chi_1+ tau-)
     4.99230922E-01    2     1000037        15   # BR(~nu_tauL -> ~chi_2+ tau-)
#
#         PDG            Width
DECAY   1000024     3.57562936E-01   # chargino1+ decays
#          BR         NDA      ID1       ID2
     1.00000000E+00    2     1000022        24   # BR(~chi_1+ -> ~chi_10  W+)
#
#         PDG            Width
DECAY   1000037     2.18188170E+01   # chargino2+ decays
#          BR         NDA      ID1       ID2
     2.53513298E-01    2     1000024        23   # BR(~chi_2+ -> ~chi_1+  Z )
     1.69237223E-04    2     1000022        24   # BR(~chi_2+ -> ~chi_10  W+)
     2.44778963E-01    2     1000023        24   # BR(~chi_2+ -> ~chi_20  W+)
     2.44351022E-01    2     1000025        24   # BR(~chi_2+ -> ~chi_30  W+)
     2.57183931E-01    2     1000024        25   # BR(~chi_2+ -> ~chi_1+  h )
     3.54928728E-06    2     1000022        37   # BR(~chi_2+ -> ~chi_10  H+)
#
#         PDG            Width
DECAY   1000022     0.00000000E+00   # neutralino1 decays
#
#         PDG            Width
DECAY   1000023     3.66324565E-01   # neutralino2 decays
#          BR         NDA      ID1       ID2
     5.14015219E-01    2     1000022        23   # BR(~chi_20 -> ~chi_10   Z )
     4.85984781E-01    2     1000022        25   # BR(~chi_20 -> ~chi_10   h )
#
#         PDG            Width
DECAY   1000025     3.61964431E-01   # neutralino3 decays
#          BR         NDA      ID1       ID2
     5.03952045E-01    2     1000022        23   # BR(~chi_30 -> ~chi_10   Z )
     4.96047955E-01    2     1000022        25   # BR(~chi_30 -> ~chi_10   h )
#
#         PDG            Width
DECAY   1000035     2.18323975E+01   # neutralino4 decays
#          BR         NDA      ID1       ID2
     1.29218321E-05    2     1000022        23   # BR(~chi_40 -> ~chi_10   Z )
     1.04467299E-01    2     1000023        23   # BR(~chi_40 -> ~chi_20   Z )
     1.48509583E-01    2     1000025        23   # BR(~chi_40 -> ~chi_30   Z )
     2.45114429E-01    2     1000024       -24   # BR(~chi_40 -> ~chi_1+   W-)
     2.45114429E-01    2    -1000024        24   # BR(~chi_40 -> ~chi_1-   W+)
     1.51327602E-04    2     1000022        25   # BR(~chi_40 -> ~chi_10   h )
     3.40284914E-06    2     1000022        35   # BR(~chi_40 -> ~chi_10   H )
     3.79432012E-07    2     1000022        36   # BR(~chi_40 -> ~chi_10   A )
     1.51903146E-01    2     1000023        25   # BR(~chi_40 -> ~chi_20   h )
     1.04723082E-01    2     1000025        25   # BR(~chi_40 -> ~chi_30   h )
#
#         PDG            Width
DECAY        25     4.04391196E-03   # h decays
#          BR         NDA      ID1       ID2
     6.14185283E-01    2           5        -5   # BR(h -> b       bb     )
     6.40064649E-02    2         -15        15   # BR(h -> tau+    tau-   )
     2.26607326E-04    2         -13        13   # BR(h -> mu+     mu-    )
     4.80592214E-04    2           3        -3   # BR(h -> s       sb     )
     2.08237650E-02    2           4        -4   # BR(h -> c       cb     )
     6.70557837E-02    2          21        21   # BR(h -> g       g      )
     2.29893104E-03    2          22        22   # BR(h -> gam     gam    )
     1.46037190E-03    2          22        23   # BR(h -> Z       gam    )
     2.05067120E-01    2          24       -24   # BR(h -> W+      W-     )
     2.43164446E-02    2          23        23   # BR(h -> Z       Z      )
     7.86355441E-05    2     1000022   1000022   # BR(h -> ~chi_10 ~chi_10)
#
#         PDG            Width
DECAY        35     8.58040347E+00   # H decays
#          BR         NDA      ID1       ID2
     3.73032638E-01    2           5        -5   # BR(H -> b       bb     )
     6.49571911E-02    2         -15        15   # BR(H -> tau+    tau-   )
     2.29693787E-04    2         -13        13   # BR(H -> mu+     mu-    )
     2.81569382E-04    2           3        -3   # BR(H -> s       sb     )
     1.57370518E-06    2           4        -4   # BR(H -> c       cb     )
     1.57225614E-01    2           6        -6   # BR(H -> t       tb     )
     5.22669256E-05    2          21        21   # BR(H -> g       g      )
     1.64204515E-07    2          22        22   # BR(H -> gam     gam    )
     9.27354712E-08    2          23        22   # BR(H -> Z       gam    )
     7.40811721E-05    2          24       -24   # BR(H -> W+      W-     )
     3.69936893E-05    2          23        23   # BR(H -> Z       Z      )
     2.71309637E-04    2          25        25   # BR(H -> h       h      )
    -2.69942335E-23    2          36        36   # BR(H -> A       A      )
     9.02662605E-19    2          23        36   # BR(H -> Z       A      )
     3.01202048E-03    2     1000024  -1000024   # BR(H -> ~chi_1+ ~chi_1-)
     4.69264053E-03    2     1000022   1000022   # BR(H -> ~chi_10 ~chi_10)
     1.03162955E-04    2     1000023   1000023   # BR(H -> ~chi_20 ~chi_20)
     1.80823591E-03    2     1000025   1000025   # BR(H -> ~chi_30 ~chi_30)
     2.37416721E-01    2     1000022   1000023   # BR(H -> ~chi_10 ~chi_20)
     1.54594140E-01    2     1000022   1000025   # BR(H -> ~chi_10 ~chi_30)
     2.20989096E-03    2     1000023   1000025   # BR(H -> ~chi_20 ~chi_30)
#
#         PDG            Width
DECAY        36     8.58880104E+00   # A decays
#          BR         NDA      ID1       ID2
     3.72795095E-01    2           5        -5   # BR(A -> b       bb     )
     6.48956141E-02    2         -15        15   # BR(A -> tau+    tau-   )
     2.29475725E-04    2         -13        13   # BR(A -> mu+     mu-    )
     2.81507598E-04    2           3        -3   # BR(A -> s       sb     )
     1.57851325E-06    2           4        -4   # BR(A -> c       cb     )
     1.57618963E-01    2           6        -6   # BR(A -> t       tb     )
     1.56007399E-04    2          21        21   # BR(A -> g       g      )
     5.98855225E-07    2          22        22   # BR(A -> gam     gam    )
     1.88783978E-07    2          23        22   # BR(A -> Z       gam    )
     7.37303829E-05    2          23        25   # BR(A -> Z       h      )
     3.45124958E-03    2     1000024  -1000024   # BR(A -> ~chi_1+ ~chi_1-)
     4.70220968E-03    2     1000022   1000022   # BR(A -> ~chi_10 ~chi_10)
     8.02349073E-05    2     1000023   1000023   # BR(A -> ~chi_20 ~chi_20)
     3.29811595E-03    2     1000025   1000025   # BR(A -> ~chi_30 ~chi_30)
     1.57594107E-01    2     1000022   1000023   # BR(A -> ~chi_10 ~chi_20)
     2.33430688E-01    2     1000022   1000025   # BR(A -> ~chi_10 ~chi_30)
     1.39063627E-03    2     1000023   1000025   # BR(A -> ~chi_20 ~chi_30)
#
#         PDG            Width
DECAY        37     8.52564065E+00   # H+ decays
#          BR         NDA      ID1       ID2
     5.97183920E-04    2           4        -5   # BR(H+ -> c       bb     )
     6.54069724E-02    2         -15        16   # BR(H+ -> tau+    nu_tau )
     2.31283926E-04    2         -13        14   # BR(H+ -> mu+     nu_mu  )
     3.82195706E-06    2           2        -5   # BR(H+ -> u       bb     )
     1.35709486E-05    2           2        -3   # BR(H+ -> u       sb     )
     2.80646698E-04    2           4        -3   # BR(H+ -> c       sb     )
     5.28741921E-01    2           6        -5   # BR(H+ -> t       bb     )
     7.44288494E-05    2          24        25   # BR(H+ -> W+      h      )
     8.40413847E-13    2          24        36   # BR(H+ -> W+      A      )
     4.02018281E-01    2     1000024   1000022   # BR(H+ -> ~chi_1+ ~chi_10)
     2.49289668E-03    2     1000024   1000023   # BR(H+ -> ~chi_1+ ~chi_20)
     1.38992261E-04    2     1000024   1000025   # BR(H+ -> ~chi_1+ ~chi_30)
