#
#                              ======================
#                              | THE SUSYHIT OUTPUT |
#                              ======================
#
#
#              ------------------------------------------------------
#              |     This is the output of the SUSY-HIT package     |
#              |  created by A.Djouadi, M.Muehlleitner and M.Spira. |
#              |  In case of problems with SUSY-HIT email to        |
#              |           margarete.muehlleitner@cern.ch           |
#              |           michael.spira@psi.ch                     |
#              |           abdelhak.djouadi@cern.ch                 |
#              ------------------------------------------------------
#
#              ------------------------------------------------------
#              |  SUSY Les Houches Accord - MSSM Spectrum + Decays  |
#              |              based on the decay programs           |
#              |                                                    |
#              |                     SDECAY 1.3b                    |
#              |                                                    |
#              |  Authors: M.Muhlleitner, A.Djouadi and Y.Mambrini  |
#              |  Ref.:    Comput.Phys.Commun.168(2005)46           |
#              |           [hep-ph/0311167]                         |
#              |                                                    |
#              |                     HDECAY 3.4                     |
#              |                                                    |
#              |  By: A.Djouadi,J.Kalinowski,M.Muhlleitner,M.Spira  |
#              |  Ref.:    Comput.Phys.Commun.108(1998)56           |
#              |           [hep-ph/9704448]                         |
#              |                                                    |
#              |                                                    |
#              |  If not stated otherwise all DRbar couplings and   |
#              |  soft SUSY breaking masses are given at the scale  |
#              |  Q=  0.50007532E+04
#              |                                                    |
#              ------------------------------------------------------
#
#
BLOCK DCINFO  # Decay Program information
     1   SDECAY/HDECAY # decay calculator
     2   1.3b  /3.4    # version number
#
BLOCK SPINFO  # Spectrum calculator information
     1    SOFTSUSY    # spectrum calculator                
     2    3.4.0       # version number                     
#
BLOCK MODSEL  # Model selection
     1     0   #  nonUniversal                                     
#
BLOCK SMINPUTS  # Standard Model inputs
         1     1.25778332E+02   # alpha_em^-1(M_Z)^MSbar
         2     1.16570000E-05   # G_F [GeV^-2]
         3     1.17200002E-01   # alpha_S(M_Z)^MSbar
         4     9.11876000E+01   # M_Z pole mass
         5     4.25000000E+00   # mb(mb)^MSbar
         6     1.72500000E+02   # mt pole mass
         7     1.77682000E+00   # mtau pole mass
#
BLOCK MINPAR  # Input parameters - minimal models
         3     1.00000000E+01   # tanb                
#
BLOCK EXTPAR  # Input parameters - non-minimal models
         0    -1.00000000E+00   # Set                 
         1     6.00000000E+01   # M_1(MX)             
         2     3.00000000E+03   # M_2(MX)             
         3     8.59141000E+02   # M_3(MX)             
        11     5.00000000E+03   # At(MX)              
        12     5.00000000E+03   # Ab(MX)              
        13     0.00000000E+00   # Atau(MX)            
        23    -3.78845000E+02   # mu(MX)              
        26     3.00000000E+03   # mA(pole)            
        31     5.00000000E+03   # meL(MX)             
        32     5.00000000E+03   # mmuL(MX)            
        33     5.00000000E+03   # mtauL(MX)           
        34     5.00000000E+03   # meR(MX)             
        35     5.00000000E+03   # mmuR(MX)            
        36     5.00000000E+03   # mtauR(MX)           
        41     5.00000000E+03   # mqL1(MX)            
        42     5.00000000E+03   # mqL2(MX)            
        43     5.00000000E+03   # mqL3(MX)            
        44     5.00000000E+03   # muR(MX)             
        45     5.00000000E+03   # mcR(MX)             
        46     5.00000000E+03   # mtR(MX)             
        47     5.00000000E+03   # mdR(MX)             
        48     5.00000000E+03   # msR(MX)             
        49     5.00000000E+03   # mbR(MX)             
#
BLOCK MASS  # Mass Spectrum
# PDG code           mass       particle
        24     8.00900015E+01   # W+
        25     1.24375191E+02   # h
        35     3.00008672E+03   # H
        36     2.99999960E+03   # A
        37     3.00145134E+03   # H+
         5     4.87878001E+00   # b-quark pole mass calculated from mb(mb)_Msbar
   1000001     5.06426387E+03   # ~d_L
   2000001     5.04637660E+03   # ~d_R
   1000002     5.06378606E+03   # ~u_L
   2000002     5.04607193E+03   # ~u_R
   1000003     5.06426387E+03   # ~s_L
   2000003     5.04637660E+03   # ~s_R
   1000004     5.06378606E+03   # ~c_L
   2000004     5.04607193E+03   # ~c_R
   1000005     5.01071675E+03   # ~b_1
   2000005     5.04460072E+03   # ~b_2
   1000006     4.90124298E+03   # ~t_1
   2000006     5.05542981E+03   # ~t_2
   1000011     5.01912453E+03   # ~e_L
   2000011     5.00594918E+03   # ~e_R
   1000012     5.01817315E+03   # ~nu_eL
   1000013     5.01912453E+03   # ~mu_L
   2000013     5.00594918E+03   # ~mu_R
   1000014     5.01817315E+03   # ~nu_muL
   1000015     5.00479713E+03   # ~tau_1
   2000015     5.01862544E+03   # ~tau_2
   1000016     5.01762025E+03   # ~nu_tauL
   1000021     1.10000047E+03   # ~g
   1000022     6.00910028E+01   # ~chi_10
   1000023     4.01021569E+02   # ~chi_20
   1000025    -4.03144622E+02   # ~chi_30
   1000035     3.07420180E+03   # ~chi_40
   1000024     4.00000881E+02   # ~chi_1+
   1000037     3.07436968E+03   # ~chi_2+
#
BLOCK NMIX  # Neutralino Mixing Matrix
  1  1     9.93743424E-01   # N_11
  1  2     1.92419591E-04   # N_12
  1  3    -1.11560270E-01   # N_13
  1  4    -5.31751608E-03   # N_14
  2  1     8.26891069E-02   # N_21
  2  2     1.83271263E-02   # N_22
  2  3     7.02939424E-01   # N_23
  2  4     7.06188922E-01   # N_24
  3  1    -7.50757254E-02   # N_31
  3  2     1.75099683E-02   # N_32
  3  3    -7.02445839E-01   # N_33
  3  4     7.07549914E-01   # N_34
  4  1    -3.92221865E-04   # N_41
  4  2     9.99678689E-01   # N_42
  4  3    -5.61769393E-04   # N_43
  4  4    -2.53387085E-02   # N_44
#
BLOCK UMIX  # Chargino Mixing Matrix U
  1  1     7.98039019E-04   # U_11
  1  2     9.99999682E-01   # U_12
  2  1    -9.99999682E-01   # U_21
  2  2     7.98039019E-04   # U_22
#
BLOCK VMIX  # Chargino Mixing Matrix V
  1  1     3.58496026E-02   # V_11
  1  2    -9.99357196E-01   # V_12
  2  1    -9.99357196E-01   # V_21
  2  2    -3.58496026E-02   # V_22
#
BLOCK STOPMIX  # Stop Mixing Matrix
  1  1    -5.06552182E-01   # cos(theta_t)
  1  2     8.62209306E-01   # sin(theta_t)
  2  1    -8.62209306E-01   # -sin(theta_t)
  2  2    -5.06552182E-01   # cos(theta_t)
#
BLOCK SBOTMIX  # Sbottom Mixing Matrix
  1  1     9.98963506E-01   # cos(theta_b)
  1  2    -4.55182785E-02   # sin(theta_b)
  2  1     4.55182785E-02   # -sin(theta_b)
  2  2     9.98963506E-01   # cos(theta_b)
#
BLOCK STAUMIX  # Stau Mixing Matrix
  1  1    -4.53511657E-02   # cos(theta_tau)
  1  2     9.98971107E-01   # sin(theta_tau)
  2  1    -9.98971107E-01   # -sin(theta_tau)
  2  2    -4.53511657E-02   # cos(theta_tau)
#
BLOCK ALPHA  # Higgs mixing
          -1.05444710E-01   # Mixing angle in the neutral Higgs boson sector
#
BLOCK HMIX Q=  5.00075322E+03  # DRbar Higgs Parameters
         1    -3.85595104E+02   # mu(Q)MSSM           
         2     9.47293640E+00   # tan                 
         3     2.41783954E+02   # higgs               
         4     8.71176590E+06   # mA^2(Q)MSSM         
#
BLOCK GAUGE Q=  5.00075322E+03  # The gauge couplings
     1     3.71023387E-01   # gprime(Q) DRbar
     2     6.33623355E-01   # g(Q) DRbar
     3     1.00724784E+00   # g3(Q) DRbar
#
BLOCK AU Q=  5.00075322E+03  # The trilinear couplings
  1  1     5.00000001E+03   # A_u(Q) DRbar
  2  2     5.00000001E+03   # A_c(Q) DRbar
  3  3     5.00000001E+03   # A_t(Q) DRbar
#
BLOCK AD Q=  5.00075322E+03  # The trilinear couplings
  1  1     5.00000000E+03   # A_d(Q) DRbar
  2  2     5.00000000E+03   # A_s(Q) DRbar
  3  3     5.00000001E+03   # A_b(Q) DRbar
#
BLOCK AE Q=  5.00075322E+03  # The trilinear couplings
  1  1     0.00000000E+00   # A_e(Q) DRbar
  2  2     3.24034493E-08   # A_mu(Q) DRbar
  3  3     3.14813339E-08   # A_tau(Q) DRbar
#
BLOCK Yu Q=  5.00075322E+03  # The Yukawa couplings
  1  1     0.00000000E+00   # y_u(Q) DRbar
  2  2     0.00000000E+00   # y_c(Q) DRbar
  3  3     8.15465028E-01   # y_t(Q) DRbar
#
BLOCK Yd Q=  5.00075322E+03  # The Yukawa couplings
  1  1     0.00000000E+00   # y_d(Q) DRbar
  2  2     0.00000000E+00   # y_s(Q) DRbar
  3  3     1.29141268E-01   # y_b(Q) DRbar
#
BLOCK Ye Q=  5.00075322E+03  # The Yukawa couplings
  1  1     0.00000000E+00   # y_e(Q) DRbar
  2  2     0.00000000E+00   # y_mu(Q) DRbar
  3  3     9.72221029E-02   # y_tau(Q) DRbar
#
BLOCK MSOFT Q=  5.00075322E+03  # The soft SUSY breaking masses at the scale Q
         1     6.00000000E+01   # M_1(Q)              
         2     3.00000000E+03   # M_2(Q)              
         3     8.59141000E+02   # M_3(Q)              
        21     8.57886131E+06   # mH1^2(Q)            
        22     4.24405470E+05   # mH2^2(Q)            
        31     5.00000000E+03   # meL(Q)              
        32     5.00000000E+03   # mmuL(Q)             
        33     5.00000000E+03   # mtauL(Q)            
        34     5.00000000E+03   # meR(Q)              
        35     5.00000000E+03   # mmuR(Q)             
        36     5.00000000E+03   # mtauR(Q)            
        41     5.00000000E+03   # mqL1(Q)             
        42     5.00000000E+03   # mqL2(Q)             
        43     5.00000000E+03   # mqL3(Q)             
        44     5.00000000E+03   # muR(Q)              
        45     5.00000000E+03   # mcR(Q)              
        46     5.00000000E+03   # mtR(Q)              
        47     5.00000000E+03   # mdR(Q)              
        48     5.00000000E+03   # msR(Q)              
        49     5.00000000E+03   # mbR(Q)              
#
#
#
#                             =================
#                             |The decay table|
#                             =================
#
# - The QCD corrections to the decays gluino -> squark  + quark
#                                     squark -> gaugino + quark_prime
#                                     squark -> squark_prime + Higgs
#                                     squark -> gluino  + quark
#   are included.
#
# - The multi-body decays for the inos, stops and sbottoms are included.
#
# - The loop induced decays for the gluino, neutralinos and stops
#   are included.
#
# - The SUSY decays of the top quark are included.
#
#
#         PDG            Width
DECAY         6     1.40713632E+00   # top decays
#          BR         NDA      ID1       ID2
     1.00000000E+00    2           5        24   # BR(t ->  b    W+)
#
#         PDG            Width
DECAY   1000021     4.55549711E-05   # gluino decays
#          BR         NDA      ID1       ID2
     9.13813075E-08    2     1000022        21   # BR(~g -> ~chi_10 g)
     3.56199645E-02    2     1000023        21   # BR(~g -> ~chi_20 g)
     3.45043866E-02    2     1000025        21   # BR(~g -> ~chi_30 g)
#           BR         NDA      ID1       ID2       ID3
     2.44531153E-02    3     1000022         1        -1   # BR(~g -> ~chi_10 d  db)
     6.87559455E-05    3     1000023         1        -1   # BR(~g -> ~chi_20 d  db)
     5.22152694E-05    3     1000025         1        -1   # BR(~g -> ~chi_30 d  db)
     8.33726242E-02    3     1000022         2        -2   # BR(~g -> ~chi_10 u  ub)
     3.50795889E-04    3     1000023         2        -2   # BR(~g -> ~chi_20 u  ub)
     9.57471202E-05    3     1000025         2        -2   # BR(~g -> ~chi_30 u  ub)
     2.44531153E-02    3     1000022         3        -3   # BR(~g -> ~chi_10 s  sb)
     6.87559455E-05    3     1000023         3        -3   # BR(~g -> ~chi_20 s  sb)
     5.22152694E-05    3     1000025         3        -3   # BR(~g -> ~chi_30 s  sb)
     8.33726242E-02    3     1000022         4        -4   # BR(~g -> ~chi_10 c  cb)
     3.50795889E-04    3     1000023         4        -4   # BR(~g -> ~chi_20 c  cb)
     9.57471202E-05    3     1000025         4        -4   # BR(~g -> ~chi_30 c  cb)
     2.51982689E-02    3     1000022         5        -5   # BR(~g -> ~chi_10 b  bb)
     5.90701519E-03    3     1000023         5        -5   # BR(~g -> ~chi_20 b  bb)
     5.81835562E-03    3     1000025         5        -5   # BR(~g -> ~chi_30 b  bb)
     5.82767811E-02    3     1000022         6        -6   # BR(~g -> ~chi_10 t  tb)
     1.46775077E-01    3     1000023         6        -6   # BR(~g -> ~chi_20 t  tb)
     1.02074259E-01    3     1000025         6        -6   # BR(~g -> ~chi_30 t  tb)
     6.08140620E-05    3     1000024         1        -2   # BR(~g -> ~chi_1+ d  ub)
     6.08140620E-05    3    -1000024         2        -1   # BR(~g -> ~chi_1- u  db)
     6.08140620E-05    3     1000024         3        -4   # BR(~g -> ~chi_1+ s  cb)
     6.08140620E-05    3    -1000024         4        -3   # BR(~g -> ~chi_1- c  sb)
     1.84398018E-01    3     1000024         5        -6   # BR(~g -> ~chi_1+ b  tb)
     1.84398018E-01    3    -1000024         6        -5   # BR(~g -> ~chi_1- t  bb)
#
#         PDG            Width
DECAY   1000006     4.17875065E+02   # stop1 decays
#          BR         NDA      ID1       ID2
     2.06309577E-02    2     1000022         6   # BR(~t_1 -> ~chi_10 t )
     7.91487937E-02    2     1000023         6   # BR(~t_1 -> ~chi_20 t )
     7.40287157E-02    2     1000025         6   # BR(~t_1 -> ~chi_30 t )
     4.95781229E-03    2     1000035         6   # BR(~t_1 -> ~chi_40 t )
     1.12931863E-01    2     1000024         5   # BR(~t_1 -> ~chi_1+ b )
     9.88384616E-03    2     1000037         5   # BR(~t_1 -> ~chi_2+ b )
     6.98418012E-01    2     1000021         6   # BR(~t_1 -> ~g      t )
#
#         PDG            Width
DECAY   2000006     4.16899735E+02   # stop2 decays
#          BR         NDA      ID1       ID2
     8.71153535E-03    2     1000022         6   # BR(~t_2 -> ~chi_10 t )
     7.79851928E-02    2     1000023         6   # BR(~t_2 -> ~chi_20 t )
     8.37604077E-02    2     1000025         6   # BR(~t_2 -> ~chi_30 t )
     1.32694197E-02    2     1000035         6   # BR(~t_2 -> ~chi_40 t )
     4.73612038E-02    2     1000024         5   # BR(~t_2 -> ~chi_1+ b )
     2.64239677E-02    2     1000037         5   # BR(~t_2 -> ~chi_2+ b )
     7.39488863E-01    2     1000021         6   # BR(~t_2 -> ~g      t )
     6.83466883E-04    2     1000006        25   # BR(~t_2 -> ~t_1    h )
     2.31594253E-03    2     1000006        23   # BR(~t_2 -> ~t_1    Z )
#
#         PDG            Width
DECAY   1000005     3.94348795E+02   # sbottom1 decays
#          BR         NDA      ID1       ID2
     1.99793495E-03    2     1000022         5   # BR(~b_1 -> ~chi_10 b )
     2.05309044E-03    2     1000023         5   # BR(~b_1 -> ~chi_20 b )
     2.07196580E-03    2     1000025         5   # BR(~b_1 -> ~chi_30 b )
     1.91509832E-02    2     1000035         5   # BR(~b_1 -> ~chi_40 b )
     1.67123818E-01    2    -1000024         6   # BR(~b_1 -> ~chi_1- t )
     3.84469472E-02    2    -1000037         6   # BR(~b_1 -> ~chi_2- t )
     7.67724122E-01    2     1000021         5   # BR(~b_1 -> ~g      b )
     1.43113823E-03    2     1000006       -24   # BR(~b_1 -> ~t_1    W-)
#
#         PDG            Width
DECAY   2000005     3.11446288E+02   # sbottom2 decays
#          BR         NDA      ID1       ID2
     9.40281714E-03    2     1000022         5   # BR(~b_2 -> ~chi_10 b )
     2.75031651E-03    2     1000023         5   # BR(~b_2 -> ~chi_20 b )
     2.77075113E-03    2     1000025         5   # BR(~b_2 -> ~chi_30 b )
     4.91278563E-05    2     1000035         5   # BR(~b_2 -> ~chi_40 b )
     5.77923942E-03    2    -1000024         6   # BR(~b_2 -> ~chi_1- t )
     9.86349505E-05    2    -1000037         6   # BR(~b_2 -> ~chi_2- t )
     9.79134053E-01    2     1000021         5   # BR(~b_2 -> ~g      b )
     1.50601838E-05    2     1000006       -24   # BR(~b_2 -> ~t_1    W-)
#
#         PDG            Width
DECAY   1000002     3.30561365E+02   # sup_L decays
#          BR         NDA      ID1       ID2
     2.24007826E-03    2     1000022         2   # BR(~u_L -> ~chi_10 u)
     6.97473595E-05    2     1000023         2   # BR(~u_L -> ~chi_20 u)
     4.78908497E-07    2     1000025         2   # BR(~u_L -> ~chi_30 u)
     2.37094325E-02    2     1000035         2   # BR(~u_L -> ~chi_40 u)
     1.50921099E-04    2     1000024         1   # BR(~u_L -> ~chi_1+ d)
     4.73896182E-02    2     1000037         1   # BR(~u_L -> ~chi_2+ d)
     9.26439724E-01    2     1000021         2   # BR(~u_L -> ~g      u)
#
#         PDG            Width
DECAY   2000002     3.16891092E+02   # sup_R decays
#          BR         NDA      ID1       ID2
     3.71823382E-02    2     1000022         2   # BR(~u_R -> ~chi_10 u)
     2.54340725E-04    2     1000023         2   # BR(~u_R -> ~chi_20 u)
     2.09633247E-04    2     1000025         2   # BR(~u_R -> ~chi_30 u)
     2.29412146E-09    2     1000035         2   # BR(~u_R -> ~chi_40 u)
     9.62353685E-01    2     1000021         2   # BR(~u_R -> ~g      u)
#
#         PDG            Width
DECAY   1000001     3.30570138E+02   # sdown_L decays
#          BR         NDA      ID1       ID2
     2.23135901E-03    2     1000022         1   # BR(~d_L -> ~chi_10 d)
     2.80928616E-07    2     1000023         1   # BR(~d_L -> ~chi_20 d)
     6.07335297E-05    2     1000025         1   # BR(~d_L -> ~chi_30 d)
     2.37234987E-02    2     1000035         1   # BR(~d_L -> ~chi_40 d)
     7.47928523E-08    2    -1000024         2   # BR(~d_L -> ~chi_1- u)
     4.74641826E-02    2    -1000037         2   # BR(~d_L -> ~chi_2- u)
     9.26519870E-01    2     1000021         1   # BR(~d_L -> ~g      d)
#
#         PDG            Width
DECAY   2000001     3.07966024E+02   # sdown_R decays
#          BR         NDA      ID1       ID2
     9.56555659E-03    2     1000022         1   # BR(~d_R -> ~chi_10 d)
     6.54319840E-05    2     1000023         1   # BR(~d_R -> ~chi_20 d)
     5.39304881E-05    2     1000025         1   # BR(~d_R -> ~chi_30 d)
     5.90270923E-10    2     1000035         1   # BR(~d_R -> ~chi_40 d)
     9.90315080E-01    2     1000021         1   # BR(~d_R -> ~g      d)
#
#         PDG            Width
DECAY   1000004     3.30561365E+02   # scharm_L decays
#          BR         NDA      ID1       ID2
     2.24007826E-03    2     1000022         4   # BR(~c_L -> ~chi_10 c)
     6.97473595E-05    2     1000023         4   # BR(~c_L -> ~chi_20 c)
     4.78908497E-07    2     1000025         4   # BR(~c_L -> ~chi_30 c)
     2.37094325E-02    2     1000035         4   # BR(~c_L -> ~chi_40 c)
     1.50921099E-04    2     1000024         3   # BR(~c_L -> ~chi_1+ s)
     4.73896182E-02    2     1000037         3   # BR(~c_L -> ~chi_2+ s)
     9.26439724E-01    2     1000021         4   # BR(~c_L -> ~g      c)
#
#         PDG            Width
DECAY   2000004     3.16891092E+02   # scharm_R decays
#          BR         NDA      ID1       ID2
     3.71823382E-02    2     1000022         4   # BR(~c_R -> ~chi_10 c)
     2.54340725E-04    2     1000023         4   # BR(~c_R -> ~chi_20 c)
     2.09633247E-04    2     1000025         4   # BR(~c_R -> ~chi_30 c)
     2.29412146E-09    2     1000035         4   # BR(~c_R -> ~chi_40 c)
     9.62353685E-01    2     1000021         4   # BR(~c_R -> ~g      c)
#
#         PDG            Width
DECAY   1000003     3.30570138E+02   # sstrange_L decays
#          BR         NDA      ID1       ID2
     2.23135901E-03    2     1000022         3   # BR(~s_L -> ~chi_10 s)
     2.80928616E-07    2     1000023         3   # BR(~s_L -> ~chi_20 s)
     6.07335297E-05    2     1000025         3   # BR(~s_L -> ~chi_30 s)
     2.37234987E-02    2     1000035         3   # BR(~s_L -> ~chi_40 s)
     7.47928523E-08    2    -1000024         4   # BR(~s_L -> ~chi_1- c)
     4.74641826E-02    2    -1000037         4   # BR(~s_L -> ~chi_2- c)
     9.26519870E-01    2     1000021         3   # BR(~s_L -> ~g      s)
#
#         PDG            Width
DECAY   2000003     3.07966024E+02   # sstrange_R decays
#          BR         NDA      ID1       ID2
     9.56555659E-03    2     1000022         3   # BR(~s_R -> ~chi_10 s)
     6.54319840E-05    2     1000023         3   # BR(~s_R -> ~chi_20 s)
     5.39304881E-05    2     1000025         3   # BR(~s_R -> ~chi_30 s)
     5.90270923E-10    2     1000035         3   # BR(~s_R -> ~chi_40 s)
     9.90315080E-01    2     1000021         3   # BR(~s_R -> ~g      s)
#
#         PDG            Width
DECAY   1000011     3.03587793E+01   # selectron_L decays
#          BR         NDA      ID1       ID2
     2.23644173E-01    2     1000022        11   # BR(~e_L -> ~chi_10 e-)
     2.90401857E-03    2     1000023        11   # BR(~e_L -> ~chi_20 e-)
     4.56012139E-04    2     1000025        11   # BR(~e_L -> ~chi_30 e-)
     2.57498311E-01    2     1000035        11   # BR(~e_L -> ~chi_40 e-)
     8.30328819E-07    2    -1000024        12   # BR(~e_L -> ~chi_1- nu_e)
     5.15496655E-01    2    -1000037        12   # BR(~e_L -> ~chi_2- nu_e)
#
#         PDG            Width
DECAY   2000011     2.74066426E+01   # selectron_R decays
#          BR         NDA      ID1       ID2
     9.87680955E-01    2     1000022        11   # BR(~e_R -> ~chi_10 e-)
     6.75301670E-03    2     1000023        11   # BR(~e_R -> ~chi_20 e-)
     5.56596838E-03    2     1000025        11   # BR(~e_R -> ~chi_30 e-)
     5.97105102E-08    2     1000035        11   # BR(~e_R -> ~chi_40 e-)
#
#         PDG            Width
DECAY   1000013     3.03587793E+01   # smuon_L decays
#          BR         NDA      ID1       ID2
     2.23644173E-01    2     1000022        13   # BR(~mu_L -> ~chi_10 mu-)
     2.90401857E-03    2     1000023        13   # BR(~mu_L -> ~chi_20 mu-)
     4.56012139E-04    2     1000025        13   # BR(~mu_L -> ~chi_30 mu-)
     2.57498311E-01    2     1000035        13   # BR(~mu_L -> ~chi_40 mu-)
     8.30328819E-07    2    -1000024        14   # BR(~mu_L -> ~chi_1- nu_mu)
     5.15496655E-01    2    -1000037        14   # BR(~mu_L -> ~chi_2- nu_mu)
#
#         PDG            Width
DECAY   2000013     2.74066426E+01   # smuon_R decays
#          BR         NDA      ID1       ID2
     9.87680955E-01    2     1000022        13   # BR(~mu_R -> ~chi_10 mu-)
     6.75301670E-03    2     1000023        13   # BR(~mu_R -> ~chi_20 mu-)
     5.56596838E-03    2     1000025        13   # BR(~mu_R -> ~chi_30 mu-)
     5.97105102E-08    2     1000035        13   # BR(~mu_R -> ~chi_40 mu-)
#
#         PDG            Width
DECAY   1000015     2.92630021E+01   # stau_1 decays
#          BR         NDA      ID1       ID2
     9.24657221E-01    2     1000022        15   # BR(~tau_1 -> ~chi_10  tau-)
     2.17228376E-02    2     1000023        15   # BR(~tau_1 -> ~chi_20  tau-)
     2.02943583E-02    2     1000025        15   # BR(~tau_1 -> ~chi_30  tau-)
     5.41243579E-04    2     1000035        15   # BR(~tau_1 -> ~chi_40  tau-)
     3.17009493E-02    2    -1000024        16   # BR(~tau_1 -> ~chi_1-  nu_tau)
     1.08339035E-03    2    -1000037        16   # BR(~tau_1 -> ~chi_2-  nu_tau)
#
#         PDG            Width
DECAY   2000015     3.12772477E+01   # stau_2 decays
#          BR         NDA      ID1       ID2
     2.17951427E-01    2     1000022        15   # BR(~tau_2 -> ~chi_10  tau-)
     1.78079880E-02    2     1000023        15   # BR(~tau_2 -> ~chi_20  tau-)
     1.56852044E-02    2     1000025        15   # BR(~tau_2 -> ~chi_30  tau-)
     2.49340914E-01    2     1000035        15   # BR(~tau_2 -> ~chi_40  tau-)
     4.80363779E-05    2    -1000024        16   # BR(~tau_2 -> ~chi_1-  nu_tau)
     4.99166430E-01    2    -1000037        16   # BR(~tau_2 -> ~chi_2-  nu_tau)
#
#         PDG            Width
DECAY   1000012     3.03619757E+01   # snu_eL decays
#          BR         NDA      ID1       ID2
     2.23282682E-01    2     1000022        12   # BR(~nu_eL -> ~chi_10 nu_e)
     5.90092554E-04    2     1000023        12   # BR(~nu_eL -> ~chi_20 nu_e)
     2.46205156E-03    2     1000025        12   # BR(~nu_eL -> ~chi_30 nu_e)
     2.57541759E-01    2     1000035        12   # BR(~nu_eL -> ~chi_40 nu_e)
     1.67509867E-03    2     1000024        11   # BR(~nu_eL -> ~chi_1+ e-)
     5.14448316E-01    2     1000037        11   # BR(~nu_eL -> ~chi_2+ e-)
#
#         PDG            Width
DECAY   1000014     3.03619757E+01   # snu_muL decays
#          BR         NDA      ID1       ID2
     2.23282682E-01    2     1000022        14   # BR(~nu_muL -> ~chi_10 nu_mu)
     5.90092554E-04    2     1000023        14   # BR(~nu_muL -> ~chi_20 nu_mu)
     2.46205156E-03    2     1000025        14   # BR(~nu_muL -> ~chi_30 nu_mu)
     2.57541759E-01    2     1000035        14   # BR(~nu_muL -> ~chi_40 nu_mu)
     1.67509867E-03    2     1000024        13   # BR(~nu_muL -> ~chi_1+ mu-)
     5.14448316E-01    2     1000037        13   # BR(~nu_muL -> ~chi_2+ mu-)
#
#         PDG            Width
DECAY   1000016     3.12840149E+01   # snu_tauL decays
#          BR         NDA      ID1       ID2
     2.16677944E-01    2     1000022        16   # BR(~nu_tauL -> ~chi_10 nu_tau)
     5.72635932E-04    2     1000023        16   # BR(~nu_tauL -> ~chi_20 nu_tau)
     2.38921697E-03    2     1000025        16   # BR(~nu_tauL -> ~chi_30 nu_tau)
     2.49857469E-01    2     1000035        16   # BR(~nu_tauL -> ~chi_40 nu_tau)
     3.14044667E-02    2     1000024        15   # BR(~nu_tauL -> ~chi_1+ tau-)
     4.99098267E-01    2     1000037        15   # BR(~nu_tauL -> ~chi_2+ tau-)
#
#         PDG            Width
DECAY   1000024     2.30076751E-01   # chargino1+ decays
#          BR         NDA      ID1       ID2
     1.00000000E+00    2     1000022        24   # BR(~chi_1+ -> ~chi_10  W+)
#
#         PDG            Width
DECAY   1000037     2.25376588E+01   # chargino2+ decays
#          BR         NDA      ID1       ID2
     2.53625953E-01    2     1000024        23   # BR(~chi_2+ -> ~chi_1+  Z )
     1.38063297E-04    2     1000022        24   # BR(~chi_2+ -> ~chi_10  W+)
     2.45249764E-01    2     1000023        24   # BR(~chi_2+ -> ~chi_20  W+)
     2.44471310E-01    2     1000025        24   # BR(~chi_2+ -> ~chi_30  W+)
     2.56506669E-01    2     1000024        25   # BR(~chi_2+ -> ~chi_1+  h )
     8.24022746E-06    2     1000022        37   # BR(~chi_2+ -> ~chi_10  H+)
#
#         PDG            Width
DECAY   1000022     0.00000000E+00   # neutralino1 decays
#
#         PDG            Width
DECAY   1000023     2.27406755E-01   # neutralino2 decays
#          BR         NDA      ID1       ID2
     4.94097923E-01    2     1000022        23   # BR(~chi_20 -> ~chi_10   Z )
     5.05902077E-01    2     1000022        25   # BR(~chi_20 -> ~chi_10   h )
#
#         PDG            Width
DECAY   1000025     2.16849071E-01   # neutralino3 decays
#          BR         NDA      ID1       ID2
     5.81468562E-01    2     1000022        23   # BR(~chi_30 -> ~chi_10   Z )
     4.18531438E-01    2     1000022        25   # BR(~chi_30 -> ~chi_10   h )
#
#         PDG            Width
DECAY   1000035     2.25445449E+01   # neutralino4 decays
#          BR         NDA      ID1       ID2
     2.15616631E-06    2     1000022        23   # BR(~chi_40 -> ~chi_10   Z )
     1.20956083E-01    2     1000023        23   # BR(~chi_40 -> ~chi_20   Z )
     1.32353100E-01    2     1000025        23   # BR(~chi_40 -> ~chi_30   Z )
     2.45244023E-01    2     1000024       -24   # BR(~chi_40 -> ~chi_1+   W-)
     2.45244023E-01    2    -1000024        24   # BR(~chi_40 -> ~chi_1-   W+)
     1.25276095E-04    2     1000022        25   # BR(~chi_40 -> ~chi_10   h )
     7.94629346E-06    2     1000022        35   # BR(~chi_40 -> ~chi_10   H )
     8.51957214E-07    2     1000022        36   # BR(~chi_40 -> ~chi_10   A )
     1.34908920E-01    2     1000023        25   # BR(~chi_40 -> ~chi_20   h )
     1.21157619E-01    2     1000025        25   # BR(~chi_40 -> ~chi_30   h )
#
#         PDG            Width
DECAY        25     4.03320226E-03   # h decays
#          BR         NDA      ID1       ID2
     6.16866707E-01    2           5        -5   # BR(h -> b       bb     )
     6.41094559E-02    2         -15        15   # BR(h -> tau+    tau-   )
     2.26972550E-04    2         -13        13   # BR(h -> mu+     mu-    )
     4.81467639E-04    2           3        -3   # BR(h -> s       sb     )
     2.08609645E-02    2           4        -4   # BR(h -> c       cb     )
     6.70213915E-02    2          21        21   # BR(h -> g       g      )
     2.29406433E-03    2          22        22   # BR(h -> gam     gam    )
     1.44640927E-03    2          22        23   # BR(h -> Z       gam    )
     2.02667526E-01    2          24       -24   # BR(h -> W+      W-     )
     2.39710973E-02    2          23        23   # BR(h -> Z       Z      )
     5.39441095E-05    2     1000022   1000022   # BR(h -> ~chi_10 ~chi_10)
#
#         PDG            Width
DECAY        35     8.73504030E+00   # H decays
#          BR         NDA      ID1       ID2
     3.65044521E-01    2           5        -5   # BR(H -> b       bb     )
     6.38206476E-02    2         -15        15   # BR(H -> tau+    tau-   )
     2.25674879E-04    2         -13        13   # BR(H -> mu+     mu-    )
     2.76642801E-04    2           3        -3   # BR(H -> s       sb     )
     1.54557824E-06    2           4        -4   # BR(H -> c       cb     )
     1.54415512E-01    2           6        -6   # BR(H -> t       tb     )
     5.13450712E-05    2          21        21   # BR(H -> g       g      )
     1.39625368E-07    2          22        22   # BR(H -> gam     gam    )
     9.10234485E-08    2          23        22   # BR(H -> Z       gam    )
     7.37820708E-05    2          24       -24   # BR(H -> W+      W-     )
     3.68443204E-05    2          23        23   # BR(H -> Z       Z      )
     2.67682371E-04    2          25        25   # BR(H -> h       h      )
     6.29031926E-24    2          36        36   # BR(H -> A       A      )
     6.14602720E-19    2          23        36   # BR(H -> Z       A      )
     3.30399313E-03    2     1000024  -1000024   # BR(H -> ~chi_1+ ~chi_1-)
     1.04817997E-02    2     1000022   1000022   # BR(H -> ~chi_10 ~chi_10)
     1.10135610E-03    2     1000023   1000023   # BR(H -> ~chi_20 ~chi_20)
     3.42810201E-03    2     1000025   1000025   # BR(H -> ~chi_30 ~chi_30)
     2.38817471E-01    2     1000022   1000023   # BR(H -> ~chi_10 ~chi_20)
     1.53335557E-01    2     1000022   1000025   # BR(H -> ~chi_10 ~chi_30)
     5.31729257E-03    2     1000023   1000025   # BR(H -> ~chi_20 ~chi_30)
#
#         PDG            Width
DECAY        36     8.74109328E+00   # A decays
#          BR         NDA      ID1       ID2
     3.64916572E-01    2           5        -5   # BR(A -> b       bb     )
     6.37783359E-02    2         -15        15   # BR(A -> tau+    tau-   )
     2.25524946E-04    2         -13        13   # BR(A -> mu+     mu-    )
     2.76660980E-04    2           3        -3   # BR(A -> s       sb     )
     1.55068679E-06    2           4        -4   # BR(A -> c       cb     )
     1.54840413E-01    2           6        -6   # BR(A -> t       tb     )
     1.53270591E-04    2          21        21   # BR(A -> g       g      )
     5.81916369E-07    2          22        22   # BR(A -> gam     gam    )
     1.85381953E-07    2          23        22   # BR(A -> Z       gam    )
     7.34543224E-05    2          23        25   # BR(A -> Z       h      )
     3.52126809E-03    2     1000024  -1000024   # BR(A -> ~chi_1+ ~chi_1-)
     1.02823507E-02    2     1000022   1000022   # BR(A -> ~chi_10 ~chi_10)
     7.73927928E-04    2     1000023   1000023   # BR(A -> ~chi_20 ~chi_20)
     5.66249520E-03    2     1000025   1000025   # BR(A -> ~chi_30 ~chi_30)
     1.57025338E-01    2     1000022   1000023   # BR(A -> ~chi_10 ~chi_20)
     2.34257384E-01    2     1000022   1000025   # BR(A -> ~chi_10 ~chi_30)
     4.21068695E-03    2     1000023   1000025   # BR(A -> ~chi_20 ~chi_30)
#
#         PDG            Width
DECAY        37     8.66996217E+00   # H+ decays
#          BR         NDA      ID1       ID2
     5.83548433E-04    2           4        -5   # BR(H+ -> c       bb     )
     6.43327099E-02    2         -15        16   # BR(H+ -> tau+    nu_tau )
     2.27485254E-04    2         -13        14   # BR(H+ -> mu+     nu_mu  )
     3.73469031E-06    2           2        -5   # BR(H+ -> u       bb     )
     1.33480277E-05    2           2        -3   # BR(H+ -> u       sb     )
     2.76036074E-04    2           4        -3   # BR(H+ -> c       sb     )
     5.17604675E-01    2           6        -5   # BR(H+ -> t       bb     )
     7.42123414E-05    2          24        25   # BR(H+ -> W+      h      )
     9.77325746E-13    2          24        36   # BR(H+ -> W+      A      )
     4.10905548E-01    2     1000024   1000022   # BR(H+ -> ~chi_1+ ~chi_10)
     5.23092684E-03    2     1000024   1000023   # BR(H+ -> ~chi_1+ ~chi_20)
     7.47776113E-04    2     1000024   1000025   # BR(H+ -> ~chi_1+ ~chi_30)
