#
#                              ======================
#                              | THE SUSYHIT OUTPUT |
#                              ======================
#
#
#              ------------------------------------------------------
#              |     This is the output of the SUSY-HIT package     |
#              |  created by A.Djouadi, M.Muehlleitner and M.Spira. |
#              |  In case of problems with SUSY-HIT email to        |
#              |           margarete.muehlleitner@cern.ch           |
#              |           michael.spira@psi.ch                     |
#              |           abdelhak.djouadi@cern.ch                 |
#              ------------------------------------------------------
#
#              ------------------------------------------------------
#              |  SUSY Les Houches Accord - MSSM Spectrum + Decays  |
#              |              based on the decay programs           |
#              |                                                    |
#              |                     SDECAY 1.3b                    |
#              |                                                    |
#              |  Authors: M.Muhlleitner, A.Djouadi and Y.Mambrini  |
#              |  Ref.:    Comput.Phys.Commun.168(2005)46           |
#              |           [hep-ph/0311167]                         |
#              |                                                    |
#              |                     HDECAY 3.4                     |
#              |                                                    |
#              |  By: A.Djouadi,J.Kalinowski,M.Muhlleitner,M.Spira  |
#              |  Ref.:    Comput.Phys.Commun.108(1998)56           |
#              |           [hep-ph/9704448]                         |
#              |                                                    |
#              |                                                    |
#              |  If not stated otherwise all DRbar couplings and   |
#              |  soft SUSY breaking masses are given at the scale  |
#              |  Q=  0.50007657E+04
#              |                                                    |
#              ------------------------------------------------------
#
#
BLOCK DCINFO  # Decay Program information
     1   SDECAY/HDECAY # decay calculator
     2   1.3b  /3.4    # version number
#
BLOCK SPINFO  # Spectrum calculator information
     1    SOFTSUSY    # spectrum calculator                
     2    3.4.0       # version number                     
#
BLOCK MODSEL  # Model selection
     1     0   #  nonUniversal                                     
#
BLOCK SMINPUTS  # Standard Model inputs
         1     1.25778332E+02   # alpha_em^-1(M_Z)^MSbar
         2     1.16570000E-05   # G_F [GeV^-2]
         3     1.17200002E-01   # alpha_S(M_Z)^MSbar
         4     9.11876000E+01   # M_Z pole mass
         5     4.25000000E+00   # mb(mb)^MSbar
         6     1.72500000E+02   # mt pole mass
         7     1.77682000E+00   # mtau pole mass
#
BLOCK MINPAR  # Input parameters - minimal models
         3     1.00000000E+01   # tanb                
#
BLOCK EXTPAR  # Input parameters - non-minimal models
         0    -1.00000000E+00   # Set                 
         1     6.00000000E+01   # M_1(MX)             
         2     3.00000000E+03   # M_2(MX)             
         3     1.12229200E+03   # M_3(MX)             
        11     5.00000000E+03   # At(MX)              
        12     5.00000000E+03   # Ab(MX)              
        13     0.00000000E+00   # Atau(MX)            
        23    -1.87318000E+02   # mu(MX)              
        26     3.00000000E+03   # mA(pole)            
        31     5.00000000E+03   # meL(MX)             
        32     5.00000000E+03   # mmuL(MX)            
        33     5.00000000E+03   # mtauL(MX)           
        34     5.00000000E+03   # meR(MX)             
        35     5.00000000E+03   # mmuR(MX)            
        36     5.00000000E+03   # mtauR(MX)           
        41     5.00000000E+03   # mqL1(MX)            
        42     5.00000000E+03   # mqL2(MX)            
        43     5.00000000E+03   # mqL3(MX)            
        44     5.00000000E+03   # muR(MX)             
        45     5.00000000E+03   # mcR(MX)             
        46     5.00000000E+03   # mtR(MX)             
        47     5.00000000E+03   # mdR(MX)             
        48     5.00000000E+03   # msR(MX)             
        49     5.00000000E+03   # mbR(MX)             
#
BLOCK MASS  # Mass Spectrum
# PDG code           mass       particle
        24     8.00894769E+01   # W+
        25     1.24555732E+02   # h
        35     3.00009067E+03   # H
        36     2.99999978E+03   # A
        37     3.00148218E+03   # H+
         5     4.87878001E+00   # b-quark pole mass calculated from mb(mb)_Msbar
   1000001     5.06603955E+03   # ~d_L
   2000001     5.04811640E+03   # ~d_R
   1000002     5.06556160E+03   # ~u_L
   2000002     5.04780509E+03   # ~u_R
   1000003     5.06603955E+03   # ~s_L
   2000003     5.04811640E+03   # ~s_R
   1000004     5.06556160E+03   # ~c_L
   2000004     5.04780509E+03   # ~c_R
   1000005     5.01237520E+03   # ~b_1
   2000005     5.04622139E+03   # ~b_2
   1000006     4.90303492E+03   # ~t_1
   2000006     5.05646857E+03   # ~t_2
   1000011     5.01916604E+03   # ~e_L
   2000011     5.00596072E+03   # ~e_R
   1000012     5.01821298E+03   # ~nu_eL
   1000013     5.01916604E+03   # ~mu_L
   2000013     5.00596072E+03   # ~mu_R
   1000014     5.01821298E+03   # ~nu_muL
   1000015     5.00483310E+03   # ~tau_1
   2000015     5.01863131E+03   # ~tau_2
   1000016     5.01765793E+03   # ~nu_tauL
   1000021     1.40000068E+03   # ~g
   1000022     5.87053374E+01   # ~chi_10
   1000023     2.04233091E+02   # ~chi_20
   1000025    -2.05085449E+02   # ~chi_30
   1000035     3.07431773E+03   # ~chi_40
   1000024     2.00000584E+02   # ~chi_1+
   1000037     3.07448593E+03   # ~chi_2+
#
BLOCK NMIX  # Neutralino Mixing Matrix
  1  1     9.72107017E-01   # N_11
  1  2    -5.01536327E-04   # N_12
  1  3    -2.30111793E-01   # N_13
  1  4    -4.53459905E-02   # N_14
  2  1     1.94564858E-01   # N_21
  2  2     1.71161050E-02   # N_22
  2  3     6.83255307E-01   # N_23
  2  4     7.03572129E-01   # N_24
  3  1    -1.30966778E-01   # N_31
  3  2     1.85857068E-02   # N_32
  3  3    -6.92971575E-01   # N_33
  3  4     7.08726090E-01   # N_34
  4  1    -4.08665926E-04   # N_41
  4  2     9.99680628E-01   # N_42
  4  3     1.06962914E-03   # N_43
  4  4    -2.52453951E-02   # N_44
#
BLOCK UMIX  # Chargino Mixing Matrix U
  1  1    -1.50873780E-03   # U_11
  1  2     9.99998862E-01   # U_12
  2  1    -9.99998862E-01   # U_21
  2  2    -1.50873780E-03   # U_22
#
BLOCK VMIX  # Chargino Mixing Matrix V
  1  1     3.57121429E-02   # V_11
  1  2    -9.99362118E-01   # V_12
  2  1    -9.99362118E-01   # V_21
  2  2    -3.57121429E-02   # V_22
#
BLOCK STOPMIX  # Stop Mixing Matrix
  1  1    -5.04570668E-01   # cos(theta_t)
  1  2     8.63370396E-01   # sin(theta_t)
  2  1    -8.63370396E-01   # -sin(theta_t)
  2  2    -5.04570668E-01   # cos(theta_t)
#
BLOCK SBOTMIX  # Sbottom Mixing Matrix
  1  1     9.99383142E-01   # cos(theta_b)
  1  2    -3.51188765E-02   # sin(theta_b)
  2  1     3.51188765E-02   # -sin(theta_b)
  2  2     9.99383142E-01   # cos(theta_b)
#
BLOCK STAUMIX  # Stau Mixing Matrix
  1  1    -2.21892786E-02   # cos(theta_tau)
  1  2     9.99753788E-01   # sin(theta_tau)
  2  1    -9.99753788E-01   # -sin(theta_tau)
  2  2    -2.21892786E-02   # cos(theta_tau)
#
BLOCK ALPHA  # Higgs mixing
          -1.05470449E-01   # Mixing angle in the neutral Higgs boson sector
#
BLOCK HMIX Q=  5.00076572E+03  # DRbar Higgs Parameters
         1    -1.90683641E+02   # mu(Q)MSSM           
         2     9.47088820E+00   # tan                 
         3     2.41694349E+02   # higgs               
         4     8.78909416E+06   # mA^2(Q)MSSM         
#
BLOCK GAUGE Q=  5.00076572E+03  # The gauge couplings
     1     3.71170716E-01   # gprime(Q) DRbar
     2     6.34389954E-01   # g(Q) DRbar
     3     1.00372172E+00   # g3(Q) DRbar
#
BLOCK AU Q=  5.00076572E+03  # The trilinear couplings
  1  1     5.00000001E+03   # A_u(Q) DRbar
  2  2     5.00000001E+03   # A_c(Q) DRbar
  3  3     5.00000001E+03   # A_t(Q) DRbar
#
BLOCK AD Q=  5.00076572E+03  # The trilinear couplings
  1  1     5.00000000E+03   # A_d(Q) DRbar
  2  2     5.00000000E+03   # A_s(Q) DRbar
  3  3     5.00000001E+03   # A_b(Q) DRbar
#
BLOCK AE Q=  5.00076572E+03  # The trilinear couplings
  1  1     0.00000000E+00   # A_e(Q) DRbar
  2  2     7.97092026E-08   # A_mu(Q) DRbar
  3  3     7.89692333E-08   # A_tau(Q) DRbar
#
BLOCK Yu Q=  5.00076572E+03  # The Yukawa couplings
  1  1     0.00000000E+00   # y_u(Q) DRbar
  2  2     0.00000000E+00   # y_c(Q) DRbar
  3  3     8.17813221E-01   # y_t(Q) DRbar
#
BLOCK Yd Q=  5.00076572E+03  # The Yukawa couplings
  1  1     0.00000000E+00   # y_d(Q) DRbar
  2  2     0.00000000E+00   # y_s(Q) DRbar
  3  3     1.29341958E-01   # y_b(Q) DRbar
#
BLOCK Ye Q=  5.00076572E+03  # The Yukawa couplings
  1  1     0.00000000E+00   # y_e(Q) DRbar
  2  2     0.00000000E+00   # y_mu(Q) DRbar
  3  3     9.73614171E-02   # y_tau(Q) DRbar
#
BLOCK MSOFT Q=  5.00076572E+03  # The soft SUSY breaking masses at the scale Q
         1     6.00000000E+01   # M_1(Q)              
         2     3.00000000E+03   # M_2(Q)              
         3     1.12229200E+03   # M_3(Q)              
        21     8.69766868E+06   # mH1^2(Q)            
        22     5.40698453E+05   # mH2^2(Q)            
        31     5.00000000E+03   # meL(Q)              
        32     5.00000000E+03   # mmuL(Q)             
        33     5.00000000E+03   # mtauL(Q)            
        34     5.00000000E+03   # meR(Q)              
        35     5.00000000E+03   # mmuR(Q)             
        36     5.00000000E+03   # mtauR(Q)            
        41     5.00000000E+03   # mqL1(Q)             
        42     5.00000000E+03   # mqL2(Q)             
        43     5.00000000E+03   # mqL3(Q)             
        44     5.00000000E+03   # muR(Q)              
        45     5.00000000E+03   # mcR(Q)              
        46     5.00000000E+03   # mtR(Q)              
        47     5.00000000E+03   # mdR(Q)              
        48     5.00000000E+03   # msR(Q)              
        49     5.00000000E+03   # mbR(Q)              
#
#
#
#                             =================
#                             |The decay table|
#                             =================
#
# - The QCD corrections to the decays gluino -> squark  + quark
#                                     squark -> gaugino + quark_prime
#                                     squark -> squark_prime + Higgs
#                                     squark -> gluino  + quark
#   are included.
#
# - The multi-body decays for the inos, stops and sbottoms are included.
#
# - The loop induced decays for the gluino, neutralinos and stops
#   are included.
#
# - The SUSY decays of the top quark are included.
#
#
#         PDG            Width
DECAY         6     1.41056634E+00   # top decays
#          BR         NDA      ID1       ID2
     1.00000000E+00    2           5        24   # BR(t ->  b    W+)
#
#         PDG            Width
DECAY   1000021     3.46855779E-04   # gluino decays
#          BR         NDA      ID1       ID2
     5.11296146E-05    2     1000022        21   # BR(~g -> ~chi_10 g)
     1.40335667E-02    2     1000023        21   # BR(~g -> ~chi_20 g)
     1.36945171E-02    2     1000025        21   # BR(~g -> ~chi_30 g)
#           BR         NDA      ID1       ID2       ID3
     1.03351540E-02    3     1000022         1        -1   # BR(~g -> ~chi_10 d  db)
     3.51949608E-04    3     1000023         1        -1   # BR(~g -> ~chi_20 d  db)
     1.60623341E-04    3     1000025         1        -1   # BR(~g -> ~chi_30 d  db)
     3.51733700E-02    3     1000022         2        -2   # BR(~g -> ~chi_10 u  ub)
     1.48086877E-03    3     1000023         2        -2   # BR(~g -> ~chi_20 u  ub)
     3.72035465E-04    3     1000025         2        -2   # BR(~g -> ~chi_30 u  ub)
     1.03351540E-02    3     1000022         3        -3   # BR(~g -> ~chi_10 s  sb)
     3.51949608E-04    3     1000023         3        -3   # BR(~g -> ~chi_20 s  sb)
     1.60623341E-04    3     1000025         3        -3   # BR(~g -> ~chi_30 s  sb)
     3.51733700E-02    3     1000022         4        -4   # BR(~g -> ~chi_10 c  cb)
     1.48086877E-03    3     1000023         4        -4   # BR(~g -> ~chi_20 c  cb)
     3.72035465E-04    3     1000025         4        -4   # BR(~g -> ~chi_30 c  cb)
     1.12505799E-02    3     1000022         5        -5   # BR(~g -> ~chi_10 b  bb)
     5.77092789E-03    3     1000023         5        -5   # BR(~g -> ~chi_20 b  bb)
     5.74051156E-03    3     1000025         5        -5   # BR(~g -> ~chi_30 b  bb)
     2.74430940E-02    3     1000022         6        -6   # BR(~g -> ~chi_10 t  tb)
     2.04824164E-01    3     1000023         6        -6   # BR(~g -> ~chi_20 t  tb)
     1.79351619E-01    3     1000025         6        -6   # BR(~g -> ~chi_30 t  tb)
     5.74574259E-05    3     1000024         1        -2   # BR(~g -> ~chi_1+ d  ub)
     5.74574259E-05    3    -1000024         2        -1   # BR(~g -> ~chi_1- u  db)
     5.74574259E-05    3     1000024         3        -4   # BR(~g -> ~chi_1+ s  cb)
     5.74574259E-05    3    -1000024         4        -3   # BR(~g -> ~chi_1- c  sb)
     2.20931029E-01    3     1000024         5        -6   # BR(~g -> ~chi_1+ b  tb)
     2.20931029E-01    3    -1000024         6        -5   # BR(~g -> ~chi_1- t  bb)
#
#         PDG            Width
DECAY   1000006     3.99288482E+02   # stop1 decays
#          BR         NDA      ID1       ID2
     1.93283711E-02    2     1000022         6   # BR(~t_1 -> ~chi_10 t )
     8.75339339E-02    2     1000023         6   # BR(~t_1 -> ~chi_20 t )
     7.75079668E-02    2     1000025         6   # BR(~t_1 -> ~chi_30 t )
     5.14498386E-03    2     1000035         6   # BR(~t_1 -> ~chi_40 t )
     1.20502532E-01    2     1000024         5   # BR(~t_1 -> ~chi_1+ b )
     1.02571570E-02    2     1000037         5   # BR(~t_1 -> ~chi_2+ b )
     6.79725055E-01    2     1000021         6   # BR(~t_1 -> ~g      t )
#
#         PDG            Width
DECAY   2000006     3.99686748E+02   # stop2 decays
#          BR         NDA      ID1       ID2
     1.07509494E-02    2     1000022         6   # BR(~t_2 -> ~chi_10 t )
     7.86903392E-02    2     1000023         6   # BR(~t_2 -> ~chi_20 t )
     9.06946379E-02    2     1000025         6   # BR(~t_2 -> ~chi_30 t )
     1.39618778E-02    2     1000035         6   # BR(~t_2 -> ~chi_40 t )
     4.95308032E-02    2     1000024         5   # BR(~t_2 -> ~chi_1+ b )
     2.78046738E-02    2     1000037         5   # BR(~t_2 -> ~chi_2+ b )
     7.25497186E-01    2     1000021         6   # BR(~t_2 -> ~g      t )
     7.07180233E-04    2     1000006        25   # BR(~t_2 -> ~t_1    h )
     2.36235216E-03    2     1000006        23   # BR(~t_2 -> ~t_1    Z )
#
#         PDG            Width
DECAY   1000005     3.76228272E+02   # sbottom1 decays
#          BR         NDA      ID1       ID2
     2.24753923E-03    2     1000022         5   # BR(~b_1 -> ~chi_10 b )
     2.03902440E-03    2     1000023         5   # BR(~b_1 -> ~chi_20 b )
     2.17660854E-03    2     1000025         5   # BR(~b_1 -> ~chi_30 b )
     2.01720747E-02    2     1000035         5   # BR(~b_1 -> ~chi_40 b )
     1.77879887E-01    2    -1000024         6   # BR(~b_1 -> ~chi_1- t )
     4.04948718E-02    2    -1000037         6   # BR(~b_1 -> ~chi_2- t )
     7.53500930E-01    2     1000021         5   # BR(~b_1 -> ~g      b )
     1.48906392E-03    2     1000006       -24   # BR(~b_1 -> ~t_1    W-)
#
#         PDG            Width
DECAY   2000005     2.92240949E+02   # sbottom2 decays
#          BR         NDA      ID1       ID2
     9.77194541E-03    2     1000022         5   # BR(~b_2 -> ~chi_10 b )
     3.17313579E-03    2     1000023         5   # BR(~b_2 -> ~chi_20 b )
     3.03995489E-03    2     1000025         5   # BR(~b_2 -> ~chi_30 b )
     2.92860575E-05    2     1000035         5   # BR(~b_2 -> ~chi_40 b )
     6.03893365E-03    2    -1000024         6   # BR(~b_2 -> ~chi_1- t )
     5.88072486E-05    2    -1000037         6   # BR(~b_2 -> ~chi_2- t )
     9.77878439E-01    2     1000021         5   # BR(~b_2 -> ~g      b )
     9.49783075E-06    2     1000006       -24   # BR(~b_2 -> ~t_1    W-)
#
#         PDG            Width
DECAY   1000002     3.11551246E+02   # sup_L decays
#          BR         NDA      ID1       ID2
     2.25878244E-03    2     1000022         2   # BR(~u_L -> ~chi_10 u)
     1.91004069E-04    2     1000023         2   # BR(~u_L -> ~chi_20 u)
     3.04864235E-06    2     1000025         2   # BR(~u_L -> ~chi_30 u)
     2.52580431E-02    2     1000035         2   # BR(~u_L -> ~chi_40 u)
     1.60717098E-04    2     1000024         1   # BR(~u_L -> ~chi_1+ d)
     5.04855461E-02    2     1000037         1   # BR(~u_L -> ~chi_2+ d)
     9.21642859E-01    2     1000021         2   # BR(~u_L -> ~g      u)
#
#         PDG            Width
DECAY   2000002     2.97733277E+02   # sup_R decays
#          BR         NDA      ID1       ID2
     3.78846780E-02    2     1000022         2   # BR(~u_R -> ~chi_10 u)
     1.51337158E-03    2     1000023         2   # BR(~u_R -> ~chi_20 u)
     6.85689659E-04    2     1000025         2   # BR(~u_R -> ~chi_30 u)
     2.65716509E-09    2     1000035         2   # BR(~u_R -> ~chi_40 u)
     9.59916258E-01    2     1000021         2   # BR(~u_R -> ~g      u)
#
#         PDG            Width
DECAY   1000001     3.11561109E+02   # sdown_L decays
#          BR         NDA      ID1       ID2
     2.28295532E-03    2     1000022         1   # BR(~d_L -> ~chi_10 d)
     2.73354674E-05    2     1000023         1   # BR(~d_L -> ~chi_20 d)
     1.22683542E-04    2     1000025         1   # BR(~d_L -> ~chi_30 d)
     2.52732084E-02    2     1000035         1   # BR(~d_L -> ~chi_40 d)
     2.86870228E-07    2    -1000024         2   # BR(~d_L -> ~chi_1- u)
     5.05641253E-02    2    -1000037         2   # BR(~d_L -> ~chi_2- u)
     9.21729405E-01    2     1000021         1   # BR(~d_L -> ~g      d)
#
#         PDG            Width
DECAY   2000001     2.88806265E+02   # sdown_R decays
#          BR         NDA      ID1       ID2
     9.76452930E-03    2     1000022         1   # BR(~d_R -> ~chi_10 d)
     3.90061812E-04    2     1000023         1   # BR(~d_R -> ~chi_20 d)
     1.76732110E-04    2     1000025         1   # BR(~d_R -> ~chi_30 d)
     6.84965750E-10    2     1000035         1   # BR(~d_R -> ~chi_40 d)
     9.89668676E-01    2     1000021         1   # BR(~d_R -> ~g      d)
#
#         PDG            Width
DECAY   1000004     3.11551246E+02   # scharm_L decays
#          BR         NDA      ID1       ID2
     2.25878244E-03    2     1000022         4   # BR(~c_L -> ~chi_10 c)
     1.91004069E-04    2     1000023         4   # BR(~c_L -> ~chi_20 c)
     3.04864235E-06    2     1000025         4   # BR(~c_L -> ~chi_30 c)
     2.52580431E-02    2     1000035         4   # BR(~c_L -> ~chi_40 c)
     1.60717098E-04    2     1000024         3   # BR(~c_L -> ~chi_1+ s)
     5.04855461E-02    2     1000037         3   # BR(~c_L -> ~chi_2+ s)
     9.21642859E-01    2     1000021         4   # BR(~c_L -> ~g      c)
#
#         PDG            Width
DECAY   2000004     2.97733277E+02   # scharm_R decays
#          BR         NDA      ID1       ID2
     3.78846780E-02    2     1000022         4   # BR(~c_R -> ~chi_10 c)
     1.51337158E-03    2     1000023         4   # BR(~c_R -> ~chi_20 c)
     6.85689659E-04    2     1000025         4   # BR(~c_R -> ~chi_30 c)
     2.65716509E-09    2     1000035         4   # BR(~c_R -> ~chi_40 c)
     9.59916258E-01    2     1000021         4   # BR(~c_R -> ~g      c)
#
#         PDG            Width
DECAY   1000003     3.11561109E+02   # sstrange_L decays
#          BR         NDA      ID1       ID2
     2.28295532E-03    2     1000022         3   # BR(~s_L -> ~chi_10 s)
     2.73354674E-05    2     1000023         3   # BR(~s_L -> ~chi_20 s)
     1.22683542E-04    2     1000025         3   # BR(~s_L -> ~chi_30 s)
     2.52732084E-02    2     1000035         3   # BR(~s_L -> ~chi_40 s)
     2.86870228E-07    2    -1000024         4   # BR(~s_L -> ~chi_1- c)
     5.05641253E-02    2    -1000037         4   # BR(~s_L -> ~chi_2- c)
     9.21729405E-01    2     1000021         3   # BR(~s_L -> ~g      s)
#
#         PDG            Width
DECAY   2000003     2.88806265E+02   # sstrange_R decays
#          BR         NDA      ID1       ID2
     9.76452930E-03    2     1000022         3   # BR(~s_R -> ~chi_10 s)
     3.90061812E-04    2     1000023         3   # BR(~s_R -> ~chi_20 s)
     1.76732110E-04    2     1000025         3   # BR(~s_R -> ~chi_30 s)
     6.84965750E-10    2     1000035         3   # BR(~s_R -> ~chi_40 s)
     9.89668676E-01    2     1000021         3   # BR(~s_R -> ~g      s)
#
#         PDG            Width
DECAY   1000011     3.04200414E+01   # selectron_L decays
#          BR         NDA      ID1       ID2
     2.13236911E-01    2     1000022        11   # BR(~e_L -> ~chi_10 e-)
     1.12894797E-02    2     1000023        11   # BR(~e_L -> ~chi_20 e-)
     2.21767876E-03    2     1000025        11   # BR(~e_L -> ~chi_30 e-)
     2.57581994E-01    2     1000035        11   # BR(~e_L -> ~chi_40 e-)
     2.99751794E-06    2    -1000024        12   # BR(~e_L -> ~chi_1- nu_e)
     5.15670939E-01    2    -1000037        12   # BR(~e_L -> ~chi_2- nu_e)
#
#         PDG            Width
DECAY   2000011     2.74285190E+01   # selectron_R decays
#          BR         NDA      ID1       ID2
     9.45151274E-01    2     1000022        11   # BR(~e_R -> ~chi_10 e-)
     3.77463083E-02    2     1000023        11   # BR(~e_R -> ~chi_20 e-)
     1.71023525E-02    2     1000025        11   # BR(~e_R -> ~chi_30 e-)
     6.48165803E-08    2     1000035        11   # BR(~e_R -> ~chi_40 e-)
#
#         PDG            Width
DECAY   1000013     3.04200414E+01   # smuon_L decays
#          BR         NDA      ID1       ID2
     2.13236911E-01    2     1000022        13   # BR(~mu_L -> ~chi_10 mu-)
     1.12894797E-02    2     1000023        13   # BR(~mu_L -> ~chi_20 mu-)
     2.21767876E-03    2     1000025        13   # BR(~mu_L -> ~chi_30 mu-)
     2.57581994E-01    2     1000035        13   # BR(~mu_L -> ~chi_40 mu-)
     2.99751794E-06    2    -1000024        14   # BR(~mu_L -> ~chi_1- nu_mu)
     5.15670939E-01    2    -1000037        14   # BR(~mu_L -> ~chi_2- nu_mu)
#
#         PDG            Width
DECAY   2000013     2.74285190E+01   # smuon_R decays
#          BR         NDA      ID1       ID2
     9.45151274E-01    2     1000022        13   # BR(~mu_R -> ~chi_10 mu-)
     3.77463083E-02    2     1000023        13   # BR(~mu_R -> ~chi_20 mu-)
     1.71023525E-02    2     1000025        13   # BR(~mu_R -> ~chi_30 mu-)
     6.48165803E-08    2     1000035        13   # BR(~mu_R -> ~chi_40 mu-)
#
#         PDG            Width
DECAY   1000015     2.93045651E+01   # stau_1 decays
#          BR         NDA      ID1       ID2
     8.86684992E-01    2     1000022        15   # BR(~tau_1 -> ~chi_10  tau-)
     4.98608720E-02    2     1000023        15   # BR(~tau_1 -> ~chi_20  tau-)
     3.09795519E-02    2     1000025        15   # BR(~tau_1 -> ~chi_30  tau-)
     1.33182060E-04    2     1000035        15   # BR(~tau_1 -> ~chi_40  tau-)
     3.20749251E-02    2    -1000024        16   # BR(~tau_1 -> ~chi_1-  nu_tau)
     2.66476640E-04    2    -1000037        16   # BR(~tau_1 -> ~chi_2-  nu_tau)
#
#         PDG            Width
DECAY   2000015     3.13535511E+01   # stau_2 decays
#          BR         NDA      ID1       ID2
     2.07961952E-01    2     1000022        15   # BR(~tau_2 -> ~chi_10  tau-)
     2.54154575E-02    2     1000023        15   # BR(~tau_2 -> ~chi_20  tau-)
     1.70103304E-02    2     1000025        15   # BR(~tau_2 -> ~chi_30  tau-)
     2.49696615E-01    2     1000035        15   # BR(~tau_2 -> ~chi_40  tau-)
     3.08458598E-05    2    -1000024        16   # BR(~tau_2 -> ~chi_1-  nu_tau)
     4.99884799E-01    2    -1000037        16   # BR(~tau_2 -> ~chi_2-  nu_tau)
#
#         PDG            Width
DECAY   1000012     3.04229833E+01   # snu_eL decays
#          BR         NDA      ID1       ID2
     2.13929026E-01    2     1000022        12   # BR(~nu_eL -> ~chi_10 nu_e)
     6.15682652E-03    2     1000023        12   # BR(~nu_eL -> ~chi_20 nu_e)
     5.96612915E-03    2     1000025        12   # BR(~nu_eL -> ~chi_30 nu_e)
     2.57637088E-01    2     1000035        12   # BR(~nu_eL -> ~chi_40 nu_e)
     1.67896280E-03    2     1000024        11   # BR(~nu_eL -> ~chi_1+ e-)
     5.14631968E-01    2     1000037        11   # BR(~nu_eL -> ~chi_2+ e-)
#
#         PDG            Width
DECAY   1000014     3.04229833E+01   # snu_muL decays
#          BR         NDA      ID1       ID2
     2.13929026E-01    2     1000022        14   # BR(~nu_muL -> ~chi_10 nu_mu)
     6.15682652E-03    2     1000023        14   # BR(~nu_muL -> ~chi_20 nu_mu)
     5.96612915E-03    2     1000025        14   # BR(~nu_muL -> ~chi_30 nu_mu)
     2.57637088E-01    2     1000035        14   # BR(~nu_muL -> ~chi_40 nu_mu)
     1.67896280E-03    2     1000024        13   # BR(~nu_muL -> ~chi_1+ mu-)
     5.14631968E-01    2     1000037        13   # BR(~nu_muL -> ~chi_2+ mu-)
#
#         PDG            Width
DECAY   1000016     3.13566211E+01   # snu_tauL decays
#          BR         NDA      ID1       ID2
     2.07536357E-01    2     1000022        16   # BR(~nu_tauL -> ~chi_10 nu_tau)
     5.97284301E-03    2     1000023        16   # BR(~nu_tauL -> ~chi_20 nu_tau)
     5.78784419E-03    2     1000025        16   # BR(~nu_tauL -> ~chi_30 nu_tau)
     2.49871897E-01    2     1000035        16   # BR(~nu_tauL -> ~chi_40 nu_tau)
     3.17102733E-02    2     1000024        15   # BR(~nu_tauL -> ~chi_1+ tau-)
     4.99120785E-01    2     1000037        15   # BR(~nu_tauL -> ~chi_2+ tau-)
#
#         PDG            Width
DECAY   1000024     8.36301422E-02   # chargino1+ decays
#          BR         NDA      ID1       ID2
     1.00000000E+00    2     1000022        24   # BR(~chi_1+ -> ~chi_10  W+)
#
#         PDG            Width
DECAY   1000037     2.33091793E+01   # chargino2+ decays
#          BR         NDA      ID1       ID2
     2.53786182E-01    2     1000024        23   # BR(~chi_2+ -> ~chi_1+  Z )
     7.56058306E-04    2     1000022        24   # BR(~chi_2+ -> ~chi_10  W+)
     2.44866100E-01    2     1000023        24   # BR(~chi_2+ -> ~chi_20  W+)
     2.44892724E-01    2     1000025        24   # BR(~chi_2+ -> ~chi_30  W+)
     2.55661421E-01    2     1000024        25   # BR(~chi_2+ -> ~chi_1+  h )
     3.75143838E-05    2     1000022        37   # BR(~chi_2+ -> ~chi_10  H+)
#
#         PDG            Width
DECAY   1000022     0.00000000E+00   # neutralino1 decays
#
#         PDG            Width
DECAY   1000023     6.60403585E-02   # neutralino2 decays
#          BR         NDA      ID1       ID2
     5.80199806E-01    2     1000022        23   # BR(~chi_20 -> ~chi_10   Z )
     4.19800194E-01    2     1000022        25   # BR(~chi_20 -> ~chi_10   h )
#
#         PDG            Width
DECAY   1000025     4.89143649E-02   # neutralino3 decays
#          BR         NDA      ID1       ID2
     9.00796808E-01    2     1000022        23   # BR(~chi_30 -> ~chi_10   Z )
     9.92031921E-02    2     1000022        25   # BR(~chi_30 -> ~chi_10   h )
#
#         PDG            Width
DECAY   1000035     2.33114336E+01   # neutralino4 decays
#          BR         NDA      ID1       ID2
     7.78416232E-04    2     1000022        23   # BR(~chi_40 -> ~chi_10   Z )
     1.35968930E-01    2     1000023        23   # BR(~chi_40 -> ~chi_20   Z )
     1.16855774E-01    2     1000025        23   # BR(~chi_40 -> ~chi_30   Z )
     2.45470796E-01    2     1000024       -24   # BR(~chi_40 -> ~chi_1+   W-)
     2.45470796E-01    2    -1000024        24   # BR(~chi_40 -> ~chi_1-   W+)
     1.15832073E-05    2     1000022        25   # BR(~chi_40 -> ~chi_10   h )
     3.59889570E-05    2     1000022        35   # BR(~chi_40 -> ~chi_10   H )
     3.92997963E-06    2     1000022        36   # BR(~chi_40 -> ~chi_10   A )
     1.18305853E-01    2     1000023        25   # BR(~chi_40 -> ~chi_20   h )
     1.37097932E-01    2     1000025        25   # BR(~chi_40 -> ~chi_30   h )
#
#         PDG            Width
DECAY        25     4.06178333E-03   # h decays
#          BR         NDA      ID1       ID2
     6.13413017E-01    2           5        -5   # BR(h -> b       bb     )
     6.37547131E-02    2         -15        15   # BR(h -> tau+    tau-   )
     2.25715823E-04    2         -13        13   # BR(h -> mu+     mu-    )
     4.78666073E-04    2           3        -3   # BR(h -> s       sb     )
     2.07383504E-02    2           4        -4   # BR(h -> c       cb     )
     6.68342667E-02    2          21        21   # BR(h -> g       g      )
     2.28977981E-03    2          22        22   # BR(h -> gam     gam    )
     1.45996318E-03    2          22        23   # BR(h -> Z       gam    )
     2.05280519E-01    2          24       -24   # BR(h -> W+      W-     )
     2.43520264E-02    2          23        23   # BR(h -> Z       Z      )
     1.17298213E-03    2     1000022   1000022   # BR(h -> ~chi_10 ~chi_10)
#
#         PDG            Width
DECAY        35     8.82124297E+00   # H decays
#          BR         NDA      ID1       ID2
     3.59588694E-01    2           5        -5   # BR(H -> b       bb     )
     6.31696961E-02    2         -15        15   # BR(H -> tau+    tau-   )
     2.23373063E-04    2         -13        13   # BR(H -> mu+     mu-    )
     2.73821043E-04    2           3        -3   # BR(H -> s       sb     )
     1.53122813E-06    2           4        -4   # BR(H -> c       cb     )
     1.52981827E-01    2           6        -6   # BR(H -> t       tb     )
     5.08976065E-05    2          21        21   # BR(H -> g       g      )
     1.46552918E-07    2          22        22   # BR(H -> gam     gam    )
     9.01810465E-08    2          23        22   # BR(H -> Z       gam    )
     7.47799387E-05    2          24       -24   # BR(H -> W+      W-     )
     3.73426206E-05    2          23        23   # BR(H -> Z       Z      )
     2.66535507E-04    2          25        25   # BR(H -> h       h      )
    -5.02082155E-23    2          36        36   # BR(H -> A       A      )
     1.11412569E-18    2          23        36   # BR(H -> Z       A      )
     3.48227079E-03    2     1000024  -1000024   # BR(H -> ~chi_1+ ~chi_1-)
     4.37188842E-02    2     1000022   1000022   # BR(H -> ~chi_10 ~chi_10)
     1.24590554E-02    2     1000023   1000023   # BR(H -> ~chi_20 ~chi_20)
     8.48686537E-03    2     1000025   1000025   # BR(H -> ~chi_30 ~chi_30)
     2.02288280E-01    2     1000022   1000023   # BR(H -> ~chi_10 ~chi_20)
     1.31694532E-01    2     1000022   1000025   # BR(H -> ~chi_10 ~chi_30)
     2.12013768E-02    2     1000023   1000025   # BR(H -> ~chi_20 ~chi_30)
#
#         PDG            Width
DECAY        36     8.82625216E+00   # A decays
#          BR         NDA      ID1       ID2
     3.59507829E-01    2           5        -5   # BR(A -> b       bb     )
     6.31356724E-02    2         -15        15   # BR(A -> tau+    tau-   )
     2.23252440E-04    2         -13        13   # BR(A -> mu+     mu-    )
     2.73873250E-04    2           3        -3   # BR(A -> s       sb     )
     1.53638959E-06    2           4        -4   # BR(A -> c       cb     )
     1.53412798E-01    2           6        -6   # BR(A -> t       tb     )
     1.51830127E-04    2          21        21   # BR(A -> g       g      )
     5.33244889E-07    2          22        22   # BR(A -> gam     gam    )
     1.83627117E-07    2          23        22   # BR(A -> Z       gam    )
     7.44556595E-05    2          23        25   # BR(A -> Z       h      )
     3.60721425E-03    2     1000024  -1000024   # BR(A -> ~chi_1+ ~chi_1-)
     4.02627191E-02    2     1000022   1000022   # BR(A -> ~chi_10 ~chi_10)
     8.19458001E-03    2     1000023   1000023   # BR(A -> ~chi_20 ~chi_20)
     1.33447370E-02    2     1000025   1000025   # BR(A -> ~chi_30 ~chi_30)
     1.28513327E-01    2     1000022   1000023   # BR(A -> ~chi_10 ~chi_20)
     2.08521639E-01    2     1000022   1000025   # BR(A -> ~chi_10 ~chi_30)
     2.07738199E-02    2     1000023   1000025   # BR(A -> ~chi_20 ~chi_30)
#
#         PDG            Width
DECAY        37     8.75474462E+00   # H+ decays
#          BR         NDA      ID1       ID2
     5.74788156E-04    2           4        -5   # BR(H+ -> c       bb     )
     6.36828081E-02    2         -15        16   # BR(H+ -> tau+    nu_tau )
     2.25187153E-04    2         -13        14   # BR(H+ -> mu+     nu_mu  )
     3.67862474E-06    2           2        -5   # BR(H+ -> u       bb     )
     1.32131657E-05    2           2        -3   # BR(H+ -> u       sb     )
     2.73248424E-04    2           4        -3   # BR(H+ -> c       sb     )
     5.10718908E-01    2           6        -5   # BR(H+ -> t       bb     )
     7.52236124E-05    2          24        25   # BR(H+ -> W+      h      )
     1.07446302E-12    2          24        36   # BR(H+ -> W+      A      )
     3.98386653E-01    2     1000024   1000022   # BR(H+ -> ~chi_1+ ~chi_10)
     2.17983191E-02    2     1000024   1000023   # BR(H+ -> ~chi_1+ ~chi_20)
     4.24797213E-03    2     1000024   1000025   # BR(H+ -> ~chi_1+ ~chi_30)
