#
#                              ======================
#                              | THE SUSYHIT OUTPUT |
#                              ======================
#
#
#              ------------------------------------------------------
#              |     This is the output of the SUSY-HIT package     |
#              |  created by A.Djouadi, M.Muehlleitner and M.Spira. |
#              |  In case of problems with SUSY-HIT email to        |
#              |           margarete.muehlleitner@cern.ch           |
#              |           michael.spira@psi.ch                     |
#              |           abdelhak.djouadi@cern.ch                 |
#              ------------------------------------------------------
#
#              ------------------------------------------------------
#              |  SUSY Les Houches Accord - MSSM Spectrum + Decays  |
#              |              based on the decay programs           |
#              |                                                    |
#              |                     SDECAY 1.3b                    |
#              |                                                    |
#              |  Authors: M.Muhlleitner, A.Djouadi and Y.Mambrini  |
#              |  Ref.:    Comput.Phys.Commun.168(2005)46           |
#              |           [hep-ph/0311167]                         |
#              |                                                    |
#              |                     HDECAY 3.4                     |
#              |                                                    |
#              |  By: A.Djouadi,J.Kalinowski,M.Muhlleitner,M.Spira  |
#              |  Ref.:    Comput.Phys.Commun.108(1998)56           |
#              |           [hep-ph/9704448]                         |
#              |                                                    |
#              |                                                    |
#              |  If not stated otherwise all DRbar couplings and   |
#              |  soft SUSY breaking masses are given at the scale  |
#              |  Q=  0.50007609E+04
#              |                                                    |
#              ------------------------------------------------------
#
#
BLOCK DCINFO  # Decay Program information
     1   SDECAY/HDECAY # decay calculator
     2   1.3b  /3.4    # version number
#
BLOCK SPINFO  # Spectrum calculator information
     1    SOFTSUSY    # spectrum calculator                
     2    3.4.0       # version number                     
#
BLOCK MODSEL  # Model selection
     1     0   #  nonUniversal                                     
#
BLOCK SMINPUTS  # Standard Model inputs
         1     1.25778332E+02   # alpha_em^-1(M_Z)^MSbar
         2     1.16570000E-05   # G_F [GeV^-2]
         3     1.17200002E-01   # alpha_S(M_Z)^MSbar
         4     9.11876000E+01   # M_Z pole mass
         5     4.25000000E+00   # mb(mb)^MSbar
         6     1.72500000E+02   # mt pole mass
         7     1.77682000E+00   # mtau pole mass
#
BLOCK MINPAR  # Input parameters - minimal models
         3     1.00000000E+01   # tanb                
#
BLOCK EXTPAR  # Input parameters - non-minimal models
         0    -1.00000000E+00   # Set                 
         1     6.00000000E+01   # M_1(MX)             
         2     3.00000000E+03   # M_2(MX)             
         3     8.59140000E+02   # M_3(MX)             
        11     5.00000000E+03   # At(MX)              
        12     5.00000000E+03   # Ab(MX)              
        13     0.00000000E+00   # Atau(MX)            
        23    -1.87351000E+02   # mu(MX)              
        26     3.00000000E+03   # mA(pole)            
        31     5.00000000E+03   # meL(MX)             
        32     5.00000000E+03   # mmuL(MX)            
        33     5.00000000E+03   # mtauL(MX)           
        34     5.00000000E+03   # meR(MX)             
        35     5.00000000E+03   # mmuR(MX)            
        36     5.00000000E+03   # mtauR(MX)           
        41     5.00000000E+03   # mqL1(MX)            
        42     5.00000000E+03   # mqL2(MX)            
        43     5.00000000E+03   # mqL3(MX)            
        44     5.00000000E+03   # muR(MX)             
        45     5.00000000E+03   # mcR(MX)             
        46     5.00000000E+03   # mtR(MX)             
        47     5.00000000E+03   # mdR(MX)             
        48     5.00000000E+03   # msR(MX)             
        49     5.00000000E+03   # mbR(MX)             
#
BLOCK MASS  # Mass Spectrum
# PDG code           mass       particle
        24     8.00884190E+01   # W+
        25     1.24376131E+02   # h
        35     3.00009041E+03   # H
        36     2.99999978E+03   # A
        37     3.00148242E+03   # H+
         5     4.87878001E+00   # b-quark pole mass calculated from mb(mb)_Msbar
   1000001     5.06431004E+03   # ~d_L
   2000001     5.04637985E+03   # ~d_R
   1000002     5.06383124E+03   # ~u_L
   2000002     5.04606821E+03   # ~u_R
   1000003     5.06431004E+03   # ~s_L
   2000003     5.04637985E+03   # ~s_R
   1000004     5.06383124E+03   # ~c_L
   2000004     5.04606821E+03   # ~c_R
   1000005     5.01090184E+03   # ~b_1
   2000005     5.04449896E+03   # ~b_2
   1000006     4.90151788E+03   # ~t_1
   2000006     5.05524934E+03   # ~t_2
   1000011     5.01916678E+03   # ~e_L
   2000011     5.00596092E+03   # ~e_R
   1000012     5.01821346E+03   # ~nu_eL
   1000013     5.01916678E+03   # ~mu_L
   2000013     5.00596092E+03   # ~mu_R
   1000014     5.01821346E+03   # ~nu_muL
   1000015     5.00483316E+03   # ~tau_1
   2000015     5.01863198E+03   # ~tau_2
   1000016     5.01765834E+03   # ~nu_tauL
   1000021     1.10000036E+03   # ~g
   1000022     5.87048603E+01   # ~chi_10
   1000023     2.04233410E+02   # ~chi_20
   1000025    -2.05086640E+02   # ~chi_30
   1000035     3.07432031E+03   # ~chi_40
   1000024     2.00000439E+02   # ~chi_1+
   1000037     3.07448853E+03   # ~chi_2+
#
BLOCK NMIX  # Neutralino Mixing Matrix
  1  1     9.72101737E-01   # N_11
  1  2    -5.01811264E-04   # N_12
  1  3    -2.30132729E-01   # N_13
  1  4    -4.53529286E-02   # N_14
  2  1     1.94584681E-01   # N_21
  2  2     1.71181644E-02   # N_22
  2  3     6.83251559E-01   # N_23
  2  4     7.03570236E-01   # N_24
  3  1    -1.30976515E-01   # N_31
  3  2     1.85874268E-02   # N_32
  3  3    -6.92968318E-01   # N_33
  3  4     7.08727430E-01   # N_34
  4  1    -4.08735129E-04   # N_41
  4  2     9.99680561E-01   # N_42
  4  3     1.06934378E-03   # N_43
  4  4    -2.52480740E-02   # N_44
#
BLOCK UMIX  # Chargino Mixing Matrix U
  1  1    -1.50833195E-03   # U_11
  1  2     9.99998862E-01   # U_12
  2  1    -9.99998862E-01   # U_21
  2  2    -1.50833195E-03   # U_22
#
BLOCK VMIX  # Chargino Mixing Matrix V
  1  1     3.57159475E-02   # V_11
  1  2    -9.99361982E-01   # V_12
  2  1    -9.99361982E-01   # V_21
  2  2    -3.57159475E-02   # V_22
#
BLOCK STOPMIX  # Stop Mixing Matrix
  1  1    -5.05600632E-01   # cos(theta_t)
  1  2     8.62767640E-01   # sin(theta_t)
  2  1    -8.62767640E-01   # -sin(theta_t)
  2  2    -5.05600632E-01   # cos(theta_t)
#
BLOCK SBOTMIX  # Sbottom Mixing Matrix
  1  1     9.99373410E-01   # cos(theta_b)
  1  2    -3.53947367E-02   # sin(theta_b)
  2  1     3.53947367E-02   # -sin(theta_b)
  2  2     9.99373410E-01   # cos(theta_b)
#
BLOCK STAUMIX  # Stau Mixing Matrix
  1  1    -2.21920545E-02   # cos(theta_tau)
  1  2     9.99753726E-01   # sin(theta_tau)
  2  1    -9.99753726E-01   # -sin(theta_tau)
  2  2    -2.21920545E-02   # cos(theta_tau)
#
BLOCK ALPHA  # Higgs mixing
          -1.05450719E-01   # Mixing angle in the neutral Higgs boson sector
#
BLOCK HMIX Q=  5.00076091E+03  # DRbar Higgs Parameters
         1    -1.90680337E+02   # mu(Q)MSSM           
         2     9.47262847E+00   # tan                 
         3     2.41723932E+02   # higgs               
         4     8.78863300E+06   # mA^2(Q)MSSM         
#
BLOCK GAUGE Q=  5.00076091E+03  # The gauge couplings
     1     3.71176598E-01   # gprime(Q) DRbar
     2     6.34402880E-01   # g(Q) DRbar
     3     1.00724946E+00   # g3(Q) DRbar
#
BLOCK AU Q=  5.00076091E+03  # The trilinear couplings
  1  1     5.00000001E+03   # A_u(Q) DRbar
  2  2     5.00000001E+03   # A_c(Q) DRbar
  3  3     5.00000001E+03   # A_t(Q) DRbar
#
BLOCK AD Q=  5.00076091E+03  # The trilinear couplings
  1  1     5.00000000E+03   # A_d(Q) DRbar
  2  2     5.00000000E+03   # A_s(Q) DRbar
  3  3     5.00000001E+03   # A_b(Q) DRbar
#
BLOCK AE Q=  5.00076091E+03  # The trilinear couplings
  1  1     0.00000000E+00   # A_e(Q) DRbar
  2  2     3.20766868E-08   # A_mu(Q) DRbar
  3  3     3.11477253E-08   # A_tau(Q) DRbar
#
BLOCK Yu Q=  5.00076091E+03  # The Yukawa couplings
  1  1     0.00000000E+00   # y_u(Q) DRbar
  2  2     0.00000000E+00   # y_c(Q) DRbar
  3  3     8.15681925E-01   # y_t(Q) DRbar
#
BLOCK Yd Q=  5.00076091E+03  # The Yukawa couplings
  1  1     0.00000000E+00   # y_d(Q) DRbar
  2  2     0.00000000E+00   # y_s(Q) DRbar
  3  3     1.29040168E-01   # y_b(Q) DRbar
#
BLOCK Ye Q=  5.00076091E+03  # The Yukawa couplings
  1  1     0.00000000E+00   # y_e(Q) DRbar
  2  2     0.00000000E+00   # y_mu(Q) DRbar
  3  3     9.73672040E-02   # y_tau(Q) DRbar
#
BLOCK MSOFT Q=  5.00076091E+03  # The soft SUSY breaking masses at the scale Q
         1     6.00000000E+01   # M_1(Q)              
         2     3.00000000E+03   # M_2(Q)              
         3     8.59140000E+02   # M_3(Q)              
        21     8.69758152E+06   # mH1^2(Q)            
        22     5.38889309E+05   # mH2^2(Q)            
        31     5.00000000E+03   # meL(Q)              
        32     5.00000000E+03   # mmuL(Q)             
        33     5.00000000E+03   # mtauL(Q)            
        34     5.00000000E+03   # meR(Q)              
        35     5.00000000E+03   # mmuR(Q)             
        36     5.00000000E+03   # mtauR(Q)            
        41     5.00000000E+03   # mqL1(Q)             
        42     5.00000000E+03   # mqL2(Q)             
        43     5.00000000E+03   # mqL3(Q)             
        44     5.00000000E+03   # muR(Q)              
        45     5.00000000E+03   # mcR(Q)              
        46     5.00000000E+03   # mtR(Q)              
        47     5.00000000E+03   # mdR(Q)              
        48     5.00000000E+03   # msR(Q)              
        49     5.00000000E+03   # mbR(Q)              
#
#
#
#                             =================
#                             |The decay table|
#                             =================
#
# - The QCD corrections to the decays gluino -> squark  + quark
#                                     squark -> gaugino + quark_prime
#                                     squark -> squark_prime + Higgs
#                                     squark -> gluino  + quark
#   are included.
#
# - The multi-body decays for the inos, stops and sbottoms are included.
#
# - The loop induced decays for the gluino, neutralinos and stops
#   are included.
#
# - The SUSY decays of the top quark are included.
#
#
#         PDG            Width
DECAY         6     1.41067035E+00   # top decays
#          BR         NDA      ID1       ID2
     1.00000000E+00    2           5        24   # BR(t ->  b    W+)
#
#         PDG            Width
DECAY   1000021     8.55568724E-05   # gluino decays
#          BR         NDA      ID1       ID2
     1.01184493E-04    2     1000022        21   # BR(~g -> ~chi_10 g)
     2.60106792E-02    2     1000023        21   # BR(~g -> ~chi_20 g)
     2.53879502E-02    2     1000025        21   # BR(~g -> ~chi_30 g)
#           BR         NDA      ID1       ID2       ID3
     1.24759427E-02    3     1000022         1        -1   # BR(~g -> ~chi_10 d  db)
     3.95660001E-04    3     1000023         1        -1   # BR(~g -> ~chi_20 d  db)
     1.63970657E-04    3     1000025         1        -1   # BR(~g -> ~chi_30 d  db)
     4.24579074E-02    3     1000022         2        -2   # BR(~g -> ~chi_10 u  ub)
     1.66480011E-03    3     1000023         2        -2   # BR(~g -> ~chi_20 u  ub)
     3.79754542E-04    3     1000025         2        -2   # BR(~g -> ~chi_30 u  ub)
     1.24759427E-02    3     1000022         3        -3   # BR(~g -> ~chi_10 s  sb)
     3.95660001E-04    3     1000023         3        -3   # BR(~g -> ~chi_20 s  sb)
     1.63970657E-04    3     1000025         3        -3   # BR(~g -> ~chi_30 s  sb)
     4.24579074E-02    3     1000022         4        -4   # BR(~g -> ~chi_10 c  cb)
     1.66480011E-03    3     1000023         4        -4   # BR(~g -> ~chi_20 c  cb)
     3.79754542E-04    3     1000025         4        -4   # BR(~g -> ~chi_30 c  cb)
     1.35849701E-02    3     1000022         5        -5   # BR(~g -> ~chi_10 b  bb)
     6.22744151E-03    3     1000023         5        -5   # BR(~g -> ~chi_20 b  bb)
     6.17061951E-03    3     1000025         5        -5   # BR(~g -> ~chi_30 b  bb)
     2.72501621E-02    3     1000022         6        -6   # BR(~g -> ~chi_10 t  tb)
     1.89719946E-01    3     1000023         6        -6   # BR(~g -> ~chi_20 t  tb)
     1.52487222E-01    3     1000025         6        -6   # BR(~g -> ~chi_30 t  tb)
     6.23407851E-05    3     1000024         1        -2   # BR(~g -> ~chi_1+ d  ub)
     6.23407851E-05    3    -1000024         2        -1   # BR(~g -> ~chi_1- u  db)
     6.23407851E-05    3     1000024         3        -4   # BR(~g -> ~chi_1+ s  cb)
     6.23407851E-05    3    -1000024         4        -3   # BR(~g -> ~chi_1- c  sb)
     2.18867195E-01    3     1000024         5        -6   # BR(~g -> ~chi_1+ b  tb)
     2.18867195E-01    3    -1000024         6        -5   # BR(~g -> ~chi_1- t  bb)
#
#         PDG            Width
DECAY   1000006     4.19169854E+02   # stop1 decays
#          BR         NDA      ID1       ID2
     1.83625128E-02    2     1000022         6   # BR(~t_1 -> ~chi_10 t )
     8.30807787E-02    2     1000023         6   # BR(~t_1 -> ~chi_20 t )
     7.35126408E-02    2     1000025         6   # BR(~t_1 -> ~chi_30 t )
     4.93418105E-03    2     1000035         6   # BR(~t_1 -> ~chi_40 t )
     1.13956511E-01    2     1000024         5   # BR(~t_1 -> ~chi_1+ b )
     9.83700555E-03    2     1000037         5   # BR(~t_1 -> ~chi_2+ b )
     6.96316370E-01    2     1000021         6   # BR(~t_1 -> ~g      t )
#
#         PDG            Width
DECAY   2000006     4.17727321E+02   # stop2 decays
#          BR         NDA      ID1       ID2
     1.03501169E-02    2     1000022         6   # BR(~t_2 -> ~chi_10 t )
     7.49381428E-02    2     1000023         6   # BR(~t_2 -> ~chi_20 t )
     8.64298983E-02    2     1000025         6   # BR(~t_2 -> ~chi_30 t )
     1.32951098E-02    2     1000035         6   # BR(~t_2 -> ~chi_40 t )
     4.75634553E-02    2     1000024         5   # BR(~t_2 -> ~chi_1+ b )
     2.64770982E-02    2     1000037         5   # BR(~t_2 -> ~chi_2+ b )
     7.37990350E-01    2     1000021         6   # BR(~t_2 -> ~g      t )
     6.76506554E-04    2     1000006        25   # BR(~t_2 -> ~t_1    h )
     2.27932209E-03    2     1000006        23   # BR(~t_2 -> ~t_1    Z )
#
#         PDG            Width
DECAY   1000005     3.95180058E+02   # sbottom1 decays
#          BR         NDA      ID1       ID2
     2.14234819E-03    2     1000022         5   # BR(~b_1 -> ~chi_10 b )
     1.93286178E-03    2     1000023         5   # BR(~b_1 -> ~chi_20 b )
     2.06369197E-03    2     1000025         5   # BR(~b_1 -> ~chi_30 b )
     1.91745840E-02    2     1000035         5   # BR(~b_1 -> ~chi_40 b )
     1.68626894E-01    2    -1000024         6   # BR(~b_1 -> ~chi_1- t )
     3.84919269E-02    2    -1000037         6   # BR(~b_1 -> ~chi_2- t )
     7.66147602E-01    2     1000021         5   # BR(~b_1 -> ~g      b )
     1.42009119E-03    2     1000006       -24   # BR(~b_1 -> ~t_1    W-)
#
#         PDG            Width
DECAY   2000005     3.11397803E+02   # sbottom2 decays
#          BR         NDA      ID1       ID2
     9.17070317E-03    2     1000022         5   # BR(~b_2 -> ~chi_10 b )
     2.97002469E-03    2     1000023         5   # BR(~b_2 -> ~chi_20 b )
     2.84468649E-03    2     1000025         5   # BR(~b_2 -> ~chi_30 b )
     2.85323329E-05    2     1000035         5   # BR(~b_2 -> ~chi_40 b )
     5.65538382E-03    2    -1000024         6   # BR(~b_2 -> ~chi_1- t )
     5.72912207E-05    2    -1000037         6   # BR(~b_2 -> ~chi_2- t )
     9.79264386E-01    2     1000021         5   # BR(~b_2 -> ~g      b )
     8.99262828E-06    2     1000006       -24   # BR(~b_2 -> ~t_1    W-)
#
#         PDG            Width
DECAY   1000002     3.30623378E+02   # sup_L decays
#          BR         NDA      ID1       ID2
     2.12941674E-03    2     1000022         2   # BR(~u_L -> ~chi_10 u)
     1.80095023E-04    2     1000023         2   # BR(~u_L -> ~chi_20 u)
     2.87397206E-06    2     1000025         2   # BR(~u_L -> ~chi_30 u)
     2.37618615E-02    2     1000035         2   # BR(~u_L -> ~chi_40 u)
     1.51538778E-04    2     1000024         1   # BR(~u_L -> ~chi_1+ d)
     4.74949760E-02    2     1000037         1   # BR(~u_L -> ~chi_2+ d)
     9.26279238E-01    2     1000021         2   # BR(~u_L -> ~g      u)
#
#         PDG            Width
DECAY   2000002     3.16901832E+02   # sup_R decays
#          BR         NDA      ID1       ID2
     3.56090250E-02    2     1000022         2   # BR(~u_R -> ~chi_10 u)
     1.42267978E-03    2     1000023         2   # BR(~u_R -> ~chi_20 u)
     6.44562579E-04    2     1000025         2   # BR(~u_R -> ~chi_30 u)
     2.49310284E-09    2     1000035         2   # BR(~u_R -> ~chi_40 u)
     9.62323730E-01    2     1000021         2   # BR(~u_R -> ~g      u)
#
#         PDG            Width
DECAY   1000001     3.30631825E+02   # sdown_L decays
#          BR         NDA      ID1       ID2
     2.15223104E-03    2     1000022         1   # BR(~d_L -> ~chi_10 d)
     2.57730411E-05    2     1000023         1   # BR(~d_L -> ~chi_20 d)
     1.15671423E-04    2     1000025         1   # BR(~d_L -> ~chi_30 d)
     2.37762986E-02    2     1000035         1   # BR(~d_L -> ~chi_40 d)
     2.70286044E-07    2    -1000024         2   # BR(~d_L -> ~chi_1- u)
     4.75692514E-02    2    -1000037         2   # BR(~d_L -> ~chi_2- u)
     9.26360504E-01    2     1000021         1   # BR(~d_L -> ~g      d)
#
#         PDG            Width
DECAY   2000001     3.07969851E+02   # sdown_R decays
#          BR         NDA      ID1       ID2
     9.16101416E-03    2     1000022         1   # BR(~d_R -> ~chi_10 d)
     3.66008173E-04    2     1000023         1   # BR(~d_R -> ~chi_20 d)
     1.65824507E-04    2     1000025         1   # BR(~d_R -> ~chi_30 d)
     6.41485010E-10    2     1000035         1   # BR(~d_R -> ~chi_40 d)
     9.90307153E-01    2     1000021         1   # BR(~d_R -> ~g      d)
#
#         PDG            Width
DECAY   1000004     3.30623378E+02   # scharm_L decays
#          BR         NDA      ID1       ID2
     2.12941674E-03    2     1000022         4   # BR(~c_L -> ~chi_10 c)
     1.80095023E-04    2     1000023         4   # BR(~c_L -> ~chi_20 c)
     2.87397206E-06    2     1000025         4   # BR(~c_L -> ~chi_30 c)
     2.37618615E-02    2     1000035         4   # BR(~c_L -> ~chi_40 c)
     1.51538778E-04    2     1000024         3   # BR(~c_L -> ~chi_1+ s)
     4.74949760E-02    2     1000037         3   # BR(~c_L -> ~chi_2+ s)
     9.26279238E-01    2     1000021         4   # BR(~c_L -> ~g      c)
#
#         PDG            Width
DECAY   2000004     3.16901832E+02   # scharm_R decays
#          BR         NDA      ID1       ID2
     3.56090250E-02    2     1000022         4   # BR(~c_R -> ~chi_10 c)
     1.42267978E-03    2     1000023         4   # BR(~c_R -> ~chi_20 c)
     6.44562579E-04    2     1000025         4   # BR(~c_R -> ~chi_30 c)
     2.49310284E-09    2     1000035         4   # BR(~c_R -> ~chi_40 c)
     9.62323730E-01    2     1000021         4   # BR(~c_R -> ~g      c)
#
#         PDG            Width
DECAY   1000003     3.30631825E+02   # sstrange_L decays
#          BR         NDA      ID1       ID2
     2.15223104E-03    2     1000022         3   # BR(~s_L -> ~chi_10 s)
     2.57730411E-05    2     1000023         3   # BR(~s_L -> ~chi_20 s)
     1.15671423E-04    2     1000025         3   # BR(~s_L -> ~chi_30 s)
     2.37762986E-02    2     1000035         3   # BR(~s_L -> ~chi_40 s)
     2.70286044E-07    2    -1000024         4   # BR(~s_L -> ~chi_1- c)
     4.75692514E-02    2    -1000037         4   # BR(~s_L -> ~chi_2- c)
     9.26360504E-01    2     1000021         3   # BR(~s_L -> ~g      s)
#
#         PDG            Width
DECAY   2000003     3.07969851E+02   # sstrange_R decays
#          BR         NDA      ID1       ID2
     9.16101416E-03    2     1000022         3   # BR(~s_R -> ~chi_10 s)
     3.66008173E-04    2     1000023         3   # BR(~s_R -> ~chi_20 s)
     1.65824507E-04    2     1000025         3   # BR(~s_R -> ~chi_30 s)
     6.41485010E-10    2     1000035         3   # BR(~s_R -> ~chi_40 s)
     9.90307153E-01    2     1000021         3   # BR(~s_R -> ~g      s)
#
#         PDG            Width
DECAY   1000011     3.04211863E+01   # selectron_L decays
#          BR         NDA      ID1       ID2
     2.13233150E-01    2     1000022        11   # BR(~e_L -> ~chi_10 e-)
     1.12917825E-02    2     1000023        11   # BR(~e_L -> ~chi_20 e-)
     2.21796332E-03    2     1000025        11   # BR(~e_L -> ~chi_30 e-)
     2.57582352E-01    2     1000035        11   # BR(~e_L -> ~chi_40 e-)
     2.99591528E-06    2    -1000024        12   # BR(~e_L -> ~chi_1- nu_e)
     5.15671756E-01    2    -1000037        12   # BR(~e_L -> ~chi_2- nu_e)
#
#         PDG            Width
DECAY   2000011     2.74293886E+01   # selectron_R decays
#          BR         NDA      ID1       ID2
     9.45141039E-01    2     1000022        11   # BR(~e_R -> ~chi_10 e-)
     3.77540008E-02    2     1000023        11   # BR(~e_R -> ~chi_20 e-)
     1.71048954E-02    2     1000025        11   # BR(~e_R -> ~chi_30 e-)
     6.48384104E-08    2     1000035        11   # BR(~e_R -> ~chi_40 e-)
#
#         PDG            Width
DECAY   1000013     3.04211863E+01   # smuon_L decays
#          BR         NDA      ID1       ID2
     2.13233150E-01    2     1000022        13   # BR(~mu_L -> ~chi_10 mu-)
     1.12917825E-02    2     1000023        13   # BR(~mu_L -> ~chi_20 mu-)
     2.21796332E-03    2     1000025        13   # BR(~mu_L -> ~chi_30 mu-)
     2.57582352E-01    2     1000035        13   # BR(~mu_L -> ~chi_40 mu-)
     2.99591528E-06    2    -1000024        14   # BR(~mu_L -> ~chi_1- nu_mu)
     5.15671756E-01    2    -1000037        14   # BR(~mu_L -> ~chi_2- nu_mu)
#
#         PDG            Width
DECAY   2000013     2.74293886E+01   # smuon_R decays
#          BR         NDA      ID1       ID2
     9.45141039E-01    2     1000022        13   # BR(~mu_R -> ~chi_10 mu-)
     3.77540008E-02    2     1000023        13   # BR(~mu_R -> ~chi_20 mu-)
     1.71048954E-02    2     1000025        13   # BR(~mu_R -> ~chi_30 mu-)
     6.48384104E-08    2     1000035        13   # BR(~mu_R -> ~chi_40 mu-)
#
#         PDG            Width
DECAY   1000015     2.93056578E+01   # stau_1 decays
#          BR         NDA      ID1       ID2
     8.86671039E-01    2     1000022        15   # BR(~tau_1 -> ~chi_10  tau-)
     4.98688143E-02    2     1000023        15   # BR(~tau_1 -> ~chi_20  tau-)
     3.09828488E-02    2     1000025        15   # BR(~tau_1 -> ~chi_30  tau-)
     1.33214584E-04    2     1000035        15   # BR(~tau_1 -> ~chi_40  tau-)
     3.20775411E-02    2    -1000024        16   # BR(~tau_1 -> ~chi_1-  nu_tau)
     2.66541750E-04    2    -1000037        16   # BR(~tau_1 -> ~chi_2-  nu_tau)
#
#         PDG            Width
DECAY   2000015     3.13548063E+01   # stau_2 decays
#          BR         NDA      ID1       ID2
     2.07958093E-01    2     1000022        15   # BR(~tau_2 -> ~chi_10  tau-)
     2.54187277E-02    2     1000023        15   # BR(~tau_2 -> ~chi_20  tau-)
     1.70117034E-02    2     1000025        15   # BR(~tau_2 -> ~chi_30  tau-)
     2.49696321E-01    2     1000035        15   # BR(~tau_2 -> ~chi_40  tau-)
     3.08478099E-05    2    -1000024        16   # BR(~tau_2 -> ~chi_1-  nu_tau)
     4.99884307E-01    2    -1000037        16   # BR(~tau_2 -> ~chi_2-  nu_tau)
#
#         PDG            Width
DECAY   1000012     3.04241286E+01   # snu_eL decays
#          BR         NDA      ID1       ID2
     2.13925660E-01    2     1000022        12   # BR(~nu_eL -> ~chi_10 nu_e)
     6.15799497E-03    2     1000023        12   # BR(~nu_eL -> ~chi_20 nu_e)
     5.96703408E-03    2     1000025        12   # BR(~nu_eL -> ~chi_30 nu_e)
     2.57637438E-01    2     1000035        12   # BR(~nu_eL -> ~chi_40 nu_e)
     1.67932594E-03    2     1000024        11   # BR(~nu_eL -> ~chi_1+ e-)
     5.14632547E-01    2     1000037        11   # BR(~nu_eL -> ~chi_2+ e-)
#
#         PDG            Width
DECAY   1000014     3.04241286E+01   # snu_muL decays
#          BR         NDA      ID1       ID2
     2.13925660E-01    2     1000022        14   # BR(~nu_muL -> ~chi_10 nu_mu)
     6.15799497E-03    2     1000023        14   # BR(~nu_muL -> ~chi_20 nu_mu)
     5.96703408E-03    2     1000025        14   # BR(~nu_muL -> ~chi_30 nu_mu)
     2.57637438E-01    2     1000035        14   # BR(~nu_muL -> ~chi_40 nu_mu)
     1.67932594E-03    2     1000024        13   # BR(~nu_muL -> ~chi_1+ mu-)
     5.14632547E-01    2     1000037        13   # BR(~nu_muL -> ~chi_2+ mu-)
#
#         PDG            Width
DECAY   1000016     3.13578770E+01   # snu_tauL decays
#          BR         NDA      ID1       ID2
     2.07532590E-01    2     1000022        16   # BR(~nu_tauL -> ~chi_10 nu_tau)
     5.97396208E-03    2     1000023        16   # BR(~nu_tauL -> ~chi_20 nu_tau)
     5.78870806E-03    2     1000025        16   # BR(~nu_tauL -> ~chi_30 nu_tau)
     2.49871623E-01    2     1000035        16   # BR(~nu_tauL -> ~chi_40 nu_tau)
     3.17129953E-02    2     1000024        15   # BR(~nu_tauL -> ~chi_1+ tau-)
     4.99120122E-01    2     1000037        15   # BR(~nu_tauL -> ~chi_2+ tau-)
#
#         PDG            Width
DECAY   1000024     8.36517835E-02   # chargino1+ decays
#          BR         NDA      ID1       ID2
     1.00000000E+00    2     1000022        24   # BR(~chi_1+ -> ~chi_10  W+)
#
#         PDG            Width
DECAY   1000037     2.33142164E+01   # chargino2+ decays
#          BR         NDA      ID1       ID2
     2.53795414E-01    2     1000024        23   # BR(~chi_2+ -> ~chi_1+  Z )
     7.56238749E-04    2     1000022        24   # BR(~chi_2+ -> ~chi_10  W+)
     2.44880993E-01    2     1000023        24   # BR(~chi_2+ -> ~chi_20  W+)
     2.44909291E-01    2     1000025        24   # BR(~chi_2+ -> ~chi_30  W+)
     2.55620544E-01    2     1000024        25   # BR(~chi_2+ -> ~chi_1+  h )
     3.75197258E-05    2     1000022        37   # BR(~chi_2+ -> ~chi_10  H+)
#
#         PDG            Width
DECAY   1000022     0.00000000E+00   # neutralino1 decays
#
#         PDG            Width
DECAY   1000023     6.61934555E-02   # neutralino2 decays
#          BR         NDA      ID1       ID2
     5.78964876E-01    2     1000022        23   # BR(~chi_20 -> ~chi_10   Z )
     4.21035124E-01    2     1000022        25   # BR(~chi_20 -> ~chi_10   h )
#
#         PDG            Width
DECAY   1000025     4.89843919E-02   # neutralino3 decays
#          BR         NDA      ID1       ID2
     8.99760856E-01    2     1000022        23   # BR(~chi_30 -> ~chi_10   Z )
     1.00239144E-01    2     1000022        25   # BR(~chi_30 -> ~chi_10   h )
#
#         PDG            Width
DECAY   1000035     2.33164820E+01   # neutralino4 decays
#          BR         NDA      ID1       ID2
     7.78563158E-04    2     1000022        23   # BR(~chi_40 -> ~chi_10   Z )
     1.35969140E-01    2     1000023        23   # BR(~chi_40 -> ~chi_20   Z )
     1.16864314E-01    2     1000025        23   # BR(~chi_40 -> ~chi_30   Z )
     2.45486934E-01    2     1000024       -24   # BR(~chi_40 -> ~chi_1+   W-)
     2.45486934E-01    2    -1000024        24   # BR(~chi_40 -> ~chi_1-   W+)
     1.16094820E-05    2     1000022        25   # BR(~chi_40 -> ~chi_10   h )
     3.59938962E-05    2     1000022        35   # BR(~chi_40 -> ~chi_10   H )
     3.93120185E-06    2     1000022        36   # BR(~chi_40 -> ~chi_10   A )
     1.18291427E-01    2     1000023        25   # BR(~chi_40 -> ~chi_20   h )
     1.37071153E-01    2     1000025        25   # BR(~chi_40 -> ~chi_30   h )
#
#         PDG            Width
DECAY        25     4.04141790E-03   # h decays
#          BR         NDA      ID1       ID2
     6.16487255E-01    2           5        -5   # BR(h -> b       bb     )
     6.39827661E-02    2         -15        15   # BR(h -> tau+    tau-   )
     2.26524014E-04    2         -13        13   # BR(h -> mu+     mu-    )
     4.80515160E-04    2           3        -3   # BR(h -> s       sb     )
     2.08186720E-02    2           4        -4   # BR(h -> c       cb     )
     6.68867036E-02    2          21        21   # BR(h -> g       g      )
     2.28748902E-03    2          22        22   # BR(h -> gam     gam    )
     1.44351023E-03    2          22        23   # BR(h -> Z       gam    )
     2.02323281E-01    2          24       -24   # BR(h -> W+      W-     )
     2.39252156E-02    2          23        23   # BR(h -> Z       Z      )
     1.13806763E-03    2     1000022   1000022   # BR(h -> ~chi_10 ~chi_10)
#
#         PDG            Width
DECAY        35     8.82450237E+00   # H decays
#          BR         NDA      ID1       ID2
     3.59822055E-01    2           5        -5   # BR(H -> b       bb     )
     6.31695748E-02    2         -15        15   # BR(H -> tau+    tau-   )
     2.23372634E-04    2         -13        13   # BR(H -> mu+     mu-    )
     2.73820550E-04    2           3        -3   # BR(H -> s       sb     )
     1.53008575E-06    2           4        -4   # BR(H -> c       cb     )
     1.52867695E-01    2           6        -6   # BR(H -> t       tb     )
     5.08498473E-05    2          21        21   # BR(H -> g       g      )
     1.46400809E-07    2          22        22   # BR(H -> gam     gam    )
     9.00752591E-08    2          23        22   # BR(H -> Z       gam    )
     7.44542023E-05    2          24       -24   # BR(H -> W+      W-     )
     3.71799544E-05    2          23        23   # BR(H -> Z       Z      )
     2.66232930E-04    2          25        25   # BR(H -> h       h      )
     2.45522069E-24    2          36        36   # BR(H -> A       A      )
     9.44711840E-19    2          23        36   # BR(H -> Z       A      )
     3.48166633E-03    2     1000024  -1000024   # BR(H -> ~chi_1+ ~chi_1-)
     4.37141062E-02    2     1000022   1000022   # BR(H -> ~chi_10 ~chi_10)
     1.24577493E-02    2     1000023   1000023   # BR(H -> ~chi_20 ~chi_20)
     8.48593654E-03    2     1000025   1000025   # BR(H -> ~chi_30 ~chi_30)
     2.02215785E-01    2     1000022   1000023   # BR(H -> ~chi_10 ~chi_20)
     1.31658840E-01    2     1000022   1000025   # BR(H -> ~chi_10 ~chi_30)
     2.11989158E-02    2     1000023   1000025   # BR(H -> ~chi_20 ~chi_30)
#
#         PDG            Width
DECAY        36     8.82952671E+00   # A decays
#          BR         NDA      ID1       ID2
     3.59740570E-01    2           5        -5   # BR(A -> b       bb     )
     6.31354535E-02    2         -15        15   # BR(A -> tau+    tau-   )
     2.23251666E-04    2         -13        13   # BR(A -> mu+     mu-    )
     2.73872257E-04    2           3        -3   # BR(A -> s       sb     )
     1.53525555E-06    2           4        -4   # BR(A -> c       cb     )
     1.53299560E-01    2           6        -6   # BR(A -> t       tb     )
     1.51741246E-04    2          21        21   # BR(A -> g       g      )
     5.32924466E-07    2          22        22   # BR(A -> gam     gam    )
     1.83465228E-07    2          23        22   # BR(A -> Z       gam    )
     7.41323447E-05    2          23        25   # BR(A -> Z       h      )
     3.60654628E-03    2     1000024  -1000024   # BR(A -> ~chi_1+ ~chi_1-)
     4.02586719E-02    2     1000022   1000022   # BR(A -> ~chi_10 ~chi_10)
     8.19436961E-03    2     1000023   1000023   # BR(A -> ~chi_20 ~chi_20)
     1.33422090E-02    2     1000025   1000025   # BR(A -> ~chi_30 ~chi_30)
     1.28477368E-01    2     1000022   1000023   # BR(A -> ~chi_10 ~chi_20)
     2.08448410E-01    2     1000022   1000025   # BR(A -> ~chi_10 ~chi_30)
     2.07715933E-02    2     1000023   1000025   # BR(A -> ~chi_20 ~chi_30)
#
#         PDG            Width
DECAY        37     8.75425335E+00   # H+ decays
#          BR         NDA      ID1       ID2
     5.74721850E-04    2           4        -5   # BR(H+ -> c       bb     )
     6.37097937E-02    2         -15        16   # BR(H+ -> tau+    nu_tau )
     2.25282576E-04    2         -13        14   # BR(H+ -> mu+     nu_mu  )
     3.67820039E-06    2           2        -5   # BR(H+ -> u       bb     )
     1.32187647E-05    2           2        -3   # BR(H+ -> u       sb     )
     2.73363118E-04    2           4        -3   # BR(H+ -> c       sb     )
     5.10630207E-01    2           6        -5   # BR(H+ -> t       bb     )
     7.49289748E-05    2          24        25   # BR(H+ -> W+      h      )
     1.07539552E-12    2          24        36   # BR(H+ -> W+      A      )
     3.98440067E-01    2     1000024   1000022   # BR(H+ -> ~chi_1+ ~chi_10)
     2.18055274E-02    2     1000024   1000023   # BR(H+ -> ~chi_1+ ~chi_20)
     4.24921119E-03    2     1000024   1000025   # BR(H+ -> ~chi_1+ ~chi_30)
