#
#                              ======================
#                              | THE SUSYHIT OUTPUT |
#                              ======================
#
#
#              ------------------------------------------------------
#              |     This is the output of the SUSY-HIT package     |
#              |  created by A.Djouadi, M.Muehlleitner and M.Spira. |
#              |  In case of problems with SUSY-HIT email to        |
#              |           margarete.muehlleitner@cern.ch           |
#              |           michael.spira@psi.ch                     |
#              |           abdelhak.djouadi@cern.ch                 |
#              ------------------------------------------------------
#
#              ------------------------------------------------------
#              |  SUSY Les Houches Accord - MSSM Spectrum + Decays  |
#              |              based on the decay programs           |
#              |                                                    |
#              |                     SDECAY 1.3b                    |
#              |                                                    |
#              |  Authors: M.Muhlleitner, A.Djouadi and Y.Mambrini  |
#              |  Ref.:    Comput.Phys.Commun.168(2005)46           |
#              |           [hep-ph/0311167]                         |
#              |                                                    |
#              |                     HDECAY 3.4                     |
#              |                                                    |
#              |  By: A.Djouadi,J.Kalinowski,M.Muhlleitner,M.Spira  |
#              |  Ref.:    Comput.Phys.Commun.108(1998)56           |
#              |           [hep-ph/9704448]                         |
#              |                                                    |
#              |                                                    |
#              |  If not stated otherwise all DRbar couplings and   |
#              |  soft SUSY breaking masses are given at the scale  |
#              |  Q=  0.91187600E+02
#              |                                                    |
#              ------------------------------------------------------
#
#
BLOCK DCINFO  # Decay Program information
     1   SDECAY/HDECAY # decay calculator
     2   1.3b  /3.4    # version number
#
BLOCK SPINFO  # Spectrum calculator information
     1   SuSpect     # RGE +Spectrum calculator            
     2   2.41         # version number                     
#
BLOCK MODSEL  # Model selection
     1     0   # #general MSSM low scale                           
#
BLOCK SMINPUTS  # Standard Model inputs
         1     1.27934000E+02   # alpha_em^-1(M_Z)^MSbar
         2     1.16639000E-05   # G_F [GeV^-2]
         3     1.17200000E-01   # alpha_S(M_Z)^MSbar
         4     9.11870000E+01   # M_Z pole mass
         5     4.25000000E+00   # mb(mb)^MSbar
         6     1.72500000E+02   # mt pole mass
         7     1.77700000E+00   # mtau pole mass
#
BLOCK MINPAR  # Input parameters - minimal models
#
BLOCK EXTPAR  # Input parameters - non-minimal models
         0     9.11876000E+01   # EWSB                
         1     5.00000000E+01   # M_1                 
         2     1.00000000E+05   # M_2                 
         3     1.50000000E+03   # M_3                 
        11     0.00000000E+00   # A_t                 
        12     0.00000000E+00   # A_b                 
        13     0.00000000E+00   # A_tau               
        14     0.00000000E+00   # A_u                 
        15     0.00000000E+00   # A_d                 
        16     0.00000000E+00   # A_e                 
        23     1.00000000E+05   # mu(EWSB)            
        25     1.50000000E+00   # tanbeta(in)         
        26     2.00000000E+03   # MA_pole             
        31     1.00000000E+05   # M_eL                
        32     1.00000000E+05   # M_muL               
        33     1.00000000E+05   # M_tauL              
        34     1.00000000E+05   # M_eR                
        35     1.00000000E+05   # M_muR               
        36     1.00000000E+05   # M_tauR              
        41     3.00000000E+03   # M_q1L               
        42     3.00000000E+03   # M_q2L               
        43     3.00000000E+03   # M_q3L               
        44     1.00000000E+05   # M_uR                
        45     1.00000000E+05   # M_cR                
        46     1.00000000E+05   # M_tR                
        47     3.00000000E+03   # M_dR                
        48     3.00000000E+03   # M_sR                
        49     3.00000000E+03   # M_bR                
#
BLOCK MASS  # Mass Spectrum
# PDG code           mass       particle
        24     8.06000616E+01   # W+
        25     1.25000000E+02   # h
        35     2.01231708E+03   # H
        36     2.00000000E+03   # A
        37     2.02277161E+03   # H+
         5     4.87877839E+00   # b-quark pole mass calculated from mb(mb)_Msbar
   1000001     3.00021871E+03   # ~d_L
   2000001     3.00004261E+03   # ~d_R
   1000002     2.99982389E+03   # ~u_L
   2000002     9.99999974E+04   # ~u_R
   1000003     3.00021871E+03   # ~s_L
   2000003     3.00004261E+03   # ~s_R
   1000004     2.99982389E+03   # ~c_L
   2000004     9.99999974E+04   # ~c_R
   1000005     2.94849693E+03   # ~b_1
   2000005     3.05089204E+03   # ~b_2
   1000006     3.00183186E+03   # ~t_1
   2000006     1.00000154E+05   # ~t_2
   1000011     1.00000004E+05   # ~e_L
   2000011     1.00000004E+05   # ~e_R
   1000012     9.99999922E+04   # ~nu_eL
   1000013     1.00000004E+05   # ~mu_L
   2000013     1.00000004E+05   # ~mu_R
   1000014     9.99999922E+04   # ~nu_muL
   1000015     9.99986725E+04   # ~tau_1
   2000015     1.00001335E+05   # ~tau_2
   1000016     9.99999922E+04   # ~nu_tauL
   1000021     1.50000000E+03   # ~g
   1000022     4.99815803E+01   # ~chi_10
   1000023     9.99230535E+04   # ~chi_20
   1000025    -1.00000002E+05   # ~chi_30
   1000035     1.00076967E+05   # ~chi_40
   1000024     9.99230444E+04   # ~chi_1+
   1000037     1.00076958E+05   # ~chi_2+
   1000039     1.00000000E-09   # ~gravitino
#
BLOCK NMIX  # Neutralino Mixing Matrix
  1  1     9.99999900E-01   # N_11
  1  2    -3.23860639E-07   # N_12
  1  3     3.71705532E-04   # N_13
  1  4    -2.47906846E-04   # N_14
  2  1     3.10021815E-04   # N_21
  2  2     7.07148133E-01   # N_22
  2  3    -5.00009195E-01   # N_23
  2  4     4.99932223E-01   # N_24
  3  1     8.75387983E-05   # N_31
  3  2    -7.69567323E-05   # N_32
  3  3    -7.07106742E-01   # N_33
  3  4    -7.07106811E-01   # N_34
  4  1     3.09590515E-04   # N_41
  4  2    -7.07065429E-01   # N_42
  4  3    -4.99990719E-01   # N_43
  4  4     5.00067660E-01   # N_44
#
BLOCK UMIX  # Chargino Mixing Matrix U
  1  1    -7.07052362E-01   # U_11
  1  2     7.07161196E-01   # U_12
  2  1     7.07161196E-01   # U_21
  2  2     7.07052362E-01   # U_22
#
BLOCK VMIX  # Chargino Mixing Matrix V
  1  1    -7.07161196E-01   # V_11
  1  2     7.07052362E-01   # V_12
  2  1     7.07052362E-01   # V_21
  2  2     7.07161196E-01   # V_22
#
BLOCK STOPMIX  # Stop Mixing Matrix
  1  1     9.99999517E-01   # cos(theta_t)
  1  2     9.82852871E-04   # sin(theta_t)
  2  1    -9.82852871E-04   # -sin(theta_t)
  2  2     9.99999517E-01   # cos(theta_t)
#
BLOCK SBOTMIX  # Sbottom Mixing Matrix
  1  1     7.06498400E-01   # cos(theta_b)
  1  2     7.07714639E-01   # sin(theta_b)
  2  1    -7.07714639E-01   # -sin(theta_b)
  2  2     7.06498400E-01   # cos(theta_b)
#
BLOCK STAUMIX  # Stau Mixing Matrix
  1  1     7.07084301E-01   # cos(theta_tau)
  1  2     7.07129261E-01   # sin(theta_tau)
  2  1    -7.07129261E-01   # -sin(theta_tau)
  2  2     7.07084301E-01   # cos(theta_tau)
#
BLOCK ALPHA  # Higgs mixing
          -6.55392901E-01   # Mixing angle in the neutral Higgs boson sector
#
BLOCK HMIX Q=  9.11876000E+01  # DRbar Higgs Parameters
         1     1.00000000E+05   # mu(Q)               
         2     1.49999982E+00   # tanbeta(Q)          
         3     2.55209399E+02   # vev(Q)              
         4    -2.17456917E+09   # MA^2(Q)             
#
BLOCK GAUGE Q=  9.11876000E+01  # The gauge couplings
     1     3.49934667E-01   # gprime(Q) DRbar
     2     6.14958637E-01   # g(Q) DRbar
     3     1.07935695E+00   # g3(Q) DRbar
#
BLOCK AU Q=  9.11876000E+01  # The trilinear couplings
  1  1     0.00000000E+00   # A_u(Q) DRbar
  2  2     0.00000000E+00   # A_c(Q) DRbar
  3  3     0.00000000E+00   # A_t(Q) DRbar
#
BLOCK AD Q=  9.11876000E+01  # The trilinear couplings
  1  1     0.00000000E+00   # A_d(Q) DRbar
  2  2     0.00000000E+00   # A_s(Q) DRbar
  3  3     0.00000000E+00   # A_b(Q) DRbar
#
BLOCK AE Q=  9.11876000E+01  # The trilinear couplings
  1  1     0.00000000E+00   # A_e(Q) DRbar
  2  2     0.00000000E+00   # A_mu(Q) DRbar
  3  3     0.00000000E+00   # A_tau(Q) DRbar
#
BLOCK Yu Q=  9.11876000E+01  # The Yukawa couplings
  1  1     0.00000000E+00   # y_u(Q) DRbar
  2  2     0.00000000E+00   # y_c(Q) DRbar
  3  3     9.81125661E-01   # y_t(Q) DRbar
#
BLOCK Yd Q=  9.11876000E+01  # The Yukawa couplings
  1  1     0.00000000E+00   # y_d(Q) DRbar
  2  2     0.00000000E+00   # y_s(Q) DRbar
  3  3     2.04537822E-02   # y_b(Q) DRbar
#
BLOCK Ye Q=  9.11876000E+01  # The Yukawa couplings
  1  1     0.00000000E+00   # y_e(Q) DRbar
  2  2     0.00000000E+00   # y_mu(Q) DRbar
  3  3     1.77321117E-02   # y_tau(Q) DRbar
#
BLOCK MSOFT Q=  9.11876000E+01  # The soft SUSY breaking masses at the scale Q
         1     5.00000000E+01   # M_1                 
         2     1.00000000E+05   # M_2                 
         3     1.50000000E+03   # M_3                 
        14     0.00000000E+00   # A_u                 
        15     0.00000000E+00   # A_d                 
        16     0.00000000E+00   # A_e                 
        21    -1.06394765E+10   # M^2_Hd              
        22    -1.00395232E+10   # M^2_Hu              
        31     1.00000000E+05   # M_eL                
        32     1.00000000E+05   # M_muL               
        33     1.00000000E+05   # M_tauL              
        34     1.00000000E+05   # M_eR                
        35     1.00000000E+05   # M_muR               
        36     1.00000000E+05   # M_tauR              
        41     3.00000000E+03   # M_q1L               
        42     3.00000000E+03   # M_q2L               
        43     3.00000000E+03   # M_q3L               
        44     1.00000000E+05   # M_uR                
        45     1.00000000E+05   # M_cR                
        46     1.00000000E+05   # M_tR                
        47     3.00000000E+03   # M_dR                
        48     3.00000000E+03   # M_sR                
        49     3.00000000E+03   # M_bR                
#
#
#
#                             =================
#                             |The decay table|
#                             =================
#
# - The QCD corrections to the decays gluino -> squark  + quark
#                                     squark -> gaugino + quark_prime
#                                     squark -> squark_prime + Higgs
#                                     squark -> gluino  + quark
#   are included.
#
# - The multi-body decays for the inos, stops and sbottoms are included.
#
# - The loop induced decays for the gluino, neutralinos and stops
#   are included.
#
# - The SUSY decays of the top quark are included.
#
# - Possible decays of the NLSP in GMSB models are included.
#
#
#         PDG            Width
DECAY         6     1.30456198E+00   # top decays
#          BR         NDA      ID1       ID2
     1.00000000E+00    2           5        24   # BR(t ->  b    W+)
#
#         PDG            Width
DECAY   1000021     1.E-04   # gluino decays (OJ Mods)
#          BR         NDA      ID1       ID2
     3.71644698E-02    2     1000022        21   # BR(~g -> ~chi_10 g)
#          BR         NDA      ID1       ID2
     4.41176125E-02    2     1000039        21   # BR(~g -> ~G      g)
#           BR         NDA      ID1       ID2       ID3
     2.57841037E-01    3     1000022         1        -1   # BR(~g -> ~chi_10 d  db)
     5.15880860E-02    3     1000022         2        -2   # BR(~g -> ~chi_10 u  ub)
     2.57841037E-01    3     1000022         3        -3   # BR(~g -> ~chi_10 s  sb)
     5.15880860E-02    3     1000022         4        -4   # BR(~g -> ~chi_10 c  cb)
     2.58692458E-01    3     1000022         5        -5   # BR(~g -> ~chi_10 b  bb)
     4.11672127E-02    3     1000022         6        -6   # BR(~g -> ~chi_10 t  tb)
#
#         PDG            Width
DECAY   1000006     1.08146503E+02   # stop1 decays
#          BR         NDA      ID1       ID2
     3.58340202E-03    2     1000022         6   # BR(~t_1 -> ~chi_10 t )
     9.96416598E-01    2     1000021         6   # BR(~t_1 -> ~g      t )
#
#         PDG            Width
DECAY   2000006     4.90117937E+03   # stop2 decays
#          BR         NDA      ID1       ID2
     4.28087013E-02    2     1000022         6   # BR(~t_2 -> ~chi_10 t )
     3.13949642E-07    2     1000024         5   # BR(~t_2 -> ~chi_1+ b )
     5.62357742E-01    2     1000021         6   # BR(~t_2 -> ~g      t )
     2.56666820E-02    2     1000006        25   # BR(~t_2 -> ~t_1    h )
     4.58738332E-02    2     1000006        35   # BR(~t_2 -> ~t_1    H )
     5.03932660E-02    2     1000006        36   # BR(~t_2 -> ~t_1    A )
     5.01346959E-02    2     1000005        37   # BR(~t_2 -> ~b_1    H+)
     5.06719745E-02    2     2000005        37   # BR(~t_2 -> ~b_2    H+)
     5.68929718E-02    2     1000006        23   # BR(~t_2 -> ~t_1    Z )
     5.73666703E-02    2     1000005        24   # BR(~t_2 -> ~b_1    W+)
     5.78331492E-02    2     2000005        24   # BR(~t_2 -> ~b_2    W+)
#
#         PDG            Width
DECAY   1000005     1.05616921E+02   # sbottom1 decays
#          BR         NDA      ID1       ID2
     9.07378843E-03    2     1000022         5   # BR(~b_1 -> ~chi_10 b )
     9.90926212E-01    2     1000021         5   # BR(~b_1 -> ~g      b )
#
#         PDG            Width
DECAY   2000005     1.12905422E+02   # sbottom2 decays
#          BR         NDA      ID1       ID2
     8.74488933E-03    2     1000022         5   # BR(~b_2 -> ~chi_10 b )
     9.90642319E-01    2     1000021         5   # BR(~b_2 -> ~g      b )
     6.12791987E-04    2     1000005        23   # BR(~b_2 -> ~b_1    Z )
#
#         PDG            Width
DECAY   1000002     6.53622589E+01   # sup_L decays
#          BR         NDA      ID1       ID2
     5.95514694E-03    2     1000022         2   # BR(~u_L -> ~chi_10 u)
     9.94044853E-01    2     1000021         2   # BR(~u_L -> ~g      u)
#
#         PDG            Width
DECAY   2000002     4.05886277E+03   # sup_R decays
#          BR         NDA      ID1       ID2
     5.16931008E-02    2     1000022         2   # BR(~u_R -> ~chi_10 u)
     6.35511811E-13    2     1000023         2   # BR(~u_R -> ~chi_20 u)
     9.48306899E-01    2     1000021         2   # BR(~u_R -> ~g      u)
#
#         PDG            Width
DECAY   1000001     6.53822688E+01   # sdown_L decays
#          BR         NDA      ID1       ID2
     5.95416681E-03    2     1000022         1   # BR(~d_L -> ~chi_10 d)
     9.94045833E-01    2     1000021         1   # BR(~d_L -> ~g      d)
#
#         PDG            Width
DECAY   2000001     6.65411605E+01   # sdown_R decays
#          BR         NDA      ID1       ID2
     2.34003869E-02    2     1000022         1   # BR(~d_R -> ~chi_10 d)
     9.76599613E-01    2     1000021         1   # BR(~d_R -> ~g      d)
#
#         PDG            Width
DECAY   1000004     6.53622589E+01   # scharm_L decays
#          BR         NDA      ID1       ID2
     5.95514694E-03    2     1000022         4   # BR(~c_L -> ~chi_10 c)
     9.94044853E-01    2     1000021         4   # BR(~c_L -> ~g      c)
#
#         PDG            Width
DECAY   2000004     4.05886277E+03   # scharm_R decays
#          BR         NDA      ID1       ID2
     5.16931008E-02    2     1000022         4   # BR(~c_R -> ~chi_10 c)
     6.35511811E-13    2     1000023         4   # BR(~c_R -> ~chi_20 c)
     9.48306899E-01    2     1000021         4   # BR(~c_R -> ~g      c)
#
#         PDG            Width
DECAY   1000003     6.53822688E+01   # sstrange_L decays
#          BR         NDA      ID1       ID2
     5.95416681E-03    2     1000022         3   # BR(~s_L -> ~chi_10 s)
     9.94045833E-01    2     1000021         3   # BR(~s_L -> ~g      s)
#
#         PDG            Width
DECAY   2000003     6.65411605E+01   # sstrange_R decays
#          BR         NDA      ID1       ID2
     2.34003869E-02    2     1000022         3   # BR(~s_R -> ~chi_10 s)
     9.76599613E-01    2     1000021         3   # BR(~s_R -> ~g      s)
#
#         PDG            Width
DECAY   1000011     1.21808633E+02   # selectron_L decays
#          BR         NDA      ID1       ID2
     9.99989034E-01    2     1000022        11   # BR(~e_L -> ~chi_10 e-)
     3.65678950E-06    2     1000023        11   # BR(~e_L -> ~chi_20 e-)
     3.64063255E-24    2     1000025        11   # BR(~e_L -> ~chi_30 e-)
     7.30967930E-06    2    -1000024        12   # BR(~e_L -> ~chi_1- nu_e)
#
#         PDG            Width
DECAY   2000011     4.87229743E+02   # selectron_R decays
#          BR         NDA      ID1       ID2
     1.00000000E+00    2     1000022        11   # BR(~e_R -> ~chi_10 e-)
     2.27474860E-13    2     1000023        11   # BR(~e_R -> ~chi_20 e-)
     1.22608734E-23    2     1000025        11   # BR(~e_R -> ~chi_30 e-)
#
#         PDG            Width
DECAY   1000013     1.21808633E+02   # smuon_L decays
#          BR         NDA      ID1       ID2
     9.99989034E-01    2     1000022        13   # BR(~mu_L -> ~chi_10 mu-)
     3.65678950E-06    2     1000023        13   # BR(~mu_L -> ~chi_20 mu-)
     3.64063255E-24    2     1000025        13   # BR(~mu_L -> ~chi_30 mu-)
     7.30967930E-06    2    -1000024        14   # BR(~mu_L -> ~chi_1- nu_mu)
#
#         PDG            Width
DECAY   2000013     4.87229743E+02   # smuon_R decays
#          BR         NDA      ID1       ID2
     1.00000000E+00    2     1000022        13   # BR(~mu_R -> ~chi_10 mu-)
     2.27474860E-13    2     1000023        13   # BR(~mu_R -> ~chi_20 mu-)
     1.22608734E-23    2     1000025        13   # BR(~mu_R -> ~chi_30 mu-)
#
#         PDG            Width
DECAY   1000015     1.18167102E+04   # stau_1 decays
#          BR         NDA      ID1       ID2
     2.57710754E-02    2     1000022        15   # BR(~tau_1 -> ~chi_10  tau-)
     1.92489648E-08    2     1000023        15   # BR(~tau_1 -> ~chi_20  tau-)
     3.85097756E-08    2    -1000024        16   # BR(~tau_1 -> ~chi_1-  nu_tau)
     9.74228867E-01    2     1000039        15   # BR(~tau_1 -> ~G       tau-)
#
#         PDG            Width
DECAY   2000015     3.04508358E+02   # stau_2 decays
#          BR         NDA      ID1       ID2
     9.99997860E-01    2     1000022        15   # BR(~tau_2 -> ~chi_10  tau-)
     7.13418737E-07    2     1000023        15   # BR(~tau_2 -> ~chi_20  tau-)
     1.42705565E-06    2    -1000024        16   # BR(~tau_2 -> ~chi_1-  nu_tau)
#
#         PDG            Width
DECAY   1000012     1.21808895E+02   # snu_eL decays
#          BR         NDA      ID1       ID2
     9.99989038E-01    2     1000022        12   # BR(~nu_eL -> ~chi_10 nu_e)
     3.65201495E-06    2     1000023        12   # BR(~nu_eL -> ~chi_20 nu_e)
     7.30967370E-06    2     1000024        11   # BR(~nu_eL -> ~chi_1+ e-)
#
#         PDG            Width
DECAY   1000014     1.21808895E+02   # snu_muL decays
#          BR         NDA      ID1       ID2
     9.99989038E-01    2     1000022        14   # BR(~nu_muL -> ~chi_10 nu_mu)
     3.65201495E-06    2     1000023        14   # BR(~nu_muL -> ~chi_20 nu_mu)
     7.30967370E-06    2     1000024        13   # BR(~nu_muL -> ~chi_1+ mu-)
#
#         PDG            Width
DECAY   1000016     1.21808894E+02   # snu_tauL decays
#          BR         NDA      ID1       ID2
     9.99989044E-01    2     1000022        16   # BR(~nu_tauL -> ~chi_10 nu_tau)
     3.65201497E-06    2     1000023        16   # BR(~nu_tauL -> ~chi_20 nu_tau)
     7.30407011E-06    2     1000024        15   # BR(~nu_tauL -> ~chi_1+ tau-)
#
#         PDG            Width
DECAY   1000024     3.92922585E+03   # chargino1+ decays
#          BR         NDA      ID1       ID2
     3.54490874E-02    2     1000002        -1   # BR(~chi_1+ -> ~u_L     db)
     3.54381640E-02    2    -1000001         2   # BR(~chi_1+ -> ~d_L*    u )
     3.54490874E-02    2     1000004        -3   # BR(~chi_1+ -> ~c_L     sb)
     3.54381640E-02    2    -1000003         4   # BR(~chi_1+ -> ~s_L*    c )
     3.21297714E-02    2     1000006        -5   # BR(~chi_1+ -> ~t_1     bb)
     3.93872906E-02    2    -1000005         6   # BR(~chi_1+ -> ~b_1*    t )
     3.81102086E-02    2    -2000005         6   # BR(~chi_1+ -> ~b_2*    t )
     1.87844334E-03    2     1000022        24   # BR(~chi_1+ -> ~chi_10  W+)
     1.97668687E-03    2     1000022        37   # BR(~chi_1+ -> ~chi_10  H+)
     5.58774810E-01    2     1000039        24   # BR(~chi_1+ -> ~G       W+)
     1.85968286E-01    2     1000039        37   # BR(~chi_1+ -> ~G       H+)
#
#         PDG            Width
DECAY   1000037     3.93344387E+03   # chargino2+ decays
#          BR         NDA      ID1       ID2
     3.52802301E-02    2     1000002        -1   # BR(~chi_2+ -> ~u_L     db)
     3.52910792E-02    2    -1000001         2   # BR(~chi_2+ -> ~d_L*    u )
     3.52802301E-02    2     1000004        -3   # BR(~chi_2+ -> ~c_L     sb)
     3.52910792E-02    2    -1000003         4   # BR(~chi_2+ -> ~s_L*    c )
     3.18888807E-02    2     1000006        -5   # BR(~chi_2+ -> ~t_1     bb)
     2.33011632E-07    2     2000006        -5   # BR(~chi_2+ -> ~t_2     bb)
     3.75585472E-02    2    -1000005         6   # BR(~chi_2+ -> ~b_1*    t )
     3.94254893E-02    2    -2000005         6   # BR(~chi_2+ -> ~b_2*    t )
     2.87304730E-08    2     1000012       -11   # BR(~chi_2+ -> ~nu_eL   e+  )
     2.87304730E-08    2     1000014       -13   # BR(~chi_2+ -> ~nu_muL  mu+ )
     2.87084429E-08    2     1000016       -15   # BR(~chi_2+ -> ~nu_tau1 tau+)
     2.87305102E-08    2    -1000011        12   # BR(~chi_2+ -> ~e_L+    nu_e)
     2.87305102E-08    2    -1000013        14   # BR(~chi_2+ -> ~mu_L+   nu_mu)
     1.40206744E-08    2    -1000015        16   # BR(~chi_2+ -> ~tau_1+  nu_tau)
     1.46851370E-08    2    -2000015        16   # BR(~chi_2+ -> ~tau_2+  nu_tau)
     7.35532835E-05    2     1000024        23   # BR(~chi_2+ -> ~chi_1+  Z )
     1.86497146E-03    2     1000022        24   # BR(~chi_2+ -> ~chi_10  W+)
     8.41112709E-05    2     1000023        24   # BR(~chi_2+ -> ~chi_20  W+)
     2.94972404E-13    2     1000024        25   # BR(~chi_2+ -> ~chi_1+  h )
     1.96112776E-03    2     1000022        37   # BR(~chi_2+ -> ~chi_10  H+)
     5.59739436E-01    2     1000039        24   # BR(~chi_2+ -> ~G       W+)
     1.86260859E-01    2     1000039        37   # BR(~chi_2+ -> ~G       H+)
#
#         PDG            Width
DECAY   1000022     1.E-08   # neutralino1 decays (OJ Mods)
#          BR         NDA      ID1       ID2
     1.00000000E+00    2     1000039        22   # BR(~chi_10 -> ~G        gam)
#
#         PDG            Width
DECAY   1000023     1.E-08   # neutralino2 decays (OJ Mods)
#          BR         NDA      ID1       ID2
     7.44046724E-05    2     1000022        23   # BR(~chi_20 -> ~chi_10   Z )
     1.94792127E-03    2     1000022        25   # BR(~chi_20 -> ~chi_10   h )
     3.33896778E-05    2     1000022        35   # BR(~chi_20 -> ~chi_10   H )
     1.89998192E-03    2     1000022        36   # BR(~chi_20 -> ~chi_10   A )
     1.71655491E-02    2     1000002        -2   # BR(~chi_20 -> ~u_L      ub)
     1.71655491E-02    2    -1000002         2   # BR(~chi_20 -> ~u_L*     u )
     1.71598361E-02    2     1000001        -1   # BR(~chi_20 -> ~d_L      db)
     1.71598361E-02    2    -1000001         1   # BR(~chi_20 -> ~d_L*     d )
     4.74732249E-10    2     2000001        -1   # BR(~chi_20 -> ~d_R      db)
     4.74732249E-10    2    -2000001         1   # BR(~chi_20 -> ~d_R*     d )
     1.71655491E-02    2     1000004        -4   # BR(~chi_20 -> ~c_L      cb)
     1.71655491E-02    2    -1000004         4   # BR(~chi_20 -> ~c_L*     c )
     1.71598361E-02    2     1000003        -3   # BR(~chi_20 -> ~s_L      sb)
     1.71598361E-02    2    -1000003         3   # BR(~chi_20 -> ~s_L*     s )
     4.74732249E-10    2     2000003        -3   # BR(~chi_20 -> ~s_R      sb)
     4.74732249E-10    2    -2000003         3   # BR(~chi_20 -> ~s_R*     s )
     3.87519586E-02    2     1000006        -6   # BR(~chi_20 -> ~t_1      tb)
     3.87519586E-02    2    -1000006         6   # BR(~chi_20 -> ~t_1*     t )
     8.39277777E-03    2     1000005        -5   # BR(~chi_20 -> ~b_1      bb)
     8.39277777E-03    2    -1000005         5   # BR(~chi_20 -> ~b_1*     b )
     7.65532534E-03    2     2000005        -5   # BR(~chi_20 -> ~b_2      bb)
     7.65532534E-03    2    -2000005         5   # BR(~chi_20 -> ~b_2*     b )
     9.12622109E-02    2     1000039        22   # BR(~chi_20 -> ~G        gam)
     4.60322817E-01    2     1000039        23   # BR(~chi_20 -> ~G        Z)
     3.12601754E-03    2     1000039        25   # BR(~chi_20 -> ~G        h)
     1.82799511E-01    2     1000039        35   # BR(~chi_20 -> ~G        H)
     7.15643091E-03    2     1000039        36   # BR(~chi_20 -> ~G        A)
#
#         PDG            Width
DECAY   1000025     1.51765538E+03   # neutralino3 decays
#          BR         NDA      ID1       ID2
     4.41434942E-03    2     1000022        23   # BR(~chi_30 -> ~chi_10   Z )
     7.85272844E-05    2     1000022        25   # BR(~chi_30 -> ~chi_10   h )
     4.59022813E-03    2     1000022        35   # BR(~chi_30 -> ~chi_10   H )
     1.79925996E-04    2     1000022        36   # BR(~chi_30 -> ~chi_10   A )
     1.47910308E-10    2     1000002        -2   # BR(~chi_30 -> ~u_L      ub)
     1.47910308E-10    2    -1000002         2   # BR(~chi_30 -> ~u_L*     u )
     2.76770582E-18    2     2000002        -2   # BR(~chi_30 -> ~u_R      ub)
     2.76770582E-18    2    -2000002         2   # BR(~chi_30 -> ~u_R*     u )
     3.55466457E-10    2     1000001        -1   # BR(~chi_30 -> ~d_L      db)
     3.55466457E-10    2    -1000001         1   # BR(~chi_30 -> ~d_L*     d )
     4.47826200E-11    2     2000001        -1   # BR(~chi_30 -> ~d_R      db)
     4.47826200E-11    2    -2000001         1   # BR(~chi_30 -> ~d_R*     d )
     1.47910308E-10    2     1000004        -4   # BR(~chi_30 -> ~c_L      cb)
     1.47910308E-10    2    -1000004         4   # BR(~chi_30 -> ~c_L*     c )
     2.76770582E-18    2     2000004        -4   # BR(~chi_30 -> ~c_R      cb)
     2.76770582E-18    2    -2000004         4   # BR(~chi_30 -> ~c_R*     c )
     3.55466457E-10    2     1000003        -3   # BR(~chi_30 -> ~s_L      sb)
     3.55466457E-10    2    -1000003         3   # BR(~chi_30 -> ~s_L*     s )
     4.47826200E-11    2     2000003        -3   # BR(~chi_30 -> ~s_R      sb)
     4.47826200E-11    2    -2000003         3   # BR(~chi_30 -> ~s_R*     s )
     5.36030426E-02    2     1000006        -6   # BR(~chi_30 -> ~t_1      tb)
     5.36030426E-02    2    -1000006         6   # BR(~chi_30 -> ~t_1*     t )
     1.99147479E-05    2     1000005        -5   # BR(~chi_30 -> ~b_1      bb)
     1.99147479E-05    2    -1000005         5   # BR(~chi_30 -> ~b_1*     b )
     2.02522542E-05    2     2000005        -5   # BR(~chi_30 -> ~b_2      bb)
     2.02522542E-05    2    -2000005         5   # BR(~chi_30 -> ~b_2*     b )
     8.91746562E-24    2     1000012       -12   # BR(~chi_30 -> ~nu_eL    nu_eb)
     8.91746562E-24    2    -1000012        12   # BR(~chi_30 -> ~nu_eL*   nu_e )
     8.91746562E-24    2     1000014       -14   # BR(~chi_30 -> ~nu_muL   nu_mub)
     8.91746562E-24    2    -1000014        14   # BR(~chi_30 -> ~nu_muL*  nu_mu )
     8.91746562E-24    2     1000016       -16   # BR(~chi_30 -> ~nu_tau1  nu_taub)
     8.91746562E-24    2    -1000016        16   # BR(~chi_30 -> ~nu_tau1* nu_tau )
     1.27822295E-09    2     1000039        22   # BR(~chi_30 -> ~G        gam)
     1.70027423E-02    2     1000039        23   # BR(~chi_30 -> ~G        Z)
     4.34640177E-01    2     1000039        25   # BR(~chi_30 -> ~G        h)
     7.41759909E-03    2     1000039        35   # BR(~chi_30 -> ~G        H)
     4.24390028E-01    2     1000039        36   # BR(~chi_30 -> ~G        A)
#
#         PDG            Width
DECAY   1000035     3.93465800E+03   # neutralino4 decays
#          BR         NDA      ID1       ID2
     7.42057704E-05    2     1000022        23   # BR(~chi_40 -> ~chi_10   Z )
     3.08622360E-19    2     1000023        23   # BR(~chi_40 -> ~chi_20   Z )
     8.40867805E-05    2     1000024       -24   # BR(~chi_40 -> ~chi_1+   W-)
     8.40867805E-05    2    -1000024        24   # BR(~chi_40 -> ~chi_1-   W+)
     1.93399483E-03    2     1000022        25   # BR(~chi_40 -> ~chi_10   h )
     3.29138160E-05    2     1000022        35   # BR(~chi_40 -> ~chi_10   H )
     1.88583275E-03    2     1000022        36   # BR(~chi_40 -> ~chi_10   A )
     1.27994406E-12    2     1000023        25   # BR(~chi_40 -> ~chi_20   h )
     1.70797339E-02    2     1000002        -2   # BR(~chi_40 -> ~u_L      ub)
     1.70797339E-02    2    -1000002         2   # BR(~chi_40 -> ~u_L*     u )
     4.93678617E-13    2     2000002        -2   # BR(~chi_40 -> ~u_R      ub)
     4.93678617E-13    2    -2000002         2   # BR(~chi_40 -> ~u_R*     u )
     1.70854046E-02    2     1000001        -1   # BR(~chi_40 -> ~d_L      db)
     1.70854046E-02    2    -1000001         1   # BR(~chi_40 -> ~d_L*     d )
     4.71312411E-10    2     2000001        -1   # BR(~chi_40 -> ~d_R      db)
     4.71312411E-10    2    -2000001         1   # BR(~chi_40 -> ~d_R*     d )
     1.70797339E-02    2     1000004        -4   # BR(~chi_40 -> ~c_L      cb)
     1.70797339E-02    2    -1000004         4   # BR(~chi_40 -> ~c_L*     c )
     4.93678617E-13    2     2000004        -4   # BR(~chi_40 -> ~c_R      cb)
     4.93678617E-13    2    -2000004         4   # BR(~chi_40 -> ~c_R*     c )
     1.70854046E-02    2     1000003        -3   # BR(~chi_40 -> ~s_L      sb)
     1.70854046E-02    2    -1000003         3   # BR(~chi_40 -> ~s_L*     s )
     4.71312411E-10    2     2000003        -3   # BR(~chi_40 -> ~s_R      sb)
     4.71312411E-10    2    -2000003         3   # BR(~chi_40 -> ~s_R*     s )
     3.84445521E-02    2     1000006        -6   # BR(~chi_40 -> ~t_1      tb)
     3.84445521E-02    2    -1000006         6   # BR(~chi_40 -> ~t_1*     t )
     7.57194308E-03    2     1000005        -5   # BR(~chi_40 -> ~b_1      bb)
     7.57194308E-03    2    -1000005         5   # BR(~chi_40 -> ~b_1*     b )
     8.40759766E-03    2     2000005        -5   # BR(~chi_40 -> ~b_2      bb)
     8.40759766E-03    2    -2000005         5   # BR(~chi_40 -> ~b_2*     b )
     1.43564835E-08    2     1000011       -11   # BR(~chi_40 -> ~e_L-     e+)
     1.43564835E-08    2    -1000011        11   # BR(~chi_40 -> ~e_L+     e-)
     3.56666829E-15    2     2000011       -11   # BR(~chi_40 -> ~e_R-     e+)
     3.56666829E-15    2    -2000011        11   # BR(~chi_40 -> ~e_R+     e-)
     1.43564835E-08    2     1000013       -13   # BR(~chi_40 -> ~mu_L-    mu+)
     1.43564835E-08    2    -1000013        13   # BR(~chi_40 -> ~mu_L+    mu-)
     3.56666829E-15    2     2000013       -13   # BR(~chi_40 -> ~mu_R-    mu+)
     3.56666829E-15    2    -2000013        13   # BR(~chi_40 -> ~mu_R+    mu-)
     7.00072457E-09    2     1000015       -15   # BR(~chi_40 -> ~tau_1-   tau+)
     7.00072457E-09    2    -1000015        15   # BR(~chi_40 -> ~tau_1+   tau-)
     7.33240481E-09    2     2000015       -15   # BR(~chi_40 -> ~tau_2-   tau+)
     7.33240481E-09    2    -2000015        15   # BR(~chi_40 -> ~tau_2+   tau-)
     1.43752039E-08    2     1000012       -12   # BR(~chi_40 -> ~nu_eL    nu_eb)
     1.43752039E-08    2    -1000012        12   # BR(~chi_40 -> ~nu_eL*   nu_e )
     1.43752039E-08    2     1000014       -14   # BR(~chi_40 -> ~nu_muL   nu_mub)
     1.43752039E-08    2    -1000014        14   # BR(~chi_40 -> ~nu_muL*  nu_mu )
     1.43752039E-08    2     1000016       -16   # BR(~chi_40 -> ~nu_tau1  nu_taub)
     1.43752039E-08    2    -1000016        16   # BR(~chi_40 -> ~nu_tau1* nu_tau )
     9.11158032E-02    2     1000039        22   # BR(~chi_40 -> ~G        gam)
     4.61377970E-01    2     1000039        23   # BR(~chi_40 -> ~G        Z)
     3.13947760E-03    2     1000039        25   # BR(~chi_40 -> ~G        h)
     1.83148415E-01    2     1000039        35   # BR(~chi_40 -> ~G        H)
     7.15935068E-03    2     1000039        36   # BR(~chi_40 -> ~G        A)
#
#
#
#
