#
#                              ======================
#                              | THE SUSYHIT OUTPUT |
#                              ======================
#
#
#              ------------------------------------------------------
#              |     This is the output of the SUSY-HIT package     |
#              |  created by A.Djouadi, M.Muehlleitner and M.Spira. |
#              |  In case of problems with SUSY-HIT email to        |
#              |           margarete.muehlleitner@cern.ch           |
#              |           michael.spira@psi.ch                     |
#              |           abdelhak.djouadi@cern.ch                 |
#              ------------------------------------------------------
#
#              ------------------------------------------------------
#              |  SUSY Les Houches Accord - MSSM Spectrum + Decays  |
#              |              based on the decay programs           |
#              |                                                    |
#              |                     SDECAY 1.3b                    |
#              |                                                    |
#              |  Authors: M.Muhlleitner, A.Djouadi and Y.Mambrini  |
#              |  Ref.:    Comput.Phys.Commun.168(2005)46           |
#              |           [hep-ph/0311167]                         |
#              |                                                    |
#              |                     HDECAY 3.4                     |
#              |                                                    |
#              |  By: A.Djouadi,J.Kalinowski,M.Muhlleitner,M.Spira  |
#              |  Ref.:    Comput.Phys.Commun.108(1998)56           |
#              |           [hep-ph/9704448]                         |
#              |                                                    |
#              |                                                    |
#              |  If not stated otherwise all DRbar couplings and   |
#              |  soft SUSY breaking masses are given at the scale  |
#              |  Q=  0.91187600E+02
#              |                                                    |
#              ------------------------------------------------------
#
#
BLOCK DCINFO  # Decay Program information
     1   SDECAY/HDECAY # decay calculator
     2   1.3b  /3.4    # version number
#
BLOCK SPINFO  # Spectrum calculator information
     1   SuSpect     # RGE +Spectrum calculator            
     2   2.41         # version number                     
#
BLOCK MODSEL  # Model selection
     1     0   # #general MSSM low scale                           
#
BLOCK SMINPUTS  # Standard Model inputs
         1     1.27934000E+02   # alpha_em^-1(M_Z)^MSbar
         2     1.16639000E-05   # G_F [GeV^-2]
         3     1.17200000E-01   # alpha_S(M_Z)^MSbar
         4     9.11870000E+01   # M_Z pole mass
         5     4.25000000E+00   # mb(mb)^MSbar
         6     1.72500000E+02   # mt pole mass
         7     1.77700000E+00   # mtau pole mass
#
BLOCK MINPAR  # Input parameters - minimal models
#
BLOCK EXTPAR  # Input parameters - non-minimal models
         0     9.11876000E+01   # EWSB                
         1     1.00000000E+03   # M_1                 
         2     1.00000000E+05   # M_2                 
         3     1.70000000E+03   # M_3                 
        11     0.00000000E+00   # A_t                 
        12     0.00000000E+00   # A_b                 
        13     0.00000000E+00   # A_tau               
        14     0.00000000E+00   # A_u                 
        15     0.00000000E+00   # A_d                 
        16     0.00000000E+00   # A_e                 
        23     1.00000000E+05   # mu(EWSB)            
        25     1.50000000E+00   # tanbeta(in)         
        26     2.00000000E+03   # MA_pole             
        31     1.00000000E+05   # M_eL                
        32     1.00000000E+05   # M_muL               
        33     1.00000000E+05   # M_tauL              
        34     1.00000000E+05   # M_eR                
        35     1.00000000E+05   # M_muR               
        36     1.00000000E+05   # M_tauR              
        41     3.00000000E+03   # M_q1L               
        42     3.00000000E+03   # M_q2L               
        43     3.00000000E+03   # M_q3L               
        44     1.00000000E+05   # M_uR                
        45     1.00000000E+05   # M_cR                
        46     1.00000000E+05   # M_tR                
        47     3.00000000E+03   # M_dR                
        48     3.00000000E+03   # M_sR                
        49     3.00000000E+03   # M_bR                
#
BLOCK MASS  # Mass Spectrum
# PDG code           mass       particle
        24     8.05945995E+01   # W+
        25     1.25000000E+02   # h
        35     2.00295465E+03   # H
        36     2.00000000E+03   # A
        37     2.02280675E+03   # H+
         5     4.87877839E+00   # b-quark pole mass calculated from mb(mb)_Msbar
   1000001     3.00021866E+03   # ~d_L
   2000001     3.00004264E+03   # ~d_R
   1000002     2.99982397E+03   # ~u_L
   2000002     9.99999974E+04   # ~u_R
   1000003     3.00021866E+03   # ~s_L
   2000003     3.00004264E+03   # ~s_R
   1000004     2.99982397E+03   # ~c_L
   2000004     9.99999974E+04   # ~c_R
   1000005     2.94937992E+03   # ~b_1
   2000005     3.05003837E+03   # ~b_2
   1000006     3.00183696E+03   # ~t_1
   2000006     1.00000155E+05   # ~t_2
   1000011     1.00000004E+05   # ~e_L
   2000011     1.00000004E+05   # ~e_R
   1000012     9.99999922E+04   # ~nu_eL
   1000013     1.00000004E+05   # ~mu_L
   2000013     1.00000004E+05   # ~mu_R
   1000014     9.99999922E+04   # ~nu_muL
   1000015     9.99986710E+04   # ~tau_1
   2000015     1.00001337E+05   # ~tau_2
   1000016     9.99999922E+04   # ~nu_tauL
   1000021     1.70000000E+03   # ~g
   1000022     9.99981377E+02   # ~chi_10
   1000023     9.99230655E+04   # ~chi_20
   1000025    -1.00000002E+05   # ~chi_30
   1000035     1.00076955E+05   # ~chi_40
   1000024     9.99230564E+04   # ~chi_1+
   1000037     1.00076946E+05   # ~chi_2+
   1000039     5.00000000E-09   # ~gravitino
#
BLOCK NMIX  # Neutralino Mixing Matrix
  1  1     9.99999898E-01   # N_11
  1  2    -3.30421447E-07   # N_12
  1  3     3.74218580E-04   # N_13
  1  4    -2.51544219E-04   # N_14
  2  1     3.13101238E-04   # N_21
  2  2     7.07148592E-01   # N_22
  2  3    -5.00008863E-01   # N_23
  2  4     4.99931903E-01   # N_24
  3  1     8.67437813E-05   # N_31
  3  2    -7.69448090E-05   # N_32
  3  3    -7.07106742E-01   # N_33
  3  4    -7.07106811E-01   # N_34
  4  1     3.12661514E-04   # N_41
  4  2    -7.07064969E-01   # N_42
  4  3    -4.99991048E-01   # N_43
  4  4     5.00067978E-01   # N_44
#
BLOCK UMIX  # Chargino Mixing Matrix U
  1  1    -7.07052371E-01   # U_11
  1  2     7.07161187E-01   # U_12
  2  1     7.07161187E-01   # U_21
  2  2     7.07052371E-01   # U_22
#
BLOCK VMIX  # Chargino Mixing Matrix V
  1  1    -7.07161187E-01   # V_11
  1  2     7.07052371E-01   # V_12
  2  1     7.07052371E-01   # V_21
  2  2     7.07161187E-01   # V_22
#
BLOCK STOPMIX  # Stop Mixing Matrix
  1  1     9.99999516E-01   # cos(theta_t)
  1  2     9.83869791E-04   # sin(theta_t)
  2  1    -9.83869791E-04   # -sin(theta_t)
  2  2     9.99999516E-01   # cos(theta_t)
#
BLOCK SBOTMIX  # Sbottom Mixing Matrix
  1  1     7.06488167E-01   # cos(theta_b)
  1  2     7.07724855E-01   # sin(theta_b)
  2  1    -7.07724855E-01   # -sin(theta_b)
  2  2     7.06488167E-01   # cos(theta_b)
#
BLOCK STAUMIX  # Stau Mixing Matrix
  1  1     7.07085069E-01   # cos(theta_tau)
  1  2     7.07128493E-01   # sin(theta_tau)
  2  1    -7.07128493E-01   # -sin(theta_tau)
  2  2     7.07085069E-01   # cos(theta_tau)
#
BLOCK ALPHA  # Higgs mixing
          -5.89166009E-01   # Mixing angle in the neutral Higgs boson sector
#
BLOCK HMIX Q=  9.11876000E+01  # DRbar Higgs Parameters
         1     1.00000000E+05   # mu(Q)               
         2     1.49999982E+00   # tanbeta(Q)          
         3     2.55291216E+02   # vev(Q)              
         4    -2.17611471E+09   # MA^2(Q)             
#
BLOCK GAUGE Q=  9.11876000E+01  # The gauge couplings
     1     3.49975916E-01   # gprime(Q) DRbar
     2     6.14734734E-01   # g(Q) DRbar
     3     1.07736832E+00   # g3(Q) DRbar
#
BLOCK AU Q=  9.11876000E+01  # The trilinear couplings
  1  1     0.00000000E+00   # A_u(Q) DRbar
  2  2     0.00000000E+00   # A_c(Q) DRbar
  3  3     0.00000000E+00   # A_t(Q) DRbar
#
BLOCK AD Q=  9.11876000E+01  # The trilinear couplings
  1  1     0.00000000E+00   # A_d(Q) DRbar
  2  2     0.00000000E+00   # A_s(Q) DRbar
  3  3     0.00000000E+00   # A_b(Q) DRbar
#
BLOCK AE Q=  9.11876000E+01  # The trilinear couplings
  1  1     0.00000000E+00   # A_e(Q) DRbar
  2  2     0.00000000E+00   # A_mu(Q) DRbar
  3  3     0.00000000E+00   # A_tau(Q) DRbar
#
BLOCK Yu Q=  9.11876000E+01  # The Yukawa couplings
  1  1     0.00000000E+00   # y_u(Q) DRbar
  2  2     0.00000000E+00   # y_c(Q) DRbar
  3  3     9.82148421E-01   # y_t(Q) DRbar
#
BLOCK Yd Q=  9.11876000E+01  # The Yukawa couplings
  1  1     0.00000000E+00   # y_d(Q) DRbar
  2  2     0.00000000E+00   # y_s(Q) DRbar
  3  3     2.01027686E-02   # y_b(Q) DRbar
#
BLOCK Ye Q=  9.11876000E+01  # The Yukawa couplings
  1  1     0.00000000E+00   # y_e(Q) DRbar
  2  2     0.00000000E+00   # y_mu(Q) DRbar
  3  3     1.77481110E-02   # y_tau(Q) DRbar
#
BLOCK MSOFT Q=  9.11876000E+01  # The soft SUSY breaking masses at the scale Q
         1     1.00000000E+03   # M_1                 
         2     1.00000000E+05   # M_2                 
         3     1.70000000E+03   # M_3                 
        14     0.00000000E+00   # A_u                 
        15     0.00000000E+00   # A_d                 
        16     0.00000000E+00   # A_e                 
        21    -1.06467204E+10   # M^2_Hd              
        22    -1.00463538E+10   # M^2_Hu              
        31     1.00000000E+05   # M_eL                
        32     1.00000000E+05   # M_muL               
        33     1.00000000E+05   # M_tauL              
        34     1.00000000E+05   # M_eR                
        35     1.00000000E+05   # M_muR               
        36     1.00000000E+05   # M_tauR              
        41     3.00000000E+03   # M_q1L               
        42     3.00000000E+03   # M_q2L               
        43     3.00000000E+03   # M_q3L               
        44     1.00000000E+05   # M_uR                
        45     1.00000000E+05   # M_cR                
        46     1.00000000E+05   # M_tR                
        47     3.00000000E+03   # M_dR                
        48     3.00000000E+03   # M_sR                
        49     3.00000000E+03   # M_bR                
#
#
#
#                             =================
#                             |The decay table|
#                             =================
#
# - The QCD corrections to the decays gluino -> squark  + quark
#                                     squark -> gaugino + quark_prime
#                                     squark -> squark_prime + Higgs
#                                     squark -> gluino  + quark
#   are included.
#
# - The multi-body decays for the inos, stops and sbottoms are included.
#
# - The loop induced decays for the gluino, neutralinos and stops
#   are included.
#
# - The SUSY decays of the top quark are included.
#
# - Possible decays of the NLSP in GMSB models are included.
#
#
#         PDG            Width
DECAY         6     1.30383389E+00   # top decays
#          BR         NDA      ID1       ID2
     1.00000000E+00    2           5        24   # BR(t ->  b    W+)
#
#         PDG            Width
DECAY   1000021     1.E-04   # gluino decays (OJ Mods)
#          BR         NDA      ID1       ID2
     2.02872687E-02    2     1000022        21   # BR(~g -> ~chi_10 g)
#          BR         NDA      ID1       ID2
     1.43583083E-02    2     1000039        21   # BR(~g -> ~G      g)
#           BR         NDA      ID1       ID2       ID3
     2.76089605E-01    3     1000022         1        -1   # BR(~g -> ~chi_10 d  db)
     5.52418311E-02    3     1000022         2        -2   # BR(~g -> ~chi_10 u  ub)
     2.76089605E-01    3     1000022         3        -3   # BR(~g -> ~chi_10 s  sb)
     5.52418311E-02    3     1000022         4        -4   # BR(~g -> ~chi_10 c  cb)
     2.76827148E-01    3     1000022         5        -5   # BR(~g -> ~chi_10 b  bb)
     2.58644028E-02    3     1000022         6        -6   # BR(~g -> ~chi_10 t  tb)
#
#         PDG            Width
DECAY   1000006     8.95816285E+01   # stop1 decays
#          BR         NDA      ID1       ID2
     3.42603131E-03    2     1000022         6   # BR(~t_1 -> ~chi_10 t )
     9.96573969E-01    2     1000021         6   # BR(~t_1 -> ~g      t )
#
#         PDG            Width
DECAY   2000006     4.87220633E+03   # stop2 decays
#          BR         NDA      ID1       ID2
     4.30698951E-02    2     1000022         6   # BR(~t_2 -> ~chi_10 t )
     3.17203971E-07    2     1000024         5   # BR(~t_2 -> ~chi_1+ b )
     5.60301066E-01    2     1000021         6   # BR(~t_2 -> ~g      t )
     2.12097581E-02    2     1000006        25   # BR(~t_2 -> ~t_1    h )
     5.06701499E-02    2     1000006        35   # BR(~t_2 -> ~t_1    H )
     5.07457264E-02    2     1000006        36   # BR(~t_2 -> ~t_1    A )
     5.04733923E-02    2     1000005        37   # BR(~t_2 -> ~b_1    H+)
     5.10410999E-02    2     2000005        37   # BR(~t_2 -> ~b_2    H+)
     5.70036502E-02    2     1000006        23   # BR(~t_2 -> ~t_1    Z )
     5.75063774E-02    2     1000005        24   # BR(~t_2 -> ~b_1    W+)
     5.79785674E-02    2     2000005        24   # BR(~t_2 -> ~b_2    W+)
#
#         PDG            Width
DECAY   1000005     8.68229014E+01   # sbottom1 decays
#          BR         NDA      ID1       ID2
     8.66925248E-03    2     1000022         5   # BR(~b_1 -> ~chi_10 b )
     9.91330748E-01    2     1000021         5   # BR(~b_1 -> ~g      b )
#
#         PDG            Width
DECAY   2000005     9.43268879E+01   # sbottom2 decays
#          BR         NDA      ID1       ID2
     8.36522122E-03    2     1000022         5   # BR(~b_2 -> ~chi_10 b )
     9.91053490E-01    2     1000021         5   # BR(~b_2 -> ~g      b )
     5.81288757E-04    2     1000005        23   # BR(~b_2 -> ~b_1    Z )
#
#         PDG            Width
DECAY   1000002     5.31628997E+01   # sup_L decays
#          BR         NDA      ID1       ID2
     5.94734985E-03    2     1000022         2   # BR(~u_L -> ~chi_10 u)
     9.94052650E-01    2     1000021         2   # BR(~u_L -> ~g      u)
#
#         PDG            Width
DECAY   2000002     4.03037903E+03   # sup_R decays
#          BR         NDA      ID1       ID2
     5.20702918E-02    2     1000022         2   # BR(~u_R -> ~chi_10 u)
     6.50473341E-13    2     1000023         2   # BR(~u_R -> ~chi_20 u)
     9.47929708E-01    2     1000021         2   # BR(~u_R -> ~g      u)
#
#         PDG            Width
DECAY   1000001     5.31830738E+01   # sdown_L decays
#          BR         NDA      ID1       ID2
     5.94628967E-03    2     1000022         1   # BR(~d_L -> ~chi_10 d)
     9.94053710E-01    2     1000021         1   # BR(~d_L -> ~g      d)
#
#         PDG            Width
DECAY   2000001     5.41227171E+01   # sdown_R decays
#          BR         NDA      ID1       ID2
     2.33701113E-02    2     1000022         1   # BR(~d_R -> ~chi_10 d)
     9.76629889E-01    2     1000021         1   # BR(~d_R -> ~g      d)
#
#         PDG            Width
DECAY   1000004     5.31628997E+01   # scharm_L decays
#          BR         NDA      ID1       ID2
     5.94734985E-03    2     1000022         4   # BR(~c_L -> ~chi_10 c)
     9.94052650E-01    2     1000021         4   # BR(~c_L -> ~g      c)
#
#         PDG            Width
DECAY   2000004     4.03037903E+03   # scharm_R decays
#          BR         NDA      ID1       ID2
     5.20702918E-02    2     1000022         4   # BR(~c_R -> ~chi_10 c)
     6.50473341E-13    2     1000023         4   # BR(~c_R -> ~chi_20 c)
     9.47929708E-01    2     1000021         4   # BR(~c_R -> ~g      c)
#
#         PDG            Width
DECAY   1000003     5.31830738E+01   # sstrange_L decays
#          BR         NDA      ID1       ID2
     5.94628967E-03    2     1000022         3   # BR(~s_L -> ~chi_10 s)
     9.94053710E-01    2     1000021         3   # BR(~s_L -> ~g      s)
#
#         PDG            Width
DECAY   2000003     5.41227171E+01   # sstrange_R decays
#          BR         NDA      ID1       ID2
     2.33701113E-02    2     1000022         3   # BR(~s_R -> ~chi_10 s)
     9.76629889E-01    2     1000021         3   # BR(~s_R -> ~g      s)
#
#         PDG            Width
DECAY   1000011     1.21813042E+02   # selectron_L decays
#          BR         NDA      ID1       ID2
     9.99989045E-01    2     1000022        11   # BR(~e_L -> ~chi_10 e-)
     3.65287950E-06    2     1000023        11   # BR(~e_L -> ~chi_20 e-)
     3.75039332E-24    2     1000025        11   # BR(~e_L -> ~chi_30 e-)
     7.30181650E-06    2    -1000024        12   # BR(~e_L -> ~chi_1- nu_e)
#
#         PDG            Width
DECAY   2000011     4.87247396E+02   # selectron_R decays
#          BR         NDA      ID1       ID2
     1.00000000E+00    2     1000022        11   # BR(~e_R -> ~chi_10 e-)
     2.31990233E-13    2     1000023        11   # BR(~e_R -> ~chi_20 e-)
     1.20415832E-23    2     1000025        11   # BR(~e_R -> ~chi_30 e-)
#
#         PDG            Width
DECAY   1000013     1.21813042E+02   # smuon_L decays
#          BR         NDA      ID1       ID2
     9.99989045E-01    2     1000022        13   # BR(~mu_L -> ~chi_10 mu-)
     3.65287950E-06    2     1000023        13   # BR(~mu_L -> ~chi_20 mu-)
     3.75039332E-24    2     1000025        13   # BR(~mu_L -> ~chi_30 mu-)
     7.30181650E-06    2    -1000024        14   # BR(~mu_L -> ~chi_1- nu_mu)
#
#         PDG            Width
DECAY   2000013     4.87247396E+02   # smuon_R decays
#          BR         NDA      ID1       ID2
     1.00000000E+00    2     1000022        13   # BR(~mu_R -> ~chi_10 mu-)
     2.31990233E-13    2     1000023        13   # BR(~mu_R -> ~chi_20 mu-)
     1.20415832E-23    2     1000025        13   # BR(~mu_R -> ~chi_30 mu-)
#
#         PDG            Width
DECAY   1000015     7.65027924E+02   # stau_1 decays
#          BR         NDA      ID1       ID2
     3.98077061E-01    2     1000022        15   # BR(~tau_1 -> ~chi_10  tau-)
     2.97022783E-07    2     1000023        15   # BR(~tau_1 -> ~chi_20  tau-)
     5.94224742E-07    2    -1000024        16   # BR(~tau_1 -> ~chi_1-  nu_tau)
     6.01922048E-01    2     1000039        15   # BR(~tau_1 -> ~G       tau-)
#
#         PDG            Width
DECAY   2000015     3.04519687E+02   # stau_2 decays
#          BR         NDA      ID1       ID2
     9.99997862E-01    2     1000022        15   # BR(~tau_2 -> ~chi_10  tau-)
     7.12640606E-07    2     1000023        15   # BR(~tau_2 -> ~chi_20  tau-)
     1.42548899E-06    2    -1000024        16   # BR(~tau_2 -> ~chi_1-  nu_tau)
#
#         PDG            Width
DECAY   1000012     1.21813310E+02   # snu_eL decays
#          BR         NDA      ID1       ID2
     9.99989050E-01    2     1000022        12   # BR(~nu_eL -> ~chi_10 nu_e)
     3.64807178E-06    2     1000023        12   # BR(~nu_eL -> ~chi_20 nu_e)
     7.30180985E-06    2     1000024        11   # BR(~nu_eL -> ~chi_1+ e-)
#
#         PDG            Width
DECAY   1000014     1.21813310E+02   # snu_muL decays
#          BR         NDA      ID1       ID2
     9.99989050E-01    2     1000022        14   # BR(~nu_muL -> ~chi_10 nu_mu)
     3.64807178E-06    2     1000023        14   # BR(~nu_muL -> ~chi_20 nu_mu)
     7.30180985E-06    2     1000024        13   # BR(~nu_muL -> ~chi_1+ mu-)
#
#         PDG            Width
DECAY   1000016     1.21813309E+02   # snu_tauL decays
#          BR         NDA      ID1       ID2
     9.99989056E-01    2     1000022        16   # BR(~nu_tauL -> ~chi_10 nu_tau)
     3.64807180E-06    2     1000023        16   # BR(~nu_tauL -> ~chi_20 nu_tau)
     7.29621324E-06    2     1000024        15   # BR(~nu_tauL -> ~chi_1+ tau-)
#
#         PDG            Width
DECAY   1000024     3.92208572E+03   # chargino1+ decays
#          BR         NDA      ID1       ID2
     1.24488852E-01    2     1000002        -1   # BR(~chi_1+ -> ~u_L     db)
     1.24450498E-01    2    -1000001         2   # BR(~chi_1+ -> ~d_L*    u )
     1.24488852E-01    2     1000004        -3   # BR(~chi_1+ -> ~c_L     sb)
     1.24450498E-01    2    -1000003         4   # BR(~chi_1+ -> ~s_L*    c )
     1.12349522E-01    2     1000006        -5   # BR(~chi_1+ -> ~t_1     bb)
     1.37938758E-01    2    -1000005         6   # BR(~chi_1+ -> ~b_1*    t )
     1.33611842E-01    2    -2000005         6   # BR(~chi_1+ -> ~b_2*    t )
     6.71696607E-03    2     1000022        24   # BR(~chi_1+ -> ~chi_10  W+)
     6.82556860E-03    2     1000022        37   # BR(~chi_1+ -> ~chi_10  H+)
     7.85395541E-02    2     1000039        24   # BR(~chi_1+ -> ~G       W+)
     2.61390904E-02    2     1000039        37   # BR(~chi_1+ -> ~G       H+)
#
#         PDG            Width
DECAY   1000037     3.92632221E+03   # chargino2+ decays
#          BR         NDA      ID1       ID2
     1.24421792E-01    2     1000002        -1   # BR(~chi_2+ -> ~u_L     db)
     1.24460047E-01    2    -1000001         2   # BR(~chi_2+ -> ~d_L*    u )
     1.24421792E-01    2     1000004        -3   # BR(~chi_2+ -> ~c_L     sb)
     1.24460047E-01    2    -1000003         4   # BR(~chi_2+ -> ~s_L*    c )
     1.11981089E-01    2     1000006        -5   # BR(~chi_2+ -> ~t_1     bb)
     8.23930120E-07    2     2000006        -5   # BR(~chi_2+ -> ~t_2     bb)
     1.32192170E-01    2    -1000005         6   # BR(~chi_2+ -> ~b_1*    t )
     1.38708350E-01    2    -2000005         6   # BR(~chi_2+ -> ~b_2*    t )
     1.01279658E-07    2     1000012       -11   # BR(~chi_2+ -> ~nu_eL   e+  )
     1.01279658E-07    2     1000014       -13   # BR(~chi_2+ -> ~nu_muL  mu+ )
     1.01202012E-07    2     1000016       -15   # BR(~chi_2+ -> ~nu_tau1 tau+)
     1.01279779E-07    2    -1000011        12   # BR(~chi_2+ -> ~e_L+    nu_e)
     1.01279779E-07    2    -1000013        14   # BR(~chi_2+ -> ~mu_L+   nu_mu)
     4.94237377E-08    2    -1000015        16   # BR(~chi_2+ -> ~tau_1+  nu_tau)
     5.17680734E-08    2    -2000015        16   # BR(~chi_2+ -> ~tau_2+  nu_tau)
     2.59242590E-04    2     1000024        23   # BR(~chi_2+ -> ~chi_1+  Z )
     6.69667331E-03    2     1000022        24   # BR(~chi_2+ -> ~chi_10  W+)
     2.96471580E-04    2     1000023        24   # BR(~chi_2+ -> ~chi_20  W+)
     2.34954756E-12    2     1000024        25   # BR(~chi_2+ -> ~chi_1+  h )
     6.80055019E-03    2     1000022        37   # BR(~chi_2+ -> ~chi_10  H+)
     7.90090268E-02    2     1000039        24   # BR(~chi_2+ -> ~G       W+)
     2.62913199E-02    2     1000039        37   # BR(~chi_2+ -> ~G       H+)
#
#         PDG            Width
DECAY   1000022     1.E-08   # neutralino1 decays (OJ Mods)
#          BR         NDA      ID1       ID2
     7.61342109E-01    2     1000039        22   # BR(~chi_10 -> ~G        gam)
     2.38657891E-01    2     1000039        23   # BR(~chi_10 -> ~G        Z)
     6.74431055E-13    2     1000039        25   # BR(~chi_10 -> ~G        h)
#
#         PDG            Width
DECAY   1000023     1.E-08   # neutralino2 decays (OJ Mods)
#          BR         NDA      ID1       ID2
     2.56457783E-04    2     1000022        23   # BR(~chi_20 -> ~chi_10   Z )
     6.82409333E-03    2     1000022        25   # BR(~chi_20 -> ~chi_10   h )
     2.70104192E-04    2     1000022        35   # BR(~chi_20 -> ~chi_10   H )
     6.54918333E-03    2     1000022        36   # BR(~chi_20 -> ~chi_10   A )
     6.02732818E-02    2     1000002        -2   # BR(~chi_20 -> ~u_L      ub)
     6.02732818E-02    2    -1000002         2   # BR(~chi_20 -> ~u_L*     u )
     6.02530127E-02    2     1000001        -1   # BR(~chi_20 -> ~d_L      db)
     6.02530127E-02    2    -1000001         1   # BR(~chi_20 -> ~d_L*     d )
     1.70183834E-09    2     2000001        -1   # BR(~chi_20 -> ~d_R      db)
     1.70183834E-09    2    -2000001         1   # BR(~chi_20 -> ~d_R*     d )
     6.02732818E-02    2     1000004        -4   # BR(~chi_20 -> ~c_L      cb)
     6.02732818E-02    2    -1000004         4   # BR(~chi_20 -> ~c_L*     c )
     6.02530127E-02    2     1000003        -3   # BR(~chi_20 -> ~s_L      sb)
     6.02530127E-02    2    -1000003         3   # BR(~chi_20 -> ~s_L*     s )
     1.70183834E-09    2     2000003        -3   # BR(~chi_20 -> ~s_R      sb)
     1.70183834E-09    2    -2000003         3   # BR(~chi_20 -> ~s_R*     s )
     1.35748399E-01    2     1000006        -6   # BR(~chi_20 -> ~t_1      tb)
     1.35748399E-01    2    -1000006         6   # BR(~chi_20 -> ~t_1*     t )
     2.93139107E-02    2     1000005        -5   # BR(~chi_20 -> ~b_1      bb)
     2.93139107E-02    2    -1000005         5   # BR(~chi_20 -> ~b_1*     b )
     2.67872665E-02    2     2000005        -5   # BR(~chi_20 -> ~b_2      bb)
     2.67872665E-02    2    -2000005         5   # BR(~chi_20 -> ~b_2*     b )
     1.28337194E-02    2     1000039        22   # BR(~chi_20 -> ~G        gam)
     6.46750970E-02    2     1000039        23   # BR(~chi_20 -> ~G        Z)
     9.94006937E-04    2     1000039        25   # BR(~chi_20 -> ~G        h)
     2.51335066E-02    2     1000039        35   # BR(~chi_20 -> ~G        H)
     1.00562092E-03    2     1000039        36   # BR(~chi_20 -> ~G        A)
#
#         PDG            Width
DECAY   1000025     1.51565322E+03   # neutralino3 decays
#          BR         NDA      ID1       ID2
     2.96498010E-02    2     1000022        23   # BR(~chi_30 -> ~chi_10   Z )
     1.14865246E-03    2     1000022        25   # BR(~chi_30 -> ~chi_10   h )
     2.90433478E-02    2     1000022        35   # BR(~chi_30 -> ~chi_10   H )
     1.20860489E-03    2     1000022        36   # BR(~chi_30 -> ~chi_10   A )
     9.78561452E-10    2     1000002        -2   # BR(~chi_30 -> ~u_L      ub)
     9.78561452E-10    2    -1000002         2   # BR(~chi_30 -> ~u_L*     u )
     1.78487326E-17    2     2000002        -2   # BR(~chi_30 -> ~u_R      ub)
     1.78487326E-17    2    -2000002         2   # BR(~chi_30 -> ~u_R*     u )
     2.33382143E-09    2     1000001        -1   # BR(~chi_30 -> ~d_L      db)
     2.33382143E-09    2    -1000001         1   # BR(~chi_30 -> ~d_L*     d )
     2.89941857E-10    2     2000001        -1   # BR(~chi_30 -> ~d_R      db)
     2.89941857E-10    2    -2000001         1   # BR(~chi_30 -> ~d_R*     d )
     9.78561452E-10    2     1000004        -4   # BR(~chi_30 -> ~c_L      cb)
     9.78561452E-10    2    -1000004         4   # BR(~chi_30 -> ~c_L*     c )
     1.78487326E-17    2     2000004        -4   # BR(~chi_30 -> ~c_R      cb)
     1.78487326E-17    2    -2000004         4   # BR(~chi_30 -> ~c_R*     c )
     2.33382143E-09    2     1000003        -3   # BR(~chi_30 -> ~s_L      sb)
     2.33382143E-09    2    -1000003         3   # BR(~chi_30 -> ~s_L*     s )
     2.89941857E-10    2     2000003        -3   # BR(~chi_30 -> ~s_R      sb)
     2.89941857E-10    2    -2000003         3   # BR(~chi_30 -> ~s_R*     s )
     3.52773651E-01    2     1000006        -6   # BR(~chi_30 -> ~t_1      tb)
     3.52773651E-01    2    -1000006         6   # BR(~chi_30 -> ~t_1*     t )
     1.26467235E-04    2     1000005        -5   # BR(~chi_30 -> ~b_1      bb)
     1.26467235E-04    2    -1000005         5   # BR(~chi_30 -> ~b_1*     b )
     1.28681080E-04    2     2000005        -5   # BR(~chi_30 -> ~b_2      bb)
     1.28681080E-04    2    -2000005         5   # BR(~chi_30 -> ~b_2*     b )
     5.83204918E-23    2     1000012       -12   # BR(~chi_30 -> ~nu_eL    nu_eb)
     5.83204918E-23    2    -1000012        12   # BR(~chi_30 -> ~nu_eL*   nu_e )
     5.83204918E-23    2     1000014       -14   # BR(~chi_30 -> ~nu_muL   nu_mub)
     5.83204918E-23    2    -1000014        14   # BR(~chi_30 -> ~nu_muL*  nu_mu )
     5.83204918E-23    2     1000016       -16   # BR(~chi_30 -> ~nu_tau1  nu_taub)
     5.83204918E-23    2    -1000016        16   # BR(~chi_30 -> ~nu_tau1* nu_tau )
     3.24536904E-10    2     1000039        22   # BR(~chi_30 -> ~G        gam)
     4.48227571E-03    2     1000039        23   # BR(~chi_30 -> ~G        Z)
     1.12108506E-01    2     1000039        25   # BR(~chi_30 -> ~G        h)
     4.42317926E-03    2     1000039        35   # BR(~chi_30 -> ~G        H)
     1.11878019E-01    2     1000039        36   # BR(~chi_30 -> ~G        A)
#
#         PDG            Width
DECAY   1000035     3.92752392E+03   # neutralino4 decays
#          BR         NDA      ID1       ID2
     2.56866901E-04    2     1000022        23   # BR(~chi_40 -> ~chi_10   Z )
     1.03938697E-18    2     1000023        23   # BR(~chi_40 -> ~chi_20   Z )
     2.96323896E-04    2     1000024       -24   # BR(~chi_40 -> ~chi_1+   W-)
     2.96323896E-04    2    -1000024        24   # BR(~chi_40 -> ~chi_1-   W+)
     6.80452651E-03    2     1000022        25   # BR(~chi_40 -> ~chi_10   h )
     2.68041628E-04    2     1000022        35   # BR(~chi_40 -> ~chi_10   H )
     6.52843461E-03    2     1000022        36   # BR(~chi_40 -> ~chi_10   A )
     4.13353743E-12    2     1000023        25   # BR(~chi_40 -> ~chi_20   h )
     6.02298548E-02    2     1000002        -2   # BR(~chi_40 -> ~u_L      ub)
     6.02298548E-02    2    -1000002         2   # BR(~chi_40 -> ~u_L*     u )
     1.77015052E-12    2     2000002        -2   # BR(~chi_40 -> ~u_R      ub)
     1.77015052E-12    2    -2000002         2   # BR(~chi_40 -> ~u_R*     u )
     6.02500603E-02    2     1000001        -1   # BR(~chi_40 -> ~d_L      db)
     6.02500603E-02    2    -1000001         1   # BR(~chi_40 -> ~d_L*     d )
     1.69680976E-09    2     2000001        -1   # BR(~chi_40 -> ~d_R      db)
     1.69680976E-09    2    -2000001         1   # BR(~chi_40 -> ~d_R*     d )
     6.02298548E-02    2     1000004        -4   # BR(~chi_40 -> ~c_L      cb)
     6.02298548E-02    2    -1000004         4   # BR(~chi_40 -> ~c_L*     c )
     1.77015052E-12    2     2000004        -4   # BR(~chi_40 -> ~c_R      cb)
     1.77015052E-12    2    -2000004         4   # BR(~chi_40 -> ~c_R*     c )
     6.02500603E-02    2     1000003        -3   # BR(~chi_40 -> ~s_L      sb)
     6.02500603E-02    2    -1000003         3   # BR(~chi_40 -> ~s_L*     s )
     1.69680976E-09    2     2000003        -3   # BR(~chi_40 -> ~s_R      sb)
     1.69680976E-09    2    -2000003         3   # BR(~chi_40 -> ~s_R*     s )
     1.35251573E-01    2     1000006        -6   # BR(~chi_40 -> ~t_1      tb)
     1.35251573E-01    2    -1000006         6   # BR(~chi_40 -> ~t_1*     t )
     2.66032188E-02    2     1000005        -5   # BR(~chi_40 -> ~b_1      bb)
     2.66032188E-02    2    -1000005         5   # BR(~chi_40 -> ~b_1*     b )
     2.94994120E-02    2     2000005        -5   # BR(~chi_40 -> ~b_2      bb)
     2.94994120E-02    2    -2000005         5   # BR(~chi_40 -> ~b_2*     b )
     5.05985545E-08    2     1000011       -11   # BR(~chi_40 -> ~e_L-     e+)
     5.05985545E-08    2    -1000011        11   # BR(~chi_40 -> ~e_L+     e-)
     1.28335799E-14    2     2000011       -11   # BR(~chi_40 -> ~e_R-     e+)
     1.28335799E-14    2    -2000011        11   # BR(~chi_40 -> ~e_R+     e-)
     5.05985545E-08    2     1000013       -13   # BR(~chi_40 -> ~mu_L-    mu+)
     5.05985545E-08    2    -1000013        13   # BR(~chi_40 -> ~mu_L+    mu-)
     1.28335799E-14    2     2000013       -13   # BR(~chi_40 -> ~mu_R-    mu+)
     1.28335799E-14    2    -2000013        13   # BR(~chi_40 -> ~mu_R+    mu-)
     2.46729037E-08    2     1000015       -15   # BR(~chi_40 -> ~tau_1-   tau+)
     2.46729037E-08    2    -1000015        15   # BR(~chi_40 -> ~tau_1+   tau-)
     2.58428967E-08    2     2000015       -15   # BR(~chi_40 -> ~tau_2-   tau+)
     2.58428967E-08    2    -2000015        15   # BR(~chi_40 -> ~tau_2+   tau-)
     5.06650613E-08    2     1000012       -12   # BR(~chi_40 -> ~nu_eL    nu_eb)
     5.06650613E-08    2    -1000012        12   # BR(~chi_40 -> ~nu_eL*   nu_e )
     5.06650613E-08    2     1000014       -14   # BR(~chi_40 -> ~nu_muL   nu_mub)
     5.06650613E-08    2    -1000014        14   # BR(~chi_40 -> ~nu_muL*  nu_mu )
     5.06650613E-08    2     1000016       -16   # BR(~chi_40 -> ~nu_tau1  nu_taub)
     5.06650613E-08    2    -1000016        16   # BR(~chi_40 -> ~nu_tau1* nu_tau )
     1.28678887E-02    2     1000039        22   # BR(~chi_40 -> ~G        gam)
     6.51028079E-02    2     1000039        23   # BR(~chi_40 -> ~G        Z)
     1.00177962E-03    2     1000039        25   # BR(~chi_40 -> ~G        h)
     2.52894290E-02    2     1000039        35   # BR(~chi_40 -> ~G        H)
     1.01036541E-03    2     1000039        36   # BR(~chi_40 -> ~G        A)
#
#
#
#
