#
#                              ======================
#                              | THE SUSYHIT OUTPUT |
#                              ======================
#
#
#              ------------------------------------------------------
#              |     This is the output of the SUSY-HIT package     |
#              |  created by A.Djouadi, M.Muehlleitner and M.Spira. |
#              |  In case of problems with SUSY-HIT email to        |
#              |           margarete.muehlleitner@cern.ch           |
#              |           michael.spira@psi.ch                     |
#              |           abdelhak.djouadi@cern.ch                 |
#              ------------------------------------------------------
#
#              ------------------------------------------------------
#              |  SUSY Les Houches Accord - MSSM Spectrum + Decays  |
#              |              based on the decay programs           |
#              |                                                    |
#              |                     SDECAY 1.3b                    |
#              |                                                    |
#              |  Authors: M.Muhlleitner, A.Djouadi and Y.Mambrini  |
#              |  Ref.:    Comput.Phys.Commun.168(2005)46           |
#              |           [hep-ph/0311167]                         |
#              |                                                    |
#              |                     HDECAY 3.4                     |
#              |                                                    |
#              |  By: A.Djouadi,J.Kalinowski,M.Muhlleitner,M.Spira  |
#              |  Ref.:    Comput.Phys.Commun.108(1998)56           |
#              |           [hep-ph/9704448]                         |
#              |                                                    |
#              |                                                    |
#              |  If not stated otherwise all DRbar couplings and   |
#              |  soft SUSY breaking masses are given at the scale  |
#              |  Q=  0.50007461E+04
#              |                                                    |
#              ------------------------------------------------------
#
#
BLOCK DCINFO  # Decay Program information
     1   SDECAY/HDECAY # decay calculator
     2   1.3b  /3.4    # version number
#
BLOCK SPINFO  # Spectrum calculator information
     1    SOFTSUSY    # spectrum calculator                
     2    3.4.0       # version number                     
#
BLOCK MODSEL  # Model selection
     1     0   #  nonUniversal                                     
#
BLOCK SMINPUTS  # Standard Model inputs
         1     1.25778332E+02   # alpha_em^-1(M_Z)^MSbar
         2     1.16570000E-05   # G_F [GeV^-2]
         3     1.17200002E-01   # alpha_S(M_Z)^MSbar
         4     9.11876000E+01   # M_Z pole mass
         5     4.25000000E+00   # mb(mb)^MSbar
         6     1.72500000E+02   # mt pole mass
         7     1.77682000E+00   # mtau pole mass
#
BLOCK MINPAR  # Input parameters - minimal models
         3     1.00000000E+01   # tanb                
#
BLOCK EXTPAR  # Input parameters - non-minimal models
         0    -1.00000000E+00   # Set                 
         1     6.00000000E+01   # M_1(MX)             
         2     3.00000000E+03   # M_2(MX)             
         3     1.12229400E+03   # M_3(MX)             
        11     5.00000000E+03   # At(MX)              
        12     5.00000000E+03   # Ab(MX)              
        13     0.00000000E+00   # Atau(MX)            
        23    -6.68158000E+02   # mu(MX)              
        26     3.00000000E+03   # mA(pole)            
        31     5.00000000E+03   # meL(MX)             
        32     5.00000000E+03   # mmuL(MX)            
        33     5.00000000E+03   # mtauL(MX)           
        34     5.00000000E+03   # meR(MX)             
        35     5.00000000E+03   # mmuR(MX)            
        36     5.00000000E+03   # mtauR(MX)           
        41     5.00000000E+03   # mqL1(MX)            
        42     5.00000000E+03   # mqL2(MX)            
        43     5.00000000E+03   # mqL3(MX)            
        44     5.00000000E+03   # muR(MX)             
        45     5.00000000E+03   # mcR(MX)             
        46     5.00000000E+03   # mtR(MX)             
        47     5.00000000E+03   # mdR(MX)             
        48     5.00000000E+03   # msR(MX)             
        49     5.00000000E+03   # mbR(MX)             
#
BLOCK MASS  # Mass Spectrum
# PDG code           mass       particle
        24     8.00927497E+01   # W+
        25     1.24564551E+02   # h
        35     3.00008339E+03   # H
        36     2.99999867E+03   # A
        37     3.00137633E+03   # H+
         5     4.87878001E+00   # b-quark pole mass calculated from mb(mb)_Msbar
   1000001     5.06595558E+03   # ~d_L
   2000001     5.04810913E+03   # ~d_R
   1000002     5.06547930E+03   # ~u_L
   2000002     5.04781430E+03   # ~u_R
   1000003     5.06595558E+03   # ~s_L
   2000003     5.04810913E+03   # ~s_R
   1000004     5.06547930E+03   # ~c_L
   2000004     5.04781430E+03   # ~c_R
   1000005     5.01200972E+03   # ~b_1
   2000005     5.04648133E+03   # ~b_2
   1000006     4.90249504E+03   # ~t_1
   2000006     5.05703551E+03   # ~t_2
   1000011     5.01909186E+03   # ~e_L
   2000011     5.00593549E+03   # ~e_R
   1000012     5.01814215E+03   # ~nu_eL
   1000013     5.01909186E+03   # ~mu_L
   2000013     5.00593549E+03   # ~mu_R
   1000014     5.01814215E+03   # ~nu_muL
   1000015     5.00471958E+03   # ~tau_1
   2000015     5.01867337E+03   # ~tau_2
   1000016     5.01759253E+03   # ~nu_tauL
   1000021     1.40000018E+03   # ~g
   1000022     6.02747241E+01   # ~chi_10
   1000023     6.99989262E+02   # ~chi_20
   1000025    -7.02216666E+02   # ~chi_30
   1000035     3.07420101E+03   # ~chi_40
   1000024     7.00000765E+02   # ~chi_1+
   1000037     3.07436862E+03   # ~chi_2+
#
BLOCK NMIX  # Neutralino Mixing Matrix
  1  1     9.97979117E-01   # N_11
  1  2     2.19004549E-04   # N_12
  1  3    -6.35323142E-02   # N_13
  1  4     1.13088884E-03   # N_14
  2  1     4.41451113E-02   # N_21
  2  2     2.05688515E-02   # N_22
  2  3     7.06086648E-01   # N_23
  2  4     7.06448708E-01   # N_24
  3  1    -4.57027186E-02   # N_31
  3  2     1.61089479E-02   # N_32
  3  3    -7.05262625E-01   # N_33
  3  4     7.07288055E-01   # N_34
  4  1    -3.90486793E-04   # N_41
  4  2     9.99658630E-01   # N_42
  4  3    -3.14951384E-03   # N_43
  4  4    -2.59336056E-02   # N_44
#
BLOCK UMIX  # Chargino Mixing Matrix U
  1  1     4.46309134E-03   # U_11
  1  2     9.99990040E-01   # U_12
  2  1    -9.99990040E-01   # U_21
  2  2     4.46309134E-03   # U_22
#
BLOCK VMIX  # Chargino Mixing Matrix V
  1  1     3.67021376E-02   # V_11
  1  2    -9.99326250E-01   # V_12
  2  1    -9.99326250E-01   # V_21
  2  2    -3.67021376E-02   # V_22
#
BLOCK STOPMIX  # Stop Mixing Matrix
  1  1    -5.07108006E-01   # cos(theta_t)
  1  2     8.61882515E-01   # sin(theta_t)
  2  1    -8.61882515E-01   # -sin(theta_t)
  2  2    -5.07108006E-01   # cos(theta_t)
#
BLOCK SBOTMIX  # Sbottom Mixing Matrix
  1  1     9.98153747E-01   # cos(theta_b)
  1  2    -6.07379400E-02   # sin(theta_b)
  2  1     6.07379400E-02   # -sin(theta_b)
  2  2     9.98153747E-01   # cos(theta_b)
#
BLOCK STAUMIX  # Stau Mixing Matrix
  1  1    -7.99463463E-02   # cos(theta_tau)
  1  2     9.96799168E-01   # sin(theta_tau)
  2  1    -9.96799168E-01   # -sin(theta_tau)
  2  2    -7.99463463E-02   # cos(theta_tau)
#
BLOCK ALPHA  # Higgs mixing
          -1.05457396E-01   # Mixing angle in the neutral Higgs boson sector
#
BLOCK HMIX Q=  5.00074607E+03  # DRbar Higgs Parameters
         1    -6.80218826E+02   # mu(Q)MSSM           
         2     9.47153831E+00   # tan                 
         3     2.41821833E+02   # higgs               
         4     8.60687296E+06   # mA^2(Q)MSSM         
#
BLOCK GAUGE Q=  5.00074607E+03  # The gauge couplings
     1     3.70890777E-01   # gprime(Q) DRbar
     2     6.32984516E-01   # g(Q) DRbar
     3     1.00371810E+00   # g3(Q) DRbar
#
BLOCK AU Q=  5.00074607E+03  # The trilinear couplings
  1  1     5.00000001E+03   # A_u(Q) DRbar
  2  2     5.00000001E+03   # A_c(Q) DRbar
  3  3     5.00000001E+03   # A_t(Q) DRbar
#
BLOCK AD Q=  5.00074607E+03  # The trilinear couplings
  1  1     5.00000000E+03   # A_d(Q) DRbar
  2  2     5.00000000E+03   # A_s(Q) DRbar
  3  3     5.00000001E+03   # A_b(Q) DRbar
#
BLOCK AE Q=  5.00074607E+03  # The trilinear couplings
  1  1     0.00000000E+00   # A_e(Q) DRbar
  2  2     8.07801714E-08   # A_mu(Q) DRbar
  3  3     8.00520663E-08   # A_tau(Q) DRbar
#
BLOCK Yu Q=  5.00074607E+03  # The Yukawa couplings
  1  1     0.00000000E+00   # y_u(Q) DRbar
  2  2     0.00000000E+00   # y_c(Q) DRbar
  3  3     8.17376486E-01   # y_t(Q) DRbar
#
BLOCK Yd Q=  5.00074607E+03  # The Yukawa couplings
  1  1     0.00000000E+00   # y_d(Q) DRbar
  2  2     0.00000000E+00   # y_s(Q) DRbar
  3  3     1.29719822E-01   # y_b(Q) DRbar
#
BLOCK Ye Q=  5.00074607E+03  # The Yukawa couplings
  1  1     0.00000000E+00   # y_e(Q) DRbar
  2  2     0.00000000E+00   # y_mu(Q) DRbar
  3  3     9.70269436E-02   # y_tau(Q) DRbar
#
BLOCK MSOFT Q=  5.00074607E+03  # The soft SUSY breaking masses at the scale Q
         1     6.00000000E+01   # M_1(Q)              
         2     3.00000000E+03   # M_2(Q)              
         3     1.12229400E+03   # M_3(Q)              
        21     8.25163311E+06   # mH1^2(Q)            
        22     1.06705759E+05   # mH2^2(Q)            
        31     5.00000000E+03   # meL(Q)              
        32     5.00000000E+03   # mmuL(Q)             
        33     5.00000000E+03   # mtauL(Q)            
        34     5.00000000E+03   # meR(Q)              
        35     5.00000000E+03   # mmuR(Q)             
        36     5.00000000E+03   # mtauR(Q)            
        41     5.00000000E+03   # mqL1(Q)             
        42     5.00000000E+03   # mqL2(Q)             
        43     5.00000000E+03   # mqL3(Q)             
        44     5.00000000E+03   # muR(Q)              
        45     5.00000000E+03   # mcR(Q)              
        46     5.00000000E+03   # mtR(Q)              
        47     5.00000000E+03   # mdR(Q)              
        48     5.00000000E+03   # msR(Q)              
        49     5.00000000E+03   # mbR(Q)              
#
#
#
#                             =================
#                             |The decay table|
#                             =================
#
# - The QCD corrections to the decays gluino -> squark  + quark
#                                     squark -> gaugino + quark_prime
#                                     squark -> squark_prime + Higgs
#                                     squark -> gluino  + quark
#   are included.
#
# - The multi-body decays for the inos, stops and sbottoms are included.
#
# - The loop induced decays for the gluino, neutralinos and stops
#   are included.
#
# - The SUSY decays of the top quark are included.
#
#
#         PDG            Width
DECAY         6     1.40418001E+00   # top decays
#          BR         NDA      ID1       ID2
     1.00000000E+00    2           5        24   # BR(t ->  b    W+)
#
#         PDG            Width
DECAY   1000021     9.48935890E-05   # gluino decays
#          BR         NDA      ID1       ID2
     4.71077243E-06    2     1000022        21   # BR(~g -> ~chi_10 g)
     2.33704494E-02    2     1000023        21   # BR(~g -> ~chi_20 g)
     2.27714165E-02    2     1000025        21   # BR(~g -> ~chi_30 g)
#           BR         NDA      ID1       ID2       ID3
     3.97394915E-02    3     1000022         1        -1   # BR(~g -> ~chi_10 d  db)
     2.07146356E-05    3     1000023         1        -1   # BR(~g -> ~chi_20 d  db)
     1.66400415E-05    3     1000025         1        -1   # BR(~g -> ~chi_30 d  db)
     1.35502481E-01    3     1000022         2        -2   # BR(~g -> ~chi_10 u  ub)
     9.59927505E-05    3     1000023         2        -2   # BR(~g -> ~chi_20 u  ub)
     2.35675635E-05    3     1000025         2        -2   # BR(~g -> ~chi_30 u  ub)
     3.97394915E-02    3     1000022         3        -3   # BR(~g -> ~chi_10 s  sb)
     2.07146356E-05    3     1000023         3        -3   # BR(~g -> ~chi_20 s  sb)
     1.66400415E-05    3     1000025         3        -3   # BR(~g -> ~chi_30 s  sb)
     1.35502481E-01    3     1000022         4        -4   # BR(~g -> ~chi_10 c  cb)
     9.59927505E-05    3     1000023         4        -4   # BR(~g -> ~chi_20 c  cb)
     2.35675635E-05    3     1000025         4        -4   # BR(~g -> ~chi_30 c  cb)
     4.04384337E-02    3     1000022         5        -5   # BR(~g -> ~chi_10 b  bb)
     4.18335188E-03    3     1000023         5        -5   # BR(~g -> ~chi_20 b  bb)
     4.10797443E-03    3     1000025         5        -5   # BR(~g -> ~chi_30 b  bb)
     1.14479187E-01    3     1000022         6        -6   # BR(~g -> ~chi_10 t  tb)
     1.06028641E-01    3     1000023         6        -6   # BR(~g -> ~chi_20 t  tb)
     7.30849960E-02    3     1000025         6        -6   # BR(~g -> ~chi_30 t  tb)
     4.87181095E-05    3     1000024         1        -2   # BR(~g -> ~chi_1+ d  ub)
     4.87181095E-05    3    -1000024         2        -1   # BR(~g -> ~chi_1- u  db)
     4.87181095E-05    3     1000024         3        -4   # BR(~g -> ~chi_1+ s  cb)
     4.87181095E-05    3    -1000024         4        -3   # BR(~g -> ~chi_1- c  sb)
     1.30269096E-01    3     1000024         5        -6   # BR(~g -> ~chi_1+ b  tb)
     1.30269096E-01    3    -1000024         6        -5   # BR(~g -> ~chi_1- t  bb)
#
#         PDG            Width
DECAY   1000006     3.94674427E+02   # stop1 decays
#          BR         NDA      ID1       ID2
     2.23082584E-02    2     1000022         6   # BR(~t_1 -> ~chi_10 t )
     8.06753041E-02    2     1000023         6   # BR(~t_1 -> ~chi_20 t )
     7.70598697E-02    2     1000025         6   # BR(~t_1 -> ~chi_30 t )
     5.25392955E-03    2     1000035         6   # BR(~t_1 -> ~chi_40 t )
     1.16695262E-01    2     1000024         5   # BR(~t_1 -> ~chi_1+ b )
     1.04720959E-02    2     1000037         5   # BR(~t_1 -> ~chi_2+ b )
     6.87535280E-01    2     1000021         6   # BR(~t_1 -> ~g      t )
#
#         PDG            Width
DECAY   2000006     3.96698176E+02   # stop2 decays
#          BR         NDA      ID1       ID2
     8.89975151E-03    2     1000022         6   # BR(~t_2 -> ~chi_10 t )
     8.12378354E-02    2     1000023         6   # BR(~t_2 -> ~chi_20 t )
     8.52319301E-02    2     1000025         6   # BR(~t_2 -> ~chi_30 t )
     1.39376041E-02    2     1000035         6   # BR(~t_2 -> ~chi_40 t )
     4.86694198E-02    2     1000024         5   # BR(~t_2 -> ~chi_1+ b )
     2.77458494E-02    2     1000037         5   # BR(~t_2 -> ~chi_2+ b )
     7.31084565E-01    2     1000021         6   # BR(~t_2 -> ~g      t )
     7.26209341E-04    2     1000006        25   # BR(~t_2 -> ~t_1    h )
     2.46683537E-03    2     1000006        23   # BR(~t_2 -> ~t_1    Z )
#
#         PDG            Width
DECAY   1000005     3.73371378E+02   # sbottom1 decays
#          BR         NDA      ID1       ID2
     2.07480378E-03    2     1000022         5   # BR(~b_1 -> ~chi_10 b )
     2.17561594E-03    2     1000023         5   # BR(~b_1 -> ~chi_20 b )
     2.14776253E-03    2     1000025         5   # BR(~b_1 -> ~chi_30 b )
     2.01813986E-02    2     1000035         5   # BR(~b_1 -> ~chi_40 b )
     1.72193349E-01    2    -1000024         6   # BR(~b_1 -> ~chi_1- t )
     4.05271617E-02    2    -1000037         6   # BR(~b_1 -> ~chi_2- t )
     7.59179601E-01    2     1000021         5   # BR(~b_1 -> ~g      b )
     1.52030806E-03    2     1000006       -24   # BR(~b_1 -> ~t_1    W-)
#
#         PDG            Width
DECAY   2000005     2.92364669E+02   # sbottom2 decays
#          BR         NDA      ID1       ID2
     1.00574308E-02    2     1000022         5   # BR(~b_2 -> ~chi_10 b )
     2.82588410E-03    2     1000023         5   # BR(~b_2 -> ~chi_20 b )
     2.87981932E-03    2     1000025         5   # BR(~b_2 -> ~chi_30 b )
     9.56094604E-05    2     1000035         5   # BR(~b_2 -> ~chi_40 b )
     6.38459814E-03    2    -1000024         6   # BR(~b_2 -> ~chi_1- t )
     1.91990655E-04    2    -1000037         6   # BR(~b_2 -> ~chi_2- t )
     9.77535413E-01    2     1000021         5   # BR(~b_2 -> ~g      b )
     2.92545196E-05    2     1000006       -24   # BR(~b_2 -> ~t_1    W-)
#
#         PDG            Width
DECAY   1000002     3.11437490E+02   # sup_L decays
#          BR         NDA      ID1       ID2
     2.39583170E-03    2     1000022         2   # BR(~u_L -> ~chi_10 u)
     5.16298941E-05    2     1000023         2   # BR(~u_L -> ~chi_20 u)
     3.12507285E-06    2     1000025         2   # BR(~u_L -> ~chi_30 u)
     2.51553673E-02    2     1000035         2   # BR(~u_L -> ~chi_40 u)
     1.63236078E-04    2     1000024         1   # BR(~u_L -> ~chi_1+ d)
     5.02785995E-02    2     1000037         1   # BR(~u_L -> ~chi_2+ d)
     9.21952210E-01    2     1000021         2   # BR(~u_L -> ~g      u)
#
#         PDG            Width
DECAY   2000002     2.97713620E+02   # sup_R decays
#          BR         NDA      ID1       ID2
     3.98700928E-02    2     1000022         2   # BR(~u_R -> ~chi_10 u)
     7.51075463E-05    2     1000023         2   # BR(~u_R -> ~chi_20 u)
     8.04811612E-05    2     1000025         2   # BR(~u_R -> ~chi_30 u)
     2.42275282E-09    2     1000035         2   # BR(~u_R -> ~chi_40 u)
     9.59974316E-01    2     1000021         2   # BR(~u_R -> ~g      u)
#
#         PDG            Width
DECAY   1000001     3.11448058E+02   # sdown_L decays
#          BR         NDA      ID1       ID2
     2.38523291E-03    2     1000022         1   # BR(~d_L -> ~chi_10 d)
     8.64831029E-06    2     1000023         1   # BR(~d_L -> ~chi_20 d)
     3.79691973E-05    2     1000025         1   # BR(~d_L -> ~chi_30 d)
     2.51700401E-02    2     1000035         1   # BR(~d_L -> ~chi_40 d)
     2.41398409E-06    2    -1000024         2   # BR(~d_L -> ~chi_1- u)
     5.03594126E-02    2    -1000037         2   # BR(~d_L -> ~chi_2- u)
     9.22036283E-01    2     1000021         1   # BR(~d_L -> ~g      d)
#
#         PDG            Width
DECAY   2000001     2.88798908E+02   # sdown_R decays
#          BR         NDA      ID1       ID2
     1.02758066E-02    2     1000022         1   # BR(~d_R -> ~chi_10 d)
     1.93577192E-05    2     1000023         1   # BR(~d_R -> ~chi_20 d)
     2.07426795E-05    2     1000025         1   # BR(~d_R -> ~chi_30 d)
     6.24506650E-10    2     1000035         1   # BR(~d_R -> ~chi_40 d)
     9.89684092E-01    2     1000021         1   # BR(~d_R -> ~g      d)
#
#         PDG            Width
DECAY   1000004     3.11437490E+02   # scharm_L decays
#          BR         NDA      ID1       ID2
     2.39583170E-03    2     1000022         4   # BR(~c_L -> ~chi_10 c)
     5.16298941E-05    2     1000023         4   # BR(~c_L -> ~chi_20 c)
     3.12507285E-06    2     1000025         4   # BR(~c_L -> ~chi_30 c)
     2.51553673E-02    2     1000035         4   # BR(~c_L -> ~chi_40 c)
     1.63236078E-04    2     1000024         3   # BR(~c_L -> ~chi_1+ s)
     5.02785995E-02    2     1000037         3   # BR(~c_L -> ~chi_2+ s)
     9.21952210E-01    2     1000021         4   # BR(~c_L -> ~g      c)
#
#         PDG            Width
DECAY   2000004     2.97713620E+02   # scharm_R decays
#          BR         NDA      ID1       ID2
     3.98700928E-02    2     1000022         4   # BR(~c_R -> ~chi_10 c)
     7.51075463E-05    2     1000023         4   # BR(~c_R -> ~chi_20 c)
     8.04811612E-05    2     1000025         4   # BR(~c_R -> ~chi_30 c)
     2.42275282E-09    2     1000035         4   # BR(~c_R -> ~chi_40 c)
     9.59974316E-01    2     1000021         4   # BR(~c_R -> ~g      c)
#
#         PDG            Width
DECAY   1000003     3.11448058E+02   # sstrange_L decays
#          BR         NDA      ID1       ID2
     2.38523291E-03    2     1000022         3   # BR(~s_L -> ~chi_10 s)
     8.64831029E-06    2     1000023         3   # BR(~s_L -> ~chi_20 s)
     3.79691973E-05    2     1000025         3   # BR(~s_L -> ~chi_30 s)
     2.51700401E-02    2     1000035         3   # BR(~s_L -> ~chi_40 s)
     2.41398409E-06    2    -1000024         4   # BR(~s_L -> ~chi_1- c)
     5.03594126E-02    2    -1000037         4   # BR(~s_L -> ~chi_2- c)
     9.22036283E-01    2     1000021         3   # BR(~s_L -> ~g      s)
#
#         PDG            Width
DECAY   2000003     2.88798908E+02   # sstrange_R decays
#          BR         NDA      ID1       ID2
     1.02758066E-02    2     1000022         3   # BR(~s_R -> ~chi_10 s)
     1.93577192E-05    2     1000023         3   # BR(~s_R -> ~chi_20 s)
     2.07426795E-05    2     1000025         3   # BR(~s_R -> ~chi_30 s)
     6.24506650E-10    2     1000035         3   # BR(~s_R -> ~chi_40 s)
     9.89684092E-01    2     1000021         3   # BR(~s_R -> ~g      s)
#
#         PDG            Width
DECAY   1000011     3.03064274E+01   # selectron_L decays
#          BR         NDA      ID1       ID2
     2.25800810E-01    2     1000022        11   # BR(~e_L -> ~chi_10 e-)
     1.36839296E-03    2     1000023        11   # BR(~e_L -> ~chi_20 e-)
     7.22340712E-05    2     1000025        11   # BR(~e_L -> ~chi_30 e-)
     2.57407821E-01    2     1000035        11   # BR(~e_L -> ~chi_40 e-)
     2.52823058E-05    2    -1000024        12   # BR(~e_L -> ~chi_1- nu_e)
     5.15325460E-01    2    -1000037        12   # BR(~e_L -> ~chi_2- nu_e)
#
#         PDG            Width
DECAY   2000011     2.73869609E+01   # selectron_R decays
#          BR         NDA      ID1       ID2
     9.96117539E-01    2     1000022        11   # BR(~e_R -> ~chi_10 e-)
     1.87416204E-03    2     1000023        11   # BR(~e_R -> ~chi_20 e-)
     2.00823971E-03    2     1000025        11   # BR(~e_R -> ~chi_30 e-)
     5.91830820E-08    2     1000035        11   # BR(~e_R -> ~chi_40 e-)
#
#         PDG            Width
DECAY   1000013     3.03064274E+01   # smuon_L decays
#          BR         NDA      ID1       ID2
     2.25800810E-01    2     1000022        13   # BR(~mu_L -> ~chi_10 mu-)
     1.36839296E-03    2     1000023        13   # BR(~mu_L -> ~chi_20 mu-)
     7.22340712E-05    2     1000025        13   # BR(~mu_L -> ~chi_30 mu-)
     2.57407821E-01    2     1000035        13   # BR(~mu_L -> ~chi_40 mu-)
     2.52823058E-05    2    -1000024        14   # BR(~mu_L -> ~chi_1- nu_mu)
     5.15325460E-01    2    -1000037        14   # BR(~mu_L -> ~chi_2- nu_mu)
#
#         PDG            Width
DECAY   2000013     2.73869609E+01   # smuon_R decays
#          BR         NDA      ID1       ID2
     9.96117539E-01    2     1000022        13   # BR(~mu_R -> ~chi_10 mu-)
     1.87416204E-03    2     1000023        13   # BR(~mu_R -> ~chi_20 mu-)
     2.00823971E-03    2     1000025        13   # BR(~mu_R -> ~chi_30 mu-)
     5.91830820E-08    2     1000035        13   # BR(~mu_R -> ~chi_40 mu-)
#
#         PDG            Width
DECAY   1000015     2.91984262E+01   # stau_1 decays
#          BR         NDA      ID1       ID2
     9.30620121E-01    2     1000022        15   # BR(~tau_1 -> ~chi_10  tau-)
     1.70543290E-02    2     1000023        15   # BR(~tau_1 -> ~chi_20  tau-)
     1.65313349E-02    2     1000025        15   # BR(~tau_1 -> ~chi_30  tau-)
     1.66237178E-03    2     1000035        15   # BR(~tau_1 -> ~chi_40  tau-)
     3.08040015E-02    2    -1000024        16   # BR(~tau_1 -> ~chi_1-  nu_tau)
     3.32784151E-03    2    -1000037        16   # BR(~tau_1 -> ~chi_2-  nu_tau)
#
#         PDG            Width
DECAY   2000015     3.11858787E+01   # stau_2 decays
#          BR         NDA      ID1       ID2
     2.22917127E-01    2     1000022        15   # BR(~tau_2 -> ~chi_10  tau-)
     1.58597610E-02    2     1000023        15   # BR(~tau_2 -> ~chi_20  tau-)
     1.51356861E-02    2     1000025        15   # BR(~tau_2 -> ~chi_30  tau-)
     2.48506491E-01    2     1000035        15   # BR(~tau_2 -> ~chi_40  tau-)
     7.51448946E-05    2    -1000024        16   # BR(~tau_2 -> ~chi_1-  nu_tau)
     4.97505790E-01    2    -1000037        16   # BR(~tau_2 -> ~chi_2-  nu_tau)
#
#         PDG            Width
DECAY   1000012     3.03095214E+01   # snu_eL decays
#          BR         NDA      ID1       ID2
     2.25397095E-01    2     1000022        12   # BR(~nu_eL -> ~chi_10 nu_e)
     1.78044426E-05    2     1000023        12   # BR(~nu_eL -> ~chi_20 nu_e)
     1.16665944E-03    2     1000025        12   # BR(~nu_eL -> ~chi_30 nu_e)
     2.57451477E-01    2     1000035        12   # BR(~nu_eL -> ~chi_40 nu_e)
     1.70920756E-03    2     1000024        11   # BR(~nu_eL -> ~chi_1+ e-)
     5.14257757E-01    2     1000037        11   # BR(~nu_eL -> ~chi_2+ e-)
#
#         PDG            Width
DECAY   1000014     3.03095214E+01   # snu_muL decays
#          BR         NDA      ID1       ID2
     2.25397095E-01    2     1000022        14   # BR(~nu_muL -> ~chi_10 nu_mu)
     1.78044426E-05    2     1000023        14   # BR(~nu_muL -> ~chi_20 nu_mu)
     1.16665944E-03    2     1000025        14   # BR(~nu_muL -> ~chi_30 nu_mu)
     2.57451477E-01    2     1000035        14   # BR(~nu_muL -> ~chi_40 nu_mu)
     1.70920756E-03    2     1000024        13   # BR(~nu_muL -> ~chi_1+ mu-)
     5.14257757E-01    2     1000037        13   # BR(~nu_muL -> ~chi_2+ mu-)
#
#         PDG            Width
DECAY   1000016     3.12035726E+01   # snu_tauL decays
#          BR         NDA      ID1       ID2
     2.18914978E-01    2     1000022        16   # BR(~nu_tauL -> ~chi_10 nu_tau)
     1.72922615E-05    2     1000023        16   # BR(~nu_tauL -> ~chi_20 nu_tau)
     1.13309804E-03    2     1000025        16   # BR(~nu_tauL -> ~chi_30 nu_tau)
     2.49981715E-01    2     1000035        16   # BR(~nu_tauL -> ~chi_40 nu_tau)
     3.06165486E-02    2     1000024        15   # BR(~nu_tauL -> ~chi_1+ tau-)
     4.99336368E-01    2     1000037        15   # BR(~nu_tauL -> ~chi_2+ tau-)
#
#         PDG            Width
DECAY   1000024     4.20580375E-01   # chargino1+ decays
#          BR         NDA      ID1       ID2
     1.00000000E+00    2     1000022        24   # BR(~chi_1+ -> ~chi_10  W+)
#
#         PDG            Width
DECAY   1000037     2.14686994E+01   # chargino2+ decays
#          BR         NDA      ID1       ID2
     2.53442832E-01    2     1000024        23   # BR(~chi_2+ -> ~chi_1+  Z )
     1.77974156E-04    2     1000022        24   # BR(~chi_2+ -> ~chi_10  W+)
     2.44587852E-01    2     1000023        24   # BR(~chi_2+ -> ~chi_20  W+)
     2.44296119E-01    2     1000025        24   # BR(~chi_2+ -> ~chi_30  W+)
     2.57492656E-01    2     1000024        25   # BR(~chi_2+ -> ~chi_1+  h )
     2.56626296E-06    2     1000022        37   # BR(~chi_2+ -> ~chi_10  H+)
#
#         PDG            Width
DECAY   1000022     0.00000000E+00   # neutralino1 decays
#
#         PDG            Width
DECAY   1000023     4.34297466E-01   # neutralino2 decays
#          BR         NDA      ID1       ID2
     5.22392389E-01    2     1000022        23   # BR(~chi_20 -> ~chi_10   Z )
     4.77607611E-01    2     1000022        25   # BR(~chi_20 -> ~chi_10   h )
#
#         PDG            Width
DECAY   1000025     4.32175677E-01   # neutralino3 decays
#          BR         NDA      ID1       ID2
     4.83916975E-01    2     1000022        23   # BR(~chi_30 -> ~chi_10   Z )
     5.16083025E-01    2     1000022        25   # BR(~chi_30 -> ~chi_10   h )
#
#         PDG            Width
DECAY   1000035     2.14837917E+01   # neutralino4 decays
#          BR         NDA      ID1       ID2
     2.28913933E-05    2     1000022        23   # BR(~chi_40 -> ~chi_10   Z )
     9.62836795E-02    2     1000023        23   # BR(~chi_40 -> ~chi_20   Z )
     1.56550696E-01    2     1000025        23   # BR(~chi_40 -> ~chi_30   Z )
     2.45039148E-01    2     1000024       -24   # BR(~chi_40 -> ~chi_1+   W-)
     2.45039148E-01    2    -1000024        24   # BR(~chi_40 -> ~chi_1-   W+)
     1.52102436E-04    2     1000022        25   # BR(~chi_40 -> ~chi_10   h )
     2.45167806E-06    2     1000022        35   # BR(~chi_40 -> ~chi_10   H )
     2.79468634E-07    2     1000022        36   # BR(~chi_40 -> ~chi_10   A )
     1.60367126E-01    2     1000023        25   # BR(~chi_40 -> ~chi_20   h )
     9.65424770E-02    2     1000025        25   # BR(~chi_40 -> ~chi_30   h )
#
#         PDG            Width
DECAY        25     4.04747918E-03   # h decays
#          BR         NDA      ID1       ID2
     6.13004659E-01    2           5        -5   # BR(h -> b       bb     )
     6.39774769E-02    2         -15        15   # BR(h -> tau+    tau-   )
     2.26504452E-04    2         -13        13   # BR(h -> mu+     mu-    )
     4.80332558E-04    2           3        -3   # BR(h -> s       sb     )
     2.08128533E-02    2           4        -4   # BR(h -> c       cb     )
     6.70841798E-02    2          21        21   # BR(h -> g       g      )
     2.30134720E-03    2          22        22   # BR(h -> gam     gam    )
     1.46646702E-03    2          22        23   # BR(h -> Z       gam    )
     2.06106440E-01    2          24       -24   # BR(h -> W+      W-     )
     2.44653047E-02    2          23        23   # BR(h -> Z       Z      )
     7.44351329E-05    2     1000022   1000022   # BR(h -> ~chi_10 ~chi_10)
#
#         PDG            Width
DECAY        35     8.48086028E+00   # H decays
#          BR         NDA      ID1       ID2
     3.78171305E-01    2           5        -5   # BR(H -> b       bb     )
     6.57139803E-02    2         -15        15   # BR(H -> tau+    tau-   )
     2.32369854E-04    2         -13        13   # BR(H -> mu+     mu-    )
     2.84849834E-04    2           3        -3   # BR(H -> s       sb     )
     1.59228608E-06    2           4        -4   # BR(H -> c       cb     )
     1.59081992E-01    2           6        -6   # BR(H -> t       tb     )
     5.28771645E-05    2          21        21   # BR(H -> g       g      )
     1.84683549E-07    2          22        22   # BR(H -> gam     gam    )
     9.38532594E-08    2          23        22   # BR(H -> Z       gam    )
     7.44691517E-05    2          24       -24   # BR(H -> W+      W-     )
     3.71874366E-05    2          23        23   # BR(H -> Z       Z      )
     2.73866042E-04    2          25        25   # BR(H -> h       h      )
     1.60117103E-23    2          36        36   # BR(H -> A       A      )
     6.44692077E-19    2          23        36   # BR(H -> Z       A      )
     2.81457866E-03    2     1000024  -1000024   # BR(H -> ~chi_1+ ~chi_1-)
     3.48150216E-03    2     1000022   1000022   # BR(H -> ~chi_10 ~chi_10)
     1.48539759E-05    2     1000023   1000023   # BR(H -> ~chi_20 ~chi_20)
     1.35594385E-03    2     1000025   1000025   # BR(H -> ~chi_30 ~chi_30)
     2.33774183E-01    2     1000022   1000023   # BR(H -> ~chi_10 ~chi_20)
     1.53113614E-01    2     1000022   1000025   # BR(H -> ~chi_10 ~chi_30)
     1.52055555E-03    2     1000023   1000025   # BR(H -> ~chi_20 ~chi_30)
#
#         PDG            Width
DECAY        36     8.49089649E+00   # A decays
#          BR         NDA      ID1       ID2
     3.77852964E-01    2           5        -5   # BR(A -> b       bb     )
     6.56382591E-02    2         -15        15   # BR(A -> tau+    tau-   )
     2.32101774E-04    2         -13        13   # BR(A -> mu+     mu-    )
     2.84729100E-04    2           3        -3   # BR(A -> s       sb     )
     1.59685095E-06    2           4        -4   # BR(A -> c       cb     )
     1.59450033E-01    2           6        -6   # BR(A -> t       tb     )
     1.57814152E-04    2          21        21   # BR(A -> g       g      )
     5.99668888E-07    2          22        22   # BR(A -> gam     gam    )
     1.91008357E-07    2          23        22   # BR(A -> Z       gam    )
     7.41010640E-05    2          23        25   # BR(A -> Z       h      )
     3.41392652E-03    2     1000024  -1000024   # BR(A -> ~chi_1+ ~chi_1-)
     3.50942558E-03    2     1000022   1000022   # BR(A -> ~chi_10 ~chi_10)
     1.24048978E-05    2     1000023   1000023   # BR(A -> ~chi_20 ~chi_20)
     2.65497511E-03    2     1000025   1000025   # BR(A -> ~chi_30 ~chi_30)
     1.55738570E-01    2     1000022   1000023   # BR(A -> ~chi_10 ~chi_20)
     2.30148630E-01    2     1000022   1000025   # BR(A -> ~chi_10 ~chi_30)
     8.29677658E-04    2     1000023   1000025   # BR(A -> ~chi_20 ~chi_30)
#
#         PDG            Width
DECAY        37     8.43210223E+00   # H+ decays
#          BR         NDA      ID1       ID2
     6.05853382E-04    2           4        -5   # BR(H+ -> c       bb     )
     6.61262856E-02    2         -15        16   # BR(H+ -> tau+    nu_tau )
     2.33827471E-04    2         -13        14   # BR(H+ -> mu+     nu_mu  )
     3.87744138E-06    2           2        -5   # BR(H+ -> u       bb     )
     1.37202110E-05    2           2        -3   # BR(H+ -> u       sb     )
     2.83733702E-04    2           4        -3   # BR(H+ -> c       sb     )
     5.35895735E-01    2           6        -5   # BR(H+ -> t       bb     )
     7.47687267E-05    2          24        25   # BR(H+ -> W+      h      )
     7.73382363E-13    2          24        36   # BR(H+ -> W+      A      )
     3.94835115E-01    2     1000024   1000022   # BR(H+ -> ~chi_1+ ~chi_10)
     1.87255404E-03    2     1000024   1000023   # BR(H+ -> ~chi_1+ ~chi_20)
     5.45298920E-05    2     1000024   1000025   # BR(H+ -> ~chi_1+ ~chi_30)
