#  ISAJET SUSY parameters in SUSY Les Houches Accord 2 format
#  Created by ISALHA 2.0 Last revision: C. Balazs 21 Apr 2009
Block SPINFO   # Program information
     1   ISASUGRA from ISAJET          # Spectrum Calculator
     2   7.80   29-OCT-2009 12:50:36   # Version number
Block MODSEL   # Model selection
     1     3   # Minimal anomaly mediated (AMSB) model             
Block SMINPUTS   # Standard Model inputs
     1     1.27836258E+02   # alpha_em^(-1)
     2     1.16570000E-05   # G_Fermi
     3     1.17200002E-01   # alpha_s(M_Z)
     4     9.11699982E+01   # m_{Z}(pole)
     5     4.19999981E+00   # m_{b}(m_{b})
     6     1.72500000E+02   # m_{top}(pole)
     7     1.77699995E+00   # m_{tau}(pole)
Block MINPAR   # SUSY breaking input parameters
     1     5.00000000E+03   # m_0
     2     3.33600000E+05   # m_{3/2}
     3     5.00000000E+00   # tan(beta)
     4     1.00000000E+00   # sign(mu)
Block EXTPAR   # Non-universal SUSY breaking parameters
     0     8.23659408E+15   # Input scale
Block MASS   # Scalar and gaugino mass spectrum
#  PDG code   mass                 particle
         5     4.80000000E+00   # b-quark pole mass calculated from mb(mb)_Msbar
         6     1.72500000E+02   # t-quark pole mass (not read by ME)
        15     1.77682000E+00   # tau pole mass (not read by ME)
        23     9.11876000E+01   # Z pole mass (not read by ME)
        24     8.04229965E+01   #  W^+
        25     1.17532974E+02   #  h^0            
        35     7.17409766E+03   #  H^0            
        36     7.12710352E+03   #  A^0            
        37     7.17442920E+03   #  H^+            
   1000001     7.65610352E+03   #  dnl            
   1000002     7.65570850E+03   #  upl            
   1000003     7.65610352E+03   #  stl            
   1000004     7.65570850E+03   #  chl            
   1000005     6.58574658E+03   #  b1             
   1000006     5.27753125E+03   #  t1             
   1000011     4.81799707E+03   #  el-            
   1000012     4.81527197E+03   #  nuel           
   1000013     4.81799707E+03   #  mul-           
   1000014     4.81527197E+03   #  numl           
   1000015     4.76119629E+03   #  tau1           
   1000016     4.80721973E+03   #  nutl           
   1000021     6.39054346E+03   #  glss           
   1000022     9.49499329E+02   #  z1ss           
   1000023     3.10766406E+03   #  z2ss           
   1000024     9.49673157E+02   #  w1ss           
   1000025    -5.09499121E+03   #  z3ss           
   1000035     5.09602393E+03   #  z4ss           
   1000037     5.10131201E+03   #  w2ss           
   2000001     7.74711475E+03   #  dnr            
   2000002     7.69605469E+03   #  upr            
   2000003     7.74711475E+03   #  str            
   2000004     7.69605469E+03   #  chr            
   2000005     7.69171875E+03   #  b2             
   2000006     6.63101563E+03   #  t2             
   2000011     4.77628955E+03   #  er-            
   2000013     4.77628955E+03   #  mur-           
   2000015     4.81059375E+03   #  tau2           
Block ALPHA   # Effective Higgs mixing parameter
         -1.97483346E-01   # alpha
Block STOPMIX   # stop mixing matrix
  1  1     3.39785516E-02   # O_{11}
  1  2    -9.99422550E-01   # O_{12}
  2  1     9.99422550E-01   # O_{21}
  2  2     3.39785516E-02   # O_{22}
Block SBOTMIX   # sbottom mixing matrix
  1  1     9.99993980E-01   # O_{11}
  1  2     3.46256583E-03   # O_{12}
  2  1    -3.46256583E-03   # O_{21}
  2  2     9.99993980E-01   # O_{22}
Block STAUMIX   # stau mixing matrix
  1  1     1.03861280E-01   # O_{11}
  1  2     9.94591773E-01   # O_{12}
  2  1    -9.94591773E-01   # O_{21}
  2  2     1.03861280E-01   # O_{22}
Block NMIX   # neutralino mixing matrix
  1  1    -4.74232220E-04   #
  1  2     9.99875307E-01   #
  1  3    -1.52652627E-02   #
  1  4     4.04553441E-03   #
  2  1     9.99881744E-01   #
  2  2     7.04289647E-04   #
  2  3     1.28226280E-02   #
  2  4    -8.47488642E-03   #
  3  1    -3.07890773E-03   #
  3  2     7.93182012E-03   #
  3  3     7.07028627E-01   #
  3  4     7.07134247E-01   #
  4  1     1.50676556E-02   #
  4  2    -1.36458622E-02   #
  4  3    -7.06904531E-01   #
  4  4     7.07017183E-01   #
Block UMIX   # chargino U mixing matrix
  1  1    -9.99746859E-01   # U_{11}
  1  2     2.25002095E-02   # U_{12}
  2  1    -2.25002095E-02   # U_{21}
  2  2    -9.99746859E-01   # U_{22}
Block VMIX   # chargino V mixing matrix
  1  1    -9.99961793E-01   # V_{11}
  1  2     8.74369498E-03   # V_{12}
  2  1    -8.74369498E-03   # V_{21}
  2  2    -9.99961793E-01   # V_{22}
Block GAUGE Q=  5.65764600E+03   #
     1     3.57524991E-01   # g`
     2     6.52378619E-01   # g_2
     3     1.21928012E+00   # g_3
Block YU Q=  5.65764600E+03   #
  3  3     8.22371244E-01   # y_t
Block YD Q=  5.65764600E+03   #
  3  3     6.35936782E-02   # y_b
Block YE Q=  5.65764600E+03   #
  3  3     5.14538661E-02   # y_tau
Block HMIX Q=  5.65764600E+03   # Higgs mixing parameters
     1     5.07715283E+03   # mu(Q)
     2     5.00000000E+00   # tan(beta)(M_GUT)
     3     2.52369720E+02   # Higgs vev at Q
     4     5.07956040E+07   # m_A^2(Q)
Block MSOFT Q=  5.65764600E+03   # DRbar SUSY breaking parameters
     1     3.12565112E+03   # M_1(Q)          
     2     8.88867981E+02   # M_2(Q)          
     3    -5.94461279E+03   # M_3(Q)          
    21     3.23374943E+04   # mH1^2(Q)            
    22    -1.28800134E+05   # mH2^2(Q)            
    31     4.79924316E+03   # MeL(Q)          
    32     4.79924316E+03   # MmuL(Q)         
    33     4.79143604E+03   # MtauL(Q)        
    34     4.76692383E+03   # MeR(Q)          
    35     4.76692383E+03   # MmuR(Q)         
    36     4.75067090E+03   # MtauR(Q)        
    41     7.35441602E+03   # MqL1(Q)         
    42     7.35441602E+03   # MqL2(Q)         
    43     6.31464307E+03   # MqL3(Q)         
    44     7.39529736E+03   # MuR(Q)          
    45     7.39529736E+03   # McR(Q)          
    46     5.06900537E+03   # MtR(Q)          
    47     7.44704346E+03   # MdR(Q)          
    48     7.44704346E+03   # MsR(Q)          
    49     7.46499951E+03   # MbR(Q)          
Block AU Q=  5.65764600E+03   #
  1  1     5.10774170E+03   # A_u
  2  2     5.10774170E+03   # A_c
  3  3     5.10774170E+03   # A_t
Block AD Q=  5.65764600E+03   #
  1  1     1.21037783E+04   # A_d
  2  2     1.21037783E+04   # A_s
  3  3     1.21037783E+04   # A_b
Block AE Q=  5.65764600E+03   #
  1  1     3.46338818E+03   # A_e
  2  2     3.46338818E+03   # A_mu
  3  3     3.46338818E+03   # A_tau
#
#  ISAJET decay tables in SUSY Les Houches accord format
#  Created by ISALHD. Last revision: C. Balazs, 2005 May 25
Block DCINFO                           # Program information
     1   ISASUGRA from ISAJET          # Spectrum Calculator
     2   7.80   29-OCT-2009 12:50:36   # Version number
#         PDG         Width
DECAY        23     2.49520000E+00   # Z width (SM calculation)
DECAY        24     2.08500000E+00   # W width (SM calculation)
#
#         PDG            Width  
DECAY         6  1.14680779E+00   # TP    decays
#          BR          NDA       ID1       ID2       ID3       ID4
      3.33333343E-01    3            2        -1         5             # TP     -->  UP     DB     BT          
      3.33333343E-01    3            4        -3         5             # TP     -->  CH     SB     BT          
      1.11111112E-01    3          -11        12         5             # TP     -->  E+     NUE    BT          
      1.11111112E-01    3          -13        14         5             # TP     -->  MU+    NUM    BT          
      1.11111112E-01    3          -15        16         5             # TP     -->  TAU+   NUT    BT          
#         PDG         Width
DECAY   1000021  1.25947781E+01   # GLSS  decays
#          BR          NDA       ID1       ID2       ID3       ID4
      1.69381395E-03    3      1000024         1        -2             # GLSS   -->  W1SS+  DN     UB          
      1.69381395E-03    3     -1000024         2        -1             # GLSS   -->  W1SS-  UP     DB          
      1.69381395E-03    3      1000024         3        -4             # GLSS   -->  W1SS+  ST     CB          
      1.69381395E-03    3     -1000024         4        -3             # GLSS   -->  W1SS-  CH     SB          
      5.89989964E-03    3      1000024         5        -6             # GLSS   -->  W1SS+  BT     TB          
      5.89989964E-03    3     -1000024         6        -5             # GLSS   -->  W1SS-  TP     BB          
      3.60194807E-09    3      1000037         1        -2             # GLSS   -->  W2SS+  DN     UB          
      3.60194807E-09    3     -1000037         2        -1             # GLSS   -->  W2SS-  UP     DB          
      3.60194807E-09    3      1000037         3        -4             # GLSS   -->  W2SS+  ST     CB          
      3.60194807E-09    3     -1000037         4        -3             # GLSS   -->  W2SS-  CH     SB          
      1.07906009E-04    3      1000037         5        -6             # GLSS   -->  W2SS+  BT     TB          
      1.07906009E-04    3     -1000037         6        -5             # GLSS   -->  W2SS-  TP     BB          
      6.40193605E-08    2      1000022        21                       # GLSS   -->  Z1SS   GL                 
      8.47009302E-04    3      1000022         2        -2             # GLSS   -->  Z1SS   UP     UB          
      8.47007323E-04    3      1000022         1        -1             # GLSS   -->  Z1SS   DN     DB          
      8.47007323E-04    3      1000022         3        -3             # GLSS   -->  Z1SS   ST     SB          
      8.47009302E-04    3      1000022         4        -4             # GLSS   -->  Z1SS   CH     CB          
      3.12928692E-03    3      1000022         5        -5             # GLSS   -->  Z1SS   BT     BB          
      2.77008140E-03    3      1000022         6        -6             # GLSS   -->  Z1SS   TP     TB          
      5.39113489E-06    2      1000023        21                       # GLSS   -->  Z2SS   GL                 
      1.00242774E-04    3      1000023         2        -2             # GLSS   -->  Z2SS   UP     UB          
      2.84141952E-05    3      1000023         1        -1             # GLSS   -->  Z2SS   DN     DB          
      2.84141952E-05    3      1000023         3        -3             # GLSS   -->  Z2SS   ST     SB          
      1.00242774E-04    3      1000023         4        -4             # GLSS   -->  Z2SS   CH     CB          
      5.45307303E-05    3      1000023         5        -5             # GLSS   -->  Z2SS   BT     BB          
      2.76071187E-05    3      1000023         6        -6             # GLSS   -->  Z2SS   TP     TB          
      1.33685955E-06    2      1000025        21                       # GLSS   -->  Z3SS   GL                 
      8.07892864E-10    3      1000025         2        -2             # GLSS   -->  Z3SS   UP     UB          
      1.00130082E-09    3      1000025         1        -1             # GLSS   -->  Z3SS   DN     DB          
      1.00130082E-09    3      1000025         3        -3             # GLSS   -->  Z3SS   ST     SB          
      8.07892864E-10    3      1000025         4        -4             # GLSS   -->  Z3SS   CH     CB          
      1.08577774E-06    3      1000025         5        -5             # GLSS   -->  Z3SS   BT     BB          
      8.15378662E-05    3      1000025         6        -6             # GLSS   -->  Z3SS   TP     TB          
      1.69380462E-06    2      1000035        21                       # GLSS   -->  Z4SS   GL                 
      1.14128218E-09    3      1000035         2        -2             # GLSS   -->  Z4SS   UP     UB          
      1.44280421E-09    3      1000035         1        -1             # GLSS   -->  Z4SS   DN     DB          
      1.44280421E-09    3      1000035         3        -3             # GLSS   -->  Z4SS   ST     SB          
      1.14128218E-09    3      1000035         4        -4             # GLSS   -->  Z4SS   CH     CB          
      1.08868869E-06    3      1000035         5        -5             # GLSS   -->  Z4SS   BT     BB          
      7.18295414E-05    3      1000035         6        -6             # GLSS   -->  Z4SS   TP     TB          
      4.85709131E-01    2     -1000006         6                       # GLSS   -->  TB1    TP                 
      4.85709131E-01    2      1000006        -6                       # GLSS   -->  TP1    TB                 
#         PDG         Width
DECAY   1000002  1.30220367E+02   # UPL   decays
#          BR          NDA       ID1       ID2       ID3       ID4
      2.39811555E-01    2      1000022         2                       # UPL    -->  Z1SS   UP                 
      5.83764445E-03    2      1000023         2                       # UPL    -->  Z2SS   UP                 
      4.16905050E-06    2      1000025         2                       # UPL    -->  Z3SS   UP                 
      9.09440041E-06    2      1000035         2                       # UPL    -->  Z4SS   UP                 
      2.74541765E-01    2      1000021         2                       # UPL    -->  GLSS   UP                 
      4.79784042E-01    2      1000024         1                       # UPL    -->  W1SS+  DN                 
      1.16969359E-05    2      1000037         1                       # UPL    -->  W2SS+  DN                 
#         PDG         Width
DECAY   1000001  1.30226868E+02   # DNL   decays
#          BR          NDA       ID1       ID2       ID3       ID4
      2.39896119E-01    2      1000022         1                       # DNL    -->  Z1SS   DN                 
      5.74879861E-03    2      1000023         1                       # DNL    -->  Z2SS   DN                 
      5.54445432E-06    2      1000025         1                       # DNL    -->  Z3SS   DN                 
      2.06625937E-05    2      1000035         1                       # DNL    -->  Z4SS   DN                 
      2.74671227E-01    2      1000021         1                       # DNL    -->  GLSS   DN                 
      4.79580164E-01    2     -1000024         2                       # DNL    -->  W1SS-  UP                 
      7.74689179E-05    2     -1000037         2                       # DNL    -->  W2SS-  UP                 
#         PDG         Width
DECAY   1000003  1.30226852E+02   # STL   decays
#          BR          NDA       ID1       ID2       ID3       ID4
      2.39896148E-01    2      1000022         3                       # STL    -->  Z1SS   ST                 
      5.74879954E-03    2      1000023         3                       # STL    -->  Z2SS   ST                 
      5.54445523E-06    2      1000025         3                       # STL    -->  Z3SS   ST                 
      2.06625973E-05    2      1000035         3                       # STL    -->  Z4SS   ST                 
      2.74671257E-01    2      1000021         3                       # STL    -->  GLSS   ST                 
      4.79580134E-01    2     -1000024         4                       # STL    -->  W1SS-  CH                 
      7.74689106E-05    2     -1000037         4                       # STL    -->  W2SS-  CH                 
#         PDG         Width
DECAY   1000004  1.30220337E+02   # CHL   decays
#          BR          NDA       ID1       ID2       ID3       ID4
      2.39811555E-01    2      1000022         4                       # CHL    -->  Z1SS   CH                 
      5.83764445E-03    2      1000023         4                       # CHL    -->  Z2SS   CH                 
      4.16905004E-06    2      1000025         4                       # CHL    -->  Z3SS   CH                 
      9.09440041E-06    2      1000035         4                       # CHL    -->  Z4SS   CH                 
      2.74541646E-01    2      1000021         4                       # CHL    -->  GLSS   CH                 
      4.79784161E-01    2      1000024         3                       # CHL    -->  W1SS+  ST                 
      1.16969386E-05    2      1000037         3                       # CHL    -->  W2SS+  ST                 
#         PDG         Width
DECAY   1000005  1.04515602E+02   # BT1   decays
#          BR          NDA       ID1       ID2       ID3       ID4
      2.54308224E-01    2      1000022         5                       # BT1    -->  Z1SS   BT                 
      5.33850538E-03    2      1000023         5                       # BT1    -->  Z2SS   BT                 
      4.35408554E-04    2      1000025         5                       # BT1    -->  Z3SS   BT                 
      4.43385041E-04    2      1000035         5                       # BT1    -->  Z4SS   BT                 
      1.10527528E-02    2      1000021         5                       # BT1    -->  GLSS   BT                 
      5.07635653E-01    2     -1000024         6                       # BT1    -->  W1SS-  TP                 
      1.27242222E-01    2     -1000037         6                       # BT1    -->  W2SS-  TP                 
      9.35438648E-02    2          -24   1000006                       # BT1    -->  W-     TP1                
#         PDG         Width
DECAY   1000006  5.46206713E+00   # TP1   decays
#          BR          NDA       ID1       ID2       ID3       ID4
      2.76057934E-03    2      1000022         6                       # TP1    -->  Z1SS   TP                 
      9.22506511E-01    2      1000023         6                       # TP1    -->  Z2SS   TP                 
      8.55671614E-03    2      1000025         6                       # TP1    -->  Z3SS   TP                 
      9.27866437E-03    2      1000035         6                       # TP1    -->  Z4SS   TP                 
      4.11773520E-03    2      1000024         5                       # TP1    -->  W1SS+  BT                 
      5.27798086E-02    2      1000037         5                       # TP1    -->  W2SS+  BT                 
#         PDG         Width
DECAY   2000002  4.98556061E+01   # UPR   decays
#          BR          NDA       ID1       ID2       ID3       ID4
      7.61079164E-08    2      1000022         2                       # UPR    -->  Z1SS   UP                 
      2.44378150E-01    2      1000023         2                       # UPR    -->  Z2SS   UP                 
      1.04377091E-06    2      1000025         2                       # UPR    -->  Z3SS   UP                 
      2.49820641E-05    2      1000035         2                       # UPR    -->  Z4SS   UP                 
      7.55595744E-01    2      1000021         2                       # UPR    -->  GLSS   UP                 
#         PDG         Width
DECAY   2000001  4.32252884E+01   # DNR   decays
#          BR          NDA       ID1       ID2       ID3       ID4
      2.21000960E-08    2      1000022         1                       # DNR    -->  Z1SS   DN                 
      7.12969154E-02    2      1000023         1                       # DNR    -->  Z2SS   DN                 
      3.09208644E-07    2      1000025         1                       # DNR    -->  Z3SS   DN                 
      7.40084624E-06    2      1000035         1                       # DNR    -->  Z4SS   DN                 
      9.28695321E-01    2      1000021         1                       # DNR    -->  GLSS   DN                 
#         PDG         Width
DECAY   2000003  4.32252884E+01   # STR   decays
#          BR          NDA       ID1       ID2       ID3       ID4
      2.21000960E-08    2      1000022         3                       # STR    -->  Z1SS   ST                 
      7.12969154E-02    2      1000023         3                       # STR    -->  Z2SS   ST                 
      3.09208644E-07    2      1000025         3                       # STR    -->  Z3SS   ST                 
      7.40084624E-06    2      1000035         3                       # STR    -->  Z4SS   ST                 
      9.28695321E-01    2      1000021         3                       # STR    -->  GLSS   ST                 
#         PDG         Width
DECAY   2000004  4.98555870E+01   # CHR   decays
#          BR          NDA       ID1       ID2       ID3       ID4
      7.61079306E-08    2      1000022         4                       # CHR    -->  Z1SS   CH                 
      2.44378224E-01    2      1000023         4                       # CHR    -->  Z2SS   CH                 
      1.04377102E-06    2      1000025         4                       # CHR    -->  Z3SS   CH                 
      2.49820641E-05    2      1000035         4                       # CHR    -->  Z4SS   CH                 
      7.55595684E-01    2      1000021         4                       # CHR    -->  GLSS   CH                 
#         PDG         Width
DECAY   2000005  4.10633392E+01   # BT2   decays
#          BR          NDA       ID1       ID2       ID3       ID4
      1.29372199E-06    2      1000022         5                       # BT2    -->  Z1SS   BT                 
      7.40983635E-02    2      1000023         5                       # BT2    -->  Z2SS   BT                 
      2.51602544E-03    2      1000025         5                       # BT2    -->  Z3SS   BT                 
      2.52348906E-03    2      1000035         5                       # BT2    -->  Z4SS   BT                 
      9.12334144E-01    2      1000021         5                       # BT2    -->  GLSS   BT                 
      2.19221988E-06    2     -1000024         6                       # BT2    -->  W1SS-  TP                 
      5.03035448E-03    2     -1000037         6                       # BT2    -->  W2SS-  TP                 
      1.47720948E-05    2          -24   1000006                       # BT2    -->  W-     TP1                
      1.44978787E-03    2          -24   2000006                       # BT2    -->  W-     TP2                
      8.24328919E-04    2           23   1000005                       # BT2    -->  Z0     BT1                
      1.20537810E-03    2           25   1000005                       # BT2    -->  HL0    BT1                
#         PDG         Width
DECAY   2000006  1.10398903E+02   # TP2   decays
#          BR          NDA       ID1       ID2       ID3       ID4
      1.02871656E-02    2      1000021         6                       # TP2    -->  GLSS   TP                 
      4.84885991E-01    2      1000024         5                       # TP2    -->  W1SS+  BT                 
      9.41521139E-04    2      1000037         5                       # TP2    -->  W2SS+  BT                 
      4.91196662E-02    2           23   1000006                       # TP2    -->  Z0     TP1                
      8.05159435E-02    2           25   1000006                       # TP2    -->  HL0    TP1                
      2.41945222E-01    2      1000022         6                       # TP2    -->  Z1SS   TP                 
      5.47122769E-03    2      1000023         6                       # TP2    -->  Z2SS   TP                 
      6.39213175E-02    2      1000025         6                       # TP2    -->  Z3SS   TP                 
      6.29118830E-02    2      1000035         6                       # TP2    -->  Z4SS   TP                 
#         PDG         Width
DECAY   1000011  5.82668610E+01   # EL-   decays
#          BR          NDA       ID1       ID2       ID3       ID4
      3.21303517E-01    2      1000022        11                       # EL-    -->  Z1SS   E-                 
      3.59384753E-02    2      1000023        11                       # EL-    -->  Z2SS   E-                 
      6.42757952E-01    2     -1000024        12                       # EL-    -->  W1SS-  NUE                
      2.83414763E-18    3      1000015        11       -15             # EL-    -->  TAU1-  E-     TAU+        
      1.97330349E-20    3     -1000015        11        15             # EL-    -->  TAU1+  E-     TAU-        
#         PDG         Width
DECAY   1000013  5.82668610E+01   # MUL-  decays
#          BR          NDA       ID1       ID2       ID3       ID4
      3.21303517E-01    2      1000022        13                       # MUL-   -->  Z1SS   MU-                
      3.59384753E-02    2      1000023        13                       # MUL-   -->  Z2SS   MU-                
      6.42757952E-01    2     -1000024        14                       # MUL-   -->  W1SS-  NUM                
      2.83414763E-18    3      1000015        13       -15             # MUL-   -->  TAU1-  MU-    TAU+        
      1.97330349E-20    3     -1000015        13        15             # MUL-   -->  TAU1+  MU-    TAU-        
#         PDG         Width
DECAY   1000015  8.53205490E+00   # TAU1- decays
#          BR          NDA       ID1       ID2       ID3       ID4
      2.41390076E-02    2      1000022        15                       # TAU1-  -->  Z1SS   TAU-               
      9.27506328E-01    2      1000023        15                       # TAU1-  -->  Z2SS   TAU-               
      4.83546630E-02    2     -1000024        16                       # TAU1-  -->  W1SS-  NUT                
#         PDG         Width
DECAY   1000012  5.82503128E+01   # NUEL  decays
#          BR          NDA       ID1       ID2       ID3       ID4
      3.21518719E-01    2      1000022        12                       # NUEL   -->  Z1SS   NUE                
      3.56870070E-02    2      1000023        12                       # NUEL   -->  Z2SS   NUE                
      6.42794311E-01    2      1000024        11                       # NUEL   -->  W1SS+  E-                 
      1.62240906E-17    3      1000015        12       -15             # NUEL   -->  TAU1-  NUE    TAU+        
      2.78331697E-18    3     -1000015        12        15             # NUEL   -->  TAU1+  NUE    TAU-        
      3.48961792E-17    3     -1000015        11        16             # NUEL   -->  TAU1+  E-     NUT         
#         PDG         Width
DECAY   1000014  5.82503128E+01   # NUML  decays
#          BR          NDA       ID1       ID2       ID3       ID4
      3.21518719E-01    2      1000022        14                       # NUML   -->  Z1SS   NUM                
      3.56870070E-02    2      1000023        14                       # NUML   -->  Z2SS   NUM                
      6.42794311E-01    2      1000024        13                       # NUML   -->  W1SS+  MU-                
      1.62240906E-17    3      1000015        14       -15             # NUML   -->  TAU1-  NUM    TAU+        
      2.78331697E-18    3     -1000015        14        15             # NUML   -->  TAU1+  NUM    TAU-        
      3.61854626E-17    3     -1000015        13        16             # NUML   -->  TAU1+  MU-    NUT         
#         PDG         Width
DECAY   1000016  5.81278725E+01   # NUTL  decays
#          BR          NDA       ID1       ID2       ID3       ID4
      3.21569860E-01    2      1000022        16                       # NUTL   -->  Z1SS   NUT                
      3.55316885E-02    2      1000023        16                       # NUTL   -->  Z2SS   NUT                
      6.42898321E-01    2      1000024        15                       # NUTL   -->  W1SS+  TAU-               
      1.83034436E-16    3     -1000015        16        15             # NUTL   -->  TAU1+  NUT    TAU-        
      1.35009515E-08    3      1000015        16       -15             # NUTL   -->  TAU1-  NUT    TAU+        
      1.35009515E-08    3      1000015        12       -11             # NUTL   -->  TAU1-  NUE    E+          
      1.35009515E-08    3      1000015        14       -13             # NUTL   -->  TAU1-  NUM    MU+         
      4.05028544E-08    3      1000015         2        -1             # NUTL   -->  TAU1-  UP     DB          
      4.05028544E-08    3      1000015         4        -3             # NUTL   -->  TAU1-  CH     SB          
#         PDG         Width
DECAY   2000011  8.07663250E+00   # ER-   decays
#          BR          NDA       ID1       ID2       ID3       ID4
      6.24048766E-07    2      1000022        11                       # ER-    -->  Z1SS   E-                 
      9.99999404E-01    2      1000023        11                       # ER-    -->  Z2SS   E-                 
      3.19231972E-20    3      1000015        11       -15             # ER-    -->  TAU1-  E-     TAU+        
      6.42206484E-20    3     -1000015        11        15             # ER-    -->  TAU1+  E-     TAU-        
      3.14348276E-25    3      1000015        12       -16             # ER-    -->  TAU1-  NUE    ANUT        
#         PDG         Width
DECAY   2000013  8.07663250E+00   # MUR-  decays
#          BR          NDA       ID1       ID2       ID3       ID4
      6.24048766E-07    2      1000022        13                       # MUR-   -->  Z1SS   MU-                
      9.99999404E-01    2      1000023        13                       # MUR-   -->  Z2SS   MU-                
      3.19231972E-20    3      1000015        13       -15             # MUR-   -->  TAU1-  MU-    TAU+        
      6.42206484E-20    3     -1000015        13        15             # MUR-   -->  TAU1+  MU-    TAU-        
      1.33801198E-20    3      1000015        14       -16             # MUR-   -->  TAU1-  NUM    ANUT        
#         PDG         Width
DECAY   2000015  5.75937271E+01   # TAU2- decays
#          BR          NDA       ID1       ID2       ID3       ID4
      3.20861101E-01    2      1000022        15                       # TAU2-  -->  Z1SS   TAU-               
      3.72773334E-02    2      1000023        15                       # TAU2-  -->  Z2SS   TAU-               
      6.41861618E-01    2     -1000024        16                       # TAU2-  -->  W1SS-  NUT                
#         PDG         Width
DECAY   1000023  2.24999804E-02   # Z2SS  decays
#          BR          NDA       ID1       ID2       ID3       ID4
      5.42431962E-06    2      1000022        22                       # Z2SS   -->  Z1SS   GM                 
      4.36049134E-01    2      1000024       -24                       # Z2SS   -->  W1SS+  W-                 
      4.36049134E-01    2     -1000024        24                       # Z2SS   -->  W1SS-  W+                 
      8.56030267E-03    2      1000022        23                       # Z2SS   -->  Z1SS   Z0                 
      1.46239516E-04    3      1000022         2        -2             # Z2SS   -->  Z1SS   UP     UB          
      1.44025296E-04    3      1000022         1        -1             # Z2SS   -->  Z1SS   DN     DB          
      1.44025296E-04    3      1000022         3        -3             # Z2SS   -->  Z1SS   ST     SB          
      1.46239516E-04    3      1000022         4        -4             # Z2SS   -->  Z1SS   CH     CB          
      2.79834232E-04    3      1000022         5        -5             # Z2SS   -->  Z1SS   BT     BB          
      3.71636427E-03    3      1000022        11       -11             # Z2SS   -->  Z1SS   E-     E+          
      3.71636427E-03    3      1000022        13       -13             # Z2SS   -->  Z1SS   MU-    MU+         
      3.74806207E-03    3      1000022        15       -15             # Z2SS   -->  Z1SS   TAU-   TAU+        
      3.71185830E-03    3      1000022        12       -12             # Z2SS   -->  Z1SS   NUE    ANUE        
      3.71185830E-03    3      1000022        14       -14             # Z2SS   -->  Z1SS   NUM    ANUM        
      3.74354026E-03    3      1000022        16       -16             # Z2SS   -->  Z1SS   NUT    ANUT        
      9.61275250E-02    2      1000022        25                       # Z2SS   -->  Z1SS   HL0                
#         PDG         Width
DECAY   1000025  3.70936584E+01   # Z3SS  decays
#          BR          NDA       ID1       ID2       ID3       ID4
      1.44438568E-08    2      1000022        22                       # Z3SS   -->  Z1SS   GM                 
      7.86367096E-08    2      1000023        22                       # Z3SS   -->  Z2SS   GM                 
      3.38854849E-01    2      1000024       -24                       # Z3SS   -->  W1SS+  W-                 
      3.38854849E-01    2     -1000024        24                       # Z3SS   -->  W1SS-  W+                 
      1.97028473E-01    2      1000022        23                       # Z3SS   -->  Z1SS   Z0                 
      6.58188090E-02    2      1000023        23                       # Z3SS   -->  Z2SS   Z0                 
      1.90487048E-09    3      1000022         2        -2             # Z3SS   -->  Z1SS   UP     UB          
      2.53307708E-09    3      1000022         1        -1             # Z3SS   -->  Z1SS   DN     DB          
      2.53307708E-09    3      1000022         3        -3             # Z3SS   -->  Z1SS   ST     SB          
      1.90487048E-09    3      1000022         4        -4             # Z3SS   -->  Z1SS   CH     CB          
      2.17005595E-06    3      1000022         5        -5             # Z3SS   -->  Z1SS   BT     BB          
      9.44997112E-08    3      1000022        15       -15             # Z3SS   -->  Z1SS   TAU-   TAU+        
      1.11239568E-11    3      1000023         2        -2             # Z3SS   -->  Z2SS   UP     UB          
      6.35362422E-12    3      1000023         1        -1             # Z3SS   -->  Z2SS   DN     DB          
      6.35362422E-12    3      1000023         3        -3             # Z3SS   -->  Z2SS   ST     SB          
      1.11239568E-11    3      1000023         4        -4             # Z3SS   -->  Z2SS   CH     CB          
      2.21252847E-08    3      1000023         5        -5             # Z3SS   -->  Z2SS   BT     BB          
      1.31852396E-09    3      1000023        15       -15             # Z3SS   -->  Z2SS   TAU-   TAU+        
      5.67839481E-02    2      1000022        25                       # Z3SS   -->  Z1SS   HL0                
      2.54778750E-03    2      1000023        25                       # Z3SS   -->  Z2SS   HL0                
      1.25925709E-07    2      1000011       -11                       # Z3SS   -->  EL-    E+                 
      1.25925709E-07    2     -1000011        11                       # Z3SS   -->  EL+    E-                 
      1.25925695E-07    2      1000013       -13                       # Z3SS   -->  MUL-   MU+                
      1.25925695E-07    2     -1000013        13                       # Z3SS   -->  MUL+   MU-                
      4.86348846E-08    2      2000011       -11                       # Z3SS   -->  ER-    E+                 
      4.86348846E-08    2     -2000011        11                       # Z3SS   -->  ER+    E-                 
      4.86348810E-08    2      2000013       -13                       # Z3SS   -->  MUR-   MU+                
      4.86348810E-08    2     -2000013        13                       # Z3SS   -->  MUR+   MU-                
      3.00549164E-05    2      1000015       -15                       # Z3SS   -->  TAU1-  TAU+               
      3.00549164E-05    2     -1000015        15                       # Z3SS   -->  TAU1+  TAU-               
      2.32979364E-05    2      2000015       -15                       # Z3SS   -->  TAU2-  TAU+               
      2.32979364E-05    2     -2000015        15                       # Z3SS   -->  TAU2+  TAU-               
      3.05339739E-07    2      1000012       -12                       # Z3SS   -->  NUEL   ANUE               
      3.05339739E-07    2     -1000012        12                       # Z3SS   -->  ANUEL  NUE                
      3.05339739E-07    2      1000014       -14                       # Z3SS   -->  NUML   ANUM               
      3.05339739E-07    2     -1000014        14                       # Z3SS   -->  ANUML  NUM                
      3.22647224E-07    2      1000016       -16                       # Z3SS   -->  NUTL   ANUT               
      3.22647224E-07    2     -1000016        16                       # Z3SS   -->  ANUTL  NUT                
#         PDG         Width
DECAY   1000035  3.04919052E+01   # Z4SS  decays
#          BR          NDA       ID1       ID2       ID3       ID4
      2.26258514E-08    2      1000022        22                       # Z4SS   -->  Z1SS   GM                 
      1.01092390E-07    2      1000023        22                       # Z4SS   -->  Z2SS   GM                 
      7.35965487E-16    2      1000025        22                       # Z4SS   -->  Z3SS   GM                 
      2.33043104E-01    2      1000024       -24                       # Z4SS   -->  W1SS+  W-                 
      2.33043104E-01    2     -1000024        24                       # Z4SS   -->  W1SS-  W+                 
      8.09832886E-02    2      1000022        23                       # Z4SS   -->  Z1SS   Z0                 
      3.35748750E-03    2      1000023        23                       # Z4SS   -->  Z2SS   Z0                 
      8.35682457E-09    3      1000022         2        -2             # Z4SS   -->  Z1SS   UP     UB          
      1.89853040E-08    3      1000022         1        -1             # Z4SS   -->  Z1SS   DN     DB          
      1.89853040E-08    3      1000022         3        -3             # Z4SS   -->  Z1SS   ST     SB          
      8.35682457E-09    3      1000022         4        -4             # Z4SS   -->  Z1SS   CH     CB          
      2.66665279E-06    3      1000022         5        -5             # Z4SS   -->  Z1SS   BT     BB          
      1.13969797E-07    3      1000022        15       -15             # Z4SS   -->  Z1SS   TAU-   TAU+        
      5.47358603E-10    3      1000023         2        -2             # Z4SS   -->  Z2SS   UP     UB          
      1.03617802E-10    3      1000023         1        -1             # Z4SS   -->  Z2SS   DN     DB          
      1.03617802E-10    3      1000023         3        -3             # Z4SS   -->  Z2SS   ST     SB          
      5.47358603E-10    3      1000023         4        -4             # Z4SS   -->  Z2SS   CH     CB          
      2.67776894E-08    3      1000023         5        -5             # Z4SS   -->  Z2SS   BT     BB          
      1.56690561E-09    3      1000023        15       -15             # Z4SS   -->  Z2SS   TAU-   TAU+        
      3.95902783E-22    3      1000025         1        -1             # Z4SS   -->  Z3SS   DN     DB          
      3.30402881E-01    2      1000022        25                       # Z4SS   -->  Z1SS   HL0                
      1.19016483E-01    2      1000023        25                       # Z4SS   -->  Z2SS   HL0                
      1.14028225E-07    2      1000011       -11                       # Z4SS   -->  EL-    E+                 
      1.14028225E-07    2     -1000011        11                       # Z4SS   -->  EL+    E-                 
      1.14028218E-07    2      1000013       -13                       # Z4SS   -->  MUL-   MU+                
      1.14028218E-07    2     -1000013        13                       # Z4SS   -->  MUL+   MU-                
      1.42560020E-06    2      2000011       -11                       # Z4SS   -->  ER-    E+                 
      1.42560020E-06    2     -2000011        11                       # Z4SS   -->  ER+    E-                 
      1.42560009E-06    2      2000013       -13                       # Z4SS   -->  MUR-   MU+                
      1.42560009E-06    2     -2000013        13                       # Z4SS   -->  MUR+   MU-                
      3.70476300E-05    2      1000015       -15                       # Z4SS   -->  TAU1-  TAU+               
      3.70476300E-05    2     -1000015        15                       # Z4SS   -->  TAU1+  TAU-               
      2.92350142E-05    2      2000015       -15                       # Z4SS   -->  TAU2-  TAU+               
      2.92350142E-05    2     -2000015        15                       # Z4SS   -->  TAU2+  TAU-               
      1.94170184E-06    2      1000012       -12                       # Z4SS   -->  NUEL   ANUE               
      1.94170184E-06    2     -1000012        12                       # Z4SS   -->  ANUEL  NUE                
      1.94170184E-06    2      1000014       -14                       # Z4SS   -->  NUML   ANUM               
      1.94170184E-06    2     -1000014        14                       # Z4SS   -->  ANUML  NUM                
      2.05134074E-06    2      1000016       -16                       # Z4SS   -->  NUTL   ANUT               
      2.05134074E-06    2     -1000016        16                       # Z4SS   -->  ANUTL  NUT                
#         PDG         Width
DECAY   1000024  1.77348997E-14   # W1SS+ decays
#          BR          NDA       ID1       ID2       ID3       ID4
      2.58360386E-01    2      1000022         0                       # W1SS+  -->  Z1SS   PI+                
      3.70819807E-01    3      1000022       -11        12             # W1SS+  -->  Z1SS   E+     NUE         
      3.70819807E-01    3      1000022       -13        14             # W1SS+  -->  Z1SS   MU+    NUM         
#         PDG         Width
DECAY   1000037  3.95301628E+01   # W2SS+ decays
#          BR          NDA       ID1       ID2       ID3       ID4
      2.13937756E-08    3      1000022         2        -1             # W2SS+  -->  Z1SS   UP     DB          
      2.13937756E-08    3      1000022         4        -3             # W2SS+  -->  Z1SS   CH     SB          
      8.75809576E-08    3      1000022       -15        16             # W2SS+  -->  Z1SS   TAU+   NUT         
      3.37378412E-01    2      1000022        24                       # W2SS+  -->  Z1SS   W+                 
      1.10755551E-10    3      1000023         2        -1             # W2SS+  -->  Z2SS   UP     DB          
      1.10755551E-10    3      1000023         4        -3             # W2SS+  -->  Z2SS   CH     SB          
      1.22837507E-09    3      1000023       -15        16             # W2SS+  -->  Z2SS   TAU+   NUT         
      6.42488301E-02    2      1000023        24                       # W2SS+  -->  Z2SS   W+                 
      1.11051703E-10    3      1000025         2        -1             # W2SS+  -->  Z3SS   UP     DB          
      1.11051703E-10    3      1000025         4        -3             # W2SS+  -->  Z3SS   CH     SB          
      3.70172365E-11    3      1000025       -11        12             # W2SS+  -->  Z3SS   E+     NUE         
      3.70172365E-11    3      1000025       -13        14             # W2SS+  -->  Z3SS   MU+    NUM         
      3.70172365E-11    3      1000025       -15        16             # W2SS+  -->  Z3SS   TAU+   NUT         
      6.20857324E-11    3      1000035         2        -1             # W2SS+  -->  Z4SS   UP     DB          
      6.20857324E-11    3      1000035         4        -3             # W2SS+  -->  Z4SS   CH     SB          
      2.06952424E-11    3      1000035       -11        12             # W2SS+  -->  Z4SS   E+     NUE         
      2.06952424E-11    3      1000035       -13        14             # W2SS+  -->  Z4SS   MU+    NUM         
      2.06952424E-11    3      1000035       -15        16             # W2SS+  -->  Z4SS   TAU+   NUT         
      4.93407413E-07    2      1000012       -11                       # W2SS+  -->  NUEL   E+                 
      4.93407356E-07    2      1000014       -13                       # W2SS+  -->  NUML   MU+                
      4.55873378E-05    2      1000016       -15                       # W2SS+  -->  NUTL   TAU+               
      3.20710114E-06    2     -1000011        12                       # W2SS+  -->  EL+    NUE                
      3.20710114E-06    2     -1000013        14                       # W2SS+  -->  MUL+   NUM                
      5.57871172E-05    2     -1000015        16                       # W2SS+  -->  TAU1+  NUT                
      6.33163199E-06    2     -2000015        16                       # W2SS+  -->  TAU2+  NUT                
      2.89998353E-01    2      1000024        23                       # W2SS+  -->  W1SS+  Z0                 
      6.72758427E-09    3      1000024         1        -1             # W2SS+  -->  W1SS+  DN     DB          
      6.72758427E-09    3      1000024         3        -3             # W2SS+  -->  W1SS+  ST     SB          
      4.45185009E-08    3      1000024         2        -2             # W2SS+  -->  W1SS+  UP     UB          
      4.45185009E-08    3      1000024         4        -4             # W2SS+  -->  W1SS+  CH     CB          
      3.08259100E-01    2      1000024        25                       # W2SS+  -->  W1SS+  HL0                
#         PDG         Width
DECAY        25  4.22991998E-03   # HL0   decays
#          BR          NDA       ID1       ID2       ID3       ID4
      4.72609329E-09    2           11       -11                       # HL0    -->  E-     E+                 
      1.99543225E-04    2           13       -13                       # HL0    -->  MU-    MU+                
      5.70741408E-02    2           15       -15                       # HL0    -->  TAU-   TAU+               
      5.92980314E-06    2            1        -1                       # HL0    -->  DN     DB                 
      2.39593745E-03    2            3        -3                       # HL0    -->  ST     SB                 
      7.83016980E-01    2            5        -5                       # HL0    -->  BT     BB                 
      1.89561126E-06    2            2        -2                       # HL0    -->  UP     UB                 
      3.55657451E-02    2            4        -4                       # HL0    -->  CH     CB                 
      1.91610376E-03    2           22        22                       # HL0    -->  GM     GM                 
      4.08368036E-02    2           21        21                       # HL0    -->  GL     GL                 
      4.04539006E-03    3           24        11       -12             # HL0    -->  W+     E-     ANUE        
      4.04539006E-03    3           24        13       -14             # HL0    -->  W+     MU-    ANUM        
      4.04539006E-03    3           24        15       -16             # HL0    -->  W+     TAU-   ANUT        
      1.21361688E-02    3           24        -2         1             # HL0    -->  W+     UB     DN          
      1.21361688E-02    3           24        -4         3             # HL0    -->  W+     CB     ST          
      4.04539006E-03    3          -24       -11        12             # HL0    -->  W-     E+     NUE         
      4.04539006E-03    3          -24       -13        14             # HL0    -->  W-     MU+    NUM         
      4.04539006E-03    3          -24       -15        16             # HL0    -->  W-     TAU+   NUT         
      1.21361688E-02    3          -24         2        -1             # HL0    -->  W-     UP     DB          
      1.21361688E-02    3          -24         4        -3             # HL0    -->  W-     CH     SB          
      4.21966834E-04    3           23        12       -12             # HL0    -->  Z0     NUE    ANUE        
      4.21966834E-04    3           23        14       -14             # HL0    -->  Z0     NUM    ANUM        
      4.21966834E-04    3           23        16       -16             # HL0    -->  Z0     NUT    ANUT        
      2.12371669E-04    3           23        11       -11             # HL0    -->  Z0     E-     E+          
      2.12371669E-04    3           23        13       -13             # HL0    -->  Z0     MU-    MU+         
      2.12371669E-04    3           23        15       -15             # HL0    -->  Z0     TAU-   TAU+        
      7.27567356E-04    3           23         2        -2             # HL0    -->  Z0     UP     UB          
      7.27567356E-04    3           23         4        -4             # HL0    -->  Z0     CH     CB          
      9.37286008E-04    3           23         1        -1             # HL0    -->  Z0     DN     DB          
      9.37286008E-04    3           23         3        -3             # HL0    -->  Z0     ST     SB          
      9.37286008E-04    3           23         5        -5             # HL0    -->  Z0     BT     BB          
#         PDG         Width
DECAY        35  3.53982430E+01   # HH0   decays
#          BR          NDA       ID1       ID2       ID3       ID4
      8.61001437E-10    2           11       -11                       # HH0    -->  E-     E+                 
      3.63530344E-05    2           13       -13                       # HH0    -->  MU-    MU+                
      1.04120625E-02    2           15       -15                       # HH0    -->  TAU-   TAU+               
      1.04044602E-06    2            1        -1                       # HH0    -->  DN     DB                 
      4.20392811E-04    2            3        -3                       # HH0    -->  ST     SB                 
      5.15290685E-02    2            5        -5                       # HH0    -->  BT     BB                 
      5.33141364E-10    2            2        -2                       # HH0    -->  UP     UB                 
      6.08002802E-06    2            4        -4                       # HH0    -->  CH     CB                 
      3.19547176E-01    2            6        -6                       # HH0    -->  TP     TB                 
      2.90782651E-07    2           22        22                       # HH0    -->  GM     GM                 
      2.45734664E-05    2           21        21                       # HH0    -->  GL     GL                 
      2.61616387E-05    2           24       -24                       # HH0    -->  W+     W-                 
      1.34255579E-05    2           23        23                       # HH0    -->  Z0     Z0                 
      3.07509064E-04    2      1000022   1000022                       # HH0    -->  Z1SS   Z1SS               
      1.59456424E-04    2      1000022   1000023                       # HH0    -->  Z1SS   Z2SS               
      1.72920376E-01    2      1000022   1000025                       # HH0    -->  Z1SS   Z3SS               
      3.33722122E-02    2      1000022   1000035                       # HH0    -->  Z1SS   Z4SS               
      7.62163563E-06    2      1000023   1000023                       # HH0    -->  Z2SS   Z2SS               
      6.33410586E-04    2      1000024  -1000024                       # HH0    -->  W1SS+  W1SS-              
      2.05234364E-01    2      1000024  -1000037                       # HH0    -->  W1SS+  W2SS-              
      2.05234364E-01    2     -1000024   1000037                       # HH0    -->  W1SS-  W2SS+              
      1.14155286E-04    2           25        25                       # HH0    -->  HL0    HL0                
#         PDG         Width
DECAY        36  3.45255280E+01   # HA0   decays
#          BR          NDA       ID1       ID2       ID3       ID4
      8.77013573E-10    2           11       -11                       # HA0    -->  E-     E+                 
      3.70290909E-05    2           13       -13                       # HA0    -->  MU-    MU+                
      1.06056985E-02    2           15       -15                       # HA0    -->  TAU-   TAU+               
      1.05983599E-06    2            1        -1                       # HA0    -->  DN     DB                 
      4.28227242E-04    2            3        -3                       # HA0    -->  ST     SB                 
      5.24894036E-02    2            5        -5                       # HA0    -->  BT     BB                 
      5.42580758E-10    2            2        -2                       # HA0    -->  UP     UB                 
      6.19167440E-06    2            4        -4                       # HA0    -->  CH     CB                 
      3.25928211E-01    2            6        -6                       # HA0    -->  TP     TB                 
      2.01243708E-07    2           22        22                       # HA0    -->  GM     GM                 
      2.84370944E-05    2           21        21                       # HA0    -->  GL     GL                 
      4.16271476E-04    2      1000022   1000022                       # HA0    -->  Z1SS   Z1SS               
      3.23990389E-04    2      1000022   1000023                       # HA0    -->  Z1SS   Z2SS               
      3.23300324E-02    2      1000022   1000025                       # HA0    -->  Z1SS   Z3SS               
      1.71228290E-01    2      1000022   1000035                       # HA0    -->  Z1SS   Z4SS               
      5.19194364E-05    2      1000023   1000023                       # HA0    -->  Z2SS   Z2SS               
      9.46942775E-04    2      1000024  -1000024                       # HA0    -->  W1SS+  W1SS-              
      2.02575743E-01    2      1000024  -1000037                       # HA0    -->  W1SS+  W2SS-              
      2.02575743E-01    2     -1000024   1000037                       # HA0    -->  W1SS-  W2SS+              
      2.66316929E-05    2           25        23                       # HA0    -->  HL0    Z0                 
#         PDG         Width
DECAY        37  3.45097694E+01   # H+    decays
#          BR          NDA       ID1       ID2       ID3       ID4
      8.83240259E-10    2           12       -11                       # H+     -->  NUE    E+                 
      3.72919967E-05    2           14       -13                       # H+     -->  NUM    MU+                
      1.06809987E-02    2           16       -15                       # H+     -->  NUT    TAU+               
      9.95063942E-07    2            2        -1                       # H+     -->  UP     DB                 
      4.07656946E-04    2            4        -3                       # H+     -->  CH     SB                 
      3.54656100E-01    2            6        -5                       # H+     -->  TP     BB                 
      9.63209573E-07    2      1000024   1000022                       # H+     -->  W1SS+  Z1SS               
      5.11184975E-04    2      1000024   1000023                       # H+     -->  W1SS+  Z2SS               
      2.11690411E-01    2      1000024   1000025                       # H+     -->  W1SS+  Z3SS               
      2.11425468E-01    2      1000024   1000035                       # H+     -->  W1SS+  Z4SS               
      2.10562065E-01    2      1000037   1000022                       # H+     -->  W2SS+  Z1SS               
      2.68274071E-05    2           25        24                       # H+     -->  HL0    W+                 
