#  ISAJET SUSY parameters in SUSY Les Houches Accord 2 format
#  Created by ISALHA 2.0 Last revision: C. Balazs 21 Apr 2009
Block SPINFO   # Program information
     1   ISASUGRA from ISAJET          # Spectrum Calculator
     2   7.80   29-OCT-2009 12:50:36   # Version number
Block MODSEL   # Model selection
     1     3   # Minimal anomaly mediated (AMSB) model             
Block SMINPUTS   # Standard Model inputs
     1     1.27836258E+02   # alpha_em^(-1)
     2     1.16570000E-05   # G_Fermi
     3     1.17200002E-01   # alpha_s(M_Z)
     4     9.11699982E+01   # m_{Z}(pole)
     5     4.19999981E+00   # m_{b}(m_{b})
     6     1.72500000E+02   # m_{top}(pole)
     7     1.77699995E+00   # m_{tau}(pole)
Block MINPAR   # SUSY breaking input parameters
     1     5.00000000E+03   # m_0
     2     4.24400000E+05   # m_{3/2}
     3     5.00000000E+00   # tan(beta)
     4     1.00000000E+00   # sign(mu)
Block EXTPAR   # Non-universal SUSY breaking parameters
     0     7.91969636E+15   # Input scale
Block MASS   # Scalar and gaugino mass spectrum
#  PDG code   mass                 particle
         5     4.80000000E+00   # b-quark pole mass calculated from mb(mb)_Msbar
         6     1.72500000E+02   # t-quark pole mass (not read by ME)
        15     1.77682000E+00   # tau pole mass (not read by ME)
        23     9.11876000E+01   # Z pole mass (not read by ME)
        24     8.04229965E+01   #  W^+
        25     1.18194756E+02   #  h^0            
        35     8.12848291E+03   #  H^0            
        36     8.07526318E+03   #  A^0            
        37     8.12877441E+03   #  H^+            
   1000001     8.83291699E+03   #  dnl            
   1000002     8.83257227E+03   #  upl            
   1000003     8.83291699E+03   #  stl            
   1000004     8.83257227E+03   #  chl            
   1000005     7.62943506E+03   #  b1             
   1000006     6.18600146E+03   #  t1             
   1000011     4.70905029E+03   #  el-            
   1000012     4.70304199E+03   #  nuel           
   1000013     4.70905029E+03   #  mul-           
   1000014     4.70304199E+03   #  numl           
   1000015     4.62054492E+03   #  tau1           
   1000016     4.69264844E+03   #  nutl           
   1000021     7.92086768E+03   #  glss           
   1000022     1.19983313E+03   #  z1ss           
   1000023     3.95386328E+03   #  z2ss           
   1000024     1.20000757E+03   #  w1ss           
   1000025    -6.39012988E+03   #  z3ss           
   1000035     6.39091113E+03   #  z4ss           
   1000037     6.39788330E+03   #  w2ss           
   2000001     8.94912988E+03   #  dnr            
   2000002     8.87805469E+03   #  upr            
   2000003     8.94912988E+03   #  str            
   2000004     8.87805469E+03   #  chr            
   2000005     8.88267090E+03   #  b2             
   2000006     7.68497461E+03   #  t2             
   2000011     4.63707568E+03   #  er-            
   2000013     4.63707568E+03   #  mur-           
   2000015     4.69852686E+03   #  tau2           
Block ALPHA   # Effective Higgs mixing parameter
         -1.97464988E-01   # alpha
Block STOPMIX   # stop mixing matrix
  1  1     3.40201333E-02   # O_{11}
  1  2    -9.99421120E-01   # O_{12}
  2  1     9.99421120E-01   # O_{21}
  2  2     3.40201333E-02   # O_{22}
Block SBOTMIX   # sbottom mixing matrix
  1  1     9.99995649E-01   # O_{11}
  1  2     2.94664991E-03   # O_{12}
  2  1    -2.94664991E-03   # O_{21}
  2  2     9.99995649E-01   # O_{22}
Block STAUMIX   # stau mixing matrix
  1  1     8.16317573E-02   # O_{11}
  1  2     9.96662557E-01   # O_{12}
  2  1    -9.96662557E-01   # O_{21}
  2  2     8.16317573E-02   # O_{22}
Block NMIX   # neutralino mixing matrix
  1  1    -5.43897855E-04   #
  1  2     9.99924183E-01   #
  1  3    -1.19893523E-02   #
  1  4     2.76648067E-03   #
  2  1     9.99929547E-01   #
  2  2     6.80871308E-04   #
  2  3     9.93764400E-03   #
  2  4    -6.43935800E-03   #
  3  1    -2.47758627E-03   #
  3  2     6.52000029E-03   #
  3  3     7.07053721E-01   #
  3  4     7.07125247E-01   #
  4  1     1.15866875E-02   #
  4  2    -1.04268743E-02   #
  4  3    -7.06988215E-01   #
  4  4     7.07053542E-01   #
Block UMIX   # chargino U mixing matrix
  1  1    -9.99839067E-01   # U_{11}
  1  2     1.79400798E-02   # U_{12}
  2  1    -1.79400798E-02   # U_{21}
  2  2    -9.99839067E-01   # U_{22}
Block VMIX   # chargino V mixing matrix
  1  1    -9.99975562E-01   # V_{11}
  1  2     6.99268421E-03   # V_{12}
  2  1    -6.99268421E-03   # V_{21}
  2  2    -9.99975562E-01   # V_{22}
Block GAUGE Q=  6.58430762E+03   #
     1     3.57524991E-01   # g`
     2     6.52378619E-01   # g_2
     3     1.21928012E+00   # g_3
Block YU Q=  6.58430762E+03   #
  3  3     8.17776322E-01   # y_t
Block YD Q=  6.58430762E+03   #
  3  3     6.26543388E-02   # y_b
Block YE Q=  6.58430762E+03   #
  3  3     5.15120476E-02   # y_tau
Block HMIX Q=  6.58430762E+03   # Higgs mixing parameters
     1     6.37776270E+03   # mu(Q)
     2     5.00000000E+00   # tan(beta)(M_GUT)
     3     2.52448181E+02   # Higgs vev at Q
     4     6.52098760E+07   # m_A^2(Q)
Block MSOFT Q=  6.58430762E+03   # DRbar SUSY breaking parameters
     1     3.98425098E+03   # M_1(Q)          
     2     1.12631934E+03   # M_2(Q)          
     3    -7.43146973E+03   # M_3(Q)          
    21     3.23374943E+04   # mH1^2(Q)            
    22    -1.28800134E+05   # mH2^2(Q)            
    31     4.68846045E+03   # MeL(Q)          
    32     4.68846045E+03   # MmuL(Q)         
    33     4.67838379E+03   # MtauL(Q)        
    34     4.62472266E+03   # MeR(Q)          
    35     4.62472266E+03   # MmuR(Q)         
    36     4.60270703E+03   # MtauR(Q)        
    41     8.44945410E+03   # MqL1(Q)         
    42     8.44945410E+03   # MqL2(Q)         
    43     7.30036768E+03   # MqL3(Q)         
    44     8.49542578E+03   # MuR(Q)          
    45     8.49542578E+03   # McR(Q)          
    46     5.93848291E+03   # MtR(Q)          
    47     8.56733887E+03   # MdR(Q)          
    48     8.56733887E+03   # MsR(Q)          
    49     8.59467480E+03   # MbR(Q)          
Block AU Q=  6.58430762E+03   #
  1  1     6.44371289E+03   # A_u
  2  2     6.44371289E+03   # A_c
  3  3     6.44371289E+03   # A_t
Block AD Q=  6.58430762E+03   #
  1  1     1.52234561E+04   # A_d
  2  2     1.52234561E+04   # A_s
  3  3     1.52234561E+04   # A_b
Block AE Q=  6.58430762E+03   #
  1  1     4.39858838E+03   # A_e
  2  2     4.39858838E+03   # A_mu
  3  3     4.39858838E+03   # A_tau
#
#  ISAJET decay tables in SUSY Les Houches accord format
#  Created by ISALHD. Last revision: C. Balazs, 2005 May 25
Block DCINFO                           # Program information
     1   ISASUGRA from ISAJET          # Spectrum Calculator
     2   7.80   29-OCT-2009 12:50:36   # Version number
#         PDG         Width
DECAY        23     2.49520000E+00   # Z width (SM calculation)
DECAY        24     2.08500000E+00   # W width (SM calculation)
#
#         PDG            Width  
DECAY         6  1.14680779E+00   # TP    decays
#          BR          NDA       ID1       ID2       ID3       ID4
      3.33333343E-01    3            2        -1         5             # TP     -->  UP     DB     BT          
      3.33333343E-01    3            4        -3         5             # TP     -->  CH     SB     BT          
      1.11111112E-01    3          -11        12         5             # TP     -->  E+     NUE    BT          
      1.11111112E-01    3          -13        14         5             # TP     -->  MU+    NUM    BT          
      1.11111112E-01    3          -15        16         5             # TP     -->  TAU+   NUT    BT          
#         PDG         Width
DECAY   1000021  2.40600624E+01   # GLSS  decays
#          BR          NDA       ID1       ID2       ID3       ID4
      1.81712746E-03    3      1000024         1        -2             # GLSS   -->  W1SS+  DN     UB          
      1.81712746E-03    3     -1000024         2        -1             # GLSS   -->  W1SS-  UP     DB          
      1.81712746E-03    3      1000024         3        -4             # GLSS   -->  W1SS+  ST     CB          
      1.81712746E-03    3     -1000024         4        -3             # GLSS   -->  W1SS-  CH     SB          
      1.40934531E-09    3      1000024         5        -6             # GLSS   -->  W1SS+  BT     TB          
      1.40934531E-09    3     -1000024         6        -5             # GLSS   -->  W1SS-  TP     BB          
      2.67277045E-09    3      1000037         1        -2             # GLSS   -->  W2SS+  DN     UB          
      2.67277045E-09    3     -1000037         2        -1             # GLSS   -->  W2SS-  UP     DB          
      2.67277045E-09    3      1000037         3        -4             # GLSS   -->  W2SS+  ST     CB          
      2.67277045E-09    3     -1000037         4        -3             # GLSS   -->  W2SS-  CH     SB          
      9.31870474E-08    3      1000037         5        -6             # GLSS   -->  W2SS+  BT     TB          
      9.31870474E-08    3     -1000037         6        -5             # GLSS   -->  W2SS-  TP     BB          
      8.02043029E-14    2      1000022        21                       # GLSS   -->  Z1SS   GL                 
      9.08610295E-04    3      1000022         2        -2             # GLSS   -->  Z1SS   UP     UB          
      9.08683753E-04    3      1000022         1        -1             # GLSS   -->  Z1SS   DN     DB          
      9.08683753E-04    3      1000022         3        -3             # GLSS   -->  Z1SS   ST     SB          
      9.08610295E-04    3      1000022         4        -4             # GLSS   -->  Z1SS   CH     CB          
      1.69498882E-09    3      1000022         5        -5             # GLSS   -->  Z1SS   BT     BB          
      7.04812010E-07    2      1000023        21                       # GLSS   -->  Z2SS   GL                 
      1.09758730E-04    3      1000023         2        -2             # GLSS   -->  Z2SS   UP     UB          
      3.05362300E-05    3      1000023         1        -1             # GLSS   -->  Z2SS   DN     DB          
      3.05362300E-05    3      1000023         3        -3             # GLSS   -->  Z2SS   ST     SB          
      1.09758730E-04    3      1000023         4        -4             # GLSS   -->  Z2SS   CH     CB          
      2.56004496E-05    3      1000023         5        -5             # GLSS   -->  Z2SS   BT     BB          
      2.72108470E-14    2      1000025        21                       # GLSS   -->  Z3SS   GL                 
      6.20365537E-10    3      1000025         2        -2             # GLSS   -->  Z3SS   UP     UB          
      7.66908426E-10    3      1000025         1        -1             # GLSS   -->  Z3SS   DN     DB          
      7.66908426E-10    3      1000025         3        -3             # GLSS   -->  Z3SS   ST     SB          
      6.20365537E-10    3      1000025         4        -4             # GLSS   -->  Z3SS   CH     CB          
      9.77774306E-08    3      1000025         5        -5             # GLSS   -->  Z3SS   BT     BB          
      1.85198957E-11    2      1000035        21                       # GLSS   -->  Z4SS   GL                 
      7.86653909E-10    3      1000035         2        -2             # GLSS   -->  Z4SS   UP     UB          
      9.96155491E-10    3      1000035         1        -1             # GLSS   -->  Z4SS   DN     DB          
      9.96155491E-10    3      1000035         3        -3             # GLSS   -->  Z4SS   ST     SB          
      7.86653909E-10    3      1000035         4        -4             # GLSS   -->  Z4SS   CH     CB          
      9.77362546E-08    3      1000035         5        -5             # GLSS   -->  Z4SS   BT     BB          
      1.63116474E-02    2     -1000005         5                       # GLSS   -->  BB1    BT                 
      1.63116474E-02    2      1000005        -5                       # GLSS   -->  BT1    BB                 
      4.70311701E-01    2     -1000006         6                       # GLSS   -->  TB1    TP                 
      4.70311701E-01    2      1000006        -6                       # GLSS   -->  TP1    TB                 
      7.77140679E-03    2     -2000006         6                       # GLSS   -->  TB2    TP                 
      7.77140679E-03    2      2000006        -6                       # GLSS   -->  TP2    TB                 
#         PDG         Width
DECAY   1000002  1.25239525E+02   # UPL   decays
#          BR          NDA       ID1       ID2       ID3       ID4
      2.85908937E-01    2      1000022         2                       # UPL    -->  Z1SS   UP                 
      6.41745795E-03    2      1000023         2                       # UPL    -->  Z2SS   UP                 
      2.48118340E-06    2      1000025         2                       # UPL    -->  Z3SS   UP                 
      4.64723280E-06    2      1000035         2                       # UPL    -->  Z4SS   UP                 
      1.35675639E-01    2      1000021         2                       # UPL    -->  GLSS   UP                 
      5.71984291E-01    2      1000024         1                       # UPL    -->  W1SS+  DN                 
      6.55903068E-06    2      1000037         1                       # UPL    -->  W2SS+  DN                 
#         PDG         Width
DECAY   1000001  1.25243889E+02   # DNL   decays
#          BR          NDA       ID1       ID2       ID3       ID4
      2.86024928E-01    2      1000022         1                       # DNL    -->  Z1SS   DN                 
      6.32303301E-03    2      1000023         1                       # DNL    -->  Z2SS   DN                 
      3.27997373E-06    2      1000025         1                       # DNL    -->  Z3SS   DN                 
      1.06156494E-05    2      1000035         1                       # DNL    -->  Z4SS   DN                 
      1.35762691E-01    2      1000021         1                       # DNL    -->  GLSS   DN                 
      5.71832240E-01    2     -1000024         2                       # DNL    -->  W1SS-  UP                 
      4.31794579E-05    2     -1000037         2                       # DNL    -->  W2SS-  UP                 
#         PDG         Width
DECAY   1000003  1.25243889E+02   # STL   decays
#          BR          NDA       ID1       ID2       ID3       ID4
      2.86024928E-01    2      1000022         3                       # STL    -->  Z1SS   ST                 
      6.32303301E-03    2      1000023         3                       # STL    -->  Z2SS   ST                 
      3.27997373E-06    2      1000025         3                       # STL    -->  Z3SS   ST                 
      1.06156494E-05    2      1000035         3                       # STL    -->  Z4SS   ST                 
      1.35762691E-01    2      1000021         3                       # STL    -->  GLSS   ST                 
      5.71832240E-01    2     -1000024         4                       # STL    -->  W1SS-  CH                 
      4.31794542E-05    2     -1000037         4                       # STL    -->  W2SS-  CH                 
#         PDG         Width
DECAY   1000004  1.25239502E+02   # CHL   decays
#          BR          NDA       ID1       ID2       ID3       ID4
      2.85908937E-01    2      1000022         4                       # CHL    -->  Z1SS   CH                 
      6.41745934E-03    2      1000023         4                       # CHL    -->  Z2SS   CH                 
      2.48118340E-06    2      1000025         4                       # CHL    -->  Z3SS   CH                 
      4.64723280E-06    2      1000035         4                       # CHL    -->  Z4SS   CH                 
      1.35675505E-01    2      1000021         4                       # CHL    -->  GLSS   CH                 
      5.71984410E-01    2      1000024         3                       # CHL    -->  W1SS+  ST                 
      6.55903204E-06    2      1000037         3                       # CHL    -->  W2SS+  ST                 
#         PDG         Width
DECAY   1000005  1.13908997E+02   # BT1   decays
#          BR          NDA       ID1       ID2       ID3       ID4
      2.68173754E-01    2      1000022         5                       # BT1    -->  Z1SS   BT                 
      5.02532162E-03    2      1000023         5                       # BT1    -->  Z2SS   BT                 
      2.48136930E-04    2      1000025         5                       # BT1    -->  Z3SS   BT                 
      2.50753481E-04    2      1000035         5                       # BT1    -->  Z4SS   BT                 
      5.35537183E-01    2     -1000024         6                       # BT1    -->  W1SS-  TP                 
      7.32422471E-02    2     -1000037         6                       # BT1    -->  W2SS-  TP                 
      1.17522605E-01    2          -24   1000006                       # BT1    -->  W-     TP1                
#         PDG         Width
DECAY   1000006  4.89977407E+00   # TP1   decays
#          BR          NDA       ID1       ID2       ID3       ID4
      4.20420151E-03    2      1000022         6                       # TP1    -->  Z1SS   TP                 
      9.89395320E-01    2      1000023         6                       # TP1    -->  Z2SS   TP                 
      6.40045619E-03    2      1000024         5                       # TP1    -->  W1SS+  BT                 
#         PDG         Width
DECAY   2000002  3.14321480E+01   # UPR   decays
#          BR          NDA       ID1       ID2       ID3       ID4
      1.82047089E-07    2      1000022         2                       # UPR    -->  Z1SS   UP                 
      4.10280228E-01    2      1000023         2                       # UPR    -->  Z2SS   UP                 
      9.10323195E-07    2      1000025         2                       # UPR    -->  Z3SS   UP                 
      1.98988691E-05    2      1000035         2                       # UPR    -->  Z4SS   UP                 
      5.89698792E-01    2      1000021         2                       # UPR    -->  GLSS   UP                 
#         PDG         Width
DECAY   2000001  2.43232670E+01   # DNR   decays
#          BR          NDA       ID1       ID2       ID3       ID4
      5.93190954E-08    2      1000022         1                       # DNR    -->  Z1SS   DN                 
      1.34657040E-01    2      1000023         1                       # DNR    -->  Z2SS   DN                 
      3.06618915E-07    2      1000025         1                       # DNR    -->  Z3SS   DN                 
      6.70253257E-06    2      1000035         1                       # DNR    -->  Z4SS   DN                 
      8.65335882E-01    2      1000021         1                       # DNR    -->  GLSS   DN                 
#         PDG         Width
DECAY   2000003  2.43232670E+01   # STR   decays
#          BR          NDA       ID1       ID2       ID3       ID4
      5.93190954E-08    2      1000022         3                       # STR    -->  Z1SS   ST                 
      1.34657040E-01    2      1000023         3                       # STR    -->  Z2SS   ST                 
      3.06618915E-07    2      1000025         3                       # STR    -->  Z3SS   ST                 
      6.70253257E-06    2      1000035         3                       # STR    -->  Z4SS   ST                 
      8.65335882E-01    2      1000021         3                       # STR    -->  GLSS   ST                 
#         PDG         Width
DECAY   2000004  3.14321270E+01   # CHR   decays
#          BR          NDA       ID1       ID2       ID3       ID4
      1.82047202E-07    2      1000022         4                       # CHR    -->  Z1SS   CH                 
      4.10280496E-01    2      1000023         4                       # CHR    -->  Z2SS   CH                 
      9.10323536E-07    2      1000025         4                       # CHR    -->  Z3SS   CH                 
      1.98988746E-05    2      1000035         4                       # CHR    -->  Z4SS   CH                 
      5.89698493E-01    2      1000021         4                       # CHR    -->  GLSS   CH                 
#         PDG         Width
DECAY   2000005  2.24305115E+01   # BT2   decays
#          BR          NDA       ID1       ID2       ID3       ID4
      2.63067318E-06    2      1000022         5                       # BT2    -->  Z1SS   BT                 
      1.43877119E-01    2      1000023         5                       # BT2    -->  Z2SS   BT                 
      3.81991290E-03    2      1000025         5                       # BT2    -->  Z3SS   BT                 
      3.82663496E-03    2      1000035         5                       # BT2    -->  Z4SS   BT                 
      8.33474815E-01    2      1000021         5                       # BT2    -->  GLSS   BT                 
      4.37001972E-06    2     -1000024         6                       # BT2    -->  W1SS-  TP                 
      7.62002449E-03    2     -1000037         6                       # BT2    -->  W2SS-  TP                 
      2.78753741E-05    2          -24   1000006                       # BT2    -->  W-     TP1                
      2.78611574E-03    2          -24   2000006                       # BT2    -->  W-     TP2                
      1.60077168E-03    2           23   1000005                       # BT2    -->  Z0     BT1                
      2.95975991E-03    2           25   1000005                       # BT2    -->  HL0    BT1                
#         PDG         Width
DECAY   2000006  1.21274574E+02   # TP2   decays
#          BR          NDA       ID1       ID2       ID3       ID4
      5.07460415E-01    2      1000024         5                       # TP2    -->  W1SS+  BT                 
      5.52328012E-04    2      1000037         5                       # TP2    -->  W2SS+  BT                 
      6.18940778E-02    2           23   1000006                       # TP2    -->  Z0     TP1                
      9.69396830E-02    2           25   1000006                       # TP2    -->  HL0    TP1                
      2.53312051E-01    2      1000022         6                       # TP2    -->  Z1SS   TP                 
      5.08783245E-03    2      1000023         6                       # TP2    -->  Z2SS   TP                 
      3.77258994E-02    2      1000025         6                       # TP2    -->  Z3SS   TP                 
      3.70276608E-02    2      1000035         6                       # TP2    -->  Z4SS   TP                 
#         PDG         Width
DECAY   1000011  5.24922180E+01   # EL-   decays
#          BR          NDA       ID1       ID2       ID3       ID4
      3.29930872E-01    2      1000022        11                       # EL-    -->  Z1SS   E-                 
      9.95164737E-03    2      1000023        11                       # EL-    -->  Z2SS   E-                 
      6.60117447E-01    2     -1000024        12                       # EL-    -->  W1SS-  NUE                
      4.60625140E-19    3      1000015        11       -15             # EL-    -->  TAU1-  E-     TAU+        
      1.23149123E-20    3     -1000015        11        15             # EL-    -->  TAU1+  E-     TAU-        
#         PDG         Width
DECAY   1000013  5.24922180E+01   # MUL-  decays
#          BR          NDA       ID1       ID2       ID3       ID4
      3.29930872E-01    2      1000022        13                       # MUL-   -->  Z1SS   MU-                
      9.95164737E-03    2      1000023        13                       # MUL-   -->  Z2SS   MU-                
      6.60117447E-01    2     -1000024        14                       # MUL-   -->  W1SS-  NUM                
      4.60625140E-19    3      1000015        13       -15             # MUL-   -->  TAU1-  MU-    TAU+        
      1.23149123E-20    3     -1000015        13        15             # MUL-   -->  TAU1+  MU-    TAU-        
#         PDG         Width
DECAY   1000015  2.02663112E+00   # TAU1- decays
#          BR          NDA       ID1       ID2       ID3       ID4
      5.74730337E-02    2      1000022        15                       # TAU1-  -->  Z1SS   TAU-               
      8.27323496E-01    2      1000023        15                       # TAU1-  -->  Z2SS   TAU-               
      1.15203507E-01    2     -1000024        16                       # TAU1-  -->  W1SS-  NUT                
#         PDG         Width
DECAY   1000012  5.24280396E+01   # NUEL  decays
#          BR          NDA       ID1       ID2       ID3       ID4
      3.30190778E-01    2      1000022        12                       # NUEL   -->  Z1SS   NUE                
      9.78130568E-03    2      1000023        12                       # NUEL   -->  Z2SS   NUE                
      6.60027921E-01    2      1000024        11                       # NUEL   -->  W1SS+  E-                 
      2.32348789E-18    3      1000015        12       -15             # NUEL   -->  TAU1-  NUE    TAU+        
      5.69835883E-19    3     -1000015        12        15             # NUEL   -->  TAU1+  NUE    TAU-        
      8.94615106E-18    3     -1000015        11        16             # NUEL   -->  TAU1+  E-     NUT         
#         PDG         Width
DECAY   1000014  5.24280396E+01   # NUML  decays
#          BR          NDA       ID1       ID2       ID3       ID4
      3.30190778E-01    2      1000022        14                       # NUML   -->  Z1SS   NUM                
      9.78130568E-03    2      1000023        14                       # NUML   -->  Z2SS   NUM                
      6.60027921E-01    2      1000024        13                       # NUML   -->  W1SS+  MU-                
      2.32348789E-18    3      1000015        14       -15             # NUML   -->  TAU1-  NUM    TAU+        
      5.69835883E-19    3     -1000015        14        15             # NUML   -->  TAU1+  NUM    TAU-        
      9.25946639E-18    3     -1000015        13        16             # NUML   -->  TAU1+  MU-    NUT         
#         PDG         Width
DECAY   1000016  5.22694244E+01   # NUTL  decays
#          BR          NDA       ID1       ID2       ID3       ID4
      3.30256850E-01    2      1000022        16                       # NUTL   -->  Z1SS   NUT                
      9.58114117E-03    2      1000023        16                       # NUTL   -->  Z2SS   NUT                
      6.60160661E-01    2      1000024        15                       # NUTL   -->  W1SS+  TAU-               
      5.13019765E-17    3     -1000015        16        15             # NUTL   -->  TAU1+  NUT    TAU-        
      1.48019254E-07    3      1000015        16       -15             # NUTL   -->  TAU1-  NUT    TAU+        
      1.48019254E-07    3      1000015        12       -11             # NUTL   -->  TAU1-  NUE    E+          
      1.48019254E-07    3      1000015        14       -13             # NUTL   -->  TAU1-  NUM    MU+         
      4.44057747E-07    3      1000015         2        -1             # NUTL   -->  TAU1-  UP     DB          
      4.44057747E-07    3      1000015         4        -3             # NUTL   -->  TAU1-  CH     SB          
#         PDG         Width
DECAY   2000011  1.75711060E+00   # ER-   decays
#          BR          NDA       ID1       ID2       ID3       ID4
      3.45690887E-06    2      1000022        11                       # ER-    -->  Z1SS   E-                 
      9.99996543E-01    2      1000023        11                       # ER-    -->  Z2SS   E-                 
      6.43061921E-21    3      1000015        11       -15             # ER-    -->  TAU1-  E-     TAU+        
      7.93402967E-21    3     -1000015        11        15             # ER-    -->  TAU1+  E-     TAU-        
      6.79122280E-26    3      1000015        12       -16             # ER-    -->  TAU1-  NUE    ANUT        
#         PDG         Width
DECAY   2000013  1.75711060E+00   # MUR-  decays
#          BR          NDA       ID1       ID2       ID3       ID4
      3.45690887E-06    2      1000022        13                       # MUR-   -->  Z1SS   MU-                
      9.99996543E-01    2      1000023        13                       # MUR-   -->  Z2SS   MU-                
      6.43061921E-21    3      1000015        13       -15             # MUR-   -->  TAU1-  MU-    TAU+        
      7.93402967E-21    3     -1000015        13        15             # MUR-   -->  TAU1+  MU-    TAU-        
      2.89101482E-21    3      1000015        14       -16             # MUR-   -->  TAU1-  NUM    ANUT        
#         PDG         Width
DECAY   2000015  5.19837151E+01   # TAU2- decays
#          BR          NDA       ID1       ID2       ID3       ID4
      3.29918534E-01    2      1000022        15                       # TAU2-  -->  Z1SS   TAU-               
      9.99814365E-03    2      1000023        15                       # TAU2-  -->  Z2SS   TAU-               
      6.60083294E-01    2     -1000024        16                       # TAU2-  -->  W1SS-  NUT                
#         PDG         Width
DECAY   1000023  4.85134833E-02   # Z2SS  decays
#          BR          NDA       ID1       ID2       ID3       ID4
      4.68799954E-05    2      1000022        22                       # Z2SS   -->  Z1SS   GM                 
      4.51886535E-01    2      1000024       -24                       # Z2SS   -->  W1SS+  W-                 
      4.51886535E-01    2     -1000024        24                       # Z2SS   -->  W1SS-  W+                 
      3.23184463E-03    2      1000022        23                       # Z2SS   -->  Z1SS   Z0                 
      1.33491616E-04    3      1000022         2        -2             # Z2SS   -->  Z1SS   UP     UB          
      1.31551133E-04    3      1000022         1        -1             # Z2SS   -->  Z1SS   DN     DB          
      1.31551133E-04    3      1000022         3        -3             # Z2SS   -->  Z1SS   ST     SB          
      1.33491616E-04    3      1000022         4        -4             # Z2SS   -->  Z1SS   CH     CB          
      2.54698651E-04    3      1000022         5        -5             # Z2SS   -->  Z1SS   BT     BB          
      9.91404615E-03    3      1000022        11       -11             # Z2SS   -->  Z1SS   E-     E+          
      9.91404615E-03    3      1000022        13       -13             # Z2SS   -->  Z1SS   MU-    MU+         
      1.00735351E-02    3      1000022        15       -15             # Z2SS   -->  Z1SS   TAU-   TAU+        
      9.96163860E-03    3      1000022        12       -12             # Z2SS   -->  Z1SS   NUE    ANUE        
      9.96163860E-03    3      1000022        14       -14             # Z2SS   -->  Z1SS   NUM    ANUM        
      1.01108337E-02    3      1000022        16       -16             # Z2SS   -->  Z1SS   NUT    ANUT        
      3.22276875E-02    2      1000022        25                       # Z2SS   -->  Z1SS   HL0                
#         PDG         Width
DECAY   1000025  4.66308250E+01   # Z3SS  decays
#          BR          NDA       ID1       ID2       ID3       ID4
      7.23145810E-09    2      1000022        22                       # Z3SS   -->  Z1SS   GM                 
      1.10179030E-08    2      1000023        22                       # Z3SS   -->  Z2SS   GM                 
      3.47655922E-01    2      1000024       -24                       # Z3SS   -->  W1SS+  W-                 
      3.47655922E-01    2     -1000024        24                       # Z3SS   -->  W1SS-  W+                 
      1.80281892E-01    2      1000022        23                       # Z3SS   -->  Z1SS   Z0                 
      5.80363087E-02    2      1000023        23                       # Z3SS   -->  Z2SS   Z0                 
      2.01846628E-09    3      1000022         2        -2             # Z3SS   -->  Z1SS   UP     UB          
      2.66829780E-09    3      1000022         1        -1             # Z3SS   -->  Z1SS   DN     DB          
      2.66829780E-09    3      1000022         3        -3             # Z3SS   -->  Z1SS   ST     SB          
      2.01846628E-09    3      1000022         4        -4             # Z3SS   -->  Z1SS   CH     CB          
      3.44006457E-06    3      1000022         5        -5             # Z3SS   -->  Z1SS   BT     BB          
      1.57223454E-07    3      1000022        15       -15             # Z3SS   -->  Z1SS   TAU-   TAU+        
      1.11830649E-11    3      1000023         2        -2             # Z3SS   -->  Z2SS   UP     UB          
      6.51181973E-12    3      1000023         1        -1             # Z3SS   -->  Z2SS   DN     DB          
      6.51181973E-12    3      1000023         3        -3             # Z3SS   -->  Z2SS   ST     SB          
      1.11830649E-11    3      1000023         4        -4             # Z3SS   -->  Z2SS   CH     CB          
      3.16064472E-08    3      1000023         5        -5             # Z3SS   -->  Z2SS   BT     BB          
      1.82721416E-09    3      1000023        15       -15             # Z3SS   -->  Z2SS   TAU-   TAU+        
      5.64589389E-02    2      1000022        25                       # Z3SS   -->  Z1SS   HL0                
      2.39069620E-03    2      1000023        25                       # Z3SS   -->  Z2SS   HL0                
      2.89963698E-03    2      1000006        -6                       # Z3SS   -->  TP1    TB                 
      2.89963698E-03    2     -1000006         6                       # Z3SS   -->  TB1    TP                 
      1.60230786E-06    2      1000011       -11                       # Z3SS   -->  EL-    E+                 
      1.60230786E-06    2     -1000011        11                       # Z3SS   -->  EL+    E-                 
      1.60230786E-06    2      1000013       -13                       # Z3SS   -->  MUL-   MU+                
      1.60230786E-06    2     -1000013        13                       # Z3SS   -->  MUL+   MU-                
      4.79452865E-07    2      2000011       -11                       # Z3SS   -->  ER-    E+                 
      4.79452865E-07    2     -2000011        11                       # Z3SS   -->  ER+    E-                 
      4.79452865E-07    2      2000013       -13                       # Z3SS   -->  MUR-   MU+                
      4.79452865E-07    2     -2000013        13                       # Z3SS   -->  MUR+   MU-                
      4.30329674E-04    2      1000015       -15                       # Z3SS   -->  TAU1-  TAU+               
      4.30329674E-04    2     -1000015        15                       # Z3SS   -->  TAU1+  TAU-               
      4.12898196E-04    2      2000015       -15                       # Z3SS   -->  TAU2-  TAU+               
      4.12898196E-04    2     -2000015        15                       # Z3SS   -->  TAU2+  TAU-               
      3.76366006E-06    2      1000012       -12                       # Z3SS   -->  NUEL   ANUE               
      3.76366006E-06    2     -1000012        12                       # Z3SS   -->  ANUEL  NUE                
      3.76366006E-06    2      1000014       -14                       # Z3SS   -->  NUML   ANUM               
      3.76366006E-06    2     -1000014        14                       # Z3SS   -->  ANUML  NUM                
      3.80303936E-06    2      1000016       -16                       # Z3SS   -->  NUTL   ANUT               
      3.80303936E-06    2     -1000016        16                       # Z3SS   -->  ANUTL  NUT                
#         PDG         Width
DECAY   1000035  3.62350159E+01   # Z4SS  decays
#          BR          NDA       ID1       ID2       ID3       ID4
      6.53141967E-08    2      1000022        22                       # Z4SS   -->  Z1SS   GM                 
      3.23438876E-09    2      1000023        22                       # Z4SS   -->  Z2SS   GM                 
      1.42451344E-15    2      1000025        22                       # Z4SS   -->  Z3SS   GM                 
      2.11115837E-01    2      1000024       -24                       # Z4SS   -->  W1SS+  W-                 
      2.11115837E-01    2     -1000024        24                       # Z4SS   -->  W1SS-  W+                 
      9.06912386E-02    2      1000022        23                       # Z4SS   -->  Z1SS   Z0                 
      3.42217111E-03    2      1000023        23                       # Z4SS   -->  Z2SS   Z0                 
      7.90961785E-09    3      1000022         2        -2             # Z4SS   -->  Z1SS   UP     UB          
      1.80681301E-08    3      1000022         1        -1             # Z4SS   -->  Z1SS   DN     DB          
      1.80681301E-08    3      1000022         3        -3             # Z4SS   -->  Z1SS   ST     SB          
      7.90961785E-09    3      1000022         4        -4             # Z4SS   -->  Z1SS   CH     CB          
      4.44461966E-06    3      1000022         5        -5             # Z4SS   -->  Z1SS   BT     BB          
      2.00317757E-07    3      1000022        15       -15             # Z4SS   -->  Z1SS   TAU-   TAU+        
      5.14301324E-10    3      1000023         2        -2             # Z4SS   -->  Z2SS   UP     UB          
      9.65409072E-11    3      1000023         1        -1             # Z4SS   -->  Z2SS   DN     DB          
      9.65409072E-11    3      1000023         3        -3             # Z4SS   -->  Z2SS   ST     SB          
      5.14301324E-10    3      1000023         4        -4             # Z4SS   -->  Z2SS   CH     CB          
      4.03734255E-08    3      1000023         5        -5             # Z4SS   -->  Z2SS   BT     BB          
      2.29533637E-09    3      1000023        15       -15             # Z4SS   -->  Z2SS   TAU-   TAU+        
      3.49599719E-01    2      1000022        25                       # Z4SS   -->  Z1SS   HL0                
      1.24962971E-01    2      1000023        25                       # Z4SS   -->  Z2SS   HL0                
      3.35119781E-03    2      1000006        -6                       # Z4SS   -->  TP1    TB                 
      3.35119781E-03    2     -1000006         6                       # Z4SS   -->  TB1    TP                 
      1.27743306E-06    2      1000011       -11                       # Z4SS   -->  EL-    E+                 
      1.27743306E-06    2     -1000011        11                       # Z4SS   -->  EL+    E-                 
      1.27743306E-06    2      1000013       -13                       # Z4SS   -->  MUL-   MU+                
      1.27743306E-06    2     -1000013        13                       # Z4SS   -->  MUL+   MU-                
      1.35033260E-05    2      2000011       -11                       # Z4SS   -->  ER-    E+                 
      1.35033260E-05    2     -2000011        11                       # Z4SS   -->  ER+    E-                 
      1.35033260E-05    2      2000013       -13                       # Z4SS   -->  MUR-   MU+                
      1.35033260E-05    2     -2000013        13                       # Z4SS   -->  MUR+   MU-                
      5.57014835E-04    2      1000015       -15                       # Z4SS   -->  TAU1-  TAU+               
      5.57014835E-04    2     -1000015        15                       # Z4SS   -->  TAU1+  TAU-               
      5.39843808E-04    2      2000015       -15                       # Z4SS   -->  TAU2-  TAU+               
      5.39843808E-04    2     -2000015        15                       # Z4SS   -->  TAU2+  TAU-               
      2.20081638E-05    2      1000012       -12                       # Z4SS   -->  NUEL   ANUE               
      2.20081638E-05    2     -1000012        12                       # Z4SS   -->  ANUEL  NUE                
      2.20081638E-05    2      1000014       -14                       # Z4SS   -->  NUML   ANUM               
      2.20081638E-05    2     -1000014        14                       # Z4SS   -->  ANUML  NUM                
      2.22383151E-05    2      1000016       -16                       # Z4SS   -->  NUTL   ANUT               
      2.22383151E-05    2     -1000016        16                       # Z4SS   -->  ANUTL  NUT                
#         PDG         Width
DECAY   1000024  4.66113041E-15   # W1SS+ decays
#          BR          NDA       ID1       ID2       ID3       ID4
      1.00000000E+00    2      1000022         0                       # W1SS+  -->  Z1SS   PI+                
#         PDG         Width
DECAY   1000037  5.06791687E+01   # W2SS+ decays
#          BR          NDA       ID1       ID2       ID3       ID4
      2.07822097E-08    3      1000022         2        -1             # W2SS+  -->  Z1SS   UP     DB          
      2.07822097E-08    3      1000022         4        -3             # W2SS+  -->  Z1SS   CH     SB          
      1.42599546E-07    3      1000022       -15        16             # W2SS+  -->  Z1SS   TAU+   NUT         
      3.46995562E-01    2      1000022        24                       # W2SS+  -->  Z1SS   W+                 
      1.04398115E-10    3      1000023         2        -1             # W2SS+  -->  Z2SS   UP     DB          
      1.04398115E-10    3      1000023         4        -3             # W2SS+  -->  Z2SS   CH     SB          
      1.66949410E-09    3      1000023       -15        16             # W2SS+  -->  Z2SS   TAU+   NUT         
      5.57536222E-02    2      1000023        24                       # W2SS+  -->  Z2SS   W+                 
      2.66472455E-10    3      1000025         2        -1             # W2SS+  -->  Z3SS   UP     DB          
      2.66472455E-10    3      1000025         4        -3             # W2SS+  -->  Z3SS   CH     SB          
      8.88241425E-11    3      1000025       -11        12             # W2SS+  -->  Z3SS   E+     NUE         
      8.88241425E-11    3      1000025       -13        14             # W2SS+  -->  Z3SS   MU+    NUM         
      8.88241425E-11    3      1000025       -15        16             # W2SS+  -->  Z3SS   TAU+   NUT         
      1.52718949E-10    3      1000035         2        -1             # W2SS+  -->  Z4SS   UP     DB          
      1.52718949E-10    3      1000035         4        -3             # W2SS+  -->  Z4SS   CH     SB          
      5.09063174E-11    3      1000035       -11        12             # W2SS+  -->  Z4SS   E+     NUE         
      5.09063174E-11    3      1000035       -13        14             # W2SS+  -->  Z4SS   MU+    NUM         
      5.09063278E-11    3      1000035       -15        16             # W2SS+  -->  Z4SS   TAU+   NUT         
      1.00414837E-02    2      1000006        -5                       # W2SS+  -->  TP1    BB                 
      5.48956450E-06    2      1000012       -11                       # W2SS+  -->  NUEL   E+                 
      5.48956450E-06    2      1000014       -13                       # W2SS+  -->  NUML   MU+                
      7.59711605E-04    2      1000016       -15                       # W2SS+  -->  NUTL   TAU+               
      3.59156911E-05    2     -1000011        12                       # W2SS+  -->  EL+    NUE                
      3.59156911E-05    2     -1000013        14                       # W2SS+  -->  MUL+   NUM                
      7.74755783E-04    2     -1000015        16                       # W2SS+  -->  TAU1+  NUT                
      6.78968790E-05    2     -2000015        16                       # W2SS+  -->  TAU2+  NUT                
      2.83519685E-01    2      1000024        23                       # W2SS+  -->  W1SS+  Z0                 
      6.53085408E-09    3      1000024         1        -1             # W2SS+  -->  W1SS+  DN     DB          
      6.53085408E-09    3      1000024         3        -3             # W2SS+  -->  W1SS+  ST     SB          
      4.29654570E-08    3      1000024         2        -2             # W2SS+  -->  W1SS+  UP     UB          
      4.29654570E-08    3      1000024         4        -4             # W2SS+  -->  W1SS+  CH     CB          
      3.02004069E-01    2      1000024        25                       # W2SS+  -->  W1SS+  HL0                
#         PDG         Width
DECAY        25  4.28143097E-03   # HL0   decays
#          BR          NDA       ID1       ID2       ID3       ID4
      4.69466110E-09    2           11       -11                       # HL0    -->  E-     E+                 
      1.98216134E-04    2           13       -13                       # HL0    -->  MU-    MU+                
      5.66954315E-02    2           15       -15                       # HL0    -->  TAU-   TAU+               
      5.88987086E-06    2            1        -1                       # HL0    -->  DN     DB                 
      2.37980322E-03    2            3        -3                       # HL0    -->  ST     SB                 
      7.77125478E-01    2            5        -5                       # HL0    -->  BT     BB                 
      1.88320530E-06    2            2        -2                       # HL0    -->  UP     UB                 
      3.53026241E-02    2            4        -4                       # HL0    -->  CH     CB                 
      1.93421892E-03    2           22        22                       # HL0    -->  GM     GM                 
      4.11278643E-02    2           21        21                       # HL0    -->  GL     GL                 
      4.35434841E-03    3           24        11       -12             # HL0    -->  W+     E-     ANUE        
      4.35434841E-03    3           24        13       -14             # HL0    -->  W+     MU-    ANUM        
      4.35434841E-03    3           24        15       -16             # HL0    -->  W+     TAU-   ANUT        
      1.30630461E-02    3           24        -2         1             # HL0    -->  W+     UB     DN          
      1.30630461E-02    3           24        -4         3             # HL0    -->  W+     CB     ST          
      4.35434841E-03    3          -24       -11        12             # HL0    -->  W-     E+     NUE         
      4.35434841E-03    3          -24       -13        14             # HL0    -->  W-     MU+    NUM         
      4.35434841E-03    3          -24       -15        16             # HL0    -->  W-     TAU+   NUT         
      1.30630461E-02    3          -24         2        -1             # HL0    -->  W-     UP     DB          
      1.30630461E-02    3          -24         4        -3             # HL0    -->  W-     CH     SB          
      4.68488084E-04    3           23        12       -12             # HL0    -->  Z0     NUE    ANUE        
      4.68488084E-04    3           23        14       -14             # HL0    -->  Z0     NUM    ANUM        
      4.68488084E-04    3           23        16       -16             # HL0    -->  Z0     NUT    ANUT        
      2.35785366E-04    3           23        11       -11             # HL0    -->  Z0     E-     E+          
      2.35785366E-04    3           23        13       -13             # HL0    -->  Z0     MU-    MU+         
      2.35785366E-04    3           23        15       -15             # HL0    -->  Z0     TAU-   TAU+        
      8.07780656E-04    3           23         2        -2             # HL0    -->  Z0     UP     UB          
      8.07780656E-04    3           23         4        -4             # HL0    -->  Z0     CH     CB          
      1.04062050E-03    3           23         1        -1             # HL0    -->  Z0     DN     DB          
      1.04062050E-03    3           23         3        -3             # HL0    -->  Z0     ST     SB          
      1.04062050E-03    3           23         5        -5             # HL0    -->  Z0     BT     BB          
#         PDG         Width
DECAY        35  2.77448711E+01   # HH0   decays
#          BR          NDA       ID1       ID2       ID3       ID4
      1.24465283E-09    2           11       -11                       # HH0    -->  E-     E+                 
      5.25514879E-05    2           13       -13                       # HH0    -->  MU-    MU+                
      1.50515474E-02    2           15       -15                       # HH0    -->  TAU-   TAU+               
      1.50297353E-06    2            1        -1                       # HH0    -->  DN     DB                 
      6.07277500E-04    2            3        -3                       # HH0    -->  ST     SB                 
      7.23819211E-02    2            5        -5                       # HH0    -->  BT     BB                 
      7.69998676E-10    2            2        -2                       # HH0    -->  UP     UB                 
      8.67484232E-06    2            4        -4                       # HH0    -->  CH     CB                 
      4.56150234E-01    2            6        -6                       # HH0    -->  TP     TB                 
      3.46004100E-07    2           22        22                       # HH0    -->  GM     GM                 
      2.97136648E-05    2           21        21                       # HH0    -->  GL     GL                 
      3.03797806E-05    2           24       -24                       # HH0    -->  W+     W-                 
      1.55909547E-05    2           23        23                       # HH0    -->  Z0     Z0                 
      2.70614808E-04    2      1000022   1000022                       # HH0    -->  Z1SS   Z1SS               
      1.14974406E-04    2      1000022   1000023                       # HH0    -->  Z1SS   Z2SS               
      1.39319688E-01    2      1000022   1000025                       # HH0    -->  Z1SS   Z3SS               
      1.33502875E-02    2      1000022   1000035                       # HH0    -->  Z1SS   Z4SS               
      6.62931711E-07    2      1000023   1000023                       # HH0    -->  Z2SS   Z2SS               
      5.65869850E-04    2      1000024  -1000024                       # HH0    -->  W1SS+  W1SS-              
      1.50957346E-01    2      1000024  -1000037                       # HH0    -->  W1SS+  W2SS-              
      1.50957346E-01    2     -1000024   1000037                       # HH0    -->  W1SS-  W2SS+              
      1.33492722E-04    2           25        25                       # HH0    -->  HL0    HL0                
#         PDG         Width
DECAY        36  2.67482395E+01   # HA0   decays
#          BR          NDA       ID1       ID2       ID3       ID4
      1.28261124E-09    2           11       -11                       # HA0    -->  E-     E+                 
      5.41541558E-05    2           13       -13                       # HA0    -->  MU-    MU+                
      1.55105796E-02    2           15       -15                       # HA0    -->  TAU-   TAU+               
      1.54886959E-06    2            1        -1                       # HA0    -->  DN     DB                 
      6.25821238E-04    2            3        -3                       # HA0    -->  ST     SB                 
      7.45922029E-02    2            5        -5                       # HA0    -->  BT     BB                 
      7.92941934E-10    2            2        -2                       # HA0    -->  UP     UB                 
      8.93897868E-06    2            4        -4                       # HA0    -->  CH     CB                 
      4.70609665E-01    2            6        -6                       # HA0    -->  TP     TB                 
      2.63802718E-07    2           22        22                       # HA0    -->  GM     GM                 
      3.46615670E-05    2           21        21                       # HA0    -->  GL     GL                 
      3.67254514E-04    2      1000022   1000022                       # HA0    -->  Z1SS   Z1SS               
      2.56371131E-04    2      1000022   1000023                       # HA0    -->  Z1SS   Z2SS               
      1.19226342E-02    2      1000022   1000025                       # HA0    -->  Z1SS   Z3SS               
      1.34861439E-01    2      1000022   1000035                       # HA0    -->  Z1SS   Z4SS               
      1.88017730E-05    2      1000023   1000023                       # HA0    -->  Z2SS   Z2SS               
      8.72588949E-04    2      1000024  -1000024                       # HA0    -->  W1SS+  W1SS-              
      1.45115882E-01    2      1000024  -1000037                       # HA0    -->  W1SS+  W2SS-              
      1.45115882E-01    2     -1000024   1000037                       # HA0    -->  W1SS-  W2SS+              
      3.12909542E-05    2           25        23                       # HA0    -->  HL0    Z0                 
#         PDG         Width
DECAY        37  2.67752876E+01   # H+    decays
#          BR          NDA       ID1       ID2       ID3       ID4
      1.28980615E-09    2           12       -11                       # H+     -->  NUE    E+                 
      5.44579452E-05    2           14       -13                       # H+     -->  NUM    MU+                
      1.55975884E-02    2           16       -15                       # H+     -->  NUT    TAU+               
      1.45310378E-06    2            2        -1                       # H+     -->  UP     DB                 
      5.95203601E-04    2            4        -3                       # H+     -->  CH     SB                 
      5.10660529E-01    2            6        -5                       # H+     -->  TP     BB                 
      1.56685940E-06    2      1000024   1000022                       # H+     -->  W1SS+  Z1SS               
      3.99838376E-04    2      1000024   1000023                       # H+     -->  W1SS+  Z2SS               
      1.58212543E-01    2      1000024   1000025                       # H+     -->  W1SS+  Z3SS               
      1.58003598E-01    2      1000024   1000035                       # H+     -->  W1SS+  Z4SS               
      1.56441778E-01    2      1000037   1000022                       # H+     -->  W2SS+  Z1SS               
      3.14725476E-05    2           25        24                       # H+     -->  HL0    W+                 
