# SUSY Les Houches Accord 2 - MSSM spectrum + Decays
# SPheno v3.3.6  
# W. Porod, Comput. Phys. Commun. 153 (2003) 275-315, hep-ph/0301101
# in case of problems send email to porod@physik.uni-wuerzburg.de
# Created: 06.12.2016,  13:43
Block SPINFO         # Program information
     1   SPheno      # spectrum calculator
     2   v3.3.6      # version number
#
Block SPhenoINFO     # SPheno specific information
    1      2         # using 2-loop RGEs
    2      1         # using running masses for boundary conditions at mZ
Block MODSEL  # Model selection
    1    2    # mGMSB model
Block MINPAR  # Input parameters
    1    2.00000000E+05  # Lambda, scale of SUSY breaking
    2    5.00000000E+05  # M_M, messenger mass scale
    3    1.00000000E+01  # tanb at m_Z   
    4    1.00000000E+00  # Sign(mu)
    5    3.00000000E+00  # N_5 number of effective five-plets
    6    1.00000000E+05  # c_grav, Gravitino mass factor
Block gauge Q=  5.00000000E+05  # (GMSB scale)
   1    4.95944525E-01  # g'(Q)^DRbar
   2    6.46947357E-01  # g(Q)^DRbar
   3    9.20514906E-01  # g3(Q)^DRbar
Block SMINPUTS  # SM parameters
         1     1.27931207E+02  # alpha_em^-1(MZ)^MSbar
         2     1.16637900E-05  # G_mu [GeV^-2]
         3     1.18400000E-01  # alpha_s(MZ)^MSbar
         4     9.11876000E+01  # m_Z(pole)
         5     4.18000000E+00  # m_b(m_b), MSbar
         6     1.73100000E+02  # m_t(pole)
         7     1.77682000E+00  # m_tau(pole)
         8     0.00000000E+00  # m_nu_3
        11     5.10998930E-04  # m_e(pole)
        12     0.00000000E+00  # m_nu_1
        13     1.05658372E-01  # m_muon(pole)
        14     0.00000000E+00  # m_nu_2
        21     5.00000000E-03  # m_d(2 GeV), MSbar
        22     2.50000000E-03  # m_u(2 GeV), MSbar
        23     9.50000000E-02  # m_s(2 GeV), MSbar
        24     1.27000000E+00  # m_c(m_c), MSbar
Block gauge Q=  3.55094939E+03  # (SUSY scale)
   1    3.65720366E-01  # g'(Q)^DRbar
   2    6.37141062E-01  # g(Q)^DRbar
   3    1.00103992E+00  # g3(Q)^DRbar
Block Yu Q=  3.55094939E+03  # (SUSY scale)
#   1  1     6.78382237E-06   # Y_u(Q)^DRbar
  1  1     0.0   # Y_u(Q)^DRbar
#   2  2     3.44618219E-03   # Y_c(Q)^DRbar
  2  2     0.0   # Y_c(Q)^DRbar
#   3  3     8.32822189E-01   # Y_t(Q)^DRbar
  3  3     0.0   # Y_t(Q)^DRbar
Block Yd Q=  3.55094939E+03  # (SUSY scale)
#   1  1     1.27670788E-04   # Y_d(Q)^DRbar
  1  1     0.0   # Y_d(Q)^DRbar
#   2  2     2.42574390E-03   # Y_s(Q)^DRbar
  2  2     0.0   # Y_s(Q)^DRbar
#   3  3     1.25057047E-01   # Y_b(Q)^DRbar
  3  3     0.0   # Y_b(Q)^DRbar
Block Ye Q=  3.55094939E+03  # (SUSY scale)
#   1  1     2.83896745E-05   # Y_e(Q)^DRbar
  1  1     0.0   # Y_e(Q)^DRbar
#   2  2     5.87008754E-03   # Y_mu(Q)^DRbar
  2  2     0.0   # Y_mu(Q)^DRbar
#   3  3     9.87309919E-02   # Y_tau(Q)^DRbar
  3  3     0.0   # Y_tau(Q)^DRbar
Block Au Q=  3.55094939E+03  # (SUSY scale)
#   1  1    -1.15599265E+03   # A_u(Q)^DRbar
  1  1    0.0   # A_u(Q)^DRbar
#   2  2    -1.15599132E+03   # A_c(Q)^DRbar
  2  2    0.0   # A_c(Q)^DRbar
#   3  3    -1.08971001E+03   # A_t(Q)^DRbar
  3  3    0.0   # A_t(Q)^DRbar
Block Ad Q=  3.55094939E+03  # (SUSY scale)
#   1  1    -1.23058729E+03   # A_d(Q)^DRbar
  1  1    0.0   # A_d(Q)^DRbar
#   2  2    -1.23058634E+03   # A_s(Q)^DRbar
  2  2    0.0   # A_s(Q)^DRbar
#   3  3    -1.20763806E+03   # A_b(Q)^DRbar
  3  3    0.0   # A_b(Q)^DRbar
Block Ae Q=  3.55094939E+03  # (SUSY scale)
#   1  1    -1.44141862E+02   # A_e(Q)^DRbar
  1  1    0.0   # A_e(Q)^DRbar
#   2  2    -1.44141349E+02   # A_mu(Q)^DRbar
  2  2    0.0   # A_mu(Q)^DRbar
#   3  3    -1.43996601E+02   # A_tau(Q)^DRbar
  3  3    0.0   # A_tau(Q)^DRbar
Block MSOFT Q=  3.55094939E+03  # soft SUSY breaking masses at Q
   1    8.65707142E+02  # M_1
   2    1.57126704E+03  # M_2
   3    3.89570131E+03  # M_3
  21    1.48127627E+06  # M^2_(H,d)
  22   -1.34929156E+06  # M^2_(H,u)
  31    1.24475801E+03  # M_(L,11)
  32    1.24475532E+03  # M_(L,22)
  33    1.24399763E+03  # M_(L,33)
  34    6.11216156E+02  # M_(E,11)
  35    6.11205027E+02  # M_(E,22)
  36    6.08059988E+02  # M_(E,33)
  41    3.82265875E+03  # M_(Q,11)
  42    3.82265571E+03  # M_(Q,22)
  43    3.70241147E+03  # M_(Q,33)
  44    3.65544874E+03  # M_(U,11)
  45    3.65544448E+03  # M_(U,22)
  46    3.40050703E+03  # M_(U,33)
  47    3.63860956E+03  # M_(D,11)
  48    3.63860739E+03  # M_(D,22)
  49    3.63287787E+03  # M_(D,33)
Block MASS  # Mass spectrum
#   PDG code      mass          particle
         6     1.73100000E+02  # m_t(pole)
        23     9.11876000E+01  # m_Z(pole)
        24     8.04059796E+01  # W+
        15     1.77682000E+00  # m_tau(pole)
        25     1.21904306E+02  # h0
        35     1.80360866E+03  # H0
        36     1.80343872E+03  # A0
        37     1.80504481E+03  # H+
   1000001     3.96863545E+03  # ~d_L
   2000001     3.77673274E+03  # ~d_R
   1000002     3.96784427E+03  # ~u_L
   2000002     3.79257346E+03  # ~u_R
   1000003     3.96863187E+03  # ~s_L
   2000003     3.77673010E+03  # ~s_R
   1000004     3.96784079E+03  # ~c_L
   2000004     3.79256844E+03  # ~c_R
   1000005     3.76951972E+03  # ~b_1
   2000005     3.82635851E+03  # ~b_2
   1000006     3.49445716E+03  # ~t_1
   2000006     3.83055547E+03  # ~t_2
   1000011     1.27018597E+03  # ~e_L-
   2000011     6.33391251E+02  # ~e_R-
   1000012     1.26732099E+03  # ~nu_eL
   1000013     1.27018287E+03  # ~mu_L-
   2000013     6.33376339E+02  # ~mu_R-
   1000014     1.26731729E+03  # ~nu_muL
   1000015     6.29161766E+02  # ~tau_1-
   2000015     1.26930733E+03  # ~tau_2-
   1000016     1.26627357E+03  # ~nu_tauL
   1000021     4.09386598E+03  # ~g
   1000022     8.44891492E+02  # ~chi_10
   1000023     1.29079128E+03  # ~chi_20
   1000025    -1.30056335E+03  # ~chi_30
   1000035     1.61843554E+03  # ~chi_40
   1000024     1.28888188E+03  # ~chi_1+
   1000037     1.61857340E+03  # ~chi_2+
   1000039     2.40000000E-03  # ~G
# Higgs mixing
Block alpha # Effective Higgs mixing angle
          -1.05730971E-01   # alpha
Block Hmix Q=  3.55094939E+03  # Higgs mixing parameters
   1    1.28267786E+03  # mu
   2    9.49000412E+00  # tan[beta](Q)
   3    2.43028933E+02  # v(Q)
   4    2.88616404E+06  # m^2_A(Q)
Block stopmix # stop mixing matrix
   1  1     8.48775202E-02   # Re[R_st(1,1)]
   1  2     9.96391392E-01   # Re[R_st(1,2)]
   2  1    -9.96391392E-01   # Re[R_st(2,1)]
   2  2     8.48775202E-02   # Re[R_st(2,2)]
Block sbotmix # sbottom mixing matrix
   1  1     7.46999525E-02   # Re[R_sb(1,1)]
   1  2     9.97206055E-01   # Re[R_sb(1,2)]
   2  1    -9.97206055E-01   # Re[R_sb(2,1)]
   2  2     7.46999525E-02   # Re[R_sb(2,2)]
Block staumix # stau mixing matrix
   1  1     1.84674239E-02   # Re[R_sta(1,1)]
   1  2     9.99829463E-01   # Re[R_sta(1,2)]
   2  1    -9.99829463E-01   # Re[R_sta(2,1)]
   2  2     1.84674239E-02   # Re[R_sta(2,2)]
Block Nmix # neutralino mixing matrix
   1  1    -9.96925210E-01   # Re[N(1,1)]
   1  2     5.26322568E-03   # Re[N(1,2)]
   1  3    -6.37522356E-02   # Re[N(1,3)]
   1  4     4.52556702E-02   # Re[N(1,4)]
   2  1     7.67417024E-02   # Re[N(2,1)]
   2  2     1.87357251E-01   # Re[N(2,2)]
   2  3    -6.94409746E-01   # Re[N(2,3)]
   2  4     6.90509287E-01   # Re[N(2,4)]
   3  1     1.29824012E-02   # Re[N(3,1)]
   3  2    -1.70715265E-02   # Re[N(3,2)]
   3  3    -7.06543115E-01   # Re[N(3,3)]
   3  4    -7.07344928E-01   # Re[N(3,4)]
   4  1    -9.07155699E-03   # Re[N(4,1)]
   4  2     9.82129381E-01   # Re[N(4,2)]
   4  3     1.20530428E-01   # Re[N(4,3)]
   4  4    -1.44263651E-01   # Re[N(4,4)]
Block Umix # chargino mixing matrix
   1  1    -1.70612747E-01   # Re[U(1,1)]
   1  2     9.85338160E-01   # Re[U(1,2)]
   2  1     9.85338160E-01   # Re[U(2,1)]
   2  2     1.70612747E-01   # Re[U(2,2)]
Block Vmix # chargino mixing matrix
   1  1    -2.04130370E-01   # Re[V(1,1)]
   1  2     9.78943712E-01   # Re[V(1,2)]
   2  1     9.78943712E-01   # Re[V(2,1)]
   2  2     2.04130370E-01   # Re[V(2,2)]
DECAY        23     2.49520000E+00   # Z
DECAY        24     2.08500000E+00   # W
DECAY   2000011     7.70211486E-14   # ~e^-_R
#    BR                NDA      ID1      ID2
     2.63317943E-07    2     1000039        11   # BR(~e^-_R -> ~G e^-)
#    BR                NDA      ID1      ID2       ID3
     3.58263937E-01    3     1000015        11       -15   # BR(~e^-_R -> ~tau^-_1 e^- tau^+)
     6.41735799E-01    3    -1000015        15        11   # BR(~e^-_R -> ~tau^+_1 tau^- e^-)
     5.90878441E-12    3     1000015        12       -16   # BR(~e^-_R -> ~tau^-_1 nu_e nu_bar_tau)
DECAY   1000011     5.12540043E-01   # ~e^-_L
#    BR                NDA      ID1      ID2
     9.99999969E-01    2     1000022        11   # BR(~e^-_L -> chi^0_1 e^-)
     1.49912032E-08    2     2000011        23   # BR(~e^-_L -> ~e^-_R Z)
     1.50965564E-08    2     2000011        25   # BR(~e^-_L -> ~e^-_R h^0)
#    BR                NDA      ID1      ID2       ID3
     2.98496043E-10    3     1000012         1        -2   # BR(~e^-_L -> ~nu_e d u_bar)
     1.14170051E-10    3     1000012         3        -4   # BR(~e^-_L -> ~nu_e s c_bar)
DECAY   2000013     7.47842388E-14   # ~mu^-_R
#    BR                NDA      ID1      ID2
     2.71162229E-07    2     1000039        13   # BR(~mu^-_R -> ~G mu^-)
#    BR                NDA      ID1      ID2       ID3
     3.58244643E-01    3     1000015        13       -15   # BR(~mu^-_R -> ~tau^-_1 mu^- tau^+)
     6.41754830E-01    3    -1000015        15        13   # BR(~mu^-_R -> ~tau^+_1 tau^- mu^-)
     2.55626067E-07    3     1000015        14       -16   # BR(~mu^-_R -> ~tau^-_1 nu_mu nu_bar_tau)
DECAY   1000013     5.13195258E-01   # ~mu^-_L
#    BR                NDA      ID1      ID2
     9.98715277E-01    2     1000022        13   # BR(~mu^-_L -> chi^0_1 mu^-)
     6.40113365E-04    2     2000013        23   # BR(~mu^-_L -> ~mu^-_R Z)
     6.44609443E-04    2     2000013        25   # BR(~mu^-_L -> ~mu^-_R h^0)
#    BR                NDA      ID1      ID2       ID3
     2.98425744E-10    3     1000014         1        -2   # BR(~mu^-_L -> ~nu_mu d u_bar)
     1.14191448E-10    3     1000014         3        -4   # BR(~mu^-_L -> ~nu_mu s c_bar)
DECAY   1000015     1.96122718E-20   # ~tau^-_1
#    BR                NDA      ID1      ID2
     1.00000000E+00    2     1000039        15   # BR(~tau^-_1 -> ~G tau^-)
DECAY   2000015     6.98634635E-01   # ~tau^-_2
#    BR                NDA      ID1      ID2
     7.31975002E-01    2     1000022        15   # BR(~tau^-_2 -> chi^0_1 tau^-)
     1.33614187E-01    2     1000015        23   # BR(~tau^-_2 -> ~tau^-_1 Z)
     1.34410810E-01    2     1000015        25   # BR(~tau^-_2 -> ~tau^-_1 h^0)
#    BR                NDA      ID1      ID2       ID3
     2.91415557E-10    3     1000016         1        -2   # BR(~tau^-_2 -> ~nu_tau d u_bar)
     1.24251938E-10    3     1000016         3        -4   # BR(~tau^-_2 -> ~nu_tau s c_bar)
DECAY   1000012     5.26744311E-01   # ~nu_e
#    BR                NDA      ID1      ID2
     9.99999972E-01    2     1000022        12   # BR(~nu_e -> chi^0_1 nu_e)
     2.81173296E-08    2     2000011        24   # BR(~nu_e -> ~e^-_R W^+)
DECAY   1000014     5.27371041E-01   # ~nu_mu
#    BR                NDA      ID1      ID2
     9.98799306E-01    2     1000022        14   # BR(~nu_mu -> chi^0_1 nu_mu)
     1.20069406E-03    2     2000013        24   # BR(~nu_mu -> ~mu^-_R W^+)
DECAY   1000016     7.04789089E-01   # ~nu_tau
#    BR                NDA      ID1      ID2
     7.44784698E-01    2     1000022        16   # BR(~nu_tau -> chi^0_1 nu_tau)
     2.55215302E-01    2     1000015        24   # BR(~nu_tau -> ~tau^-_1 W^+)
DECAY   2000001     2.01359063E+00   # ~d_R
#    BR                NDA      ID1      ID2
     9.94698140E-01    2     1000022         1   # BR(~d_R -> chi^0_1 d)
     5.09509645E-03    2     1000023         1   # BR(~d_R -> chi^0_2 d)
     1.45456362E-04    2     1000025         1   # BR(~d_R -> chi^0_3 d)
     6.08271525E-05    2     1000035         1   # BR(~d_R -> chi^0_4 d)
     4.78761820E-07    2    -1000024         2   # BR(~d_R -> chi^-_1 u)
     1.55108446E-09    2    -1000037         2   # BR(~d_R -> chi^-_2 u)
DECAY   1000001     3.41036072E+01   # ~d_L
#    BR                NDA      ID1      ID2
     1.64542086E-02    2     1000022         1   # BR(~d_L -> chi^0_1 d)
     1.12033786E-02    2     1000023         1   # BR(~d_L -> chi^0_2 d)
     1.43190893E-04    2     1000025         1   # BR(~d_L -> chi^0_3 d)
     3.16152400E-01    2     1000035         1   # BR(~d_L -> chi^0_4 d)
     2.18902878E-02    2    -1000024         2   # BR(~d_L -> chi^-_1 u)
     6.34156533E-01    2    -1000037         2   # BR(~d_L -> chi^-_2 u)
     9.84760415E-13    2     2000002       -24   # BR(~d_L -> ~u_R W^-)
     1.65653711E-10    2     2000001        23   # BR(~d_L -> ~d_R Z)
     1.71075728E-10    2     2000001        25   # BR(~d_L -> ~d_R h^0)
DECAY   2000003     2.01428257E+00   # ~s_R
#    BR                NDA      ID1      ID2
     9.94357383E-01    2     1000022         3   # BR(~s_R -> chi^0_1 s)
     5.17837709E-03    2     1000023         3   # BR(~s_R -> chi^0_2 s)
     2.29830844E-04    2     1000025         3   # BR(~s_R -> chi^0_3 s)
     6.10760216E-05    2     1000035         3   # BR(~s_R -> chi^0_4 s)
     1.72773272E-04    2    -1000024         4   # BR(~s_R -> chi^-_1 c)
     5.59737552E-07    2    -1000037         4   # BR(~s_R -> chi^-_2 c)
DECAY   1000003     3.41046699E+01   # ~s_L
#    BR                NDA      ID1      ID2
     1.64536651E-02    2     1000022         3   # BR(~s_L -> chi^0_1 s)
     1.12080734E-02    2     1000023         3   # BR(~s_L -> chi^0_2 s)
     1.48617560E-04    2     1000025         3   # BR(~s_L -> chi^0_3 s)
     3.16142302E-01    2     1000035         3   # BR(~s_L -> chi^0_4 s)
     2.19099311E-02    2    -1000024         4   # BR(~s_L -> chi^-_1 c)
     6.34137036E-01    2    -1000037         4   # BR(~s_L -> chi^-_2 c)
     2.54126147E-07    2     2000004       -24   # BR(~s_L -> ~c_R W^-)
     5.97986227E-08    2     2000003        23   # BR(~s_L -> ~s_R Z)
     6.17559100E-08    2     2000003        25   # BR(~s_L -> ~s_R h^0)
DECAY   1000005     4.20560647E+00   # ~b_1
#    BR                NDA      ID1      ID2
     4.79145723E-01    2     1000022         5   # BR(~b_1 -> chi^0_1 b)
     1.19295018E-01    2     1000023         5   # BR(~b_1 -> chi^0_2 b)
     1.06113427E-01    2     1000025         5   # BR(~b_1 -> chi^0_3 b)
     3.88006519E-03    2     1000035         5   # BR(~b_1 -> chi^0_4 b)
     2.80778621E-01    2    -1000024         6   # BR(~b_1 -> chi^-_1 t)
     1.00096773E-02    2    -1000037         6   # BR(~b_1 -> chi^-_2 t)
     7.77468649E-04    2     1000006       -24   # BR(~b_1 -> ~t_1 W^-)
DECAY   2000005     7.45652236E+01   # ~b_2
#    BR                NDA      ID1      ID2
     7.08940291E-03    2     1000022         5   # BR(~b_2 -> chi^0_1 b)
     1.01941724E-02    2     1000023         5   # BR(~b_2 -> chi^0_2 b)
     6.41103226E-03    2     1000025         5   # BR(~b_2 -> chi^0_3 b)
     1.35331362E-01    2     1000035         5   # BR(~b_2 -> chi^0_4 b)
     5.31009077E-01    2    -1000024         6   # BR(~b_2 -> chi^-_1 t)
     2.95934137E-01    2    -1000037         6   # BR(~b_2 -> chi^-_2 t)
     1.40308153E-02    2     1000006       -24   # BR(~b_2 -> ~t_1 W^-)
DECAY   2000002     8.09530052E+00   # ~u_R
#    BR                NDA      ID1      ID2
     9.94691992E-01    2     1000022         2   # BR(~u_R -> chi^0_1 u)
     5.10158752E-03    2     1000023         2   # BR(~u_R -> chi^0_2 u)
     1.45419208E-04    2     1000025         2   # BR(~u_R -> chi^0_3 u)
     6.10007677E-05    2     1000035         2   # BR(~u_R -> chi^0_4 u)
     3.39047614E-10    2     1000024         1   # BR(~u_R -> chi^+_1 d)
     1.76166502E-12    2     1000037         1   # BR(~u_R -> chi^+_2 d)
DECAY   1000002     3.41381135E+01   # ~u_L
#    BR                NDA      ID1      ID2
     1.47159682E-02    2     1000022         2   # BR(~u_L -> chi^0_1 u)
     1.53181087E-02    2     1000023         2   # BR(~u_L -> chi^0_2 u)
     7.95663109E-05    2     1000025         2   # BR(~u_L -> chi^0_3 u)
     3.13495636E-01    2     1000035         2   # BR(~u_L -> chi^0_4 u)
     3.12951870E-02    2     1000024         1   # BR(~u_L -> chi^+_1 d)
     6.25095533E-01    2     1000037         1   # BR(~u_L -> chi^+_2 d)
     3.46715796E-10    2     2000001        24   # BR(~u_L -> ~d_R W^+)
     4.43858643E-13    2     2000002        23   # BR(~u_L -> ~u_R Z)
     3.48064747E-13    2     2000002        25   # BR(~u_L -> ~u_R h^0)
DECAY   2000004     8.09670077E+00   # ~c_R
#    BR                NDA      ID1      ID2
     9.94518269E-01    2     1000022         4   # BR(~c_R -> chi^0_1 c)
     5.14376944E-03    2     1000023         4   # BR(~c_R -> chi^0_2 c)
     1.88821521E-04    2     1000025         4   # BR(~c_R -> chi^0_3 c)
     6.12047101E-05    2     1000035         4   # BR(~c_R -> chi^0_4 c)
     8.74806307E-05    2     1000024         3   # BR(~c_R -> chi^+_1 s)
     4.54556613E-07    2     1000037         3   # BR(~c_R -> chi^+_2 s)
DECAY   1000004     3.41391648E+01   # ~c_L
#    BR                NDA      ID1      ID2
     1.47155377E-02    2     1000022         4   # BR(~c_L -> chi^0_1 c)
     1.53274923E-02    2     1000023         4   # BR(~c_L -> chi^0_2 c)
     9.04543887E-05    2     1000025         4   # BR(~c_L -> chi^0_3 c)
     3.13486357E-01    2     1000035         4   # BR(~c_L -> chi^0_4 c)
     3.13035595E-02    2     1000024         3   # BR(~c_L -> chi^+_1 s)
     6.25076269E-01    2     1000037         3   # BR(~c_L -> chi^+_2 s)
     1.25159824E-07    2     2000003        24   # BR(~c_L -> ~s_R W^+)
     1.14542247E-07    2     2000004        23   # BR(~c_L -> ~c_R Z)
     8.98215425E-08    2     2000004        25   # BR(~c_L -> ~c_R h^0)
DECAY   1000006     7.87250977E+01   # ~t_1
#    BR                NDA      ID1      ID2
     5.74933055E-08    2     1000022         4   # BR(~t_1 -> chi^0_1 c)
     9.33451208E-02    2     1000022         6   # BR(~t_1 -> chi^0_1 t)
     5.73817054E-08    2     1000023         4   # BR(~t_1 -> chi^0_2 c)
     2.20227900E-01    2     1000023         6   # BR(~t_1 -> chi^0_2 t)
     2.28450843E-01    2     1000025         6   # BR(~t_1 -> chi^0_3 t)
     3.64452127E-03    2     1000035         6   # BR(~t_1 -> chi^0_4 t)
     4.46935618E-01    2     1000024         5   # BR(~t_1 -> chi^+_1 b)
     7.38947528E-03    2     1000037         5   # BR(~t_1 -> chi^+_2 b)
#    BR                NDA      ID1      ID2       ID3
     6.40645182E-06    3     1000022        24         5   # BR(~t_1 -> chi^0_1 W^+ b)
DECAY   2000006     7.49148817E+01   # ~t_2
#    BR                NDA      ID1      ID2
     6.94387995E-03    2     1000022         6   # BR(~t_2 -> chi^0_1 t)
     2.63206836E-01    2     1000023         6   # BR(~t_2 -> chi^0_2 t)
     2.72634243E-01    2     1000025         6   # BR(~t_2 -> chi^0_3 t)
     1.51611336E-01    2     1000035         6   # BR(~t_2 -> chi^0_4 t)
     1.49664976E-02    2     1000024         5   # BR(~t_2 -> chi^+_1 b)
     2.77903114E-01    2     1000037         5   # BR(~t_2 -> chi^+_2 b)
     7.29384822E-03    2     1000006        23   # BR(~t_2 -> ~t_1 Z)
     5.44024480E-03    2     1000006        25   # BR(~t_2 -> ~t_1 h^0)
DECAY   1000024     8.14687651E-01   # chi^+_1
#    BR                NDA      ID1      ID2
     7.38093849E-09    2    -2000011        12   # BR(chi^+_1 -> ~e^+_R nu_e)
     1.54248313E-04    2    -1000011        12   # BR(chi^+_1 -> ~e^+_L nu_e)
     3.15567492E-04    2    -2000013        14   # BR(chi^+_1 -> ~mu^+_R nu_mu)
     1.54280934E-04    2    -1000013        14   # BR(chi^+_1 -> ~mu^+_L nu_mu)
     8.99870195E-02    2    -1000015        16   # BR(chi^+_1 -> ~tau^+_1 nu_tau)
     1.63375483E-04    2    -2000015        16   # BR(chi^+_1 -> ~tau^+_2 nu_tau)
     2.93008408E-04    2     1000012       -11   # BR(chi^+_1 -> ~nu_e e^+)
     2.93813271E-04    2     1000014       -13   # BR(chi^+_1 -> ~nu_mu mu^+)
     5.38544092E-04    2     1000016       -15   # BR(chi^+_1 -> ~nu_tau tau^+)
     9.03032464E-01    2     1000022        24   # BR(chi^+_1 -> chi^0_1 W^+)
#    BR                NDA      ID1      ID2       ID3
     3.46715327E-09    3     1000022        -1         2   # BR(chi^+_1 -> chi^0_1 d_bar u)
     3.54812275E-09    3     1000022        -3         4   # BR(chi^+_1 -> chi^0_1 s_bar c)
     5.06372978E-03    3     1000022        -5         6   # BR(chi^+_1 -> chi^0_1 b_bar t)
     3.30142051E-13    3     1000022       -11        12   # BR(chi^+_1 -> chi^0_1 e^+ nu_e)
     1.41137086E-08    3     1000022       -13        14   # BR(chi^+_1 -> chi^0_1 mu^+ nu_mu)
     3.92007519E-06    3     1000022       -15        16   # BR(chi^+_1 -> chi^0_1 tau^+ nu_tau)
DECAY   1000037     1.34708115E+01   # chi^+_2
#    BR                NDA      ID1      ID2
     1.93157998E-12    2    -2000011        12   # BR(chi^+_2 -> ~e^+_R nu_e)
     6.95182254E-02    2    -1000011        12   # BR(chi^+_2 -> ~e^+_L nu_e)
     8.25856604E-08    2    -2000013        14   # BR(chi^+_2 -> ~mu^+_R nu_mu)
     6.95194754E-02    2    -1000013        14   # BR(chi^+_2 -> ~mu^+_L nu_mu)
     2.37219470E-05    2    -1000015        16   # BR(chi^+_2 -> ~tau^+_1 nu_tau)
     6.98722167E-02    2    -2000015        16   # BR(chi^+_2 -> ~tau^+_2 nu_tau)
     6.96137976E-02    2     1000012       -11   # BR(chi^+_2 -> ~nu_e e^+)
     6.96151888E-02    2     1000014       -13   # BR(chi^+_2 -> ~nu_mu mu^+)
     7.00077250E-02    2     1000016       -15   # BR(chi^+_2 -> ~nu_tau tau^+)
     6.11606771E-04    2     1000022        24   # BR(chi^+_2 -> chi^0_1 W^+)
     1.48854290E-01    2     1000023        24   # BR(chi^+_2 -> chi^0_2 W^+)
     1.40664595E-01    2     1000025        24   # BR(chi^+_2 -> chi^0_3 W^+)
     1.51119384E-01    2     1000024        23   # BR(chi^+_2 -> chi^+_1 Z)
     1.39964231E-01    2     1000024        25   # BR(chi^+_2 -> chi^+_1 h^0)
#    BR                NDA      ID1      ID2       ID3
     1.05419743E-09    3     1000024         2        -2   # BR(chi^+_2 -> chi^+_1 u u_bar)
     1.05449796E-09    3     1000024         4        -4   # BR(chi^+_2 -> chi^+_1 c c_bar)
     1.49096510E-09    3     1000024         1        -1   # BR(chi^+_2 -> chi^+_1 d d_bar)
     1.50046557E-09    3     1000024         3        -3   # BR(chi^+_2 -> chi^+_1 s s_bar)
     2.81522967E-08    3     1000024         5        -5   # BR(chi^+_2 -> chi^+_1 b b_bar)
     5.93148766E-07    3     1000024        11       -11   # BR(chi^+_2 -> chi^+_1 e^- e^+)
     5.94181010E-07    3     1000024        13       -13   # BR(chi^+_2 -> chi^+_1 mu^- mu^+)
     8.71066026E-07    3     1000024        15       -15   # BR(chi^+_2 -> chi^+_1 tau^- tau^+)
     1.30930309E-06    3     1000024        12       -12   # BR(chi^+_2 -> chi^+_1 nu_e nu_bar_e)
     7.34493365E-08    3     1000022        -1         2   # BR(chi^+_2 -> chi^0_1 d_bar u)
     7.34481320E-08    3     1000022        -3         4   # BR(chi^+_2 -> chi^0_1 s_bar c)
     8.74213498E-06    3     1000022        -5         6   # BR(chi^+_2 -> chi^0_1 b_bar t)
     1.49623839E-11    3     1000022       -13        14   # BR(chi^+_2 -> chi^0_1 mu^+ nu_mu)
     4.22173136E-09    3     1000022       -15        16   # BR(chi^+_2 -> chi^0_1 tau^+ nu_tau)
     6.33658757E-10    3     1000023        -1         2   # BR(chi^+_2 -> chi^0_2 d_bar u)
     6.38084261E-10    3     1000023        -3         4   # BR(chi^+_2 -> chi^0_2 s_bar c)
     3.31033952E-04    3     1000023        -5         6   # BR(chi^+_2 -> chi^0_2 b_bar t)
     3.57502647E-07    3     1000023       -11        12   # BR(chi^+_2 -> chi^0_2 e^+ nu_e)
     3.57990368E-07    3     1000023       -13        14   # BR(chi^+_2 -> chi^0_2 mu^+ nu_mu)
     4.79953419E-07    3     1000023       -15        16   # BR(chi^+_2 -> chi^0_2 tau^+ nu_tau)
     1.34017663E-11    3     1000025        -1         2   # BR(chi^+_2 -> chi^0_3 d_bar u)
     1.69078728E-11    3     1000025        -3         4   # BR(chi^+_2 -> chi^0_3 s_bar c)
     2.70803075E-04    3     1000025        -5         6   # BR(chi^+_2 -> chi^0_3 b_bar t)
     4.52779376E-09    3     1000025       -11        12   # BR(chi^+_2 -> chi^0_3 e^+ nu_e)
     4.95109637E-09    3     1000025       -13        14   # BR(chi^+_2 -> chi^0_3 mu^+ nu_mu)
     1.21948383E-07    3     1000025       -15        16   # BR(chi^+_2 -> chi^0_3 tau^+ nu_tau)
DECAY   1000022     2.60158150E+00   # chi^0_1
#    BR                NDA      ID1      ID2
     1.64759360E-01    2     2000011       -11   # BR(chi^0_1 -> ~e^-_R e^+)
     1.64759360E-01    2    -2000011        11   # BR(chi^0_1 -> ~e^+_R e^-)
     1.64779357E-01    2     2000013       -13   # BR(chi^0_1 -> ~mu^-_R mu^+)
     1.64779357E-01    2    -2000013        13   # BR(chi^0_1 -> ~mu^+_R mu^-)
     1.70461283E-01    2     1000015       -15   # BR(chi^0_1 -> ~tau^-_1 tau^+)
     1.70461283E-01    2    -1000015        15   # BR(chi^0_1 -> ~tau^+_1 tau^-)
DECAY   1000023     9.45129324E-01   # chi^0_2
#    BR                NDA      ID1      ID2
     1.23362758E-02    2     2000011       -11   # BR(chi^0_2 -> ~e^-_R e^+)
     1.23362758E-02    2    -2000011        11   # BR(chi^0_2 -> ~e^+_R e^-)
     1.48117043E-04    2     1000011       -11   # BR(chi^0_2 -> ~e^-_L e^+)
     1.48117043E-04    2    -1000011        11   # BR(chi^0_2 -> ~e^+_L e^-)
     1.24708197E-02    2     2000013       -13   # BR(chi^0_2 -> ~mu^-_R mu^+)
     1.24708197E-02    2    -2000013        13   # BR(chi^0_2 -> ~mu^+_R mu^-)
     1.48438377E-04    2     1000013       -13   # BR(chi^0_2 -> ~mu^-_L mu^+)
     1.48438377E-04    2    -1000013        13   # BR(chi^0_2 -> ~mu^+_L mu^-)
     5.07205288E-02    2     1000015       -15   # BR(chi^0_2 -> ~tau^-_1 tau^+)
     5.07205288E-02    2    -1000015        15   # BR(chi^0_2 -> ~tau^+_1 tau^-)
     2.44814038E-04    2     2000015       -15   # BR(chi^0_2 -> ~tau^-_2 tau^+)
     2.44814038E-04    2    -2000015        15   # BR(chi^0_2 -> ~tau^+_2 tau^-)
     7.35351321E-05    2     1000012       -12   # BR(chi^0_2 -> ~nu_e nu_bar_e)
     7.35351321E-05    2    -1000012        12   # BR(chi^0_2 -> ~nu^*_e nu_e)
     7.35581321E-05    2     1000014       -14   # BR(chi^0_2 -> ~nu_mu nu_bar_mu)
     7.35581321E-05    2    -1000014        14   # BR(chi^0_2 -> ~nu^*_mu nu_mu)
     8.01792577E-05    2     1000016       -16   # BR(chi^0_2 -> ~nu_tau nu_bar_tau)
     8.01792577E-05    2    -1000016        16   # BR(chi^0_2 -> ~nu^*_tau nu_tau)
     2.45982359E-02    2     1000022        23   # BR(chi^0_2 -> chi^0_1 Z)
     8.22517365E-01    2     1000022        25   # BR(chi^0_2 -> chi^0_1 h^0)
     4.43249767E-07    2     1000022        22   # BR(chi^0_2 -> chi^0_1 photon)
#    BR                NDA      ID1      ID2       ID3
     4.60807504E-09    3     1000022         2        -2   # BR(chi^0_2 -> chi^0_1 u u_bar)
     4.62436901E-09    3     1000022         4        -4   # BR(chi^0_2 -> chi^0_1 c c_bar)
     2.82565893E-04    3     1000022         6        -6   # BR(chi^0_2 -> chi^0_1 t t_bar)
     1.55749716E-09    3     1000022         1        -1   # BR(chi^0_2 -> chi^0_1 d d_bar)
     1.64388587E-09    3     1000022         3        -3   # BR(chi^0_2 -> chi^0_1 s s_bar)
     2.33217488E-07    3     1000022         5        -5   # BR(chi^0_2 -> chi^0_1 b b_bar)
     1.77778746E-06    3     1000022        11       -11   # BR(chi^0_2 -> chi^0_1 e^- e^+)
     1.78973518E-06    3     1000022        13       -13   # BR(chi^0_2 -> chi^0_1 mu^- mu^+)
     5.04422034E-06    3     1000022        15       -15   # BR(chi^0_2 -> chi^0_1 tau^- tau^+)
     1.13428637E-11    3     1000024         1        -2   # BR(chi^0_2 -> chi^+_1 d u_bar)
     1.13428637E-11    3    -1000024        -1         2   # BR(chi^0_2 -> chi^-_1 d_bar u)
     9.96398256E-13    3     1000024         3        -4   # BR(chi^0_2 -> chi^+_1 s c_bar)
     9.96398256E-13    3    -1000024        -3         4   # BR(chi^0_2 -> chi^-_1 s_bar c)
     3.75044857E-12    3     1000024        11       -12   # BR(chi^0_2 -> chi^+_1 e^- nu_bar_e)
     3.75044857E-12    3    -1000024       -11        12   # BR(chi^0_2 -> chi^-_1 e^+ nu_e)
     3.69388634E-12    3     1000024        13       -14   # BR(chi^0_2 -> chi^+_1 mu^- nu_bar_mu)
     3.69388634E-12    3    -1000024       -13        14   # BR(chi^0_2 -> chi^-_1 mu^+ nu_mu)
DECAY   1000025     8.67005545E-01   # chi^0_3
#    BR                NDA      ID1      ID2
     3.91466170E-04    2     2000011       -11   # BR(chi^0_3 -> ~e^-_R e^+)
     3.91466170E-04    2    -2000011        11   # BR(chi^0_3 -> ~e^+_R e^-)
     5.97404171E-07    2     1000011       -11   # BR(chi^0_3 -> ~e^-_L e^+)
     5.97404171E-07    2    -1000011        11   # BR(chi^0_3 -> ~e^+_L e^-)
     5.40059635E-04    2     2000013       -13   # BR(chi^0_3 -> ~mu^-_R mu^+)
     5.40059635E-04    2    -2000013        13   # BR(chi^0_3 -> ~mu^+_R mu^-)
     1.15196624E-06    2     1000013       -13   # BR(chi^0_3 -> ~mu^-_L mu^+)
     1.15196624E-06    2    -1000013        13   # BR(chi^0_3 -> ~mu^+_L mu^-)
     4.27703866E-02    2     1000015       -15   # BR(chi^0_3 -> ~tau^-_1 tau^+)
     4.27703866E-02    2    -1000015        15   # BR(chi^0_3 -> ~tau^+_1 tau^-)
     1.66588722E-04    2     2000015       -15   # BR(chi^0_3 -> ~tau^-_2 tau^+)
     1.66588722E-04    2    -2000015        15   # BR(chi^0_3 -> ~tau^+_2 tau^-)
     4.63898212E-06    2     1000012       -12   # BR(chi^0_3 -> ~nu_e nu_bar_e)
     4.63898212E-06    2    -1000012        12   # BR(chi^0_3 -> ~nu^*_e nu_e)
     4.64000263E-06    2     1000014       -14   # BR(chi^0_3 -> ~nu_mu nu_bar_mu)
     4.64000263E-06    2    -1000014        14   # BR(chi^0_3 -> ~nu^*_mu nu_mu)
     4.93189721E-06    2     1000016       -16   # BR(chi^0_3 -> ~nu_tau nu_bar_tau)
     4.93189721E-06    2    -1000016        16   # BR(chi^0_3 -> ~nu^*_tau nu_tau)
     8.85524663E-01    2     1000022        23   # BR(chi^0_3 -> chi^0_1 Z)
     2.54872580E-02    2     1000022        25   # BR(chi^0_3 -> chi^0_1 h^0)
     6.48829110E-07    2     1000022        22   # BR(chi^0_3 -> chi^0_1 photon)
     3.03660834E-10    2     1000023        22   # BR(chi^0_3 -> chi^0_2 photon)
#    BR                NDA      ID1      ID2       ID3
     3.93443575E-11    3     1000022         2        -2   # BR(chi^0_3 -> chi^0_1 u u_bar)
     6.21832259E-11    3     1000022         4        -4   # BR(chi^0_3 -> chi^0_1 c c_bar)
     1.21355712E-03    3     1000022         6        -6   # BR(chi^0_3 -> chi^0_1 t t_bar)
     1.00248424E-11    3     1000022         1        -1   # BR(chi^0_3 -> chi^0_1 d d_bar)
     1.12105775E-10    3     1000022         3        -3   # BR(chi^0_3 -> chi^0_1 s s_bar)
     2.73543940E-07    3     1000022         5        -5   # BR(chi^0_3 -> chi^0_1 b b_bar)
     2.22101579E-08    3     1000022        11       -11   # BR(chi^0_3 -> chi^0_1 e^- e^+)
     3.64252371E-08    3     1000022        13       -13   # BR(chi^0_3 -> chi^0_1 mu^- mu^+)
     3.97469421E-06    3     1000022        15       -15   # BR(chi^0_3 -> chi^0_1 tau^- tau^+)
     1.16057301E-08    3     1000023         2        -2   # BR(chi^0_3 -> chi^0_2 u u_bar)
     1.04008348E-08    3     1000023         4        -4   # BR(chi^0_3 -> chi^0_2 c c_bar)
     1.50749140E-08    3     1000023         1        -1   # BR(chi^0_3 -> chi^0_2 d d_bar)
     1.50634377E-08    3     1000023         3        -3   # BR(chi^0_3 -> chi^0_2 s s_bar)
     1.09734708E-09    3     1000023         5        -5   # BR(chi^0_3 -> chi^0_2 b b_bar)
     3.47127447E-09    3     1000023        11       -11   # BR(chi^0_3 -> chi^0_2 e^- e^+)
     3.46920738E-09    3     1000023        13       -13   # BR(chi^0_3 -> chi^0_2 mu^- mu^+)
     2.82769246E-09    3     1000023        15       -15   # BR(chi^0_3 -> chi^0_2 tau^- tau^+)
     2.08044773E-08    3     1000023        12       -12   # BR(chi^0_3 -> chi^0_2 nu_e nu_bar_e)
     9.61049592E-08    3     1000024         1        -2   # BR(chi^0_3 -> chi^+_1 d u_bar)
     9.61049592E-08    3    -1000024        -1         2   # BR(chi^0_3 -> chi^-_1 d_bar u)
     9.07091072E-08    3     1000024         3        -4   # BR(chi^0_3 -> chi^+_1 s c_bar)
     9.07091072E-08    3    -1000024        -3         4   # BR(chi^0_3 -> chi^-_1 s_bar c)
     3.20252386E-08    3     1000024        11       -12   # BR(chi^0_3 -> chi^+_1 e^- nu_bar_e)
     3.20252386E-08    3    -1000024       -11        12   # BR(chi^0_3 -> chi^-_1 e^+ nu_e)
     3.20123253E-08    3     1000024        13       -14   # BR(chi^0_3 -> chi^+_1 mu^- nu_bar_mu)
     3.20123253E-08    3    -1000024       -13        14   # BR(chi^0_3 -> chi^-_1 mu^+ nu_mu)
     2.86359490E-08    3     1000024        15       -16   # BR(chi^0_3 -> chi^+_1 tau^- nu_bar_tau)
     2.86359490E-08    3    -1000024       -15        16   # BR(chi^0_3 -> chi^-_1 tau^+ nu_tau)
DECAY   1000035     1.34992462E+01   # chi^0_4
#    BR                NDA      ID1      ID2
     1.88268587E-05    2     2000011       -11   # BR(chi^0_4 -> ~e^-_R e^+)
     1.88268587E-05    2    -2000011        11   # BR(chi^0_4 -> ~e^+_R e^-)
     3.40743906E-02    2     1000011       -11   # BR(chi^0_4 -> ~e^-_L e^+)
     3.40743906E-02    2    -1000011        11   # BR(chi^0_4 -> ~e^+_L e^-)
     1.88631622E-05    2     2000013       -13   # BR(chi^0_4 -> ~mu^-_R mu^+)
     1.88631622E-05    2    -2000013        13   # BR(chi^0_4 -> ~mu^+_R mu^-)
     3.40750550E-02    2     1000013       -13   # BR(chi^0_4 -> ~mu^-_L mu^+)
     3.40750550E-02    2    -1000013        13   # BR(chi^0_4 -> ~mu^+_L mu^-)
     2.93198061E-05    2     1000015       -15   # BR(chi^0_4 -> ~tau^-_1 tau^+)
     2.93198061E-05    2    -1000015        15   # BR(chi^0_4 -> ~tau^+_1 tau^-)
     3.42626256E-02    2     2000015       -15   # BR(chi^0_4 -> ~tau^-_2 tau^+)
     3.42626256E-02    2    -2000015        15   # BR(chi^0_4 -> ~tau^+_2 tau^-)
     3.53096164E-02    2     1000012       -12   # BR(chi^0_4 -> ~nu_e nu_bar_e)
     3.53096164E-02    2    -1000012        12   # BR(chi^0_4 -> ~nu^*_e nu_e)
     3.53102708E-02    2     1000014       -14   # BR(chi^0_4 -> ~nu_mu nu_bar_mu)
     3.53102708E-02    2    -1000014        14   # BR(chi^0_4 -> ~nu^*_mu nu_mu)
     3.54948161E-02    2     1000016       -16   # BR(chi^0_4 -> ~nu_tau nu_bar_tau)
     3.54948161E-02    2    -1000016        16   # BR(chi^0_4 -> ~nu^*_tau nu_tau)
     1.50222835E-01    2     1000024       -24   # BR(chi^0_4 -> chi^+_1 W^-)
     1.50222835E-01    2    -1000024        24   # BR(chi^0_4 -> chi^-_1 W^+)
     5.30599521E-05    2     1000022        23   # BR(chi^0_4 -> chi^0_1 Z)
     1.37110224E-03    2     1000023        23   # BR(chi^0_4 -> chi^0_2 Z)
     1.39038766E-01    2     1000025        23   # BR(chi^0_4 -> chi^0_3 Z)
     6.14144577E-04    2     1000022        25   # BR(chi^0_4 -> chi^0_1 h^0)
     1.39624952E-01    2     1000023        25   # BR(chi^0_4 -> chi^0_2 h^0)
     9.91171212E-04    2     1000025        25   # BR(chi^0_4 -> chi^0_3 h^0)
     1.32482094E-07    2     1000022        22   # BR(chi^0_4 -> chi^0_1 photon)
     3.59179066E-07    2     1000023        22   # BR(chi^0_4 -> chi^0_2 photon)
     5.37771252E-07    2     1000025        22   # BR(chi^0_4 -> chi^0_3 photon)
#    BR                NDA      ID1      ID2       ID3
     3.45347220E-08    3     1000022         2        -2   # BR(chi^0_4 -> chi^0_1 u u_bar)
     3.45332090E-08    3     1000022         4        -4   # BR(chi^0_4 -> chi^0_1 c c_bar)
     3.49162425E-06    3     1000022         6        -6   # BR(chi^0_4 -> chi^0_1 t t_bar)
     3.87669659E-08    3     1000022         1        -1   # BR(chi^0_4 -> chi^0_1 d d_bar)
     3.87670576E-08    3     1000022         3        -3   # BR(chi^0_4 -> chi^0_1 s s_bar)
     4.53733060E-08    3     1000022         5        -5   # BR(chi^0_4 -> chi^0_1 b b_bar)
     9.84040000E-09    3     1000022        11       -11   # BR(chi^0_4 -> chi^0_1 e^- e^+)
     9.85204303E-09    3     1000022        13       -13   # BR(chi^0_4 -> chi^0_1 mu^- mu^+)
     1.30833724E-08    3     1000022        15       -15   # BR(chi^0_4 -> chi^0_1 tau^- tau^+)
     1.06062921E-09    3     1000023         2        -2   # BR(chi^0_4 -> chi^0_2 u u_bar)
     1.06027747E-09    3     1000023         4        -4   # BR(chi^0_4 -> chi^0_2 c c_bar)
     7.79497197E-10    3     1000023         1        -1   # BR(chi^0_4 -> chi^0_2 d d_bar)
     7.83955200E-10    3     1000023         3        -3   # BR(chi^0_4 -> chi^0_2 s s_bar)
     1.30423755E-08    3     1000023         5        -5   # BR(chi^0_4 -> chi^0_2 b b_bar)
     5.12495488E-07    3     1000023        11       -11   # BR(chi^0_4 -> chi^0_2 e^- e^+)
     5.12979332E-07    3     1000023        13       -13   # BR(chi^0_4 -> chi^0_2 mu^- mu^+)
     6.30840131E-07    3     1000023        15       -15   # BR(chi^0_4 -> chi^0_2 tau^- tau^+)
     5.69787844E-07    3     1000023        12       -12   # BR(chi^0_4 -> chi^0_2 nu_e nu_bar_e)
     1.63142845E-12    3     1000025         2        -2   # BR(chi^0_4 -> chi^0_3 u u_bar)
     1.96423331E-12    3     1000025         4        -4   # BR(chi^0_4 -> chi^0_3 c c_bar)
     2.96163405E-12    3     1000025         1        -1   # BR(chi^0_4 -> chi^0_3 d d_bar)
     7.21034129E-12    3     1000025         3        -3   # BR(chi^0_4 -> chi^0_3 s s_bar)
     1.15945432E-08    3     1000025         5        -5   # BR(chi^0_4 -> chi^0_3 b b_bar)
     3.05684209E-10    3     1000025        11       -11   # BR(chi^0_4 -> chi^0_3 e^- e^+)
     7.15205684E-10    3     1000025        13       -13   # BR(chi^0_4 -> chi^0_3 mu^- mu^+)
     1.13988497E-07    3     1000025        15       -15   # BR(chi^0_4 -> chi^0_3 tau^- tau^+)
     5.72442076E-09    3     1000025        12       -12   # BR(chi^0_4 -> chi^0_3 nu_e nu_bar_e)
     6.52245251E-10    3     1000024         1        -2   # BR(chi^0_4 -> chi^+_1 d u_bar)
     6.52245251E-10    3    -1000024        -1         2   # BR(chi^0_4 -> chi^-_1 d_bar u)
     6.57567215E-10    3     1000024         3        -4   # BR(chi^0_4 -> chi^+_1 s c_bar)
     6.57567215E-10    3    -1000024        -3         4   # BR(chi^0_4 -> chi^-_1 s_bar c)
     3.32085120E-04    3     1000024         5        -6   # BR(chi^0_4 -> chi^+_1 b t_bar)
     3.32085120E-04    3    -1000024        -5         6   # BR(chi^0_4 -> chi^-_1 b_bar t)
     3.36550733E-07    3     1000024        11       -12   # BR(chi^0_4 -> chi^+_1 e^- nu_bar_e)
     3.36550733E-07    3    -1000024       -11        12   # BR(chi^0_4 -> chi^-_1 e^+ nu_e)
     3.37038505E-07    3     1000024        13       -14   # BR(chi^0_4 -> chi^+_1 mu^- nu_bar_mu)
     3.37038505E-07    3    -1000024       -13        14   # BR(chi^0_4 -> chi^-_1 mu^+ nu_mu)
     4.62583790E-07    3     1000024        15       -16   # BR(chi^0_4 -> chi^+_1 tau^- nu_bar_tau)
     4.62583790E-07    3    -1000024       -15        16   # BR(chi^0_4 -> chi^-_1 tau^+ nu_tau)
DECAY   1000021     1.78556556E+01   # ~g
#    BR                NDA      ID1      ID2
     4.59372416E-02    2     2000002        -2   # BR(~g -> ~u_R u_bar)
     4.59372416E-02    2    -2000002         2   # BR(~g -> ~u^*_R u)
     8.39791319E-03    2     1000002        -2   # BR(~g -> ~u_L u_bar)
     8.39791319E-03    2    -1000002         2   # BR(~g -> ~u^*_L u)
     4.59380572E-02    2     2000004        -4   # BR(~g -> ~c_R c_bar)
     4.59380572E-02    2    -2000004         4   # BR(~g -> ~c^*_R c)
     8.39807604E-03    2     1000004        -4   # BR(~g -> ~c_L c_bar)
     8.39807604E-03    2    -1000004         4   # BR(~g -> ~c^*_L c)
     1.77033796E-06    2     1000006        -4   # BR(~g -> ~t_1 c_bar)
     1.77033796E-06    2    -1000006         4   # BR(~g -> ~t^*_1 c)
     1.53687031E-01    2     1000006        -6   # BR(~g -> ~t_1 t_bar)
     1.53687031E-01    2    -1000006         6   # BR(~g -> ~t^*_1 t)
     3.01364298E-02    2     2000006        -6   # BR(~g -> ~t_2 t_bar)
     3.01364298E-02    2    -2000006         6   # BR(~g -> ~t^*_2 t)
     5.06903576E-02    2     2000001        -1   # BR(~g -> ~d_R d_bar)
     5.06903576E-02    2    -2000001         1   # BR(~g -> ~d^*_R d)
     8.29442513E-03    2     1000001        -1   # BR(~g -> ~d_L d_bar)
     8.29442513E-03    2    -1000001         1   # BR(~g -> ~d^*_L d)
     5.06911504E-02    2     2000003        -3   # BR(~g -> ~s_R s_bar)
     5.06911504E-02    2    -2000003         3   # BR(~g -> ~s^*_R s)
     8.29489518E-03    2     1000003        -3   # BR(~g -> ~s_L s_bar)
     8.29489518E-03    2    -1000003         3   # BR(~g -> ~s^*_L s)
     5.28154474E-02    2     1000005        -5   # BR(~g -> ~b_1 b_bar)
     5.28154474E-02    2    -1000005         5   # BR(~g -> ~b^*_1 b)
     3.66072826E-02    2     2000005        -5   # BR(~g -> ~b_2 b_bar)
     3.66072826E-02    2    -2000005         5   # BR(~g -> ~b^*_2 b)
     1.28121628E-07    2     1000039        21   # BR(~g -> ~G g)
     4.68725834E-06    2     1000022        21   # BR(~g -> chi^0_1 g)
     1.02105044E-04    2     1000023        21   # BR(~g -> chi^0_2 g)
     1.07113392E-04    2     1000025        21   # BR(~g -> chi^0_3 g)
     5.81201978E-06    2     1000035        21   # BR(~g -> chi^0_4 g)
DECAY        25     3.03521552E-03   # h^0
#    BR                NDA      ID1      ID2
     7.65222479E-09    2          11       -11   # BR(h^0 -> e^- e^+)
     3.27153900E-04    2          13       -13   # BR(h^0 -> mu^- mu^+)
     9.23118478E-02    2          15       -15   # BR(h^0 -> tau^- tau^+)
     6.50723276E-07    2           1        -1   # BR(h^0 -> d d_bar)
     2.34910593E-04    2           3        -3   # BR(h^0 -> s s_bar)
     6.02135972E-01    2           5        -5   # BR(h^0 -> b b_bar)
     1.49113860E-07    2           2        -2   # BR(h^0 -> u u_bar)
     3.84731700E-02    2           4        -4   # BR(h^0 -> c c_bar)
     9.23550302E-02    2          21        21   # BR(h^0 -> g g)
     3.26534089E-03    2          22        22   # BR(h^0 -> photon photon)
# writing decays into V V* as 3-body decays
#    BR                NDA      ID1      ID2       ID3
     7.75441392E-03    3          24        11        12   # BR(h^0 -> W^+ e^- nu_e)
     7.75441392E-03    3          24        13        14   # BR(h^0 -> W^+ mu^- nu_mu)
     7.75441392E-03    3          24        15        16   # BR(h^0 -> W^+ tau^- nu_tau)
     2.71404487E-02    3          24         1        -2   # BR(h^0 -> W^+ d u_bar)
     2.71404487E-02    3          24         3        -4   # BR(h^0 -> W^+ s c_bar)
     7.75441392E-03    3         -24       -11       -12   # BR(h^0 -> W^- e^+ nu_bar_e)
     7.75441392E-03    3         -24       -13       -14   # BR(h^0 -> W^- mu^+ nu_bar_mu)
     7.75441392E-03    3         -24       -15       -16   # BR(h^0 -> W^- tau^+ nu_bar_tau)
     2.71404487E-02    3         -24        -1         2   # BR(h^0 -> W^- d_bar u)
     2.71404487E-02    3         -24        -3         4   # BR(h^0 -> W^- s_bar c)
     5.31131618E-04    3          23        11       -11   # BR(h^0 -> Z e^- e^+)
     5.31131618E-04    3          23        13       -13   # BR(h^0 -> Z mu^- mu^+)
     5.34293116E-04    3          23        15       -15   # BR(h^0 -> Z tau^- tau^+)
     3.16149773E-03    3          23        12       -12   # BR(h^0 -> Z nu_e nu_bar_e)
     2.46596823E-03    3          23         1        -1   # BR(h^0 -> Z d d_bar)
     2.46596823E-03    3          23         3        -3   # BR(h^0 -> Z s s_bar)
     2.38693078E-03    3          23         5        -5   # BR(h^0 -> Z b b_bar)
     1.83366868E-03    3          23         2        -2   # BR(h^0 -> Z u u_bar)
     1.89689864E-03    3          23         4        -4   # BR(h^0 -> Z c c_bar)
DECAY        35     3.27008851E+00   # H^0
#    BR                NDA      ID1      ID2
     8.74519923E-09    2          11       -11   # BR(H^0 -> e^- e^+)
     3.73884988E-04    2          13       -13   # BR(H^0 -> mu^- mu^+)
     1.05767771E-01    2          15       -15   # BR(H^0 -> tau^- tau^+)
     6.04073509E-07    2           1        -1   # BR(H^0 -> d d_bar)
     2.18070260E-04    2           3        -3   # BR(H^0 -> s s_bar)
     5.79594134E-01    2           5        -5   # BR(H^0 -> b b_bar)
     1.92090095E-11    2           2        -2   # BR(H^0 -> u u_bar)
     4.95716001E-06    2           4        -4   # BR(H^0 -> c c_bar)
     2.81007053E-01    2           6        -6   # BR(H^0 -> t t_bar)
     2.91000380E-05    2     2000011  -2000011   # BR(H^0 -> ~e^-_R ~e^+_R)
     2.90873772E-05    2     2000013  -2000013   # BR(H^0 -> ~mu^-_R ~mu^+_R)
     2.56091006E-05    2     1000015  -1000015   # BR(H^0 -> ~tau^-_1 ~tau^+_1)
     2.18166408E-04    2     1000022   1000022   # BR(H^0 -> chi^0_1 chi^0_1)
     1.10788626E-02    2          23        23   # BR(H^0 -> Z Z)
     2.08081838E-02    2          24       -24   # BR(H^0 -> W^+ W^-)
     7.38311421E-04    2          25        25   # BR(H^0 -> h^0 h^0)
     1.04840523E-04    2          21        21   # BR(H^0 -> g g)
     1.35484726E-06    2          22        22   # BR(H^0 -> photon photon)
DECAY        36     3.18003642E+00   # A^0
#    BR                NDA      ID1      ID2
     8.99341372E-09    2          11       -11   # BR(A^0 -> e^- e^+)
     3.84496950E-04    2          13       -13   # BR(A^0 -> mu^- mu^+)
     1.08770194E-01    2          15       -15   # BR(A^0 -> tau^- tau^+)
     6.21218246E-07    2           1        -1   # BR(A^0 -> d d_bar)
     2.24259512E-04    2           3        -3   # BR(A^0 -> s s_bar)
     5.96044336E-01    2           5        -5   # BR(A^0 -> b b_bar)
     1.94750021E-11    2           2        -2   # BR(A^0 -> u u_bar)
     5.02579582E-06    2           4        -4   # BR(A^0 -> c c_bar)
     2.91700215E-01    2           6        -6   # BR(A^0 -> t t_bar)
     2.47818938E-03    2     1000022   1000022   # BR(A^0 -> chi^0_1 chi^0_1)
     3.22892646E-04    2          25        23   # BR(A^0 -> h^0 Z)
     6.92245239E-05    2          21        21   # BR(A^0 -> g g)
     5.35817082E-07    2          22        22   # BR(A^0 -> photon photon)
DECAY        37     2.78937497E+00   # H^+
#    BR                NDA      ID1      ID2
     1.02621029E-08    2         -11        12   # BR(H^+ -> e^+ nu_e)
     4.38737435E-04    2         -13        12   # BR(H^+ -> mu^+ nu_e)
     1.24114264E-01    2         -15        12   # BR(H^+ -> tau^+ nu_e)
     6.22634938E-07    2          -1         2   # BR(H^+ -> d_bar u)
     2.29800832E-04    2          -3         4   # BR(H^+ -> s_bar c)
     8.74858859E-01    2          -5         6   # BR(H^+ -> b_bar t)
     3.57705153E-04    2          25        24   # BR(H^+ -> h^0 W^+)
DECAY         6     2.43000000E+00   # top
#    BR                NDA      ID1      ID2
     1.00000000E+00    2           5        24   # BR(t -> b W)
Block HiggsBoundsInputHiggsCouplingsFermions
# ScalarNormEffCoupSq PseudoSNormEffCoupSq NP IP1 IP2 IP2
    1.01417758E+00    0.00000000E+00        3  25   5   5  # h0-b-b eff. coupling^2, normalised to SM
    9.00460006E+01    0.00000000E+00        3  35   5   5  # H0-b-b eff. coupling^2, normalised to SM
    0.00000000E+00    9.00601782E+01        3  36   5   5  # A0-b-b eff. coupling^2, normalised to SM
#
    9.99842577E-01    0.00000000E+00        3  25   6   6  # h0-t-t eff. coupling^2, normalised to SM
    1.12611101E-02    0.00000000E+00        3  35   6   6  # H0-t-t eff. coupling^2, normalised to SM
    0.00000000E+00    1.11036867E-02        3  36   6   6  # A0-t-t eff. coupling^2, normalised to SM
#
    1.01417758E+00    0.00000000E+00        3  25  15  15  # h0-tau-tau eff. coupling^2, normalised to SM
    9.00460006E+01    0.00000000E+00        3  35  15  15  # H0-tau-tau eff. coupling^2, normalised to SM
    0.00000000E+00    9.00601782E+01        3  36  15  15  # A0-tau-tau eff. coupling^2, normalised to SM
#
Block HiggsBoundsInputHiggsCouplingsBosons
    9.99999446E-01        3  25  24  24  # h0-W-W eff. coupling^2, normalised to SM
    5.54093637E-07        3  35  24  24  # H0-W-W eff. coupling^2, normalised to SM
    0.00000000E+00        3  36  24  24  # A0-W-W eff. coupling^2, normalised to SM
#
    9.99999446E-01        3  25  23  23  # h0-Z-Z eff. coupling^2, normalised to SM
    5.54093637E-07        3  35  23  23  # H0-Z-Z eff. coupling^2, normalised to SM
    0.00000000E+00        3  36  23  23  # A0-Z-Z eff. coupling^2, normalised to SM
#
    1.15357657E+00        3  25  21  21  # h0-g-g eff. coupling^2, normalised to SM
    7.58914037E-03        3  35  21  21  # H0-g-g eff. coupling^2, normalised to SM
    1.28853148E-01        3  36  21  21  # A0-g-g eff. coupling^2, normalised to SM
#
    0.00000000E+00        3  25  25  23  # h0-h0-Z eff. coupling^2, normalised to SM
    0.00000000E+00        3  35  25  23  # H0-h0-Z eff. coupling^2, normalised to SM
    5.54093637E-07        3  36  25  23  # A0-h0-Z eff. coupling^2, normalised to SM
    0.00000000E+00        3  35  35  23  # H0-H0-Z eff. coupling^2, normalised to SM
    9.99999446E-01        3  36  35  23  # A0-H0-Z eff. coupling^2, normalised to SM
    0.00000000E+00        3  36  36  23  # A0-A0-Z eff. coupling^2, normalised to SM
#
    0.00000000E+00        4  25  21  21  23  # h0-g-g-Z eff. coupling^2, normalised to SM
    0.00000000E+00        4  35  21  21  23  # H0-g-g-Z eff. coupling^2, normalised to SM
    0.00000000E+00        4  36  21  21  23  # A0-g-g-Z eff. coupling^2, normalised to SM
Block SPhenoLowEnergy  # low energy observables
    1    3.29314934E-04   # BR(b -> s gamma)
    2    1.58986585E-06   # BR(b -> s mu+ mu-)
    3    3.52897191E-05   # BR(b -> s nu nu)
    4    2.07378296E-15   # BR(Bd -> e+ e-)
    5    8.85896544E-11   # BR(Bd -> mu+ mu-)
    6    1.85432611E-08   # BR(Bd -> tau+ tau-)
    7    6.98937666E-14   # BR(Bs -> e+ e-)
    8    2.98585951E-09   # BR(Bs -> mu+ mu-)
    9    6.33251854E-07   # BR(Bs -> tau+ tau-)
   10    9.66830764E-05   # BR(B_u -> tau nu)
   11    9.98849297E-01   # BR(B_u -> tau nu)/BR(B_u -> tau nu)_SM
   12    5.41595752E-01   # |Delta(M_Bd)| [ps^-1] 
   13    1.93515699E+01   # |Delta(M_Bs)| [ps^-1] 
   16    2.15529052E-03   # epsilon_K
   17    2.28163721E-15   # Delta(M_K)
   18    2.48244449E-11   # BR(K^0 -> pi^0 nu nu)
   19    8.29639452E-11   # BR(K^+ -> pi^+ nu nu)
   20    1.50892099E-15   # Delta(g-2)_electron/2
   21    6.45116778E-11   # Delta(g-2)_muon/2
   22    1.82917879E-08   # Delta(g-2)_tau/2
   23    0.00000000E+00   # electric dipole moment of the electron
   24    0.00000000E+00   # electric dipole moment of the muon
   25    0.00000000E+00   # electric dipole moment of the tau
   26    0.00000000E+00   # Br(mu -> e gamma)
   27    0.00000000E+00   # Br(tau -> e gamma)
   28    0.00000000E+00   # Br(tau -> mu gamma)
   29    0.00000000E+00   # Br(mu -> 3 e)
   30    0.00000000E+00   # Br(tau -> 3 e)
   31    0.00000000E+00   # Br(tau -> 3 mu)
   39   -3.44972701E-05   # Delta(rho_parameter)
   40    0.00000000E+00   # BR(Z -> e mu)
   41    0.00000000E+00   # BR(Z -> e tau)
   42    0.00000000E+00   # BR(Z -> mu tau)
Block FWCOEF Q=  1.60000000E+02  # Wilson coefficients at scale Q
#    id        order  M        value         comment
     0305 4422   00   0    -1.88854277E-01   # C7
     0305 4422   00   2    -1.97941367E-01   # C7
     0305 4322   00   2    -1.81295957E-04   # C7'
     0305 6421   00   0    -9.52390127E-02   # C8
     0305 6421   00   2    -1.07413447E-01   # C8
     0305 6321   00   2    -2.40964995E-04   # C8'
 03051111 4133   00   0     1.17336518E+00   # C9 e+e-
 03051111 4133   00   2     1.17372411E+00   # C9 e+e-
 03051111 4233   00   2     2.62216603E-08   # C9' e+e-
 03051111 4137   00   0    -3.99783352E+00   # C10 e+e-
 03051111 4137   00   2    -3.99750411E+00   # C10 e+e-
 03051111 4237   00   2    -6.02402926E-07   # C10' e+e-
 03051313 4133   00   0     1.17336518E+00   # C9 mu+mu-
 03051313 4133   00   2     1.17372404E+00   # C9 mu+mu-
 03051313 4233   00   2     2.62149404E-08   # C9' mu+mu-
 03051313 4137   00   0    -3.99783352E+00   # C10 mu+mu-
 03051313 4137   00   2    -3.99750417E+00   # C10 mu+mu-
 03051313 4237   00   2    -6.02399201E-07   # C10' mu+mu-
 03051212 4137   00   0     1.50585743E+00   # C11 nu_1 nu_1
 03051212 4137   00   2     1.50578064E+00   # C11 nu_1 nu_1
 03051212 4237   00   2     1.45042567E-07   # C11' nu_1 nu_1
 03051414 4137   00   0     1.50585743E+00   # C11 nu_2 nu_2
 03051414 4137   00   2     1.50578064E+00   # C11 nu_2 nu_2
 03051414 4237   00   2     1.45043986E-07   # C11' nu_2 nu_2
 03051616 4137   00   0     1.50585743E+00   # C11 nu_3 nu_3
 03051616 4137   00   2     1.50578064E+00   # C11 nu_3 nu_3
 03051616 4237   00   2     1.45443741E-07   # C11' nu_3 nu_3
Block IMFWCOEF Q=  1.60000000E+02  # Im(Wilson coefficients) at scale Q
#    id        order  M        value         comment
     0305 4422   00   0     3.86056806E-07   # C7
     0305 4422   00   2     1.62014873E-06   # C7
     0305 4322   00   2     3.05938436E-07   # C7'
     0305 6421   00   0     3.30683072E-07   # C8
     0305 6421   00   2     3.82300217E-07   # C8
     0305 6321   00   2     1.16617205E-07   # C8'
 03051111 4133   00   2     1.10285046E-08   # C9 e+e-
 03051111 4233   00   2     2.43700637E-08   # C9' e+e-
 03051111 4137   00   2    -7.61360147E-07   # C10 e+e-
 03051111 4237   00   2    -6.58309378E-07   # C10' e+e-
 03051313 4133   00   2     1.10280482E-08   # C9 mu+mu-
 03051313 4233   00   2     2.43700493E-08   # C9' mu+mu-
 03051313 4137   00   2    -7.61360264E-07   # C10 mu+mu-
 03051313 4237   00   2    -6.58309417E-07   # C10' mu+mu-
 03051212 4137   00   2     2.27972977E-07   # C11 nu_1 nu_1
 03051212 4237   00   2     1.58503077E-07   # C11' nu_1 nu_1
 03051414 4137   00   2     2.27972961E-07   # C11 nu_2 nu_2
 03051414 4237   00   2     1.58503077E-07   # C11' nu_2 nu_2
 03051616 4137   00   2     2.27968616E-07   # C11 nu_3 nu_3
 03051616 4237   00   2     1.58503077E-07   # C11' nu_3 nu_3
