# SUSY Les Houches Accord 2 - MSSM spectrum + Decays
# SPheno v3.3.6  
# W. Porod, Comput. Phys. Commun. 153 (2003) 275-315, hep-ph/0301101
# in case of problems send email to porod@physik.uni-wuerzburg.de
# Created: 06.12.2016,  13:43
Block SPINFO         # Program information
     1   SPheno      # spectrum calculator
     2   v3.3.6      # version number
#
Block SPhenoINFO     # SPheno specific information
    1      2         # using 2-loop RGEs
    2      1         # using running masses for boundary conditions at mZ
Block MODSEL  # Model selection
    1    2    # mGMSB model
Block MINPAR  # Input parameters
    1    1.80000000E+05  # Lambda, scale of SUSY breaking
    2    5.00000000E+05  # M_M, messenger mass scale
    3    1.00000000E+01  # tanb at m_Z   
    4    1.00000000E+00  # Sign(mu)
    5    3.00000000E+00  # N_5 number of effective five-plets
    6    1.00000000E+05  # c_grav, Gravitino mass factor
Block gauge Q=  5.00000000E+05  # (GMSB scale)
   1    4.96139871E-01  # g'(Q)^DRbar
   2    6.47673689E-01  # g(Q)^DRbar
   3    9.22561634E-01  # g3(Q)^DRbar
Block SMINPUTS  # SM parameters
         1     1.27931232E+02  # alpha_em^-1(MZ)^MSbar
         2     1.16637900E-05  # G_mu [GeV^-2]
         3     1.18400000E-01  # alpha_s(MZ)^MSbar
         4     9.11876000E+01  # m_Z(pole)
         5     4.18000000E+00  # m_b(m_b), MSbar
         6     1.73100000E+02  # m_t(pole)
         7     1.77682000E+00  # m_tau(pole)
         8     0.00000000E+00  # m_nu_3
        11     5.10998930E-04  # m_e(pole)
        12     0.00000000E+00  # m_nu_1
        13     1.05658372E-01  # m_muon(pole)
        14     0.00000000E+00  # m_nu_2
        21     5.00000000E-03  # m_d(2 GeV), MSbar
        22     2.50000000E-03  # m_u(2 GeV), MSbar
        23     9.50000000E-02  # m_s(2 GeV), MSbar
        24     1.27000000E+00  # m_c(m_c), MSbar
Block gauge Q=  3.21526577E+03  # (SUSY scale)
   1    3.65505554E-01  # g'(Q)^DRbar
   2    6.37633949E-01  # g(Q)^DRbar
   3    1.00551093E+00  # g3(Q)^DRbar
Block Yu Q=  3.21526577E+03  # (SUSY scale)
#   1  1     6.80744373E-06   # Y_u(Q)^DRbar
  1  1     0.0   # Y_u(Q)^DRbar
#   2  2     3.45818182E-03   # Y_c(Q)^DRbar
  2  2     0.0   # Y_c(Q)^DRbar
#   3  3     8.35255615E-01   # Y_t(Q)^DRbar
  3  3     0.0   # Y_t(Q)^DRbar
Block Yd Q=  3.21526577E+03  # (SUSY scale)
#   1  1     1.28157496E-04   # Y_d(Q)^DRbar
  1  1     0.0   # Y_d(Q)^DRbar
#   2  2     2.43499139E-03   # Y_s(Q)^DRbar
  2  2     0.0   # Y_s(Q)^DRbar
#   3  3     1.25629448E-01   # Y_b(Q)^DRbar
  3  3     0.0   # Y_b(Q)^DRbar
Block Ye Q=  3.21526577E+03  # (SUSY scale)
#   1  1     2.84163561E-05   # Y_e(Q)^DRbar
  1  1     0.0   # Y_e(Q)^DRbar
#   2  2     5.87560446E-03   # Y_mu(Q)^DRbar
  2  2     0.0   # Y_mu(Q)^DRbar
#   3  3     9.88238466E-02   # Y_tau(Q)^DRbar
  3  3     0.0   # Y_tau(Q)^DRbar
Block Au Q=  3.21526577E+03  # (SUSY scale)
#   1  1    -1.06694702E+03   # A_u(Q)^DRbar
  1  1    0.0   # A_u(Q)^DRbar
#   2  2    -1.06694576E+03   # A_c(Q)^DRbar
  2  2    0.0   # A_c(Q)^DRbar
#   3  3    -1.00441896E+03   # A_t(Q)^DRbar
  3  3    0.0   # A_t(Q)^DRbar
Block Ad Q=  3.21526577E+03  # (SUSY scale)
#   1  1    -1.13730197E+03   # A_d(Q)^DRbar
  1  1    0.0   # A_d(Q)^DRbar
#   2  2    -1.13730107E+03   # A_s(Q)^DRbar
  2  2    0.0   # A_s(Q)^DRbar
#   3  3    -1.11564202E+03   # A_b(Q)^DRbar
  3  3    0.0   # A_b(Q)^DRbar
Block Ae Q=  3.21526577E+03  # (SUSY scale)
#   1  1    -1.31931943E+02   # A_e(Q)^DRbar
  1  1    0.0   # A_e(Q)^DRbar
#   2  2    -1.31931463E+02   # A_mu(Q)^DRbar
  2  2    0.0   # A_mu(Q)^DRbar
#   3  3    -1.31796356E+02   # A_tau(Q)^DRbar
  3  3    0.0   # A_tau(Q)^DRbar
Block MSOFT Q=  3.21526577E+03  # soft SUSY breaking masses at Q
   1    7.73728198E+02  # M_1
   2    1.40800925E+03  # M_2
   3    3.51722091E+03  # M_3
  21    1.20394475E+06  # M^2_(H,d)
  22   -1.16436450E+06  # M^2_(H,u)
  31    1.12301139E+03  # M_(L,11)
  32    1.12300892E+03  # M_(L,22)
  33    1.12231174E+03  # M_(L,33)
  34    5.50403113E+02  # M_(E,11)
  35    5.50392855E+02  # M_(E,22)
  36    5.47493672E+02  # M_(E,33)
  41    3.46351814E+03  # M_(Q,11)
  42    3.46351533E+03  # M_(Q,22)
  43    3.35247264E+03  # M_(Q,33)
  44    3.31336712E+03  # M_(U,11)
  45    3.31336319E+03  # M_(U,22)
  46    3.07795438E+03  # M_(U,33)
  47    3.29830598E+03  # M_(D,11)
  48    3.29830397E+03  # M_(D,22)
  49    3.29299749E+03  # M_(D,33)
Block MASS  # Mass spectrum
#   PDG code      mass          particle
         6     1.73100000E+02  # m_t(pole)
        23     9.11876000E+01  # m_Z(pole)
        24     8.04041594E+01  # W+
        15     1.77682000E+00  # m_tau(pole)
        25     1.21288297E+02  # h0
        35     1.64797993E+03  # H0
        36     1.64780125E+03  # A0
        37     1.64956603E+03  # H+
   1000001     3.59648077E+03  # ~d_L
   2000001     3.42419565E+03  # ~d_R
   1000002     3.59560884E+03  # ~u_L
   2000002     3.43829561E+03  # ~u_R
   1000003     3.59647748E+03  # ~s_L
   2000003     3.42419321E+03  # ~s_R
   1000004     3.59560566E+03  # ~c_L
   2000004     3.43829098E+03  # ~c_R
   1000005     3.41743506E+03  # ~b_1
   2000005     3.46560657E+03  # ~b_2
   1000006     3.16388135E+03  # ~t_1
   2000006     3.47031432E+03  # ~t_2
   1000011     1.14587646E+03  # ~e_L-
   2000011     5.70724155E+02  # ~e_R-
   1000012     1.14274931E+03  # ~nu_eL
   1000013     1.14587377E+03  # ~mu_L-
   2000013     5.70710182E+02  # ~mu_R-
   1000014     1.14274592E+03  # ~nu_muL
   1000015     5.66760638E+02  # ~tau_1-
   2000015     1.14511420E+03  # ~tau_2-
   1000016     1.14179077E+03  # ~nu_tauL
   1000021     3.70028547E+03  # ~g
   1000022     7.54917873E+02  # ~chi_10
   1000023     1.19007524E+03  # ~chi_20
   1000025    -1.20285149E+03  # ~chi_30
   1000035     1.45463989E+03  # ~chi_40
   1000024     1.18821207E+03  # ~chi_1+
   1000037     1.45477397E+03  # ~chi_2+
   1000039     2.16000000E-03  # ~G
# Higgs mixing
Block alpha # Effective Higgs mixing angle
          -1.05750569E-01   # alpha
Block Hmix Q=  3.21526577E+03  # Higgs mixing parameters
   1    1.18640154E+03  # mu
   2    9.50104860E+00  # tan[beta](Q)
   3    2.43082962E+02  # v(Q)
   4    2.41338916E+06  # m^2_A(Q)
Block stopmix # stop mixing matrix
   1  1     9.49958579E-02   # Re[R_st(1,1)]
   1  2     9.95477668E-01   # Re[R_st(1,2)]
   2  1    -9.95477668E-01   # Re[R_st(2,1)]
   2  2     9.49958579E-02   # Re[R_st(2,2)]
Block sbotmix # sbottom mixing matrix
   1  1     9.08776788E-02   # Re[R_sb(1,1)]
   1  2     9.95862062E-01   # Re[R_sb(1,2)]
   2  1    -9.95862062E-01   # Re[R_sb(2,1)]
   2  2     9.08776788E-02   # Re[R_sb(2,2)]
Block staumix # stau mixing matrix
   1  1     2.09823531E-02   # Re[R_sta(1,1)]
   1  2     9.99779846E-01   # Re[R_sta(1,2)]
   2  1    -9.99779846E-01   # Re[R_sta(2,1)]
   2  2     2.09823531E-02   # Re[R_sta(2,2)]
Block Nmix # neutralino mixing matrix
   1  1    -9.96797971E-01   # Re[N(1,1)]
   1  2     5.88442697E-03   # Re[N(1,2)]
   1  3    -6.56134492E-02   # Re[N(1,3)]
   1  4     4.53216686E-02   # Re[N(1,4)]
   2  1     7.77022396E-02   # Re[N(2,1)]
   2  2     2.34056682E-01   # Re[N(2,2)]
   2  3    -6.88053770E-01   # Re[N(2,3)]
   2  4     6.82467465E-01   # Re[N(2,4)]
   3  1     1.42264218E-02   # Re[N(3,1)]
   3  2    -1.87986518E-02   # Re[N(3,2)]
   3  3    -7.06432546E-01   # Re[N(3,3)]
   3  4    -7.07387643E-01   # Re[N(3,4)]
   4  1    -1.24006338E-02   # Re[N(4,1)]
   4  2     9.72023381E-01   # Re[N(4,2)]
   4  3     1.52413721E-01   # Re[N(4,3)]
   4  4    -1.78288609E-01   # Re[N(4,4)]
Block Umix # chargino mixing matrix
   1  1    -2.15758373E-01   # Re[U(1,1)]
   1  2     9.76446785E-01   # Re[U(1,2)]
   2  1     9.76446785E-01   # Re[U(2,1)]
   2  2     2.15758373E-01   # Re[U(2,2)]
Block Vmix # chargino mixing matrix
   1  1    -2.52282090E-01   # Re[V(1,1)]
   1  2     9.67653733E-01   # Re[V(1,2)]
   2  1     9.67653733E-01   # Re[V(2,1)]
   2  2     2.52282090E-01   # Re[V(2,2)]
DECAY        23     2.49520000E+00   # Z
DECAY        24     2.08500000E+00   # W
DECAY   2000011     7.94465328E-14   # ~e^-_R
#    BR                NDA      ID1      ID2
     1.87198105E-07    2     1000039        11   # BR(~e^-_R -> ~G e^-)
#    BR                NDA      ID1      ID2       ID3
     3.62015469E-01    3     1000015        11       -15   # BR(~e^-_R -> ~tau^-_1 e^- tau^+)
     6.37984343E-01    3    -1000015        15        11   # BR(~e^-_R -> ~tau^+_1 tau^- e^-)
     5.61959000E-12    3     1000015        12       -16   # BR(~e^-_R -> ~tau^-_1 nu_e nu_bar_tau)
DECAY   1000011     4.74710944E-01   # ~e^-_L
#    BR                NDA      ID1      ID2
     9.99999969E-01    2     1000022        11   # BR(~e^-_L -> chi^0_1 e^-)
     1.52744256E-08    2     2000011        23   # BR(~e^-_L -> ~e^-_R Z)
     1.54238454E-08    2     2000011        25   # BR(~e^-_L -> ~e^-_R h^0)
#    BR                NDA      ID1      ID2       ID3
     5.00621927E-10    3     1000012         1        -2   # BR(~e^-_L -> ~nu_e d u_bar)
     2.24850614E-10    3     1000012         3        -4   # BR(~e^-_L -> ~nu_e s c_bar)
DECAY   2000013     7.69629517E-14   # ~mu^-_R
#    BR                NDA      ID1      ID2
     1.93215274E-07    2     1000039        13   # BR(~mu^-_R -> ~G mu^-)
#    BR                NDA      ID1      ID2       ID3
     3.61995515E-01    3     1000015        13       -15   # BR(~mu^-_R -> ~tau^-_1 mu^- tau^+)
     6.38004048E-01    3    -1000015        15        13   # BR(~mu^-_R -> ~tau^+_1 tau^- mu^-)
     2.43672292E-07    3     1000015        14       -16   # BR(~mu^-_R -> ~tau^-_1 nu_mu nu_bar_tau)
DECAY   1000013     4.75330743E-01   # ~mu^-_L
#    BR                NDA      ID1      ID2
     9.98689244E-01    2     1000022        13   # BR(~mu^-_L -> chi^0_1 mu^-)
     6.52189608E-04    2     2000013        23   # BR(~mu^-_L -> ~mu^-_R Z)
     6.58566019E-04    2     2000013        25   # BR(~mu^-_L -> ~mu^-_R h^0)
#    BR                NDA      ID1      ID2       ID3
     5.00524412E-10    3     1000014         1        -2   # BR(~mu^-_L -> ~nu_mu d u_bar)
     2.24889690E-10    3     1000014         3        -4   # BR(~mu^-_L -> ~nu_mu s c_bar)
DECAY   1000015     1.43623813E-20   # ~tau^-_1
#    BR                NDA      ID1      ID2
     1.00000000E+00    2     1000039        15   # BR(~tau^-_1 -> ~G tau^-)
DECAY   2000015     6.50751176E-01   # ~tau^-_2
#    BR                NDA      ID1      ID2
     7.28073317E-01    2     1000022        15   # BR(~tau^-_2 -> chi^0_1 tau^-)
     1.35404226E-01    2     1000015        23   # BR(~tau^-_2 -> ~tau^-_1 Z)
     1.36522456E-01    2     1000015        25   # BR(~tau^-_2 -> ~tau^-_1 h^0)
#    BR                NDA      ID1      ID2       ID3
     4.94832731E-10    3     1000016         1        -2   # BR(~tau^-_2 -> ~nu_tau d u_bar)
     2.44241660E-10    3     1000016         3        -4   # BR(~tau^-_2 -> ~nu_tau s c_bar)
DECAY   1000012     4.89187158E-01   # ~nu_e
#    BR                NDA      ID1      ID2
     9.99999971E-01    2     1000022        12   # BR(~nu_e -> chi^0_1 nu_e)
     2.85723647E-08    2     2000011        24   # BR(~nu_e -> ~e^-_R W^+)
DECAY   1000014     4.89778778E-01   # ~nu_mu
#    BR                NDA      ID1      ID2
     9.98779898E-01    2     1000022        14   # BR(~nu_mu -> chi^0_1 nu_mu)
     1.22010227E-03    2     2000013        24   # BR(~nu_mu -> ~mu^-_R W^+)
DECAY   1000016     6.57285058E-01   # ~nu_tau
#    BR                NDA      ID1      ID2
     7.41696684E-01    2     1000022        16   # BR(~nu_tau -> chi^0_1 nu_tau)
     2.58303316E-01    2     1000015        24   # BR(~nu_tau -> ~tau^-_1 W^+)
DECAY   2000001     1.82882719E+00   # ~d_R
#    BR                NDA      ID1      ID2
     9.94551737E-01    2     1000022         1   # BR(~d_R -> chi^0_1 d)
     5.16135096E-03    2     1000023         1   # BR(~d_R -> chi^0_2 d)
     1.72217040E-04    2     1000025         1   # BR(~d_R -> chi^0_3 d)
     1.14214301E-04    2     1000035         1   # BR(~d_R -> chi^0_4 d)
     4.76673573E-07    2    -1000024         2   # BR(~d_R -> chi^-_1 u)
     3.56889693E-09    2    -1000037         2   # BR(~d_R -> chi^-_2 u)
DECAY   1000001     3.12102405E+01   # ~d_L
#    BR                NDA      ID1      ID2
     1.64184123E-02    2     1000022         1   # BR(~d_L -> chi^0_1 d)
     1.77589348E-02    2     1000023         1   # BR(~d_L -> chi^0_2 d)
     1.70210967E-04    2     1000025         1   # BR(~d_L -> chi^0_3 d)
     3.09549932E-01    2     1000035         1   # BR(~d_L -> chi^0_4 d)
     3.44346736E-02    2    -1000024         2   # BR(~d_L -> chi^-_1 u)
     6.21667836E-01    2    -1000037         2   # BR(~d_L -> chi^-_2 u)
     9.20069654E-13    2     2000002       -24   # BR(~d_L -> ~u_R W^-)
     1.53029990E-10    2     2000001        23   # BR(~d_L -> ~d_R Z)
     1.61716981E-10    2     2000001        25   # BR(~d_L -> ~d_R h^0)
DECAY   2000003     1.82945479E+00   # ~s_R
#    BR                NDA      ID1      ID2
     9.94211702E-01    2     1000022         3   # BR(~s_R -> chi^0_1 s)
     5.24417870E-03    2     1000023         3   # BR(~s_R -> chi^0_2 s)
     2.56012470E-04    2     1000025         3   # BR(~s_R -> chi^0_3 s)
     1.14799317E-04    2     1000035         3   # BR(~s_R -> chi^0_4 s)
     1.72019754E-04    2    -1000024         4   # BR(~s_R -> chi^-_1 c)
     1.28790866E-06    2    -1000037         4   # BR(~s_R -> chi^-_2 c)
DECAY   1000003     3.12111964E+01   # ~s_L
#    BR                NDA      ID1      ID2
     1.64178717E-02    2     1000022         3   # BR(~s_L -> chi^0_1 s)
     1.77631906E-02    2     1000023         3   # BR(~s_L -> chi^0_2 s)
     1.75576140E-04    2     1000025         3   # BR(~s_L -> chi^0_3 s)
     3.09540359E-01    2     1000035         3   # BR(~s_L -> chi^0_4 s)
     3.44529178E-02    2    -1000024         4   # BR(~s_L -> chi^-_1 c)
     6.21649734E-01    2    -1000037         4   # BR(~s_L -> chi^-_2 c)
     2.37432707E-07    2     2000004       -24   # BR(~s_L -> ~c_R W^-)
     5.52415874E-08    2     2000003        23   # BR(~s_L -> ~s_R Z)
     5.83774636E-08    2     2000003        25   # BR(~s_L -> ~s_R h^0)
DECAY   1000005     3.97870700E+00   # ~b_1
#    BR                NDA      ID1      ID2
     4.60300298E-01    2     1000022         5   # BR(~b_1 -> chi^0_1 b)
     1.19652090E-01    2     1000023         5   # BR(~b_1 -> chi^0_2 b)
     1.00848043E-01    2     1000025         5   # BR(~b_1 -> chi^0_3 b)
     4.98528266E-03    2     1000035         5   # BR(~b_1 -> chi^0_4 b)
     2.98248501E-01    2    -1000024         6   # BR(~b_1 -> chi^-_1 t)
     1.48022552E-02    2    -1000037         6   # BR(~b_1 -> chi^-_2 t)
     1.16353018E-03    2     1000006       -24   # BR(~b_1 -> ~t_1 W^-)
DECAY   2000005     6.74224416E+01   # ~b_2
#    BR                NDA      ID1      ID2
     7.14110174E-03    2     1000022         5   # BR(~b_2 -> chi^0_1 b)
     1.25787211E-02    2     1000023         5   # BR(~b_2 -> chi^0_2 b)
     6.45657997E-03    2     1000025         5   # BR(~b_2 -> chi^0_3 b)
     1.34176898E-01    2     1000035         5   # BR(~b_2 -> chi^0_4 b)
     5.18885916E-01    2    -1000024         6   # BR(~b_2 -> chi^-_1 t)
     3.06467061E-01    2    -1000037         6   # BR(~b_2 -> chi^-_2 t)
     1.42937220E-02    2     1000006       -24   # BR(~b_2 -> ~t_1 W^-)
DECAY   2000002     7.35162639E+00   # ~u_R
#    BR                NDA      ID1      ID2
     9.94544865E-01    2     1000022         2   # BR(~u_R -> chi^0_1 u)
     5.16837077E-03    2     1000023         2   # BR(~u_R -> chi^0_2 u)
     1.72235475E-04    2     1000025         2   # BR(~u_R -> chi^0_3 u)
     1.14528050E-04    2     1000035         2   # BR(~u_R -> chi^0_4 u)
     3.37332840E-10    2     1000024         1   # BR(~u_R -> chi^+_1 d)
     3.58644026E-12    2     1000037         1   # BR(~u_R -> chi^+_2 d)
DECAY   1000002     3.12483869E+01   # ~u_L
#    BR                NDA      ID1      ID2
     1.44873121E-02    2     1000022         2   # BR(~u_L -> chi^0_1 u)
     2.28597343E-02    2     1000023         2   # BR(~u_L -> chi^0_2 u)
     9.49053394E-05    2     1000025         2   # BR(~u_L -> chi^0_3 u)
     3.06039794E-01    2     1000035         2   # BR(~u_L -> chi^0_4 u)
     4.70052497E-02    2     1000024         1   # BR(~u_L -> chi^+_1 d)
     6.09513004E-01    2     1000037         1   # BR(~u_L -> chi^+_2 d)
     3.28867377E-10    2     2000001        24   # BR(~u_L -> ~d_R W^+)
     3.95570706E-13    2     2000002        23   # BR(~u_L -> ~u_R Z)
     3.16585592E-13    2     2000002        25   # BR(~u_L -> ~u_R h^0)
DECAY   2000004     7.35289544E+00   # ~c_R
#    BR                NDA      ID1      ID2
     9.94371379E-01    2     1000022         4   # BR(~c_R -> chi^0_1 c)
     5.21023987E-03    2     1000023         4   # BR(~c_R -> chi^0_2 c)
     2.15470708E-04    2     1000025         4   # BR(~c_R -> chi^0_3 c)
     1.14946357E-04    2     1000035         4   # BR(~c_R -> chi^0_4 c)
     8.70381821E-05    2     1000024         3   # BR(~c_R -> chi^+_1 s)
     9.25393070E-07    2     1000037         3   # BR(~c_R -> chi^+_2 s)
DECAY   1000004     3.12493298E+01   # ~c_L
#    BR                NDA      ID1      ID2
     1.44869115E-02    2     1000022         4   # BR(~c_L -> chi^0_1 c)
     2.28682695E-02    2     1000023         4   # BR(~c_L -> chi^0_2 c)
     1.05638273E-04    2     1000025         4   # BR(~c_L -> chi^0_3 c)
     3.06031372E-01    2     1000035         4   # BR(~c_L -> chi^0_4 c)
     4.70124054E-02    2     1000024         3   # BR(~c_L -> chi^+_1 s)
     6.09495101E-01    2     1000037         3   # BR(~c_L -> chi^+_2 s)
     1.18716795E-07    2     2000003        24   # BR(~c_L -> ~s_R W^+)
     1.02081541E-07    2     2000004        23   # BR(~c_L -> ~c_R Z)
     8.16985058E-08    2     2000004        25   # BR(~c_L -> ~c_R h^0)
DECAY   1000006     7.07294393E+01   # ~t_1
#    BR                NDA      ID1      ID2
     7.40904524E-08    2     1000022         4   # BR(~t_1 -> chi^0_1 c)
     9.41134212E-02    2     1000022         6   # BR(~t_1 -> chi^0_1 t)
     1.11650658E-07    2     1000023         4   # BR(~t_1 -> chi^0_2 c)
     2.16938195E-01    2     1000023         6   # BR(~t_1 -> chi^0_2 t)
     2.28655655E-01    2     1000025         6   # BR(~t_1 -> chi^0_3 t)
     6.22133338E-03    2     1000035         6   # BR(~t_1 -> chi^0_4 t)
     4.41417781E-01    2     1000024         5   # BR(~t_1 -> chi^+_1 b)
     1.26467254E-02    2     1000037         5   # BR(~t_1 -> chi^+_2 b)
#    BR                NDA      ID1      ID2       ID3
     6.70302280E-06    3     1000022        24         5   # BR(~t_1 -> chi^0_1 W^+ b)
DECAY   2000006     6.79247655E+01   # ~t_2
#    BR                NDA      ID1      ID2
     6.89693195E-03    2     1000022         6   # BR(~t_2 -> chi^0_1 t)
     2.56087319E-01    2     1000023         6   # BR(~t_2 -> chi^0_2 t)
     2.70140005E-01    2     1000025         6   # BR(~t_2 -> chi^0_3 t)
     1.58243882E-01    2     1000035         6   # BR(~t_2 -> chi^0_4 t)
     1.72999783E-02    2     1000024         5   # BR(~t_2 -> chi^+_1 b)
     2.78315366E-01    2     1000037         5   # BR(~t_2 -> chi^+_2 b)
     7.43898490E-03    2     1000006        23   # BR(~t_2 -> ~t_1 Z)
     5.57753330E-03    2     1000006        25   # BR(~t_2 -> ~t_1 h^0)
DECAY   1000024     7.67627337E-01   # chi^+_1
#    BR                NDA      ID1      ID2
     7.44272224E-09    2    -2000011        12   # BR(chi^+_1 -> ~e^+_R nu_e)
     1.42755281E-03    2    -1000011        12   # BR(chi^+_1 -> ~e^+_L nu_e)
     3.18208655E-04    2    -2000013        14   # BR(chi^+_1 -> ~mu^+_R nu_mu)
     1.42758003E-03    2    -1000013        14   # BR(chi^+_1 -> ~mu^+_L nu_mu)
     9.07110828E-02    2    -1000015        16   # BR(chi^+_1 -> ~tau^+_1 nu_tau)
     1.43461762E-03    2    -2000015        16   # BR(chi^+_1 -> ~tau^+_2 nu_tau)
     2.24473618E-03    2     1000012       -11   # BR(chi^+_1 -> ~nu_e e^+)
     2.24829363E-03    2     1000014       -13   # BR(chi^+_1 -> ~nu_mu mu^+)
     3.28713570E-03    2     1000016       -15   # BR(chi^+_1 -> ~nu_tau tau^+)
     8.92205075E-01    2     1000022        24   # BR(chi^+_1 -> chi^0_1 W^+)
#    BR                NDA      ID1      ID2       ID3
     7.23931823E-09    3     1000022        -1         2   # BR(chi^+_1 -> chi^0_1 d_bar u)
     7.34632479E-09    3     1000022        -3         4   # BR(chi^+_1 -> chi^0_1 s_bar c)
     4.69055697E-03    3     1000022        -5         6   # BR(chi^+_1 -> chi^0_1 b_bar t)
     4.31521654E-13    3     1000022       -11        12   # BR(chi^+_1 -> chi^0_1 e^+ nu_e)
     1.84476807E-08    3     1000022       -13        14   # BR(chi^+_1 -> chi^0_1 mu^+ nu_mu)
     5.12014819E-06    3     1000022       -15        16   # BR(chi^+_1 -> chi^0_1 tau^+ nu_tau)
DECAY   1000037     1.08766696E+01   # chi^+_2
#    BR                NDA      ID1      ID2
     5.32307157E-12    2    -2000011        12   # BR(chi^+_2 -> ~e^+_R nu_e)
     7.43105445E-02    2    -1000011        12   # BR(chi^+_2 -> ~e^+_L nu_e)
     2.27588492E-07    2    -2000013        14   # BR(chi^+_2 -> ~mu^+_R nu_mu)
     7.43119491E-02    2    -1000013        14   # BR(chi^+_2 -> ~mu^+_L nu_mu)
     6.52061720E-05    2    -1000015        16   # BR(chi^+_2 -> ~tau^+_1 nu_tau)
     7.47083910E-02    2    -2000015        16   # BR(chi^+_2 -> ~tau^+_2 nu_tau)
     7.42843300E-02    2     1000012       -11   # BR(chi^+_2 -> ~nu_e e^+)
     7.42859447E-02    2     1000014       -13   # BR(chi^+_2 -> ~nu_mu mu^+)
     7.47417046E-02    2     1000016       -15   # BR(chi^+_2 -> ~nu_tau tau^+)
     1.62631306E-03    2     1000022        24   # BR(chi^+_2 -> chi^0_1 W^+)
     1.45966593E-01    2     1000023        24   # BR(chi^+_2 -> chi^0_2 W^+)
     1.32024798E-01    2     1000025        24   # BR(chi^+_2 -> chi^0_3 W^+)
     1.46103271E-01    2     1000024        23   # BR(chi^+_2 -> chi^+_1 Z)
     1.27372031E-01    2     1000024        25   # BR(chi^+_2 -> chi^+_1 h^0)
#    BR                NDA      ID1      ID2       ID3
     1.09295874E-09    3     1000024         2        -2   # BR(chi^+_2 -> chi^+_1 u u_bar)
     1.09270984E-09    3     1000024         4        -4   # BR(chi^+_2 -> chi^+_1 c c_bar)
     1.46918499E-09    3     1000024         1        -1   # BR(chi^+_2 -> chi^+_1 d d_bar)
     1.47500149E-09    3     1000024         3        -3   # BR(chi^+_2 -> chi^+_1 s s_bar)
     1.81935737E-08    3     1000024         5        -5   # BR(chi^+_2 -> chi^+_1 b b_bar)
     4.27652265E-07    3     1000024        11       -11   # BR(chi^+_2 -> chi^+_1 e^- e^+)
     4.28121116E-07    3     1000024        13       -13   # BR(chi^+_2 -> chi^+_1 mu^- mu^+)
     5.53095987E-07    3     1000024        15       -15   # BR(chi^+_2 -> chi^+_1 tau^- tau^+)
     9.86943936E-07    3     1000024        12       -12   # BR(chi^+_2 -> chi^+_1 nu_e nu_bar_e)
     7.91228368E-08    3     1000022        -1         2   # BR(chi^+_2 -> chi^0_1 d_bar u)
     7.91213092E-08    3     1000022        -3         4   # BR(chi^+_2 -> chi^0_1 s_bar c)
     2.04928253E-05    3     1000022        -5         6   # BR(chi^+_2 -> chi^0_1 b_bar t)
     4.08535368E-11    3     1000022       -13        14   # BR(chi^+_2 -> chi^0_1 mu^+ nu_mu)
     1.14825065E-08    3     1000022       -15        16   # BR(chi^+_2 -> chi^0_1 tau^+ nu_tau)
     6.30022721E-10    3     1000023        -1         2   # BR(chi^+_2 -> chi^0_2 d_bar u)
     6.32880829E-10    3     1000023        -3         4   # BR(chi^+_2 -> chi^0_2 s_bar c)
     1.07969530E-04    3     1000023        -5         6   # BR(chi^+_2 -> chi^0_2 b_bar t)
     2.34699009E-07    3     1000023       -11        12   # BR(chi^+_2 -> chi^0_2 e^+ nu_e)
     2.34913213E-07    3     1000023       -13        14   # BR(chi^+_2 -> chi^0_2 mu^+ nu_mu)
     2.87376161E-07    3     1000023       -15        16   # BR(chi^+_2 -> chi^0_2 tau^+ nu_tau)
     9.55431304E-12    3     1000025        -1         2   # BR(chi^+_2 -> chi^0_3 d_bar u)
     1.15457262E-11    3     1000025        -3         4   # BR(chi^+_2 -> chi^0_3 s_bar c)
     6.68281166E-05    3     1000025        -5         6   # BR(chi^+_2 -> chi^0_3 b_bar t)
     2.43321352E-09    3     1000025       -11        12   # BR(chi^+_2 -> chi^0_3 e^+ nu_e)
     2.61401282E-09    3     1000025       -13        14   # BR(chi^+_2 -> chi^0_3 mu^+ nu_mu)
     5.27964632E-08    3     1000025       -15        16   # BR(chi^+_2 -> chi^0_3 tau^+ nu_tau)
DECAY   1000022     2.22322445E+00   # chi^0_1
#    BR                NDA      ID1      ID2
     1.64608449E-01    2     2000011       -11   # BR(chi^0_1 -> ~e^-_R e^+)
     1.64608449E-01    2    -2000011        11   # BR(chi^0_1 -> ~e^+_R e^-)
     1.64630014E-01    2     2000013       -13   # BR(chi^0_1 -> ~mu^-_R mu^+)
     1.64630014E-01    2    -2000013        13   # BR(chi^0_1 -> ~mu^+_R mu^-)
     1.70761537E-01    2     1000015       -15   # BR(chi^0_1 -> ~tau^-_1 tau^+)
     1.70761537E-01    2    -1000015        15   # BR(chi^0_1 -> ~tau^+_1 tau^-)
DECAY   1000023     8.93575659E-01   # chi^0_2
#    BR                NDA      ID1      ID2
     1.26713901E-02    2     2000011       -11   # BR(chi^0_2 -> ~e^-_R e^+)
     1.26713901E-02    2    -2000011        11   # BR(chi^0_2 -> ~e^+_R e^-)
     1.11086254E-03    2     1000011       -11   # BR(chi^0_2 -> ~e^-_L e^+)
     1.11086254E-03    2    -1000011        11   # BR(chi^0_2 -> ~e^+_L e^-)
     1.28064910E-02    2     2000013       -13   # BR(chi^0_2 -> ~mu^-_R mu^+)
     1.28064910E-02    2    -2000013        13   # BR(chi^0_2 -> ~mu^+_R mu^-)
     1.11225703E-03    2     1000013       -13   # BR(chi^0_2 -> ~mu^-_L mu^+)
     1.11225703E-03    2    -1000013        13   # BR(chi^0_2 -> ~mu^+_L mu^-)
     5.12066779E-02    2     1000015       -15   # BR(chi^0_2 -> ~tau^-_1 tau^+)
     5.12066779E-02    2    -1000015        15   # BR(chi^0_2 -> ~tau^+_1 tau^-)
     1.51614707E-03    2     2000015       -15   # BR(chi^0_2 -> ~tau^-_2 tau^+)
     1.51614707E-03    2    -2000015        15   # BR(chi^0_2 -> ~tau^+_2 tau^-)
     5.87777539E-04    2     1000012       -12   # BR(chi^0_2 -> ~nu_e nu_bar_e)
     5.87777539E-04    2    -1000012        12   # BR(chi^0_2 -> ~nu^*_e nu_e)
     5.87860037E-04    2     1000014       -14   # BR(chi^0_2 -> ~nu_mu nu_bar_mu)
     5.87860037E-04    2    -1000014        14   # BR(chi^0_2 -> ~nu^*_mu nu_mu)
     6.11325709E-04    2     1000016       -16   # BR(chi^0_2 -> ~nu_tau nu_bar_tau)
     6.11325709E-04    2    -1000016        16   # BR(chi^0_2 -> ~nu^*_tau nu_tau)
     2.78636094E-02    2     1000022        23   # BR(chi^0_2 -> chi^0_1 Z)
     8.07492017E-01    2     1000022        25   # BR(chi^0_2 -> chi^0_1 h^0)
     5.50231468E-07    2     1000022        22   # BR(chi^0_2 -> chi^0_1 photon)
#    BR                NDA      ID1      ID2       ID3
     7.36994284E-09    3     1000022         2        -2   # BR(chi^0_2 -> chi^0_1 u u_bar)
     7.39208927E-09    3     1000022         4        -4   # BR(chi^0_2 -> chi^0_1 c c_bar)
     2.10594548E-04    3     1000022         6        -6   # BR(chi^0_2 -> chi^0_1 t t_bar)
     3.22133904E-09    3     1000022         1        -1   # BR(chi^0_2 -> chi^0_1 d d_bar)
     3.33539591E-09    3     1000022         3        -3   # BR(chi^0_2 -> chi^0_1 s s_bar)
     3.09846550E-07    3     1000022         5        -5   # BR(chi^0_2 -> chi^0_1 b b_bar)
     2.35619376E-06    3     1000022        11       -11   # BR(chi^0_2 -> chi^0_1 e^- e^+)
     2.37170208E-06    3     1000022        13       -13   # BR(chi^0_2 -> chi^0_1 mu^- mu^+)
     6.59191511E-06    3     1000022        15       -15   # BR(chi^0_2 -> chi^0_1 tau^- tau^+)
     1.10537101E-11    3     1000024         1        -2   # BR(chi^0_2 -> chi^+_1 d u_bar)
     1.10537101E-11    3    -1000024        -1         2   # BR(chi^0_2 -> chi^-_1 d_bar u)
     8.25745853E-13    3     1000024         3        -4   # BR(chi^0_2 -> chi^+_1 s c_bar)
     8.25745853E-13    3    -1000024        -3         4   # BR(chi^0_2 -> chi^-_1 s_bar c)
     3.66107856E-12    3     1000024        11       -12   # BR(chi^0_2 -> chi^+_1 e^- nu_bar_e)
     3.66107856E-12    3    -1000024       -11        12   # BR(chi^0_2 -> chi^-_1 e^+ nu_e)
     3.60314163E-12    3     1000024        13       -14   # BR(chi^0_2 -> chi^+_1 mu^- nu_bar_mu)
     3.60314163E-12    3    -1000024       -13        14   # BR(chi^0_2 -> chi^-_1 mu^+ nu_mu)
DECAY   1000025     8.23714645E-01   # chi^0_3
#    BR                NDA      ID1      ID2
     4.71637623E-04    2     2000011       -11   # BR(chi^0_3 -> ~e^-_R e^+)
     4.71637623E-04    2    -2000011        11   # BR(chi^0_3 -> ~e^+_R e^-)
     2.86175529E-06    2     1000011       -11   # BR(chi^0_3 -> ~e^-_L e^+)
     2.86175529E-06    2    -1000011        11   # BR(chi^0_3 -> ~e^+_L e^-)
     6.20930768E-04    2     2000013       -13   # BR(chi^0_3 -> ~mu^-_R mu^+)
     6.20930768E-04    2    -2000013        13   # BR(chi^0_3 -> ~mu^+_R mu^-)
     5.02804346E-06    2     1000013       -13   # BR(chi^0_3 -> ~mu^-_L mu^+)
     5.02804346E-06    2    -1000013        13   # BR(chi^0_3 -> ~mu^+_L mu^-)
     4.30392877E-02    2     1000015       -15   # BR(chi^0_3 -> ~tau^-_1 tau^+)
     4.30392877E-02    2    -1000015        15   # BR(chi^0_3 -> ~tau^+_1 tau^-)
     6.32226204E-04    2     2000015       -15   # BR(chi^0_3 -> ~tau^-_2 tau^+)
     6.32226204E-04    2    -2000015        15   # BR(chi^0_3 -> ~tau^+_2 tau^-)
     2.03666989E-05    2     1000012       -12   # BR(chi^0_3 -> ~nu_e nu_bar_e)
     2.03666989E-05    2    -1000012        12   # BR(chi^0_3 -> ~nu^*_e nu_e)
     2.03689375E-05    2     1000014       -14   # BR(chi^0_3 -> ~nu_mu nu_bar_mu)
     2.03689375E-05    2    -1000014        14   # BR(chi^0_3 -> ~nu^*_mu nu_mu)
     2.10043393E-05    2     1000016       -16   # BR(chi^0_3 -> ~nu_tau nu_bar_tau)
     2.10043393E-05    2    -1000016        16   # BR(chi^0_3 -> ~nu^*_tau nu_tau)
     8.79909584E-01    2     1000022        23   # BR(chi^0_3 -> chi^0_1 Z)
     2.93487887E-02    2     1000022        25   # BR(chi^0_3 -> chi^0_1 h^0)
     7.01051713E-07    2     1000022        22   # BR(chi^0_3 -> chi^0_1 photon)
     6.67965341E-10    2     1000023        22   # BR(chi^0_3 -> chi^0_2 photon)
#    BR                NDA      ID1      ID2       ID3
     6.52267260E-11    3     1000022         2        -2   # BR(chi^0_3 -> chi^0_1 u u_bar)
     9.67643761E-11    3     1000022         4        -4   # BR(chi^0_3 -> chi^0_1 c c_bar)
     1.06561947E-03    3     1000022         6        -6   # BR(chi^0_3 -> chi^0_1 t t_bar)
     1.67523386E-11    3     1000022         1        -1   # BR(chi^0_3 -> chi^0_1 d d_bar)
     1.55403620E-10    3     1000022         3        -3   # BR(chi^0_3 -> chi^0_1 s s_bar)
     3.72178371E-07    3     1000022         5        -5   # BR(chi^0_3 -> chi^0_1 b b_bar)
     3.55862900E-08    3     1000022        11       -11   # BR(chi^0_3 -> chi^0_1 e^- e^+)
     5.43792625E-08    3     1000022        13       -13   # BR(chi^0_3 -> chi^0_1 mu^- mu^+)
     5.25858433E-06    3     1000022        15       -15   # BR(chi^0_3 -> chi^0_1 tau^- tau^+)
     4.58156540E-08    3     1000023         2        -2   # BR(chi^0_3 -> chi^0_2 u u_bar)
     4.30498560E-08    3     1000023         4        -4   # BR(chi^0_3 -> chi^0_2 c c_bar)
     5.94987775E-08    3     1000023         1        -1   # BR(chi^0_3 -> chi^0_2 d d_bar)
     5.94723467E-08    3     1000023         3        -3   # BR(chi^0_3 -> chi^0_2 s s_bar)
     1.95718108E-08    3     1000023         5        -5   # BR(chi^0_3 -> chi^0_2 b b_bar)
     1.36910841E-08    3     1000023        11       -11   # BR(chi^0_3 -> chi^0_2 e^- e^+)
     1.36862113E-08    3     1000023        13       -13   # BR(chi^0_3 -> chi^0_2 mu^- mu^+)
     1.22181619E-08    3     1000023        15       -15   # BR(chi^0_3 -> chi^0_2 tau^- tau^+)
     8.20689769E-08    3     1000023        12       -12   # BR(chi^0_3 -> chi^0_2 nu_e nu_bar_e)
     3.08023915E-07    3     1000024         1        -2   # BR(chi^0_3 -> chi^+_1 d u_bar)
     3.08023915E-07    3    -1000024        -1         2   # BR(chi^0_3 -> chi^-_1 d_bar u)
     2.96905204E-07    3     1000024         3        -4   # BR(chi^0_3 -> chi^+_1 s c_bar)
     2.96905204E-07    3    -1000024        -3         4   # BR(chi^0_3 -> chi^-_1 s_bar c)
     1.02649942E-07    3     1000024        11       -12   # BR(chi^0_3 -> chi^+_1 e^- nu_bar_e)
     1.02649942E-07    3    -1000024       -11        12   # BR(chi^0_3 -> chi^-_1 e^+ nu_e)
     1.02623860E-07    3     1000024        13       -14   # BR(chi^0_3 -> chi^+_1 mu^- nu_bar_mu)
     1.02623860E-07    3    -1000024       -13        14   # BR(chi^0_3 -> chi^-_1 mu^+ nu_mu)
     9.55256226E-08    3     1000024        15       -16   # BR(chi^0_3 -> chi^+_1 tau^- nu_bar_tau)
     9.55256226E-08    3    -1000024       -15        16   # BR(chi^0_3 -> chi^-_1 tau^+ nu_tau)
DECAY   1000035     1.09063929E+01   # chi^0_4
#    BR                NDA      ID1      ID2
     3.90199044E-05    2     2000011       -11   # BR(chi^0_4 -> ~e^-_R e^+)
     3.90199044E-05    2    -2000011        11   # BR(chi^0_4 -> ~e^+_R e^-)
     3.61588380E-02    2     1000011       -11   # BR(chi^0_4 -> ~e^-_L e^+)
     3.61588380E-02    2    -1000011        11   # BR(chi^0_4 -> ~e^+_L e^-)
     3.91233494E-05    2     2000013       -13   # BR(chi^0_4 -> ~mu^-_R mu^+)
     3.91233494E-05    2    -2000013        13   # BR(chi^0_4 -> ~mu^+_R mu^-)
     3.61596206E-02    2     1000013       -13   # BR(chi^0_4 -> ~mu^-_L mu^+)
     3.61596206E-02    2    -1000013        13   # BR(chi^0_4 -> ~mu^+_L mu^-)
     6.87971033E-05    2     1000015       -15   # BR(chi^0_4 -> ~tau^-_1 tau^+)
     6.87971033E-05    2    -1000015        15   # BR(chi^0_4 -> ~tau^+_1 tau^-)
     3.63805981E-02    2     2000015       -15   # BR(chi^0_4 -> ~tau^-_2 tau^+)
     3.63805981E-02    2    -2000015        15   # BR(chi^0_4 -> ~tau^+_2 tau^-)
     3.78988650E-02    2     1000012       -12   # BR(chi^0_4 -> ~nu_e nu_bar_e)
     3.78988650E-02    2    -1000012        12   # BR(chi^0_4 -> ~nu^*_e nu_e)
     3.78995899E-02    2     1000014       -14   # BR(chi^0_4 -> ~nu_mu nu_bar_mu)
     3.78995899E-02    2    -1000014        14   # BR(chi^0_4 -> ~nu^*_mu nu_mu)
     3.81040346E-02    2     1000016       -16   # BR(chi^0_4 -> ~nu_tau nu_bar_tau)
     3.81040346E-02    2    -1000016        16   # BR(chi^0_4 -> ~nu^*_tau nu_tau)
     1.47660722E-01    2     1000024       -24   # BR(chi^0_4 -> chi^+_1 W^-)
     1.47660722E-01    2    -1000024        24   # BR(chi^0_4 -> chi^-_1 W^+)
     1.34084314E-04    2     1000022        23   # BR(chi^0_4 -> chi^0_1 Z)
     1.08007578E-03    2     1000023        23   # BR(chi^0_4 -> chi^0_2 Z)
     1.27858536E-01    2     1000025        23   # BR(chi^0_4 -> chi^0_3 Z)
     1.64373706E-03    2     1000022        25   # BR(chi^0_4 -> chi^0_1 h^0)
     1.27593018E-01    2     1000023        25   # BR(chi^0_4 -> chi^0_2 h^0)
     6.40349724E-04    2     1000025        25   # BR(chi^0_4 -> chi^0_3 h^0)
     1.60023668E-07    2     1000022        22   # BR(chi^0_4 -> chi^0_1 photon)
     3.91237382E-07    2     1000023        22   # BR(chi^0_4 -> chi^0_2 photon)
     5.54401480E-07    2     1000025        22   # BR(chi^0_4 -> chi^0_3 photon)
#    BR                NDA      ID1      ID2       ID3
     3.69049106E-08    3     1000022         2        -2   # BR(chi^0_4 -> chi^0_1 u u_bar)
     3.69027656E-08    3     1000022         4        -4   # BR(chi^0_4 -> chi^0_1 c c_bar)
     6.93429813E-06    3     1000022         6        -6   # BR(chi^0_4 -> chi^0_1 t t_bar)
     4.20461118E-08    3     1000022         1        -1   # BR(chi^0_4 -> chi^0_1 d d_bar)
     4.20463910E-08    3     1000022         3        -3   # BR(chi^0_4 -> chi^0_1 s s_bar)
     4.97406802E-08    3     1000022         5        -5   # BR(chi^0_4 -> chi^0_1 b b_bar)
     2.13576802E-08    3     1000022        11       -11   # BR(chi^0_4 -> chi^0_1 e^- e^+)
     2.13911499E-08    3     1000022        13       -13   # BR(chi^0_4 -> chi^0_1 mu^- mu^+)
     3.06302978E-08    3     1000022        15       -15   # BR(chi^0_4 -> chi^0_1 tau^- tau^+)
     1.03354027E-09    3     1000023         2        -2   # BR(chi^0_4 -> chi^0_2 u u_bar)
     1.03297134E-09    3     1000023         4        -4   # BR(chi^0_4 -> chi^0_2 c c_bar)
     8.08599873E-10    3     1000023         1        -1   # BR(chi^0_4 -> chi^0_2 d d_bar)
     8.11241157E-10    3     1000023         3        -3   # BR(chi^0_4 -> chi^0_2 s s_bar)
     8.12274458E-09    3     1000023         5        -5   # BR(chi^0_4 -> chi^0_2 b b_bar)
     3.61569567E-07    3     1000023        11       -11   # BR(chi^0_4 -> chi^0_2 e^- e^+)
     3.61784469E-07    3     1000023        13       -13   # BR(chi^0_4 -> chi^0_2 mu^- mu^+)
     4.11978246E-07    3     1000023        15       -15   # BR(chi^0_4 -> chi^0_2 tau^- tau^+)
     4.92521925E-07    3     1000023        12       -12   # BR(chi^0_4 -> chi^0_2 nu_e nu_bar_e)
     1.15791339E-12    3     1000025         2        -2   # BR(chi^0_4 -> chi^0_3 u u_bar)
     1.35290225E-12    3     1000025         4        -4   # BR(chi^0_4 -> chi^0_3 c c_bar)
     2.09782887E-12    3     1000025         1        -1   # BR(chi^0_4 -> chi^0_3 d d_bar)
     4.52995096E-12    3     1000025         3        -3   # BR(chi^0_4 -> chi^0_3 s s_bar)
     6.64238115E-09    3     1000025         5        -5   # BR(chi^0_4 -> chi^0_3 b b_bar)
     1.47965127E-10    3     1000025        11       -11   # BR(chi^0_4 -> chi^0_3 e^- e^+)
     3.20144907E-10    3     1000025        13       -13   # BR(chi^0_4 -> chi^0_3 mu^- mu^+)
     4.81665422E-08    3     1000025        15       -15   # BR(chi^0_4 -> chi^0_3 tau^- tau^+)
     2.78414594E-09    3     1000025        12       -12   # BR(chi^0_4 -> chi^0_3 nu_e nu_bar_e)
     6.51735496E-10    3     1000024         1        -2   # BR(chi^0_4 -> chi^+_1 d u_bar)
     6.51735496E-10    3    -1000024        -1         2   # BR(chi^0_4 -> chi^-_1 d_bar u)
     6.55042624E-10    3     1000024         3        -4   # BR(chi^0_4 -> chi^+_1 s c_bar)
     6.55042624E-10    3    -1000024        -3         4   # BR(chi^0_4 -> chi^-_1 s_bar c)
     1.10145953E-04    3     1000024         5        -6   # BR(chi^0_4 -> chi^+_1 b t_bar)
     1.10145953E-04    3    -1000024        -5         6   # BR(chi^0_4 -> chi^-_1 b_bar t)
     2.26102970E-07    3     1000024        11       -12   # BR(chi^0_4 -> chi^+_1 e^- nu_bar_e)
     2.26102970E-07    3    -1000024       -11        12   # BR(chi^0_4 -> chi^-_1 e^+ nu_e)
     2.26318343E-07    3     1000024        13       -14   # BR(chi^0_4 -> chi^+_1 mu^- nu_bar_mu)
     2.26318343E-07    3    -1000024       -13        14   # BR(chi^0_4 -> chi^-_1 mu^+ nu_mu)
     2.81523570E-07    3     1000024        15       -16   # BR(chi^0_4 -> chi^+_1 tau^- nu_bar_tau)
     2.81523570E-07    3    -1000024       -15        16   # BR(chi^0_4 -> chi^-_1 tau^+ nu_tau)
DECAY   1000021     1.51298699E+01   # ~g
#    BR                NDA      ID1      ID2
     4.58907988E-02    2     2000002        -2   # BR(~g -> ~u_R u_bar)
     4.58907988E-02    2    -2000002         2   # BR(~g -> ~u^*_R u)
     7.65225415E-03    2     1000002        -2   # BR(~g -> ~u_L u_bar)
     7.65225415E-03    2    -1000002         2   # BR(~g -> ~u^*_L u)
     4.58914975E-02    2     2000004        -4   # BR(~g -> ~c_R c_bar)
     4.58914975E-02    2    -2000004         4   # BR(~g -> ~c^*_R c)
     7.65231429E-03    2     1000004        -4   # BR(~g -> ~c_L c_bar)
     7.65231429E-03    2    -1000004         4   # BR(~g -> ~c^*_L c)
     2.40406411E-06    2     1000006        -4   # BR(~g -> ~t_1 c_bar)
     2.40406411E-06    2    -1000006         4   # BR(~g -> ~t^*_1 c)
     1.58591606E-01    2     1000006        -6   # BR(~g -> ~t_1 t_bar)
     1.58591606E-01    2    -1000006         6   # BR(~g -> ~t^*_1 t)
     2.73583218E-02    2     2000006        -6   # BR(~g -> ~t_2 t_bar)
     2.73583218E-02    2    -2000006         6   # BR(~g -> ~t^*_2 t)
     5.07621639E-02    2     2000001        -1   # BR(~g -> ~d_R d_bar)
     5.07621639E-02    2    -2000001         1   # BR(~g -> ~d^*_R d)
     7.52710128E-03    2     1000001        -1   # BR(~g -> ~d_L d_bar)
     7.52710128E-03    2    -1000001         1   # BR(~g -> ~d^*_L d)
     5.07630052E-02    2     2000003        -3   # BR(~g -> ~s_R s_bar)
     5.07630052E-02    2    -2000003         3   # BR(~g -> ~s^*_R s)
     7.52757582E-03    2     1000003        -3   # BR(~g -> ~s_L s_bar)
     7.52757582E-03    2    -1000003         3   # BR(~g -> ~s^*_L s)
     5.30243169E-02    2     1000005        -5   # BR(~g -> ~b_1 b_bar)
     5.30243169E-02    2    -1000005         5   # BR(~g -> ~b^*_1 b)
     3.72220749E-02    2     2000005        -5   # BR(~g -> ~b_2 b_bar)
     3.72220749E-02    2    -2000005         5   # BR(~g -> ~b^*_2 b)
     1.12612366E-07    2     1000039        21   # BR(~g -> ~G g)
     5.19415918E-06    2     1000022        21   # BR(~g -> chi^0_1 g)
     1.21943054E-04    2     1000023        21   # BR(~g -> chi^0_2 g)
     1.31185338E-04    2     1000025        21   # BR(~g -> chi^0_3 g)
     1.06945920E-05    2     1000035        21   # BR(~g -> chi^0_4 g)
DECAY        25     2.99284171E-03   # h^0
#    BR                NDA      ID1      ID2
     7.72527101E-09    2          11       -11   # BR(h^0 -> e^- e^+)
     3.30276856E-04    2          13       -13   # BR(h^0 -> mu^- mu^+)
     9.31951988E-02    2          15       -15   # BR(h^0 -> tau^- tau^+)
     6.58016613E-07    2           1        -1   # BR(h^0 -> d d_bar)
     2.37543503E-04    2           3        -3   # BR(h^0 -> s s_bar)
     6.10269354E-01    2           5        -5   # BR(h^0 -> b b_bar)
     1.50939996E-07    2           2        -2   # BR(h^0 -> u u_bar)
     3.89443295E-02    2           4        -4   # BR(h^0 -> c c_bar)
     9.24252581E-02    2          21        21   # BR(h^0 -> g g)
     3.24237379E-03    2          22        22   # BR(h^0 -> photon photon)
# writing decays into V V* as 3-body decays
#    BR                NDA      ID1      ID2       ID3
     7.33653580E-03    3          24        11        12   # BR(h^0 -> W^+ e^- nu_e)
     7.33653580E-03    3          24        13        14   # BR(h^0 -> W^+ mu^- nu_mu)
     7.33653580E-03    3          24        15        16   # BR(h^0 -> W^+ tau^- nu_tau)
     2.56778753E-02    3          24         1        -2   # BR(h^0 -> W^+ d u_bar)
     2.56778753E-02    3          24         3        -4   # BR(h^0 -> W^+ s c_bar)
     7.33653580E-03    3         -24       -11       -12   # BR(h^0 -> W^- e^+ nu_bar_e)
     7.33653580E-03    3         -24       -13       -14   # BR(h^0 -> W^- mu^+ nu_bar_mu)
     7.33653580E-03    3         -24       -15       -16   # BR(h^0 -> W^- tau^+ nu_bar_tau)
     2.56778753E-02    3         -24        -1         2   # BR(h^0 -> W^- d_bar u)
     2.56778753E-02    3         -24        -3         4   # BR(h^0 -> W^- s_bar c)
     4.91370866E-04    3          23        11       -11   # BR(h^0 -> Z e^- e^+)
     4.91370866E-04    3          23        13       -13   # BR(h^0 -> Z mu^- mu^+)
     4.94295693E-04    3          23        15       -15   # BR(h^0 -> Z tau^- tau^+)
     2.92482658E-03    3          23        12       -12   # BR(h^0 -> Z nu_e nu_bar_e)
     2.28136473E-03    3          23         1        -1   # BR(h^0 -> Z d d_bar)
     2.28136473E-03    3          23         3        -3   # BR(h^0 -> Z s s_bar)
     2.20824407E-03    3          23         5        -5   # BR(h^0 -> Z b b_bar)
     1.69639942E-03    3          23         2        -2   # BR(h^0 -> Z u u_bar)
     1.75489595E-03    3          23         4        -4   # BR(h^0 -> Z c c_bar)
DECAY        35     2.98907925E+00   # H^0
#    BR                NDA      ID1      ID2
     8.75821360E-09    2          11       -11   # BR(H^0 -> e^- e^+)
     3.74441394E-04    2          13       -13   # BR(H^0 -> mu^- mu^+)
     1.05925187E-01    2          15       -15   # BR(H^0 -> tau^- tau^+)
     6.08419425E-07    2           1        -1   # BR(H^0 -> d d_bar)
     2.19639150E-04    2           3        -3   # BR(H^0 -> s s_bar)
     5.84653917E-01    2           5        -5   # BR(H^0 -> b b_bar)
     1.93417128E-11    2           2        -2   # BR(H^0 -> u u_bar)
     4.99140372E-06    2           4        -4   # BR(H^0 -> c c_bar)
     2.80642389E-01    2           6        -6   # BR(H^0 -> t t_bar)
     3.51541666E-05    2     2000011  -2000011   # BR(H^0 -> ~e^-_R ~e^+_R)
     3.51385926E-05    2     2000013  -2000013   # BR(H^0 -> ~mu^-_R ~mu^+_R)
     3.08625255E-05    2     1000015  -1000015   # BR(H^0 -> ~tau^-_1 ~tau^+_1)
     3.49743496E-04    2     1000022   1000022   # BR(H^0 -> chi^0_1 chi^0_1)
     9.27389785E-03    2          23        23   # BR(H^0 -> Z Z)
     1.74549756E-02    2          24       -24   # BR(H^0 -> W^+ W^-)
     8.82386906E-04    2          25        25   # BR(H^0 -> h^0 h^0)
     1.15258638E-04    2          21        21   # BR(H^0 -> g g)
     1.39948541E-06    2          22        22   # BR(H^0 -> photon photon)
DECAY        36     2.92537826E+00   # A^0
#    BR                NDA      ID1      ID2
     8.94963047E-09    2          11       -11   # BR(A^0 -> e^- e^+)
     3.82625079E-04    2          13       -13   # BR(A^0 -> mu^- mu^+)
     1.08240759E-01    2          15       -15   # BR(A^0 -> tau^- tau^+)
     6.21715857E-07    2           1        -1   # BR(A^0 -> d d_bar)
     2.24439260E-04    2           3        -3   # BR(A^0 -> s s_bar)
     5.97431732E-01    2           5        -5   # BR(A^0 -> b b_bar)
     1.94325221E-11    2           2        -2   # BR(A^0 -> u u_bar)
     5.01483633E-06    2           4        -4   # BR(A^0 -> c c_bar)
     2.90281930E-01    2           6        -6   # BR(A^0 -> t t_bar)
     2.97971548E-03    2     1000022   1000022   # BR(A^0 -> chi^0_1 chi^0_1)
     3.77335426E-04    2          25        23   # BR(A^0 -> h^0 Z)
     7.52471935E-05    2          21        21   # BR(A^0 -> g g)
     5.70352411E-07    2          22        22   # BR(A^0 -> photon photon)
DECAY        37     2.55782045E+00   # H^+
#    BR                NDA      ID1      ID2
     1.02466512E-08    2         -11        12   # BR(H^+ -> e^+ nu_e)
     4.38076828E-04    2         -13        12   # BR(H^+ -> mu^+ nu_e)
     1.23927498E-01    2         -15        12   # BR(H^+ -> tau^+ nu_e)
     6.25270640E-07    2          -1         2   # BR(H^+ -> d_bar u)
     2.30758522E-04    2          -3         4   # BR(H^+ -> s_bar c)
     8.74982995E-01    2          -5         6   # BR(H^+ -> b_bar t)
     4.20036533E-04    2          25        24   # BR(H^+ -> h^0 W^+)
DECAY         6     2.43000000E+00   # top
#    BR                NDA      ID1      ID2
     1.00000000E+00    2           5        24   # BR(t -> b W)
Block HiggsBoundsInputHiggsCouplingsFermions
# ScalarNormEffCoupSq PseudoSNormEffCoupSq NP IP1 IP2 IP2
    1.01688908E+00    0.00000000E+00        3  25   5   5  # h0-b-b eff. coupling^2, normalised to SM
    9.02530354E+01    0.00000000E+00        3  35   5   5  # H0-b-b eff. coupling^2, normalised to SM
    0.00000000E+00    9.02699244E+01        3  36   5   5  # A0-b-b eff. coupling^2, normalised to SM
#
    9.99812905E-01    0.00000000E+00        3  25   6   6  # h0-t-t eff. coupling^2, normalised to SM
    1.12649820E-02    0.00000000E+00        3  35   6   6  # H0-t-t eff. coupling^2, normalised to SM
    0.00000000E+00    1.10778868E-02        3  36   6   6  # A0-t-t eff. coupling^2, normalised to SM
#
    1.01688908E+00    0.00000000E+00        3  25  15  15  # h0-tau-tau eff. coupling^2, normalised to SM
    9.02530354E+01    0.00000000E+00        3  35  15  15  # H0-tau-tau eff. coupling^2, normalised to SM
    0.00000000E+00    9.02699244E+01        3  36  15  15  # A0-tau-tau eff. coupling^2, normalised to SM
#
Block HiggsBoundsInputHiggsCouplingsBosons
    9.99999217E-01        3  25  24  24  # h0-W-W eff. coupling^2, normalised to SM
    7.83438437E-07        3  35  24  24  # H0-W-W eff. coupling^2, normalised to SM
    0.00000000E+00        3  36  24  24  # A0-W-W eff. coupling^2, normalised to SM
#
    9.99999217E-01        3  25  23  23  # h0-Z-Z eff. coupling^2, normalised to SM
    7.83438437E-07        3  35  23  23  # H0-Z-Z eff. coupling^2, normalised to SM
    0.00000000E+00        3  36  23  23  # A0-Z-Z eff. coupling^2, normalised to SM
#
    1.15491761E+00        3  25  21  21  # h0-g-g eff. coupling^2, normalised to SM
    7.70620592E-03        3  35  21  21  # H0-g-g eff. coupling^2, normalised to SM
    1.28939268E-01        3  36  21  21  # A0-g-g eff. coupling^2, normalised to SM
#
    0.00000000E+00        3  25  25  23  # h0-h0-Z eff. coupling^2, normalised to SM
    0.00000000E+00        3  35  25  23  # H0-h0-Z eff. coupling^2, normalised to SM
    7.83438437E-07        3  36  25  23  # A0-h0-Z eff. coupling^2, normalised to SM
    0.00000000E+00        3  35  35  23  # H0-H0-Z eff. coupling^2, normalised to SM
    9.99999217E-01        3  36  35  23  # A0-H0-Z eff. coupling^2, normalised to SM
    0.00000000E+00        3  36  36  23  # A0-A0-Z eff. coupling^2, normalised to SM
#
    0.00000000E+00        4  25  21  21  23  # h0-g-g-Z eff. coupling^2, normalised to SM
    0.00000000E+00        4  35  21  21  23  # H0-g-g-Z eff. coupling^2, normalised to SM
    0.00000000E+00        4  36  21  21  23  # A0-g-g-Z eff. coupling^2, normalised to SM
Block SPhenoLowEnergy  # low energy observables
    1    3.30617928E-04   # BR(b -> s gamma)
    2    1.58968903E-06   # BR(b -> s mu+ mu-)
    3    3.52899423E-05   # BR(b -> s nu nu)
    4    2.07795774E-15   # BR(Bd -> e+ e-)
    5    8.87679971E-11   # BR(Bd -> mu+ mu-)
    6    1.85806314E-08   # BR(Bd -> tau+ tau-)
    7    7.00333258E-14   # BR(Bs -> e+ e-)
    8    2.99182150E-09   # BR(Bs -> mu+ mu-)
    9    6.34517680E-07   # BR(Bs -> tau+ tau-)
   10    9.66607024E-05   # BR(B_u -> tau nu)
   11    9.98618147E-01   # BR(B_u -> tau nu)/BR(B_u -> tau nu)_SM
   12    5.41654581E-01   # |Delta(M_Bd)| [ps^-1] 
   13    1.93536181E+01   # |Delta(M_Bs)| [ps^-1] 
   16    2.15553267E-03   # epsilon_K
   17    2.28163966E-15   # Delta(M_K)
   18    2.48244994E-11   # BR(K^0 -> pi^0 nu nu)
   19    8.29641771E-11   # BR(K^+ -> pi^+ nu nu)
   20    1.87155359E-15   # Delta(g-2)_electron/2
   21    8.00155261E-11   # Delta(g-2)_muon/2
   22    2.26902035E-08   # Delta(g-2)_tau/2
   23    0.00000000E+00   # electric dipole moment of the electron
   24    0.00000000E+00   # electric dipole moment of the muon
   25    0.00000000E+00   # electric dipole moment of the tau
   26    0.00000000E+00   # Br(mu -> e gamma)
   27    0.00000000E+00   # Br(tau -> e gamma)
   28    0.00000000E+00   # Br(tau -> mu gamma)
   29    0.00000000E+00   # Br(mu -> 3 e)
   30    0.00000000E+00   # Br(tau -> 3 e)
   31    0.00000000E+00   # Br(tau -> 3 mu)
   39   -2.76593845E-05   # Delta(rho_parameter)
   40    0.00000000E+00   # BR(Z -> e mu)
   41    0.00000000E+00   # BR(Z -> e tau)
   42    0.00000000E+00   # BR(Z -> mu tau)
Block FWCOEF Q=  1.60000000E+02  # Wilson coefficients at scale Q
#    id        order  M        value         comment
     0305 4422   00   0    -1.88856943E-01   # C7
     0305 4422   00   2    -1.99209225E-01   # C7
     0305 4322   00   2    -2.06521588E-04   # C7'
     0305 6421   00   0    -9.52398600E-02   # C8
     0305 6421   00   2    -1.09081633E-01   # C8
     0305 6321   00   2    -2.73764827E-04   # C8'
 03051111 4133   00   0     1.17774204E+00   # C9 e+e-
 03051111 4133   00   2     1.17818507E+00   # C9 e+e-
 03051111 4233   00   2    -2.05298956E-07   # C9' e+e-
 03051111 4137   00   0    -4.00234506E+00   # C10 e+e-
 03051111 4137   00   2    -4.00187261E+00   # C10 e+e-
 03051111 4237   00   2     5.53304982E-06   # C10' e+e-
 03051313 4133   00   0     1.17774204E+00   # C9 mu+mu-
 03051313 4133   00   2     1.17818499E+00   # C9 mu+mu-
 03051313 4233   00   2    -2.05308035E-07   # C9' mu+mu-
 03051313 4137   00   0    -4.00234506E+00   # C10 mu+mu-
 03051313 4137   00   2    -4.00187269E+00   # C10 mu+mu-
 03051313 4237   00   2     5.53305532E-06   # C10' mu+mu-
 03051212 4137   00   0     1.50589589E+00   # C11 nu_1 nu_1
 03051212 4137   00   2     1.50578534E+00   # C11 nu_1 nu_1
 03051212 4237   00   2    -1.33075281E-06   # C11' nu_1 nu_1
 03051414 4137   00   0     1.50589589E+00   # C11 nu_2 nu_2
 03051414 4137   00   2     1.50578534E+00   # C11 nu_2 nu_2
 03051414 4237   00   2    -1.33075086E-06   # C11' nu_2 nu_2
 03051616 4137   00   0     1.50589589E+00   # C11 nu_3 nu_3
 03051616 4137   00   2     1.50578534E+00   # C11 nu_3 nu_3
 03051616 4237   00   2    -1.33020291E-06   # C11' nu_3 nu_3
Block IMFWCOEF Q=  1.60000000E+02  # Im(Wilson coefficients) at scale Q
#    id        order  M        value         comment
     0305 4422   00   0     3.86074342E-07   # C7
     0305 4422   00   2     1.86968656E-06   # C7
     0305 4322   00   2     3.74786658E-07   # C7'
     0305 6421   00   0     3.30698083E-07   # C8
     0305 6421   00   2     3.87523296E-07   # C8
     0305 6321   00   2     1.43186059E-07   # C8'
 03051111 4133   00   2     1.49723042E-08   # C9 e+e-
 03051111 4233   00   2     2.45108575E-08   # C9' e+e-
 03051111 4137   00   2    -9.33348557E-07   # C10 e+e-
 03051111 4237   00   2    -6.43402095E-07   # C10' e+e-
 03051313 4133   00   2     1.49716763E-08   # C9 mu+mu-
 03051313 4233   00   2     2.45108402E-08   # C9' mu+mu-
 03051313 4137   00   2    -9.33348790E-07   # C10 mu+mu-
 03051313 4237   00   2    -6.43402142E-07   # C10' mu+mu-
 03051212 4137   00   2     2.78830587E-07   # C11 nu_1 nu_1
 03051212 4237   00   2     1.54744637E-07   # C11' nu_1 nu_1
 03051414 4137   00   2     2.78830568E-07   # C11 nu_2 nu_2
 03051414 4237   00   2     1.54744637E-07   # C11' nu_2 nu_2
 03051616 4137   00   2     2.78825407E-07   # C11 nu_3 nu_3
 03051616 4237   00   2     1.54744637E-07   # C11' nu_3 nu_3
