#
#                              ======================
#                              | THE SUSYHIT OUTPUT |
#                              ======================
#
#
#              ------------------------------------------------------
#              |     This is the output of the SUSY-HIT package     |
#              |  created by A.Djouadi, M.Muehlleitner and M.Spira. |
#              |  In case of problems with SUSY-HIT email to        |
#              |           margarete.muehlleitner@kit.edu           |
#              |           michael.spira@psi.ch                     |
#              |           abdelhak.djouadi@cern.ch                 |
#              ------------------------------------------------------
#
#              ------------------------------------------------------
#              |  SUSY Les Houches Accord - MSSM Spectrum + Decays  |
#              |              based on the decay programs           |
#              |                                                    |
#              |                     SDECAY 1.5                     |
#              |                                                    |
#              |  Authors: M.Muhlleitner, A.Djouadi and Y.Mambrini  |
#              |  Ref.:    Comput.Phys.Commun.168(2005)46           |
#              |           [hep-ph/0311167]                         |
#              |                                                    |
#              |                     HDECAY 3.4                     |
#              |                                                    |
#              |  By: A.Djouadi,J.Kalinowski,M.Muhlleitner,M.Spira  |
#              |  Ref.:    Comput.Phys.Commun.108(1998)56           |
#              |           [hep-ph/9704448]                         |
#              |                                                    |
#              |                                                    |
#              |  If not stated otherwise all DRbar couplings and   |
#              |  soft SUSY breaking masses are given at the scale  |
#              |  Q=  0.12002882E+04
#              |                                                    |
#              ------------------------------------------------------
#
#
BLOCK DCINFO  # Decay Program information
     1   SDECAY/HDECAY # decay calculator
     2   1.5  /3.4    # version number
#
BLOCK SPINFO  # Spectrum calculator information
     1    SOFTSUSY    # spectrum calculator                
     2    3.7.3       # version number                     
#
BLOCK MODSEL  # Model selection
     1     0   #  nonUniversal                                     
#
BLOCK SMINPUTS  # Standard Model inputs
         1     1.27934000E+02   # alpha_em^-1(M_Z)^MSbar
         2     1.16639000E-05   # G_F [GeV^-2]
         3     1.17200000E-01   # alpha_S(M_Z)^MSbar
         4     9.11870000E+01   # M_Z pole mass
         5     4.19000000E+00   # mb(mb)^MSbar
         6     1.72500000E+02   # mt pole mass
         7     1.77690000E+00   # mtau pole mass
#
BLOCK MINPAR  # Input parameters - minimal models
         3     2.00000000E+01   # tanb                
#
BLOCK EXTPAR  # Input parameters - non-minimal models
         0    -1.00000000E+00   # Set                 
         1     1.59990000E+02   # M_1(MX)             
         2     2.00000000E+03   # M_2(MX)             
         3     1.80000000E+03   # M_3(MX)             
        11     2.54959179E+03   # At(MX)              
        12     0.00000000E+00   # Ab(MX)              
        13     0.00000000E+00   # Atau(MX)            
        23    -1.85900000E+02   # mu(MX)              
        25     2.00000000E+01   # tan                 
        26     4.00000000E+03   # mA(pole)            
        31     4.00000000E+03   # meL(MX)             
        32     4.00000000E+03   # mmuL(MX)            
        33     4.00000000E+03   # mtauL(MX)           
        34     4.00000000E+03   # meR(MX)             
        35     4.00000000E+03   # mmuR(MX)            
        36     4.00000000E+03   # mtauR(MX)           
        41     4.00000000E+03   # mqL1(MX)            
        42     4.00000000E+03   # mqL2(MX)            
        43     7.09900000E+02   # mqL3(MX)            
        44     4.00000000E+03   # muR(MX)             
        45     4.00000000E+03   # mcR(MX)             
        46     2.05485961E+03   # mtR(MX)             
        47     4.00000000E+03   # mdR(MX)             
        48     4.00000000E+03   # msR(MX)             
        49     4.00000000E+03   # mbR(MX)             
#
BLOCK MASS  # Mass Spectrum
# PDG code           mass       particle
        24     8.04165726E+01   # W+
        25     1.25665878E+02   # h
        35     4.00000334E+03   # H
        36     3.99999633E+03   # A
        37     4.00104601E+03   # H+
         5     4.81337004E+00   # b-quark pole mass calculated from mb(mb)_Msbar
   1000001     4.02302692E+03   # ~d_L
   2000001     4.02024707E+03   # ~d_R
   1000002     4.02237182E+03   # ~u_L
   2000002     4.02126061E+03   # ~u_R
   1000003     4.02302692E+03   # ~s_L
   2000003     4.02024707E+03   # ~s_R
   1000004     4.02237182E+03   # ~c_L
   2000004     4.02126061E+03   # ~c_R
   1000005     7.70591587E+02   # ~b_1
   2000005     4.02375846E+03   # ~b_2
   1000006     7.54908547E+02   # ~t_1
   2000006     2.07081685E+03   # ~t_2
   1000011     4.00407110E+03   # ~e_L
   2000011     4.00322794E+03   # ~e_R
   1000012     4.00295445E+03   # ~nu_eL
   1000013     4.00407110E+03   # ~mu_L
   2000013     4.00322794E+03   # ~mu_R
   1000014     4.00295445E+03   # ~nu_muL
   1000015     4.00526492E+03   # ~tau_1
   2000015     4.00712860E+03   # ~tau_2
   1000016     4.00465509E+03   # ~nu_tauL
   1000021     1.97470728E+03   # ~g
   1000022     1.46161750E+02   # ~chi_10
   1000023    -1.95825896E+02   # ~chi_20
   1000025     2.09517652E+02   # ~chi_30
   1000035     2.05347091E+03   # ~chi_40
   1000024     1.92075982E+02   # ~chi_1+
   1000037     2.05363583E+03   # ~chi_2+
#
BLOCK NMIX  # Neutralino Mixing Matrix
  1  1     8.15351215E-01   # N_11
  1  2    -1.34693075E-02   # N_12
  1  3    -4.64063897E-01   # N_13
  1  4    -3.45927266E-01   # N_14
  2  1    -9.37783887E-02   # N_21
  2  2     2.64114606E-02   # N_22
  2  3    -6.95903745E-01   # N_23
  2  4     7.11495626E-01   # N_24
  3  1     5.71320533E-01   # N_31
  3  2     2.51780628E-02   # N_32
  3  3     5.48050988E-01   # N_33
  3  4     6.10408903E-01   # N_34
  4  1    -9.26404852E-04   # N_41
  4  2     9.99243252E-01   # N_42
  4  3    -1.67091161E-03   # N_43
  4  4    -3.88493523E-02   # N_44
#
BLOCK UMIX  # Chargino Mixing Matrix U
  1  1     2.36772497E-03   # U_11
  1  2     9.99997197E-01   # U_12
  2  1    -9.99997197E-01   # U_21
  2  2     2.36772497E-03   # U_22
#
BLOCK VMIX  # Chargino Mixing Matrix V
  1  1     5.49541567E-02   # V_11
  1  2    -9.98488879E-01   # V_12
  2  1    -9.98488879E-01   # V_21
  2  2    -5.49541567E-02   # V_22
#
BLOCK STOPMIX  # Stop Mixing Matrix
  1  1     9.94847965E-01   # cos(theta_t)
  1  2    -1.01378136E-01   # sin(theta_t)
  2  1     1.01378136E-01   # -sin(theta_t)
  2  2     9.94847965E-01   # cos(theta_t)
#
BLOCK SBOTMIX  # Sbottom Mixing Matrix
  1  1     9.99999831E-01   # cos(theta_b)
  1  2    -5.81377650E-04   # sin(theta_b)
  2  1     5.81377650E-04   # -sin(theta_b)
  2  2     9.99999831E-01   # cos(theta_b)
#
BLOCK STAUMIX  # Stau Mixing Matrix
  1  1    -7.04531300E-01   # cos(theta_tau)
  1  2     7.09672916E-01   # sin(theta_tau)
  2  1    -7.09672916E-01   # -sin(theta_tau)
  2  2    -7.04531300E-01   # cos(theta_tau)
#
BLOCK ALPHA  # Higgs mixing
          -5.00308885E-02   # Mixing angle in the neutral Higgs boson sector
#
BLOCK HMIX Q=  1.20028825E+03  # DRbar Higgs Parameters
         1    -1.85900000E+02   # mu(Q)MSSM           
         2     2.00000000E+01   # tan                 
         3     2.43784332E+02   # higgs               
         4     1.61173379E+07   # mA^2(Q)MSSM         
#
BLOCK GAUGE Q=  1.20028825E+03  # The gauge couplings
     1     3.61782747E-01   # gprime(Q) DRbar
     2     6.36789307E-01   # g(Q) DRbar
     3     1.03202380E+00   # g3(Q) DRbar
#
BLOCK AU Q=  1.20028825E+03  # The trilinear couplings
  1  1     0.00000000E+00   # A_u(Q) DRbar
  2  2     1.14583731E-06   # A_c(Q) DRbar
  3  3     2.54959179E+03   # A_t(Q) DRbar
#
BLOCK AD Q=  1.20028825E+03  # The trilinear couplings
  1  1     4.19854815E-07   # A_d(Q) DRbar
  2  2     4.19894470E-07   # A_s(Q) DRbar
  3  3     7.51866082E-07   # A_b(Q) DRbar
#
BLOCK AE Q=  1.20028825E+03  # The trilinear couplings
  1  1     0.00000000E+00   # A_e(Q) DRbar
  2  2     9.06990145E-08   # A_mu(Q) DRbar
  3  3     9.16256562E-08   # A_tau(Q) DRbar
#
BLOCK Yu Q=  1.20028825E+03  # The Yukawa couplings
  1  1     0.00000000E+00   # y_u(Q) DRbar
  2  2     0.00000000E+00   # y_c(Q) DRbar
  3  3     8.69460115E-01   # y_t(Q) DRbar
#
BLOCK Yd Q=  1.20028825E+03  # The Yukawa couplings
  1  1     0.00000000E+00   # y_d(Q) DRbar
  2  2     0.00000000E+00   # y_s(Q) DRbar
  3  3     2.81397767E-01   # y_b(Q) DRbar
#
BLOCK Ye Q=  1.20028825E+03  # The Yukawa couplings
  1  1     0.00000000E+00   # y_e(Q) DRbar
  2  2     0.00000000E+00   # y_mu(Q) DRbar
  3  3     2.03913312E-01   # y_tau(Q) DRbar
#
BLOCK MSOFT Q=  1.20028825E+03  # The soft SUSY breaking masses at the scale Q
         1     1.59990000E+02   # M_1(Q)              
         2     2.00000000E+03   # M_2(Q)              
         3     1.80000000E+03   # M_3(Q)              
        21     1.58500274E+07   # M^2_Hd              
        22    -2.75179326E+04   # M^2_Hu              
        31     4.00000000E+03   # M_eL                
        32     4.00000000E+03   # M_muL               
        33     4.00000000E+03   # M_tauL              
        34     4.00000000E+03   # M_eR                
        35     4.00000000E+03   # M_muR               
        36     4.00000000E+03   # M_tauR              
        41     4.00000000E+03   # M_q1L               
        42     4.00000000E+03   # M_q2L               
        43     7.09899997E+02   # M_q3L               
        44     4.00000000E+03   # M_uR                
        45     4.00000000E+03   # M_cR                
        46     2.05485961E+03   # M_tR                
        47     4.00000000E+03   # M_dR                
        48     4.00000000E+03   # M_sR                
        49     4.00000000E+03   # M_bR                
#
#
#
#                             =================
#                             |The decay table|
#                             =================
#
# - The QCD corrections to the decays gluino -> squark  + quark
#                                     squark -> gaugino + quark_prime
#                                     squark -> squark_prime + Higgs
#                                     squark -> gluino  + quark
#   are included.
#
# - The multi-body decays for the inos, stops and sbottoms are included.
#
# - The loop induced decays for the gluino, neutralinos and stops
#   are included.
#
# - The SUSY decays of the top quark are included.
#
#
#         PDG            Width
DECAY         6     1.40684395E+00   # top decays
#          BR         NDA      ID1       ID2
     1.00000000E+00    2           5        24   # BR(t ->  b    W+)
#
#         PDG            Width
DECAY   1000021     6.05964653E+01   # gluino decays
#          BR         NDA      ID1       ID2
     2.43914025E-01    2     1000005        -5   # BR(~g -> ~b_1  bb)
     2.43914025E-01    2    -1000005         5   # BR(~g -> ~b_1* b )
     2.56085975E-01    2     1000006        -6   # BR(~g -> ~t_1  tb)
     2.56085975E-01    2    -1000006         6   # BR(~g -> ~t_1* t )
#
#         PDG            Width
DECAY   1000006     9.83690039E+00   # stop1 decays
#          BR         NDA      ID1       ID2
     1.10601662E-01    2     1000022         6   # BR(~t_1 -> ~chi_10 t )
     4.37719323E-01    2     1000023         6   # BR(~t_1 -> ~chi_20 t )
     3.46179137E-01    2     1000025         6   # BR(~t_1 -> ~chi_30 t )
     1.05499878E-01    2     1000024         5   # BR(~t_1 -> ~chi_1+ b )
#
#         PDG            Width
DECAY   2000006     1.23281880E+02   # stop2 decays
#          BR         NDA      ID1       ID2
     5.54474539E-02    2     1000022         6   # BR(~t_2 -> ~chi_10 t )
     1.21050610E-01    2     1000023         6   # BR(~t_2 -> ~chi_20 t )
     9.54646351E-02    2     1000025         6   # BR(~t_2 -> ~chi_30 t )
     2.36637210E-01    2     1000024         5   # BR(~t_2 -> ~chi_1+ b )
     2.05844090E-08    2     1000037         5   # BR(~t_2 -> ~chi_2+ b )
     1.55593253E-01    2     1000006        25   # BR(~t_2 -> ~t_1    h )
     1.09166286E-01    2     1000006        23   # BR(~t_2 -> ~t_1    Z )
     2.26640531E-01    2     1000005        24   # BR(~t_2 -> ~b_1    W+)
#
#         PDG            Width
DECAY   1000005     1.02690381E+01   # sbottom1 decays
#          BR         NDA      ID1       ID2
     3.13417319E-02    2     1000022         5   # BR(~b_1 -> ~chi_10 b )
     4.94270320E-02    2     1000023         5   # BR(~b_1 -> ~chi_20 b )
     3.14791825E-02    2     1000025         5   # BR(~b_1 -> ~chi_30 b )
     8.87752054E-01    2    -1000024         6   # BR(~b_1 -> ~chi_1- t )
#
#         PDG            Width
DECAY   2000005     1.66618846E+02   # sbottom2 decays
#          BR         NDA      ID1       ID2
     1.66511633E-02    2     1000022         5   # BR(~b_2 -> ~chi_10 b )
     1.74875238E-02    2     1000023         5   # BR(~b_2 -> ~chi_20 b )
     1.51434491E-02    2     1000025         5   # BR(~b_2 -> ~chi_30 b )
     1.29751040E-07    2     1000035         5   # BR(~b_2 -> ~chi_40 b )
     3.57655569E-02    2    -1000024         6   # BR(~b_2 -> ~chi_1- t )
     2.47003280E-07    2    -1000037         6   # BR(~b_2 -> ~chi_2- t )
     9.14793813E-01    2     1000021         5   # BR(~b_2 -> ~g      b )
     3.67699824E-05    2     1000005        25   # BR(~b_2 -> ~b_1    h )
     4.50650320E-05    2     1000005        23   # BR(~b_2 -> ~b_1    Z )
     7.60382291E-05    2     1000006       -24   # BR(~b_2 -> ~t_1    W-)
     2.43557180E-07    2     2000006       -24   # BR(~b_2 -> ~t_2    W-)
#
#         PDG            Width
DECAY   1000002     1.78712189E+02   # sup_L decays
#          BR         NDA      ID1       ID2
     1.73258027E-03    2     1000022         2   # BR(~u_L -> ~chi_10 u)
     6.51644303E-06    2     1000023         2   # BR(~u_L -> ~chi_20 u)
     1.54760364E-03    2     1000025         2   # BR(~u_L -> ~chi_30 u)
     4.79960653E-02    2     1000035         2   # BR(~u_L -> ~chi_40 u)
     5.25891629E-04    2     1000024         1   # BR(~u_L -> ~chi_1+ d)
     9.58701347E-02    2     1000037         1   # BR(~u_L -> ~chi_2+ d)
     8.52321208E-01    2     1000021         2   # BR(~u_L -> ~g      u)
#
#         PDG            Width
DECAY   2000002     1.61159071E+02   # sup_R decays
#          BR         NDA      ID1       ID2
     3.68865369E-02    2     1000022         2   # BR(~u_R -> ~chi_10 u)
     4.87030949E-04    2     1000023         2   # BR(~u_R -> ~chi_20 u)
     1.80648803E-02    2     1000025         2   # BR(~u_R -> ~chi_30 u)
     2.62427555E-08    2     1000035         2   # BR(~u_R -> ~chi_40 u)
     9.44561526E-01    2     1000021         2   # BR(~u_R -> ~g      u)
#
#         PDG            Width
DECAY   1000001     1.78732171E+02   # sdown_L decays
#          BR         NDA      ID1       ID2
     2.45832181E-03    2     1000022         1   # BR(~d_L -> ~chi_10 d)
     1.69860911E-04    2     1000023         1   # BR(~d_L -> ~chi_20 d)
     5.99631674E-04    2     1000025         1   # BR(~d_L -> ~chi_30 d)
     4.80432471E-02    2     1000035         1   # BR(~d_L -> ~chi_40 d)
     9.76296640E-07    2    -1000024         2   # BR(~d_L -> ~chi_1- u)
     9.61869543E-02    2    -1000037         2   # BR(~d_L -> ~chi_2- u)
     8.52541008E-01    2     1000021         1   # BR(~d_L -> ~g      d)
#
#         PDG            Width
DECAY   2000001     1.54370544E+02   # sdown_R decays
#          BR         NDA      ID1       ID2
     9.62467517E-03    2     1000022         1   # BR(~d_R -> ~chi_10 d)
     1.27079163E-04    2     1000023         1   # BR(~d_R -> ~chi_20 d)
     4.71360011E-03    2     1000025         1   # BR(~d_R -> ~chi_30 d)
     6.84504015E-09    2     1000035         1   # BR(~d_R -> ~chi_40 d)
     9.85534639E-01    2     1000021         1   # BR(~d_R -> ~g      d)
#
#         PDG            Width
DECAY   1000004     1.78712189E+02   # scharm_L decays
#          BR         NDA      ID1       ID2
     1.73258027E-03    2     1000022         4   # BR(~c_L -> ~chi_10 c)
     6.51644303E-06    2     1000023         4   # BR(~c_L -> ~chi_20 c)
     1.54760364E-03    2     1000025         4   # BR(~c_L -> ~chi_30 c)
     4.79960653E-02    2     1000035         4   # BR(~c_L -> ~chi_40 c)
     5.25891629E-04    2     1000024         3   # BR(~c_L -> ~chi_1+ s)
     9.58701347E-02    2     1000037         3   # BR(~c_L -> ~chi_2+ s)
     8.52321208E-01    2     1000021         4   # BR(~c_L -> ~g      c)
#
#         PDG            Width
DECAY   2000004     1.61159071E+02   # scharm_R decays
#          BR         NDA      ID1       ID2
     3.68865369E-02    2     1000022         4   # BR(~c_R -> ~chi_10 c)
     4.87030949E-04    2     1000023         4   # BR(~c_R -> ~chi_20 c)
     1.80648803E-02    2     1000025         4   # BR(~c_R -> ~chi_30 c)
     2.62427555E-08    2     1000035         4   # BR(~c_R -> ~chi_40 c)
     9.44561526E-01    2     1000021         4   # BR(~c_R -> ~g      c)
#
#         PDG            Width
DECAY   1000003     1.78732171E+02   # sstrange_L decays
#          BR         NDA      ID1       ID2
     2.45832181E-03    2     1000022         3   # BR(~s_L -> ~chi_10 s)
     1.69860911E-04    2     1000023         3   # BR(~s_L -> ~chi_20 s)
     5.99631674E-04    2     1000025         3   # BR(~s_L -> ~chi_30 s)
     4.80432471E-02    2     1000035         3   # BR(~s_L -> ~chi_40 s)
     9.76296640E-07    2    -1000024         4   # BR(~s_L -> ~chi_1- c)
     9.61869543E-02    2    -1000037         4   # BR(~s_L -> ~chi_2- c)
     8.52541008E-01    2     1000021         3   # BR(~s_L -> ~g      s)
#
#         PDG            Width
DECAY   2000003     1.54370544E+02   # sstrange_R decays
#          BR         NDA      ID1       ID2
     9.62467517E-03    2     1000022         3   # BR(~s_R -> ~chi_10 s)
     1.27079163E-04    2     1000023         3   # BR(~s_R -> ~chi_20 s)
     4.71360011E-03    2     1000025         3   # BR(~s_R -> ~chi_30 s)
     6.84504015E-09    2     1000035         3   # BR(~s_R -> ~chi_40 s)
     9.85534639E-01    2     1000021         3   # BR(~s_R -> ~g      s)
#
#         PDG            Width
DECAY   1000011     3.15275862E+01   # selectron_L decays
#          BR         NDA      ID1       ID2
     1.03349373E-01    2     1000022        11   # BR(~e_L -> ~chi_10 e-)
     3.68021923E-04    2     1000023        11   # BR(~e_L -> ~chi_20 e-)
     6.23269090E-02    2     1000025        11   # BR(~e_L -> ~chi_30 e-)
     2.77529929E-01    2     1000035        11   # BR(~e_L -> ~chi_40 e-)
     5.71734224E-06    2    -1000024        12   # BR(~e_L -> ~chi_1- nu_e)
     5.56420049E-01    2    -1000037        12   # BR(~e_L -> ~chi_2- nu_e)
#
#         PDG            Width
DECAY   2000011     2.07730443E+01   # selectron_R decays
#          BR         NDA      ID1       ID2
     6.65421481E-01    2     1000022        11   # BR(~e_R -> ~chi_10 e-)
     8.78396580E-03    2     1000023        11   # BR(~e_R -> ~chi_20 e-)
     3.25794086E-01    2     1000025        11   # BR(~e_R -> ~chi_30 e-)
     4.67691345E-07    2     1000035        11   # BR(~e_R -> ~chi_40 e-)
#
#         PDG            Width
DECAY   1000013     3.15275862E+01   # smuon_L decays
#          BR         NDA      ID1       ID2
     1.03349373E-01    2     1000022        13   # BR(~mu_L -> ~chi_10 mu-)
     3.68021923E-04    2     1000023        13   # BR(~mu_L -> ~chi_20 mu-)
     6.23269090E-02    2     1000025        13   # BR(~mu_L -> ~chi_30 mu-)
     2.77529929E-01    2     1000035        13   # BR(~mu_L -> ~chi_40 mu-)
     5.71734224E-06    2    -1000024        14   # BR(~mu_L -> ~chi_1- nu_mu)
     5.56420049E-01    2    -1000037        14   # BR(~mu_L -> ~chi_2- nu_mu)
#
#         PDG            Width
DECAY   2000013     2.07730443E+01   # smuon_R decays
#          BR         NDA      ID1       ID2
     6.65421481E-01    2     1000022        13   # BR(~mu_R -> ~chi_10 mu-)
     8.78396580E-03    2     1000023        13   # BR(~mu_R -> ~chi_20 mu-)
     3.25794086E-01    2     1000025        13   # BR(~mu_R -> ~chi_30 mu-)
     4.67691345E-07    2     1000035        13   # BR(~mu_R -> ~chi_40 mu-)
#
#         PDG            Width
DECAY   1000015     3.11064980E+01   # stau_1 decays
#          BR         NDA      ID1       ID2
     3.50687708E-01    2     1000022        15   # BR(~tau_1 -> ~chi_10  tau-)
     4.14945055E-02    2     1000023        15   # BR(~tau_1 -> ~chi_20  tau-)
     1.34424840E-01    2     1000025        15   # BR(~tau_1 -> ~chi_30  tau-)
     1.39508590E-01    2     1000035        15   # BR(~tau_1 -> ~chi_40  tau-)
     5.41836404E-02    2    -1000024        16   # BR(~tau_1 -> ~chi_1-  nu_tau)
     2.79700716E-01    2    -1000037        16   # BR(~tau_1 -> ~chi_2-  nu_tau)
#
#         PDG            Width
DECAY   2000015     3.11432137E+01   # stau_2 decays
#          BR         NDA      ID1       ID2
     2.44273755E-01    2     1000022        15   # BR(~tau_2 -> ~chi_10  tau-)
     6.73725783E-02    2     1000023        15   # BR(~tau_2 -> ~chi_20  tau-)
     2.09925276E-01    2     1000025        15   # BR(~tau_2 -> ~chi_30  tau-)
     1.41974720E-01    2     1000035        15   # BR(~tau_2 -> ~chi_40  tau-)
     5.18081208E-02    2    -1000024        16   # BR(~tau_2 -> ~chi_1-  nu_tau)
     2.84645550E-01    2    -1000037        16   # BR(~tau_2 -> ~chi_2-  nu_tau)
#
#         PDG            Width
DECAY   1000012     3.15382182E+01   # snu_eL decays
#          BR         NDA      ID1       ID2
     1.16028764E-01    2     1000022        12   # BR(~nu_eL -> ~chi_10 nu_e)
     3.23567600E-03    2     1000023        12   # BR(~nu_eL -> ~chi_20 nu_e)
     4.56439909E-02    2     1000025        12   # BR(~nu_eL -> ~chi_30 nu_e)
     2.77833296E-01    2     1000035        12   # BR(~nu_eL -> ~chi_40 nu_e)
     3.07796796E-03    2     1000024        11   # BR(~nu_eL -> ~chi_1+ e-)
     5.54180305E-01    2     1000037        11   # BR(~nu_eL -> ~chi_2+ e-)
#
#         PDG            Width
DECAY   1000014     3.15382182E+01   # snu_muL decays
#          BR         NDA      ID1       ID2
     1.16028764E-01    2     1000022        14   # BR(~nu_muL -> ~chi_10 nu_mu)
     3.23567600E-03    2     1000023        14   # BR(~nu_muL -> ~chi_20 nu_mu)
     4.56439909E-02    2     1000025        14   # BR(~nu_muL -> ~chi_30 nu_mu)
     2.77833296E-01    2     1000035        14   # BR(~nu_muL -> ~chi_40 nu_mu)
     3.07796796E-03    2     1000024        13   # BR(~nu_muL -> ~chi_1+ mu-)
     5.54180305E-01    2     1000037        13   # BR(~nu_muL -> ~chi_2+ mu-)
#
#         PDG            Width
DECAY   1000016     3.48650783E+01   # snu_tauL decays
#          BR         NDA      ID1       ID2
     1.05002014E-01    2     1000022        16   # BR(~nu_tauL -> ~chi_10 nu_tau)
     2.92818003E-03    2     1000023        16   # BR(~nu_tauL -> ~chi_20 nu_tau)
     4.13063305E-02    2     1000025        16   # BR(~nu_tauL -> ~chi_30 nu_tau)
     2.51581467E-01    2     1000035        16   # BR(~nu_tauL -> ~chi_40 nu_tau)
     9.73654048E-02    2     1000024        15   # BR(~nu_tauL -> ~chi_1+ tau-)
     5.01816604E-01    2     1000037        15   # BR(~nu_tauL -> ~chi_2+ tau-)
#
#         PDG            Width
DECAY   1000024     7.28660919E-05   # chargino1+ decays
#           BR         NDA      ID1       ID2       ID3
     3.33602981E-01    3     1000022         2        -1   # BR(~chi_1+ -> ~chi_10 u    db)
     3.33602981E-01    3     1000022         4        -3   # BR(~chi_1+ -> ~chi_10 c    sb)
     1.11202054E-01    3     1000022       -11        12   # BR(~chi_1+ -> ~chi_10 e+   nu_e)
     1.11202054E-01    3     1000022       -13        14   # BR(~chi_1+ -> ~chi_10 mu+  nu_mu)
     1.10389931E-01    3     1000022       -15        16   # BR(~chi_1+ -> ~chi_10 tau+ nu_tau)
#
#         PDG            Width
DECAY   1000037     5.88368629E+01   # chargino2+ decays
#          BR         NDA      ID1       ID2
     3.70097761E-01    2     1000006        -5   # BR(~chi_2+ -> ~t_1     bb)
     3.56995719E-01    2    -1000005         6   # BR(~chi_2+ -> ~b_1*    t )
     6.93704148E-02    2     1000024        23   # BR(~chi_2+ -> ~chi_1+  Z )
     1.45674463E-02    2     1000022        24   # BR(~chi_2+ -> ~chi_10  W+)
     6.80751277E-02    2     1000023        24   # BR(~chi_2+ -> ~chi_20  W+)
     5.25436795E-02    2     1000025        24   # BR(~chi_2+ -> ~chi_30  W+)
     6.83498519E-02    2     1000024        25   # BR(~chi_2+ -> ~chi_1+  h )
#
#         PDG            Width
DECAY   1000022     0.00000000E+00   # neutralino1 decays
#
#         PDG            Width
DECAY   1000023     7.94491880E-05   # neutralino2 decays
#          BR         NDA      ID1       ID2
     1.18452560E-03    2     1000022        22   # BR(~chi_20 -> ~chi_10 gam)
#           BR         NDA      ID1       ID2       ID3
     1.18120950E-01    3     1000022        -2         2   # BR(~chi_20 -> ~chi_10 ub      u)
     1.53186422E-01    3     1000022        -1         1   # BR(~chi_20 -> ~chi_10 db      d)
     1.18120950E-01    3     1000022        -4         4   # BR(~chi_20 -> ~chi_10 cb      c)
     1.53186422E-01    3     1000022        -3         3   # BR(~chi_20 -> ~chi_10 sb      s)
     1.40648681E-01    3     1000022        -5         5   # BR(~chi_20 -> ~chi_10 bb      b)
     3.51065143E-02    3     1000022       -11        11   # BR(~chi_20 -> ~chi_10 e+      e-)
     3.51065143E-02    3     1000022       -13        13   # BR(~chi_20 -> ~chi_10 mu+     mu-)
     3.47621383E-02    3     1000022       -15        15   # BR(~chi_20 -> ~chi_10 tau+    tau-)
     7.01856843E-02    3     1000022       -12        12   # BR(~chi_20 -> ~chi_10 nu_eb   nu_e)
     7.01856843E-02    3     1000022       -14        14   # BR(~chi_20 -> ~chi_10 nu_mub  nu_mu)
     7.01856815E-02    3     1000022       -16        16   # BR(~chi_20 -> ~chi_10 nu_taub nu_tau)
     3.56923845E-06    3     1000024        -2         1   # BR(~chi_20 -> ~chi_1+ ub      d)
     3.56923845E-06    3    -1000024        -1         2   # BR(~chi_20 -> ~chi_1- db      u)
     3.56923845E-06    3     1000024        -4         3   # BR(~chi_20 -> ~chi_1+ cb      s)
     3.56923845E-06    3    -1000024        -3         4   # BR(~chi_20 -> ~chi_1- sb      c)
     1.18974818E-06    3     1000024       -12        11   # BR(~chi_20 -> ~chi_1+ nu_eb   e-)
     1.18974818E-06    3    -1000024        12       -11   # BR(~chi_20 -> ~chi_1- nu_e    e+)
     1.18974818E-06    3     1000024       -14        13   # BR(~chi_20 -> ~chi_1+ nu_mub  mu-)
     1.18974818E-06    3    -1000024        14       -13   # BR(~chi_20 -> ~chi_1- nu_mu   mu+)
     3.97851507E-07    3     1000024       -16        15   # BR(~chi_20 -> ~chi_1+ nu_taub tau-)
     3.97851507E-07    3    -1000024        16       -15   # BR(~chi_20 -> ~chi_1- nu_tau  tau+)
#
#         PDG            Width
DECAY   1000025     9.71200261E-06   # neutralino3 decays
#          BR         NDA      ID1       ID2
     2.69042046E-02    2     1000022        22   # BR(~chi_30 -> ~chi_10 gam)
     6.24775510E-02    2     1000023        22   # BR(~chi_30 -> ~chi_20 gam)
#           BR         NDA      ID1       ID2       ID3
     7.58400636E-02    3     1000022        -2         2   # BR(~chi_30 -> ~chi_10 ub      u)
     9.80887613E-02    3     1000022        -1         1   # BR(~chi_30 -> ~chi_10 db      d)
     7.58400636E-02    3     1000022        -4         4   # BR(~chi_30 -> ~chi_10 cb      c)
     9.80887613E-02    3     1000022        -3         3   # BR(~chi_30 -> ~chi_10 sb      s)
     9.26614692E-02    3     1000022        -5         5   # BR(~chi_30 -> ~chi_10 bb      b)
     2.22692288E-02    3     1000022       -11        11   # BR(~chi_30 -> ~chi_10 e+      e-)
     2.22692288E-02    3     1000022       -13        13   # BR(~chi_30 -> ~chi_10 mu+     mu-)
     2.21016722E-02    3     1000022       -15        15   # BR(~chi_30 -> ~chi_10 tau+    tau-)
     4.50421683E-02    3     1000022       -12        12   # BR(~chi_30 -> ~chi_10 nu_eb   nu_e)
     4.50421683E-02    3     1000022       -14        14   # BR(~chi_30 -> ~chi_10 nu_mub  nu_mu)
     4.50420958E-02    3     1000022       -16        16   # BR(~chi_30 -> ~chi_10 nu_taub nu_tau)
     3.55771165E-03    3     1000023        -2         2   # BR(~chi_30 -> ~chi_20 ub      u)
     4.61415445E-03    3     1000023        -1         1   # BR(~chi_30 -> ~chi_20 db      d)
     3.55771165E-03    3     1000023        -4         4   # BR(~chi_30 -> ~chi_20 cb      c)
     4.61415445E-03    3     1000023        -3         3   # BR(~chi_30 -> ~chi_20 sb      s)
     1.17731772E-03    3     1000023        -5         5   # BR(~chi_30 -> ~chi_20 bb      b)
     1.05765077E-03    3     1000023       -11        11   # BR(~chi_30 -> ~chi_20 e+      e-)
     1.05765077E-03    3     1000023       -13        13   # BR(~chi_30 -> ~chi_20 mu+     mu-)
     9.59311017E-04    3     1000023       -15        15   # BR(~chi_30 -> ~chi_20 tau+    tau-)
     2.11388560E-03    3     1000023       -12        12   # BR(~chi_30 -> ~chi_20 nu_eb   nu_e)
     2.11388560E-03    3     1000023       -14        14   # BR(~chi_30 -> ~chi_20 nu_mub  nu_mu)
     2.11388564E-03    3     1000023       -16        16   # BR(~chi_30 -> ~chi_20 nu_taub nu_tau)
     4.04563786E-02    3     1000024        -2         1   # BR(~chi_30 -> ~chi_1+ ub      d)
     4.04563786E-02    3    -1000024        -1         2   # BR(~chi_30 -> ~chi_1- db      u)
     4.04563786E-02    3     1000024        -4         3   # BR(~chi_30 -> ~chi_1+ cb      s)
     4.04563786E-02    3    -1000024        -3         4   # BR(~chi_30 -> ~chi_1- sb      c)
     1.34852854E-02    3     1000024       -12        11   # BR(~chi_30 -> ~chi_1+ nu_eb   e-)
     1.34852854E-02    3    -1000024        12       -11   # BR(~chi_30 -> ~chi_1- nu_e    e+)
     1.34852854E-02    3     1000024       -14        13   # BR(~chi_30 -> ~chi_1+ nu_mub  mu-)
     1.34852854E-02    3    -1000024        14       -13   # BR(~chi_30 -> ~chi_1- nu_mu   mu+)
     1.28142940E-02    3     1000024       -16        15   # BR(~chi_30 -> ~chi_1+ nu_taub tau-)
     1.28142940E-02    3    -1000024        16       -15   # BR(~chi_30 -> ~chi_1- nu_tau  tau+)
#
#         PDG            Width
DECAY   1000035     5.88256354E+01   # neutralino4 decays
#          BR         NDA      ID1       ID2
     7.46525897E-03    2     1000022        23   # BR(~chi_40 -> ~chi_10   Z )
     3.80784437E-02    2     1000023        23   # BR(~chi_40 -> ~chi_20   Z )
     2.38165522E-02    2     1000025        23   # BR(~chi_40 -> ~chi_30   Z )
     6.76647446E-02    2     1000024       -24   # BR(~chi_40 -> ~chi_1+   W-)
     6.76647446E-02    2    -1000024        24   # BR(~chi_40 -> ~chi_1-   W+)
     7.36335695E-03    2     1000022        25   # BR(~chi_40 -> ~chi_10   h )
     3.11803715E-02    2     1000023        25   # BR(~chi_40 -> ~chi_20   h )
     2.96162876E-02    2     1000025        25   # BR(~chi_40 -> ~chi_30   h )
     1.81389837E-01    2     1000006        -6   # BR(~chi_40 -> ~t_1      tb)
     1.81389837E-01    2    -1000006         6   # BR(~chi_40 -> ~t_1*     t )
     1.82185283E-01    2     1000005        -5   # BR(~chi_40 -> ~b_1      bb)
     1.82185283E-01    2    -1000005         5   # BR(~chi_40 -> ~b_1*     b )
#
#         PDG            Width
DECAY        25     4.06415442E-03   # h decays
#          BR         NDA      ID1       ID2
     5.92987686E-01    2           5        -5   # BR(h -> b       bb     )
     6.41843708E-02    2         -15        15   # BR(h -> tau+    tau-   )
     2.27211671E-04    2         -13        13   # BR(h -> mu+     mu-    )
     4.81756822E-04    2           3        -3   # BR(h -> s       sb     )
     2.09198902E-02    2           4        -4   # BR(h -> c       cb     )
     6.83676848E-02    2          21        21   # BR(h -> g       g      )
     2.37009659E-03    2          22        22   # BR(h -> gam     gam    )
     1.63207575E-03    2          22        23   # BR(h -> Z       gam    )
     2.20855632E-01    2          24       -24   # BR(h -> W+      W-     )
     2.79735955E-02    2          23        23   # BR(h -> Z       Z      )
#
#         PDG            Width
DECAY        35     5.45745407E+01   # H decays
#          BR         NDA      ID1       ID2
     3.43340473E-01    2           5        -5   # BR(H -> b       bb     )
     6.07535265E-02    2         -15        15   # BR(H -> tau+    tau-   )
     2.14809754E-04    2         -13        13   # BR(H -> mu+     mu-    )
     2.54082930E-04    2           3        -3   # BR(H -> s       sb     )
     7.12771425E-08    2           4        -4   # BR(H -> c       cb     )
     7.14345360E-03    2           6        -6   # BR(H -> t       tb     )
     1.00924510E-06    2          21        21   # BR(H -> g       g      )
     2.25813669E-11    2          22        22   # BR(H -> gam     gam    )
     1.83310889E-09    2          23        22   # BR(H -> Z       gam    )
     2.01751234E-06    2          24       -24   # BR(H -> W+      W-     )
     1.00805726E-06    2          23        23   # BR(H -> Z       Z      )
     7.57757258E-06    2          25        25   # BR(H -> h       h      )
    -2.84646808E-24    2          36        36   # BR(H -> A       A      )
     5.74897817E-20    2          23        36   # BR(H -> Z       A      )
     1.85632572E-03    2     1000024  -1000024   # BR(H -> ~chi_1+ ~chi_1-)
     1.65642763E-01    2     1000024  -1000037   # BR(H -> ~chi_1+ ~chi_2-)
     1.65642763E-01    2     1000037  -1000024   # BR(H -> ~chi_2+ ~chi_1-)
     2.88078736E-02    2     1000022   1000022   # BR(H -> ~chi_10 ~chi_10)
     1.56258894E-03    2     1000023   1000023   # BR(H -> ~chi_20 ~chi_20)
     1.60515403E-02    2     1000025   1000025   # BR(H -> ~chi_30 ~chi_30)
     2.08718498E-02    2     1000022   1000023   # BR(H -> ~chi_10 ~chi_20)
     4.79804876E-03    2     1000022   1000025   # BR(H -> ~chi_10 ~chi_30)
     3.65605154E-02    2     1000022   1000035   # BR(H -> ~chi_10 ~chi_40)
     1.62363030E-02    2     1000023   1000025   # BR(H -> ~chi_20 ~chi_30)
     7.77296154E-02    2     1000023   1000035   # BR(H -> ~chi_20 ~chi_40)
     5.18425251E-02    2     1000025   1000035   # BR(H -> ~chi_30 ~chi_40)
     8.23777148E-05    2     1000006  -1000006   # BR(H -> ~t_1    ~t_1*  )
     2.98371582E-04    2     1000006  -2000006   # BR(H -> ~t_1    ~t_2*  )
     2.98371582E-04    2     2000006  -1000006   # BR(H -> ~t_2    ~t_1*  )
     1.35950537E-07    2     1000005  -1000005   # BR(H -> ~b_1    ~b_1*  )
#
#         PDG            Width
DECAY        36     5.45714967E+01   # A decays
#          BR         NDA      ID1       ID2
     3.43385508E-01    2           5        -5   # BR(A -> b       bb     )
     6.07572975E-02    2         -15        15   # BR(A -> tau+    tau-   )
     2.14822919E-04    2         -13        13   # BR(A -> mu+     mu-    )
     2.54139923E-04    2           3        -3   # BR(A -> s       sb     )
     7.17299786E-08    2           4        -4   # BR(A -> c       cb     )
     7.15635258E-03    2           6        -6   # BR(A -> t       tb     )
     1.47044960E-05    2          21        21   # BR(A -> g       g      )
     4.69082290E-08    2          22        22   # BR(A -> gam     gam    )
     1.61624349E-08    2          23        22   # BR(A -> Z       gam    )
     2.01337869E-06    2          23        25   # BR(A -> Z       h      )
     1.85765718E-03    2     1000024  -1000024   # BR(A -> ~chi_1+ ~chi_1-)
     1.65655737E-01    2     1000024  -1000037   # BR(A -> ~chi_1+ ~chi_2-)
     1.65655737E-01    2     1000037  -1000024   # BR(A -> ~chi_2+ ~chi_1-)
     2.49482963E-02    2     1000022   1000022   # BR(A -> ~chi_10 ~chi_10)
     1.93644638E-03    2     1000023   1000023   # BR(A -> ~chi_20 ~chi_20)
     1.29845585E-02    2     1000025   1000025   # BR(A -> ~chi_30 ~chi_30)
     2.66180726E-02    2     1000022   1000023   # BR(A -> ~chi_10 ~chi_20)
     3.56070642E-03    2     1000022   1000025   # BR(A -> ~chi_10 ~chi_30)
     3.51364540E-02    2     1000022   1000035   # BR(A -> ~chi_10 ~chi_40)
     1.82833714E-02    2     1000023   1000025   # BR(A -> ~chi_20 ~chi_30)
     8.31003471E-02    2     1000023   1000035   # BR(A -> ~chi_20 ~chi_40)
     4.78558977E-02    2     1000025   1000035   # BR(A -> ~chi_30 ~chi_40)
     3.10871736E-04    2     1000006  -2000006   # BR(A -> ~t_1    ~t_2*  )
     3.10871736E-04    2    -1000006   2000006   # BR(A -> ~t_1*   ~t_2   )
#
#         PDG            Width
DECAY        37     5.45078040E+01   # H+ decays
#          BR         NDA      ID1       ID2
     5.48164631E-04    2           4        -5   # BR(H+ -> c       bb     )
     6.08442553E-02    2         -15        16   # BR(H+ -> tau+    nu_tau )
     2.15130380E-04    2         -13        14   # BR(H+ -> mu+     nu_mu  )
     3.50825061E-06    2           2        -5   # BR(H+ -> u       bb     )
     1.21875316E-05    2           2        -3   # BR(H+ -> u       sb     )
     2.50736716E-04    2           4        -3   # BR(H+ -> c       sb     )
     3.49404115E-01    2           6        -5   # BR(H+ -> t       bb     )
     2.01802470E-06    2          24        25   # BR(H+ -> W+      h      )
     3.07647402E-14    2          24        36   # BR(H+ -> W+      A      )
     5.55910810E-02    2     1000024   1000022   # BR(H+ -> ~chi_1+ ~chi_10)
     1.45936028E-04    2     1000024   1000023   # BR(H+ -> ~chi_1+ ~chi_20)
     3.33002530E-02    2     1000024   1000025   # BR(H+ -> ~chi_1+ ~chi_30)
     1.66062767E-01    2     1000024   1000035   # BR(H+ -> ~chi_1+ ~chi_40)
     7.18678599E-02    2     1000037   1000022   # BR(H+ -> ~chi_2+ ~chi_10)
     1.61162728E-01    2     1000037   1000023   # BR(H+ -> ~chi_2+ ~chi_20)
     9.99457653E-02    2     1000037   1000025   # BR(H+ -> ~chi_2+ ~chi_30)
     4.45547532E-05    2     1000006  -1000005   # BR(H+ -> ~t_1    ~b_1*  )
     5.98938178E-04    2     2000006  -1000005   # BR(H+ -> ~t_2    ~b_1*  )
