#
#                              ======================
#                              | THE SUSYHIT OUTPUT |
#                              ======================
#
#
#              ------------------------------------------------------
#              |     This is the output of the SUSY-HIT package     |
#              |  created by A.Djouadi, M.Muehlleitner and M.Spira. |
#              |  In case of problems with SUSY-HIT email to        |
#              |           margarete.muehlleitner@kit.edu           |
#              |           michael.spira@psi.ch                     |
#              |           abdelhak.djouadi@cern.ch                 |
#              ------------------------------------------------------
#
#              ------------------------------------------------------
#              |  SUSY Les Houches Accord - MSSM Spectrum + Decays  |
#              |              based on the decay programs           |
#              |                                                    |
#              |                     SDECAY 1.5                     |
#              |                                                    |
#              |  Authors: M.Muhlleitner, A.Djouadi and Y.Mambrini  |
#              |  Ref.:    Comput.Phys.Commun.168(2005)46           |
#              |           [hep-ph/0311167]                         |
#              |                                                    |
#              |                     HDECAY 3.4                     |
#              |                                                    |
#              |  By: A.Djouadi,J.Kalinowski,M.Muhlleitner,M.Spira  |
#              |  Ref.:    Comput.Phys.Commun.108(1998)56           |
#              |           [hep-ph/9704448]                         |
#              |                                                    |
#              |                                                    |
#              |  If not stated otherwise all DRbar couplings and   |
#              |  soft SUSY breaking masses are given at the scale  |
#              |  Q=  0.13001606E+04
#              |                                                    |
#              ------------------------------------------------------
#
#
BLOCK DCINFO  # Decay Program information
     1   SDECAY/HDECAY # decay calculator
     2   1.5  /3.4    # version number
#
BLOCK SPINFO  # Spectrum calculator information
     1    SOFTSUSY    # spectrum calculator                
     2    3.7.3       # version number                     
#
BLOCK MODSEL  # Model selection
     1     0   #  nonUniversal                                     
#
BLOCK SMINPUTS  # Standard Model inputs
         1     1.27934000E+02   # alpha_em^-1(M_Z)^MSbar
         2     1.16639000E-05   # G_F [GeV^-2]
         3     1.17200000E-01   # alpha_S(M_Z)^MSbar
         4     9.11870000E+01   # M_Z pole mass
         5     4.19000000E+00   # mb(mb)^MSbar
         6     1.72500000E+02   # mt pole mass
         7     1.77690000E+00   # mtau pole mass
#
BLOCK MINPAR  # Input parameters - minimal models
         3     2.00000000E+01   # tanb                
#
BLOCK EXTPAR  # Input parameters - non-minimal models
         0    -1.00000000E+00   # Set                 
         1     2.09990000E+02   # M_1(MX)             
         2     2.00000000E+03   # M_2(MX)             
         3     1.80000000E+03   # M_3(MX)             
        11     2.62959179E+03   # At(MX)              
        12     0.00000000E+00   # Ab(MX)              
        13     0.00000000E+00   # Atau(MX)            
        23    -2.49900000E+02   # mu(MX)              
        25     2.00000000E+01   # tan                 
        26     4.00000000E+03   # mA(pole)            
        31     4.00000000E+03   # meL(MX)             
        32     4.00000000E+03   # mmuL(MX)            
        33     4.00000000E+03   # mtauL(MX)           
        34     4.00000000E+03   # meR(MX)             
        35     4.00000000E+03   # mmuR(MX)            
        36     4.00000000E+03   # mtauR(MX)           
        41     4.00000000E+03   # mqL1(MX)            
        42     4.00000000E+03   # mqL2(MX)            
        43     2.10485961E+03   # mqL3(MX)            
        44     4.00000000E+03   # muR(MX)             
        45     4.00000000E+03   # mcR(MX)             
        46     8.09990000E+02   # mtR(MX)             
        47     4.00000000E+03   # mdR(MX)             
        48     4.00000000E+03   # msR(MX)             
        49     4.00000000E+03   # mbR(MX)             
#
BLOCK MASS  # Mass Spectrum
# PDG code           mass       particle
        24     8.04186859E+01   # W+
        25     1.25719195E+02   # h
        35     4.00000636E+03   # H
        36     3.99999677E+03   # A
        37     4.00104266E+03   # H+
         5     4.81337004E+00   # b-quark pole mass calculated from mb(mb)_Msbar
   1000001     4.02590472E+03   # ~d_L
   2000001     4.02259513E+03   # ~d_R
   1000002     4.02525585E+03   # ~u_L
   2000002     4.02318151E+03   # ~u_R
   1000003     4.02590472E+03   # ~s_L
   2000003     4.02259513E+03   # ~s_R
   1000004     4.02525585E+03   # ~c_L
   2000004     4.02318151E+03   # ~c_R
   1000005     2.13402657E+03   # ~b_1
   2000005     4.02559838E+03   # ~b_2
   1000006     8.37674771E+02   # ~t_1
   2000006     2.14663492E+03   # ~t_2
   1000011     4.00446168E+03   # ~e_L
   2000011     4.00365329E+03   # ~e_R
   1000012     4.00335131E+03   # ~nu_eL
   1000013     4.00446168E+03   # ~mu_L
   2000013     4.00365329E+03   # ~mu_R
   1000014     4.00335131E+03   # ~nu_muL
   1000015     4.00506732E+03   # ~tau_1
   2000015     4.00737125E+03   # ~tau_2
   1000016     4.00479456E+03   # ~nu_tauL
   1000021     1.99193181E+03   # ~g
   1000022     1.98431080E+02   # ~chi_10
   1000023    -2.60645461E+02   # ~chi_20
   1000025     2.72173259E+02   # ~chi_30
   1000035     2.06512215E+03   # ~chi_40
   1000024     2.57401318E+02   # ~chi_1+
   1000037     2.06529283E+03   # ~chi_2+
#
BLOCK NMIX  # Neutralino Mixing Matrix
  1  1     8.70301419E-01   # N_11
  1  2    -1.19753867E-02   # N_12
  1  3    -3.91318423E-01   # N_13
  1  4    -2.98834271E-01   # N_14
  2  1    -7.07641711E-02   # N_21
  2  2     2.55708818E-02   # N_22
  2  3    -7.00279909E-01   # N_23
  2  4     7.09891971E-01   # N_24
  3  1     4.87408413E-01   # N_31
  3  2     2.70512649E-02   # N_32
  3  3     5.97050534E-01   # N_33
  3  4     6.36578296E-01   # N_34
  4  1    -9.54045494E-04   # N_41
  4  2     9.99235182E-01   # N_42
  4  3    -2.93262973E-03   # N_43
  4  4    -3.89812813E-02   # N_44
#
BLOCK UMIX  # Chargino Mixing Matrix U
  1  1     4.15244145E-03   # U_11
  1  2     9.99991379E-01   # U_12
  2  1    -9.99991379E-01   # U_21
  2  2     4.15244145E-03   # U_22
#
BLOCK VMIX  # Chargino Mixing Matrix V
  1  1     5.51401061E-02   # V_11
  1  2    -9.98478627E-01   # V_12
  2  1    -9.98478627E-01   # V_21
  2  2    -5.51401061E-02   # V_22
#
BLOCK STOPMIX  # Stop Mixing Matrix
  1  1    -1.02824688E-01   # cos(theta_t)
  1  2     9.94699494E-01   # sin(theta_t)
  2  1    -9.94699494E-01   # -sin(theta_t)
  2  2    -1.02824688E-01   # cos(theta_t)
#
BLOCK SBOTMIX  # Sbottom Mixing Matrix
  1  1     9.99999446E-01   # cos(theta_b)
  1  2    -1.05261564E-03   # sin(theta_b)
  2  1     1.05261564E-03   # -sin(theta_b)
  2  2     9.99999446E-01   # cos(theta_b)
#
BLOCK STAUMIX  # Stau Mixing Matrix
  1  1    -7.05451140E-01   # cos(theta_tau)
  1  2     7.08758555E-01   # sin(theta_tau)
  2  1    -7.08758555E-01   # -sin(theta_tau)
  2  2    -7.05451140E-01   # cos(theta_tau)
#
BLOCK ALPHA  # Higgs mixing
          -5.00291887E-02   # Mixing angle in the neutral Higgs boson sector
#
BLOCK HMIX Q=  1.30016064E+03  # DRbar Higgs Parameters
         1    -2.49900000E+02   # mu(Q)MSSM           
         2     2.00000000E+01   # tan                 
         3     2.43606133E+02   # higgs               
         4     1.61099953E+07   # mA^2(Q)MSSM         
#
BLOCK GAUGE Q=  1.30016064E+03  # The gauge couplings
     1     3.62091222E-01   # gprime(Q) DRbar
     2     6.35950272E-01   # g(Q) DRbar
     3     1.02945600E+00   # g3(Q) DRbar
#
BLOCK AU Q=  1.30016064E+03  # The trilinear couplings
  1  1     0.00000000E+00   # A_u(Q) DRbar
  2  2     1.35558652E-06   # A_c(Q) DRbar
  3  3     2.62959179E+03   # A_t(Q) DRbar
#
BLOCK AD Q=  1.30016064E+03  # The trilinear couplings
  1  1     4.97439915E-07   # A_d(Q) DRbar
  2  2     4.97486644E-07   # A_s(Q) DRbar
  3  3     8.91131498E-07   # A_b(Q) DRbar
#
BLOCK AE Q=  1.30016064E+03  # The trilinear couplings
  1  1     0.00000000E+00   # A_e(Q) DRbar
  2  2     1.08595227E-07   # A_mu(Q) DRbar
  3  3     1.09714383E-07   # A_tau(Q) DRbar
#
BLOCK Yu Q=  1.30016064E+03  # The Yukawa couplings
  1  1     0.00000000E+00   # y_u(Q) DRbar
  2  2     0.00000000E+00   # y_c(Q) DRbar
  3  3     8.67316199E-01   # y_t(Q) DRbar
#
BLOCK Yd Q=  1.30016064E+03  # The Yukawa couplings
  1  1     0.00000000E+00   # y_d(Q) DRbar
  2  2     0.00000000E+00   # y_s(Q) DRbar
  3  3     2.83085537E-01   # y_b(Q) DRbar
#
BLOCK Ye Q=  1.30016064E+03  # The Yukawa couplings
  1  1     0.00000000E+00   # y_e(Q) DRbar
  2  2     0.00000000E+00   # y_mu(Q) DRbar
  3  3     2.03753201E-01   # y_tau(Q) DRbar
#
BLOCK MSOFT Q=  1.30016064E+03  # The soft SUSY breaking masses at the scale Q
         1     2.09990000E+02   # M_1(Q)              
         2     2.00000000E+03   # M_2(Q)              
         3     1.80000000E+03   # M_3(Q)              
        21     1.58268523E+07   # M^2_Hd              
        22    -4.50661379E+04   # M^2_Hu              
        31     4.00000000E+03   # M_eL                
        32     4.00000000E+03   # M_muL               
        33     4.00000000E+03   # M_tauL              
        34     4.00000000E+03   # M_eR                
        35     4.00000000E+03   # M_muR               
        36     4.00000000E+03   # M_tauR              
        41     4.00000000E+03   # M_q1L               
        42     4.00000000E+03   # M_q2L               
        43     2.10485961E+03   # M_q3L               
        44     4.00000000E+03   # M_uR                
        45     4.00000000E+03   # M_cR                
        46     8.09989995E+02   # M_tR                
        47     4.00000000E+03   # M_dR                
        48     4.00000000E+03   # M_sR                
        49     4.00000000E+03   # M_bR                
#
#
#
#                             =================
#                             |The decay table|
#                             =================
#
# - The QCD corrections to the decays gluino -> squark  + quark
#                                     squark -> gaugino + quark_prime
#                                     squark -> squark_prime + Higgs
#                                     squark -> gluino  + quark
#   are included.
#
# - The multi-body decays for the inos, stops and sbottoms are included.
#
# - The loop induced decays for the gluino, neutralinos and stops
#   are included.
#
# - The SUSY decays of the top quark are included.
#
#
#         PDG            Width
DECAY         6     1.40304672E+00   # top decays
#          BR         NDA      ID1       ID2
     1.00000000E+00    2           5        24   # BR(t ->  b    W+)
#
#         PDG            Width
DECAY   1000021     2.89560759E+01   # gluino decays
#          BR         NDA      ID1       ID2
     5.00000000E-01    2     1000006        -6   # BR(~g -> ~t_1  tb)
     5.00000000E-01    2    -1000006         6   # BR(~g -> ~t_1* t )
#
#         PDG            Width
DECAY   1000006     2.09565149E+01   # stop1 decays
#          BR         NDA      ID1       ID2
     8.41893760E-02    2     1000022         6   # BR(~t_1 -> ~chi_10 t )
     2.17137921E-01    2     1000023         6   # BR(~t_1 -> ~chi_20 t )
     2.19705823E-01    2     1000025         6   # BR(~t_1 -> ~chi_30 t )
     4.78966881E-01    2     1000024         5   # BR(~t_1 -> ~chi_1+ b )
#
#         PDG            Width
DECAY   2000006     6.16185959E+01   # stop2 decays
#          BR         NDA      ID1       ID2
     5.39795695E-02    2     1000022         6   # BR(~t_2 -> ~chi_10 t )
     2.42137600E-01    2     1000023         6   # BR(~t_2 -> ~chi_20 t )
     1.84510705E-01    2     1000025         6   # BR(~t_2 -> ~chi_30 t )
     5.66973773E-02    2     1000024         5   # BR(~t_2 -> ~chi_1+ b )
     1.55415175E-03    2     1000037         5   # BR(~t_2 -> ~chi_2+ b )
     3.07400906E-01    2     1000006        25   # BR(~t_2 -> ~t_1    h )
     1.53719690E-01    2     1000006        23   # BR(~t_2 -> ~t_1    Z )
#
#         PDG            Width
DECAY   1000005     5.09305557E+01   # sbottom1 decays
#          BR         NDA      ID1       ID2
     1.40841578E-02    2     1000022         5   # BR(~b_1 -> ~chi_10 b )
     2.89867216E-02    2     1000023         5   # BR(~b_1 -> ~chi_20 b )
     2.14813502E-02    2     1000025         5   # BR(~b_1 -> ~chi_30 b )
     7.16838166E-04    2     1000035         5   # BR(~b_1 -> ~chi_40 b )
     5.78274660E-01    2    -1000024         6   # BR(~b_1 -> ~chi_1- t )
     5.54025906E-02    2     1000021         5   # BR(~b_1 -> ~g      b )
     3.01053682E-01    2     1000006       -24   # BR(~b_1 -> ~t_1    W-)
#
#         PDG            Width
DECAY   2000005     1.64442297E+02   # sbottom2 decays
#          BR         NDA      ID1       ID2
     1.58984819E-02    2     1000022         5   # BR(~b_2 -> ~chi_10 b )
     1.79929565E-02    2     1000023         5   # BR(~b_2 -> ~chi_20 b )
     1.62511609E-02    2     1000025         5   # BR(~b_2 -> ~chi_30 b )
     4.19117750E-07    2     1000035         5   # BR(~b_2 -> ~chi_40 b )
     3.64493235E-02    2    -1000024         6   # BR(~b_2 -> ~chi_1- t )
     8.24487334E-07    2    -1000037         6   # BR(~b_2 -> ~chi_2- t )
     9.13186178E-01    2     1000021         5   # BR(~b_2 -> ~g      b )
     4.81488582E-05    2     1000005        25   # BR(~b_2 -> ~b_1    h )
     6.26527027E-05    2     1000005        23   # BR(~b_2 -> ~b_1    Z )
     2.90905175E-06    2     1000006       -24   # BR(~b_2 -> ~t_1    W-)
     1.06945079E-04    2     2000006       -24   # BR(~b_2 -> ~t_2    W-)
#
#         PDG            Width
DECAY   1000002     1.76315426E+02   # sup_L decays
#          BR         NDA      ID1       ID2
     2.06682315E-03    2     1000022         2   # BR(~u_L -> ~chi_10 u)
     1.29370165E-05    2     1000023         2   # BR(~u_L -> ~chi_20 u)
     1.25369766E-03    2     1000025         2   # BR(~u_L -> ~chi_30 u)
     4.82215409E-02    2     1000035         2   # BR(~u_L -> ~chi_40 u)
     5.33836621E-04    2     1000024         1   # BR(~u_L -> ~chi_1+ d)
     9.63207117E-02    2     1000037         1   # BR(~u_L -> ~chi_2+ d)
     8.51590453E-01    2     1000021         2   # BR(~u_L -> ~g      u)
#
#         PDG            Width
DECAY   2000002     1.58905804E+02   # sup_R decays
#          BR         NDA      ID1       ID2
     4.26301712E-02    2     1000022         2   # BR(~u_R -> ~chi_10 u)
     2.80912360E-04    2     1000023         2   # BR(~u_R -> ~chi_20 u)
     1.33173465E-02    2     1000025         2   # BR(~u_R -> ~chi_30 u)
     2.80850670E-08    2     1000035         2   # BR(~u_R -> ~chi_40 u)
     9.43771542E-01    2     1000021         2   # BR(~u_R -> ~g      u)
#
#         PDG            Width
DECAY   1000001     1.76334505E+02   # sdown_L decays
#          BR         NDA      ID1       ID2
     2.76374197E-03    2     1000022         1   # BR(~d_L -> ~chi_10 d)
     1.33518020E-04    2     1000023         1   # BR(~d_L -> ~chi_20 d)
     3.75789251E-04    2     1000025         1   # BR(~d_L -> ~chi_30 d)
     4.82701595E-02    2     1000035         1   # BR(~d_L -> ~chi_40 d)
     3.02764977E-06    2    -1000024         2   # BR(~d_L -> ~chi_1- u)
     9.66401360E-02    2    -1000037         2   # BR(~d_L -> ~chi_2- u)
     8.51813628E-01    2     1000021         1   # BR(~d_L -> ~g      d)
#
#         PDG            Width
DECAY   2000001     1.52153945E+02   # sdown_R decays
#          BR         NDA      ID1       ID2
     1.11288048E-02    2     1000022         1   # BR(~d_R -> ~chi_10 d)
     7.33334101E-05    2     1000023         1   # BR(~d_R -> ~chi_20 d)
     3.47655128E-03    2     1000025         1   # BR(~d_R -> ~chi_30 d)
     7.33024104E-09    2     1000035         1   # BR(~d_R -> ~chi_40 d)
     9.85321303E-01    2     1000021         1   # BR(~d_R -> ~g      d)
#
#         PDG            Width
DECAY   1000004     1.76315426E+02   # scharm_L decays
#          BR         NDA      ID1       ID2
     2.06682315E-03    2     1000022         4   # BR(~c_L -> ~chi_10 c)
     1.29370165E-05    2     1000023         4   # BR(~c_L -> ~chi_20 c)
     1.25369766E-03    2     1000025         4   # BR(~c_L -> ~chi_30 c)
     4.82215409E-02    2     1000035         4   # BR(~c_L -> ~chi_40 c)
     5.33836621E-04    2     1000024         3   # BR(~c_L -> ~chi_1+ s)
     9.63207117E-02    2     1000037         3   # BR(~c_L -> ~chi_2+ s)
     8.51590453E-01    2     1000021         4   # BR(~c_L -> ~g      c)
#
#         PDG            Width
DECAY   2000004     1.58905804E+02   # scharm_R decays
#          BR         NDA      ID1       ID2
     4.26301712E-02    2     1000022         4   # BR(~c_R -> ~chi_10 c)
     2.80912360E-04    2     1000023         4   # BR(~c_R -> ~chi_20 c)
     1.33173465E-02    2     1000025         4   # BR(~c_R -> ~chi_30 c)
     2.80850670E-08    2     1000035         4   # BR(~c_R -> ~chi_40 c)
     9.43771542E-01    2     1000021         4   # BR(~c_R -> ~g      c)
#
#         PDG            Width
DECAY   1000003     1.76334505E+02   # sstrange_L decays
#          BR         NDA      ID1       ID2
     2.76374197E-03    2     1000022         3   # BR(~s_L -> ~chi_10 s)
     1.33518020E-04    2     1000023         3   # BR(~s_L -> ~chi_20 s)
     3.75789251E-04    2     1000025         3   # BR(~s_L -> ~chi_30 s)
     4.82701595E-02    2     1000035         3   # BR(~s_L -> ~chi_40 s)
     3.02764977E-06    2    -1000024         4   # BR(~s_L -> ~chi_1- c)
     9.66401360E-02    2    -1000037         4   # BR(~s_L -> ~chi_2- c)
     8.51813628E-01    2     1000021         3   # BR(~s_L -> ~g      s)
#
#         PDG            Width
DECAY   2000003     1.52153945E+02   # sstrange_R decays
#          BR         NDA      ID1       ID2
     1.11288048E-02    2     1000022         3   # BR(~s_R -> ~chi_10 s)
     7.33334101E-05    2     1000023         3   # BR(~s_R -> ~chi_20 s)
     3.47655128E-03    2     1000025         3   # BR(~s_R -> ~chi_30 s)
     7.33024104E-09    2     1000035         3   # BR(~s_R -> ~chi_40 s)
     9.85321303E-01    2     1000021         3   # BR(~s_R -> ~g      s)
#
#         PDG            Width
DECAY   1000011     3.12490270E+01   # selectron_L decays
#          BR         NDA      ID1       ID2
     1.19949559E-01    2     1000022        11   # BR(~e_L -> ~chi_10 e-)
     1.10761863E-04    2     1000023        11   # BR(~e_L -> ~chi_20 e-)
     4.73803686E-02    2     1000025        11   # BR(~e_L -> ~chi_30 e-)
     2.77055125E-01    2     1000035        11   # BR(~e_L -> ~chi_40 e-)
     1.76317296E-05    2    -1000024        12   # BR(~e_L -> ~chi_1- nu_e)
     5.55486554E-01    2    -1000037        12   # BR(~e_L -> ~chi_2- nu_e)
#
#         PDG            Width
DECAY   2000011     2.07615986E+01   # selectron_R decays
#          BR         NDA      ID1       ID2
     7.58219457E-01    2     1000022        11   # BR(~e_R -> ~chi_10 e-)
     4.99493136E-03    2     1000023        11   # BR(~e_R -> ~chi_20 e-)
     2.36785119E-01    2     1000025        11   # BR(~e_R -> ~chi_30 e-)
     4.93232662E-07    2     1000035        11   # BR(~e_R -> ~chi_40 e-)
#
#         PDG            Width
DECAY   1000013     3.12490270E+01   # smuon_L decays
#          BR         NDA      ID1       ID2
     1.19949559E-01    2     1000022        13   # BR(~mu_L -> ~chi_10 mu-)
     1.10761863E-04    2     1000023        13   # BR(~mu_L -> ~chi_20 mu-)
     4.73803686E-02    2     1000025        13   # BR(~mu_L -> ~chi_30 mu-)
     2.77055125E-01    2     1000035        13   # BR(~mu_L -> ~chi_40 mu-)
     1.76317296E-05    2    -1000024        14   # BR(~mu_L -> ~chi_1- nu_mu)
     5.55486554E-01    2    -1000037        14   # BR(~mu_L -> ~chi_2- nu_mu)
#
#         PDG            Width
DECAY   2000013     2.07615986E+01   # smuon_R decays
#          BR         NDA      ID1       ID2
     7.58219457E-01    2     1000022        13   # BR(~mu_R -> ~chi_10 mu-)
     4.99493136E-03    2     1000023        13   # BR(~mu_R -> ~chi_20 mu-)
     2.36785119E-01    2     1000025        13   # BR(~mu_R -> ~chi_30 mu-)
     4.93232662E-07    2     1000035        13   # BR(~mu_R -> ~chi_40 mu-)
#
#         PDG            Width
DECAY   1000015     3.09530547E+01   # stau_1 decays
#          BR         NDA      ID1       ID2
     3.78726289E-01    2     1000022        15   # BR(~tau_1 -> ~chi_10  tau-)
     4.29147610E-02    2     1000023        15   # BR(~tau_1 -> ~chi_20  tau-)
     1.06413866E-01    2     1000025        15   # BR(~tau_1 -> ~chi_30  tau-)
     1.38877407E-01    2     1000035        15   # BR(~tau_1 -> ~chi_40  tau-)
     5.46226299E-02    2    -1000024        16   # BR(~tau_1 -> ~chi_1-  nu_tau)
     2.78445046E-01    2    -1000037        16   # BR(~tau_1 -> ~chi_2-  nu_tau)
#
#         PDG            Width
DECAY   2000015     3.09464585E+01   # stau_2 decays
#          BR         NDA      ID1       ID2
     2.83939730E-01    2     1000022        15   # BR(~tau_2 -> ~chi_10  tau-)
     6.45291797E-02    2     1000023        15   # BR(~tau_2 -> ~chi_20  tau-)
     1.75930398E-01    2     1000025        15   # BR(~tau_2 -> ~chi_30  tau-)
     1.41159760E-01    2     1000035        15   # BR(~tau_2 -> ~chi_40  tau-)
     5.14207647E-02    2    -1000024        16   # BR(~tau_2 -> ~chi_1-  nu_tau)
     2.83020168E-01    2    -1000037        16   # BR(~tau_2 -> ~chi_2-  nu_tau)
#
#         PDG            Width
DECAY   1000012     3.12599096E+01   # snu_eL decays
#          BR         NDA      ID1       ID2
     1.32043367E-01    2     1000022        12   # BR(~nu_eL -> ~chi_10 nu_e)
     2.21595685E-03    2     1000023        12   # BR(~nu_eL -> ~chi_20 nu_e)
     3.20222027E-02    2     1000025        12   # BR(~nu_eL -> ~chi_30 nu_e)
     2.77373065E-01    2     1000035        12   # BR(~nu_eL -> ~chi_40 nu_e)
     3.10705843E-03    2     1000024        11   # BR(~nu_eL -> ~chi_1+ e-)
     5.53238350E-01    2     1000037        11   # BR(~nu_eL -> ~chi_2+ e-)
#
#         PDG            Width
DECAY   1000014     3.12599096E+01   # snu_muL decays
#          BR         NDA      ID1       ID2
     1.32043367E-01    2     1000022        14   # BR(~nu_muL -> ~chi_10 nu_mu)
     2.21595685E-03    2     1000023        14   # BR(~nu_muL -> ~chi_20 nu_mu)
     3.20222027E-02    2     1000025        14   # BR(~nu_muL -> ~chi_30 nu_mu)
     2.77373065E-01    2     1000035        14   # BR(~nu_muL -> ~chi_40 nu_mu)
     3.10705843E-03    2     1000024        13   # BR(~nu_muL -> ~chi_1+ mu-)
     5.53238350E-01    2     1000037        13   # BR(~nu_muL -> ~chi_2+ mu-)
#
#         PDG            Width
DECAY   1000016     3.45651510E+01   # snu_tauL decays
#          BR         NDA      ID1       ID2
     1.19460390E-01    2     1000022        16   # BR(~nu_tauL -> ~chi_10 nu_tau)
     2.00479404E-03    2     1000023        16   # BR(~nu_tauL -> ~chi_20 nu_tau)
     2.89707612E-02    2     1000025        16   # BR(~nu_tauL -> ~chi_30 nu_tau)
     2.51071263E-01    2     1000035        16   # BR(~nu_tauL -> ~chi_40 nu_tau)
     9.77153225E-02    2     1000024        15   # BR(~nu_tauL -> ~chi_1+ tau-)
     5.00777470E-01    2     1000037        15   # BR(~nu_tauL -> ~chi_2+ tau-)
#
#         PDG            Width
DECAY   1000024     2.25015552E-04   # chargino1+ decays
#           BR         NDA      ID1       ID2       ID3
     3.33489588E-01    3     1000022         2        -1   # BR(~chi_1+ -> ~chi_10 u    db)
     3.33489588E-01    3     1000022         4        -3   # BR(~chi_1+ -> ~chi_10 c    sb)
     1.11164301E-01    3     1000022       -11        12   # BR(~chi_1+ -> ~chi_10 e+   nu_e)
     1.11164301E-01    3     1000022       -13        14   # BR(~chi_1+ -> ~chi_10 mu+  nu_mu)
     1.10692222E-01    3     1000022       -15        16   # BR(~chi_1+ -> ~chi_10 tau+ nu_tau)
#
#         PDG            Width
DECAY   1000037     1.67147978E+01   # chargino2+ decays
#          BR         NDA      ID1       ID2
     3.69621076E-02    2     1000006        -5   # BR(~chi_2+ -> ~t_1     bb)
     2.45464522E-01    2     1000024        23   # BR(~chi_2+ -> ~chi_1+  Z )
     3.74001611E-02    2     1000022        24   # BR(~chi_2+ -> ~chi_10  W+)
     2.39856811E-01    2     1000023        24   # BR(~chi_2+ -> ~chi_20  W+)
     2.00524682E-01    2     1000025        24   # BR(~chi_2+ -> ~chi_30  W+)
     2.39791716E-01    2     1000024        25   # BR(~chi_2+ -> ~chi_1+  h )
#
#         PDG            Width
DECAY   1000022     0.00000000E+00   # neutralino1 decays
#
#         PDG            Width
DECAY   1000023     2.10533795E-04   # neutralino2 decays
#          BR         NDA      ID1       ID2
     3.47272862E-04    2     1000022        22   # BR(~chi_20 -> ~chi_10 gam)
#           BR         NDA      ID1       ID2       ID3
     1.17660183E-01    3     1000022        -2         2   # BR(~chi_20 -> ~chi_10 ub      u)
     1.52641096E-01    3     1000022        -1         1   # BR(~chi_20 -> ~chi_10 db      d)
     1.17660183E-01    3     1000022        -4         4   # BR(~chi_20 -> ~chi_10 cb      c)
     1.52641096E-01    3     1000022        -3         3   # BR(~chi_20 -> ~chi_10 sb      s)
     1.44243992E-01    3     1000022        -5         5   # BR(~chi_20 -> ~chi_10 bb      b)
     3.50118952E-02    3     1000022       -11        11   # BR(~chi_20 -> ~chi_10 e+      e-)
     3.50118952E-02    3     1000022       -13        13   # BR(~chi_20 -> ~chi_10 mu+     mu-)
     3.47637655E-02    3     1000022       -15        15   # BR(~chi_20 -> ~chi_10 tau+    tau-)
     7.00050057E-02    3     1000022       -12        12   # BR(~chi_20 -> ~chi_10 nu_eb   nu_e)
     7.00050057E-02    3     1000022       -14        14   # BR(~chi_20 -> ~chi_10 nu_mub  nu_mu)
     7.00050034E-02    3     1000022       -16        16   # BR(~chi_20 -> ~chi_10 nu_taub nu_tau)
     6.57925458E-07    3     1000024        -2         1   # BR(~chi_20 -> ~chi_1+ ub      d)
     6.57925458E-07    3    -1000024        -1         2   # BR(~chi_20 -> ~chi_1- db      u)
     6.57925458E-07    3     1000024        -4         3   # BR(~chi_20 -> ~chi_1+ cb      s)
     6.57925458E-07    3    -1000024        -3         4   # BR(~chi_20 -> ~chi_1- sb      c)
     2.19308776E-07    3     1000024       -12        11   # BR(~chi_20 -> ~chi_1+ nu_eb   e-)
     2.19308776E-07    3    -1000024        12       -11   # BR(~chi_20 -> ~chi_1- nu_e    e+)
     2.19308776E-07    3     1000024       -14        13   # BR(~chi_20 -> ~chi_1+ nu_mub  mu-)
     2.19308776E-07    3    -1000024        14       -13   # BR(~chi_20 -> ~chi_1- nu_mu   mu+)
     4.88246881E-08    3     1000024       -16        15   # BR(~chi_20 -> ~chi_1+ nu_taub tau-)
     4.88246881E-08    3    -1000024        16       -15   # BR(~chi_20 -> ~chi_1- nu_tau  tau+)
#
#         PDG            Width
DECAY   1000025     2.21307890E-05   # neutralino3 decays
#          BR         NDA      ID1       ID2
     6.03816481E-03    2     1000022        22   # BR(~chi_30 -> ~chi_10 gam)
     1.68937843E-02    2     1000023        22   # BR(~chi_30 -> ~chi_20 gam)
#           BR         NDA      ID1       ID2       ID3
     1.07870573E-01    3     1000022        -2         2   # BR(~chi_30 -> ~chi_10 ub      u)
     1.39659281E-01    3     1000022        -1         1   # BR(~chi_30 -> ~chi_10 db      d)
     1.07870573E-01    3     1000022        -4         4   # BR(~chi_30 -> ~chi_10 cb      c)
     1.39659281E-01    3     1000022        -3         3   # BR(~chi_30 -> ~chi_10 sb      s)
     1.34974067E-01    3     1000022        -5         5   # BR(~chi_30 -> ~chi_10 bb      b)
     3.18086794E-02    3     1000022       -11        11   # BR(~chi_30 -> ~chi_10 e+      e-)
     3.18086794E-02    3     1000022       -13        13   # BR(~chi_30 -> ~chi_10 mu+     mu-)
     3.16812938E-02    3     1000022       -15        15   # BR(~chi_30 -> ~chi_10 tau+    tau-)
     6.41541703E-02    3     1000022       -12        12   # BR(~chi_30 -> ~chi_10 nu_eb   nu_e)
     6.41541703E-02    3     1000022       -14        14   # BR(~chi_30 -> ~chi_10 nu_mub  nu_mu)
     6.41541065E-02    3     1000022       -16        16   # BR(~chi_30 -> ~chi_10 nu_taub nu_tau)
     7.71932369E-04    3     1000023        -2         2   # BR(~chi_30 -> ~chi_20 ub      u)
     1.00148203E-03    3     1000023        -1         1   # BR(~chi_30 -> ~chi_20 db      d)
     7.71932369E-04    3     1000023        -4         4   # BR(~chi_30 -> ~chi_20 cb      c)
     1.00148203E-03    3     1000023        -3         3   # BR(~chi_30 -> ~chi_20 sb      s)
     9.17002775E-05    3     1000023        -5         5   # BR(~chi_30 -> ~chi_20 bb      b)
     2.29746669E-04    3     1000023       -11        11   # BR(~chi_30 -> ~chi_20 e+      e-)
     2.29746669E-04    3     1000023       -13        13   # BR(~chi_30 -> ~chi_20 mu+     mu-)
     1.99500257E-04    3     1000023       -15        15   # BR(~chi_30 -> ~chi_20 tau+    tau-)
     4.59269118E-04    3     1000023       -12        12   # BR(~chi_30 -> ~chi_20 nu_eb   nu_e)
     4.59269118E-04    3     1000023       -14        14   # BR(~chi_30 -> ~chi_20 nu_mub  nu_mu)
     4.59269123E-04    3     1000023       -16        16   # BR(~chi_30 -> ~chi_20 nu_taub nu_tau)
     9.00138690E-03    3     1000024        -2         1   # BR(~chi_30 -> ~chi_1+ ub      d)
     9.00138690E-03    3    -1000024        -1         2   # BR(~chi_30 -> ~chi_1- db      u)
     9.00138690E-03    3     1000024        -4         3   # BR(~chi_30 -> ~chi_1+ cb      s)
     9.00138690E-03    3    -1000024        -3         4   # BR(~chi_30 -> ~chi_1- sb      c)
     3.00043348E-03    3     1000024       -12        11   # BR(~chi_30 -> ~chi_1+ nu_eb   e-)
     3.00043348E-03    3    -1000024        12       -11   # BR(~chi_30 -> ~chi_1- nu_e    e+)
     3.00043348E-03    3     1000024       -14        13   # BR(~chi_30 -> ~chi_1+ nu_mub  mu-)
     3.00043348E-03    3    -1000024        14       -13   # BR(~chi_30 -> ~chi_1- nu_mu   mu+)
     2.79528175E-03    3     1000024       -16        15   # BR(~chi_30 -> ~chi_1+ nu_taub tau-)
     2.79528175E-03    3    -1000024        16       -15   # BR(~chi_30 -> ~chi_1- nu_tau  tau+)
#
#         PDG            Width
DECAY   1000035     1.67006239E+01   # neutralino4 decays
#          BR         NDA      ID1       ID2
     1.81384124E-02    2     1000022        23   # BR(~chi_40 -> ~chi_10   Z )
     1.42034019E-01    2     1000023        23   # BR(~chi_40 -> ~chi_20   Z )
     8.53920849E-02    2     1000025        23   # BR(~chi_40 -> ~chi_30   Z )
     2.39316161E-01    2     1000024       -24   # BR(~chi_40 -> ~chi_1+   W-)
     2.39316161E-01    2    -1000024        24   # BR(~chi_40 -> ~chi_1-   W+)
     1.97459921E-02    2     1000022        25   # BR(~chi_40 -> ~chi_10   h )
     1.01801543E-01    2     1000023        25   # BR(~chi_40 -> ~chi_20   h )
     1.17803995E-01    2     1000025        25   # BR(~chi_40 -> ~chi_30   h )
     1.82258162E-02    2     1000006        -6   # BR(~chi_40 -> ~t_1      tb)
     1.82258162E-02    2    -1000006         6   # BR(~chi_40 -> ~t_1*     t )
#
#         PDG            Width
DECAY        25     4.07327294E-03   # h decays
#          BR         NDA      ID1       ID2
     5.92419639E-01    2           5        -5   # BR(h -> b       bb     )
     6.40635728E-02    2         -15        15   # BR(h -> tau+    tau-   )
     2.26783818E-04    2         -13        13   # BR(h -> mu+     mu-    )
     4.80810388E-04    2           3        -3   # BR(h -> s       sb     )
     2.08801908E-02    2           4        -4   # BR(h -> c       cb     )
     6.82612978E-02    2          21        21   # BR(h -> g       g      )
     2.36877507E-03    2          22        22   # BR(h -> gam     gam    )
     1.63620075E-03    2          22        23   # BR(h -> Z       gam    )
     2.21567761E-01    2          24       -24   # BR(h -> W+      W-     )
     2.80949678E-02    2          23        23   # BR(h -> Z       Z      )
#
#         PDG            Width
DECAY        35     5.43065077E+01   # H decays
#          BR         NDA      ID1       ID2
     3.47553972E-01    2           5        -5   # BR(H -> b       bb     )
     6.10534355E-02    2         -15        15   # BR(H -> tau+    tau-   )
     2.15870160E-04    2         -13        13   # BR(H -> mu+     mu-    )
     2.55337183E-04    2           3        -3   # BR(H -> s       sb     )
     7.16241191E-08    2           4        -4   # BR(H -> c       cb     )
     7.17822795E-03    2           6        -6   # BR(H -> t       tb     )
     9.37406911E-07    2          21        21   # BR(H -> g       g      )
     6.40564328E-11    2          22        22   # BR(H -> gam     gam    )
     1.84439287E-09    2          23        22   # BR(H -> Z       gam    )
     1.93350911E-06    2          24       -24   # BR(H -> W+      W-     )
     9.66084863E-07    2          23        23   # BR(H -> Z       Z      )
     7.23469121E-06    2          25        25   # BR(H -> h       h      )
     1.28751966E-24    2          36        36   # BR(H -> A       A      )
     4.05479766E-20    2          23        36   # BR(H -> Z       A      )
     1.86335368E-03    2     1000024  -1000024   # BR(H -> ~chi_1+ ~chi_1-)
     1.63570670E-01    2     1000024  -1000037   # BR(H -> ~chi_1+ ~chi_2-)
     1.63570670E-01    2     1000037  -1000024   # BR(H -> ~chi_2+ ~chi_1-)
     2.30980044E-02    2     1000022   1000022   # BR(H -> ~chi_10 ~chi_10)
     1.07960466E-03    2     1000023   1000023   # BR(H -> ~chi_20 ~chi_20)
     1.30779226E-02    2     1000025   1000025   # BR(H -> ~chi_30 ~chi_30)
     2.63048968E-02    2     1000022   1000023   # BR(H -> ~chi_10 ~chi_20)
     1.28641576E-02    2     1000022   1000025   # BR(H -> ~chi_10 ~chi_30)
     2.52113438E-02    2     1000022   1000035   # BR(H -> ~chi_10 ~chi_40)
     1.17622510E-02    2     1000023   1000025   # BR(H -> ~chi_20 ~chi_30)
     7.97281272E-02    2     1000023   1000035   # BR(H -> ~chi_20 ~chi_40)
     5.91153115E-02    2     1000025   1000035   # BR(H -> ~chi_30 ~chi_40)
     1.97280520E-04    2     1000006  -1000006   # BR(H -> ~t_1    ~t_1*  )
     1.14420915E-03    2     1000006  -2000006   # BR(H -> ~t_1    ~t_2*  )
     1.14420915E-03    2     2000006  -1000006   # BR(H -> ~t_2    ~t_1*  )
#
#         PDG            Width
DECAY        36     5.43023625E+01   # A decays
#          BR         NDA      ID1       ID2
     3.47606368E-01    2           5        -5   # BR(A -> b       bb     )
     6.10584305E-02    2         -15        15   # BR(A -> tau+    tau-   )
     2.15887651E-04    2         -13        13   # BR(A -> mu+     mu-    )
     2.55399520E-04    2           3        -3   # BR(A -> s       sb     )
     7.20854948E-08    2           4        -4   # BR(A -> c       cb     )
     7.19182169E-03    2           6        -6   # BR(A -> t       tb     )
     1.47773740E-05    2          21        21   # BR(A -> g       g      )
     5.28914415E-08    2          22        22   # BR(A -> gam     gam    )
     1.62485167E-08    2          23        22   # BR(A -> Z       gam    )
     1.92957888E-06    2          23        25   # BR(A -> Z       h      )
     1.86658783E-03    2     1000024  -1000024   # BR(A -> ~chi_1+ ~chi_1-)
     1.63585599E-01    2     1000024  -1000037   # BR(A -> ~chi_1+ ~chi_2-)
     1.63585599E-01    2     1000037  -1000024   # BR(A -> ~chi_2+ ~chi_1-)
     2.00215454E-02    2     1000022   1000022   # BR(A -> ~chi_10 ~chi_10)
     1.34564898E-03    2     1000023   1000023   # BR(A -> ~chi_20 ~chi_20)
     1.07629814E-02    2     1000025   1000025   # BR(A -> ~chi_30 ~chi_30)
     3.27369107E-02    2     1000022   1000023   # BR(A -> ~chi_10 ~chi_20)
     1.02354805E-02    2     1000022   1000025   # BR(A -> ~chi_10 ~chi_30)
     2.51246818E-02    2     1000022   1000035   # BR(A -> ~chi_10 ~chi_40)
     1.30888622E-02    2     1000023   1000025   # BR(A -> ~chi_20 ~chi_30)
     8.11212352E-02    2     1000023   1000035   # BR(A -> ~chi_20 ~chi_40)
     5.77757682E-02    2     1000025   1000035   # BR(A -> ~chi_30 ~chi_40)
     1.20217178E-03    2     1000006  -2000006   # BR(A -> ~t_1    ~t_2*  )
     1.20217178E-03    2    -1000006   2000006   # BR(A -> ~t_1*   ~t_2   )
#
#         PDG            Width
DECAY        37     5.42188315E+01   # H+ decays
#          BR         NDA      ID1       ID2
     5.54545150E-04    2           4        -5   # BR(H+ -> c       bb     )
     6.11684884E-02    2         -15        16   # BR(H+ -> tau+    nu_tau )
     2.16276789E-04    2         -13        14   # BR(H+ -> mu+     nu_mu  )
     3.54908591E-06    2           2        -5   # BR(H+ -> u       bb     )
     1.22524790E-05    2           2        -3   # BR(H+ -> u       sb     )
     2.52072894E-04    2           4        -3   # BR(H+ -> c       sb     )
     3.53426623E-01    2           6        -5   # BR(H+ -> t       bb     )
     1.93474474E-06    2          24        25   # BR(H+ -> W+      h      )
     3.03744860E-14    2          24        36   # BR(H+ -> W+      A      )
     6.41125448E-02    2     1000024   1000022   # BR(H+ -> ~chi_1+ ~chi_10)
     2.40239447E-05    2     1000024   1000023   # BR(H+ -> ~chi_1+ ~chi_20)
     2.47991426E-02    2     1000024   1000025   # BR(H+ -> ~chi_1+ ~chi_30)
     1.64051306E-01    2     1000024   1000035   # BR(H+ -> ~chi_1+ ~chi_40)
     5.04823347E-02    2     1000037   1000022   # BR(H+ -> ~chi_2+ ~chi_10)
     1.61211666E-01    2     1000037   1000023   # BR(H+ -> ~chi_2+ ~chi_20)
     1.17249889E-01    2     1000037   1000025   # BR(H+ -> ~chi_2+ ~chi_30)
     2.43335097E-03    2     1000006  -1000005   # BR(H+ -> ~t_1    ~b_1*  )
