#
#                              ======================
#                              | THE SUSYHIT OUTPUT |
#                              ======================
#
#
#              ------------------------------------------------------
#              |     This is the output of the SUSY-HIT package     |
#              |  created by A.Djouadi, M.Muehlleitner and M.Spira. |
#              |  In case of problems with SUSY-HIT email to        |
#              |           margarete.muehlleitner@kit.edu           |
#              |           michael.spira@psi.ch                     |
#              |           abdelhak.djouadi@cern.ch                 |
#              ------------------------------------------------------
#
#              ------------------------------------------------------
#              |  SUSY Les Houches Accord - MSSM Spectrum + Decays  |
#              |              based on the decay programs           |
#              |                                                    |
#              |                     SDECAY 1.5                     |
#              |                                                    |
#              |  Authors: M.Muhlleitner, A.Djouadi and Y.Mambrini  |
#              |  Ref.:    Comput.Phys.Commun.168(2005)46           |
#              |           [hep-ph/0311167]                         |
#              |                                                    |
#              |                     HDECAY 3.4                     |
#              |                                                    |
#              |  By: A.Djouadi,J.Kalinowski,M.Muhlleitner,M.Spira  |
#              |  Ref.:    Comput.Phys.Commun.108(1998)56           |
#              |           [hep-ph/9704448]                         |
#              |                                                    |
#              |                                                    |
#              |  If not stated otherwise all DRbar couplings and   |
#              |  soft SUSY breaking masses are given at the scale  |
#              |  Q=  0.12072981E+04
#              |                                                    |
#              ------------------------------------------------------
#
#
BLOCK DCINFO  # Decay Program information
     1   SDECAY/HDECAY # decay calculator
     2   1.5  /3.4    # version number
#
BLOCK SPINFO  # Spectrum calculator information
     1    SOFTSUSY    # spectrum calculator                
     2    3.7.3       # version number                     
#
BLOCK MODSEL  # Model selection
     1     0   #  nonUniversal                                     
#
BLOCK SMINPUTS  # Standard Model inputs
         1     1.27934000E+02   # alpha_em^-1(M_Z)^MSbar
         2     1.16639000E-05   # G_F [GeV^-2]
         3     1.17200000E-01   # alpha_S(M_Z)^MSbar
         4     9.11870000E+01   # M_Z pole mass
         5     4.19000000E+00   # mb(mb)^MSbar
         6     1.72500000E+02   # mt pole mass
         7     1.77690000E+00   # mtau pole mass
#
BLOCK MINPAR  # Input parameters - minimal models
         3     2.00000000E+01   # tanb                
#
BLOCK EXTPAR  # Input parameters - non-minimal models
         0    -1.00000000E+00   # Set                 
         1     3.09990000E+02   # M_1(MX)             
         2     2.00000000E+03   # M_2(MX)             
         3     1.80000000E+03   # M_3(MX)             
        11     2.52959179E+03   # At(MX)              
        12     0.00000000E+00   # Ab(MX)              
        13     0.00000000E+00   # Atau(MX)            
        23    -3.28900000E+02   # mu(MX)              
        25     2.00000000E+01   # tan                 
        26     4.00000000E+03   # mA(pole)            
        31     4.00000000E+03   # meL(MX)             
        32     4.00000000E+03   # mmuL(MX)            
        33     4.00000000E+03   # mtauL(MX)           
        34     4.00000000E+03   # meR(MX)             
        35     4.00000000E+03   # mmuR(MX)            
        36     4.00000000E+03   # mtauR(MX)           
        41     4.00000000E+03   # mqL1(MX)            
        42     4.00000000E+03   # mqL2(MX)            
        43     2.22485961E+03   # mqL3(MX)            
        44     4.00000000E+03   # muR(MX)             
        45     4.00000000E+03   # mcR(MX)             
        46     6.59990000E+02   # mtR(MX)             
        47     4.00000000E+03   # mdR(MX)             
        48     4.00000000E+03   # msR(MX)             
        49     4.00000000E+03   # mbR(MX)             
#
BLOCK MASS  # Mass Spectrum
# PDG code           mass       particle
        24     8.04195796E+01   # W+
        25     1.25331974E+02   # h
        35     4.00000880E+03   # H
        36     3.99999686E+03   # A
        37     4.00101053E+03   # H+
         5     4.81337004E+00   # b-quark pole mass calculated from mb(mb)_Msbar
   1000001     4.02326751E+03   # ~d_L
   2000001     4.02053107E+03   # ~d_R
   1000002     4.02261788E+03   # ~u_L
   2000002     4.02105985E+03   # ~u_R
   1000003     4.02326751E+03   # ~s_L
   2000003     4.02053107E+03   # ~s_R
   1000004     4.02261788E+03   # ~c_L
   2000004     4.02105985E+03   # ~c_R
   1000005     2.25152741E+03   # ~b_1
   2000005     4.02436175E+03   # ~b_2
   1000006     7.06058345E+02   # ~t_1
   2000006     2.26190904E+03   # ~t_2
   1000011     4.00385606E+03   # ~e_L
   2000011     4.00366189E+03   # ~e_R
   1000012     4.00274588E+03   # ~nu_eL
   1000013     4.00385606E+03   # ~mu_L
   2000013     4.00366189E+03   # ~mu_R
   1000014     4.00274588E+03   # ~nu_muL
   1000015     4.00462805E+03   # ~tau_1
   2000015     4.00789764E+03   # ~tau_2
   1000016     4.00441935E+03   # ~nu_tauL
   1000021     1.98928576E+03   # ~g
   1000022     2.93144515E+02   # ~chi_10
   1000023    -3.39949123E+02   # ~chi_20
   1000025     3.58085220E+02   # ~chi_30
   1000035     2.06713771E+03   # ~chi_40
   1000024     3.37292438E+02   # ~chi_1+
   1000037     2.06730504E+03   # ~chi_2+
#
BLOCK NMIX  # Neutralino Mixing Matrix
  1  1     7.91508007E-01   # N_11
  1  2    -1.70539320E-02   # N_12
  1  3    -4.61642906E-01   # N_13
  1  4    -4.00137559E-01   # N_14
  2  1    -5.10696100E-02   # N_21
  2  2     2.46929904E-02   # N_22
  2  3    -7.02971168E-01   # N_23
  2  4     7.08952529E-01   # N_24
  3  1     6.09020469E-01   # N_31
  3  2     2.59060592E-02   # N_32
  3  3     5.41014614E-01   # N_33
  3  4     5.79418787E-01   # N_34
  4  1    -1.01873608E-03   # N_41
  4  2     9.99213839E-01   # N_42
  4  3    -4.53348710E-03   # N_43
  4  4    -3.93714864E-02   # N_44
#
BLOCK UMIX  # Chargino Mixing Matrix U
  1  1     6.41680350E-03   # U_11
  1  2     9.99979412E-01   # U_12
  2  1    -9.99979412E-01   # U_21
  2  2     6.41680350E-03   # U_22
#
BLOCK VMIX  # Chargino Mixing Matrix V
  1  1     5.56907123E-02   # V_11
  1  2    -9.98448068E-01   # V_12
  2  1    -9.98448068E-01   # V_21
  2  2    -5.56907123E-02   # V_22
#
BLOCK STOPMIX  # Stop Mixing Matrix
  1  1    -8.34566385E-02   # cos(theta_t)
  1  2     9.96511410E-01   # sin(theta_t)
  2  1    -9.96511410E-01   # -sin(theta_t)
  2  2    -8.34566385E-02   # cos(theta_t)
#
BLOCK SBOTMIX  # Sbottom Mixing Matrix
  1  1     9.99998930E-01   # cos(theta_b)
  1  2    -1.46287349E-03   # sin(theta_b)
  2  1     1.46287349E-03   # -sin(theta_b)
  2  2     9.99998930E-01   # cos(theta_b)
#
BLOCK STAUMIX  # Stau Mixing Matrix
  1  1    -7.05845401E-01   # cos(theta_tau)
  1  2     7.08365915E-01   # sin(theta_tau)
  2  1    -7.08365915E-01   # -sin(theta_tau)
  2  2    -7.05845401E-01   # cos(theta_tau)
#
BLOCK ALPHA  # Higgs mixing
          -5.00263322E-02   # Mixing angle in the neutral Higgs boson sector
#
BLOCK HMIX Q=  1.20729811E+03  # DRbar Higgs Parameters
         1    -3.28900000E+02   # mu(Q)MSSM           
         2     2.00000000E+01   # tan                 
         3     2.43865648E+02   # higgs               
         4     1.61917045E+07   # mA^2(Q)MSSM         
#
BLOCK GAUGE Q=  1.20729811E+03  # The gauge couplings
     1     3.61806766E-01   # gprime(Q) DRbar
     2     6.35463811E-01   # g(Q) DRbar
     3     1.03105248E+00   # g3(Q) DRbar
#
BLOCK AU Q=  1.20729811E+03  # The trilinear couplings
  1  1     0.00000000E+00   # A_u(Q) DRbar
  2  2     1.14785092E-06   # A_c(Q) DRbar
  3  3     2.52959179E+03   # A_t(Q) DRbar
#
BLOCK AD Q=  1.20729811E+03  # The trilinear couplings
  1  1     4.22620863E-07   # A_d(Q) DRbar
  2  2     4.22660755E-07   # A_s(Q) DRbar
  3  3     7.55818171E-07   # A_b(Q) DRbar
#
BLOCK AE Q=  1.20729811E+03  # The trilinear couplings
  1  1     0.00000000E+00   # A_e(Q) DRbar
  2  2     9.33330103E-08   # A_mu(Q) DRbar
  3  3     9.42884245E-08   # A_tau(Q) DRbar
#
BLOCK Yu Q=  1.20729811E+03  # The Yukawa couplings
  1  1     0.00000000E+00   # y_u(Q) DRbar
  2  2     0.00000000E+00   # y_c(Q) DRbar
  3  3     8.68053572E-01   # y_t(Q) DRbar
#
BLOCK Yd Q=  1.20729811E+03  # The Yukawa couplings
  1  1     0.00000000E+00   # y_d(Q) DRbar
  2  2     0.00000000E+00   # y_s(Q) DRbar
  3  3     2.85315101E-01   # y_b(Q) DRbar
#
BLOCK Ye Q=  1.20729811E+03  # The Yukawa couplings
  1  1     0.00000000E+00   # y_e(Q) DRbar
  2  2     0.00000000E+00   # y_mu(Q) DRbar
  3  3     2.03348555E-01   # y_tau(Q) DRbar
#
BLOCK MSOFT Q=  1.20729811E+03  # The soft SUSY breaking masses at the scale Q
         1     3.09990000E+02   # M_1(Q)              
         2     2.00000000E+03   # M_2(Q)              
         3     1.80000000E+03   # M_3(Q)              
        21     1.57763892E+07   # M^2_Hd              
        22    -1.21351332E+05   # M^2_Hu              
        31     4.00000000E+03   # M_eL                
        32     4.00000000E+03   # M_muL               
        33     4.00000000E+03   # M_tauL              
        34     4.00000000E+03   # M_eR                
        35     4.00000000E+03   # M_muR               
        36     4.00000000E+03   # M_tauR              
        41     4.00000000E+03   # M_q1L               
        42     4.00000000E+03   # M_q2L               
        43     2.22485961E+03   # M_q3L               
        44     4.00000000E+03   # M_uR                
        45     4.00000000E+03   # M_cR                
        46     6.59989995E+02   # M_tR                
        47     4.00000000E+03   # M_dR                
        48     4.00000000E+03   # M_sR                
        49     4.00000000E+03   # M_bR                
#
#
#
#                             =================
#                             |The decay table|
#                             =================
#
# - The QCD corrections to the decays gluino -> squark  + quark
#                                     squark -> gaugino + quark_prime
#                                     squark -> squark_prime + Higgs
#                                     squark -> gluino  + quark
#   are included.
#
# - The multi-body decays for the inos, stops and sbottoms are included.
#
# - The loop induced decays for the gluino, neutralinos and stops
#   are included.
#
# - The SUSY decays of the top quark are included.
#
#
#         PDG            Width
DECAY         6     1.40086206E+00   # top decays
#          BR         NDA      ID1       ID2
     1.00000000E+00    2           5        24   # BR(t ->  b    W+)
#
#         PDG            Width
DECAY   1000021     3.22841242E+01   # gluino decays
#          BR         NDA      ID1       ID2
     5.00000000E-01    2     1000006        -6   # BR(~g -> ~t_1  tb)
     5.00000000E-01    2    -1000006         6   # BR(~g -> ~t_1* t )
#
#         PDG            Width
DECAY   1000006     1.22529450E+01   # stop1 decays
#          BR         NDA      ID1       ID2
     9.22681098E-02    2     1000022         6   # BR(~t_1 -> ~chi_10 t )
     2.00864488E-01    2     1000023         6   # BR(~t_1 -> ~chi_20 t )
     2.01456524E-01    2     1000025         6   # BR(~t_1 -> ~chi_30 t )
     5.05410878E-01    2     1000024         5   # BR(~t_1 -> ~chi_1+ b )
#
#         PDG            Width
DECAY   2000006     7.14486240E+01   # stop2 decays
#          BR         NDA      ID1       ID2
     7.96339497E-02    2     1000022         6   # BR(~t_2 -> ~chi_10 t )
     2.20436022E-01    2     1000023         6   # BR(~t_2 -> ~chi_20 t )
     1.39476290E-01    2     1000025         6   # BR(~t_2 -> ~chi_30 t )
     1.81149498E-03    2     1000035         6   # BR(~t_2 -> ~chi_40 t )
     5.00302764E-02    2     1000024         5   # BR(~t_2 -> ~chi_1+ b )
     6.83019412E-03    2     1000037         5   # BR(~t_2 -> ~chi_2+ b )
     1.13409518E-01    2     1000021         6   # BR(~t_2 -> ~g      t )
     2.51894124E-01    2     1000006        25   # BR(~t_2 -> ~t_1    h )
     1.36478130E-01    2     1000006        23   # BR(~t_2 -> ~t_1    Z )
#
#         PDG            Width
DECAY   1000005     6.81775060E+01   # sbottom1 decays
#          BR         NDA      ID1       ID2
     1.33569759E-02    2     1000022         5   # BR(~b_1 -> ~chi_10 b )
     2.28093345E-02    2     1000023         5   # BR(~b_1 -> ~chi_20 b )
     1.42866566E-02    2     1000025         5   # BR(~b_1 -> ~chi_30 b )
     3.31431043E-03    2     1000035         5   # BR(~b_1 -> ~chi_40 b )
     4.50502071E-01    2    -1000024         6   # BR(~b_1 -> ~chi_1- t )
     2.67269880E-03    2    -1000037         6   # BR(~b_1 -> ~chi_2- t )
     1.22909966E-01    2     1000021         5   # BR(~b_1 -> ~g      b )
     3.70147986E-01    2     1000006       -24   # BR(~b_1 -> ~t_1    W-)
#
#         PDG            Width
DECAY   2000005     1.64594751E+02   # sbottom2 decays
#          BR         NDA      ID1       ID2
     1.62462666E-02    2     1000022         5   # BR(~b_2 -> ~chi_10 b )
     1.81223929E-02    2     1000023         5   # BR(~b_2 -> ~chi_20 b )
     1.56978829E-02    2     1000025         5   # BR(~b_2 -> ~chi_30 b )
     9.30661104E-07    2     1000035         5   # BR(~b_2 -> ~chi_40 b )
     3.64962920E-02    2    -1000024         6   # BR(~b_2 -> ~chi_1- t )
     1.84413836E-06    2    -1000037         6   # BR(~b_2 -> ~chi_2- t )
     9.13057312E-01    2     1000021         5   # BR(~b_2 -> ~g      b )
     8.11608668E-05    2     1000005        25   # BR(~b_2 -> ~b_1    h )
     1.06496246E-04    2     1000005        23   # BR(~b_2 -> ~b_1    Z )
     3.98368682E-06    2     1000006       -24   # BR(~b_2 -> ~t_1    W-)
     1.85437545E-04    2     2000006       -24   # BR(~b_2 -> ~t_2    W-)
#
#         PDG            Width
DECAY   1000002     1.76201438E+02   # sup_L decays
#          BR         NDA      ID1       ID2
     1.55056873E-03    2     1000022         2   # BR(~u_L -> ~chi_10 u)
     1.96072289E-05    2     1000023         2   # BR(~u_L -> ~chi_20 u)
     1.74175417E-03    2     1000025         2   # BR(~u_L -> ~chi_30 u)
     4.80281240E-02    2     1000035         2   # BR(~u_L -> ~chi_40 u)
     5.40608468E-04    2     1000024         1   # BR(~u_L -> ~chi_1+ d)
     9.59351356E-02    2     1000037         1   # BR(~u_L -> ~chi_2+ d)
     8.52184202E-01    2     1000021         2   # BR(~u_L -> ~g      u)
#
#         PDG            Width
DECAY   2000002     1.58881750E+02   # sup_R decays
#          BR         NDA      ID1       ID2
     3.49978978E-02    2     1000022         2   # BR(~u_R -> ~chi_10 u)
     1.45187020E-04    2     1000023         2   # BR(~u_R -> ~chi_20 u)
     2.06162119E-02    2     1000025         2   # BR(~u_R -> ~chi_30 u)
     3.18893292E-08    2     1000035         2   # BR(~u_R -> ~chi_40 u)
     9.44240671E-01    2     1000021         2   # BR(~u_R -> ~g      u)
#
#         PDG            Width
DECAY   1000001     1.76220594E+02   # sdown_L decays
#          BR         NDA      ID1       ID2
     2.44675044E-03    2     1000022         1   # BR(~d_L -> ~chi_10 d)
     1.03030507E-04    2     1000023         1   # BR(~d_L -> ~chi_20 d)
     6.99731582E-04    2     1000025         1   # BR(~d_L -> ~chi_30 d)
     4.80789688E-02    2     1000035         1   # BR(~d_L -> ~chi_40 d)
     7.17762744E-06    2    -1000024         2   # BR(~d_L -> ~chi_1- u)
     9.62569858E-02    2    -1000037         2   # BR(~d_L -> ~chi_2- u)
     8.52407355E-01    2     1000021         1   # BR(~d_L -> ~g      d)
#
#         PDG            Width
DECAY   2000001     1.52191790E+02   # sdown_R decays
#          BR         NDA      ID1       ID2
     9.13283051E-03    2     1000022         1   # BR(~d_R -> ~chi_10 d)
     3.78870534E-05    2     1000023         1   # BR(~d_R -> ~chi_20 d)
     5.37986940E-03    2     1000025         1   # BR(~d_R -> ~chi_30 d)
     8.32011111E-09    2     1000035         1   # BR(~d_R -> ~chi_40 d)
     9.85449405E-01    2     1000021         1   # BR(~d_R -> ~g      d)
#
#         PDG            Width
DECAY   1000004     1.76201438E+02   # scharm_L decays
#          BR         NDA      ID1       ID2
     1.55056873E-03    2     1000022         4   # BR(~c_L -> ~chi_10 c)
     1.96072289E-05    2     1000023         4   # BR(~c_L -> ~chi_20 c)
     1.74175417E-03    2     1000025         4   # BR(~c_L -> ~chi_30 c)
     4.80281240E-02    2     1000035         4   # BR(~c_L -> ~chi_40 c)
     5.40608468E-04    2     1000024         3   # BR(~c_L -> ~chi_1+ s)
     9.59351356E-02    2     1000037         3   # BR(~c_L -> ~chi_2+ s)
     8.52184202E-01    2     1000021         4   # BR(~c_L -> ~g      c)
#
#         PDG            Width
DECAY   2000004     1.58881750E+02   # scharm_R decays
#          BR         NDA      ID1       ID2
     3.49978978E-02    2     1000022         4   # BR(~c_R -> ~chi_10 c)
     1.45187020E-04    2     1000023         4   # BR(~c_R -> ~chi_20 c)
     2.06162119E-02    2     1000025         4   # BR(~c_R -> ~chi_30 c)
     3.18893292E-08    2     1000035         4   # BR(~c_R -> ~chi_40 c)
     9.44240671E-01    2     1000021         4   # BR(~c_R -> ~g      c)
#
#         PDG            Width
DECAY   1000003     1.76220594E+02   # sstrange_L decays
#          BR         NDA      ID1       ID2
     2.44675044E-03    2     1000022         3   # BR(~s_L -> ~chi_10 s)
     1.03030507E-04    2     1000023         3   # BR(~s_L -> ~chi_20 s)
     6.99731582E-04    2     1000025         3   # BR(~s_L -> ~chi_30 s)
     4.80789688E-02    2     1000035         3   # BR(~s_L -> ~chi_40 s)
     7.17762744E-06    2    -1000024         4   # BR(~s_L -> ~chi_1- c)
     9.62569858E-02    2    -1000037         4   # BR(~s_L -> ~chi_2- c)
     8.52407355E-01    2     1000021         3   # BR(~s_L -> ~g      s)
#
#         PDG            Width
DECAY   2000003     1.52191790E+02   # sstrange_R decays
#          BR         NDA      ID1       ID2
     9.13283051E-03    2     1000022         3   # BR(~s_R -> ~chi_10 s)
     3.78870534E-05    2     1000023         3   # BR(~s_R -> ~chi_20 s)
     5.37986940E-03    2     1000025         3   # BR(~s_R -> ~chi_30 s)
     8.32011111E-09    2     1000035         3   # BR(~s_R -> ~chi_40 s)
     9.85449405E-01    2     1000021         3   # BR(~s_R -> ~g      s)
#
#         PDG            Width
DECAY   1000011     3.11194078E+01   # selectron_L decays
#          BR         NDA      ID1       ID2
     9.61246401E-02    2     1000022        11   # BR(~e_L -> ~chi_10 e-)
     9.78975459E-06    2     1000023        11   # BR(~e_L -> ~chi_20 e-)
     7.06272384E-02    2     1000025        11   # BR(~e_L -> ~chi_30 e-)
     2.77255485E-01    2     1000035        11   # BR(~e_L -> ~chi_40 e-)
     4.19575687E-05    2    -1000024        12   # BR(~e_L -> ~chi_1- nu_e)
     5.55940889E-01    2    -1000037        12   # BR(~e_L -> ~chi_2- nu_e)
#
#         PDG            Width
DECAY   2000011     2.05893738E+01   # selectron_R decays
#          BR         NDA      ID1       ID2
     6.27724855E-01    2     1000022        11   # BR(~e_R -> ~chi_10 e-)
     2.60356220E-03    2     1000023        11   # BR(~e_R -> ~chi_20 e-)
     3.69671017E-01    2     1000025        11   # BR(~e_R -> ~chi_30 e-)
     5.65404427E-07    2     1000035        11   # BR(~e_R -> ~chi_40 e-)
#
#         PDG            Width
DECAY   1000013     3.11194078E+01   # smuon_L decays
#          BR         NDA      ID1       ID2
     9.61246401E-02    2     1000022        13   # BR(~mu_L -> ~chi_10 mu-)
     9.78975459E-06    2     1000023        13   # BR(~mu_L -> ~chi_20 mu-)
     7.06272384E-02    2     1000025        13   # BR(~mu_L -> ~chi_30 mu-)
     2.77255485E-01    2     1000035        13   # BR(~mu_L -> ~chi_40 mu-)
     4.19575687E-05    2    -1000024        14   # BR(~mu_L -> ~chi_1- nu_mu)
     5.55940889E-01    2    -1000037        14   # BR(~mu_L -> ~chi_2- nu_mu)
#
#         PDG            Width
DECAY   2000013     2.05893738E+01   # smuon_R decays
#          BR         NDA      ID1       ID2
     6.27724855E-01    2     1000022        13   # BR(~mu_R -> ~chi_10 mu-)
     2.60356220E-03    2     1000023        13   # BR(~mu_R -> ~chi_20 mu-)
     3.69671017E-01    2     1000025        13   # BR(~mu_R -> ~chi_30 mu-)
     5.65404427E-07    2     1000035        13   # BR(~mu_R -> ~chi_40 mu-)
#
#         PDG            Width
DECAY   1000015     3.07739583E+01   # stau_1 decays
#          BR         NDA      ID1       ID2
     3.32318949E-01    2     1000022        15   # BR(~tau_1 -> ~chi_10  tau-)
     4.42046332E-02    2     1000023        15   # BR(~tau_1 -> ~chi_20  tau-)
     1.50142234E-01    2     1000025        15   # BR(~tau_1 -> ~chi_30  tau-)
     1.39174467E-01    2     1000035        15   # BR(~tau_1 -> ~chi_40  tau-)
     5.50921246E-02    2    -1000024        16   # BR(~tau_1 -> ~chi_1-  nu_tau)
     2.79067591E-01    2    -1000037        16   # BR(~tau_1 -> ~chi_2-  nu_tau)
#
#         PDG            Width
DECAY   2000015     3.07381563E+01   # stau_2 decays
#          BR         NDA      ID1       ID2
     2.30594981E-01    2     1000022        15   # BR(~tau_2 -> ~chi_10  tau-)
     6.19561280E-02    2     1000023        15   # BR(~tau_2 -> ~chi_20  tau-)
     2.30807671E-01    2     1000025        15   # BR(~tau_2 -> ~chi_30  tau-)
     1.41775737E-01    2     1000035        15   # BR(~tau_2 -> ~chi_40  tau-)
     5.05848698E-02    2    -1000024        16   # BR(~tau_2 -> ~chi_1-  nu_tau)
     2.84280613E-01    2    -1000037        16   # BR(~tau_2 -> ~chi_2-  nu_tau)
#
#         PDG            Width
DECAY   1000012     3.11304211E+01   # snu_eL decays
#          BR         NDA      ID1       ID2
     1.11770996E-01    2     1000022        12   # BR(~nu_eL -> ~chi_10 nu_e)
     1.47178939E-03    2     1000023        12   # BR(~nu_eL -> ~chi_20 nu_e)
     5.23197819E-02    2     1000025        12   # BR(~nu_eL -> ~chi_30 nu_e)
     2.77612677E-01    2     1000035        12   # BR(~nu_eL -> ~chi_40 nu_e)
     3.15835415E-03    2     1000024        11   # BR(~nu_eL -> ~chi_1+ e-)
     5.53666402E-01    2     1000037        11   # BR(~nu_eL -> ~chi_2+ e-)
#
#         PDG            Width
DECAY   1000014     3.11304211E+01   # snu_muL decays
#          BR         NDA      ID1       ID2
     1.11770996E-01    2     1000022        14   # BR(~nu_muL -> ~chi_10 nu_mu)
     1.47178939E-03    2     1000023        14   # BR(~nu_muL -> ~chi_20 nu_mu)
     5.23197819E-02    2     1000025        14   # BR(~nu_muL -> ~chi_30 nu_mu)
     2.77612677E-01    2     1000035        14   # BR(~nu_muL -> ~chi_40 nu_mu)
     3.15835415E-03    2     1000024        13   # BR(~nu_muL -> ~chi_1+ mu-)
     5.53666402E-01    2     1000037        13   # BR(~nu_muL -> ~chi_2+ mu-)
#
#         PDG            Width
DECAY   1000016     3.44068356E+01   # snu_tauL decays
#          BR         NDA      ID1       ID2
     1.01170717E-01    2     1000022        16   # BR(~nu_tauL -> ~chi_10 nu_tau)
     1.33221014E-03    2     1000023        16   # BR(~nu_tauL -> ~chi_20 nu_tau)
     4.73580242E-02    2     1000025        16   # BR(~nu_tauL -> ~chi_30 nu_tau)
     2.51434594E-01    2     1000035        16   # BR(~nu_tauL -> ~chi_40 nu_tau)
     9.72466824E-02    2     1000024        15   # BR(~nu_tauL -> ~chi_1+ tau-)
     5.01457772E-01    2     1000037        15   # BR(~nu_tauL -> ~chi_2+ tau-)
#
#         PDG            Width
DECAY   1000024     7.44097434E-05   # chargino1+ decays
#           BR         NDA      ID1       ID2       ID3
     3.33625579E-01    3     1000022         2        -1   # BR(~chi_1+ -> ~chi_10 u    db)
     3.33625579E-01    3     1000022         4        -3   # BR(~chi_1+ -> ~chi_10 c    sb)
     1.11209918E-01    3     1000022       -11        12   # BR(~chi_1+ -> ~chi_10 e+   nu_e)
     1.11209918E-01    3     1000022       -13        14   # BR(~chi_1+ -> ~chi_10 mu+  nu_mu)
     1.10329005E-01    3     1000022       -15        16   # BR(~chi_1+ -> ~chi_10 tau+ nu_tau)
#
#         PDG            Width
DECAY   1000037     1.65471971E+01   # chargino2+ decays
#          BR         NDA      ID1       ID2
     3.31645730E-02    2     1000006        -5   # BR(~chi_2+ -> ~t_1     bb)
     2.46600574E-01    2     1000024        23   # BR(~chi_2+ -> ~chi_1+  Z )
     7.03078776E-02    2     1000022        24   # BR(~chi_2+ -> ~chi_10  W+)
     2.40619380E-01    2     1000023        24   # BR(~chi_2+ -> ~chi_20  W+)
     1.69185175E-01    2     1000025        24   # BR(~chi_2+ -> ~chi_30  W+)
     2.40122419E-01    2     1000024        25   # BR(~chi_2+ -> ~chi_1+  h )
#
#         PDG            Width
DECAY   1000022     0.00000000E+00   # neutralino1 decays
#
#         PDG            Width
DECAY   1000023     7.85310353E-05   # neutralino2 decays
#          BR         NDA      ID1       ID2
     3.22166235E-04    2     1000022        22   # BR(~chi_20 -> ~chi_10 gam)
#           BR         NDA      ID1       ID2       ID3
     1.18327225E-01    3     1000022        -2         2   # BR(~chi_20 -> ~chi_10 ub      u)
     1.53508366E-01    3     1000022        -1         1   # BR(~chi_20 -> ~chi_10 db      d)
     1.18327225E-01    3     1000022        -4         4   # BR(~chi_20 -> ~chi_10 cb      c)
     1.53508366E-01    3     1000022        -3         3   # BR(~chi_20 -> ~chi_10 sb      s)
     1.39528030E-01    3     1000022        -5         5   # BR(~chi_20 -> ~chi_10 bb      b)
     3.52122504E-02    3     1000022       -11        11   # BR(~chi_20 -> ~chi_10 e+      e-)
     3.52122504E-02    3     1000022       -13        13   # BR(~chi_20 -> ~chi_10 mu+     mu-)
     3.48484400E-02    3     1000022       -15        15   # BR(~chi_20 -> ~chi_10 tau+    tau-)
     7.04007198E-02    3     1000022       -12        12   # BR(~chi_20 -> ~chi_10 nu_eb   nu_e)
     7.04007198E-02    3     1000022       -14        14   # BR(~chi_20 -> ~chi_10 nu_mub  nu_mu)
     7.04007180E-02    3     1000022       -16        16   # BR(~chi_20 -> ~chi_10 nu_taub nu_tau)
     6.53350506E-07    3     1000024        -2         1   # BR(~chi_20 -> ~chi_1+ ub      d)
     6.53350506E-07    3    -1000024        -1         2   # BR(~chi_20 -> ~chi_1- db      u)
     6.53350506E-07    3     1000024        -4         3   # BR(~chi_20 -> ~chi_1+ cb      s)
     6.53350506E-07    3    -1000024        -3         4   # BR(~chi_20 -> ~chi_1- sb      c)
     2.17783719E-07    3     1000024       -12        11   # BR(~chi_20 -> ~chi_1+ nu_eb   e-)
     2.17783719E-07    3    -1000024        12       -11   # BR(~chi_20 -> ~chi_1- nu_e    e+)
     2.17783719E-07    3     1000024       -14        13   # BR(~chi_20 -> ~chi_1+ nu_mub  mu-)
     2.17783719E-07    3    -1000024        14       -13   # BR(~chi_20 -> ~chi_1- nu_mu   mu+)
     1.95394520E-08    3     1000024       -16        15   # BR(~chi_20 -> ~chi_1+ nu_taub tau-)
     1.95394520E-08    3    -1000024        16       -15   # BR(~chi_20 -> ~chi_1- nu_tau  tau+)
#
#         PDG            Width
DECAY   1000025     8.91328273E-06   # neutralino3 decays
#          BR         NDA      ID1       ID2
     5.24968585E-02    2     1000022        22   # BR(~chi_30 -> ~chi_10 gam)
     3.35698341E-02    2     1000023        22   # BR(~chi_30 -> ~chi_20 gam)
#           BR         NDA      ID1       ID2       ID3
     2.09536505E-02    3     1000022        -2         2   # BR(~chi_30 -> ~chi_10 ub      u)
     2.70012202E-02    3     1000022        -1         1   # BR(~chi_30 -> ~chi_10 db      d)
     2.09536505E-02    3     1000022        -4         4   # BR(~chi_30 -> ~chi_10 cb      c)
     2.70012202E-02    3     1000022        -3         3   # BR(~chi_30 -> ~chi_10 sb      s)
     2.58457148E-02    3     1000022        -5         5   # BR(~chi_30 -> ~chi_10 bb      b)
     6.05097027E-03    3     1000022       -11        11   # BR(~chi_30 -> ~chi_10 e+      e-)
     6.05097027E-03    3     1000022       -13        13   # BR(~chi_30 -> ~chi_10 mu+     mu-)
     6.04069770E-03    3     1000022       -15        15   # BR(~chi_30 -> ~chi_10 tau+    tau-)
     1.24534575E-02    3     1000022       -12        12   # BR(~chi_30 -> ~chi_10 nu_eb   nu_e)
     1.24534575E-02    3     1000022       -14        14   # BR(~chi_30 -> ~chi_10 nu_mub  nu_mu)
     1.24534085E-02    3     1000022       -16        16   # BR(~chi_30 -> ~chi_10 nu_taub nu_tau)
     1.52439590E-02    3     1000023        -2         2   # BR(~chi_30 -> ~chi_20 ub      u)
     1.97769905E-02    3     1000023        -1         1   # BR(~chi_30 -> ~chi_20 db      d)
     1.52439590E-02    3     1000023        -4         4   # BR(~chi_30 -> ~chi_20 cb      c)
     1.97769905E-02    3     1000023        -3         3   # BR(~chi_30 -> ~chi_20 sb      s)
     1.01218794E-02    3     1000023        -5         5   # BR(~chi_30 -> ~chi_20 bb      b)
     4.53691947E-03    3     1000023       -11        11   # BR(~chi_30 -> ~chi_20 e+      e-)
     4.53691947E-03    3     1000023       -13        13   # BR(~chi_30 -> ~chi_20 mu+     mu-)
     4.29591230E-03    3     1000023       -15        15   # BR(~chi_30 -> ~chi_20 tau+    tau-)
     9.06940667E-03    3     1000023       -12        12   # BR(~chi_30 -> ~chi_20 nu_eb   nu_e)
     9.06940667E-03    3     1000023       -14        14   # BR(~chi_30 -> ~chi_20 nu_mub  nu_mu)
     9.06940680E-03    3     1000023       -16        16   # BR(~chi_30 -> ~chi_20 nu_taub nu_tau)
     1.03060981E-01    3     1000024        -2         1   # BR(~chi_30 -> ~chi_1+ ub      d)
     1.03060981E-01    3    -1000024        -1         2   # BR(~chi_30 -> ~chi_1- db      u)
     1.03060981E-01    3     1000024        -4         3   # BR(~chi_30 -> ~chi_1+ cb      s)
     1.03060981E-01    3    -1000024        -3         4   # BR(~chi_30 -> ~chi_1- sb      c)
     3.43532173E-02    3     1000024       -12        11   # BR(~chi_30 -> ~chi_1+ nu_eb   e-)
     3.43532173E-02    3    -1000024        12       -11   # BR(~chi_30 -> ~chi_1- nu_e    e+)
     3.43532173E-02    3     1000024       -14        13   # BR(~chi_30 -> ~chi_1+ nu_mub  mu-)
     3.43532173E-02    3    -1000024        14       -13   # BR(~chi_30 -> ~chi_1- nu_mu   mu+)
     3.31381726E-02    3     1000024       -16        15   # BR(~chi_30 -> ~chi_1+ nu_taub tau-)
     3.31381726E-02    3    -1000024        16       -15   # BR(~chi_30 -> ~chi_1- nu_tau  tau+)
#
#         PDG            Width
DECAY   1000035     1.65330828E+01   # neutralino4 decays
#          BR         NDA      ID1       ID2
     3.00560164E-02    2     1000022        23   # BR(~chi_40 -> ~chi_10   Z )
     1.51908194E-01    2     1000023        23   # BR(~chi_40 -> ~chi_20   Z )
     6.47835409E-02    2     1000025        23   # BR(~chi_40 -> ~chi_30   Z )
     2.40422059E-01    2     1000024       -24   # BR(~chi_40 -> ~chi_1+   W-)
     2.40422059E-01    2    -1000024        24   # BR(~chi_40 -> ~chi_1-   W+)
     4.08820906E-02    2     1000022        25   # BR(~chi_40 -> ~chi_10   h )
     9.27821869E-02    2     1000023        25   # BR(~chi_40 -> ~chi_20   h )
     1.05962752E-01    2     1000025        25   # BR(~chi_40 -> ~chi_30   h )
     1.63905506E-02    2     1000006        -6   # BR(~chi_40 -> ~t_1      tb)
     1.63905506E-02    2    -1000006         6   # BR(~chi_40 -> ~t_1*     t )
#
#         PDG            Width
DECAY        25     4.01461265E-03   # h decays
#          BR         NDA      ID1       ID2
     5.97801803E-01    2           5        -5   # BR(h -> b       bb     )
     6.47915737E-02    2         -15        15   # BR(h -> tau+    tau-   )
     2.29362624E-04    2         -13        13   # BR(h -> mu+     mu-    )
     4.86570520E-04    2           3        -3   # BR(h -> s       sb     )
     2.11327517E-02    2           4        -4   # BR(h -> c       cb     )
     6.88568930E-02    2          21        21   # BR(h -> g       g      )
     2.37072728E-03    2          22        22   # BR(h -> gam     gam    )
     1.60434162E-03    2          22        23   # BR(h -> Z       gam    )
     2.15553371E-01    2          24       -24   # BR(h -> W+      W-     )
     2.71726058E-02    2          23        23   # BR(h -> Z       Z      )
#
#         PDG            Width
DECAY        35     5.44322298E+01   # H decays
#          BR         NDA      ID1       ID2
     3.53320715E-01    2           5        -5   # BR(H -> b       bb     )
     6.09124750E-02    2         -15        15   # BR(H -> tau+    tau-   )
     2.15371758E-04    2         -13        13   # BR(H -> mu+     mu-    )
     2.54747641E-04    2           3        -3   # BR(H -> s       sb     )
     7.14505739E-08    2           4        -4   # BR(H -> c       cb     )
     7.16083515E-03    2           6        -6   # BR(H -> t       tb     )
     8.36675337E-07    2          21        21   # BR(H -> g       g      )
     6.01658594E-10    2          22        22   # BR(H -> gam     gam    )
     1.84261228E-09    2          23        22   # BR(H -> Z       gam    )
     1.77651319E-06    2          24       -24   # BR(H -> W+      W-     )
     8.87641332E-07    2          23        23   # BR(H -> Z       Z      )
     6.77382509E-06    2          25        25   # BR(H -> h       h      )
    -1.46711715E-24    2          36        36   # BR(H -> A       A      )
     4.87253845E-21    2          23        36   # BR(H -> Z       A      )
     1.86951940E-03    2     1000024  -1000024   # BR(H -> ~chi_1+ ~chi_1-)
     1.60658229E-01    2     1000024  -1000037   # BR(H -> ~chi_1+ ~chi_2-)
     1.60658229E-01    2     1000037  -1000024   # BR(H -> ~chi_2+ ~chi_1-)
     2.70714835E-02    2     1000022   1000022   # BR(H -> ~chi_10 ~chi_10)
     7.17151149E-04    2     1000023   1000023   # BR(H -> ~chi_20 ~chi_20)
     1.72866248E-02    2     1000025   1000025   # BR(H -> ~chi_30 ~chi_30)
     2.21819730E-02    2     1000022   1000023   # BR(H -> ~chi_10 ~chi_20)
     3.39313686E-03    2     1000022   1000025   # BR(H -> ~chi_10 ~chi_30)
     3.36290160E-02    2     1000022   1000035   # BR(H -> ~chi_10 ~chi_40)
     1.61540812E-02    2     1000023   1000025   # BR(H -> ~chi_20 ~chi_30)
     8.12840708E-02    2     1000023   1000035   # BR(H -> ~chi_20 ~chi_40)
     4.62610863E-02    2     1000025   1000035   # BR(H -> ~chi_30 ~chi_40)
     3.09769047E-04    2     1000006  -1000006   # BR(H -> ~t_1    ~t_1*  )
     3.32556835E-03    2     1000006  -2000006   # BR(H -> ~t_1    ~t_2*  )
     3.32556835E-03    2     2000006  -1000006   # BR(H -> ~t_2    ~t_1*  )
#
#         PDG            Width
DECAY        36     5.44251313E+01   # A decays
#          BR         NDA      ID1       ID2
     3.53392531E-01    2           5        -5   # BR(A -> b       bb     )
     6.09207001E-02    2         -15        15   # BR(A -> tau+    tau-   )
     2.15400670E-04    2         -13        13   # BR(A -> mu+     mu-    )
     2.54823411E-04    2           3        -3   # BR(A -> s       sb     )
     7.19228903E-08    2           4        -4   # BR(A -> c       cb     )
     7.17559897E-03    2           6        -6   # BR(A -> t       tb     )
     1.47440399E-05    2          21        21   # BR(A -> g       g      )
     5.88141720E-08    2          22        22   # BR(A -> gam     gam    )
     1.62143868E-08    2          23        22   # BR(A -> Z       gam    )
     1.77302734E-06    2          23        25   # BR(A -> Z       h      )
     1.88070044E-03    2     1000024  -1000024   # BR(A -> ~chi_1+ ~chi_1-)
     1.60675863E-01    2     1000024  -1000037   # BR(A -> ~chi_1+ ~chi_2-)
     1.60675863E-01    2     1000037  -1000024   # BR(A -> ~chi_2+ ~chi_1-)
     2.32605084E-02    2     1000022   1000022   # BR(A -> ~chi_10 ~chi_10)
     9.03932953E-04    2     1000023   1000023   # BR(A -> ~chi_20 ~chi_20)
     1.44126705E-02    2     1000025   1000025   # BR(A -> ~chi_30 ~chi_30)
     2.73265264E-02    2     1000022   1000023   # BR(A -> ~chi_10 ~chi_20)
     2.65672517E-03    2     1000022   1000025   # BR(A -> ~chi_10 ~chi_30)
     3.50832847E-02    2     1000022   1000035   # BR(A -> ~chi_10 ~chi_40)
     1.82522461E-02    2     1000023   1000025   # BR(A -> ~chi_20 ~chi_30)
     7.79581738E-02    2     1000023   1000035   # BR(A -> ~chi_20 ~chi_40)
     4.80736842E-02    2     1000025   1000035   # BR(A -> ~chi_30 ~chi_40)
     3.43205103E-03    2     1000006  -2000006   # BR(A -> ~t_1    ~t_2*  )
     3.43205103E-03    2    -1000006   2000006   # BR(A -> ~t_1*   ~t_2   )
#
#         PDG            Width
DECAY        37     5.43922437E+01   # H+ decays
#          BR         NDA      ID1       ID2
     5.64723535E-04    2           4        -5   # BR(H+ -> c       bb     )
     6.09729827E-02    2         -15        16   # BR(H+ -> tau+    nu_tau )
     2.15585529E-04    2         -13        14   # BR(H+ -> mu+     nu_mu  )
     3.61422753E-06    2           2        -5   # BR(H+ -> u       bb     )
     1.22133301E-05    2           2        -3   # BR(H+ -> u       sb     )
     2.51267476E-04    2           4        -3   # BR(H+ -> c       sb     )
     3.59760876E-01    2           6        -5   # BR(H+ -> t       bb     )
     1.77606956E-06    2          24        25   # BR(H+ -> W+      h      )
     2.58931208E-14    2          24        36   # BR(H+ -> W+      A      )
     5.11798579E-02    2     1000024   1000022   # BR(H+ -> ~chi_1+ ~chi_10)
     6.79714108E-06    2     1000024   1000023   # BR(H+ -> ~chi_1+ ~chi_20)
     3.62930887E-02    2     1000024   1000025   # BR(H+ -> ~chi_1+ ~chi_30)
     1.60983279E-01    2     1000024   1000035   # BR(H+ -> ~chi_1+ ~chi_40)
     6.88664424E-02    2     1000037   1000022   # BR(H+ -> ~chi_2+ ~chi_10)
     1.59412914E-01    2     1000037   1000023   # BR(H+ -> ~chi_2+ ~chi_20)
     9.45646563E-02    2     1000037   1000025   # BR(H+ -> ~chi_2+ ~chi_30)
     6.90992630E-03    2     1000006  -1000005   # BR(H+ -> ~t_1    ~b_1*  )
