#
#                              ======================
#                              | THE SUSYHIT OUTPUT |
#                              ======================
#
#
#              ------------------------------------------------------
#              |     This is the output of the SUSY-HIT package     |
#              |  created by A.Djouadi, M.Muehlleitner and M.Spira. |
#              |  In case of problems with SUSY-HIT email to        |
#              |           margarete.muehlleitner@kit.edu           |
#              |           michael.spira@psi.ch                     |
#              |           abdelhak.djouadi@cern.ch                 |
#              ------------------------------------------------------
#
#              ------------------------------------------------------
#              |  SUSY Les Houches Accord - MSSM Spectrum + Decays  |
#              |              based on the decay programs           |
#              |                                                    |
#              |                     SDECAY 1.5                     |
#              |                                                    |
#              |  Authors: M.Muhlleitner, A.Djouadi and Y.Mambrini  |
#              |  Ref.:    Comput.Phys.Commun.168(2005)46           |
#              |           [hep-ph/0311167]                         |
#              |                                                    |
#              |                     HDECAY 3.4                     |
#              |                                                    |
#              |  By: A.Djouadi,J.Kalinowski,M.Muhlleitner,M.Spira  |
#              |  Ref.:    Comput.Phys.Commun.108(1998)56           |
#              |           [hep-ph/9704448]                         |
#              |                                                    |
#              |                                                    |
#              |  If not stated otherwise all DRbar couplings and   |
#              |  soft SUSY breaking masses are given at the scale  |
#              |  Q=  0.12854000E+04
#              |                                                    |
#              ------------------------------------------------------
#
#
BLOCK DCINFO  # Decay Program information
     1   SDECAY/HDECAY # decay calculator
     2   1.5  /3.4    # version number
#
BLOCK SPINFO  # Spectrum calculator information
     1    SOFTSUSY    # spectrum calculator                
     2    3.7.3       # version number                     
#
BLOCK MODSEL  # Model selection
     1     0   #  nonUniversal                                     
#
BLOCK SMINPUTS  # Standard Model inputs
         1     1.27934000E+02   # alpha_em^-1(M_Z)^MSbar
         2     1.16639000E-05   # G_F [GeV^-2]
         3     1.17200000E-01   # alpha_S(M_Z)^MSbar
         4     9.11870000E+01   # M_Z pole mass
         5     4.19000000E+00   # mb(mb)^MSbar
         6     1.72500000E+02   # mt pole mass
         7     1.77690000E+00   # mtau pole mass
#
BLOCK MINPAR  # Input parameters - minimal models
         3     2.00000000E+01   # tanb                
#
BLOCK EXTPAR  # Input parameters - non-minimal models
         0    -1.00000000E+00   # Set                 
         1     2.49900000E+02   # M_1(MX)             
         2     4.99900000E+02   # M_2(MX)             
         3     2.20000000E+03   # M_3(MX)             
        11     2.94338000E+03   # At(MX)              
        12     0.00000000E+00   # Ab(MX)              
        13     0.00000000E+00   # Atau(MX)            
        23     3.00000000E+03   # mu(MX)              
        25     2.00000000E+01   # tan                 
        26     3.00000000E+03   # mA(pole)            
        31     3.00000000E+03   # meL(MX)             
        32     3.00000000E+03   # mmuL(MX)            
        33     3.00000000E+03   # mtauL(MX)           
        34     3.00000000E+03   # meR(MX)             
        35     3.00000000E+03   # mmuR(MX)            
        36     3.00000000E+03   # mtauR(MX)           
        41     3.00000000E+03   # mqL1(MX)            
        42     3.00000000E+03   # mqL2(MX)            
        43     5.49900000E+02   # mqL3(MX)            
        44     3.00000000E+03   # muR(MX)             
        45     3.00000000E+03   # mcR(MX)             
        46     3.00000000E+03   # mtR(MX)             
        47     3.00000000E+03   # mdR(MX)             
        48     3.00000000E+03   # msR(MX)             
        49     3.00000000E+03   # mbR(MX)             
#
BLOCK MASS  # Mass Spectrum
# PDG code           mass       particle
        24     8.04023188E+01   # W+
        25     1.24518427E+02   # h
        35     3.00020286E+03   # H
        36     2.99999958E+03   # A
        37     3.00095311E+03   # H+
         5     4.81337004E+00   # b-quark pole mass calculated from mb(mb)_Msbar
   1000001     3.02654569E+03   # ~d_L
   2000001     3.02144952E+03   # ~d_R
   1000002     3.02562958E+03   # ~u_L
   2000002     3.02327154E+03   # ~u_R
   1000003     3.02654569E+03   # ~s_L
   2000003     3.02144952E+03   # ~s_R
   1000004     3.02562958E+03   # ~c_L
   2000004     3.02327154E+03   # ~c_R
   1000005     6.28497536E+02   # ~b_1
   2000005     3.02087566E+03   # ~b_2
   1000006     6.25893920E+02   # ~t_1
   2000006     3.00625486E+03   # ~t_2
   1000011     3.00649778E+03   # ~e_L
   2000011     3.00129829E+03   # ~e_R
   1000012     3.00510556E+03   # ~nu_eL
   1000013     3.00649778E+03   # ~mu_L
   2000013     3.00129829E+03   # ~mu_R
   1000014     3.00510556E+03   # ~nu_muL
   1000015     2.98574528E+03   # ~tau_1
   2000015     3.02212699E+03   # ~tau_2
   1000016     3.00515701E+03   # ~nu_tauL
   1000021     2.33272504E+03   # ~g
   1000022     2.52070411E+02   # ~chi_10
   1000023     5.26841480E+02   # ~chi_20
   1000025    -3.00120161E+03   # ~chi_30
   1000035     3.00193019E+03   # ~chi_40
   1000024     5.27003143E+02   # ~chi_1+
   1000037     3.00251422E+03   # ~chi_2+
#
BLOCK NMIX  # Neutralino Mixing Matrix
  1  1     9.99886528E-01   # N_11
  1  2    -8.48158926E-04   # N_12
  1  3     1.49096160E-02   # N_13
  1  4    -1.97861674E-03   # N_14
  2  1     1.26033778E-03   # N_21
  2  2     9.99620908E-01   # N_22
  2  3    -2.68910894E-02   # N_23
  2  4     5.77249519E-03   # N_24
  3  1    -9.12824134E-03   # N_31
  3  2     1.49435032E-02   # N_32
  3  3     7.06861263E-01   # N_33
  3  4     7.07135434E-01   # N_34
  4  1    -1.19171182E-02   # N_41
  4  2     2.31087252E-02   # N_42
  4  3     7.06683612E-01   # N_43
  4  4    -7.07051795E-01   # N_44
#
BLOCK UMIX  # Chargino Mixing Matrix U
  1  1     9.99276063E-01   # U_11
  1  2    -3.80440476E-02   # U_12
  2  1     3.80440476E-02   # U_21
  2  2     9.99276063E-01   # U_22
#
BLOCK VMIX  # Chargino Mixing Matrix V
  1  1     9.99966642E-01   # V_11
  1  2    -8.16786524E-03   # V_12
  2  1     8.16786524E-03   # V_21
  2  2     9.99966642E-01   # V_22
#
BLOCK STOPMIX  # Stop Mixing Matrix
  1  1     9.98881400E-01   # cos(theta_t)
  1  2    -4.72858196E-02   # sin(theta_t)
  2  1     4.72858196E-02   # -sin(theta_t)
  2  2     9.98881400E-01   # cos(theta_t)
#
BLOCK SBOTMIX  # Sbottom Mixing Matrix
  1  1     9.99918929E-01   # cos(theta_b)
  1  2     1.27332410E-02   # sin(theta_b)
  2  1    -1.27332410E-02   # -sin(theta_b)
  2  2     9.99918929E-01   # cos(theta_b)
#
BLOCK STAUMIX  # Stau Mixing Matrix
  1  1     7.06933099E-01   # cos(theta_tau)
  1  2     7.07280421E-01   # sin(theta_tau)
  2  1    -7.07280421E-01   # -sin(theta_tau)
  2  2     7.06933099E-01   # cos(theta_tau)
#
BLOCK ALPHA  # Higgs mixing
          -5.01913737E-02   # Mixing angle in the neutral Higgs boson sector
#
BLOCK HMIX Q=  1.28539998E+03  # DRbar Higgs Parameters
         1     3.00000000E+03   # mu(Q)MSSM           
         2     2.00000000E+01   # tan                 
         3     2.44588958E+02   # higgs               
         4     6.77845398E+06   # mA^2(Q)MSSM         
#
BLOCK GAUGE Q=  1.28539998E+03  # The gauge couplings
     1     3.61657975E-01   # gprime(Q) DRbar
     2     6.37586254E-01   # g(Q) DRbar
     3     1.02980668E+00   # g3(Q) DRbar
#
BLOCK AU Q=  1.28539998E+03  # The trilinear couplings
  1  1     1.53708310E-06   # A_u(Q) DRbar
  2  2     1.53710591E-06   # A_c(Q) DRbar
  3  3     2.94338000E+03   # A_t(Q) DRbar
#
BLOCK AD Q=  1.28539998E+03  # The trilinear couplings
  1  1     4.02164817E-07   # A_d(Q) DRbar
  2  2     4.02239447E-07   # A_s(Q) DRbar
  3  3     8.97433630E-07   # A_b(Q) DRbar
#
BLOCK AE Q=  1.28539998E+03  # The trilinear couplings
  1  1     0.00000000E+00   # A_e(Q) DRbar
  2  2     8.42546738E-08   # A_mu(Q) DRbar
  3  3     8.52456169E-08   # A_tau(Q) DRbar
#
BLOCK Yu Q=  1.28539998E+03  # The Yukawa couplings
  1  1     0.00000000E+00   # y_u(Q) DRbar
  2  2     0.00000000E+00   # y_c(Q) DRbar
  3  3     8.55365207E-01   # y_t(Q) DRbar
#
BLOCK Yd Q=  1.28539998E+03  # The Yukawa couplings
  1  1     0.00000000E+00   # y_d(Q) DRbar
  2  2     0.00000000E+00   # y_s(Q) DRbar
  3  3     2.13702169E-01   # y_b(Q) DRbar
#
BLOCK Ye Q=  1.28539998E+03  # The Yukawa couplings
  1  1     0.00000000E+00   # y_e(Q) DRbar
  2  2     0.00000000E+00   # y_mu(Q) DRbar
  3  3     2.06479095E-01   # y_tau(Q) DRbar
#
BLOCK MSOFT Q=  1.28539998E+03  # The soft SUSY breaking masses at the scale Q
         1     2.49900000E+02   # M_1(Q)              
         2     4.99900000E+02   # M_2(Q)              
         3     2.20000000E+03   # M_3(Q)              
        21    -8.80014675E+04   # M^2_Hd              
        22    -9.11139452E+06   # M^2_Hu              
        31     3.00000000E+03   # M_eL                
        32     3.00000000E+03   # M_muL               
        33     3.00000000E+03   # M_tauL              
        34     3.00000000E+03   # M_eR                
        35     3.00000000E+03   # M_muR               
        36     3.00000000E+03   # M_tauR              
        41     3.00000000E+03   # M_q1L               
        42     3.00000000E+03   # M_q2L               
        43     5.49899994E+02   # M_q3L               
        44     3.00000000E+03   # M_uR                
        45     3.00000000E+03   # M_cR                
        46     3.00000000E+03   # M_tR                
        47     3.00000000E+03   # M_dR                
        48     3.00000000E+03   # M_sR                
        49     3.00000000E+03   # M_bR                
#
#
#
#                             =================
#                             |The decay table|
#                             =================
#
# - The QCD corrections to the decays gluino -> squark  + quark
#                                     squark -> gaugino + quark_prime
#                                     squark -> squark_prime + Higgs
#                                     squark -> gluino  + quark
#   are included.
#
# - The multi-body decays for the inos, stops and sbottoms are included.
#
# - The loop induced decays for the gluino, neutralinos and stops
#   are included.
#
# - The SUSY decays of the top quark are included.
#
#
#         PDG            Width
DECAY         6     1.41099382E+00   # top decays
#          BR         NDA      ID1       ID2
     1.00000000E+00    2           5        24   # BR(t ->  b    W+)
#
#         PDG            Width
DECAY   1000021     8.04531036E+01   # gluino decays
#          BR         NDA      ID1       ID2
     2.48249211E-01    2     1000005        -5   # BR(~g -> ~b_1  bb)
     2.48249211E-01    2    -1000005         5   # BR(~g -> ~b_1* b )
     2.51750789E-01    2     1000006        -6   # BR(~g -> ~t_1  tb)
     2.51750789E-01    2    -1000006         6   # BR(~g -> ~t_1* t )
#
#         PDG            Width
DECAY   1000006     5.05988849E-01   # stop1 decays
#          BR         NDA      ID1       ID2
     9.78933299E-02    2     1000022         6   # BR(~t_1 -> ~chi_10 t )
     9.02106670E-01    2     1000024         5   # BR(~t_1 -> ~chi_1+ b )
#
#         PDG            Width
DECAY   2000006     1.04580178E+02   # stop2 decays
#          BR         NDA      ID1       ID2
     6.20272324E-02    2     1000022         6   # BR(~t_2 -> ~chi_10 t )
     3.26949161E-04    2     1000023         6   # BR(~t_2 -> ~chi_20 t )
     0.00000000E+00    2     1000025         6   # BR(~t_2 -> ~chi_30 t )
     6.56867895E-04    2     1000024         5   # BR(~t_2 -> ~chi_1+ b )
     3.22722023E-01    2     1000021         6   # BR(~t_2 -> ~g      t )
     1.62421392E-01    2     1000006        25   # BR(~t_2 -> ~t_1    h )
     1.51502158E-01    2     1000006        23   # BR(~t_2 -> ~t_1    Z )
     3.00343378E-01    2     1000005        24   # BR(~t_2 -> ~b_1    W+)
#
#         PDG            Width
DECAY   1000005     3.07431387E-01   # sbottom1 decays
#          BR         NDA      ID1       ID2
     2.20715623E-01    2     1000022         5   # BR(~b_1 -> ~chi_10 b )
     7.79284377E-01    2     1000023         5   # BR(~b_1 -> ~chi_20 b )
#
#         PDG            Width
DECAY   2000005     4.24934828E+01   # sbottom2 decays
#          BR         NDA      ID1       ID2
     3.85812704E-02    2     1000022         5   # BR(~b_2 -> ~chi_10 b )
     1.06823112E-07    2     1000023         5   # BR(~b_2 -> ~chi_20 b )
     5.68165999E-06    2     1000025         5   # BR(~b_2 -> ~chi_30 b )
     5.38974983E-06    2     1000035         5   # BR(~b_2 -> ~chi_40 b )
     1.48526440E-08    2    -1000024         6   # BR(~b_2 -> ~chi_1- t )
     8.27441929E-01    2     1000021         5   # BR(~b_2 -> ~g      b )
     2.96529818E-02    2     1000005        25   # BR(~b_2 -> ~b_1    h )
     4.27592511E-02    2     1000005        23   # BR(~b_2 -> ~b_1    Z )
     6.15533747E-02    2     1000006       -24   # BR(~b_2 -> ~t_1    W-)
#
#         PDG            Width
DECAY   1000002     6.88722752E+01   # sup_L decays
#          BR         NDA      ID1       ID2
     5.91031889E-03    2     1000022         2   # BR(~u_L -> ~chi_10 u)
     1.59357240E-01    2     1000023         2   # BR(~u_L -> ~chi_20 u)
     9.01036708E-09    2     1000025         2   # BR(~u_L -> ~chi_30 u)
     2.11486368E-08    2     1000035         2   # BR(~u_L -> ~chi_40 u)
     3.18771082E-01    2     1000024         1   # BR(~u_L -> ~chi_1+ d)
     6.18006666E-09    2     1000037         1   # BR(~u_L -> ~chi_2+ d)
     5.15961322E-01    2     1000021         2   # BR(~u_L -> ~g      u)
#
#         PDG            Width
DECAY   2000002     4.19118509E+01   # sup_R decays
#          BR         NDA      ID1       ID2
     1.56670313E-01    2     1000022         2   # BR(~u_R -> ~chi_10 u)
     2.37783580E-07    2     1000023         2   # BR(~u_R -> ~chi_20 u)
     3.31750843E-09    2     1000025         2   # BR(~u_R -> ~chi_30 u)
     5.29650990E-09    2     1000035         2   # BR(~u_R -> ~chi_40 u)
     8.43329440E-01    2     1000021         2   # BR(~u_R -> ~g      u)
#
#         PDG            Width
DECAY   1000001     6.89243233E+01   # sdown_L decays
#          BR         NDA      ID1       ID2
     6.01471606E-03    2     1000022         1   # BR(~d_L -> ~chi_10 d)
     1.59140525E-01    2     1000023         1   # BR(~d_L -> ~chi_20 d)
     1.53796681E-08    2     1000025         1   # BR(~d_L -> ~chi_30 d)
     3.36369407E-08    2     1000035         1   # BR(~d_L -> ~chi_40 d)
     3.18201324E-01    2    -1000024         2   # BR(~d_L -> ~chi_1- u)
     1.44462661E-07    2    -1000037         2   # BR(~d_L -> ~chi_2- u)
     5.16643241E-01    2     1000021         1   # BR(~d_L -> ~g      d)
#
#         PDG            Width
DECAY   2000001     3.68394527E+01   # sdown_R decays
#          BR         NDA      ID1       ID2
     4.45321978E-02    2     1000022         1   # BR(~d_R -> ~chi_10 d)
     6.75840803E-08    2     1000023         1   # BR(~d_R -> ~chi_20 d)
     7.98265761E-10    2     1000025         1   # BR(~d_R -> ~chi_30 d)
     1.26681433E-09    2     1000035         1   # BR(~d_R -> ~chi_40 d)
     9.55467733E-01    2     1000021         1   # BR(~d_R -> ~g      d)
#
#         PDG            Width
DECAY   1000004     6.88722752E+01   # scharm_L decays
#          BR         NDA      ID1       ID2
     5.91031889E-03    2     1000022         4   # BR(~c_L -> ~chi_10 c)
     1.59357240E-01    2     1000023         4   # BR(~c_L -> ~chi_20 c)
     9.01036708E-09    2     1000025         4   # BR(~c_L -> ~chi_30 c)
     2.11486368E-08    2     1000035         4   # BR(~c_L -> ~chi_40 c)
     3.18771082E-01    2     1000024         3   # BR(~c_L -> ~chi_1+ s)
     6.18006666E-09    2     1000037         3   # BR(~c_L -> ~chi_2+ s)
     5.15961322E-01    2     1000021         4   # BR(~c_L -> ~g      c)
#
#         PDG            Width
DECAY   2000004     4.19118509E+01   # scharm_R decays
#          BR         NDA      ID1       ID2
     1.56670313E-01    2     1000022         4   # BR(~c_R -> ~chi_10 c)
     2.37783580E-07    2     1000023         4   # BR(~c_R -> ~chi_20 c)
     3.31750843E-09    2     1000025         4   # BR(~c_R -> ~chi_30 c)
     5.29650990E-09    2     1000035         4   # BR(~c_R -> ~chi_40 c)
     8.43329440E-01    2     1000021         4   # BR(~c_R -> ~g      c)
#
#         PDG            Width
DECAY   1000003     6.89243233E+01   # sstrange_L decays
#          BR         NDA      ID1       ID2
     6.01471606E-03    2     1000022         3   # BR(~s_L -> ~chi_10 s)
     1.59140525E-01    2     1000023         3   # BR(~s_L -> ~chi_20 s)
     1.53796681E-08    2     1000025         3   # BR(~s_L -> ~chi_30 s)
     3.36369407E-08    2     1000035         3   # BR(~s_L -> ~chi_40 s)
     3.18201324E-01    2    -1000024         4   # BR(~s_L -> ~chi_1- c)
     1.44462661E-07    2    -1000037         4   # BR(~s_L -> ~chi_2- c)
     5.16643241E-01    2     1000021         3   # BR(~s_L -> ~g      s)
#
#         PDG            Width
DECAY   2000003     3.68394527E+01   # sstrange_R decays
#          BR         NDA      ID1       ID2
     4.45321978E-02    2     1000022         3   # BR(~s_R -> ~chi_10 s)
     6.75840803E-08    2     1000023         3   # BR(~s_R -> ~chi_20 s)
     7.98265761E-10    2     1000025         3   # BR(~s_R -> ~chi_30 s)
     1.26681433E-09    2     1000035         3   # BR(~s_R -> ~chi_40 s)
     9.55467733E-01    2     1000021         3   # BR(~s_R -> ~g      s)
#
#         PDG            Width
DECAY   1000011     3.80846896E+01   # selectron_L decays
#          BR         NDA      ID1       ID2
     1.00944109E-01    2     1000022        11   # BR(~e_L -> ~chi_10 e-)
     3.00116755E-01    2     1000023        11   # BR(~e_L -> ~chi_20 e-)
     3.77216967E-10    2     1000025        11   # BR(~e_L -> ~chi_30 e-)
     7.86542527E-10    2     1000035        11   # BR(~e_L -> ~chi_40 e-)
     5.98939128E-01    2    -1000024        12   # BR(~e_L -> ~chi_1- nu_e)
     6.48033196E-09    2    -1000037        12   # BR(~e_L -> ~chi_2- nu_e)
#
#         PDG            Width
DECAY   2000011     1.53963895E+01   # selectron_R decays
#          BR         NDA      ID1       ID2
     9.99998486E-01    2     1000022        11   # BR(~e_R -> ~chi_10 e-)
     1.51368355E-06    2     1000023        11   # BR(~e_R -> ~chi_20 e-)
     3.50850174E-13    2     1000025        11   # BR(~e_R -> ~chi_30 e-)
#
#         PDG            Width
DECAY   1000013     3.80846896E+01   # smuon_L decays
#          BR         NDA      ID1       ID2
     1.00944109E-01    2     1000022        13   # BR(~mu_L -> ~chi_10 mu-)
     3.00116755E-01    2     1000023        13   # BR(~mu_L -> ~chi_20 mu-)
     3.77216967E-10    2     1000025        13   # BR(~mu_L -> ~chi_30 mu-)
     7.86542527E-10    2     1000035        13   # BR(~mu_L -> ~chi_40 mu-)
     5.98939128E-01    2    -1000024        14   # BR(~mu_L -> ~chi_1- nu_mu)
     6.48033196E-09    2    -1000037        14   # BR(~mu_L -> ~chi_2- nu_mu)
#
#         PDG            Width
DECAY   2000013     1.53963895E+01   # smuon_R decays
#          BR         NDA      ID1       ID2
     9.99998486E-01    2     1000022        13   # BR(~mu_R -> ~chi_10 mu-)
     1.51368355E-06    2     1000023        13   # BR(~mu_R -> ~chi_20 mu-)
     3.50850174E-13    2     1000025        13   # BR(~mu_R -> ~chi_30 mu-)
#
#         PDG            Width
DECAY   1000015     2.70165049E+01   # stau_1 decays
#          BR         NDA      ID1       ID2
     3.55931500E-01    2     1000022        15   # BR(~tau_1 -> ~chi_10  tau-)
     2.15009436E-01    2     1000023        15   # BR(~tau_1 -> ~chi_20  tau-)
     4.29059064E-01    2    -1000024        16   # BR(~tau_1 -> ~chi_1-  nu_tau)
#
#         PDG            Width
DECAY   2000015     2.64446464E+01   # stau_2 decays
#          BR         NDA      ID1       ID2
     3.64375953E-01    2     1000022        15   # BR(~tau_2 -> ~chi_10  tau-)
     2.12201380E-01    2     1000023        15   # BR(~tau_2 -> ~chi_20  tau-)
     8.94323950E-06    2     1000025        15   # BR(~tau_2 -> ~chi_30  tau-)
     1.01857635E-05    2     1000035        15   # BR(~tau_2 -> ~chi_40  tau-)
     4.23393425E-01    2    -1000024        16   # BR(~tau_2 -> ~chi_1-  nu_tau)
     1.01125763E-05    2    -1000037        16   # BR(~tau_2 -> ~chi_2-  nu_tau)
#
#         PDG            Width
DECAY   1000012     3.80869354E+01   # snu_eL decays
#          BR         NDA      ID1       ID2
     1.01495399E-01    2     1000022        12   # BR(~nu_eL -> ~chi_10 nu_e)
     2.99085662E-01    2     1000023        12   # BR(~nu_eL -> ~chi_20 nu_e)
     8.70881533E-10    2     1000025        12   # BR(~nu_eL -> ~chi_30 nu_e)
     1.26986600E-09    2     1000035        12   # BR(~nu_eL -> ~chi_40 nu_e)
     5.99418937E-01    2     1000024        11   # BR(~nu_eL -> ~chi_1+ e-)
     1.26509638E-10    2     1000037        11   # BR(~nu_eL -> ~chi_2+ e-)
#
#         PDG            Width
DECAY   1000014     3.80869354E+01   # snu_muL decays
#          BR         NDA      ID1       ID2
     1.01495399E-01    2     1000022        14   # BR(~nu_muL -> ~chi_10 nu_mu)
     2.99085662E-01    2     1000023        14   # BR(~nu_muL -> ~chi_20 nu_mu)
     8.70881533E-10    2     1000025        14   # BR(~nu_muL -> ~chi_30 nu_mu)
     1.26986600E-09    2     1000035        14   # BR(~nu_muL -> ~chi_40 nu_mu)
     5.99418937E-01    2     1000024        13   # BR(~nu_muL -> ~chi_1+ mu-)
     1.26509638E-10    2     1000037        13   # BR(~nu_muL -> ~chi_2+ mu-)
#
#         PDG            Width
DECAY   1000016     3.80909981E+01   # snu_tauL decays
#          BR         NDA      ID1       ID2
     1.01486360E-01    2     1000022        16   # BR(~nu_tauL -> ~chi_10 nu_tau)
     2.99059532E-01    2     1000023        16   # BR(~nu_tauL -> ~chi_20 nu_tau)
     8.93861470E-10    2     1000025        16   # BR(~nu_tauL -> ~chi_30 nu_tau)
     1.31116550E-09    2     1000035        16   # BR(~nu_tauL -> ~chi_40 nu_tau)
     5.99453947E-01    2     1000024        15   # BR(~nu_tauL -> ~chi_1+ tau-)
     1.58126562E-07    2     1000037        15   # BR(~nu_tauL -> ~chi_2+ tau-)
#
#         PDG            Width
DECAY   1000024     8.64103293E-05   # chargino1+ decays
#          BR         NDA      ID1       ID2
     1.00000000E+00    2     1000022        24   # BR(~chi_1+ -> ~chi_10  W+)
#
#         PDG            Width
DECAY   1000037     8.84247446E+01   # chargino2+ decays
#          BR         NDA      ID1       ID2
     4.74421125E-02    2     1000006        -5   # BR(~chi_2+ -> ~t_1     bb)
     7.27273866E-01    2    -1000005         6   # BR(~chi_2+ -> ~b_1*    t )
     6.95049876E-07    2    -1000015        16   # BR(~chi_2+ -> ~tau_1+  nu_tau)
     6.76813411E-02    2     1000024        23   # BR(~chi_2+ -> ~chi_1+  Z )
     2.10396267E-02    2     1000022        24   # BR(~chi_2+ -> ~chi_10  W+)
     6.60076272E-02    2     1000023        24   # BR(~chi_2+ -> ~chi_20  W+)
     7.05547317E-02    2     1000024        25   # BR(~chi_2+ -> ~chi_1+  h )
#
#         PDG            Width
DECAY   1000022     0.00000000E+00   # neutralino1 decays
#
#         PDG            Width
DECAY   1000023     7.40809316E-05   # neutralino2 decays
#          BR         NDA      ID1       ID2
     4.97551105E-02    2     1000022        23   # BR(~chi_20 -> ~chi_10   Z )
     9.50244890E-01    2     1000022        25   # BR(~chi_20 -> ~chi_10   h )
#
#         PDG            Width
DECAY   1000025     8.86403101E+01   # neutralino3 decays
#          BR         NDA      ID1       ID2
     1.36688666E-02    2     1000022        23   # BR(~chi_30 -> ~chi_10   Z )
     4.75236741E-02    2     1000023        23   # BR(~chi_30 -> ~chi_20   Z )
     6.57414858E-02    2     1000024       -24   # BR(~chi_30 -> ~chi_1+   W-)
     6.57414858E-02    2    -1000024        24   # BR(~chi_30 -> ~chi_1-   W+)
     8.25061902E-03    2     1000022        25   # BR(~chi_30 -> ~chi_10   h )
     2.01663963E-02    2     1000023        25   # BR(~chi_30 -> ~chi_20   h )
     3.66716700E-01    2     1000006        -6   # BR(~chi_30 -> ~t_1      tb)
     3.66716700E-01    2    -1000006         6   # BR(~chi_30 -> ~t_1*     t )
     2.27364113E-02    2     1000005        -5   # BR(~chi_30 -> ~b_1      bb)
     2.27364113E-02    2    -1000005         5   # BR(~chi_30 -> ~b_1*     b )
     6.24813155E-07    2     1000015       -15   # BR(~chi_30 -> ~tau_1-   tau+)
     6.24813155E-07    2    -1000015        15   # BR(~chi_30 -> ~tau_1+   tau-)
#
#         PDG            Width
DECAY   1000035     8.78134426E+01   # neutralino4 decays
#          BR         NDA      ID1       ID2
     8.09657871E-03    2     1000022        23   # BR(~chi_40 -> ~chi_10   Z )
     2.00916338E-02    2     1000023        23   # BR(~chi_40 -> ~chi_20   Z )
     6.63915439E-02    2     1000024       -24   # BR(~chi_40 -> ~chi_1+   W-)
     6.63915439E-02    2    -1000024        24   # BR(~chi_40 -> ~chi_1-   W+)
     1.42579235E-02    2     1000022        25   # BR(~chi_40 -> ~chi_10   h )
     5.06107692E-02    2     1000023        25   # BR(~chi_40 -> ~chi_20   h )
     3.64082272E-01    2     1000006        -6   # BR(~chi_40 -> ~t_1      tb)
     3.64082272E-01    2    -1000006         6   # BR(~chi_40 -> ~t_1*     t )
     2.29968910E-02    2     1000005        -5   # BR(~chi_40 -> ~b_1      bb)
     2.29968910E-02    2    -1000005         5   # BR(~chi_40 -> ~b_1*     b )
     2.23857896E-12    2     2000011       -11   # BR(~chi_40 -> ~e_R-     e+)
     2.23857896E-12    2    -2000011        11   # BR(~chi_40 -> ~e_R+     e-)
     2.23857896E-12    2     2000013       -13   # BR(~chi_40 -> ~mu_R-    mu+)
     2.23857896E-12    2    -2000013        13   # BR(~chi_40 -> ~mu_R+    mu-)
     8.40593573E-07    2     1000015       -15   # BR(~chi_40 -> ~tau_1-   tau+)
     8.40593573E-07    2    -1000015        15   # BR(~chi_40 -> ~tau_1+   tau-)
#
#         PDG            Width
DECAY        25     4.82957964E-03   # h decays
#          BR         NDA      ID1       ID2
     6.83443995E-01    2           5        -5   # BR(h -> b       bb     )
     5.38612171E-02    2         -15        15   # BR(h -> tau+    tau-   )
     1.90672092E-04    2         -13        13   # BR(h -> mu+     mu-    )
     4.04971038E-04    2           3        -3   # BR(h -> s       sb     )
     1.74745944E-02    2           4        -4   # BR(h -> c       cb     )
     5.67158685E-02    2          21        21   # BR(h -> g       g      )
     1.91454819E-03    2          22        22   # BR(h -> gam     gam    )
     1.23905380E-03    2          22        23   # BR(h -> Z       gam    )
     1.64356799E-01    2          24       -24   # BR(h -> W+      W-     )
     2.03982802E-02    2          23        23   # BR(h -> Z       Z      )
#
#         PDG            Width
DECAY        35     1.39115764E+01   # H decays
#          BR         NDA      ID1       ID2
     7.42332119E-01    2           5        -5   # BR(H -> b       bb     )
     1.78759080E-01    2         -15        15   # BR(H -> tau+    tau-   )
     6.32049389E-04    2         -13        13   # BR(H -> mu+     mu-    )
     7.76154345E-04    2           3        -3   # BR(H -> s       sb     )
     2.19096941E-07    2           4        -4   # BR(H -> c       cb     )
     2.18563423E-02    2           6        -6   # BR(H -> t       tb     )
     3.30012390E-05    2          21        21   # BR(H -> g       g      )
     5.74981365E-08    2          22        22   # BR(H -> gam     gam    )
     8.38712455E-09    2          23        22   # BR(H -> Z       gam    )
     3.44288696E-05    2          24       -24   # BR(H -> W+      W-     )
     1.71932136E-05    2          23        23   # BR(H -> Z       Z      )
     8.74837582E-05    2          25        25   # BR(H -> h       h      )
    -1.81132741E-23    2          36        36   # BR(H -> A       A      )
     2.69003452E-17    2          23        36   # BR(H -> Z       A      )
     2.12170850E-03    2     1000024  -1000024   # BR(H -> ~chi_1+ ~chi_1-)
     1.10120481E-04    2     1000022   1000022   # BR(H -> ~chi_10 ~chi_10)
     1.05801971E-03    2     1000023   1000023   # BR(H -> ~chi_20 ~chi_20)
     6.90687581E-04    2     1000022   1000023   # BR(H -> ~chi_10 ~chi_20)
     5.14850570E-02    2     1000006  -1000006   # BR(H -> ~t_1    ~t_1*  )
     6.27014583E-06    2     1000005  -1000005   # BR(H -> ~b_1    ~b_1*  )
#
#         PDG            Width
DECAY        36     1.32041730E+01   # A decays
#          BR         NDA      ID1       ID2
     7.82161728E-01    2           5        -5   # BR(A -> b       bb     )
     1.88327861E-01    2         -15        15   # BR(A -> tau+    tau-   )
     6.65881383E-04    2         -13        13   # BR(A -> mu+     mu-    )
     8.17840623E-04    2           3        -3   # BR(A -> s       sb     )
     2.30783031E-07    2           4        -4   # BR(A -> c       cb     )
     2.30094179E-02    2           6        -6   # BR(A -> t       tb     )
     6.77605439E-05    2          21        21   # BR(A -> g       g      )
     3.80290033E-08    2          22        22   # BR(A -> gam     gam    )
     6.67641026E-08    2          23        22   # BR(A -> Z       gam    )
     3.61338315E-05    2          23        25   # BR(A -> Z       h      )
     2.66204761E-03    2     1000024  -1000024   # BR(A -> ~chi_1+ ~chi_1-)
     1.22604487E-04    2     1000022   1000022   # BR(A -> ~chi_10 ~chi_10)
     1.32738345E-03    2     1000023   1000023   # BR(A -> ~chi_20 ~chi_20)
     8.01004912E-04    2     1000022   1000023   # BR(A -> ~chi_10 ~chi_20)
#
#         PDG            Width
DECAY        37     9.93316482E+00   # H+ decays
#          BR         NDA      ID1       ID2
     1.08800100E-03    2           4        -5   # BR(H+ -> c       bb     )
     2.50424119E-01    2         -15        16   # BR(H+ -> tau+    nu_tau )
     8.85438605E-04    2         -13        14   # BR(H+ -> mu+     nu_mu  )
     6.96319537E-06    2           2        -5   # BR(H+ -> u       bb     )
     5.20352727E-05    2           2        -3   # BR(H+ -> u       sb     )
     1.07053288E-03    2           4        -3   # BR(H+ -> c       sb     )
     7.09042826E-01    2           6        -5   # BR(H+ -> t       bb     )
     4.81086490E-05    2          24        25   # BR(H+ -> W+      h      )
     1.04417522E-13    2          24        36   # BR(H+ -> W+      A      )
     2.02789188E-03    2     1000024   1000022   # BR(H+ -> ~chi_1+ ~chi_10)
     3.16643662E-09    2     1000024   1000023   # BR(H+ -> ~chi_1+ ~chi_20)
     3.53540803E-02    2     1000006  -1000005   # BR(H+ -> ~t_1    ~b_1*  )
