#
#                              ======================
#                              | THE SUSYHIT OUTPUT |
#                              ======================
#
#
#              ------------------------------------------------------
#              |     This is the output of the SUSY-HIT package     |
#              |  created by A.Djouadi, M.Muehlleitner and M.Spira. |
#              |  In case of problems with SUSY-HIT email to        |
#              |           margarete.muehlleitner@kit.edu           |
#              |           michael.spira@psi.ch                     |
#              |           abdelhak.djouadi@cern.ch                 |
#              ------------------------------------------------------
#
#              ------------------------------------------------------
#              |  SUSY Les Houches Accord - MSSM Spectrum + Decays  |
#              |              based on the decay programs           |
#              |                                                    |
#              |                     SDECAY 1.5                     |
#              |                                                    |
#              |  Authors: M.Muhlleitner, A.Djouadi and Y.Mambrini  |
#              |  Ref.:    Comput.Phys.Commun.168(2005)46           |
#              |           [hep-ph/0311167]                         |
#              |                                                    |
#              |                     HDECAY 3.4                     |
#              |                                                    |
#              |  By: A.Djouadi,J.Kalinowski,M.Muhlleitner,M.Spira  |
#              |  Ref.:    Comput.Phys.Commun.108(1998)56           |
#              |           [hep-ph/9704448]                         |
#              |                                                    |
#              |                                                    |
#              |  If not stated otherwise all DRbar couplings and   |
#              |  soft SUSY breaking masses are given at the scale  |
#              |  Q=  0.90821190E+03
#              |                                                    |
#              ------------------------------------------------------
#
#
BLOCK DCINFO  # Decay Program information
     1   SDECAY/HDECAY # decay calculator
     2   1.5  /3.4    # version number
#
BLOCK SPINFO  # Spectrum calculator information
     1    SOFTSUSY    # spectrum calculator                
     2    3.7.3       # version number                     
#
BLOCK MODSEL  # Model selection
     1     0   #  nonUniversal                                     
#
BLOCK SMINPUTS  # Standard Model inputs
         1     1.27934000E+02   # alpha_em^-1(M_Z)^MSbar
         2     1.16639000E-05   # G_F [GeV^-2]
         3     1.17200000E-01   # alpha_S(M_Z)^MSbar
         4     9.11870000E+01   # M_Z pole mass
         5     4.19000000E+00   # mb(mb)^MSbar
         6     1.72500000E+02   # mt pole mass
         7     1.77690000E+00   # mtau pole mass
#
BLOCK MINPAR  # Input parameters - minimal models
         3     2.00000000E+01   # tanb                
#
BLOCK EXTPAR  # Input parameters - non-minimal models
         0    -1.00000000E+00   # Set                 
         1     2.09990000E+02   # M_1(MX)             
         2     2.00000000E+03   # M_2(MX)             
         3     1.80000000E+03   # M_3(MX)             
        11     2.25959179E+03   # At(MX)              
        12     0.00000000E+00   # Ab(MX)              
        13     0.00000000E+00   # Atau(MX)            
        23    -2.60900000E+02   # mu(MX)              
        25     2.00000000E+01   # tan                 
        26     4.00000000E+03   # mA(pole)            
        31     4.00000000E+03   # meL(MX)             
        32     4.00000000E+03   # mmuL(MX)            
        33     4.00000000E+03   # mtauL(MX)           
        34     4.00000000E+03   # meR(MX)             
        35     4.00000000E+03   # mmuR(MX)            
        36     4.00000000E+03   # mtauR(MX)           
        41     4.00000000E+03   # mqL1(MX)            
        42     4.00000000E+03   # mqL2(MX)            
        43     3.59900000E+02   # mqL3(MX)            
        44     4.00000000E+03   # muR(MX)             
        45     4.00000000E+03   # mcR(MX)             
        46     2.30485961E+03   # mtR(MX)             
        47     4.00000000E+03   # mdR(MX)             
        48     4.00000000E+03   # msR(MX)             
        49     4.00000000E+03   # mbR(MX)             
#
BLOCK MASS  # Mass Spectrum
# PDG code           mass       particle
        24     8.04170542E+01   # W+
        25     1.24628599E+02   # h
        35     4.00000546E+03   # H
        36     3.99999583E+03   # A
        37     4.00098941E+03   # H+
         5     4.81337004E+00   # b-quark pole mass calculated from mb(mb)_Msbar
   1000001     4.01280135E+03   # ~d_L
   2000001     4.01200782E+03   # ~d_R
   1000002     4.01213623E+03   # ~u_L
   2000002     4.01387948E+03   # ~u_R
   1000003     4.01280135E+03   # ~s_L
   2000003     4.01200782E+03   # ~s_R
   1000004     4.01213623E+03   # ~c_L
   2000004     4.01387948E+03   # ~c_R
   1000005     4.04959200E+02   # ~b_1
   2000005     4.01800478E+03   # ~b_2
   1000006     3.95706615E+02   # ~t_1
   2000006     2.32358838E+03   # ~t_2
   1000011     4.00235065E+03   # ~e_L
   2000011     4.00231839E+03   # ~e_R
   1000012     4.00122659E+03   # ~nu_eL
   1000013     4.00235065E+03   # ~mu_L
   2000013     4.00231839E+03   # ~mu_R
   1000014     4.00122659E+03   # ~nu_muL
   1000015     4.00446792E+03   # ~tau_1
   2000015     4.00792746E+03   # ~tau_2
   1000016     4.00380776E+03   # ~nu_tauL
   1000021     1.96128499E+03   # ~g
   1000022     2.02982384E+02   # ~chi_10
   1000023    -2.70507369E+02   # ~chi_20
   1000025     2.79107457E+02   # ~chi_30
   1000035     2.05814808E+03   # ~chi_40
   1000024     2.67561468E+02   # ~chi_1+
   1000037     2.05831218E+03   # ~chi_2+
#
BLOCK NMIX  # Neutralino Mixing Matrix
  1  1     8.99098865E-01   # N_11
  1  2    -1.04414261E-02   # N_12
  1  3    -3.52219583E-01   # N_13
  1  4    -2.59718256E-01   # N_14
  2  1    -6.91558625E-02   # N_21
  2  2     2.55556110E-02   # N_22
  2  3    -7.00617969E-01   # N_23
  2  4     7.09717436E-01   # N_24
  3  1     4.32247355E-01   # N_31
  3  2     2.80258664E-02   # N_32
  3  3     6.20536703E-01   # N_33
  3  4     6.53690274E-01   # N_34
  4  1    -9.59654821E-04   # N_41
  4  2     9.99225919E-01   # N_42
  4  3    -3.16648434E-03   # N_43
  4  4    -3.91996717E-02   # N_44
#
BLOCK UMIX  # Chargino Mixing Matrix U
  1  1     4.48333070E-03   # U_11
  1  2     9.99989950E-01   # U_12
  2  1    -9.99989950E-01   # U_21
  2  2     4.48333070E-03   # U_22
#
BLOCK VMIX  # Chargino Mixing Matrix V
  1  1     5.54494287E-02   # V_11
  1  2    -9.98461497E-01   # V_12
  2  1    -9.98461497E-01   # V_21
  2  2    -5.54494287E-02   # V_22
#
BLOCK STOPMIX  # Stop Mixing Matrix
  1  1     9.97842029E-01   # cos(theta_t)
  1  2    -6.56603774E-02   # sin(theta_t)
  2  1     6.56603774E-02   # -sin(theta_t)
  2  2     9.97842029E-01   # cos(theta_t)
#
BLOCK SBOTMIX  # Sbottom Mixing Matrix
  1  1     9.99999675E-01   # cos(theta_b)
  1  2    -8.06225709E-04   # sin(theta_b)
  2  1     8.06225709E-04   # -sin(theta_b)
  2  2     9.99999675E-01   # cos(theta_b)
#
BLOCK STAUMIX  # Stau Mixing Matrix
  1  1    -7.05070012E-01   # cos(theta_tau)
  1  2     7.09137700E-01   # sin(theta_tau)
  2  1    -7.09137700E-01   # -sin(theta_tau)
  2  2    -7.05070012E-01   # cos(theta_tau)
#
BLOCK ALPHA  # Higgs mixing
          -5.00265804E-02   # Mixing angle in the neutral Higgs boson sector
#
BLOCK HMIX Q=  9.08211903E+02  # DRbar Higgs Parameters
         1    -2.60900000E+02   # mu(Q)MSSM           
         2     2.00000000E+01   # tan                 
         3     2.44635377E+02   # higgs               
         4     1.63116977E+07   # mA^2(Q)MSSM         
#
BLOCK GAUGE Q=  9.08211903E+02  # The gauge couplings
     1     3.60773533E-01   # gprime(Q) DRbar
     2     6.36107206E-01   # g(Q) DRbar
     3     1.03842482E+00   # g3(Q) DRbar
#
BLOCK AU Q=  9.08211903E+02  # The trilinear couplings
  1  1     0.00000000E+00   # A_u(Q) DRbar
  2  2     5.86769147E-07   # A_c(Q) DRbar
  3  3     2.25959179E+03   # A_t(Q) DRbar
#
BLOCK AD Q=  9.08211903E+02  # The trilinear couplings
  1  1     2.15627272E-07   # A_d(Q) DRbar
  2  2     2.15648174E-07   # A_s(Q) DRbar
  3  3     3.85516786E-07   # A_b(Q) DRbar
#
BLOCK AE Q=  9.08211903E+02  # The trilinear couplings
  1  1     0.00000000E+00   # A_e(Q) DRbar
  2  2     4.73182638E-08   # A_mu(Q) DRbar
  3  3     4.77903023E-08   # A_tau(Q) DRbar
#
BLOCK Yu Q=  9.08211903E+02  # The Yukawa couplings
  1  1     0.00000000E+00   # y_u(Q) DRbar
  2  2     0.00000000E+00   # y_c(Q) DRbar
  3  3     8.72608982E-01   # y_t(Q) DRbar
#
BLOCK Yd Q=  9.08211903E+02  # The Yukawa couplings
  1  1     0.00000000E+00   # y_d(Q) DRbar
  2  2     0.00000000E+00   # y_s(Q) DRbar
  3  3     2.83899429E-01   # y_b(Q) DRbar
#
BLOCK Ye Q=  9.08211903E+02  # The Yukawa couplings
  1  1     0.00000000E+00   # y_e(Q) DRbar
  2  2     0.00000000E+00   # y_mu(Q) DRbar
  3  3     2.03234882E-01   # y_tau(Q) DRbar
#
BLOCK MSOFT Q=  9.08211903E+02  # The soft SUSY breaking masses at the scale Q
         1     2.09990000E+02   # M_1(Q)              
         2     2.00000000E+03   # M_2(Q)              
         3     1.80000000E+03   # M_3(Q)              
        21     1.57986530E+07   # M^2_Hd              
        22    -1.48671804E+05   # M^2_Hu              
        31     4.00000000E+03   # M_eL                
        32     4.00000000E+03   # M_muL               
        33     4.00000000E+03   # M_tauL              
        34     4.00000000E+03   # M_eR                
        35     4.00000000E+03   # M_muR               
        36     4.00000000E+03   # M_tauR              
        41     4.00000000E+03   # M_q1L               
        42     4.00000000E+03   # M_q2L               
        43     3.59899996E+02   # M_q3L               
        44     4.00000000E+03   # M_uR                
        45     4.00000000E+03   # M_cR                
        46     2.30485961E+03   # M_tR                
        47     4.00000000E+03   # M_dR                
        48     4.00000000E+03   # M_sR                
        49     4.00000000E+03   # M_bR                
#
#
#
#                             =================
#                             |The decay table|
#                             =================
#
# - The QCD corrections to the decays gluino -> squark  + quark
#                                     squark -> gaugino + quark_prime
#                                     squark -> squark_prime + Higgs
#                                     squark -> gluino  + quark
#   are included.
#
# - The multi-body decays for the inos, stops and sbottoms are included.
#
# - The loop induced decays for the gluino, neutralinos and stops
#   are included.
#
# - The SUSY decays of the top quark are included.
#
#
#         PDG            Width
DECAY         6     1.40381061E+00   # top decays
#          BR         NDA      ID1       ID2
     1.00000000E+00    2           5        24   # BR(t ->  b    W+)
#
#         PDG            Width
DECAY   1000021     7.48098980E+01   # gluino decays
#          BR         NDA      ID1       ID2
     2.46864658E-01    2     1000005        -5   # BR(~g -> ~b_1  bb)
     2.46864658E-01    2    -1000005         5   # BR(~g -> ~b_1* b )
     2.53135342E-01    2     1000006        -6   # BR(~g -> ~t_1  tb)
     2.53135342E-01    2    -1000006         6   # BR(~g -> ~t_1* t )
#
#         PDG            Width
DECAY   1000006     2.96983546E-01   # stop1 decays
#          BR         NDA      ID1       ID2
     3.77341041E-01    2     1000022         6   # BR(~t_1 -> ~chi_10 t )
     6.22658959E-01    2     1000024         5   # BR(~t_1 -> ~chi_1+ b )
#
#         PDG            Width
DECAY   2000006     1.37575301E+02   # stop2 decays
#          BR         NDA      ID1       ID2
     4.65674034E-02    2     1000022         6   # BR(~t_2 -> ~chi_10 t )
     1.20190581E-01    2     1000023         6   # BR(~t_2 -> ~chi_20 t )
     1.06005690E-01    2     1000025         6   # BR(~t_2 -> ~chi_30 t )
     3.01651337E-07    2     1000035         6   # BR(~t_2 -> ~chi_40 t )
     2.37856646E-01    2     1000024         5   # BR(~t_2 -> ~chi_1+ b )
     1.14808843E-06    2     1000037         5   # BR(~t_2 -> ~chi_2+ b )
     1.01597006E-01    2     1000021         6   # BR(~t_2 -> ~g      t )
     1.12270342E-01    2     1000006        25   # BR(~t_2 -> ~t_1    h )
     8.78988897E-02    2     1000006        23   # BR(~t_2 -> ~t_1    Z )
     1.87611992E-01    2     1000005        24   # BR(~t_2 -> ~b_1    W+)
#
#         PDG            Width
DECAY   1000005     2.44613664E-01   # sbottom1 decays
#          BR         NDA      ID1       ID2
     3.16477261E-01    2     1000022         5   # BR(~b_1 -> ~chi_10 b )
     4.00827046E-01    2     1000023         5   # BR(~b_1 -> ~chi_20 b )
     2.82695693E-01    2     1000025         5   # BR(~b_1 -> ~chi_30 b )
#
#         PDG            Width
DECAY   2000005     1.66466021E+02   # sbottom2 decays
#          BR         NDA      ID1       ID2
     1.51620449E-02    2     1000022         5   # BR(~b_2 -> ~chi_10 b )
     1.74766683E-02    2     1000023         5   # BR(~b_2 -> ~chi_20 b )
     1.61347899E-02    2     1000025         5   # BR(~b_2 -> ~chi_30 b )
     3.71264933E-07    2     1000035         5   # BR(~b_2 -> ~chi_40 b )
     3.53728024E-02    2    -1000024         6   # BR(~b_2 -> ~chi_1- t )
     7.28434702E-07    2    -1000037         6   # BR(~b_2 -> ~chi_2- t )
     9.15512653E-01    2     1000021         5   # BR(~b_2 -> ~g      b )
     7.56880405E-05    2     1000005        25   # BR(~b_2 -> ~b_1    h )
     9.82777016E-05    2     1000005        23   # BR(~b_2 -> ~b_1    Z )
     1.65871979E-04    2     1000006       -24   # BR(~b_2 -> ~t_1    W-)
     1.03631944E-07    2     2000006       -24   # BR(~b_2 -> ~t_2    W-)
#
#         PDG            Width
DECAY   1000002     1.78030352E+02   # sup_L decays
#          BR         NDA      ID1       ID2
     2.21213268E-03    2     1000022         2   # BR(~u_L -> ~chi_10 u)
     1.34899426E-05    2     1000023         2   # BR(~u_L -> ~chi_20 u)
     1.04229616E-03    2     1000025         2   # BR(~u_L -> ~chi_30 u)
     4.76100421E-02    2     1000035         2   # BR(~u_L -> ~chi_40 u)
     5.32576117E-04    2     1000024         1   # BR(~u_L -> ~chi_1+ d)
     9.50982313E-02    2     1000037         1   # BR(~u_L -> ~chi_2+ d)
     8.53491232E-01    2     1000021         2   # BR(~u_L -> ~g      u)
#
#         PDG            Width
DECAY   2000002     1.60941624E+02   # sup_R decays
#          BR         NDA      ID1       ID2
     4.44647746E-02    2     1000022         2   # BR(~u_R -> ~chi_10 u)
     2.62084739E-04    2     1000023         2   # BR(~u_R -> ~chi_20 u)
     1.02330773E-02    2     1000025         2   # BR(~u_R -> ~chi_30 u)
     2.78181585E-08    2     1000035         2   # BR(~u_R -> ~chi_40 u)
     9.45040035E-01    2     1000021         2   # BR(~u_R -> ~g      u)
#
#         PDG            Width
DECAY   1000001     1.78050663E+02   # sdown_L decays
#          BR         NDA      ID1       ID2
     2.82932145E-03    2     1000022         1   # BR(~d_L -> ~chi_10 d)
     1.29224413E-04    2     1000023         1   # BR(~d_L -> ~chi_20 d)
     2.49501709E-04    2     1000025         1   # BR(~d_L -> ~chi_30 d)
     4.76583559E-02    2     1000035         1   # BR(~d_L -> ~chi_40 d)
     3.48188245E-06    2    -1000024         2   # BR(~d_L -> ~chi_1- u)
     9.54170899E-02    2    -1000037         2   # BR(~d_L -> ~chi_2- u)
     8.53713025E-01    2     1000021         1   # BR(~d_L -> ~g      d)
#
#         PDG            Width
DECAY   2000001     1.54146647E+02   # sdown_R decays
#          BR         NDA      ID1       ID2
     1.16006419E-02    2     1000022         1   # BR(~d_R -> ~chi_10 d)
     6.83763886E-05    2     1000023         1   # BR(~d_R -> ~chi_20 d)
     2.66974915E-03    2     1000025         1   # BR(~d_R -> ~chi_30 d)
     7.25289581E-09    2     1000035         1   # BR(~d_R -> ~chi_40 d)
     9.85661225E-01    2     1000021         1   # BR(~d_R -> ~g      d)
#
#         PDG            Width
DECAY   1000004     1.78030352E+02   # scharm_L decays
#          BR         NDA      ID1       ID2
     2.21213268E-03    2     1000022         4   # BR(~c_L -> ~chi_10 c)
     1.34899426E-05    2     1000023         4   # BR(~c_L -> ~chi_20 c)
     1.04229616E-03    2     1000025         4   # BR(~c_L -> ~chi_30 c)
     4.76100421E-02    2     1000035         4   # BR(~c_L -> ~chi_40 c)
     5.32576117E-04    2     1000024         3   # BR(~c_L -> ~chi_1+ s)
     9.50982313E-02    2     1000037         3   # BR(~c_L -> ~chi_2+ s)
     8.53491232E-01    2     1000021         4   # BR(~c_L -> ~g      c)
#
#         PDG            Width
DECAY   2000004     1.60941624E+02   # scharm_R decays
#          BR         NDA      ID1       ID2
     4.44647746E-02    2     1000022         4   # BR(~c_R -> ~chi_10 c)
     2.62084739E-04    2     1000023         4   # BR(~c_R -> ~chi_20 c)
     1.02330773E-02    2     1000025         4   # BR(~c_R -> ~chi_30 c)
     2.78181585E-08    2     1000035         4   # BR(~c_R -> ~chi_40 c)
     9.45040035E-01    2     1000021         4   # BR(~c_R -> ~g      c)
#
#         PDG            Width
DECAY   1000003     1.78050663E+02   # sstrange_L decays
#          BR         NDA      ID1       ID2
     2.82932145E-03    2     1000022         3   # BR(~s_L -> ~chi_10 s)
     1.29224413E-04    2     1000023         3   # BR(~s_L -> ~chi_20 s)
     2.49501709E-04    2     1000025         3   # BR(~s_L -> ~chi_30 s)
     4.76583559E-02    2     1000035         3   # BR(~s_L -> ~chi_40 s)
     3.48188245E-06    2    -1000024         4   # BR(~s_L -> ~chi_1- c)
     9.54170899E-02    2    -1000037         4   # BR(~s_L -> ~chi_2- c)
     8.53713025E-01    2     1000021         3   # BR(~s_L -> ~g      s)
#
#         PDG            Width
DECAY   2000003     1.54146647E+02   # sstrange_R decays
#          BR         NDA      ID1       ID2
     1.16006419E-02    2     1000022         3   # BR(~s_R -> ~chi_10 s)
     6.83763886E-05    2     1000023         3   # BR(~s_R -> ~chi_20 s)
     2.66974915E-03    2     1000025         3   # BR(~s_R -> ~chi_30 s)
     7.25289581E-09    2     1000035         3   # BR(~s_R -> ~chi_40 s)
     9.85661225E-01    2     1000021         3   # BR(~s_R -> ~g      s)
#
#         PDG            Width
DECAY   1000011     3.13151554E+01   # selectron_L decays
#          BR         NDA      ID1       ID2
     1.27684454E-01    2     1000022        11   # BR(~e_L -> ~chi_10 e-)
     9.52078727E-05    2     1000023        11   # BR(~e_L -> ~chi_20 e-)
     3.80172137E-02    2     1000025        11   # BR(~e_L -> ~chi_30 e-)
     2.77596951E-01    2     1000035        11   # BR(~e_L -> ~chi_40 e-)
     2.04956835E-05    2    -1000024        12   # BR(~e_L -> ~chi_1- nu_e)
     5.56585678E-01    2    -1000037        12   # BR(~e_L -> ~chi_2- nu_e)
#
#         PDG            Width
DECAY   2000011     2.06026518E+01   # selectron_R decays
#          BR         NDA      ID1       ID2
     8.09088234E-01    2     1000022        11   # BR(~e_R -> ~chi_10 e-)
     4.76759230E-03    2     1000023        11   # BR(~e_R -> ~chi_20 e-)
     1.86143673E-01    2     1000025        11   # BR(~e_R -> ~chi_30 e-)
     5.01282186E-07    2     1000035        11   # BR(~e_R -> ~chi_40 e-)
#
#         PDG            Width
DECAY   1000013     3.13151554E+01   # smuon_L decays
#          BR         NDA      ID1       ID2
     1.27684454E-01    2     1000022        13   # BR(~mu_L -> ~chi_10 mu-)
     9.52078727E-05    2     1000023        13   # BR(~mu_L -> ~chi_20 mu-)
     3.80172137E-02    2     1000025        13   # BR(~mu_L -> ~chi_30 mu-)
     2.77596951E-01    2     1000035        13   # BR(~mu_L -> ~chi_40 mu-)
     2.04956835E-05    2    -1000024        14   # BR(~mu_L -> ~chi_1- nu_mu)
     5.56585678E-01    2    -1000037        14   # BR(~mu_L -> ~chi_2- nu_mu)
#
#         PDG            Width
DECAY   2000013     2.06026518E+01   # smuon_R decays
#          BR         NDA      ID1       ID2
     8.09088234E-01    2     1000022        13   # BR(~mu_R -> ~chi_10 mu-)
     4.76759230E-03    2     1000023        13   # BR(~mu_R -> ~chi_20 mu-)
     1.86143673E-01    2     1000025        13   # BR(~mu_R -> ~chi_30 mu-)
     5.01282186E-07    2     1000035        13   # BR(~mu_R -> ~chi_40 mu-)
#
#         PDG            Width
DECAY   1000015     3.08898347E+01   # stau_1 decays
#          BR         NDA      ID1       ID2
     3.92029640E-01    2     1000022        15   # BR(~tau_1 -> ~chi_10  tau-)
     4.28570017E-02    2     1000023        15   # BR(~tau_1 -> ~chi_20  tau-)
     9.07985894E-02    2     1000025        15   # BR(~tau_1 -> ~chi_30  tau-)
     1.39677035E-01    2     1000035        15   # BR(~tau_1 -> ~chi_40  tau-)
     5.45829240E-02    2    -1000024        16   # BR(~tau_1 -> ~chi_1-  nu_tau)
     2.80054810E-01    2    -1000037        16   # BR(~tau_1 -> ~chi_2-  nu_tau)
#
#         PDG            Width
DECAY   2000015     3.09030665E+01   # stau_2 decays
#          BR         NDA      ID1       ID2
     3.03847828E-01    2     1000022        15   # BR(~tau_2 -> ~chi_10  tau-)
     6.40789745E-02    2     1000023        15   # BR(~tau_2 -> ~chi_20  tau-)
     1.53292674E-01    2     1000025        15   # BR(~tau_2 -> ~chi_30  tau-)
     1.42343922E-01    2     1000035        15   # BR(~tau_2 -> ~chi_40  tau-)
     5.10357916E-02    2    -1000024        16   # BR(~tau_2 -> ~chi_1-  nu_tau)
     2.85400810E-01    2    -1000037        16   # BR(~tau_2 -> ~chi_2-  nu_tau)
#
#         PDG            Width
DECAY   1000012     3.13259518E+01   # snu_eL decays
#          BR         NDA      ID1       ID2
     1.38497118E-01    2     1000022        12   # BR(~nu_eL -> ~chi_10 nu_e)
     2.13759206E-03    2     1000023        12   # BR(~nu_eL -> ~chi_20 nu_e)
     2.40015876E-02    2     1000025        12   # BR(~nu_eL -> ~chi_30 nu_e)
     2.77916127E-01    2     1000035        12   # BR(~nu_eL -> ~chi_40 nu_e)
     3.13314955E-03    2     1000024        11   # BR(~nu_eL -> ~chi_1+ e-)
     5.54314426E-01    2     1000037        11   # BR(~nu_eL -> ~chi_2+ e-)
#
#         PDG            Width
DECAY   1000014     3.13259518E+01   # snu_muL decays
#          BR         NDA      ID1       ID2
     1.38497118E-01    2     1000022        14   # BR(~nu_muL -> ~chi_10 nu_mu)
     2.13759206E-03    2     1000023        14   # BR(~nu_muL -> ~chi_20 nu_mu)
     2.40015876E-02    2     1000025        14   # BR(~nu_muL -> ~chi_30 nu_mu)
     2.77916127E-01    2     1000035        14   # BR(~nu_muL -> ~chi_40 nu_mu)
     3.13314955E-03    2     1000024        13   # BR(~nu_muL -> ~chi_1+ mu-)
     5.54314426E-01    2     1000037        13   # BR(~nu_muL -> ~chi_2+ mu-)
#
#         PDG            Width
DECAY   1000016     3.46311075E+01   # snu_tauL decays
#          BR         NDA      ID1       ID2
     1.25360753E-01    2     1000022        16   # BR(~nu_tauL -> ~chi_10 nu_tau)
     1.93485282E-03    2     1000023        16   # BR(~nu_tauL -> ~chi_20 nu_tau)
     2.17251813E-02    2     1000025        16   # BR(~nu_tauL -> ~chi_30 nu_tau)
     2.51787644E-01    2     1000035        16   # BR(~nu_tauL -> ~chi_40 nu_tau)
     9.69915331E-02    2     1000024        15   # BR(~nu_tauL -> ~chi_1+ tau-)
     5.02200036E-01    2     1000037        15   # BR(~nu_tauL -> ~chi_2+ tau-)
#
#         PDG            Width
DECAY   1000024     3.16580995E-04   # chargino1+ decays
#           BR         NDA      ID1       ID2       ID3
     3.33458371E-01    3     1000022         2        -1   # BR(~chi_1+ -> ~chi_10 u    db)
     3.33458371E-01    3     1000022         4        -3   # BR(~chi_1+ -> ~chi_10 c    sb)
     1.11153705E-01    3     1000022       -11        12   # BR(~chi_1+ -> ~chi_10 e+   nu_e)
     1.11153705E-01    3     1000022       -13        14   # BR(~chi_1+ -> ~chi_10 mu+  nu_mu)
     1.10775848E-01    3     1000022       -15        16   # BR(~chi_1+ -> ~chi_10 tau+ nu_tau)
#
#         PDG            Width
DECAY   1000037     6.81067484E+01   # chargino2+ decays
#          BR         NDA      ID1       ID2
     3.86645176E-01    2     1000006        -5   # BR(~chi_2+ -> ~t_1     bb)
     3.77655676E-01    2    -1000005         6   # BR(~chi_2+ -> ~b_1*    t )
     6.00173656E-02    2     1000024        23   # BR(~chi_2+ -> ~chi_1+  Z )
     6.73310789E-03    2     1000022        24   # BR(~chi_2+ -> ~chi_10  W+)
     5.87441532E-02    2     1000023        24   # BR(~chi_2+ -> ~chi_20  W+)
     5.15874794E-02    2     1000025        24   # BR(~chi_2+ -> ~chi_30  W+)
     5.86170419E-02    2     1000024        25   # BR(~chi_2+ -> ~chi_1+  h )
#
#         PDG            Width
DECAY   1000022     0.00000000E+00   # neutralino1 decays
#
#         PDG            Width
DECAY   1000023     2.65728604E-04   # neutralino2 decays
#          BR         NDA      ID1       ID2
     5.12997806E-04    2     1000022        22   # BR(~chi_20 -> ~chi_10 gam)
#           BR         NDA      ID1       ID2       ID3
     1.17489562E-01    3     1000022        -2         2   # BR(~chi_20 -> ~chi_10 ub      u)
     1.52326667E-01    3     1000022        -1         1   # BR(~chi_20 -> ~chi_10 db      d)
     1.17489562E-01    3     1000022        -4         4   # BR(~chi_20 -> ~chi_10 cb      c)
     1.52326667E-01    3     1000022        -3         3   # BR(~chi_20 -> ~chi_10 sb      s)
     1.46201563E-01    3     1000022        -5         5   # BR(~chi_20 -> ~chi_10 bb      b)
     3.48869841E-02    3     1000022       -11        11   # BR(~chi_20 -> ~chi_10 e+      e-)
     3.48869841E-02    3     1000022       -13        13   # BR(~chi_20 -> ~chi_10 mu+     mu-)
     3.46655863E-02    3     1000022       -15        15   # BR(~chi_20 -> ~chi_10 tau+    tau-)
     6.97372253E-02    3     1000022       -12        12   # BR(~chi_20 -> ~chi_10 nu_eb   nu_e)
     6.97372253E-02    3     1000022       -14        14   # BR(~chi_20 -> ~chi_10 nu_mub  nu_mu)
     6.97372208E-02    3     1000022       -16        16   # BR(~chi_20 -> ~chi_10 nu_taub nu_tau)
     3.22958505E-07    3     1000024        -2         1   # BR(~chi_20 -> ~chi_1+ ub      d)
     3.22958505E-07    3    -1000024        -1         2   # BR(~chi_20 -> ~chi_1- db      u)
     3.22958505E-07    3     1000024        -4         3   # BR(~chi_20 -> ~chi_1+ cb      s)
     3.22958505E-07    3    -1000024        -3         4   # BR(~chi_20 -> ~chi_1- sb      c)
     1.07652975E-07    3     1000024       -12        11   # BR(~chi_20 -> ~chi_1+ nu_eb   e-)
     1.07652975E-07    3    -1000024        12       -11   # BR(~chi_20 -> ~chi_1- nu_e    e+)
     1.07652975E-07    3     1000024       -14        13   # BR(~chi_20 -> ~chi_1+ nu_mub  mu-)
     1.07652975E-07    3    -1000024        14       -13   # BR(~chi_20 -> ~chi_1- nu_mu   mu+)
     1.65259029E-08    3     1000024       -16        15   # BR(~chi_20 -> ~chi_1+ nu_taub tau-)
     1.65259029E-08    3    -1000024        16       -15   # BR(~chi_20 -> ~chi_1- nu_tau  tau+)
#
#         PDG            Width
DECAY   1000025     3.39503048E-05   # neutralino3 decays
#          BR         NDA      ID1       ID2
     1.03067945E-03    2     1000022        22   # BR(~chi_30 -> ~chi_10 gam)
     4.69023507E-05    2     1000023        22   # BR(~chi_30 -> ~chi_20 gam)
#           BR         NDA      ID1       ID2       ID3
     1.15994518E-01    3     1000022        -2         2   # BR(~chi_30 -> ~chi_10 ub      u)
     1.50160682E-01    3     1000022        -1         1   # BR(~chi_30 -> ~chi_10 db      d)
     1.15994518E-01    3     1000022        -4         4   # BR(~chi_30 -> ~chi_10 cb      c)
     1.50160682E-01    3     1000022        -3         3   # BR(~chi_30 -> ~chi_10 sb      s)
     1.45774779E-01    3     1000022        -5         5   # BR(~chi_30 -> ~chi_10 bb      b)
     3.42076058E-02    3     1000022       -11        11   # BR(~chi_30 -> ~chi_10 e+      e-)
     3.42076058E-02    3     1000022       -13        13   # BR(~chi_30 -> ~chi_10 mu+     mu-)
     3.40837376E-02    3     1000022       -15        15   # BR(~chi_30 -> ~chi_10 tau+    tau-)
     6.88260120E-02    3     1000022       -12        12   # BR(~chi_30 -> ~chi_10 nu_eb   nu_e)
     6.88260120E-02    3     1000022       -14        14   # BR(~chi_30 -> ~chi_10 nu_mub  nu_mu)
     6.88259211E-02    3     1000022       -16        16   # BR(~chi_30 -> ~chi_10 nu_taub nu_tau)
     1.25704851E-04    3     1000023        -2         2   # BR(~chi_30 -> ~chi_20 ub      u)
     1.62986231E-04    3     1000023        -1         1   # BR(~chi_30 -> ~chi_20 db      d)
     1.25704851E-04    3     1000023        -4         4   # BR(~chi_30 -> ~chi_20 cb      c)
     1.62986231E-04    3     1000023        -3         3   # BR(~chi_30 -> ~chi_20 sb      s)
     3.73336609E-05    3     1000023       -11        11   # BR(~chi_30 -> ~chi_20 e+      e-)
     3.73336609E-05    3     1000023       -13        13   # BR(~chi_30 -> ~chi_20 mu+     mu-)
     2.83611206E-05    3     1000023       -15        15   # BR(~chi_30 -> ~chi_20 tau+    tau-)
     7.46113979E-05    3     1000023       -12        12   # BR(~chi_30 -> ~chi_20 nu_eb   nu_e)
     7.46113979E-05    3     1000023       -14        14   # BR(~chi_30 -> ~chi_20 nu_mub  nu_mu)
     7.46113991E-05    3     1000023       -16        16   # BR(~chi_30 -> ~chi_20 nu_taub nu_tau)
     1.84835219E-03    3     1000024        -2         1   # BR(~chi_30 -> ~chi_1+ ub      d)
     1.84835219E-03    3    -1000024        -1         2   # BR(~chi_30 -> ~chi_1- db      u)
     1.84835219E-03    3     1000024        -4         3   # BR(~chi_30 -> ~chi_1+ cb      s)
     1.84835219E-03    3    -1000024        -3         4   # BR(~chi_30 -> ~chi_1- sb      c)
     6.16112391E-04    3     1000024       -12        11   # BR(~chi_30 -> ~chi_1+ nu_eb   e-)
     6.16112391E-04    3    -1000024        12       -11   # BR(~chi_30 -> ~chi_1- nu_e    e+)
     6.16112391E-04    3     1000024       -14        13   # BR(~chi_30 -> ~chi_1+ nu_mub  mu-)
     6.16112391E-04    3    -1000024        14       -13   # BR(~chi_30 -> ~chi_1- nu_mu   mu+)
     5.49120839E-04    3     1000024       -16        15   # BR(~chi_30 -> ~chi_1+ nu_taub tau-)
     5.49120839E-04    3    -1000024        16       -15   # BR(~chi_30 -> ~chi_1- nu_tau  tau+)
#
#         PDG            Width
DECAY   1000035     6.80962752E+01   # neutralino4 decays
#          BR         NDA      ID1       ID2
     3.27233402E-03    2     1000022        23   # BR(~chi_40 -> ~chi_10   Z )
     3.50159904E-02    2     1000023        23   # BR(~chi_40 -> ~chi_20   Z )
     2.17187544E-02    2     1000025        23   # BR(~chi_40 -> ~chi_30   Z )
     5.85903339E-02    2     1000024       -24   # BR(~chi_40 -> ~chi_1+   W-)
     5.85903339E-02    2    -1000024        24   # BR(~chi_40 -> ~chi_1-   W+)
     3.54048231E-03    2     1000022        25   # BR(~chi_40 -> ~chi_10   h )
     2.45561085E-02    2     1000023        25   # BR(~chi_40 -> ~chi_20   h )
     3.03716259E-02    2     1000025        25   # BR(~chi_40 -> ~chi_30   h )
     1.90250838E-01    2     1000006        -6   # BR(~chi_40 -> ~t_1      tb)
     1.90250838E-01    2    -1000006         6   # BR(~chi_40 -> ~t_1*     t )
     1.91921180E-01    2     1000005        -5   # BR(~chi_40 -> ~b_1      bb)
     1.91921180E-01    2    -1000005         5   # BR(~chi_40 -> ~b_1*     b )
#
#         PDG            Width
DECAY        25     3.91950656E-03   # h decays
#          BR         NDA      ID1       ID2
     6.06850703E-01    2           5        -5   # BR(h -> b       bb     )
     6.59910422E-02    2         -15        15   # BR(h -> tau+    tau-   )
     2.33611931E-04    2         -13        13   # BR(h -> mu+     mu-    )
     4.96128471E-04    2           3        -3   # BR(h -> s       sb     )
     2.15477177E-02    2           4        -4   # BR(h -> c       cb     )
     7.09469541E-02    2          21        21   # BR(h -> g       g      )
     2.36187336E-03    2          22        22   # BR(h -> gam     gam    )
     1.54284957E-03    2          22        23   # BR(h -> Z       gam    )
     2.04542707E-01    2          24       -24   # BR(h -> W+      W-     )
     2.54864121E-02    2          23        23   # BR(h -> Z       Z      )
#
#         PDG            Width
DECAY        35     5.48895078E+01   # H decays
#          BR         NDA      ID1       ID2
     3.51500901E-01    2           5        -5   # BR(H -> b       bb     )
     6.04049685E-02    2         -15        15   # BR(H -> tau+    tau-   )
     2.13577338E-04    2         -13        13   # BR(H -> mu+     mu-    )
     2.52625180E-04    2           3        -3   # BR(H -> s       sb     )
     7.08559785E-08    2           4        -4   # BR(H -> c       cb     )
     7.10124425E-03    2           6        -6   # BR(H -> t       tb     )
     8.54748928E-07    2          21        21   # BR(H -> g       g      )
     2.40946293E-10    2          22        22   # BR(H -> gam     gam    )
     1.82586545E-09    2          23        22   # BR(H -> Z       gam    )
     1.77460514E-06    2          24       -24   # BR(H -> W+      W-     )
     8.86687829E-07    2          23        23   # BR(H -> Z       Z      )
     6.81036601E-06    2          25        25   # BR(H -> h       h      )
    -1.66062737E-24    2          36        36   # BR(H -> A       A      )
     7.17073235E-20    2          23        36   # BR(H -> Z       A      )
     1.86146030E-03    2     1000024  -1000024   # BR(H -> ~chi_1+ ~chi_1-)
     1.62374636E-01    2     1000024  -1000037   # BR(H -> ~chi_1+ ~chi_2-)
     1.62374636E-01    2     1000037  -1000024   # BR(H -> ~chi_2+ ~chi_1-)
     1.95446303E-02    2     1000022   1000022   # BR(H -> ~chi_10 ~chi_10)
     1.03794002E-03    2     1000023   1000023   # BR(H -> ~chi_20 ~chi_20)
     1.05415209E-02    2     1000025   1000025   # BR(H -> ~chi_30 ~chi_30)
     2.82600084E-02    2     1000022   1000023   # BR(H -> ~chi_10 ~chi_20)
     1.83598626E-02    2     1000022   1000025   # BR(H -> ~chi_10 ~chi_30)
     2.01736036E-02    2     1000022   1000035   # BR(H -> ~chi_10 ~chi_40)
     9.45465307E-03    2     1000023   1000025   # BR(H -> ~chi_20 ~chi_30)
     7.94747194E-02    2     1000023   1000035   # BR(H -> ~chi_20 ~chi_40)
     6.31954393E-02    2     1000025   1000035   # BR(H -> ~chi_30 ~chi_40)
     1.45392064E-04    2     1000006  -1000006   # BR(H -> ~t_1    ~t_1*  )
     1.85881853E-03    2     1000006  -2000006   # BR(H -> ~t_1    ~t_2*  )
     1.85881853E-03    2     2000006  -1000006   # BR(H -> ~t_2    ~t_1*  )
     1.45025755E-07    2     1000005  -1000005   # BR(H -> ~b_1    ~b_1*  )
#
#         PDG            Width
DECAY        36     5.48874514E+01   # A decays
#          BR         NDA      ID1       ID2
     3.51539746E-01    2           5        -5   # BR(A -> b       bb     )
     6.04075460E-02    2         -15        15   # BR(A -> tau+    tau-   )
     2.13586283E-04    2         -13        13   # BR(A -> mu+     mu-    )
     2.52676962E-04    2           3        -3   # BR(A -> s       sb     )
     7.13170637E-08    2           4        -4   # BR(A -> c       cb     )
     7.11515689E-03    2           6        -6   # BR(A -> t       tb     )
     1.46198516E-05    2          21        21   # BR(A -> g       g      )
     5.33795899E-08    2          22        22   # BR(A -> gam     gam    )
     1.60707449E-08    2          23        22   # BR(A -> Z       gam    )
     1.77101974E-06    2          23        25   # BR(A -> Z       h      )
     1.86508235E-03    2     1000024  -1000024   # BR(A -> ~chi_1+ ~chi_1-)
     1.62382744E-01    2     1000024  -1000037   # BR(A -> ~chi_1+ ~chi_2-)
     1.62382744E-01    2     1000037  -1000024   # BR(A -> ~chi_2+ ~chi_1-)
     1.70381849E-02    2     1000022   1000022   # BR(A -> ~chi_10 ~chi_10)
     1.29519296E-03    2     1000023   1000023   # BR(A -> ~chi_20 ~chi_20)
     8.70600993E-03    2     1000025   1000025   # BR(A -> ~chi_30 ~chi_30)
     3.49740790E-02    2     1000022   1000023   # BR(A -> ~chi_10 ~chi_20)
     1.47908200E-02    2     1000022   1000025   # BR(A -> ~chi_10 ~chi_30)
     2.02856251E-02    2     1000022   1000035   # BR(A -> ~chi_10 ~chi_40)
     1.03982657E-02    2     1000023   1000025   # BR(A -> ~chi_20 ~chi_30)
     8.03640391E-02    2     1000023   1000035   # BR(A -> ~chi_20 ~chi_40)
     6.21879446E-02    2     1000025   1000035   # BR(A -> ~chi_30 ~chi_40)
     1.89201184E-03    2     1000006  -2000006   # BR(A -> ~t_1    ~t_2*  )
     1.89201184E-03    2    -1000006   2000006   # BR(A -> ~t_1*   ~t_2   )
#
#         PDG            Width
DECAY        37     5.49319737E+01   # H+ decays
#          BR         NDA      ID1       ID2
     5.63314280E-04    2           4        -5   # BR(H+ -> c       bb     )
     6.03735786E-02    2         -15        16   # BR(H+ -> tau+    nu_tau )
     2.13466183E-04    2         -13        14   # BR(H+ -> mu+     nu_mu  )
     3.60520831E-06    2           2        -5   # BR(H+ -> u       bb     )
     1.20932732E-05    2           2        -3   # BR(H+ -> u       sb     )
     2.48797518E-04    2           4        -3   # BR(H+ -> c       sb     )
     3.58811290E-01    2           6        -5   # BR(H+ -> t       bb     )
     1.77152282E-06    2          24        25   # BR(H+ -> W+      h      )
     2.31963493E-14    2          24        36   # BR(H+ -> W+      A      )
     6.79938448E-02    2     1000024   1000022   # BR(H+ -> ~chi_1+ ~chi_10)
     1.82526859E-05    2     1000024   1000023   # BR(H+ -> ~chi_1+ ~chi_20)
     1.97210767E-02    2     1000024   1000025   # BR(H+ -> ~chi_1+ ~chi_30)
     1.62458773E-01    2     1000024   1000035   # BR(H+ -> ~chi_1+ ~chi_40)
     4.04807294E-02    2     1000037   1000022   # BR(H+ -> ~chi_2+ ~chi_10)
     1.59810479E-01    2     1000037   1000023   # BR(H+ -> ~chi_2+ ~chi_20)
     1.25473385E-01    2     1000037   1000025   # BR(H+ -> ~chi_2+ ~chi_30)
     7.73072220E-05    2     1000006  -1000005   # BR(H+ -> ~t_1    ~b_1*  )
     3.73823578E-03    2     2000006  -1000005   # BR(H+ -> ~t_2    ~b_1*  )
