#
#                              ======================
#                              | THE SUSYHIT OUTPUT |
#                              ======================
#
#
#              ------------------------------------------------------
#              |     This is the output of the SUSY-HIT package     |
#              |  created by A.Djouadi, M.Muehlleitner and M.Spira. |
#              |  In case of problems with SUSY-HIT email to        |
#              |           margarete.muehlleitner@kit.edu           |
#              |           michael.spira@psi.ch                     |
#              |           abdelhak.djouadi@cern.ch                 |
#              ------------------------------------------------------
#
#              ------------------------------------------------------
#              |  SUSY Les Houches Accord - MSSM Spectrum + Decays  |
#              |              based on the decay programs           |
#              |                                                    |
#              |                     SDECAY 1.5                     |
#              |                                                    |
#              |  Authors: M.Muhlleitner, A.Djouadi and Y.Mambrini  |
#              |  Ref.:    Comput.Phys.Commun.168(2005)46           |
#              |           [hep-ph/0311167]                         |
#              |                                                    |
#              |                     HDECAY 3.4                     |
#              |                                                    |
#              |  By: A.Djouadi,J.Kalinowski,M.Muhlleitner,M.Spira  |
#              |  Ref.:    Comput.Phys.Commun.108(1998)56           |
#              |           [hep-ph/9704448]                         |
#              |                                                    |
#              |                                                    |
#              |  If not stated otherwise all DRbar couplings and   |
#              |  soft SUSY breaking masses are given at the scale  |
#              |  Q=  0.11040293E+04
#              |                                                    |
#              ------------------------------------------------------
#
#
BLOCK DCINFO  # Decay Program information
     1   SDECAY/HDECAY # decay calculator
     2   1.5  /3.4    # version number
#
BLOCK SPINFO  # Spectrum calculator information
     1    SOFTSUSY    # spectrum calculator                
     2    3.7.3       # version number                     
#
BLOCK MODSEL  # Model selection
     1     0   #  nonUniversal                                     
#
BLOCK SMINPUTS  # Standard Model inputs
         1     1.27934000E+02   # alpha_em^-1(M_Z)^MSbar
         2     1.16639000E-05   # G_F [GeV^-2]
         3     1.17200000E-01   # alpha_S(M_Z)^MSbar
         4     9.11870000E+01   # M_Z pole mass
         5     4.19000000E+00   # mb(mb)^MSbar
         6     1.72500000E+02   # mt pole mass
         7     1.77690000E+00   # mtau pole mass
#
BLOCK MINPAR  # Input parameters - minimal models
         3     2.00000000E+01   # tanb                
#
BLOCK EXTPAR  # Input parameters - non-minimal models
         0    -1.00000000E+00   # Set                 
         1     1.59990000E+02   # M_1(MX)             
         2     2.00000000E+03   # M_2(MX)             
         3     1.80000000E+03   # M_3(MX)             
        11     2.42959179E+03   # At(MX)              
        12     0.00000000E+00   # Ab(MX)              
        13     0.00000000E+00   # Atau(MX)            
        23    -1.85900000E+02   # mu(MX)              
        25     2.00000000E+01   # tan                 
        26     4.00000000E+03   # mA(pole)            
        31     4.00000000E+03   # meL(MX)             
        32     4.00000000E+03   # mmuL(MX)            
        33     4.00000000E+03   # mtauL(MX)           
        34     4.00000000E+03   # meR(MX)             
        35     4.00000000E+03   # mmuR(MX)            
        36     4.00000000E+03   # mtauR(MX)           
        41     4.00000000E+03   # mqL1(MX)            
        42     4.00000000E+03   # mqL2(MX)            
        43     2.19485961E+03   # mqL3(MX)            
        44     4.00000000E+03   # muR(MX)             
        45     4.00000000E+03   # mcR(MX)             
        46     5.59990000E+02   # mtR(MX)             
        47     4.00000000E+03   # mdR(MX)             
        48     4.00000000E+03   # msR(MX)             
        49     4.00000000E+03   # mbR(MX)             
#
BLOCK MASS  # Mass Spectrum
# PDG code           mass       particle
        24     8.04189201E+01   # W+
        25     1.25196262E+02   # h
        35     4.00000310E+03   # H
        36     3.99999606E+03   # A
        37     4.00102172E+03   # H+
         5     4.81337004E+00   # b-quark pole mass calculated from mb(mb)_Msbar
   1000001     4.02007523E+03   # ~d_L
   2000001     4.01802553E+03   # ~d_R
   1000002     4.01942362E+03   # ~u_L
   2000002     4.01853301E+03   # ~u_R
   1000003     4.02007523E+03   # ~s_L
   2000003     4.01802553E+03   # ~s_R
   1000004     4.01942362E+03   # ~c_L
   2000004     4.01853301E+03   # ~c_R
   1000005     2.22004488E+03   # ~b_1
   2000005     4.02262137E+03   # ~b_2
   1000006     6.02930935E+02   # ~t_1
   2000006     2.23017999E+03   # ~t_2
   1000011     4.00316548E+03   # ~e_L
   2000011     4.00373043E+03   # ~e_R
   1000012     4.00205323E+03   # ~nu_eL
   1000013     4.00316548E+03   # ~mu_L
   2000013     4.00373043E+03   # ~mu_R
   1000014     4.00205323E+03   # ~nu_muL
   1000015     4.00486944E+03   # ~tau_1
   2000015     4.00791194E+03   # ~tau_2
   1000016     4.00401964E+03   # ~nu_tauL
   1000021     1.98345675E+03   # ~g
   1000022     1.44749917E+02   # ~chi_10
   1000023    -1.96098369E+02   # ~chi_20
   1000025     2.11255683E+02   # ~chi_30
   1000035     2.06781158E+03   # ~chi_40
   1000024     1.92082840E+02   # ~chi_1+
   1000037     2.06797939E+03   # ~chi_2+
#
BLOCK NMIX  # Neutralino Mixing Matrix
  1  1     8.15282827E-01   # N_11
  1  2    -1.34657358E-02   # N_12
  1  3    -4.64158200E-01   # N_13
  1  4    -3.45962065E-01   # N_14
  2  1    -9.38320435E-02   # N_21
  2  2     2.64021639E-02   # N_22
  2  3    -6.95896165E-01   # N_23
  2  4     7.11496311E-01   # N_24
  3  1     5.71409311E-01   # N_31
  3  2     2.51687709E-02   # N_32
  3  3     5.47980750E-01   # N_33
  3  4     6.10389245E-01   # N_34
  4  1    -9.26618604E-04   # N_41
  4  2     9.99243780E-01   # N_42
  4  3    -1.67033217E-03   # N_43
  4  4    -3.88357914E-02   # N_44
#
BLOCK UMIX  # Chargino Mixing Matrix U
  1  1     2.36689828E-03   # U_11
  1  2     9.99997199E-01   # U_12
  2  1    -9.99997199E-01   # U_21
  2  2     2.36689828E-03   # U_22
#
BLOCK VMIX  # Chargino Mixing Matrix V
  1  1     5.49349115E-02   # V_11
  1  2    -9.98489938E-01   # V_12
  2  1    -9.98489938E-01   # V_21
  2  2    -5.49349115E-02   # V_22
#
BLOCK STOPMIX  # Stop Mixing Matrix
  1  1    -8.04375393E-02   # cos(theta_t)
  1  2     9.96759651E-01   # sin(theta_t)
  2  1    -9.96759651E-01   # -sin(theta_t)
  2  2    -8.04375393E-02   # cos(theta_t)
#
BLOCK SBOTMIX  # Sbottom Mixing Matrix
  1  1     9.99999671E-01   # cos(theta_b)
  1  2    -8.11171925E-04   # sin(theta_b)
  2  1     8.11171925E-04   # -sin(theta_b)
  2  2     9.99999671E-01   # cos(theta_b)
#
BLOCK STAUMIX  # Stau Mixing Matrix
  1  1    -7.04680880E-01   # cos(theta_tau)
  1  2     7.09524388E-01   # sin(theta_tau)
  2  1    -7.09524388E-01   # -sin(theta_tau)
  2  2    -7.04680880E-01   # cos(theta_tau)
#
BLOCK ALPHA  # Higgs mixing
          -5.00296216E-02   # Mixing angle in the neutral Higgs boson sector
#
BLOCK HMIX Q=  1.10402934E+03  # DRbar Higgs Parameters
         1    -1.85900000E+02   # mu(Q)MSSM           
         2     2.00000000E+01   # tan                 
         3     2.44026453E+02   # higgs               
         4     1.61591841E+07   # mA^2(Q)MSSM         
#
BLOCK GAUGE Q=  1.10402934E+03  # The gauge couplings
     1     3.61633003E-01   # gprime(Q) DRbar
     2     6.35934027E-01   # g(Q) DRbar
     3     1.03305229E+00   # g3(Q) DRbar
#
BLOCK AU Q=  1.10402934E+03  # The trilinear couplings
  1  1     0.00000000E+00   # A_u(Q) DRbar
  2  2     9.35180121E-07   # A_c(Q) DRbar
  3  3     2.42959179E+03   # A_t(Q) DRbar
#
BLOCK AD Q=  1.10402934E+03  # The trilinear couplings
  1  1     3.43122892E-07   # A_d(Q) DRbar
  2  2     3.43155734E-07   # A_s(Q) DRbar
  3  3     6.14043748E-07   # A_b(Q) DRbar
#
BLOCK AE Q=  1.10402934E+03  # The trilinear couplings
  1  1     0.00000000E+00   # A_e(Q) DRbar
  2  2     7.49930404E-08   # A_mu(Q) DRbar
  3  3     7.57603746E-08   # A_tau(Q) DRbar
#
BLOCK Yu Q=  1.10402934E+03  # The Yukawa couplings
  1  1     0.00000000E+00   # y_u(Q) DRbar
  2  2     0.00000000E+00   # y_c(Q) DRbar
  3  3     8.70126353E-01   # y_t(Q) DRbar
#
BLOCK Yd Q=  1.10402934E+03  # The Yukawa couplings
  1  1     0.00000000E+00   # y_d(Q) DRbar
  2  2     0.00000000E+00   # y_s(Q) DRbar
  3  3     2.82910542E-01   # y_b(Q) DRbar
#
BLOCK Ye Q=  1.10402934E+03  # The Yukawa couplings
  1  1     0.00000000E+00   # y_e(Q) DRbar
  2  2     0.00000000E+00   # y_mu(Q) DRbar
  3  3     2.03794379E-01   # y_tau(Q) DRbar
#
BLOCK MSOFT Q=  1.10402934E+03  # The soft SUSY breaking masses at the scale Q
         1     1.59990000E+02   # M_1(Q)              
         2     2.00000000E+03   # M_2(Q)              
         3     1.80000000E+03   # M_3(Q)              
        21     1.58429504E+07   # M^2_Hd              
        22    -6.05483213E+04   # M^2_Hu              
        31     4.00000000E+03   # M_eL                
        32     4.00000000E+03   # M_muL               
        33     4.00000000E+03   # M_tauL              
        34     4.00000000E+03   # M_eR                
        35     4.00000000E+03   # M_muR               
        36     4.00000000E+03   # M_tauR              
        41     4.00000000E+03   # M_q1L               
        42     4.00000000E+03   # M_q2L               
        43     2.19485961E+03   # M_q3L               
        44     4.00000000E+03   # M_uR                
        45     4.00000000E+03   # M_cR                
        46     5.59989995E+02   # M_tR                
        47     4.00000000E+03   # M_dR                
        48     4.00000000E+03   # M_sR                
        49     4.00000000E+03   # M_bR                
#
#
#
#                             =================
#                             |The decay table|
#                             =================
#
# - The QCD corrections to the decays gluino -> squark  + quark
#                                     squark -> gaugino + quark_prime
#                                     squark -> squark_prime + Higgs
#                                     squark -> gluino  + quark
#   are included.
#
# - The multi-body decays for the inos, stops and sbottoms are included.
#
# - The loop induced decays for the gluino, neutralinos and stops
#   are included.
#
# - The SUSY decays of the top quark are included.
#
#
#         PDG            Width
DECAY         6     1.40296480E+00   # top decays
#          BR         NDA      ID1       ID2
     1.00000000E+00    2           5        24   # BR(t ->  b    W+)
#
#         PDG            Width
DECAY   1000021     3.44568895E+01   # gluino decays
#          BR         NDA      ID1       ID2
     5.00000000E-01    2     1000006        -6   # BR(~g -> ~t_1  tb)
     5.00000000E-01    2    -1000006         6   # BR(~g -> ~t_1* t )
#
#         PDG            Width
DECAY   1000006     1.43531299E+01   # stop1 decays
#          BR         NDA      ID1       ID2
     8.44227803E-02    2     1000022         6   # BR(~t_1 -> ~chi_10 t )
     2.06079932E-01    2     1000023         6   # BR(~t_1 -> ~chi_20 t )
     2.05566842E-01    2     1000025         6   # BR(~t_1 -> ~chi_30 t )
     5.03930446E-01    2     1000024         5   # BR(~t_1 -> ~chi_1+ b )
#
#         PDG            Width
DECAY   2000006     6.82387301E+01   # stop2 decays
#          BR         NDA      ID1       ID2
     6.46042578E-02    2     1000022         6   # BR(~t_2 -> ~chi_10 t )
     2.36468584E-01    2     1000023         6   # BR(~t_2 -> ~chi_20 t )
     1.66473629E-01    2     1000025         6   # BR(~t_2 -> ~chi_30 t )
     5.17693118E-02    2     1000024         5   # BR(~t_2 -> ~chi_1+ b )
     5.15858780E-03    2     1000037         5   # BR(~t_2 -> ~chi_2+ b )
     9.55589507E-02    2     1000021         6   # BR(~t_2 -> ~g      t )
     2.55028437E-01    2     1000006        25   # BR(~t_2 -> ~t_1    h )
     1.24938243E-01    2     1000006        23   # BR(~t_2 -> ~t_1    Z )
#
#         PDG            Width
DECAY   1000005     6.38400348E+01   # sbottom1 decays
#          BR         NDA      ID1       ID2
     1.42962817E-02    2     1000022         5   # BR(~b_1 -> ~chi_10 b )
     2.37931458E-02    2     1000023         5   # BR(~b_1 -> ~chi_20 b )
     1.54428112E-02    2     1000025         5   # BR(~b_1 -> ~chi_30 b )
     2.50345578E-03    2     1000035         5   # BR(~b_1 -> ~chi_40 b )
     4.89197749E-01    2    -1000024         6   # BR(~b_1 -> ~chi_1- t )
     1.09966801E-01    2     1000021         5   # BR(~b_1 -> ~g      b )
     3.44799756E-01    2     1000006       -24   # BR(~b_1 -> ~t_1    W-)
#
#         PDG            Width
DECAY   2000005     1.64269949E+02   # sbottom2 decays
#          BR         NDA      ID1       ID2
     1.68228609E-02    2     1000022         5   # BR(~b_2 -> ~chi_10 b )
     1.76233917E-02    2     1000023         5   # BR(~b_2 -> ~chi_20 b )
     1.52846819E-02    2     1000025         5   # BR(~b_2 -> ~chi_30 b )
     1.74285497E-07    2     1000035         5   # BR(~b_2 -> ~chi_40 b )
     3.60432936E-02    2    -1000024         6   # BR(~b_2 -> ~chi_1- t )
     3.36249084E-07    2    -1000037         6   # BR(~b_2 -> ~chi_2- t )
     9.14111036E-01    2     1000021         5   # BR(~b_2 -> ~g      b )
     2.55251059E-05    2     1000005        25   # BR(~b_2 -> ~b_1    h )
     3.21489947E-05    2     1000005        23   # BR(~b_2 -> ~b_1    Z )
     1.06978770E-06    2     1000006       -24   # BR(~b_2 -> ~t_1    W-)
     5.54817276E-05    2     2000006       -24   # BR(~b_2 -> ~t_2    W-)
#
#         PDG            Width
DECAY   1000002     1.75941915E+02   # sup_L decays
#          BR         NDA      ID1       ID2
     1.75695462E-03    2     1000022         2   # BR(~u_L -> ~chi_10 u)
     6.54040154E-06    2     1000023         2   # BR(~u_L -> ~chi_20 u)
     1.56872732E-03    2     1000025         2   # BR(~u_L -> ~chi_30 u)
     4.80544887E-02    2     1000035         2   # BR(~u_L -> ~chi_40 u)
     5.31877861E-04    2     1000024         1   # BR(~u_L -> ~chi_1+ d)
     9.59866329E-02    2     1000037         1   # BR(~u_L -> ~chi_2+ d)
     8.52094778E-01    2     1000021         2   # BR(~u_L -> ~g      u)
#
#         PDG            Width
DECAY   2000002     1.58762572E+02   # sup_R decays
#          BR         NDA      ID1       ID2
     3.73756668E-02    2     1000022         2   # BR(~u_R -> ~chi_10 u)
     4.94108168E-04    2     1000023         2   # BR(~u_R -> ~chi_20 u)
     1.83108008E-02    2     1000025         2   # BR(~u_R -> ~chi_30 u)
     2.63221785E-08    2     1000035         2   # BR(~u_R -> ~chi_40 u)
     9.43819398E-01    2     1000021         2   # BR(~u_R -> ~g      u)
#
#         PDG            Width
DECAY   1000001     1.75960700E+02   # sdown_L decays
#          BR         NDA      ID1       ID2
     2.49194343E-03    2     1000022         1   # BR(~d_L -> ~chi_10 d)
     1.72048967E-04    2     1000023         1   # BR(~d_L -> ~chi_20 d)
     6.08688821E-04    2     1000025         1   # BR(~d_L -> ~chi_30 d)
     4.81021523E-02    2     1000035         1   # BR(~d_L -> ~chi_40 d)
     9.87416187E-07    2    -1000024         2   # BR(~d_L -> ~chi_1- u)
     9.63044048E-02    2    -1000037         2   # BR(~d_L -> ~chi_2- u)
     8.52319774E-01    2     1000021         1   # BR(~d_L -> ~g      d)
#
#         PDG            Width
DECAY   2000001     1.52029448E+02   # sdown_R decays
#          BR         NDA      ID1       ID2
     9.75648047E-03    2     1000022         1   # BR(~d_R -> ~chi_10 d)
     1.28981092E-04    2     1000023         1   # BR(~d_R -> ~chi_20 d)
     4.77981709E-03    2     1000025         1   # BR(~d_R -> ~chi_30 d)
     6.86986985E-09    2     1000035         1   # BR(~d_R -> ~chi_40 d)
     9.85334714E-01    2     1000021         1   # BR(~d_R -> ~g      d)
#
#         PDG            Width
DECAY   1000004     1.75941915E+02   # scharm_L decays
#          BR         NDA      ID1       ID2
     1.75695462E-03    2     1000022         4   # BR(~c_L -> ~chi_10 c)
     6.54040154E-06    2     1000023         4   # BR(~c_L -> ~chi_20 c)
     1.56872732E-03    2     1000025         4   # BR(~c_L -> ~chi_30 c)
     4.80544887E-02    2     1000035         4   # BR(~c_L -> ~chi_40 c)
     5.31877861E-04    2     1000024         3   # BR(~c_L -> ~chi_1+ s)
     9.59866329E-02    2     1000037         3   # BR(~c_L -> ~chi_2+ s)
     8.52094778E-01    2     1000021         4   # BR(~c_L -> ~g      c)
#
#         PDG            Width
DECAY   2000004     1.58762572E+02   # scharm_R decays
#          BR         NDA      ID1       ID2
     3.73756668E-02    2     1000022         4   # BR(~c_R -> ~chi_10 c)
     4.94108168E-04    2     1000023         4   # BR(~c_R -> ~chi_20 c)
     1.83108008E-02    2     1000025         4   # BR(~c_R -> ~chi_30 c)
     2.63221785E-08    2     1000035         4   # BR(~c_R -> ~chi_40 c)
     9.43819398E-01    2     1000021         4   # BR(~c_R -> ~g      c)
#
#         PDG            Width
DECAY   1000003     1.75960700E+02   # sstrange_L decays
#          BR         NDA      ID1       ID2
     2.49194343E-03    2     1000022         3   # BR(~s_L -> ~chi_10 s)
     1.72048967E-04    2     1000023         3   # BR(~s_L -> ~chi_20 s)
     6.08688821E-04    2     1000025         3   # BR(~s_L -> ~chi_30 s)
     4.81021523E-02    2     1000035         3   # BR(~s_L -> ~chi_40 s)
     9.87416187E-07    2    -1000024         4   # BR(~s_L -> ~chi_1- c)
     9.63044048E-02    2    -1000037         4   # BR(~s_L -> ~chi_2- c)
     8.52319774E-01    2     1000021         3   # BR(~s_L -> ~g      s)
#
#         PDG            Width
DECAY   2000003     1.52029448E+02   # sstrange_R decays
#          BR         NDA      ID1       ID2
     9.75648047E-03    2     1000022         3   # BR(~s_R -> ~chi_10 s)
     1.28981092E-04    2     1000023         3   # BR(~s_R -> ~chi_20 s)
     4.77981709E-03    2     1000025         3   # BR(~s_R -> ~chi_30 s)
     6.86986985E-09    2     1000035         3   # BR(~s_R -> ~chi_40 s)
     9.85334714E-01    2     1000021         3   # BR(~s_R -> ~g      s)
#
#         PDG            Width
DECAY   1000011     3.11752549E+01   # selectron_L decays
#          BR         NDA      ID1       ID2
     1.04401931E-01    2     1000022        11   # BR(~e_L -> ~chi_10 e-)
     3.73565560E-04    2     1000023        11   # BR(~e_L -> ~chi_20 e-)
     6.29653645E-02    2     1000025        11   # BR(~e_L -> ~chi_30 e-)
     2.76965931E-01    2     1000035        11   # BR(~e_L -> ~chi_40 e-)
     5.76109310E-06    2    -1000024        12   # BR(~e_L -> ~chi_1- nu_e)
     5.55287447E-01    2    -1000037        12   # BR(~e_L -> ~chi_2- nu_e)
#
#         PDG            Width
DECAY   2000011     2.07585566E+01   # selectron_R decays
#          BR         NDA      ID1       ID2
     6.65341253E-01    2     1000022        11   # BR(~e_R -> ~chi_10 e-)
     8.79387102E-03    2     1000023        11   # BR(~e_R -> ~chi_20 e-)
     3.25864413E-01    2     1000025        11   # BR(~e_R -> ~chi_30 e-)
     4.63317767E-07    2     1000035        11   # BR(~e_R -> ~chi_40 e-)
#
#         PDG            Width
DECAY   1000013     3.11752549E+01   # smuon_L decays
#          BR         NDA      ID1       ID2
     1.04401931E-01    2     1000022        13   # BR(~mu_L -> ~chi_10 mu-)
     3.73565560E-04    2     1000023        13   # BR(~mu_L -> ~chi_20 mu-)
     6.29653645E-02    2     1000025        13   # BR(~mu_L -> ~chi_30 mu-)
     2.76965931E-01    2     1000035        13   # BR(~mu_L -> ~chi_40 mu-)
     5.76109310E-06    2    -1000024        14   # BR(~mu_L -> ~chi_1- nu_mu)
     5.55287447E-01    2    -1000037        14   # BR(~mu_L -> ~chi_2- nu_mu)
#
#         PDG            Width
DECAY   2000013     2.07585566E+01   # smuon_R decays
#          BR         NDA      ID1       ID2
     6.65341253E-01    2     1000022        13   # BR(~mu_R -> ~chi_10 mu-)
     8.79387102E-03    2     1000023        13   # BR(~mu_R -> ~chi_20 mu-)
     3.25864413E-01    2     1000025        13   # BR(~mu_R -> ~chi_30 mu-)
     4.63317767E-07    2     1000035        13   # BR(~mu_R -> ~chi_40 mu-)
#
#         PDG            Width
DECAY   1000015     3.09218096E+01   # stau_1 decays
#          BR         NDA      ID1       ID2
     3.52355863E-01    2     1000022        15   # BR(~tau_1 -> ~chi_10  tau-)
     4.16904642E-02    2     1000023        15   # BR(~tau_1 -> ~chi_20  tau-)
     1.35076249E-01    2     1000025        15   # BR(~tau_1 -> ~chi_30  tau-)
     1.38594781E-01    2     1000035        15   # BR(~tau_1 -> ~chi_40  tau-)
     5.44149285E-02    2    -1000024        16   # BR(~tau_1 -> ~chi_1-  nu_tau)
     2.77867714E-01    2    -1000037        16   # BR(~tau_1 -> ~chi_2-  nu_tau)
#
#         PDG            Width
DECAY   2000015     3.09671873E+01   # stau_2 decays
#          BR         NDA      ID1       ID2
     2.45554718E-01    2     1000022        15   # BR(~tau_2 -> ~chi_10  tau-)
     6.76958932E-02    2     1000023        15   # BR(~tau_2 -> ~chi_20  tau-)
     2.11016280E-01    2     1000025        15   # BR(~tau_2 -> ~chi_30  tau-)
     1.40989106E-01    2     1000035        15   # BR(~tau_2 -> ~chi_40  tau-)
     5.20754039E-02    2    -1000024        16   # BR(~tau_2 -> ~chi_1-  nu_tau)
     2.82668599E-01    2    -1000037        16   # BR(~tau_2 -> ~chi_2-  nu_tau)
#
#         PDG            Width
DECAY   1000012     3.11862770E+01   # snu_eL decays
#          BR         NDA      ID1       ID2
     1.17193514E-01    2     1000022        12   # BR(~nu_eL -> ~chi_10 nu_e)
     3.26842062E-03    2     1000023        12   # BR(~nu_eL -> ~chi_20 nu_e)
     4.61317712E-02    2     1000025        12   # BR(~nu_eL -> ~chi_30 nu_e)
     2.77263361E-01    2     1000035        12   # BR(~nu_eL -> ~chi_40 nu_e)
     3.10146761E-03    2     1000024        11   # BR(~nu_eL -> ~chi_1+ e-)
     5.53041465E-01    2     1000037        11   # BR(~nu_eL -> ~chi_2+ e-)
#
#         PDG            Width
DECAY   1000014     3.11862770E+01   # snu_muL decays
#          BR         NDA      ID1       ID2
     1.17193514E-01    2     1000022        14   # BR(~nu_muL -> ~chi_10 nu_mu)
     3.26842062E-03    2     1000023        14   # BR(~nu_muL -> ~chi_20 nu_mu)
     4.61317712E-02    2     1000025        14   # BR(~nu_muL -> ~chi_30 nu_mu)
     2.77263361E-01    2     1000035        14   # BR(~nu_muL -> ~chi_40 nu_mu)
     3.10146761E-03    2     1000024        13   # BR(~nu_muL -> ~chi_1+ mu-)
     5.53041465E-01    2     1000037        13   # BR(~nu_muL -> ~chi_2+ mu-)
#
#         PDG            Width
DECAY   1000016     3.45132988E+01   # snu_tauL decays
#          BR         NDA      ID1       ID2
     1.05948569E-01    2     1000022        16   # BR(~nu_tauL -> ~chi_10 nu_tau)
     2.95481567E-03    2     1000023        16   # BR(~nu_tauL -> ~chi_20 nu_tau)
     4.17054595E-02    2     1000025        16   # BR(~nu_tauL -> ~chi_30 nu_tau)
     2.50838075E-01    2     1000035        16   # BR(~nu_tauL -> ~chi_40 nu_tau)
     9.82211056E-02    2     1000024        15   # BR(~nu_tauL -> ~chi_1+ tau-)
     5.00331976E-01    2     1000037        15   # BR(~nu_tauL -> ~chi_2+ tau-)
#
#         PDG            Width
DECAY   1000024     8.48077413E-05   # chargino1+ decays
#           BR         NDA      ID1       ID2       ID3
     3.33586479E-01    3     1000022         2        -1   # BR(~chi_1+ -> ~chi_10 u    db)
     3.33586479E-01    3     1000022         4        -3   # BR(~chi_1+ -> ~chi_10 c    sb)
     1.11196539E-01    3     1000022       -11        12   # BR(~chi_1+ -> ~chi_10 e+   nu_e)
     1.11196539E-01    3     1000022       -13        14   # BR(~chi_1+ -> ~chi_10 mu+  nu_mu)
     1.10433964E-01    3     1000022       -15        16   # BR(~chi_1+ -> ~chi_10 tau+ nu_tau)
#
#         PDG            Width
DECAY   1000037     1.68506081E+01   # chargino2+ decays
#          BR         NDA      ID1       ID2
     3.31407222E-02    2     1000006        -5   # BR(~chi_2+ -> ~t_1     bb)
     2.46696072E-01    2     1000024        23   # BR(~chi_2+ -> ~chi_1+  Z )
     5.17933231E-02    2     1000022        24   # BR(~chi_2+ -> ~chi_10  W+)
     2.41949740E-01    2     1000023        24   # BR(~chi_2+ -> ~chi_20  W+)
     1.86671754E-01    2     1000025        24   # BR(~chi_2+ -> ~chi_30  W+)
     2.39748388E-01    2     1000024        25   # BR(~chi_2+ -> ~chi_1+  h )
#
#         PDG            Width
DECAY   1000022     0.00000000E+00   # neutralino1 decays
#
#         PDG            Width
DECAY   1000023     9.36265141E-05   # neutralino2 decays
#          BR         NDA      ID1       ID2
     5.24483482E-04    2     1000022        22   # BR(~chi_20 -> ~chi_10 gam)
#           BR         NDA      ID1       ID2       ID3
     1.18106075E-01    3     1000022        -2         2   # BR(~chi_20 -> ~chi_10 ub      u)
     1.53189368E-01    3     1000022        -1         1   # BR(~chi_20 -> ~chi_10 db      d)
     1.18106075E-01    3     1000022        -4         4   # BR(~chi_20 -> ~chi_10 cb      c)
     1.53189368E-01    3     1000022        -3         3   # BR(~chi_20 -> ~chi_10 sb      s)
     1.41180198E-01    3     1000022        -5         5   # BR(~chi_20 -> ~chi_10 bb      b)
     3.51198722E-02    3     1000022       -11        11   # BR(~chi_20 -> ~chi_10 e+      e-)
     3.51198722E-02    3     1000022       -13        13   # BR(~chi_20 -> ~chi_10 mu+     mu-)
     3.47906253E-02    3     1000022       -15        15   # BR(~chi_20 -> ~chi_10 tau+    tau-)
     7.02167982E-02    3     1000022       -12        12   # BR(~chi_20 -> ~chi_10 nu_eb   nu_e)
     7.02167982E-02    3     1000022       -14        14   # BR(~chi_20 -> ~chi_10 nu_mub  nu_mu)
     7.02167949E-02    3     1000022       -16        16   # BR(~chi_20 -> ~chi_10 nu_taub nu_tau)
     4.23342231E-06    3     1000024        -2         1   # BR(~chi_20 -> ~chi_1+ ub      d)
     4.23342231E-06    3    -1000024        -1         2   # BR(~chi_20 -> ~chi_1- db      u)
     4.23342231E-06    3     1000024        -4         3   # BR(~chi_20 -> ~chi_1+ cb      s)
     4.23342231E-06    3    -1000024        -3         4   # BR(~chi_20 -> ~chi_1- sb      c)
     1.41114318E-06    3     1000024       -12        11   # BR(~chi_20 -> ~chi_1+ nu_eb   e-)
     1.41114318E-06    3    -1000024        12       -11   # BR(~chi_20 -> ~chi_1- nu_e    e+)
     1.41114318E-06    3     1000024       -14        13   # BR(~chi_20 -> ~chi_1+ nu_mub  mu-)
     1.41114318E-06    3    -1000024        14       -13   # BR(~chi_20 -> ~chi_1- nu_mu   mu+)
     5.46817524E-07    3     1000024       -16        15   # BR(~chi_20 -> ~chi_1+ nu_taub tau-)
     5.46817524E-07    3    -1000024        16       -15   # BR(~chi_20 -> ~chi_1- nu_tau  tau+)
#
#         PDG            Width
DECAY   1000025     1.34074378E-05   # neutralino3 decays
#          BR         NDA      ID1       ID2
     1.20981400E-02    2     1000022        22   # BR(~chi_30 -> ~chi_10 gam)
     4.76967316E-02    2     1000023        22   # BR(~chi_30 -> ~chi_20 gam)
#           BR         NDA      ID1       ID2       ID3
     7.42382604E-02    3     1000022        -2         2   # BR(~chi_30 -> ~chi_10 ub      u)
     9.60423872E-02    3     1000022        -1         1   # BR(~chi_30 -> ~chi_10 db      d)
     7.42382604E-02    3     1000022        -4         4   # BR(~chi_30 -> ~chi_10 cb      c)
     9.60423872E-02    3     1000022        -3         3   # BR(~chi_30 -> ~chi_10 sb      s)
     9.16025532E-02    3     1000022        -5         5   # BR(~chi_30 -> ~chi_10 bb      b)
     2.18219629E-02    3     1000022       -11        11   # BR(~chi_30 -> ~chi_10 e+      e-)
     2.18219629E-02    3     1000022       -13        13   # BR(~chi_30 -> ~chi_10 mu+     mu-)
     2.16805611E-02    3     1000022       -15        15   # BR(~chi_30 -> ~chi_10 tau+    tau-)
     4.41166064E-02    3     1000022       -12        12   # BR(~chi_30 -> ~chi_10 nu_eb   nu_e)
     4.41166064E-02    3     1000022       -14        14   # BR(~chi_30 -> ~chi_10 nu_mub  nu_mu)
     4.41165280E-02    3     1000022       -16        16   # BR(~chi_30 -> ~chi_10 nu_taub nu_tau)
     4.23356495E-03    3     1000023        -2         2   # BR(~chi_30 -> ~chi_20 ub      u)
     5.49149544E-03    3     1000023        -1         1   # BR(~chi_30 -> ~chi_20 db      d)
     4.23356495E-03    3     1000023        -4         4   # BR(~chi_30 -> ~chi_20 cb      c)
     5.49149544E-03    3     1000023        -3         3   # BR(~chi_30 -> ~chi_20 sb      s)
     1.94091564E-03    3     1000023        -5         5   # BR(~chi_30 -> ~chi_20 bb      b)
     1.25920787E-03    3     1000023       -11        11   # BR(~chi_30 -> ~chi_20 e+      e-)
     1.25920787E-03    3     1000023       -13        13   # BR(~chi_30 -> ~chi_20 mu+     mu-)
     1.16367303E-03    3     1000023       -15        15   # BR(~chi_30 -> ~chi_20 tau+    tau-)
     2.51689019E-03    3     1000023       -12        12   # BR(~chi_30 -> ~chi_20 nu_eb   nu_e)
     2.51689019E-03    3     1000023       -14        14   # BR(~chi_30 -> ~chi_20 nu_mub  nu_mu)
     2.51689024E-03    3     1000023       -16        16   # BR(~chi_30 -> ~chi_20 nu_taub nu_tau)
     4.65049097E-02    3     1000024        -2         1   # BR(~chi_30 -> ~chi_1+ ub      d)
     4.65049097E-02    3    -1000024        -1         2   # BR(~chi_30 -> ~chi_1- db      u)
     4.65049097E-02    3     1000024        -4         3   # BR(~chi_30 -> ~chi_1+ cb      s)
     4.65049097E-02    3    -1000024        -3         4   # BR(~chi_30 -> ~chi_1- sb      c)
     1.55014366E-02    3     1000024       -12        11   # BR(~chi_30 -> ~chi_1+ nu_eb   e-)
     1.55014366E-02    3    -1000024        12       -11   # BR(~chi_30 -> ~chi_1- nu_e    e+)
     1.55014366E-02    3     1000024       -14        13   # BR(~chi_30 -> ~chi_1+ nu_mub  mu-)
     1.55014366E-02    3    -1000024        14       -13   # BR(~chi_30 -> ~chi_1- nu_mu   mu+)
     1.48589357E-02    3     1000024       -16        15   # BR(~chi_30 -> ~chi_1+ nu_taub tau-)
     1.48589357E-02    3    -1000024        16       -15   # BR(~chi_30 -> ~chi_1- nu_tau  tau+)
#
#         PDG            Width
DECAY   1000035     1.68400420E+01   # neutralino4 decays
#          BR         NDA      ID1       ID2
     2.65674807E-02    2     1000022        23   # BR(~chi_40 -> ~chi_10   Z )
     1.35468796E-01    2     1000023        23   # BR(~chi_40 -> ~chi_20   Z )
     8.46894365E-02    2     1000025        23   # BR(~chi_40 -> ~chi_30   Z )
     2.40610208E-01    2     1000024       -24   # BR(~chi_40 -> ~chi_1+   W-)
     2.40610208E-01    2    -1000024        24   # BR(~chi_40 -> ~chi_1-   W+)
     2.57869178E-02    2     1000022        25   # BR(~chi_40 -> ~chi_10   h )
     1.09544676E-01    2     1000023        25   # BR(~chi_40 -> ~chi_20   h )
     1.03934390E-01    2     1000025        25   # BR(~chi_40 -> ~chi_30   h )
     1.63939432E-02    2     1000006        -6   # BR(~chi_40 -> ~t_1      tb)
     1.63939432E-02    2    -1000006         6   # BR(~chi_40 -> ~t_1*     t )
#
#         PDG            Width
DECAY        25     4.01130632E-03   # h decays
#          BR         NDA      ID1       ID2
     6.01332968E-01    2           5        -5   # BR(h -> b       bb     )
     6.47831048E-02    2         -15        15   # BR(h -> tau+    tau-   )
     2.29333242E-04    2         -13        13   # BR(h -> mu+     mu-    )
     4.86609982E-04    2           3        -3   # BR(h -> s       sb     )
     2.11317285E-02    2           4        -4   # BR(h -> c       cb     )
     6.87497259E-02    2          21        21   # BR(h -> g       g      )
     2.36004168E-03    2          22        22   # BR(h -> gam     gam    )
     1.58637368E-03    2          22        23   # BR(h -> Z       gam    )
     2.12600426E-01    2          24       -24   # BR(h -> W+      W-     )
     2.67396885E-02    2          23        23   # BR(h -> Z       Z      )
#
#         PDG            Width
DECAY        35     5.41730816E+01   # H decays
#          BR         NDA      ID1       ID2
     3.43467997E-01    2           5        -5   # BR(H -> b       bb     )
     6.12037552E-02    2         -15        15   # BR(H -> tau+    tau-   )
     2.16401654E-04    2         -13        13   # BR(H -> mu+     mu-    )
     2.55965877E-04    2           3        -3   # BR(H -> s       sb     )
     7.18017170E-08    2           4        -4   # BR(H -> c       cb     )
     7.19602688E-03    2           6        -6   # BR(H -> t       tb     )
     9.58795103E-07    2          21        21   # BR(H -> g       g      )
     7.94961972E-12    2          22        22   # BR(H -> gam     gam    )
     1.84873369E-09    2          23        22   # BR(H -> Z       gam    )
     1.96204402E-06    2          24       -24   # BR(H -> W+      W-     )
     9.80342448E-07    2          23        23   # BR(H -> Z       Z      )
     7.15003172E-06    2          25        25   # BR(H -> h       h      )
     2.32213475E-24    2          36        36   # BR(H -> A       A      )
     6.29303311E-20    2          23        36   # BR(H -> Z       A      )
     1.86887994E-03    2     1000024  -1000024   # BR(H -> ~chi_1+ ~chi_1-)
     1.65182047E-01    2     1000024  -1000037   # BR(H -> ~chi_1+ ~chi_2-)
     1.65182047E-01    2     1000037  -1000024   # BR(H -> ~chi_2+ ~chi_1-)
     2.90264972E-02    2     1000022   1000022   # BR(H -> ~chi_10 ~chi_10)
     1.57469162E-03    2     1000023   1000023   # BR(H -> ~chi_20 ~chi_20)
     1.61648499E-02    2     1000025   1000025   # BR(H -> ~chi_30 ~chi_30)
     2.10148595E-02    2     1000022   1000023   # BR(H -> ~chi_10 ~chi_20)
     4.82418163E-03    2     1000022   1000025   # BR(H -> ~chi_10 ~chi_30)
     3.64770006E-02    2     1000022   1000035   # BR(H -> ~chi_10 ~chi_40)
     1.63582408E-02    2     1000023   1000025   # BR(H -> ~chi_20 ~chi_30)
     7.75832241E-02    2     1000023   1000035   # BR(H -> ~chi_20 ~chi_40)
     5.15961229E-02    2     1000025   1000035   # BR(H -> ~chi_30 ~chi_40)
     8.85521495E-05    2     1000006  -1000006   # BR(H -> ~t_1    ~t_1*  )
     3.53767539E-04    2     1000006  -2000006   # BR(H -> ~t_1    ~t_2*  )
     3.53767539E-04    2     2000006  -1000006   # BR(H -> ~t_2    ~t_1*  )
#
#         PDG            Width
DECAY        36     5.41703956E+01   # A decays
#          BR         NDA      ID1       ID2
     3.43511021E-01    2           5        -5   # BR(A -> b       bb     )
     6.12071668E-02    2         -15        15   # BR(A -> tau+    tau-   )
     2.16413547E-04    2         -13        13   # BR(A -> mu+     mu-    )
     2.56021672E-04    2           3        -3   # BR(A -> s       sb     )
     7.22610943E-08    2           4        -4   # BR(A -> c       cb     )
     7.20934089E-03    2           6        -6   # BR(A -> t       tb     )
     1.48133748E-05    2          21        21   # BR(A -> g       g      )
     4.72551206E-08    2          22        22   # BR(A -> gam     gam    )
     1.62887647E-08    2          23        22   # BR(A -> Z       gam    )
     1.95805548E-06    2          23        25   # BR(A -> Z       h      )
     1.87020998E-03    2     1000024  -1000024   # BR(A -> ~chi_1+ ~chi_1-)
     1.65193869E-01    2     1000024  -1000037   # BR(A -> ~chi_1+ ~chi_2-)
     1.65193869E-01    2     1000037  -1000024   # BR(A -> ~chi_2+ ~chi_1-)
     2.51353068E-02    2     1000022   1000022   # BR(A -> ~chi_10 ~chi_10)
     1.95148434E-03    2     1000023   1000023   # BR(A -> ~chi_20 ~chi_20)
     1.30783072E-02    2     1000025   1000025   # BR(A -> ~chi_30 ~chi_30)
     2.68026360E-02    2     1000022   1000023   # BR(A -> ~chi_10 ~chi_20)
     3.57944329E-03    2     1000022   1000025   # BR(A -> ~chi_10 ~chi_30)
     3.50644722E-02    2     1000022   1000035   # BR(A -> ~chi_10 ~chi_40)
     1.84186611E-02    2     1000023   1000025   # BR(A -> ~chi_20 ~chi_30)
     8.27894263E-02    2     1000023   1000035   # BR(A -> ~chi_20 ~chi_40)
     4.77716870E-02    2     1000025   1000035   # BR(A -> ~chi_30 ~chi_40)
     3.66878340E-04    2     1000006  -2000006   # BR(A -> ~t_1    ~t_2*  )
     3.66878340E-04    2    -1000006   2000006   # BR(A -> ~t_1*   ~t_2   )
#
#         PDG            Width
DECAY        37     5.40344257E+01   # H+ decays
#          BR         NDA      ID1       ID2
     5.47011945E-04    2           4        -5   # BR(H+ -> c       bb     )
     6.13769198E-02    2         -15        16   # BR(H+ -> tau+    nu_tau )
     2.17013751E-04    2         -13        14   # BR(H+ -> mu+     nu_mu  )
     3.50087342E-06    2           2        -5   # BR(H+ -> u       bb     )
     1.22942373E-05    2           2        -3   # BR(H+ -> u       sb     )
     2.52931998E-04    2           4        -3   # BR(H+ -> c       sb     )
     3.48745914E-01    2           6        -5   # BR(H+ -> t       bb     )
     1.96518033E-06    2          24        25   # BR(H+ -> W+      h      )
     2.76431852E-14    2          24        36   # BR(H+ -> W+      A      )
     5.60601731E-02    2     1000024   1000022   # BR(H+ -> ~chi_1+ ~chi_10)
     1.47651037E-04    2     1000024   1000023   # BR(H+ -> ~chi_1+ ~chi_20)
     3.35903008E-02    2     1000024   1000025   # BR(H+ -> ~chi_1+ ~chi_30)
     1.65821842E-01    2     1000024   1000035   # BR(H+ -> ~chi_1+ ~chi_40)
     7.18074706E-02    2     1000037   1000022   # BR(H+ -> ~chi_2+ ~chi_10)
     1.60918162E-01    2     1000037   1000023   # BR(H+ -> ~chi_2+ ~chi_20)
     9.97470016E-02    2     1000037   1000025   # BR(H+ -> ~chi_2+ ~chi_30)
     7.49847291E-04    2     1000006  -1000005   # BR(H+ -> ~t_1    ~b_1*  )
