#
#                              ======================
#                              | THE SUSYHIT OUTPUT |
#                              ======================
#
#
#              ------------------------------------------------------
#              |     This is the output of the SUSY-HIT package     |
#              |  created by A.Djouadi, M.Muehlleitner and M.Spira. |
#              |  In case of problems with SUSY-HIT email to        |
#              |           margarete.muehlleitner@kit.edu           |
#              |           michael.spira@psi.ch                     |
#              |           abdelhak.djouadi@cern.ch                 |
#              ------------------------------------------------------
#
#              ------------------------------------------------------
#              |  SUSY Les Houches Accord - MSSM Spectrum + Decays  |
#              |              based on the decay programs           |
#              |                                                    |
#              |                     SDECAY 1.5                     |
#              |                                                    |
#              |  Authors: M.Muhlleitner, A.Djouadi and Y.Mambrini  |
#              |  Ref.:    Comput.Phys.Commun.168(2005)46           |
#              |           [hep-ph/0311167]                         |
#              |                                                    |
#              |                     HDECAY 3.4                     |
#              |                                                    |
#              |  By: A.Djouadi,J.Kalinowski,M.Muhlleitner,M.Spira  |
#              |  Ref.:    Comput.Phys.Commun.108(1998)56           |
#              |           [hep-ph/9704448]                         |
#              |                                                    |
#              |                                                    |
#              |  If not stated otherwise all DRbar couplings and   |
#              |  soft SUSY breaking masses are given at the scale  |
#              |  Q=  0.15008957E+04
#              |                                                    |
#              ------------------------------------------------------
#
#
BLOCK DCINFO  # Decay Program information
     1   SDECAY/HDECAY # decay calculator
     2   1.5  /3.4    # version number
#
BLOCK SPINFO  # Spectrum calculator information
     1    SOFTSUSY    # spectrum calculator                
     2    3.7.3       # version number                     
#
BLOCK MODSEL  # Model selection
     1     0   #  nonUniversal                                     
#
BLOCK SMINPUTS  # Standard Model inputs
         1     1.27934000E+02   # alpha_em^-1(M_Z)^MSbar
         2     1.16639000E-05   # G_F [GeV^-2]
         3     1.17200000E-01   # alpha_S(M_Z)^MSbar
         4     9.11870000E+01   # M_Z pole mass
         5     4.19000000E+00   # mb(mb)^MSbar
         6     1.72500000E+02   # mt pole mass
         7     1.77690000E+00   # mtau pole mass
#
BLOCK MINPAR  # Input parameters - minimal models
         3     2.00000000E+01   # tanb                
#
BLOCK EXTPAR  # Input parameters - non-minimal models
         0    -1.00000000E+00   # Set                 
         1     3.49900000E+02   # M_1(MX)             
         2     6.99900000E+02   # M_2(MX)             
         3     2.20000000E+03   # M_3(MX)             
        11     2.94338000E+03   # At(MX)              
        12     0.00000000E+00   # Ab(MX)              
        13     0.00000000E+00   # Atau(MX)            
        23     3.00000000E+03   # mu(MX)              
        25     2.00000000E+01   # tan                 
        26     3.00000000E+03   # mA(pole)            
        31     3.00000000E+03   # meL(MX)             
        32     3.00000000E+03   # mmuL(MX)            
        33     3.00000000E+03   # mtauL(MX)           
        34     3.00000000E+03   # meR(MX)             
        35     3.00000000E+03   # mmuR(MX)            
        36     3.00000000E+03   # mtauR(MX)           
        41     3.00000000E+03   # mqL1(MX)            
        42     3.00000000E+03   # mqL2(MX)            
        43     7.49900000E+02   # mqL3(MX)            
        44     3.00000000E+03   # muR(MX)             
        45     3.00000000E+03   # mcR(MX)             
        46     3.00000000E+03   # mtR(MX)             
        47     3.00000000E+03   # mdR(MX)             
        48     3.00000000E+03   # msR(MX)             
        49     3.00000000E+03   # mbR(MX)             
#
BLOCK MASS  # Mass Spectrum
# PDG code           mass       particle
        24     8.04037770E+01   # W+
        25     1.23923599E+02   # h
        35     3.00014536E+03   # H
        36     2.99999981E+03   # A
        37     3.00091873E+03   # H+
         5     4.81337004E+00   # b-quark pole mass calculated from mb(mb)_Msbar
   1000001     3.03531710E+03   # ~d_L
   2000001     3.03029433E+03   # ~d_R
   1000002     3.03440637E+03   # ~u_L
   2000002     3.03160816E+03   # ~u_R
   1000003     3.03531710E+03   # ~s_L
   2000003     3.03029433E+03   # ~s_R
   1000004     3.03440637E+03   # ~c_L
   2000004     3.03160816E+03   # ~c_R
   1000005     8.48610834E+02   # ~b_1
   2000005     3.02945185E+03   # ~b_2
   1000006     8.46853865E+02   # ~t_1
   2000006     3.01583143E+03   # ~t_2
   1000011     3.00627106E+03   # ~e_L
   2000011     3.00181470E+03   # ~e_R
   1000012     3.00488156E+03   # ~nu_eL
   1000013     3.00627106E+03   # ~mu_L
   2000013     3.00181470E+03   # ~mu_R
   1000014     3.00488156E+03   # ~nu_muL
   1000015     2.98554803E+03   # ~tau_1
   2000015     3.02203223E+03   # ~tau_2
   1000016     3.00474128E+03   # ~nu_tauL
   1000021     2.34368119E+03   # ~g
   1000022     3.52101083E+02   # ~chi_10
   1000023     7.32429547E+02   # ~chi_20
   1000025    -2.99758665E+03   # ~chi_30
   1000035     2.99851966E+03   # ~chi_40
   1000024     7.32592111E+02   # ~chi_1+
   1000037     2.99903946E+03   # ~chi_2+
#
BLOCK NMIX  # Neutralino Mixing Matrix
  1  1     9.99883630E-01   # N_11
  1  2    -7.19413679E-04   # N_12
  1  3     1.50336308E-02   # N_13
  1  4    -2.48987212E-03   # N_14
  2  1     1.15467073E-03   # N_21
  2  2     9.99586154E-01   # N_22
  2  3    -2.76803551E-02   # N_23
  2  4     7.74504202E-03   # N_24
  3  1    -8.85714866E-03   # N_31
  3  2     1.41058942E-02   # N_32
  3  3     7.06878547E-01   # N_33
  3  4     7.07138809E-01   # N_34
  4  1    -1.23670825E-02   # N_41
  4  2     2.50604707E-02   # N_42
  4  3     7.06633220E-01   # N_43
  4  4    -7.07027949E-01   # N_44
#
BLOCK UMIX  # Chargino Mixing Matrix U
  1  1     9.99233026E-01   # U_11
  1  2    -3.91581375E-02   # U_12
  2  1     3.91581375E-02   # U_21
  2  2     9.99233026E-01   # U_22
#
BLOCK VMIX  # Chargino Mixing Matrix V
  1  1     9.99939961E-01   # V_11
  1  2    -1.09578344E-02   # V_12
  2  1     1.09578344E-02   # V_21
  2  2     9.99939961E-01   # V_22
#
BLOCK STOPMIX  # Stop Mixing Matrix
  1  1     9.98824884E-01   # cos(theta_t)
  1  2    -4.84649472E-02   # sin(theta_t)
  2  1     4.84649472E-02   # -sin(theta_t)
  2  2     9.98824884E-01   # cos(theta_t)
#
BLOCK SBOTMIX  # Sbottom Mixing Matrix
  1  1     9.99912281E-01   # cos(theta_b)
  1  2     1.32450106E-02   # sin(theta_b)
  2  1    -1.32450106E-02   # -sin(theta_b)
  2  2     9.99912281E-01   # cos(theta_b)
#
BLOCK STAUMIX  # Stau Mixing Matrix
  1  1     7.06956236E-01   # cos(theta_tau)
  1  2     7.07257294E-01   # sin(theta_tau)
  2  1    -7.07257294E-01   # -sin(theta_tau)
  2  2     7.06956236E-01   # cos(theta_tau)
#
BLOCK ALPHA  # Higgs mixing
          -5.01845388E-02   # Mixing angle in the neutral Higgs boson sector
#
BLOCK HMIX Q=  1.50089570E+03  # DRbar Higgs Parameters
         1     3.00000000E+03   # mu(Q)MSSM           
         2     2.00000000E+01   # tan                 
         3     2.44270668E+02   # higgs               
         4     7.34751590E+06   # mA^2(Q)MSSM         
#
BLOCK GAUGE Q=  1.50089570E+03  # The gauge couplings
     1     3.62175853E-01   # gprime(Q) DRbar
     2     6.37047874E-01   # g(Q) DRbar
     3     1.02633241E+00   # g3(Q) DRbar
#
BLOCK AU Q=  1.50089570E+03  # The trilinear couplings
  1  1     2.13755436E-06   # A_u(Q) DRbar
  2  2     2.13758500E-06   # A_c(Q) DRbar
  3  3     2.94338000E+03   # A_t(Q) DRbar
#
BLOCK AD Q=  1.50089570E+03  # The trilinear couplings
  1  1     5.85266226E-07   # A_d(Q) DRbar
  2  2     5.85366298E-07   # A_s(Q) DRbar
  3  3     1.26212802E-06   # A_b(Q) DRbar
#
BLOCK AE Q=  1.50089570E+03  # The trilinear couplings
  1  1     0.00000000E+00   # A_e(Q) DRbar
  2  2     1.18801262E-07   # A_mu(Q) DRbar
  3  3     1.20195871E-07   # A_tau(Q) DRbar
#
BLOCK Yu Q=  1.50089570E+03  # The Yukawa couplings
  1  1     0.00000000E+00   # y_u(Q) DRbar
  2  2     0.00000000E+00   # y_c(Q) DRbar
  3  3     8.51747690E-01   # y_t(Q) DRbar
#
BLOCK Yd Q=  1.50089570E+03  # The Yukawa couplings
  1  1     0.00000000E+00   # y_d(Q) DRbar
  2  2     0.00000000E+00   # y_s(Q) DRbar
  3  3     2.15931131E-01   # y_b(Q) DRbar
#
BLOCK Ye Q=  1.50089570E+03  # The Yukawa couplings
  1  1     0.00000000E+00   # y_e(Q) DRbar
  2  2     0.00000000E+00   # y_mu(Q) DRbar
  3  3     2.07403480E-01   # y_tau(Q) DRbar
#
BLOCK MSOFT Q=  1.50089570E+03  # The soft SUSY breaking masses at the scale Q
         1     3.49900000E+02   # M_1(Q)              
         2     6.99900000E+02   # M_2(Q)              
         3     2.20000000E+03   # M_3(Q)              
        21    -8.60158805E+04   # M^2_Hd              
        22    -9.05748737E+06   # M^2_Hu              
        31     3.00000000E+03   # M_eL                
        32     3.00000000E+03   # M_muL               
        33     3.00000000E+03   # M_tauL              
        34     3.00000000E+03   # M_eR                
        35     3.00000000E+03   # M_muR               
        36     3.00000000E+03   # M_tauR              
        41     3.00000000E+03   # M_q1L               
        42     3.00000000E+03   # M_q2L               
        43     7.49899993E+02   # M_q3L               
        44     3.00000000E+03   # M_uR                
        45     3.00000000E+03   # M_cR                
        46     3.00000000E+03   # M_tR                
        47     3.00000000E+03   # M_dR                
        48     3.00000000E+03   # M_sR                
        49     3.00000000E+03   # M_bR                
#
#
#
#                             =================
#                             |The decay table|
#                             =================
#
# - The QCD corrections to the decays gluino -> squark  + quark
#                                     squark -> gaugino + quark_prime
#                                     squark -> squark_prime + Higgs
#                                     squark -> gluino  + quark
#   are included.
#
# - The multi-body decays for the inos, stops and sbottoms are included.
#
# - The loop induced decays for the gluino, neutralinos and stops
#   are included.
#
# - The SUSY decays of the top quark are included.
#
#
#         PDG            Width
DECAY         6     1.40854795E+00   # top decays
#          BR         NDA      ID1       ID2
     1.00000000E+00    2           5        24   # BR(t ->  b    W+)
#
#         PDG            Width
DECAY   1000021     7.15997224E+01   # gluino decays
#          BR         NDA      ID1       ID2
     2.48215842E-01    2     1000005        -5   # BR(~g -> ~b_1  bb)
     2.48215842E-01    2    -1000005         5   # BR(~g -> ~b_1* b )
     2.51784158E-01    2     1000006        -6   # BR(~g -> ~t_1  tb)
     2.51784158E-01    2    -1000006         6   # BR(~g -> ~t_1* t )
#
#         PDG            Width
DECAY   1000006     5.30740202E-01   # stop1 decays
#          BR         NDA      ID1       ID2
     1.38872598E-01    2     1000022         6   # BR(~t_1 -> ~chi_10 t )
     8.61127402E-01    2     1000024         5   # BR(~t_1 -> ~chi_1+ b )
#
#         PDG            Width
DECAY   2000006     1.01261297E+02   # stop2 decays
#          BR         NDA      ID1       ID2
     6.36599315E-02    2     1000022         6   # BR(~t_2 -> ~chi_10 t )
     3.74896814E-04    2     1000023         6   # BR(~t_2 -> ~chi_20 t )
     0.00000000E+00    2     1000025         6   # BR(~t_2 -> ~chi_30 t )
     7.53631145E-04    2     1000024         5   # BR(~t_2 -> ~chi_1+ b )
     5.57812018E-05    2     1000037         5   # BR(~t_2 -> ~chi_2+ b )
     3.32118434E-01    2     1000021         6   # BR(~t_2 -> ~g      t )
     1.58098634E-01    2     1000006        25   # BR(~t_2 -> ~t_1    h )
     1.49668434E-01    2     1000006        23   # BR(~t_2 -> ~t_1    Z )
     2.95270257E-01    2     1000005        24   # BR(~t_2 -> ~b_1    W+)
#
#         PDG            Width
DECAY   1000005     3.23905366E-01   # sbottom1 decays
#          BR         NDA      ID1       ID2
     2.72000096E-01    2     1000022         5   # BR(~b_1 -> ~chi_10 b )
     7.27999904E-01    2     1000023         5   # BR(~b_1 -> ~chi_20 b )
#
#         PDG            Width
DECAY   2000005     4.22224965E+01   # sbottom2 decays
#          BR         NDA      ID1       ID2
     3.85747809E-02    2     1000022         5   # BR(~b_2 -> ~chi_10 b )
     9.50191143E-08    2     1000023         5   # BR(~b_2 -> ~chi_20 b )
     1.53686513E-05    2     1000025         5   # BR(~b_2 -> ~chi_30 b )
     1.47049099E-05    2     1000035         5   # BR(~b_2 -> ~chi_40 b )
     2.43024962E-08    2    -1000024         6   # BR(~b_2 -> ~chi_1- t )
     8.27978940E-01    2     1000021         5   # BR(~b_2 -> ~g      b )
     2.95882388E-02    2     1000005        25   # BR(~b_2 -> ~b_1    h )
     4.26181323E-02    2     1000005        23   # BR(~b_2 -> ~b_1    Z )
     6.12097156E-02    2     1000006       -24   # BR(~b_2 -> ~t_1    W-)
#
#         PDG            Width
DECAY   1000002     6.68983641E+01   # sup_L decays
#          BR         NDA      ID1       ID2
     6.05419758E-03    2     1000022         2   # BR(~u_L -> ~chi_10 u)
     1.55155764E-01    2     1000023         2   # BR(~u_L -> ~chi_20 u)
     1.81191639E-08    2     1000025         2   # BR(~u_L -> ~chi_30 u)
     5.75992571E-08    2     1000035         2   # BR(~u_L -> ~chi_40 u)
     3.10378594E-01    2     1000024         1   # BR(~u_L -> ~chi_1+ d)
     2.60549040E-08    2     1000037         1   # BR(~u_L -> ~chi_2+ d)
     5.28411343E-01    2     1000021         2   # BR(~u_L -> ~g      u)
#
#         PDG            Width
DECAY   2000002     4.16478706E+01   # sup_R decays
#          BR         NDA      ID1       ID2
     1.56628323E-01    2     1000022         2   # BR(~u_R -> ~chi_10 u)
     1.90782959E-07    2     1000023         2   # BR(~u_R -> ~chi_20 u)
     7.29192101E-09    2     1000025         2   # BR(~u_R -> ~chi_30 u)
     1.34683972E-08    2     1000035         2   # BR(~u_R -> ~chi_40 u)
     8.43371466E-01    2     1000021         2   # BR(~u_R -> ~g      u)
#
#         PDG            Width
DECAY   1000001     6.69515264E+01   # sdown_L decays
#          BR         NDA      ID1       ID2
     6.14395420E-03    2     1000022         1   # BR(~d_L -> ~chi_10 d)
     1.54955928E-01    2     1000023         1   # BR(~d_L -> ~chi_20 d)
     3.06180129E-08    2     1000025         1   # BR(~d_L -> ~chi_30 d)
     8.79083248E-08    2     1000035         1   # BR(~d_L -> ~chi_40 d)
     3.09811869E-01    2    -1000024         2   # BR(~d_L -> ~chi_1- u)
     3.49195773E-07    2    -1000037         2   # BR(~d_L -> ~chi_2- u)
     5.29087781E-01    2     1000021         1   # BR(~d_L -> ~g      d)
#
#         PDG            Width
DECAY   2000001     3.66490433E+01   # sdown_R decays
#          BR         NDA      ID1       ID2
     4.44771571E-02    2     1000022         1   # BR(~d_R -> ~chi_10 d)
     5.41714554E-08    2     1000023         1   # BR(~d_R -> ~chi_20 d)
     1.91975632E-09    2     1000025         1   # BR(~d_R -> ~chi_30 d)
     3.53800218E-09    2     1000035         1   # BR(~d_R -> ~chi_40 d)
     9.55522783E-01    2     1000021         1   # BR(~d_R -> ~g      d)
#
#         PDG            Width
DECAY   1000004     6.68983641E+01   # scharm_L decays
#          BR         NDA      ID1       ID2
     6.05419758E-03    2     1000022         4   # BR(~c_L -> ~chi_10 c)
     1.55155764E-01    2     1000023         4   # BR(~c_L -> ~chi_20 c)
     1.81191639E-08    2     1000025         4   # BR(~c_L -> ~chi_30 c)
     5.75992571E-08    2     1000035         4   # BR(~c_L -> ~chi_40 c)
     3.10378594E-01    2     1000024         3   # BR(~c_L -> ~chi_1+ s)
     2.60549040E-08    2     1000037         3   # BR(~c_L -> ~chi_2+ s)
     5.28411343E-01    2     1000021         4   # BR(~c_L -> ~g      c)
#
#         PDG            Width
DECAY   2000004     4.16478706E+01   # scharm_R decays
#          BR         NDA      ID1       ID2
     1.56628323E-01    2     1000022         4   # BR(~c_R -> ~chi_10 c)
     1.90782959E-07    2     1000023         4   # BR(~c_R -> ~chi_20 c)
     7.29192101E-09    2     1000025         4   # BR(~c_R -> ~chi_30 c)
     1.34683972E-08    2     1000035         4   # BR(~c_R -> ~chi_40 c)
     8.43371466E-01    2     1000021         4   # BR(~c_R -> ~g      c)
#
#         PDG            Width
DECAY   1000003     6.69515264E+01   # sstrange_L decays
#          BR         NDA      ID1       ID2
     6.14395420E-03    2     1000022         3   # BR(~s_L -> ~chi_10 s)
     1.54955928E-01    2     1000023         3   # BR(~s_L -> ~chi_20 s)
     3.06180129E-08    2     1000025         3   # BR(~s_L -> ~chi_30 s)
     8.79083248E-08    2     1000035         3   # BR(~s_L -> ~chi_40 s)
     3.09811869E-01    2    -1000024         4   # BR(~s_L -> ~chi_1- c)
     3.49195773E-07    2    -1000037         4   # BR(~s_L -> ~chi_2- c)
     5.29087781E-01    2     1000021         3   # BR(~s_L -> ~g      s)
#
#         PDG            Width
DECAY   2000003     3.66490433E+01   # sstrange_R decays
#          BR         NDA      ID1       ID2
     4.44771571E-02    2     1000022         3   # BR(~s_R -> ~chi_10 s)
     5.41714554E-08    2     1000023         3   # BR(~s_R -> ~chi_20 s)
     1.91975632E-09    2     1000025         3   # BR(~s_R -> ~chi_30 s)
     3.53800218E-09    2     1000035         3   # BR(~s_R -> ~chi_40 s)
     9.55522783E-01    2     1000021         3   # BR(~s_R -> ~g      s)
#
#         PDG            Width
DECAY   1000011     3.59900736E+01   # selectron_L decays
#          BR         NDA      ID1       ID2
     1.05727037E-01    2     1000022        11   # BR(~e_L -> ~chi_10 e-)
     2.98503625E-01    2     1000023        11   # BR(~e_L -> ~chi_20 e-)
     9.23362587E-10    2     1000025        11   # BR(~e_L -> ~chi_30 e-)
     2.90737490E-09    2     1000035        11   # BR(~e_L -> ~chi_40 e-)
     5.95769310E-01    2    -1000024        12   # BR(~e_L -> ~chi_1- nu_e)
     2.38776140E-08    2    -1000037        12   # BR(~e_L -> ~chi_2- nu_e)
#
#         PDG            Width
DECAY   2000011     1.52352333E+01   # selectron_R decays
#          BR         NDA      ID1       ID2
     9.99998786E-01    2     1000022        11   # BR(~e_R -> ~chi_10 e-)
     1.21265301E-06    2     1000023        11   # BR(~e_R -> ~chi_20 e-)
     6.39267027E-10    2     1000025        11   # BR(~e_R -> ~chi_30 e-)
     7.57190533E-10    2     1000035        11   # BR(~e_R -> ~chi_40 e-)
#
#         PDG            Width
DECAY   1000013     3.59900736E+01   # smuon_L decays
#          BR         NDA      ID1       ID2
     1.05727037E-01    2     1000022        13   # BR(~mu_L -> ~chi_10 mu-)
     2.98503625E-01    2     1000023        13   # BR(~mu_L -> ~chi_20 mu-)
     9.23362587E-10    2     1000025        13   # BR(~mu_L -> ~chi_30 mu-)
     2.90737490E-09    2     1000035        13   # BR(~mu_L -> ~chi_40 mu-)
     5.95769310E-01    2    -1000024        14   # BR(~mu_L -> ~chi_1- nu_mu)
     2.38776140E-08    2    -1000037        14   # BR(~mu_L -> ~chi_2- nu_mu)
#
#         PDG            Width
DECAY   2000013     1.52352333E+01   # smuon_R decays
#          BR         NDA      ID1       ID2
     9.99998786E-01    2     1000022        13   # BR(~mu_R -> ~chi_10 mu-)
     1.21265301E-06    2     1000023        13   # BR(~mu_R -> ~chi_20 mu-)
     6.39267027E-10    2     1000025        13   # BR(~mu_R -> ~chi_30 mu-)
     7.57190533E-10    2     1000035        13   # BR(~mu_R -> ~chi_40 mu-)
#
#         PDG            Width
DECAY   1000015     2.58697612E+01   # stau_1 decays
#          BR         NDA      ID1       ID2
     3.67724695E-01    2     1000022        15   # BR(~tau_1 -> ~chi_10  tau-)
     2.11062429E-01    2     1000023        15   # BR(~tau_1 -> ~chi_20  tau-)
     4.21212877E-01    2    -1000024        16   # BR(~tau_1 -> ~chi_1-  nu_tau)
#
#         PDG            Width
DECAY   2000015     2.53316980E+01   # stau_2 decays
#          BR         NDA      ID1       ID2
     3.76410964E-01    2     1000022        15   # BR(~tau_2 -> ~chi_10  tau-)
     2.08168128E-01    2     1000023        15   # BR(~tau_2 -> ~chi_20  tau-)
     1.29839659E-05    2     1000025        15   # BR(~tau_2 -> ~chi_30  tau-)
     1.44596038E-05    2     1000035        15   # BR(~tau_2 -> ~chi_40  tau-)
     4.15378768E-01    2    -1000024        16   # BR(~tau_2 -> ~chi_1-  nu_tau)
     1.46963888E-05    2    -1000037        16   # BR(~tau_2 -> ~chi_2-  nu_tau)
#
#         PDG            Width
DECAY   1000012     3.59910498E+01   # snu_eL decays
#          BR         NDA      ID1       ID2
     1.06208880E-01    2     1000022        12   # BR(~nu_eL -> ~chi_10 nu_e)
     2.97540093E-01    2     1000023        12   # BR(~nu_eL -> ~chi_20 nu_e)
     2.90411489E-09    2     1000025        12   # BR(~nu_eL -> ~chi_30 nu_e)
     6.21032454E-09    2     1000035        12   # BR(~nu_eL -> ~chi_40 nu_e)
     5.96251016E-01    2     1000024        11   # BR(~nu_eL -> ~chi_1+ e-)
     1.22139201E-09    2     1000037        11   # BR(~nu_eL -> ~chi_2+ e-)
#
#         PDG            Width
DECAY   1000014     3.59910498E+01   # snu_muL decays
#          BR         NDA      ID1       ID2
     1.06208880E-01    2     1000022        14   # BR(~nu_muL -> ~chi_10 nu_mu)
     2.97540093E-01    2     1000023        14   # BR(~nu_muL -> ~chi_20 nu_mu)
     2.90411489E-09    2     1000025        14   # BR(~nu_muL -> ~chi_30 nu_mu)
     6.21032454E-09    2     1000035        14   # BR(~nu_muL -> ~chi_40 nu_mu)
     5.96251016E-01    2     1000024        13   # BR(~nu_muL -> ~chi_1+ mu-)
     1.22139201E-09    2     1000037        13   # BR(~nu_muL -> ~chi_2+ mu-)
#
#         PDG            Width
DECAY   1000016     3.59923192E+01   # snu_tauL decays
#          BR         NDA      ID1       ID2
     1.06199900E-01    2     1000022        16   # BR(~nu_tauL -> ~chi_10 nu_tau)
     2.97512200E-01    2     1000023        16   # BR(~nu_tauL -> ~chi_20 nu_tau)
     2.79365957E-09    2     1000025        16   # BR(~nu_tauL -> ~chi_30 nu_tau)
     5.93981331E-09    2     1000035        16   # BR(~nu_tauL -> ~chi_40 nu_tau)
     5.96286895E-01    2     1000024        15   # BR(~nu_tauL -> ~chi_1+ tau-)
     9.95897523E-07    2     1000037        15   # BR(~nu_tauL -> ~chi_2+ tau-)
#
#         PDG            Width
DECAY   1000024     1.93793532E-04   # chargino1+ decays
#          BR         NDA      ID1       ID2
     1.00000000E+00    2     1000022        24   # BR(~chi_1+ -> ~chi_10  W+)
#
#         PDG            Width
DECAY   1000037     8.38748408E+01   # chargino2+ decays
#          BR         NDA      ID1       ID2
     4.82040123E-02    2     1000006        -5   # BR(~chi_2+ -> ~t_1     bb)
     7.14920812E-01    2    -1000005         6   # BR(~chi_2+ -> ~b_1*    t )
     4.76518083E-07    2    -1000015        16   # BR(~chi_2+ -> ~tau_1+  nu_tau)
     7.08472209E-02    2     1000024        23   # BR(~chi_2+ -> ~chi_1+  Z )
     2.22075161E-02    2     1000022        24   # BR(~chi_2+ -> ~chi_10  W+)
     6.90114730E-02    2     1000023        24   # BR(~chi_2+ -> ~chi_20  W+)
     7.48084894E-02    2     1000024        25   # BR(~chi_2+ -> ~chi_1+  h )
#
#         PDG            Width
DECAY   1000022     0.00000000E+00   # neutralino1 decays
#
#         PDG            Width
DECAY   1000023     1.73875962E-04   # neutralino2 decays
#          BR         NDA      ID1       ID2
     5.56528005E-02    2     1000022        23   # BR(~chi_20 -> ~chi_10   Z )
     9.44347200E-01    2     1000022        25   # BR(~chi_20 -> ~chi_10   h )
#
#         PDG            Width
DECAY   1000025     8.40089497E+01   # neutralino3 decays
#          BR         NDA      ID1       ID2
     1.51479098E-02    2     1000022        23   # BR(~chi_30 -> ~chi_10   Z )
     5.36151350E-02    2     1000023        23   # BR(~chi_30 -> ~chi_20   Z )
     6.87852882E-02    2     1000024       -24   # BR(~chi_30 -> ~chi_1+   W-)
     6.87852882E-02    2    -1000024        24   # BR(~chi_30 -> ~chi_1-   W+)
     8.03472346E-03    2     1000022        25   # BR(~chi_30 -> ~chi_10   h )
     1.72844200E-02    2     1000023        25   # BR(~chi_30 -> ~chi_20   h )
     3.61136222E-01    2     1000006        -6   # BR(~chi_30 -> ~t_1      tb)
     3.61136222E-01    2    -1000006         6   # BR(~chi_30 -> ~t_1*     t )
     2.30370060E-02    2     1000005        -5   # BR(~chi_30 -> ~b_1      bb)
     2.30370060E-02    2    -1000005         5   # BR(~chi_30 -> ~b_1*     b )
     3.89224376E-07    2     1000015       -15   # BR(~chi_30 -> ~tau_1-   tau+)
     3.89224376E-07    2    -1000015        15   # BR(~chi_30 -> ~tau_1+   tau-)
#
#         PDG            Width
DECAY   1000035     8.32635658E+01   # neutralino4 decays
#          BR         NDA      ID1       ID2
     7.84136996E-03    2     1000022        23   # BR(~chi_40 -> ~chi_10   Z )
     1.71791720E-02    2     1000023        23   # BR(~chi_40 -> ~chi_20   Z )
     6.94464190E-02    2     1000024       -24   # BR(~chi_40 -> ~chi_1+   W-)
     6.94464190E-02    2    -1000024        24   # BR(~chi_40 -> ~chi_1-   W+)
     1.58892967E-02    2     1000022        25   # BR(~chi_40 -> ~chi_10   h )
     5.78432456E-02    2     1000023        25   # BR(~chi_40 -> ~chi_20   h )
     3.57868703E-01    2     1000006        -6   # BR(~chi_40 -> ~t_1      tb)
     3.57868703E-01    2    -1000006         6   # BR(~chi_40 -> ~t_1*     t )
     2.33077516E-02    2     1000005        -5   # BR(~chi_40 -> ~b_1      bb)
     2.33077516E-02    2    -1000005         5   # BR(~chi_40 -> ~b_1*     b )
     5.83956736E-07    2     1000015       -15   # BR(~chi_40 -> ~tau_1-   tau+)
     5.83956736E-07    2    -1000015        15   # BR(~chi_40 -> ~tau_1+   tau-)
#
#         PDG            Width
DECAY        25     4.69067133E-03   # h decays
#          BR         NDA      ID1       ID2
     6.87771518E-01    2           5        -5   # BR(h -> b       bb     )
     5.51756659E-02    2         -15        15   # BR(h -> tau+    tau-   )
     1.95327613E-04    2         -13        13   # BR(h -> mu+     mu-    )
     4.15247963E-04    2           3        -3   # BR(h -> s       sb     )
     1.79229132E-02    2           4        -4   # BR(h -> c       cb     )
     5.74072773E-02    2          21        21   # BR(h -> g       g      )
     1.93376119E-03    2          22        22   # BR(h -> gam     gam    )
     1.20839583E-03    2          22        23   # BR(h -> Z       gam    )
     1.58495703E-01    2          24       -24   # BR(h -> W+      W-     )
     1.94741902E-02    2          23        23   # BR(h -> Z       Z      )
#
#         PDG            Width
DECAY        35     1.39617870E+01   # H decays
#          BR         NDA      ID1       ID2
     7.46045290E-01    2           5        -5   # BR(H -> b       bb     )
     1.78112919E-01    2         -15        15   # BR(H -> tau+    tau-   )
     6.29764720E-04    2         -13        13   # BR(H -> mu+     mu-    )
     7.73350752E-04    2           3        -3   # BR(H -> s       sb     )
     2.18245971E-07    2           4        -4   # BR(H -> c       cb     )
     2.17714434E-02    2           6        -6   # BR(H -> t       tb     )
     2.82796785E-05    2          21        21   # BR(H -> g       g      )
     4.15770289E-08    2          22        22   # BR(H -> gam     gam    )
     8.38163883E-09    2          23        22   # BR(H -> Z       gam    )
     3.23198879E-05    2          24       -24   # BR(H -> W+      W-     )
     1.61400244E-05    2          23        23   # BR(H -> Z       Z      )
     8.37819584E-05    2          25        25   # BR(H -> h       h      )
     5.30348142E-23    2          36        36   # BR(H -> A       A      )
     5.18937906E-18    2          23        36   # BR(H -> Z       A      )
     1.80141675E-03    2     1000024  -1000024   # BR(H -> ~chi_1+ ~chi_1-)
     1.06541629E-04    2     1000022   1000022   # BR(H -> ~chi_10 ~chi_10)
     8.98570897E-04    2     1000023   1000023   # BR(H -> ~chi_20 ~chi_20)
     6.36826315E-04    2     1000022   1000023   # BR(H -> ~chi_10 ~chi_20)
     4.90571035E-02    2     1000006  -1000006   # BR(H -> ~t_1    ~t_1*  )
     5.98304303E-06    2     1000005  -1000005   # BR(H -> ~b_1    ~b_1*  )
#
#         PDG            Width
DECAY        36     1.32930350E+01   # A decays
#          BR         NDA      ID1       ID2
     7.83647790E-01    2           5        -5   # BR(A -> b       bb     )
     1.87068931E-01    2         -15        15   # BR(A -> tau+    tau-   )
     6.61430112E-04    2         -13        13   # BR(A -> mu+     mu-    )
     8.12373531E-04    2           3        -3   # BR(A -> s       sb     )
     2.29240295E-07    2           4        -4   # BR(A -> c       cb     )
     2.28556048E-02    2           6        -6   # BR(A -> t       tb     )
     6.73075725E-05    2          21        21   # BR(A -> g       g      )
     5.35442419E-08    2          22        22   # BR(A -> gam     gam    )
     6.63344575E-08    2          23        22   # BR(A -> Z       gam    )
     3.38189030E-05    2          23        25   # BR(A -> Z       h      )
     2.62780639E-03    2     1000024  -1000024   # BR(A -> ~chi_1+ ~chi_1-)
     1.22420533E-04    2     1000022   1000022   # BR(A -> ~chi_10 ~chi_10)
     1.31064644E-03    2     1000023   1000023   # BR(A -> ~chi_20 ~chi_20)
     7.91521910E-04    2     1000022   1000023   # BR(A -> ~chi_10 ~chi_20)
#
#         PDG            Width
DECAY        37     1.01840657E+01   # H+ decays
#          BR         NDA      ID1       ID2
     1.10314345E-03    2           4        -5   # BR(H+ -> c       bb     )
     2.44251720E-01    2         -15        16   # BR(H+ -> tau+    nu_tau )
     8.63614507E-04    2         -13        14   # BR(H+ -> mu+     nu_mu  )
     7.06010705E-06    2           2        -5   # BR(H+ -> u       bb     )
     5.07527939E-05    2           2        -3   # BR(H+ -> u       sb     )
     1.04414817E-03    2           4        -3   # BR(H+ -> c       sb     )
     7.17752814E-01    2           6        -5   # BR(H+ -> t       bb     )
     4.42112605E-05    2          24        25   # BR(H+ -> W+      h      )
     8.46558722E-14    2          24        36   # BR(H+ -> W+      A      )
     1.90292806E-03    2     1000024   1000022   # BR(H+ -> ~chi_1+ ~chi_10)
     2.42225829E-09    2     1000024   1000023   # BR(H+ -> ~chi_1+ ~chi_20)
     3.29796052E-02    2     1000006  -1000005   # BR(H+ -> ~t_1    ~b_1*  )
