#
#                              ======================
#                              | THE SUSYHIT OUTPUT |
#                              ======================
#
#
#              ------------------------------------------------------
#              |     This is the output of the SUSY-HIT package     |
#              |  created by A.Djouadi, M.Muehlleitner and M.Spira. |
#              |  In case of problems with SUSY-HIT email to        |
#              |           margarete.muehlleitner@kit.edu           |
#              |           michael.spira@psi.ch                     |
#              |           abdelhak.djouadi@cern.ch                 |
#              ------------------------------------------------------
#
#              ------------------------------------------------------
#              |  SUSY Les Houches Accord - MSSM Spectrum + Decays  |
#              |              based on the decay programs           |
#              |                                                    |
#              |                     SDECAY 1.5                     |
#              |                                                    |
#              |  Authors: M.Muhlleitner, A.Djouadi and Y.Mambrini  |
#              |  Ref.:    Comput.Phys.Commun.168(2005)46           |
#              |           [hep-ph/0311167]                         |
#              |                                                    |
#              |                     HDECAY 3.4                     |
#              |                                                    |
#              |  By: A.Djouadi,J.Kalinowski,M.Muhlleitner,M.Spira  |
#              |  Ref.:    Comput.Phys.Commun.108(1998)56           |
#              |           [hep-ph/9704448]                         |
#              |                                                    |
#              |                                                    |
#              |  If not stated otherwise all DRbar couplings and   |
#              |  soft SUSY breaking masses are given at the scale  |
#              |  Q=  0.13079370E+04
#              |                                                    |
#              ------------------------------------------------------
#
#
BLOCK DCINFO  # Decay Program information
     1   SDECAY/HDECAY # decay calculator
     2   1.5  /3.4    # version number
#
BLOCK SPINFO  # Spectrum calculator information
     1    SOFTSUSY    # spectrum calculator                
     2    3.7.3       # version number                     
#
BLOCK MODSEL  # Model selection
     1     0   #  nonUniversal                                     
#
BLOCK SMINPUTS  # Standard Model inputs
         1     1.27934000E+02   # alpha_em^-1(M_Z)^MSbar
         2     1.16639000E-05   # G_F [GeV^-2]
         3     1.17200000E-01   # alpha_S(M_Z)^MSbar
         4     9.11870000E+01   # M_Z pole mass
         5     4.19000000E+00   # mb(mb)^MSbar
         6     1.72500000E+02   # mt pole mass
         7     1.77690000E+00   # mtau pole mass
#
BLOCK MINPAR  # Input parameters - minimal models
         3     2.00000000E+01   # tanb                
#
BLOCK EXTPAR  # Input parameters - non-minimal models
         0    -1.00000000E+00   # Set                 
         1     2.59990000E+02   # M_1(MX)             
         2     2.00000000E+03   # M_2(MX)             
         3     1.80000000E+03   # M_3(MX)             
        11     2.62959179E+03   # At(MX)              
        12     0.00000000E+00   # Ab(MX)              
        13     0.00000000E+00   # Atau(MX)            
        23    -2.89900000E+02   # mu(MX)              
        25     2.00000000E+01   # tan                 
        26     4.00000000E+03   # mA(pole)            
        31     4.00000000E+03   # meL(MX)             
        32     4.00000000E+03   # mmuL(MX)            
        33     4.00000000E+03   # mtauL(MX)           
        34     4.00000000E+03   # meR(MX)             
        35     4.00000000E+03   # mmuR(MX)            
        36     4.00000000E+03   # mtauR(MX)           
        41     4.00000000E+03   # mqL1(MX)            
        42     4.00000000E+03   # mqL2(MX)            
        43     2.26485961E+03   # mqL3(MX)            
        44     4.00000000E+03   # muR(MX)             
        45     4.00000000E+03   # mcR(MX)             
        46     7.59990000E+02   # mtR(MX)             
        47     4.00000000E+03   # mdR(MX)             
        48     4.00000000E+03   # msR(MX)             
        49     4.00000000E+03   # mbR(MX)             
#
BLOCK MASS  # Mass Spectrum
# PDG code           mass       particle
        24     8.04185617E+01   # W+
        25     1.25453582E+02   # h
        35     4.00000787E+03   # H
        36     3.99999699E+03   # A
        37     4.00103023E+03   # H+
         5     4.81337004E+00   # b-quark pole mass calculated from mb(mb)_Msbar
   1000001     4.02611934E+03   # ~d_L
   2000001     4.02277336E+03   # ~d_R
   1000002     4.02547038E+03   # ~u_L
   2000002     4.02330796E+03   # ~u_R
   1000003     4.02611934E+03   # ~s_L
   2000003     4.02277336E+03   # ~s_R
   1000004     4.02547038E+03   # ~c_L
   2000004     4.02330796E+03   # ~c_R
   1000005     2.29210382E+03   # ~b_1
   2000005     4.02582547E+03   # ~b_2
   1000006     8.03741236E+02   # ~t_1
   2000006     2.30261983E+03   # ~t_2
   1000011     4.00447841E+03   # ~e_L
   2000011     4.00368976E+03   # ~e_R
   1000012     4.00336806E+03   # ~nu_eL
   1000013     4.00447841E+03   # ~mu_L
   2000013     4.00368976E+03   # ~mu_R
   1000014     4.00336806E+03   # ~nu_muL
   1000015     4.00489329E+03   # ~tau_1
   2000015     4.00753641E+03   # ~tau_2
   1000016     4.00479067E+03   # ~nu_tauL
   1000021     1.99473133E+03   # ~g
   1000022     2.46093691E+02   # ~chi_10
   1000023    -3.00923987E+02   # ~chi_20
   1000025     3.15200909E+02   # ~chi_30
   1000035     2.06674551E+03   # ~chi_40
   1000024     2.98007316E+02   # ~chi_1+
   1000037     2.06691266E+03   # ~chi_2+
#
BLOCK NMIX  # Neutralino Mixing Matrix
  1  1     8.37854603E-01   # N_11
  1  2    -1.43296667E-02   # N_12
  1  3    -4.21515571E-01   # N_13
  1  4    -3.46581806E-01   # N_14
  2  1    -5.92784411E-02   # N_21
  2  2     2.51100958E-02   # N_22
  2  3    -7.01921068E-01   # N_23
  2  4     7.09339386E-01   # N_24
  3  1     5.42664501E-01   # N_31
  3  2     2.66808735E-02   # N_32
  3  3     5.74123229E-01   # N_33
  3  4     6.12524195E-01   # N_34
  4  1    -9.84860862E-04   # N_41
  4  2     9.99225838E-01   # N_42
  4  3    -3.73587380E-03   # N_43
  4  4    -3.91509715E-02   # N_44
#
BLOCK UMIX  # Chargino Mixing Matrix U
  1  1     5.28861340E-03   # U_11
  1  2     9.99986015E-01   # U_12
  2  1    -9.99986015E-01   # U_21
  2  2     5.28861340E-03   # U_22
#
BLOCK VMIX  # Chargino Mixing Matrix V
  1  1     5.53794651E-02   # V_11
  1  2    -9.98465380E-01   # V_12
  2  1    -9.98465380E-01   # V_21
  2  2    -5.53794651E-02   # V_22
#
BLOCK STOPMIX  # Stop Mixing Matrix
  1  1    -8.56568923E-02   # cos(theta_t)
  1  2     9.96324694E-01   # sin(theta_t)
  2  1    -9.96324694E-01   # -sin(theta_t)
  2  2    -8.56568923E-02   # cos(theta_t)
#
BLOCK SBOTMIX  # Sbottom Mixing Matrix
  1  1     9.99999152E-01   # cos(theta_b)
  1  2    -1.30230537E-03   # sin(theta_b)
  2  1     1.30230537E-03   # -sin(theta_b)
  2  2     9.99999152E-01   # cos(theta_b)
#
BLOCK STAUMIX  # Stau Mixing Matrix
  1  1    -7.05711503E-01   # cos(theta_tau)
  1  2     7.08499312E-01   # sin(theta_tau)
  2  1    -7.08499312E-01   # -sin(theta_tau)
  2  2    -7.05711503E-01   # cos(theta_tau)
#
BLOCK ALPHA  # Higgs mixing
          -5.00277838E-02   # Mixing angle in the neutral Higgs boson sector
#
BLOCK HMIX Q=  1.30793699E+03  # DRbar Higgs Parameters
         1    -2.89900000E+02   # mu(Q)MSSM           
         2     2.00000000E+01   # tan                 
         3     2.43651688E+02   # higgs               
         4     1.61393533E+07   # mA^2(Q)MSSM         
#
BLOCK GAUGE Q=  1.30793699E+03  # The gauge couplings
     1     3.62089621E-01   # gprime(Q) DRbar
     2     6.35744677E-01   # g(Q) DRbar
     3     1.02926223E+00   # g3(Q) DRbar
#
BLOCK AU Q=  1.30793699E+03  # The trilinear couplings
  1  1     0.00000000E+00   # A_u(Q) DRbar
  2  2     1.37104948E-06   # A_c(Q) DRbar
  3  3     2.62959179E+03   # A_t(Q) DRbar
#
BLOCK AD Q=  1.30793699E+03  # The trilinear couplings
  1  1     5.04026166E-07   # A_d(Q) DRbar
  2  2     5.04073255E-07   # A_s(Q) DRbar
  3  3     9.02169330E-07   # A_b(Q) DRbar
#
BLOCK AE Q=  1.30793699E+03  # The trilinear couplings
  1  1     0.00000000E+00   # A_e(Q) DRbar
  2  2     1.10291528E-07   # A_mu(Q) DRbar
  3  3     1.11424921E-07   # A_tau(Q) DRbar
#
BLOCK Yu Q=  1.30793699E+03  # The Yukawa couplings
  1  1     0.00000000E+00   # y_u(Q) DRbar
  2  2     0.00000000E+00   # y_c(Q) DRbar
  3  3     8.66297905E-01   # y_t(Q) DRbar
#
BLOCK Yd Q=  1.30793699E+03  # The Yukawa couplings
  1  1     0.00000000E+00   # y_d(Q) DRbar
  2  2     0.00000000E+00   # y_s(Q) DRbar
  3  3     2.83656917E-01   # y_b(Q) DRbar
#
BLOCK Ye Q=  1.30793699E+03  # The Yukawa couplings
  1  1     0.00000000E+00   # y_e(Q) DRbar
  2  2     0.00000000E+00   # y_mu(Q) DRbar
  3  3     2.03572902E-01   # y_tau(Q) DRbar
#
BLOCK MSOFT Q=  1.30793699E+03  # The soft SUSY breaking masses at the scale Q
         1     2.59990000E+02   # M_1(Q)              
         2     2.00000000E+03   # M_2(Q)              
         3     1.80000000E+03   # M_3(Q)              
        21     1.58055050E+07   # M^2_Hd              
        22    -8.59618946E+04   # M^2_Hu              
        31     4.00000000E+03   # M_eL                
        32     4.00000000E+03   # M_muL               
        33     4.00000000E+03   # M_tauL              
        34     4.00000000E+03   # M_eR                
        35     4.00000000E+03   # M_muR               
        36     4.00000000E+03   # M_tauR              
        41     4.00000000E+03   # M_q1L               
        42     4.00000000E+03   # M_q2L               
        43     2.26485961E+03   # M_q3L               
        44     4.00000000E+03   # M_uR                
        45     4.00000000E+03   # M_cR                
        46     7.59989995E+02   # M_tR                
        47     4.00000000E+03   # M_dR                
        48     4.00000000E+03   # M_sR                
        49     4.00000000E+03   # M_bR                
#
#
#
#                             =================
#                             |The decay table|
#                             =================
#
# - The QCD corrections to the decays gluino -> squark  + quark
#                                     squark -> gaugino + quark_prime
#                                     squark -> squark_prime + Higgs
#                                     squark -> gluino  + quark
#   are included.
#
# - The multi-body decays for the inos, stops and sbottoms are included.
#
# - The loop induced decays for the gluino, neutralinos and stops
#   are included.
#
# - The SUSY decays of the top quark are included.
#
#
#         PDG            Width
DECAY         6     1.40214511E+00   # top decays
#          BR         NDA      ID1       ID2
     1.00000000E+00    2           5        24   # BR(t ->  b    W+)
#
#         PDG            Width
DECAY   1000021     2.99194663E+01   # gluino decays
#          BR         NDA      ID1       ID2
     5.00000000E-01    2     1000006        -6   # BR(~g -> ~t_1  tb)
     5.00000000E-01    2    -1000006         6   # BR(~g -> ~t_1* t )
#
#         PDG            Width
DECAY   1000006     1.80728762E+01   # stop1 decays
#          BR         NDA      ID1       ID2
     9.08226660E-02    2     1000022         6   # BR(~t_1 -> ~chi_10 t )
     2.13720839E-01    2     1000023         6   # BR(~t_1 -> ~chi_20 t )
     2.10974506E-01    2     1000025         6   # BR(~t_1 -> ~chi_30 t )
     4.84481990E-01    2     1000024         5   # BR(~t_1 -> ~chi_1+ b )
#
#         PDG            Width
DECAY   2000006     7.67993135E+01   # stop2 decays
#          BR         NDA      ID1       ID2
     5.92963128E-02    2     1000022         6   # BR(~t_2 -> ~chi_10 t )
     2.11165593E-01    2     1000023         6   # BR(~t_2 -> ~chi_20 t )
     1.50115429E-01    2     1000025         6   # BR(~t_2 -> ~chi_30 t )
     3.39166358E-03    2     1000035         6   # BR(~t_2 -> ~chi_40 t )
     4.78846680E-02    2     1000024         5   # BR(~t_2 -> ~chi_1+ b )
     8.94307641E-03    2     1000037         5   # BR(~t_2 -> ~chi_2+ b )
     1.34531161E-01    2     1000021         6   # BR(~t_2 -> ~g      t )
     2.39144347E-01    2     1000006        25   # BR(~t_2 -> ~t_1    h )
     1.45527749E-01    2     1000006        23   # BR(~t_2 -> ~t_1    Z )
#
#         PDG            Width
DECAY   1000005     7.51052818E+01   # sbottom1 decays
#          BR         NDA      ID1       ID2
     1.11386311E-02    2     1000022         5   # BR(~b_1 -> ~chi_10 b )
     2.11731183E-02    2     1000023         5   # BR(~b_1 -> ~chi_20 b )
     1.46467350E-02    2     1000025         5   # BR(~b_1 -> ~chi_30 b )
     4.31126411E-03    2     1000035         5   # BR(~b_1 -> ~chi_40 b )
     4.20820399E-01    2    -1000024         6   # BR(~b_1 -> ~chi_1- t )
     6.17785665E-03    2    -1000037         6   # BR(~b_1 -> ~chi_2- t )
     1.38135089E-01    2     1000021         5   # BR(~b_1 -> ~g      b )
     3.83596907E-01    2     1000006       -24   # BR(~b_1 -> ~t_1    W-)
#
#         PDG            Width
DECAY   2000005     1.64630382E+02   # sbottom2 decays
#          BR         NDA      ID1       ID2
     1.59968074E-02    2     1000022         5   # BR(~b_2 -> ~chi_10 b )
     1.80331018E-02    2     1000023         5   # BR(~b_2 -> ~chi_20 b )
     1.60111804E-02    2     1000025         5   # BR(~b_2 -> ~chi_30 b )
     6.65426280E-07    2     1000035         5   # BR(~b_2 -> ~chi_40 b )
     3.64007682E-02    2    -1000024         6   # BR(~b_2 -> ~chi_1- t )
     1.31562166E-06    2    -1000037         6   # BR(~b_2 -> ~chi_2- t )
     9.13273723E-01    2     1000021         5   # BR(~b_2 -> ~g      b )
     6.12988032E-05    2     1000005        25   # BR(~b_2 -> ~b_1    h )
     7.95133278E-05    2     1000005        23   # BR(~b_2 -> ~b_1    Z )
     3.20618438E-06    2     1000006       -24   # BR(~b_2 -> ~t_1    W-)
     1.38419411E-04    2     2000006       -24   # BR(~b_2 -> ~t_2    W-)
#
#         PDG            Width
DECAY   1000002     1.76457733E+02   # sup_L decays
#          BR         NDA      ID1       ID2
     1.83772584E-03    2     1000022         2   # BR(~u_L -> ~chi_10 u)
     1.67830182E-05    2     1000023         2   # BR(~u_L -> ~chi_20 u)
     1.46913027E-03    2     1000025         2   # BR(~u_L -> ~chi_30 u)
     4.81025892E-02    2     1000035         2   # BR(~u_L -> ~chi_40 u)
     5.36300911E-04    2     1000024         1   # BR(~u_L -> ~chi_1+ d)
     9.60837144E-02    2     1000037         1   # BR(~u_L -> ~chi_2+ d)
     8.51953756E-01    2     1000021         2   # BR(~u_L -> ~g      u)
#
#         PDG            Width
DECAY   2000002     1.59057851E+02   # sup_R decays
#          BR         NDA      ID1       ID2
     3.93771308E-02    2     1000022         2   # BR(~u_R -> ~chi_10 u)
     1.96413801E-04    2     1000023         2   # BR(~u_R -> ~chi_20 u)
     1.64432984E-02    2     1000025         2   # BR(~u_R -> ~chi_30 u)
     2.98686781E-08    2     1000035         2   # BR(~u_R -> ~chi_40 u)
     9.43983127E-01    2     1000021         2   # BR(~u_R -> ~g      u)
#
#         PDG            Width
DECAY   1000001     1.76477015E+02   # sdown_L decays
#          BR         NDA      ID1       ID2
     2.63770198E-03    2     1000022         1   # BR(~d_L -> ~chi_10 d)
     1.15601549E-04    2     1000023         1   # BR(~d_L -> ~chi_20 d)
     5.09001169E-04    2     1000025         1   # BR(~d_L -> ~chi_30 d)
     4.81521993E-02    2     1000035         1   # BR(~d_L -> ~chi_40 d)
     4.89125170E-06    2    -1000024         2   # BR(~d_L -> ~chi_1- u)
     9.64038208E-02    2    -1000037         2   # BR(~d_L -> ~chi_2- u)
     8.52176784E-01    2     1000021         1   # BR(~d_L -> ~g      d)
#
#         PDG            Width
DECAY   2000001     1.52329140E+02   # sdown_R decays
#          BR         NDA      ID1       ID2
     1.02777148E-02    2     1000022         1   # BR(~d_R -> ~chi_10 d)
     5.12653692E-05    2     1000023         1   # BR(~d_R -> ~chi_20 d)
     4.29181413E-03    2     1000025         1   # BR(~d_R -> ~chi_30 d)
     7.79449150E-09    2     1000035         1   # BR(~d_R -> ~chi_40 d)
     9.85379198E-01    2     1000021         1   # BR(~d_R -> ~g      d)
#
#         PDG            Width
DECAY   1000004     1.76457733E+02   # scharm_L decays
#          BR         NDA      ID1       ID2
     1.83772584E-03    2     1000022         4   # BR(~c_L -> ~chi_10 c)
     1.67830182E-05    2     1000023         4   # BR(~c_L -> ~chi_20 c)
     1.46913027E-03    2     1000025         4   # BR(~c_L -> ~chi_30 c)
     4.81025892E-02    2     1000035         4   # BR(~c_L -> ~chi_40 c)
     5.36300911E-04    2     1000024         3   # BR(~c_L -> ~chi_1+ s)
     9.60837144E-02    2     1000037         3   # BR(~c_L -> ~chi_2+ s)
     8.51953756E-01    2     1000021         4   # BR(~c_L -> ~g      c)
#
#         PDG            Width
DECAY   2000004     1.59057851E+02   # scharm_R decays
#          BR         NDA      ID1       ID2
     3.93771308E-02    2     1000022         4   # BR(~c_R -> ~chi_10 c)
     1.96413801E-04    2     1000023         4   # BR(~c_R -> ~chi_20 c)
     1.64432984E-02    2     1000025         4   # BR(~c_R -> ~chi_30 c)
     2.98686781E-08    2     1000035         4   # BR(~c_R -> ~chi_40 c)
     9.43983127E-01    2     1000021         4   # BR(~c_R -> ~g      c)
#
#         PDG            Width
DECAY   1000003     1.76477015E+02   # sstrange_L decays
#          BR         NDA      ID1       ID2
     2.63770198E-03    2     1000022         3   # BR(~s_L -> ~chi_10 s)
     1.15601549E-04    2     1000023         3   # BR(~s_L -> ~chi_20 s)
     5.09001169E-04    2     1000025         3   # BR(~s_L -> ~chi_30 s)
     4.81521993E-02    2     1000035         3   # BR(~s_L -> ~chi_40 s)
     4.89125170E-06    2    -1000024         4   # BR(~s_L -> ~chi_1- c)
     9.64038208E-02    2    -1000037         4   # BR(~s_L -> ~chi_2- c)
     8.52176784E-01    2     1000021         3   # BR(~s_L -> ~g      s)
#
#         PDG            Width
DECAY   2000003     1.52329140E+02   # sstrange_R decays
#          BR         NDA      ID1       ID2
     1.02777148E-02    2     1000022         3   # BR(~s_R -> ~chi_10 s)
     5.12653692E-05    2     1000023         3   # BR(~s_R -> ~chi_20 s)
     4.29181413E-03    2     1000025         3   # BR(~s_R -> ~chi_30 s)
     7.79449150E-09    2     1000035         3   # BR(~s_R -> ~chi_40 s)
     9.85379198E-01    2     1000021         3   # BR(~s_R -> ~g      s)
#
#         PDG            Width
DECAY   1000011     3.11872389E+01   # selectron_L decays
#          BR         NDA      ID1       ID2
     1.09766543E-01    2     1000022        11   # BR(~e_L -> ~chi_10 e-)
     3.82080097E-05    2     1000023        11   # BR(~e_L -> ~chi_20 e-)
     5.74758408E-02    2     1000025        11   # BR(~e_L -> ~chi_30 e-)
     2.77096299E-01    2     1000035        11   # BR(~e_L -> ~chi_40 e-)
     2.85577881E-05    2    -1000024        12   # BR(~e_L -> ~chi_1- nu_e)
     5.55594552E-01    2    -1000037        12   # BR(~e_L -> ~chi_2- nu_e)
#
#         PDG            Width
DECAY   2000011     2.06984532E+01   # selectron_R decays
#          BR         NDA      ID1       ID2
     7.03014458E-01    2     1000022        11   # BR(~e_R -> ~chi_10 e-)
     3.50580338E-03    2     1000023        11   # BR(~e_R -> ~chi_20 e-)
     2.93479212E-01    2     1000025        11   # BR(~e_R -> ~chi_30 e-)
     5.26619351E-07    2     1000035        11   # BR(~e_R -> ~chi_40 e-)
#
#         PDG            Width
DECAY   1000013     3.11872389E+01   # smuon_L decays
#          BR         NDA      ID1       ID2
     1.09766543E-01    2     1000022        13   # BR(~mu_L -> ~chi_10 mu-)
     3.82080097E-05    2     1000023        13   # BR(~mu_L -> ~chi_20 mu-)
     5.74758408E-02    2     1000025        13   # BR(~mu_L -> ~chi_30 mu-)
     2.77096299E-01    2     1000035        13   # BR(~mu_L -> ~chi_40 mu-)
     2.85577881E-05    2    -1000024        14   # BR(~mu_L -> ~chi_1- nu_mu)
     5.55594552E-01    2    -1000037        14   # BR(~mu_L -> ~chi_2- nu_mu)
#
#         PDG            Width
DECAY   2000013     2.06984532E+01   # smuon_R decays
#          BR         NDA      ID1       ID2
     7.03014458E-01    2     1000022        13   # BR(~mu_R -> ~chi_10 mu-)
     3.50580338E-03    2     1000023        13   # BR(~mu_R -> ~chi_20 mu-)
     2.93479212E-01    2     1000025        13   # BR(~mu_R -> ~chi_30 mu-)
     5.26619351E-07    2     1000035        13   # BR(~mu_R -> ~chi_40 mu-)
#
#         PDG            Width
DECAY   1000015     3.08768566E+01   # stau_1 decays
#          BR         NDA      ID1       ID2
     3.59262883E-01    2     1000022        15   # BR(~tau_1 -> ~chi_10  tau-)
     4.36419605E-02    2     1000023        15   # BR(~tau_1 -> ~chi_20  tau-)
     1.24693822E-01    2     1000025        15   # BR(~tau_1 -> ~chi_30  tau-)
     1.38950562E-01    2     1000035        15   # BR(~tau_1 -> ~chi_40  tau-)
     5.48460109E-02    2    -1000024        16   # BR(~tau_1 -> ~chi_1-  nu_tau)
     2.78604762E-01    2    -1000037        16   # BR(~tau_1 -> ~chi_2-  nu_tau)
#
#         PDG            Width
DECAY   2000015     3.08521562E+01   # stau_2 decays
#          BR         NDA      ID1       ID2
     2.61134107E-01    2     1000022        15   # BR(~tau_2 -> ~chi_10  tau-)
     6.30293863E-02    2     1000023        15   # BR(~tau_2 -> ~chi_20  tau-)
     2.00077495E-01    2     1000025        15   # BR(~tau_2 -> ~chi_30  tau-)
     1.41344685E-01    2     1000035        15   # BR(~tau_2 -> ~chi_40  tau-)
     5.10111043E-02    2    -1000024        16   # BR(~tau_2 -> ~chi_1-  nu_tau)
     2.83403222E-01    2    -1000037        16   # BR(~tau_2 -> ~chi_2-  nu_tau)
#
#         PDG            Width
DECAY   1000012     3.11981790E+01   # snu_eL decays
#          BR         NDA      ID1       ID2
     1.23701793E-01    2     1000022        12   # BR(~nu_eL -> ~chi_10 nu_e)
     1.76791556E-03    2     1000023        12   # BR(~nu_eL -> ~chi_20 nu_e)
     4.06325391E-02    2     1000025        12   # BR(~nu_eL -> ~chi_30 nu_e)
     2.77433040E-01    2     1000035        12   # BR(~nu_eL -> ~chi_40 nu_e)
     3.12941385E-03    2     1000024        11   # BR(~nu_eL -> ~chi_1+ e-)
     5.53335299E-01    2     1000037        11   # BR(~nu_eL -> ~chi_2+ e-)
#
#         PDG            Width
DECAY   1000014     3.11981790E+01   # snu_muL decays
#          BR         NDA      ID1       ID2
     1.23701793E-01    2     1000022        14   # BR(~nu_muL -> ~chi_10 nu_mu)
     1.76791556E-03    2     1000023        14   # BR(~nu_muL -> ~chi_20 nu_mu)
     4.06325391E-02    2     1000025        14   # BR(~nu_muL -> ~chi_30 nu_mu)
     2.77433040E-01    2     1000035        14   # BR(~nu_muL -> ~chi_40 nu_mu)
     3.12941385E-03    2     1000024        13   # BR(~nu_muL -> ~chi_1+ mu-)
     5.53335299E-01    2     1000037        13   # BR(~nu_muL -> ~chi_2+ mu-)
#
#         PDG            Width
DECAY   1000016     3.44879980E+01   # snu_tauL decays
#          BR         NDA      ID1       ID2
     1.11942215E-01    2     1000022        16   # BR(~nu_tauL -> ~chi_10 nu_tau)
     1.59985486E-03    2     1000023        16   # BR(~nu_tauL -> ~chi_20 nu_tau)
     3.67699781E-02    2     1000025        16   # BR(~nu_tauL -> ~chi_30 nu_tau)
     2.51187427E-01    2     1000035        16   # BR(~nu_tauL -> ~chi_40 nu_tau)
     9.75115681E-02    2     1000024        15   # BR(~nu_tauL -> ~chi_1+ tau-)
     5.00988957E-01    2     1000037        15   # BR(~nu_tauL -> ~chi_2+ tau-)
#
#         PDG            Width
DECAY   1000024     1.38688393E-04   # chargino1+ decays
#           BR         NDA      ID1       ID2       ID3
     3.33541136E-01    3     1000022         2        -1   # BR(~chi_1+ -> ~chi_10 u    db)
     3.33541136E-01    3     1000022         4        -3   # BR(~chi_1+ -> ~chi_10 c    sb)
     1.11181726E-01    3     1000022       -11        12   # BR(~chi_1+ -> ~chi_10 e+   nu_e)
     1.11181726E-01    3     1000022       -13        14   # BR(~chi_1+ -> ~chi_10 mu+  nu_mu)
     1.10554275E-01    3     1000022       -15        16   # BR(~chi_1+ -> ~chi_10 tau+ nu_tau)
#
#         PDG            Width
DECAY   1000037     1.65739752E+01   # chargino2+ decays
#          BR         NDA      ID1       ID2
     3.13633878E-02    2     1000006        -5   # BR(~chi_2+ -> ~t_1     bb)
     2.46998394E-01    2     1000024        23   # BR(~chi_2+ -> ~chi_1+  Z )
     5.17739199E-02    2     1000022        24   # BR(~chi_2+ -> ~chi_10  W+)
     2.41112143E-01    2     1000023        24   # BR(~chi_2+ -> ~chi_20  W+)
     1.87875076E-01    2     1000025        24   # BR(~chi_2+ -> ~chi_30  W+)
     2.40877079E-01    2     1000024        25   # BR(~chi_2+ -> ~chi_1+  h )
#
#         PDG            Width
DECAY   1000022     0.00000000E+00   # neutralino1 decays
#
#         PDG            Width
DECAY   1000023     1.38770530E-04   # neutralino2 decays
#          BR         NDA      ID1       ID2
     3.60121523E-04    2     1000022        22   # BR(~chi_20 -> ~chi_10 gam)
#           BR         NDA      ID1       ID2       ID3
     1.17900806E-01    3     1000022        -2         2   # BR(~chi_20 -> ~chi_10 ub      u)
     1.52962112E-01    3     1000022        -1         1   # BR(~chi_20 -> ~chi_10 db      d)
     1.17900806E-01    3     1000022        -4         4   # BR(~chi_20 -> ~chi_10 cb      c)
     1.52962112E-01    3     1000022        -3         3   # BR(~chi_20 -> ~chi_10 sb      s)
     1.42444600E-01    3     1000022        -5         5   # BR(~chi_20 -> ~chi_10 bb      b)
     3.50909385E-02    3     1000022       -11        11   # BR(~chi_20 -> ~chi_10 e+      e-)
     3.50909385E-02    3     1000022       -13        13   # BR(~chi_20 -> ~chi_10 mu+     mu-)
     3.47992048E-02    3     1000022       -15        15   # BR(~chi_20 -> ~chi_10 tau+    tau-)
     7.01617222E-02    3     1000022       -12        12   # BR(~chi_20 -> ~chi_10 nu_eb   nu_e)
     7.01617222E-02    3     1000022       -14        14   # BR(~chi_20 -> ~chi_10 nu_mub  nu_mu)
     7.01617204E-02    3     1000022       -16        16   # BR(~chi_20 -> ~chi_10 nu_taub nu_tau)
     5.88705419E-07    3     1000024        -2         1   # BR(~chi_20 -> ~chi_1+ ub      d)
     5.88705419E-07    3    -1000024        -1         2   # BR(~chi_20 -> ~chi_1- db      u)
     5.88705419E-07    3     1000024        -4         3   # BR(~chi_20 -> ~chi_1+ cb      s)
     5.88705419E-07    3    -1000024        -3         4   # BR(~chi_20 -> ~chi_1- sb      c)
     1.96235361E-07    3     1000024       -12        11   # BR(~chi_20 -> ~chi_1+ nu_eb   e-)
     1.96235361E-07    3    -1000024        12       -11   # BR(~chi_20 -> ~chi_1- nu_e    e+)
     1.96235361E-07    3     1000024       -14        13   # BR(~chi_20 -> ~chi_1+ nu_mub  mu-)
     1.96235361E-07    3    -1000024        14       -13   # BR(~chi_20 -> ~chi_1- nu_mu   mu+)
     2.88095670E-08    3     1000024       -16        15   # BR(~chi_20 -> ~chi_1+ nu_taub tau-)
     2.88095670E-08    3    -1000024        16       -15   # BR(~chi_20 -> ~chi_1- nu_tau  tau+)
#
#         PDG            Width
DECAY   1000025     9.65292631E-06   # neutralino3 decays
#          BR         NDA      ID1       ID2
     2.90544711E-02    2     1000022        22   # BR(~chi_30 -> ~chi_10 gam)
     3.42303061E-02    2     1000023        22   # BR(~chi_30 -> ~chi_20 gam)
#           BR         NDA      ID1       ID2       ID3
     7.72105300E-02    3     1000022        -2         2   # BR(~chi_30 -> ~chi_10 ub      u)
     9.98177036E-02    3     1000022        -1         1   # BR(~chi_30 -> ~chi_10 db      d)
     7.72105300E-02    3     1000022        -4         4   # BR(~chi_30 -> ~chi_10 cb      c)
     9.98177036E-02    3     1000022        -3         3   # BR(~chi_30 -> ~chi_10 sb      s)
     9.59651420E-02    3     1000022        -5         5   # BR(~chi_30 -> ~chi_10 bb      b)
     2.26186696E-02    3     1000022       -11        11   # BR(~chi_30 -> ~chi_10 e+      e-)
     2.26186696E-02    3     1000022       -13        13   # BR(~chi_30 -> ~chi_10 mu+     mu-)
     2.25414981E-02    3     1000022       -15        15   # BR(~chi_30 -> ~chi_10 tau+    tau-)
     4.59180777E-02    3     1000022       -12        12   # BR(~chi_30 -> ~chi_10 nu_eb   nu_e)
     4.59180777E-02    3     1000022       -14        14   # BR(~chi_30 -> ~chi_10 nu_mub  nu_mu)
     4.59179981E-02    3     1000022       -16        16   # BR(~chi_30 -> ~chi_10 nu_taub nu_tau)
     4.77481054E-03    3     1000023        -2         2   # BR(~chi_30 -> ~chi_20 ub      u)
     6.19499805E-03    3     1000023        -1         1   # BR(~chi_30 -> ~chi_20 db      d)
     4.77481054E-03    3     1000023        -4         4   # BR(~chi_30 -> ~chi_20 cb      c)
     6.19499805E-03    3     1000023        -3         3   # BR(~chi_30 -> ~chi_20 sb      s)
     1.83296411E-03    3     1000023        -5         5   # BR(~chi_30 -> ~chi_20 bb      b)
     1.42134949E-03    3     1000023       -11        11   # BR(~chi_30 -> ~chi_20 e+      e-)
     1.42134949E-03    3     1000023       -13        13   # BR(~chi_30 -> ~chi_20 mu+     mu-)
     1.30010279E-03    3     1000023       -15        15   # BR(~chi_30 -> ~chi_20 tau+    tau-)
     2.84137213E-03    3     1000023       -12        12   # BR(~chi_30 -> ~chi_20 nu_eb   nu_e)
     2.84137213E-03    3     1000023       -14        14   # BR(~chi_30 -> ~chi_20 nu_mub  nu_mu)
     2.84137216E-03    3     1000023       -16        16   # BR(~chi_30 -> ~chi_20 nu_taub nu_tau)
     4.10199673E-02    3     1000024        -2         1   # BR(~chi_30 -> ~chi_1+ ub      d)
     4.10199673E-02    3    -1000024        -1         2   # BR(~chi_30 -> ~chi_1- db      u)
     4.10199673E-02    3     1000024        -4         3   # BR(~chi_30 -> ~chi_1+ cb      s)
     4.10199673E-02    3    -1000024        -3         4   # BR(~chi_30 -> ~chi_1- sb      c)
     1.36731726E-02    3     1000024       -12        11   # BR(~chi_30 -> ~chi_1+ nu_eb   e-)
     1.36731726E-02    3    -1000024        12       -11   # BR(~chi_30 -> ~chi_1- nu_e    e+)
     1.36731726E-02    3     1000024       -14        13   # BR(~chi_30 -> ~chi_1+ nu_mub  mu-)
     1.36731726E-02    3    -1000024        14       -13   # BR(~chi_30 -> ~chi_1- nu_mu   mu+)
     1.29742819E-02    3     1000024       -16        15   # BR(~chi_30 -> ~chi_1+ nu_taub tau-)
     1.29742819E-02    3    -1000024        16       -15   # BR(~chi_30 -> ~chi_1- nu_tau  tau+)
#
#         PDG            Width
DECAY   1000035     1.65604828E+01   # neutralino4 decays
#          BR         NDA      ID1       ID2
     2.35576424E-02    2     1000022        23   # BR(~chi_40 -> ~chi_10   Z )
     1.47585754E-01    2     1000023        23   # BR(~chi_40 -> ~chi_20   Z )
     7.59736250E-02    2     1000025        23   # BR(~chi_40 -> ~chi_30   Z )
     2.40766678E-01    2     1000024       -24   # BR(~chi_40 -> ~chi_1+   W-)
     2.40766678E-01    2    -1000024        24   # BR(~chi_40 -> ~chi_1-   W+)
     2.87800618E-02    2     1000022        25   # BR(~chi_40 -> ~chi_10   h )
     9.75693905E-02    2     1000023        25   # BR(~chi_40 -> ~chi_20   h )
     1.14034891E-01    2     1000025        25   # BR(~chi_40 -> ~chi_30   h )
     1.54826396E-02    2     1000006        -6   # BR(~chi_40 -> ~t_1      tb)
     1.54826396E-02    2    -1000006         6   # BR(~chi_40 -> ~t_1*     t )
#
#         PDG            Width
DECAY        25     4.03509328E-03   # h decays
#          BR         NDA      ID1       ID2
     5.96254298E-01    2           5        -5   # BR(h -> b       bb     )
     6.45291557E-02    2         -15        15   # BR(h -> tau+    tau-   )
     2.28433130E-04    2         -13        13   # BR(h -> mu+     mu-    )
     4.84506853E-04    2           3        -3   # BR(h -> s       sb     )
     2.10419058E-02    2           4        -4   # BR(h -> c       cb     )
     6.87015759E-02    2          21        21   # BR(h -> g       g      )
     2.36814037E-03    2          22        22   # BR(h -> gam     gam    )
     1.61343334E-03    2          22        23   # BR(h -> Z       gam    )
     2.17332994E-01    2          24       -24   # BR(h -> W+      W-     )
     2.74455573E-02    2          23        23   # BR(h -> Z       Z      )
#
#         PDG            Width
DECAY        35     5.42547187E+01   # H decays
#          BR         NDA      ID1       ID2
     3.49762948E-01    2           5        -5   # BR(H -> b       bb     )
     6.11117460E-02    2         -15        15   # BR(H -> tau+    tau-   )
     2.16076332E-04    2         -13        13   # BR(H -> mu+     mu-    )
     2.55581038E-04    2           3        -3   # BR(H -> s       sb     )
     7.16884887E-08    2           4        -4   # BR(H -> c       cb     )
     7.18467915E-03    2           6        -6   # BR(H -> t       tb     )
     9.23042333E-07    2          21        21   # BR(H -> g       g      )
     2.30104268E-10    2          22        22   # BR(H -> gam     gam    )
     1.84712605E-09    2          23        22   # BR(H -> Z       gam    )
     1.85930411E-06    2          24       -24   # BR(H -> W+      W-     )
     9.29008061E-07    2          23        23   # BR(H -> Z       Z      )
     7.00263537E-06    2          25        25   # BR(H -> h       h      )
    -5.34422702E-24    2          36        36   # BR(H -> A       A      )
    -1.64458833E-20    2          23        36   # BR(H -> Z       A      )
     1.86893217E-03    2     1000024  -1000024   # BR(H -> ~chi_1+ ~chi_1-)
     1.62422197E-01    2     1000024  -1000037   # BR(H -> ~chi_1+ ~chi_2-)
     1.62422197E-01    2     1000037  -1000024   # BR(H -> ~chi_2+ ~chi_1-)
     2.51068491E-02    2     1000022   1000022   # BR(H -> ~chi_10 ~chi_10)
     8.64191790E-04    2     1000023   1000023   # BR(H -> ~chi_20 ~chi_20)
     1.52564029E-02    2     1000025   1000025   # BR(H -> ~chi_30 ~chi_30)
     2.47734254E-02    2     1000022   1000023   # BR(H -> ~chi_10 ~chi_20)
     8.14161376E-03    2     1000022   1000025   # BR(H -> ~chi_10 ~chi_30)
     2.87128601E-02    2     1000022   1000035   # BR(H -> ~chi_10 ~chi_40)
     1.35859464E-02    2     1000023   1000025   # BR(H -> ~chi_20 ~chi_30)
     8.07558786E-02    2     1000023   1000035   # BR(H -> ~chi_20 ~chi_40)
     5.34603965E-02    2     1000025   1000035   # BR(H -> ~chi_30 ~chi_40)
     2.28142694E-04    2     1000006  -1000006   # BR(H -> ~t_1    ~t_1*  )
     1.92957408E-03    2     1000006  -2000006   # BR(H -> ~t_1    ~t_2*  )
     1.92957408E-03    2     2000006  -1000006   # BR(H -> ~t_2    ~t_1*  )
#
#         PDG            Width
DECAY        36     5.42482888E+01   # A decays
#          BR         NDA      ID1       ID2
     3.49830205E-01    2           5        -5   # BR(A -> b       bb     )
     6.11192958E-02    2         -15        15   # BR(A -> tau+    tau-   )
     2.16102856E-04    2         -13        13   # BR(A -> mu+     mu-    )
     2.55654111E-04    2           3        -3   # BR(A -> s       sb     )
     7.21573518E-08    2           4        -4   # BR(A -> c       cb     )
     7.19899071E-03    2           6        -6   # BR(A -> t       tb     )
     1.47921034E-05    2          21        21   # BR(A -> g       g      )
     5.61284059E-08    2          22        22   # BR(A -> gam     gam    )
     1.62643612E-08    2          23        22   # BR(A -> Z       gam    )
     1.85562446E-06    2          23        25   # BR(A -> Z       h      )
     1.87546803E-03    2     1000024  -1000024   # BR(A -> ~chi_1+ ~chi_1-)
     1.62441557E-01    2     1000024  -1000037   # BR(A -> ~chi_1+ ~chi_2-)
     1.62441557E-01    2     1000037  -1000024   # BR(A -> ~chi_2+ ~chi_1-)
     2.16254632E-02    2     1000022   1000022   # BR(A -> ~chi_10 ~chi_10)
     1.08274026E-03    2     1000023   1000023   # BR(A -> ~chi_20 ~chi_20)
     1.26360332E-02    2     1000025   1000025   # BR(A -> ~chi_30 ~chi_30)
     3.06597619E-02    2     1000022   1000023   # BR(A -> ~chi_10 ~chi_20)
     6.47298829E-03    2     1000022   1000025   # BR(A -> ~chi_10 ~chi_30)
     2.92413991E-02    2     1000022   1000035   # BR(A -> ~chi_10 ~chi_40)
     1.52585052E-02    2     1000023   1000025   # BR(A -> ~chi_20 ~chi_30)
     7.97349322E-02    2     1000023   1000035   # BR(A -> ~chi_20 ~chi_40)
     5.38994298E-02    2     1000025   1000035   # BR(A -> ~chi_30 ~chi_40)
     1.99656197E-03    2     1000006  -2000006   # BR(A -> ~t_1    ~t_2*  )
     1.99656197E-03    2    -1000006   2000006   # BR(A -> ~t_1*   ~t_2   )
#
#         PDG            Width
DECAY        37     5.41868403E+01   # H+ decays
#          BR         NDA      ID1       ID2
     5.58489502E-04    2           4        -5   # BR(H+ -> c       bb     )
     6.12044114E-02    2         -15        16   # BR(H+ -> tau+    nu_tau )
     2.16403804E-04    2         -13        14   # BR(H+ -> mu+     nu_mu  )
     3.57432974E-06    2           2        -5   # BR(H+ -> u       bb     )
     1.22596794E-05    2           2        -3   # BR(H+ -> u       sb     )
     2.52221030E-04    2           4        -3   # BR(H+ -> c       sb     )
     3.55894226E-01    2           6        -5   # BR(H+ -> t       bb     )
     1.85981924E-06    2          24        25   # BR(H+ -> W+      h      )
     2.85990759E-14    2          24        36   # BR(H+ -> W+      A      )
     5.86124870E-02    2     1000024   1000022   # BR(H+ -> ~chi_1+ ~chi_10)
     3.51552886E-06    2     1000024   1000023   # BR(H+ -> ~chi_1+ ~chi_20)
     2.98316125E-02    2     1000024   1000025   # BR(H+ -> ~chi_1+ ~chi_30)
     1.62837671E-01    2     1000024   1000035   # BR(H+ -> ~chi_1+ ~chi_40)
     5.81073066E-02    2     1000037   1000022   # BR(H+ -> ~chi_2+ ~chi_10)
     1.60768913E-01    2     1000037   1000023   # BR(H+ -> ~chi_2+ ~chi_20)
     1.07662699E-01    2     1000037   1000025   # BR(H+ -> ~chi_2+ ~chi_30)
     4.03235084E-03    2     1000006  -1000005   # BR(H+ -> ~t_1    ~b_1*  )
