#
#                              ======================
#                              | THE SUSYHIT OUTPUT |
#                              ======================
#
#
#              ------------------------------------------------------
#              |     This is the output of the SUSY-HIT package     |
#              |  created by A.Djouadi, M.Muehlleitner and M.Spira. |
#              |  In case of problems with SUSY-HIT email to        |
#              |           margarete.muehlleitner@kit.edu           |
#              |           michael.spira@psi.ch                     |
#              |           abdelhak.djouadi@cern.ch                 |
#              ------------------------------------------------------
#
#              ------------------------------------------------------
#              |  SUSY Les Houches Accord - MSSM Spectrum + Decays  |
#              |              based on the decay programs           |
#              |                                                    |
#              |                     SDECAY 1.5                     |
#              |                                                    |
#              |  Authors: M.Muhlleitner, A.Djouadi and Y.Mambrini  |
#              |  Ref.:    Comput.Phys.Commun.168(2005)46           |
#              |           [hep-ph/0311167]                         |
#              |                                                    |
#              |                     HDECAY 3.4                     |
#              |                                                    |
#              |  By: A.Djouadi,J.Kalinowski,M.Muhlleitner,M.Spira  |
#              |  Ref.:    Comput.Phys.Commun.108(1998)56           |
#              |           [hep-ph/9704448]                         |
#              |                                                    |
#              |                                                    |
#              |  If not stated otherwise all DRbar couplings and   |
#              |  soft SUSY breaking masses are given at the scale  |
#              |  Q=  0.94982636E+03
#              |                                                    |
#              ------------------------------------------------------
#
#
BLOCK DCINFO  # Decay Program information
     1   SDECAY/HDECAY # decay calculator
     2   1.5  /3.4    # version number
#
BLOCK SPINFO  # Spectrum calculator information
     1    SOFTSUSY    # spectrum calculator                
     2    3.7.3       # version number                     
#
BLOCK MODSEL  # Model selection
     1     0   #  nonUniversal                                     
#
BLOCK SMINPUTS  # Standard Model inputs
         1     1.27934000E+02   # alpha_em^-1(M_Z)^MSbar
         2     1.16639000E-05   # G_F [GeV^-2]
         3     1.17200000E-01   # alpha_S(M_Z)^MSbar
         4     9.11870000E+01   # M_Z pole mass
         5     4.19000000E+00   # mb(mb)^MSbar
         6     1.72500000E+02   # mt pole mass
         7     1.77690000E+00   # mtau pole mass
#
BLOCK MINPAR  # Input parameters - minimal models
         3     2.00000000E+01   # tanb                
#
BLOCK EXTPAR  # Input parameters - non-minimal models
         0    -1.00000000E+00   # Set                 
         1     1.49900000E+02   # M_1(MX)             
         2     2.99900000E+02   # M_2(MX)             
         3     2.20000000E+03   # M_3(MX)             
        11     2.94338000E+03   # At(MX)              
        12     0.00000000E+00   # Ab(MX)              
        13     0.00000000E+00   # Atau(MX)            
        23     3.00000000E+03   # mu(MX)              
        25     2.00000000E+01   # tan                 
        26     3.00000000E+03   # mA(pole)            
        31     3.00000000E+03   # meL(MX)             
        32     3.00000000E+03   # mmuL(MX)            
        33     3.00000000E+03   # mtauL(MX)           
        34     3.00000000E+03   # meR(MX)             
        35     3.00000000E+03   # mmuR(MX)            
        36     3.00000000E+03   # mtauR(MX)           
        41     3.00000000E+03   # mqL1(MX)            
        42     3.00000000E+03   # mqL2(MX)            
        43     2.99900000E+02   # mqL3(MX)            
        44     3.00000000E+03   # muR(MX)             
        45     3.00000000E+03   # mcR(MX)             
        46     3.00000000E+03   # mtR(MX)             
        47     3.00000000E+03   # mdR(MX)             
        48     3.00000000E+03   # msR(MX)             
        49     3.00000000E+03   # mbR(MX)             
#
BLOCK MASS  # Mass Spectrum
# PDG code           mass       particle
        24     8.04005288E+01   # W+
        25     1.25777152E+02   # h
        35     3.00022095E+03   # H
        36     3.00000039E+03   # A
        37     3.00100817E+03   # H+
         5     4.81337004E+00   # b-quark pole mass calculated from mb(mb)_Msbar
   1000001     3.00913289E+03   # ~d_L
   2000001     3.00379557E+03   # ~d_R
   1000002     3.00820818E+03   # ~u_L
   2000002     3.00652178E+03   # ~u_R
   1000003     3.00913289E+03   # ~s_L
   2000003     3.00379557E+03   # ~s_R
   1000004     3.00820818E+03   # ~c_L
   2000004     3.00652178E+03   # ~c_R
   1000005     2.73868812E+02   # ~b_1
   2000005     3.00350222E+03   # ~b_2
   1000006     2.65818016E+02   # ~t_1
   2000006     2.99015790E+03   # ~t_2
   1000011     3.00700555E+03   # ~e_L
   2000011     3.00039579E+03   # ~e_R
   1000012     3.00561048E+03   # ~nu_eL
   1000013     3.00700555E+03   # ~mu_L
   2000013     3.00039579E+03   # ~mu_R
   1000014     3.00561048E+03   # ~nu_muL
   1000015     2.98605204E+03   # ~tau_1
   2000015     3.02238214E+03   # ~tau_2
   1000016     3.00597685E+03   # ~nu_tauL
   1000021     2.31004741E+03   # ~g
   1000022     1.51881523E+02   # ~chi_10
   1000023     3.18749531E+02   # ~chi_20
   1000025    -3.00738458E+03   # ~chi_30
   1000035     3.00792535E+03   # ~chi_40
   1000024     3.18902452E+02   # ~chi_1+
   1000037     3.00857562E+03   # ~chi_2+
#
BLOCK NMIX  # Neutralino Mixing Matrix
  1  1     9.99888322E-01   # N_11
  1  2    -1.15587080E-03   # N_12
  1  3     1.48264433E-02   # N_13
  1  4    -1.47797551E-03   # N_14
  2  1     1.55315740E-03   # N_21
  2  2     9.99641981E-01   # N_22
  2  3    -2.64193907E-02   # N_23
  2  4     3.93874547E-03   # N_24
  3  1    -9.41747378E-03   # N_31
  3  2     1.59094142E-02   # N_32
  3  3     7.06840714E-01   # N_33
  3  4     7.07131110E-01   # N_34
  4  1    -1.14996851E-02   # N_41
  4  2     2.14817299E-02   # N_42
  4  3     7.06723707E-01   # N_43
  4  4    -7.07069937E-01   # N_44
#
BLOCK UMIX  # Chargino Mixing Matrix U
  1  1     9.99301017E-01   # U_11
  1  2    -3.73828618E-02   # U_12
  2  1     3.73828618E-02   # U_21
  2  2     9.99301017E-01   # U_22
#
BLOCK VMIX  # Chargino Mixing Matrix V
  1  1     9.99984462E-01   # V_11
  1  2    -5.57448844E-03   # V_12
  2  1     5.57448844E-03   # V_21
  2  2     9.99984462E-01   # V_22
#
BLOCK STOPMIX  # Stop Mixing Matrix
  1  1     9.98912103E-01   # cos(theta_t)
  1  2    -4.66327190E-02   # sin(theta_t)
  2  1     4.66327190E-02   # -sin(theta_t)
  2  2     9.98912103E-01   # cos(theta_t)
#
BLOCK SBOTMIX  # Sbottom Mixing Matrix
  1  1     9.99923998E-01   # cos(theta_b)
  1  2     1.23287560E-02   # sin(theta_b)
  2  1    -1.23287560E-02   # -sin(theta_b)
  2  2     9.99923998E-01   # cos(theta_b)
#
BLOCK STAUMIX  # Stau Mixing Matrix
  1  1     7.06893778E-01   # cos(theta_tau)
  1  2     7.07319720E-01   # sin(theta_tau)
  2  1    -7.07319720E-01   # -sin(theta_tau)
  2  2     7.06893778E-01   # cos(theta_tau)
#
BLOCK ALPHA  # Higgs mixing
          -5.02031927E-02   # Mixing angle in the neutral Higgs boson sector
#
BLOCK HMIX Q=  9.49826361E+02  # DRbar Higgs Parameters
         1     3.00000000E+03   # mu(Q)MSSM           
         2     2.00000000E+01   # tan                 
         3     2.45266326E+02   # higgs               
         4     5.50404186E+06   # mA^2(Q)MSSM         
#
BLOCK GAUGE Q=  9.49826361E+02  # The gauge couplings
     1     3.60650244E-01   # gprime(Q) DRbar
     2     6.38267934E-01   # g(Q) DRbar
     3     1.03651822E+00   # g3(Q) DRbar
#
BLOCK AU Q=  9.49826361E+02  # The trilinear couplings
  1  1     0.00000000E+00   # A_u(Q) DRbar
  2  2     7.59625209E-07   # A_c(Q) DRbar
  3  3     2.94338000E+03   # A_t(Q) DRbar
#
BLOCK AD Q=  9.49826361E+02  # The trilinear couplings
  1  1     1.88422792E-07   # A_d(Q) DRbar
  2  2     1.88461206E-07   # A_s(Q) DRbar
  3  3     4.38071213E-07   # A_b(Q) DRbar
#
BLOCK AE Q=  9.49826361E+02  # The trilinear couplings
  1  1     0.00000000E+00   # A_e(Q) DRbar
  2  2     4.07926556E-08   # A_mu(Q) DRbar
  3  3     4.12656287E-08   # A_tau(Q) DRbar
#
BLOCK Yu Q=  9.49826361E+02  # The Yukawa couplings
  1  1     0.00000000E+00   # y_u(Q) DRbar
  2  2     0.00000000E+00   # y_c(Q) DRbar
  3  3     8.61688524E-01   # y_t(Q) DRbar
#
BLOCK Yd Q=  9.49826361E+02  # The Yukawa couplings
  1  1     0.00000000E+00   # y_d(Q) DRbar
  2  2     0.00000000E+00   # y_s(Q) DRbar
  3  3     2.11379950E-01   # y_b(Q) DRbar
#
BLOCK Ye Q=  9.49826361E+02  # The Yukawa couplings
  1  1     0.00000000E+00   # y_e(Q) DRbar
  2  2     0.00000000E+00   # y_mu(Q) DRbar
  3  3     2.05326132E-01   # y_tau(Q) DRbar
#
BLOCK MSOFT Q=  9.49826361E+02  # The soft SUSY breaking masses at the scale Q
         1     1.49900000E+02   # M_1(Q)              
         2     2.99900000E+02   # M_2(Q)              
         3     2.20000000E+03   # M_3(Q)              
        21    -9.91420021E+04   # M^2_Hd              
        22    -9.22061300E+06   # M^2_Hu              
        31     3.00000000E+03   # M_eL                
        32     3.00000000E+03   # M_muL               
        33     3.00000000E+03   # M_tauL              
        34     3.00000000E+03   # M_eR                
        35     3.00000000E+03   # M_muR               
        36     3.00000000E+03   # M_tauR              
        41     3.00000000E+03   # M_q1L               
        42     3.00000000E+03   # M_q2L               
        43     2.99899994E+02   # M_q3L               
        44     3.00000000E+03   # M_uR                
        45     3.00000000E+03   # M_cR                
        46     3.00000000E+03   # M_tR                
        47     3.00000000E+03   # M_dR                
        48     3.00000000E+03   # M_sR                
        49     3.00000000E+03   # M_bR                
#
#
#
#                             =================
#                             |The decay table|
#                             =================
#
# - The QCD corrections to the decays gluino -> squark  + quark
#                                     squark -> gaugino + quark_prime
#                                     squark -> squark_prime + Higgs
#                                     squark -> gluino  + quark
#   are included.
#
# - The multi-body decays for the inos, stops and sbottoms are included.
#
# - The loop induced decays for the gluino, neutralinos and stops
#   are included.
#
# - The SUSY decays of the top quark are included.
#
#
#         PDG            Width
DECAY         6     1.41409142E+00   # top decays
#          BR         NDA      ID1       ID2
     1.00000000E+00    2           5        24   # BR(t ->  b    W+)
#
#         PDG            Width
DECAY   1000021     8.82314833E+01   # gluino decays
#          BR         NDA      ID1       ID2
     2.48231500E-01    2     1000005        -5   # BR(~g -> ~b_1  bb)
     2.48231500E-01    2    -1000005         5   # BR(~g -> ~b_1* b )
     2.51768500E-01    2     1000006        -6   # BR(~g -> ~t_1  tb)
     2.51768500E-01    2    -1000006         6   # BR(~g -> ~t_1* t )
#
#         PDG            Width
DECAY   1000006     2.43461127E-07   # stop1 decays
#          BR         NDA      ID1       ID2
     1.66606115E-01    2     1000022         4   # BR(~t_1 -> ~chi_10 c )
     1.28448260E-03    2     1000022         2   # BR(~t_1 -> ~chi_10 u )
#           BR         NDA      ID1       ID2       ID3
     8.32109402E-01    3     1000022         5        24   # BR(~t_1 -> ~chi_10  b  W+)
#
#         PDG            Width
DECAY   2000006     1.09109372E+02   # stop2 decays
#          BR         NDA      ID1       ID2
     5.92533356E-02    2     1000022         6   # BR(~t_2 -> ~chi_10 t )
     2.83401844E-04    2     1000023         6   # BR(~t_2 -> ~chi_20 t )
     0.00000000E+00    2     1000025         6   # BR(~t_2 -> ~chi_30 t )
     5.68762062E-04    2     1000024         5   # BR(~t_2 -> ~chi_1+ b )
     3.14009378E-01    2     1000021         6   # BR(~t_2 -> ~g      t )
     1.67220573E-01    2     1000006        25   # BR(~t_2 -> ~t_1    h )
     1.53418910E-01    2     1000006        23   # BR(~t_2 -> ~t_1    Z )
     3.05245640E-01    2     1000005        24   # BR(~t_2 -> ~b_1    W+)
#
#         PDG            Width
DECAY   1000005     2.08478747E-02   # sbottom1 decays
#          BR         NDA      ID1       ID2
     1.00000000E+00    2     1000022         5   # BR(~b_1 -> ~chi_10 b )
#
#         PDG            Width
DECAY   2000005     4.29369137E+01   # sbottom2 decays
#          BR         NDA      ID1       ID2
     3.80386738E-02    2     1000022         5   # BR(~b_2 -> ~chi_10 b )
     1.49571710E-07    2     1000023         5   # BR(~b_2 -> ~chi_20 b )
     2.04639956E-08    2    -1000024         6   # BR(~b_2 -> ~chi_1- t )
     8.28173337E-01    2     1000021         5   # BR(~b_2 -> ~g      b )
     2.92184429E-02    2     1000005        25   # BR(~b_2 -> ~b_1    h )
     4.27999540E-02    2     1000005        23   # BR(~b_2 -> ~b_1    Z )
     6.17694219E-02    2     1000006       -24   # BR(~b_2 -> ~t_1    W-)
#
#         PDG            Width
DECAY   1000002     7.03839370E+01   # sup_L decays
#          BR         NDA      ID1       ID2
     5.74201845E-03    2     1000022         2   # BR(~u_L -> ~chi_10 u)
     1.61253935E-01    2     1000023         2   # BR(~u_L -> ~chi_20 u)
     1.35392137E-11    2     1000025         2   # BR(~u_L -> ~chi_30 u)
     3.11448657E-12    2     1000035         2   # BR(~u_L -> ~chi_40 u)
     3.22533428E-01    2     1000024         1   # BR(~u_L -> ~chi_1+ d)
     5.10470618E-01    2     1000021         2   # BR(~u_L -> ~g      u)
#
#         PDG            Width
DECAY   2000002     4.23357079E+01   # sup_R decays
#          BR         NDA      ID1       ID2
     1.54541698E-01    2     1000022         2   # BR(~u_R -> ~chi_10 u)
     3.66899827E-07    2     1000023         2   # BR(~u_R -> ~chi_20 u)
     8.45457935E-01    2     1000021         2   # BR(~u_R -> ~g      u)
#
#         PDG            Width
DECAY   1000001     7.04355853E+01   # sdown_L decays
#          BR         NDA      ID1       ID2
     5.88229617E-03    2     1000022         1   # BR(~d_L -> ~chi_10 d)
     1.61000257E-01    2     1000023         1   # BR(~d_L -> ~chi_20 d)
     9.23662809E-11    2     1000025         1   # BR(~d_L -> ~chi_30 d)
     8.00653997E-11    2     1000035         1   # BR(~d_L -> ~chi_40 d)
     3.21962661E-01    2    -1000024         2   # BR(~d_L -> ~chi_1- u)
     8.80292635E-11    2    -1000037         2   # BR(~d_L -> ~chi_2- u)
     5.11154786E-01    2     1000021         1   # BR(~d_L -> ~g      d)
#
#         PDG            Width
DECAY   2000001     3.72077916E+01   # sdown_R decays
#          BR         NDA      ID1       ID2
     4.39186763E-02    2     1000022         1   # BR(~d_R -> ~chi_10 d)
     1.04264822E-07    2     1000023         1   # BR(~d_R -> ~chi_20 d)
     9.56081219E-01    2     1000021         1   # BR(~d_R -> ~g      d)
#
#         PDG            Width
DECAY   1000004     7.03839370E+01   # scharm_L decays
#          BR         NDA      ID1       ID2
     5.74201845E-03    2     1000022         4   # BR(~c_L -> ~chi_10 c)
     1.61253935E-01    2     1000023         4   # BR(~c_L -> ~chi_20 c)
     1.35392137E-11    2     1000025         4   # BR(~c_L -> ~chi_30 c)
     3.11448657E-12    2     1000035         4   # BR(~c_L -> ~chi_40 c)
     3.22533428E-01    2     1000024         3   # BR(~c_L -> ~chi_1+ s)
     5.10470618E-01    2     1000021         4   # BR(~c_L -> ~g      c)
#
#         PDG            Width
DECAY   2000004     4.23357079E+01   # scharm_R decays
#          BR         NDA      ID1       ID2
     1.54541698E-01    2     1000022         4   # BR(~c_R -> ~chi_10 c)
     3.66899827E-07    2     1000023         4   # BR(~c_R -> ~chi_20 c)
     8.45457935E-01    2     1000021         4   # BR(~c_R -> ~g      c)
#
#         PDG            Width
DECAY   1000003     7.04355853E+01   # sstrange_L decays
#          BR         NDA      ID1       ID2
     5.88229617E-03    2     1000022         3   # BR(~s_L -> ~chi_10 s)
     1.61000257E-01    2     1000023         3   # BR(~s_L -> ~chi_20 s)
     9.23662809E-11    2     1000025         3   # BR(~s_L -> ~chi_30 s)
     8.00653997E-11    2     1000035         3   # BR(~s_L -> ~chi_40 s)
     3.21962661E-01    2    -1000024         4   # BR(~s_L -> ~chi_1- c)
     8.80292635E-11    2    -1000037         4   # BR(~s_L -> ~chi_2- c)
     5.11154786E-01    2     1000021         3   # BR(~s_L -> ~g      s)
#
#         PDG            Width
DECAY   2000003     3.72077916E+01   # sstrange_R decays
#          BR         NDA      ID1       ID2
     4.39186763E-02    2     1000022         3   # BR(~s_R -> ~chi_10 s)
     1.04264822E-07    2     1000023         3   # BR(~s_R -> ~chi_20 s)
     9.56081219E-01    2     1000021         3   # BR(~s_R -> ~g      s)
#
#         PDG            Width
DECAY   1000011     3.95719137E+01   # selectron_L decays
#          BR         NDA      ID1       ID2
     9.73924278E-02    2     1000022        11   # BR(~e_L -> ~chi_10 e-)
     3.01362651E-01    2     1000023        11   # BR(~e_L -> ~chi_20 e-)
     6.01244921E-01    2    -1000024        12   # BR(~e_L -> ~chi_1- nu_e)
#
#         PDG            Width
DECAY   2000011     1.54449537E+01   # selectron_R decays
#          BR         NDA      ID1       ID2
     9.99997629E-01    2     1000022        11   # BR(~e_R -> ~chi_10 e-)
     2.37081027E-06    2     1000023        11   # BR(~e_R -> ~chi_20 e-)
#
#         PDG            Width
DECAY   1000013     3.95719137E+01   # smuon_L decays
#          BR         NDA      ID1       ID2
     9.73924278E-02    2     1000022        13   # BR(~mu_L -> ~chi_10 mu-)
     3.01362651E-01    2     1000023        13   # BR(~mu_L -> ~chi_20 mu-)
     6.01244921E-01    2    -1000024        14   # BR(~mu_L -> ~chi_1- nu_mu)
#
#         PDG            Width
DECAY   2000013     1.54449537E+01   # smuon_R decays
#          BR         NDA      ID1       ID2
     9.99997629E-01    2     1000022        13   # BR(~mu_R -> ~chi_10 mu-)
     2.37081027E-06    2     1000023        13   # BR(~mu_R -> ~chi_20 mu-)
#
#         PDG            Width
DECAY   1000015     2.77968189E+01   # stau_1 decays
#          BR         NDA      ID1       ID2
     3.47127723E-01    2     1000022        15   # BR(~tau_1 -> ~chi_10  tau-)
     2.17989426E-01    2     1000023        15   # BR(~tau_1 -> ~chi_20  tau-)
     4.34882850E-01    2    -1000024        16   # BR(~tau_1 -> ~chi_1-  nu_tau)
#
#         PDG            Width
DECAY   2000015     2.72040653E+01   # stau_2 decays
#          BR         NDA      ID1       ID2
     3.55337138E-01    2     1000022        15   # BR(~tau_2 -> ~chi_10  tau-)
     2.15268648E-01    2     1000023        15   # BR(~tau_2 -> ~chi_20  tau-)
     4.26307044E-06    2     1000025        15   # BR(~tau_2 -> ~chi_30  tau-)
     5.14242860E-06    2     1000035        15   # BR(~tau_2 -> ~chi_40  tau-)
     4.29379993E-01    2    -1000024        16   # BR(~tau_2 -> ~chi_1-  nu_tau)
     4.81488285E-06    2    -1000037        16   # BR(~tau_2 -> ~chi_2-  nu_tau)
#
#         PDG            Width
DECAY   1000012     3.95751910E+01   # snu_eL decays
#          BR         NDA      ID1       ID2
     9.81385523E-02    2     1000022        12   # BR(~nu_eL -> ~chi_10 nu_e)
     3.00135704E-01    2     1000023        12   # BR(~nu_eL -> ~chi_20 nu_e)
     6.01725743E-01    2     1000024        11   # BR(~nu_eL -> ~chi_1+ e-)
#
#         PDG            Width
DECAY   1000014     3.95751910E+01   # snu_muL decays
#          BR         NDA      ID1       ID2
     9.81385523E-02    2     1000022        14   # BR(~nu_muL -> ~chi_10 nu_mu)
     3.00135704E-01    2     1000023        14   # BR(~nu_muL -> ~chi_20 nu_mu)
     6.01725743E-01    2     1000024        13   # BR(~nu_muL -> ~chi_1+ mu-)
#
#         PDG            Width
DECAY   1000016     3.95835727E+01   # snu_tauL decays
#          BR         NDA      ID1       ID2
     9.81298543E-02    2     1000022        16   # BR(~nu_tauL -> ~chi_10 nu_tau)
     3.00110393E-01    2     1000023        16   # BR(~nu_tauL -> ~chi_20 nu_tau)
     6.01759752E-01    2     1000024        15   # BR(~nu_tauL -> ~chi_1+ tau-)
#
#         PDG            Width
DECAY   1000024     4.98148228E-01   # chargino1+ decays
#          BR         NDA      ID1       ID2
     9.99949688E-01    2     1000006        -5   # BR(~chi_1+ -> ~t_1     bb)
     5.03119077E-05    2     1000022        24   # BR(~chi_1+ -> ~chi_10  W+)
#
#         PDG            Width
DECAY   1000037     9.26542851E+01   # chargino2+ decays
#          BR         NDA      ID1       ID2
     9.87196427E-13    2     1000002        -1   # BR(~chi_2+ -> ~u_L     db)
     9.87196427E-13    2     1000004        -3   # BR(~chi_2+ -> ~c_L     sb)
     4.63090235E-02    2     1000006        -5   # BR(~chi_2+ -> ~t_1     bb)
     1.48627306E-04    2     2000006        -5   # BR(~chi_2+ -> ~t_2     bb)
     7.37808177E-01    2    -1000005         6   # BR(~chi_2+ -> ~b_1*    t )
     1.58712842E-11    2     1000012       -11   # BR(~chi_2+ -> ~nu_eL   e+  )
     1.58712842E-11    2     1000014       -13   # BR(~chi_2+ -> ~nu_muL  mu+ )
     2.89019840E-08    2     1000016       -15   # BR(~chi_2+ -> ~nu_tau1 tau+)
     2.00214810E-10    2    -1000011        12   # BR(~chi_2+ -> ~e_L+    nu_e)
     2.00214810E-10    2    -1000013        14   # BR(~chi_2+ -> ~mu_L+   nu_mu)
     1.18237178E-06    2    -1000015        16   # BR(~chi_2+ -> ~tau_1+  nu_tau)
     6.51383954E-02    2     1000024        23   # BR(~chi_2+ -> ~chi_1+  Z )
     2.00997746E-02    2     1000022        24   # BR(~chi_2+ -> ~chi_10  W+)
     6.36679477E-02    2     1000023        24   # BR(~chi_2+ -> ~chi_20  W+)
     6.68268428E-02    2     1000024        25   # BR(~chi_2+ -> ~chi_1+  h )
#
#         PDG            Width
DECAY   1000022     0.00000000E+00   # neutralino1 decays
#
#         PDG            Width
DECAY   1000023     3.70720136E-01   # neutralino2 decays
#          BR         NDA      ID1       ID2
     2.43919583E-06    2     1000022        23   # BR(~chi_20 -> ~chi_10   Z )
     4.65874636E-05    2     1000022        25   # BR(~chi_20 -> ~chi_10   h )
     4.99975487E-01    2     1000005        -5   # BR(~chi_20 -> ~b_1      bb)
     4.99975487E-01    2    -1000005         5   # BR(~chi_20 -> ~b_1*     b )
#
#         PDG            Width
DECAY   1000025     9.29521170E+01   # neutralino3 decays
#          BR         NDA      ID1       ID2
     1.23962364E-02    2     1000022        23   # BR(~chi_30 -> ~chi_10   Z )
     4.18517490E-02    2     1000023        23   # BR(~chi_30 -> ~chi_20   Z )
     6.33523505E-02    2     1000024       -24   # BR(~chi_30 -> ~chi_1+   W-)
     6.33523505E-02    2    -1000024        24   # BR(~chi_30 -> ~chi_1-   W+)
     8.47175609E-03    2     1000022        25   # BR(~chi_30 -> ~chi_10   h )
     2.31667310E-02    2     1000023        25   # BR(~chi_30 -> ~chi_20   h )
     5.23069868E-12    2     2000002        -2   # BR(~chi_30 -> ~u_R      ub)
     5.23069868E-12    2    -2000002         2   # BR(~chi_30 -> ~u_R*     u )
     2.04345614E-11    2     2000001        -1   # BR(~chi_30 -> ~d_R      db)
     2.04345614E-11    2    -2000001         1   # BR(~chi_30 -> ~d_R*     d )
     5.23069868E-12    2     2000004        -4   # BR(~chi_30 -> ~c_R      cb)
     5.23069868E-12    2    -2000004         4   # BR(~chi_30 -> ~c_R*     c )
     2.04345614E-11    2     2000003        -3   # BR(~chi_30 -> ~s_R      sb)
     2.04345614E-11    2    -2000003         3   # BR(~chi_30 -> ~s_R*     s )
     3.71482769E-01    2     1000006        -6   # BR(~chi_30 -> ~t_1      tb)
     3.71482769E-01    2    -1000006         6   # BR(~chi_30 -> ~t_1*     t )
     2.22204866E-02    2     1000005        -5   # BR(~chi_30 -> ~b_1      bb)
     2.22204866E-02    2    -1000005         5   # BR(~chi_30 -> ~b_1*     b )
     4.66893397E-13    2     1000011       -11   # BR(~chi_30 -> ~e_L-     e+)
     4.66893397E-13    2    -1000011        11   # BR(~chi_30 -> ~e_L+     e-)
     1.60021129E-10    2     2000011       -11   # BR(~chi_30 -> ~e_R-     e+)
     1.60021129E-10    2    -2000011        11   # BR(~chi_30 -> ~e_R+     e-)
     4.66893397E-13    2     1000013       -13   # BR(~chi_30 -> ~mu_L-    mu+)
     4.66893397E-13    2    -1000013        13   # BR(~chi_30 -> ~mu_L+    mu-)
     1.60021129E-10    2     2000013       -13   # BR(~chi_30 -> ~mu_R-    mu+)
     1.60021129E-10    2    -2000013        13   # BR(~chi_30 -> ~mu_R+    mu-)
     1.15684332E-06    2     1000015       -15   # BR(~chi_30 -> ~tau_1-   tau+)
     1.15684332E-06    2    -1000015        15   # BR(~chi_30 -> ~tau_1+   tau-)
     4.11071198E-11    2     1000012       -12   # BR(~chi_30 -> ~nu_eL    nu_eb)
     4.11071198E-11    2    -1000012        12   # BR(~chi_30 -> ~nu_eL*   nu_e )
     4.11071198E-11    2     1000014       -14   # BR(~chi_30 -> ~nu_muL   nu_mub)
     4.11071198E-11    2    -1000014        14   # BR(~chi_30 -> ~nu_muL*  nu_mu )
     2.58852587E-11    2     1000016       -16   # BR(~chi_30 -> ~nu_tau1  nu_taub)
     2.58852587E-11    2    -1000016        16   # BR(~chi_30 -> ~nu_tau1* nu_tau )
#
#         PDG            Width
DECAY   1000035     9.20342276E+01   # neutralino4 decays
#          BR         NDA      ID1       ID2
     8.39666974E-03    2     1000022        23   # BR(~chi_40 -> ~chi_10   Z )
     2.32051609E-02    2     1000023        23   # BR(~chi_40 -> ~chi_20   Z )
     6.40040007E-02    2     1000024       -24   # BR(~chi_40 -> ~chi_1+   W-)
     6.40040007E-02    2    -1000024        24   # BR(~chi_40 -> ~chi_1-   W+)
     1.28033797E-02    2     1000022        25   # BR(~chi_40 -> ~chi_10   h )
     4.37837496E-02    2     1000023        25   # BR(~chi_40 -> ~chi_20   h )
     2.01536237E-11    2     2000002        -2   # BR(~chi_40 -> ~u_R      ub)
     2.01536237E-11    2    -2000002         2   # BR(~chi_40 -> ~u_R*     u )
     4.03074970E-11    2     2000001        -1   # BR(~chi_40 -> ~d_R      db)
     4.03074970E-11    2    -2000001         1   # BR(~chi_40 -> ~d_R*     d )
     2.01536237E-11    2     2000004        -4   # BR(~chi_40 -> ~c_R      cb)
     2.01536237E-11    2    -2000004         4   # BR(~chi_40 -> ~c_R*     c )
     4.03074970E-11    2     2000003        -3   # BR(~chi_40 -> ~s_R      sb)
     4.03074970E-11    2    -2000003         3   # BR(~chi_40 -> ~s_R*     s )
     3.69427667E-01    2     1000006        -6   # BR(~chi_40 -> ~t_1      tb)
     3.69427667E-01    2    -1000006         6   # BR(~chi_40 -> ~t_1*     t )
     2.24724338E-02    2     1000005        -5   # BR(~chi_40 -> ~b_1      bb)
     2.24724338E-02    2    -1000005         5   # BR(~chi_40 -> ~b_1*     b )
     5.55933435E-12    2     1000011       -11   # BR(~chi_40 -> ~e_L-     e+)
     5.55933435E-12    2    -1000011        11   # BR(~chi_40 -> ~e_L+     e-)
     2.79620778E-10    2     2000011       -11   # BR(~chi_40 -> ~e_R-     e+)
     2.79620778E-10    2    -2000011        11   # BR(~chi_40 -> ~e_R+     e-)
     5.55933435E-12    2     1000013       -13   # BR(~chi_40 -> ~mu_L-    mu+)
     5.55933435E-12    2    -1000013        13   # BR(~chi_40 -> ~mu_L+    mu-)
     2.79620778E-10    2     2000013       -13   # BR(~chi_40 -> ~mu_R-    mu+)
     2.79620778E-10    2    -2000013        13   # BR(~chi_40 -> ~mu_R+    mu-)
     1.41765762E-06    2     1000015       -15   # BR(~chi_40 -> ~tau_1-   tau+)
     1.41765762E-06    2    -1000015        15   # BR(~chi_40 -> ~tau_1+   tau-)
     1.22721548E-10    2     1000012       -12   # BR(~chi_40 -> ~nu_eL    nu_eb)
     1.22721548E-10    2    -1000012        12   # BR(~chi_40 -> ~nu_eL*   nu_e )
     1.22721548E-10    2     1000014       -14   # BR(~chi_40 -> ~nu_muL   nu_mub)
     1.22721548E-10    2    -1000014        14   # BR(~chi_40 -> ~nu_muL*  nu_mu )
     8.69603639E-11    2     1000016       -16   # BR(~chi_40 -> ~nu_tau1  nu_taub)
     8.69603639E-11    2    -1000016        16   # BR(~chi_40 -> ~nu_tau1* nu_tau )
#
#         PDG            Width
DECAY        25     5.11169215E-03   # h decays
#          BR         NDA      ID1       ID2
     6.70688304E-01    2           5        -5   # BR(h -> b       bb     )
     5.14284991E-02    2         -15        15   # BR(h -> tau+    tau-   )
     1.82055699E-04    2         -13        13   # BR(h -> mu+     mu-    )
     3.85911673E-04    2           3        -3   # BR(h -> s       sb     )
     1.66443500E-02    2           4        -4   # BR(h -> c       cb     )
     5.68064254E-02    2          21        21   # BR(h -> g       g      )
     1.87215290E-03    2          22        22   # BR(h -> gam     gam    )
     1.30963567E-03    2          22        23   # BR(h -> Z       gam    )
     1.78134766E-01    2          24       -24   # BR(h -> W+      W-     )
     2.25478999E-02    2          23        23   # BR(h -> Z       Z      )
#
#         PDG            Width
DECAY        35     1.38193849E+01   # H decays
#          BR         NDA      ID1       ID2
     7.37529294E-01    2           5        -5   # BR(H -> b       bb     )
     1.79952484E-01    2         -15        15   # BR(H -> tau+    tau-   )
     6.36268981E-04    2         -13        13   # BR(H -> mu+     mu-    )
     7.81335353E-04    2           3        -3   # BR(H -> s       sb     )
     2.20663529E-07    2           4        -4   # BR(H -> c       cb     )
     2.20126225E-02    2           6        -6   # BR(H -> t       tb     )
     3.50922601E-05    2          21        21   # BR(H -> g       g      )
     7.79105203E-08    2          22        22   # BR(H -> gam     gam    )
     8.39940241E-09    2          23        22   # BR(H -> Z       gam    )
     3.82649119E-05    2          24       -24   # BR(H -> W+      W-     )
     1.91088669E-05    2          23        23   # BR(H -> Z       Z      )
     9.12454596E-05    2          25        25   # BR(H -> h       h      )
    -1.83453782E-23    2          36        36   # BR(H -> A       A      )
     4.12178119E-17    2          23        36   # BR(H -> Z       A      )
     2.36000751E-03    2     1000024  -1000024   # BR(H -> ~chi_1+ ~chi_1-)
     1.13203837E-04    2     1000022   1000022   # BR(H -> ~chi_10 ~chi_10)
     1.17603566E-03    2     1000023   1000023   # BR(H -> ~chi_20 ~chi_20)
     7.32674551E-04    2     1000022   1000023   # BR(H -> ~chi_10 ~chi_20)
     5.45155076E-02    2     1000006  -1000006   # BR(H -> ~t_1    ~t_1*  )
     6.54737004E-06    2     1000005  -1000005   # BR(H -> ~b_1    ~b_1*  )
#
#         PDG            Width
DECAY        36     1.30694979E+01   # A decays
#          BR         NDA      ID1       ID2
     7.79907380E-01    2           5        -5   # BR(A -> b       bb     )
     1.90268544E-01    2         -15        15   # BR(A -> tau+    tau-   )
     6.72743164E-04    2         -13        13   # BR(A -> mu+     mu-    )
     8.26268288E-04    2           3        -3   # BR(A -> s       sb     )
     2.33161198E-07    2           4        -4   # BR(A -> c       cb     )
     2.32465248E-02    2           6        -6   # BR(A -> t       tb     )
     6.84587783E-05    2          21        21   # BR(A -> g       g      )
     3.17525831E-08    2          22        22   # BR(A -> gam     gam    )
     6.74312752E-08    2          23        22   # BR(A -> Z       gam    )
     4.02998302E-05    2          23        25   # BR(A -> Z       h      )
     2.69265316E-03    2     1000024  -1000024   # BR(A -> ~chi_1+ ~chi_1-)
     1.23374164E-04    2     1000022   1000022   # BR(A -> ~chi_10 ~chi_10)
     1.34175672E-03    2     1000023   1000023   # BR(A -> ~chi_20 ~chi_20)
     8.11664045E-04    2     1000022   1000023   # BR(A -> ~chi_10 ~chi_20)
#
#         PDG            Width
DECAY        37     9.54847264E+00   # H+ decays
#          BR         NDA      ID1       ID2
     1.06422921E-03    2           4        -5   # BR(H+ -> c       bb     )
     2.60518073E-01    2         -15        16   # BR(H+ -> tau+    nu_tau )
     9.21128363E-04    2         -13        14   # BR(H+ -> mu+     nu_mu  )
     6.81105599E-06    2           2        -5   # BR(H+ -> u       bb     )
     5.41325523E-05    2           2        -3   # BR(H+ -> u       sb     )
     1.11368067E-03    2           4        -3   # BR(H+ -> c       sb     )
     6.95417670E-01    2           6        -5   # BR(H+ -> t       bb     )
     5.52506717E-05    2          24        25   # BR(H+ -> W+      h      )
     1.43243135E-13    2          24        36   # BR(H+ -> W+      A      )
     2.16516889E-03    2     1000024   1000022   # BR(H+ -> ~chi_1+ ~chi_10)
     5.20517735E-09    2     1000024   1000023   # BR(H+ -> ~chi_1+ ~chi_20)
     3.86838509E-02    2     1000006  -1000005   # BR(H+ -> ~t_1    ~b_1*  )
