#
#                              ======================
#                              | THE SUSYHIT OUTPUT |
#                              ======================
#
#
#              ------------------------------------------------------
#              |     This is the output of the SUSY-HIT package     |
#              |  created by A.Djouadi, M.Muehlleitner and M.Spira. |
#              |  In case of problems with SUSY-HIT email to        |
#              |           margarete.muehlleitner@kit.edu           |
#              |           michael.spira@psi.ch                     |
#              |           abdelhak.djouadi@cern.ch                 |
#              ------------------------------------------------------
#
#              ------------------------------------------------------
#              |  SUSY Les Houches Accord - MSSM Spectrum + Decays  |
#              |              based on the decay programs           |
#              |                                                    |
#              |                     SDECAY 1.5                     |
#              |                                                    |
#              |  Authors: M.Muhlleitner, A.Djouadi and Y.Mambrini  |
#              |  Ref.:    Comput.Phys.Commun.168(2005)46           |
#              |           [hep-ph/0311167]                         |
#              |                                                    |
#              |                     HDECAY 3.4                     |
#              |                                                    |
#              |  By: A.Djouadi,J.Kalinowski,M.Muhlleitner,M.Spira  |
#              |  Ref.:    Comput.Phys.Commun.108(1998)56           |
#              |           [hep-ph/9704448]                         |
#              |                                                    |
#              |                                                    |
#              |  If not stated otherwise all DRbar couplings and   |
#              |  soft SUSY breaking masses are given at the scale  |
#              |  Q=  0.15475460E+04
#              |                                                    |
#              ------------------------------------------------------
#
#
BLOCK DCINFO  # Decay Program information
     1   SDECAY/HDECAY # decay calculator
     2   1.5  /3.4    # version number
#
BLOCK SPINFO  # Spectrum calculator information
     1    SOFTSUSY    # spectrum calculator                
     2    3.7.3       # version number                     
#
BLOCK MODSEL  # Model selection
     1     0   #  nonUniversal                                     
#
BLOCK SMINPUTS  # Standard Model inputs
         1     1.27934000E+02   # alpha_em^-1(M_Z)^MSbar
         2     1.16639000E-05   # G_F [GeV^-2]
         3     1.17200000E-01   # alpha_S(M_Z)^MSbar
         4     9.11870000E+01   # M_Z pole mass
         5     4.19000000E+00   # mb(mb)^MSbar
         6     1.72500000E+02   # mt pole mass
         7     1.77690000E+00   # mtau pole mass
#
BLOCK MINPAR  # Input parameters - minimal models
         3     2.00000000E+01   # tanb                
#
BLOCK EXTPAR  # Input parameters - non-minimal models
         0    -1.00000000E+00   # Set                 
         1     3.99900000E+02   # M_1(MX)             
         2     7.99900000E+02   # M_2(MX)             
         3     2.20000000E+03   # M_3(MX)             
        11     2.94338000E+03   # At(MX)              
        12     0.00000000E+00   # Ab(MX)              
        13     0.00000000E+00   # Atau(MX)            
        23    -3.00000000E+03   # mu(MX)              
        25     2.00000000E+01   # tan                 
        26     3.00000000E+03   # mA(pole)            
        31     3.00000000E+03   # meL(MX)             
        32     3.00000000E+03   # mmuL(MX)            
        33     3.00000000E+03   # mtauL(MX)           
        34     3.00000000E+03   # meR(MX)             
        35     3.00000000E+03   # mmuR(MX)            
        36     3.00000000E+03   # mtauR(MX)           
        41     3.00000000E+03   # mqL1(MX)            
        42     3.00000000E+03   # mqL2(MX)            
        43     7.99900000E+02   # mqL3(MX)            
        44     3.00000000E+03   # muR(MX)             
        45     3.00000000E+03   # mcR(MX)             
        46     3.00000000E+03   # mtR(MX)             
        47     3.00000000E+03   # mdR(MX)             
        48     3.00000000E+03   # msR(MX)             
        49     3.00000000E+03   # mbR(MX)             
#
BLOCK MASS  # Mass Spectrum
# PDG code           mass       particle
        24     8.04039759E+01   # W+
        25     1.25076918E+02   # h
        35     3.00007945E+03   # H
        36     2.99999994E+03   # A
        37     3.00108858E+03   # H+
         5     4.81337004E+00   # b-quark pole mass calculated from mb(mb)_Msbar
   1000001     3.03694548E+03   # ~d_L
   2000001     3.03183324E+03   # ~d_R
   1000002     3.03603958E+03   # ~u_L
   2000002     3.03361379E+03   # ~u_R
   1000003     3.03694548E+03   # ~s_L
   2000003     3.03183324E+03   # ~s_R
   1000004     3.03603958E+03   # ~c_L
   2000004     3.03361379E+03   # ~c_R
   1000005     9.01969201E+02   # ~b_1
   2000005     3.03030123E+03   # ~b_2
   1000006     8.99487084E+02   # ~t_1
   2000006     3.02351553E+03   # ~t_2
   1000011     3.00652097E+03   # ~e_L
   2000011     3.00134251E+03   # ~e_R
   1000012     3.00513656E+03   # ~nu_eL
   1000013     3.00652097E+03   # ~mu_L
   2000013     3.00134251E+03   # ~mu_R
   1000014     3.00513656E+03   # ~nu_muL
   1000015     2.98618222E+03   # ~tau_1
   2000015     3.02163257E+03   # ~tau_2
   1000016     3.00514453E+03   # ~nu_tauL
   1000021     2.34583829E+03   # ~g
   1000022     4.02900697E+02   # ~chi_10
   1000023     8.36336446E+02   # ~chi_20
   1000025    -2.99798275E+03   # ~chi_30
   1000035     2.99843410E+03   # ~chi_40
   1000024     8.36495890E+02   # ~chi_1+
   1000037     2.99917902E+03   # ~chi_2+
#
BLOCK NMIX  # Neutralino Mixing Matrix
  1  1     9.99888472E-01   # N_11
  1  2    -9.77056987E-05   # N_12
  1  3    -1.48821191E-02   # N_13
  1  4    -1.24788689E-03   # N_14
  2  1     5.13728308E-04   # N_21
  2  2     9.99604948E-01   # N_22
  2  3     2.74482209E-02   # N_23
  2  4     6.02315955E-03   # N_24
  3  1    -9.63685309E-03   # N_31
  3  2     1.51540583E-02   # N_32
  3  3    -7.06866006E-01   # N_33
  3  4     7.07119463E-01   # N_34
  4  1     1.13978674E-02   # N_41
  4  2    -2.36704915E-02   # N_42
  4  3     7.06658027E-01   # N_43
  4  4     7.07067344E-01   # N_44
#
BLOCK UMIX  # Chargino Mixing Matrix U
  1  1     9.99246426E-01   # U_11
  1  2     3.88146987E-02   # U_12
  2  1    -3.88146987E-02   # U_21
  2  2     9.99246426E-01   # U_22
#
BLOCK VMIX  # Chargino Mixing Matrix V
  1  1     9.99963738E-01   # V_11
  1  2    -8.51605905E-03   # V_12
  2  1    -8.51605905E-03   # V_21
  2  2    -9.99963738E-01   # V_22
#
BLOCK STOPMIX  # Stop Mixing Matrix
  1  1     9.98536079E-01   # cos(theta_t)
  1  2    -5.40897304E-02   # sin(theta_t)
  2  1     5.40897304E-02   # -sin(theta_t)
  2  2     9.98536079E-01   # cos(theta_t)
#
BLOCK SBOTMIX  # Sbottom Mixing Matrix
  1  1     9.99726365E-01   # cos(theta_b)
  1  2    -2.33922022E-02   # sin(theta_b)
  2  1     2.33922022E-02   # -sin(theta_b)
  2  2     9.99726365E-01   # cos(theta_b)
#
BLOCK STAUMIX  # Stau Mixing Matrix
  1  1    -7.06960147E-01   # cos(theta_tau)
  1  2     7.07253385E-01   # sin(theta_tau)
  2  1    -7.07253385E-01   # -sin(theta_tau)
  2  2    -7.06960147E-01   # cos(theta_tau)
#
BLOCK ALPHA  # Higgs mixing
          -5.00119647E-02   # Mixing angle in the neutral Higgs boson sector
#
BLOCK HMIX Q=  1.54754600E+03  # DRbar Higgs Parameters
         1    -3.00000000E+03   # mu(Q)MSSM           
         2     2.00000000E+01   # tan                 
         3     2.44026793E+02   # higgs               
         4     1.06053756E+07   # mA^2(Q)MSSM         
#
BLOCK GAUGE Q=  1.54754600E+03  # The gauge couplings
     1     3.62254029E-01   # gprime(Q) DRbar
     2     6.36644484E-01   # g(Q) DRbar
     3     1.02562214E+00   # g3(Q) DRbar
#
BLOCK AU Q=  1.54754600E+03  # The trilinear couplings
  1  1     2.29211882E-06   # A_u(Q) DRbar
  2  2     2.29215171E-06   # A_c(Q) DRbar
  3  3     2.94338000E+03   # A_t(Q) DRbar
#
BLOCK AD Q=  1.54754600E+03  # The trilinear couplings
  1  1     8.26455405E-07   # A_d(Q) DRbar
  2  2     8.26547954E-07   # A_s(Q) DRbar
  3  3     1.64866322E-06   # A_b(Q) DRbar
#
BLOCK AE Q=  1.54754600E+03  # The trilinear couplings
  1  1     3.41650750E-07   # A_e(Q) DRbar
  2  2     3.41667246E-07   # A_mu(Q) DRbar
  3  3     3.46262584E-07   # A_tau(Q) DRbar
#
BLOCK Yu Q=  1.54754600E+03  # The Yukawa couplings
  1  1     0.00000000E+00   # y_u(Q) DRbar
  2  2     0.00000000E+00   # y_c(Q) DRbar
  3  3     8.52118732E-01   # y_t(Q) DRbar
#
BLOCK Yd Q=  1.54754600E+03  # The Yukawa couplings
  1  1     0.00000000E+00   # y_d(Q) DRbar
  2  2     0.00000000E+00   # y_s(Q) DRbar
  3  3     3.78444220E-01   # y_b(Q) DRbar
#
BLOCK Ye Q=  1.54754600E+03  # The Yukawa couplings
  1  1     0.00000000E+00   # y_e(Q) DRbar
  2  2     0.00000000E+00   # y_mu(Q) DRbar
  3  3     2.00913208E-01   # y_tau(Q) DRbar
#
BLOCK MSOFT Q=  1.54754600E+03  # The soft SUSY breaking masses at the scale Q
         1     3.99900000E+02   # M_1(Q)              
         2     7.99900000E+02   # M_2(Q)              
         3     2.20000000E+03   # M_3(Q)              
        21    -4.33424008E+04   # M^2_Hd              
        22    -9.05419964E+06   # M^2_Hu              
        31     3.00000000E+03   # M_eL                
        32     3.00000000E+03   # M_muL               
        33     3.00000000E+03   # M_tauL              
        34     3.00000000E+03   # M_eR                
        35     3.00000000E+03   # M_muR               
        36     3.00000000E+03   # M_tauR              
        41     3.00000000E+03   # M_q1L               
        42     3.00000000E+03   # M_q2L               
        43     7.99899993E+02   # M_q3L               
        44     3.00000000E+03   # M_uR                
        45     3.00000000E+03   # M_cR                
        46     3.00000000E+03   # M_tR                
        47     3.00000000E+03   # M_dR                
        48     3.00000000E+03   # M_sR                
        49     3.00000000E+03   # M_bR                
#
#
#
#                             =================
#                             |The decay table|
#                             =================
#
# - The QCD corrections to the decays gluino -> squark  + quark
#                                     squark -> gaugino + quark_prime
#                                     squark -> squark_prime + Higgs
#                                     squark -> gluino  + quark
#   are included.
#
# - The multi-body decays for the inos, stops and sbottoms are included.
#
# - The loop induced decays for the gluino, neutralinos and stops
#   are included.
#
# - The SUSY decays of the top quark are included.
#
#
#         PDG            Width
DECAY         6     1.40675596E+00   # top decays
#          BR         NDA      ID1       ID2
     1.00000000E+00    2           5        24   # BR(t ->  b    W+)
#
#         PDG            Width
DECAY   1000021     6.91272581E+01   # gluino decays
#          BR         NDA      ID1       ID2
     2.47952218E-01    2     1000005        -5   # BR(~g -> ~b_1  bb)
     2.47952218E-01    2    -1000005         5   # BR(~g -> ~b_1* b )
     2.52047782E-01    2     1000006        -6   # BR(~g -> ~t_1  tb)
     2.52047782E-01    2    -1000006         6   # BR(~g -> ~t_1* t )
#
#         PDG            Width
DECAY   1000006     2.16294768E-01   # stop1 decays
#          BR         NDA      ID1       ID2
     3.39297767E-01    2     1000022         6   # BR(~t_1 -> ~chi_10 t )
     6.60702233E-01    2     1000024         5   # BR(~t_1 -> ~chi_1+ b )
#
#         PDG            Width
DECAY   2000006     1.14696233E+02   # stop2 decays
#          BR         NDA      ID1       ID2
     5.58970708E-02    2     1000022         6   # BR(~t_2 -> ~chi_10 t )
     3.43766508E-04    2     1000023         6   # BR(~t_2 -> ~chi_20 t )
     0.00000000E+00    2     1000025         6   # BR(~t_2 -> ~chi_30 t )
     6.91687016E-04    2     1000024         5   # BR(~t_2 -> ~chi_1+ b )
     1.05146965E-04    2     1000037         5   # BR(~t_2 -> ~chi_2+ b )
     2.97489056E-01    2     1000021         6   # BR(~t_2 -> ~g      t )
     1.69246458E-01    2     1000006        25   # BR(~t_2 -> ~t_1    h )
     1.60954364E-01    2     1000006        23   # BR(~t_2 -> ~t_1    Z )
     3.15272451E-01    2     1000005        24   # BR(~t_2 -> ~b_1    W+)
#
#         PDG            Width
DECAY   1000005     1.65132979E-01   # sbottom1 decays
#          BR         NDA      ID1       ID2
     5.31756130E-01    2     1000022         5   # BR(~b_1 -> ~chi_10 b )
     4.68243870E-01    2     1000023         5   # BR(~b_1 -> ~chi_20 b )
#
#         PDG            Width
DECAY   2000005     5.34008908E+01   # sbottom2 decays
#          BR         NDA      ID1       ID2
     3.02457896E-02    2     1000022         5   # BR(~b_2 -> ~chi_10 b )
     6.53694884E-08    2     1000023         5   # BR(~b_2 -> ~chi_20 b )
     3.89940262E-05    2     1000025         5   # BR(~b_2 -> ~chi_30 b )
     3.73381717E-05    2     1000035         5   # BR(~b_2 -> ~chi_40 b )
    -4.93262579E-08    2    -1000024         6   # BR(~b_2 -> ~chi_1- t )
     6.52791443E-01    2     1000021         5   # BR(~b_2 -> ~g      b )
     7.07212728E-02    2     1000005        25   # BR(~b_2 -> ~b_1    h )
     1.00373598E-01    2     1000005        23   # BR(~b_2 -> ~b_1    Z )
     1.45791548E-01    2     1000006       -24   # BR(~b_2 -> ~t_1    W-)
#
#         PDG            Width
DECAY   1000002     6.56899410E+01   # sup_L decays
#          BR         NDA      ID1       ID2
     6.16277295E-03    2     1000022         2   # BR(~u_L -> ~chi_10 u)
     1.52117296E-01    2     1000023         2   # BR(~u_L -> ~chi_20 u)
     2.25821189E-08    2     1000025         2   # BR(~u_L -> ~chi_30 u)
     5.74793367E-08    2     1000035         2   # BR(~u_L -> ~chi_40 u)
     3.04374929E-01    2     1000024         1   # BR(~u_L -> ~chi_1+ d)
     1.73345466E-08    2     1000037         1   # BR(~u_L -> ~chi_2+ d)
     5.37344905E-01    2     1000021         2   # BR(~u_L -> ~g      u)
#
#         PDG            Width
DECAY   2000002     4.15812694E+01   # sup_R decays
#          BR         NDA      ID1       ID2
     1.55798750E-01    2     1000022         2   # BR(~u_R -> ~chi_10 u)
     3.64876930E-08    2     1000023         2   # BR(~u_R -> ~chi_20 u)
     9.45565725E-09    2     1000025         2   # BR(~u_R -> ~chi_30 u)
     1.29035834E-08    2     1000035         2   # BR(~u_R -> ~chi_40 u)
     8.44201191E-01    2     1000021         2   # BR(~u_R -> ~g      u)
#
#         PDG            Width
DECAY   1000001     6.57433971E+01   # sdown_L decays
#          BR         NDA      ID1       ID2
     6.17248519E-03    2     1000022         1   # BR(~d_L -> ~chi_10 d)
     1.51995570E-01    2     1000023         1   # BR(~d_L -> ~chi_20 d)
     3.83429482E-08    2     1000025         1   # BR(~d_L -> ~chi_30 d)
     8.67388503E-08    2     1000035         1   # BR(~d_L -> ~chi_40 d)
     3.03813639E-01    2    -1000024         2   # BR(~d_L -> ~chi_1- u)
     3.77080328E-07    2    -1000037         2   # BR(~d_L -> ~chi_2- u)
     5.38017805E-01    2     1000021         1   # BR(~d_L -> ~g      d)
#
#         PDG            Width
DECAY   2000001     3.65783829E+01   # sdown_R decays
#          BR         NDA      ID1       ID2
     4.42483842E-02    2     1000022         1   # BR(~d_R -> ~chi_10 d)
     1.03613224E-08    2     1000023         1   # BR(~d_R -> ~chi_20 d)
     2.43378299E-09    2     1000025         1   # BR(~d_R -> ~chi_30 d)
     3.31686232E-09    2     1000035         1   # BR(~d_R -> ~chi_40 d)
     9.55751600E-01    2     1000021         1   # BR(~d_R -> ~g      d)
#
#         PDG            Width
DECAY   1000004     6.56899410E+01   # scharm_L decays
#          BR         NDA      ID1       ID2
     6.16277295E-03    2     1000022         4   # BR(~c_L -> ~chi_10 c)
     1.52117296E-01    2     1000023         4   # BR(~c_L -> ~chi_20 c)
     2.25821189E-08    2     1000025         4   # BR(~c_L -> ~chi_30 c)
     5.74793367E-08    2     1000035         4   # BR(~c_L -> ~chi_40 c)
     3.04374929E-01    2     1000024         3   # BR(~c_L -> ~chi_1+ s)
     1.73345466E-08    2     1000037         3   # BR(~c_L -> ~chi_2+ s)
     5.37344905E-01    2     1000021         4   # BR(~c_L -> ~g      c)
#
#         PDG            Width
DECAY   2000004     4.15812694E+01   # scharm_R decays
#          BR         NDA      ID1       ID2
     1.55798750E-01    2     1000022         4   # BR(~c_R -> ~chi_10 c)
     3.64876930E-08    2     1000023         4   # BR(~c_R -> ~chi_20 c)
     9.45565725E-09    2     1000025         4   # BR(~c_R -> ~chi_30 c)
     1.29035834E-08    2     1000035         4   # BR(~c_R -> ~chi_40 c)
     8.44201191E-01    2     1000021         4   # BR(~c_R -> ~g      c)
#
#         PDG            Width
DECAY   1000003     6.57433971E+01   # sstrange_L decays
#          BR         NDA      ID1       ID2
     6.17248519E-03    2     1000022         3   # BR(~s_L -> ~chi_10 s)
     1.51995570E-01    2     1000023         3   # BR(~s_L -> ~chi_20 s)
     3.83429482E-08    2     1000025         3   # BR(~s_L -> ~chi_30 s)
     8.67388503E-08    2     1000035         3   # BR(~s_L -> ~chi_40 s)
     3.03813639E-01    2    -1000024         4   # BR(~s_L -> ~chi_1- c)
     3.77080328E-07    2    -1000037         4   # BR(~s_L -> ~chi_2- c)
     5.38017805E-01    2     1000021         3   # BR(~s_L -> ~g      s)
#
#         PDG            Width
DECAY   2000003     3.65783829E+01   # sstrange_R decays
#          BR         NDA      ID1       ID2
     4.42483842E-02    2     1000022         3   # BR(~s_R -> ~chi_10 s)
     1.03613224E-08    2     1000023         3   # BR(~s_R -> ~chi_20 s)
     2.43378299E-09    2     1000025         3   # BR(~s_R -> ~chi_30 s)
     3.31686232E-09    2     1000035         3   # BR(~s_R -> ~chi_40 s)
     9.55751600E-01    2     1000021         3   # BR(~s_R -> ~g      s)
#
#         PDG            Width
DECAY   1000011     3.47027475E+01   # selectron_L decays
#          BR         NDA      ID1       ID2
     1.09003563E-01    2     1000022        11   # BR(~e_L -> ~chi_10 e-)
     2.97269370E-01    2     1000023        11   # BR(~e_L -> ~chi_20 e-)
     1.05084042E-09    2     1000025        11   # BR(~e_L -> ~chi_30 e-)
     2.97727782E-09    2     1000035        11   # BR(~e_L -> ~chi_40 e-)
     5.93727038E-01    2    -1000024        12   # BR(~e_L -> ~chi_1- nu_e)
     2.50443685E-08    2    -1000037        12   # BR(~e_L -> ~chi_2- nu_e)
#
#         PDG            Width
DECAY   2000011     1.51081151E+01   # selectron_R decays
#          BR         NDA      ID1       ID2
     9.99999766E-01    2     1000022        11   # BR(~e_R -> ~chi_10 e-)
     2.32890694E-07    2     1000023        11   # BR(~e_R -> ~chi_20 e-)
     4.82304627E-10    2     1000025        11   # BR(~e_R -> ~chi_30 e-)
     5.05659586E-10    2     1000035        11   # BR(~e_R -> ~chi_40 e-)
#
#         PDG            Width
DECAY   1000013     3.47027475E+01   # smuon_L decays
#          BR         NDA      ID1       ID2
     1.09003563E-01    2     1000022        13   # BR(~mu_L -> ~chi_10 mu-)
     2.97269370E-01    2     1000023        13   # BR(~mu_L -> ~chi_20 mu-)
     1.05084042E-09    2     1000025        13   # BR(~mu_L -> ~chi_30 mu-)
     2.97727782E-09    2     1000035        13   # BR(~mu_L -> ~chi_40 mu-)
     5.93727038E-01    2    -1000024        14   # BR(~mu_L -> ~chi_1- nu_mu)
     2.50443685E-08    2    -1000037        14   # BR(~mu_L -> ~chi_2- nu_mu)
#
#         PDG            Width
DECAY   2000013     1.51081151E+01   # smuon_R decays
#          BR         NDA      ID1       ID2
     9.99999766E-01    2     1000022        13   # BR(~mu_R -> ~chi_10 mu-)
     2.32890694E-07    2     1000023        13   # BR(~mu_R -> ~chi_20 mu-)
     4.82304627E-10    2     1000025        13   # BR(~mu_R -> ~chi_30 mu-)
     5.05659586E-10    2     1000035        13   # BR(~mu_R -> ~chi_40 mu-)
#
#         PDG            Width
DECAY   1000015     2.51286484E+01   # stau_1 decays
#          BR         NDA      ID1       ID2
     3.75515687E-01    2     1000022        15   # BR(~tau_1 -> ~chi_10  tau-)
     2.08368754E-01    2     1000023        15   # BR(~tau_1 -> ~chi_20  tau-)
     4.16115560E-01    2    -1000024        16   # BR(~tau_1 -> ~chi_1-  nu_tau)
#
#         PDG            Width
DECAY   2000015     2.46582544E+01   # stau_2 decays
#          BR         NDA      ID1       ID2
     3.83862028E-01    2     1000022        15   # BR(~tau_2 -> ~chi_10  tau-)
     2.05579589E-01    2     1000023        15   # BR(~tau_2 -> ~chi_20  tau-)
     1.36643577E-05    2     1000025        15   # BR(~tau_2 -> ~chi_30  tau-)
     1.16259006E-05    2     1000035        15   # BR(~tau_2 -> ~chi_40  tau-)
     4.10519511E-01    2    -1000024        16   # BR(~tau_2 -> ~chi_1-  nu_tau)
     1.35812979E-05    2    -1000037        16   # BR(~tau_2 -> ~chi_2-  nu_tau)
#
#         PDG            Width
DECAY   1000012     3.47019804E+01   # snu_eL decays
#          BR         NDA      ID1       ID2
     1.09026974E-01    2     1000022        12   # BR(~nu_eL -> ~chi_10 nu_e)
     2.96745810E-01    2     1000023        12   # BR(~nu_eL -> ~chi_20 nu_e)
     3.36270841E-09    2     1000025        12   # BR(~nu_eL -> ~chi_30 nu_e)
     6.30348315E-09    2     1000035        12   # BR(~nu_eL -> ~chi_40 nu_e)
     5.94227205E-01    2     1000024        11   # BR(~nu_eL -> ~chi_1+ e-)
     7.94539499E-10    2     1000037        11   # BR(~nu_eL -> ~chi_2+ e-)
#
#         PDG            Width
DECAY   1000014     3.47019804E+01   # snu_muL decays
#          BR         NDA      ID1       ID2
     1.09026974E-01    2     1000022        14   # BR(~nu_muL -> ~chi_10 nu_mu)
     2.96745810E-01    2     1000023        14   # BR(~nu_muL -> ~chi_20 nu_mu)
     3.36270841E-09    2     1000025        14   # BR(~nu_muL -> ~chi_30 nu_mu)
     6.30348315E-09    2     1000035        14   # BR(~nu_muL -> ~chi_40 nu_mu)
     5.94227205E-01    2     1000024        13   # BR(~nu_muL -> ~chi_1+ mu-)
     7.94539499E-10    2     1000037        13   # BR(~nu_muL -> ~chi_2+ mu-)
#
#         PDG            Width
DECAY   1000016     3.47053939E+01   # snu_tauL decays
#          BR         NDA      ID1       ID2
     1.09016561E-01    2     1000022        16   # BR(~nu_tauL -> ~chi_10 nu_tau)
     2.96717675E-01    2     1000023        16   # BR(~nu_tauL -> ~chi_20 nu_tau)
     3.36985597E-09    2     1000025        16   # BR(~nu_tauL -> ~chi_30 nu_tau)
     6.31782825E-09    2     1000035        16   # BR(~nu_tauL -> ~chi_40 nu_tau)
     5.94264728E-01    2     1000024        15   # BR(~nu_tauL -> ~chi_1+ tau-)
     1.02658346E-06    2     1000037        15   # BR(~nu_tauL -> ~chi_2+ tau-)
#
#         PDG            Width
DECAY   1000024     4.33678179E-05   # chargino1+ decays
#          BR         NDA      ID1       ID2
     1.00000000E+00    2     1000022        24   # BR(~chi_1+ -> ~chi_10  W+)
#
#         PDG            Width
DECAY   1000037     8.87908708E+01   # chargino2+ decays
#          BR         NDA      ID1       ID2
     1.33448519E-01    2     1000006        -5   # BR(~chi_2+ -> ~t_1     bb)
     6.63903919E-01    2    -1000005         6   # BR(~chi_2+ -> ~b_1*    t )
     3.89631545E-07    2    -1000015        16   # BR(~chi_2+ -> ~tau_1+  nu_tau)
     6.02505140E-02    2     1000024        23   # BR(~chi_2+ -> ~chi_1+  Z )
     1.99609752E-02    2     1000022        24   # BR(~chi_2+ -> ~chi_10  W+)
     5.86232896E-02    2     1000023        24   # BR(~chi_2+ -> ~chi_20  W+)
     6.38123936E-02    2     1000024        25   # BR(~chi_2+ -> ~chi_1+  h )
#
#         PDG            Width
DECAY   1000022     0.00000000E+00   # neutralino1 decays
#
#         PDG            Width
DECAY   1000023     4.09257773E-05   # neutralino2 decays
#          BR         NDA      ID1       ID2
     3.52536395E-01    2     1000022        23   # BR(~chi_20 -> ~chi_10   Z )
     6.47463605E-01    2     1000022        25   # BR(~chi_20 -> ~chi_10   h )
#
#         PDG            Width
DECAY   1000025     8.89514444E+01   # neutralino3 decays
#          BR         NDA      ID1       ID2
     1.19571661E-02    2     1000022        23   # BR(~chi_30 -> ~chi_10   Z )
     4.26062615E-02    2     1000023        23   # BR(~chi_30 -> ~chi_20   Z )
     5.84723839E-02    2     1000024       -24   # BR(~chi_30 -> ~chi_1+   W-)
     5.84723839E-02    2    -1000024        24   # BR(~chi_30 -> ~chi_1-   W+)
     8.86488129E-03    2     1000022        25   # BR(~chi_30 -> ~chi_10   h )
     1.77939408E-02    2     1000023        25   # BR(~chi_30 -> ~chi_20   h )
     3.35424088E-01    2     1000006        -6   # BR(~chi_30 -> ~t_1      tb)
     3.35424088E-01    2    -1000006         6   # BR(~chi_30 -> ~t_1*     t )
     6.54919584E-02    2     1000005        -5   # BR(~chi_30 -> ~b_1      bb)
     6.54919584E-02    2    -1000005         5   # BR(~chi_30 -> ~b_1*     b )
     4.44366972E-07    2     1000015       -15   # BR(~chi_30 -> ~tau_1-   tau+)
     4.44366972E-07    2    -1000015        15   # BR(~chi_30 -> ~tau_1+   tau-)
#
#         PDG            Width
DECAY   1000035     8.80616760E+01   # neutralino4 decays
#          BR         NDA      ID1       ID2
     8.64043161E-03    2     1000022        23   # BR(~chi_40 -> ~chi_10   Z )
     1.76885357E-02    2     1000023        23   # BR(~chi_40 -> ~chi_20   Z )
     5.90950939E-02    2     1000024       -24   # BR(~chi_40 -> ~chi_1+   W-)
     5.90950939E-02    2    -1000024        24   # BR(~chi_40 -> ~chi_1-   W+)
     1.25977157E-02    2     1000022        25   # BR(~chi_40 -> ~chi_10   h )
     4.63603324E-02    2     1000023        25   # BR(~chi_40 -> ~chi_20   h )
     3.32101019E-01    2     1000006        -6   # BR(~chi_40 -> ~t_1      tb)
     3.32101019E-01    2    -1000006         6   # BR(~chi_40 -> ~t_1*     t )
     6.61600309E-02    2     1000005        -5   # BR(~chi_40 -> ~b_1      bb)
     6.61600309E-02    2    -1000005         5   # BR(~chi_40 -> ~b_1*     b )
     3.48197071E-07    2     1000015       -15   # BR(~chi_40 -> ~tau_1-   tau+)
     3.48197071E-07    2    -1000015        15   # BR(~chi_40 -> ~tau_1+   tau-)
#
#         PDG            Width
DECAY        25     3.61109956E-03   # h decays
#          BR         NDA      ID1       ID2
     5.60412228E-01    2           5        -5   # BR(h -> b       bb     )
     7.18433511E-02    2         -15        15   # BR(h -> tau+    tau-   )
     2.54327214E-04    2         -13        13   # BR(h -> mu+     mu-    )
     5.39748547E-04    2           3        -3   # BR(h -> s       sb     )
     2.34557219E-02    2           4        -4   # BR(h -> c       cb     )
     7.62515316E-02    2          21        21   # BR(h -> g       g      )
     2.61252498E-03    2          22        22   # BR(h -> gam     gam    )
     1.74259088E-03    2          22        23   # BR(h -> Z       gam    )
     2.33623854E-01    2          24       -24   # BR(h -> W+      W-     )
     2.92641211E-02    2          23        23   # BR(h -> Z       Z      )
#
#         PDG            Width
DECAY        35     3.61894939E+01   # H decays
#          BR         NDA      ID1       ID2
     8.98677957E-01    2           5        -5   # BR(H -> b       bb     )
     6.87150546E-02    2         -15        15   # BR(H -> tau+    tau-   )
     2.42960013E-04    2         -13        13   # BR(H -> mu+     mu-    )
     2.98355706E-04    2           3        -3   # BR(H -> s       sb     )
     8.36193742E-08    2           4        -4   # BR(H -> c       cb     )
     8.34156790E-03    2           6        -6   # BR(H -> t       tb     )
     9.84961948E-06    2          21        21   # BR(H -> g       g      )
     7.24951892E-08    2          22        22   # BR(H -> gam     gam    )
     3.42201327E-09    2          23        22   # BR(H -> Z       gam    )
     6.99616045E-07    2          24       -24   # BR(H -> W+      W-     )
     3.49376821E-07    2          23        23   # BR(H -> Z       Z      )
     5.66460335E-06    2          25        25   # BR(H -> h       h      )
    -6.02054911E-25    2          36        36   # BR(H -> A       A      )
     7.16685628E-20    2          23        36   # BR(H -> Z       A      )
     6.17964065E-04    2     1000024  -1000024   # BR(H -> ~chi_1+ ~chi_1-)
     4.00957826E-05    2     1000022   1000022   # BR(H -> ~chi_10 ~chi_10)
     3.08722960E-04    2     1000023   1000023   # BR(H -> ~chi_20 ~chi_20)
     2.32578149E-04    2     1000022   1000023   # BR(H -> ~chi_10 ~chi_20)
     2.25028685E-02    2     1000006  -1000006   # BR(H -> ~t_1    ~t_1*  )
     5.15220876E-06    2     1000005  -1000005   # BR(H -> ~b_1    ~b_1*  )
#
#         PDG            Width
DECAY        36     3.53923020E+01   # A decays
#          BR         NDA      ID1       ID2
     9.18942607E-01    2           5        -5   # BR(A -> b       bb     )
     7.02614360E-02    2         -15        15   # BR(A -> tau+    tau-   )
     2.48427300E-04    2         -13        13   # BR(A -> mu+     mu-    )
     3.05120311E-04    2           3        -3   # BR(A -> s       sb     )
     8.61006269E-08    2           4        -4   # BR(A -> c       cb     )
     8.58436296E-03    2           6        -6   # BR(A -> t       tb     )
     2.52801275E-05    2          21        21   # BR(A -> g       g      )
     6.45875737E-08    2          22        22   # BR(A -> gam     gam    )
     2.49154882E-08    2          23        22   # BR(A -> Z       gam    )
     7.12677884E-07    2          23        25   # BR(A -> Z       h      )
     8.77670970E-04    2     1000024  -1000024   # BR(A -> ~chi_1+ ~chi_1-)
     4.34504023E-05    2     1000022   1000022   # BR(A -> ~chi_10 ~chi_10)
     4.38375308E-04    2     1000023   1000023   # BR(A -> ~chi_20 ~chi_20)
     2.72381036E-04    2     1000022   1000023   # BR(A -> ~chi_10 ~chi_20)
#
#         PDG            Width
DECAY        37     3.89311110E+01   # H+ decays
#          BR         NDA      ID1       ID2
     1.46642649E-03    2           4        -5   # BR(H+ -> c       bb     )
     6.38979027E-02    2         -15        16   # BR(H+ -> tau+    nu_tau )
     2.25927399E-04    2         -13        14   # BR(H+ -> mu+     nu_mu  )
     9.38511800E-06    2           2        -5   # BR(H+ -> u       bb     )
     1.32771770E-05    2           2        -3   # BR(H+ -> u       sb     )
     2.73154224E-04    2           4        -3   # BR(H+ -> c       sb     )
     9.22843806E-01    2           6        -5   # BR(H+ -> t       bb     )
     6.49007643E-07    2          24        25   # BR(H+ -> W+      h      )
     5.16769922E-14    2          24        36   # BR(H+ -> W+      A      )
     4.63778459E-04    2     1000024   1000022   # BR(H+ -> ~chi_1+ ~chi_10)
     1.07375011E-10    2     1000024   1000023   # BR(H+ -> ~chi_1+ ~chi_20)
     1.08056935E-02    2     1000006  -1000005   # BR(H+ -> ~t_1    ~b_1*  )
