#
#                              ======================
#                              | THE SUSYHIT OUTPUT |
#                              ======================
#
#
#              ------------------------------------------------------
#              |     This is the output of the SUSY-HIT package     |
#              |  created by A.Djouadi, M.Muehlleitner and M.Spira. |
#              |  In case of problems with SUSY-HIT email to        |
#              |           margarete.muehlleitner@kit.edu           |
#              |           michael.spira@psi.ch                     |
#              |           abdelhak.djouadi@cern.ch                 |
#              ------------------------------------------------------
#
#              ------------------------------------------------------
#              |  SUSY Les Houches Accord - MSSM Spectrum + Decays  |
#              |              based on the decay programs           |
#              |                                                    |
#              |                     SDECAY 1.5                     |
#              |                                                    |
#              |  Authors: M.Muhlleitner, A.Djouadi and Y.Mambrini  |
#              |  Ref.:    Comput.Phys.Commun.168(2005)46           |
#              |           [hep-ph/0311167]                         |
#              |                                                    |
#              |                     HDECAY 3.4                     |
#              |                                                    |
#              |  By: A.Djouadi,J.Kalinowski,M.Muhlleitner,M.Spira  |
#              |  Ref.:    Comput.Phys.Commun.108(1998)56           |
#              |           [hep-ph/9704448]                         |
#              |                                                    |
#              |                                                    |
#              |  If not stated otherwise all DRbar couplings and   |
#              |  soft SUSY breaking masses are given at the scale  |
#              |  Q=  0.16419669E+04
#              |                                                    |
#              ------------------------------------------------------
#
#
BLOCK DCINFO  # Decay Program information
     1   SDECAY/HDECAY # decay calculator
     2   1.5  /3.4    # version number
#
BLOCK SPINFO  # Spectrum calculator information
     1    SOFTSUSY    # spectrum calculator                
     2    3.7.3       # version number                     
#
BLOCK MODSEL  # Model selection
     1     0   #  nonUniversal                                     
#
BLOCK SMINPUTS  # Standard Model inputs
         1     1.27934000E+02   # alpha_em^-1(M_Z)^MSbar
         2     1.16639000E-05   # G_F [GeV^-2]
         3     1.17200000E-01   # alpha_S(M_Z)^MSbar
         4     9.11870000E+01   # M_Z pole mass
         5     4.19000000E+00   # mb(mb)^MSbar
         6     1.72500000E+02   # mt pole mass
         7     1.77690000E+00   # mtau pole mass
#
BLOCK MINPAR  # Input parameters - minimal models
         3     2.00000000E+01   # tanb                
#
BLOCK EXTPAR  # Input parameters - non-minimal models
         0    -1.00000000E+00   # Set                 
         1     2.49900000E+02   # M_1(MX)             
         2     4.99900000E+02   # M_2(MX)             
         3     2.20000000E+03   # M_3(MX)             
        11     2.94338000E+03   # At(MX)              
        12     0.00000000E+00   # Ab(MX)              
        13     0.00000000E+00   # Atau(MX)            
        23    -3.00000000E+03   # mu(MX)              
        25     2.00000000E+01   # tan                 
        26     3.00000000E+03   # mA(pole)            
        31     3.00000000E+03   # meL(MX)             
        32     3.00000000E+03   # mmuL(MX)            
        33     3.00000000E+03   # mtauL(MX)           
        34     3.00000000E+03   # meR(MX)             
        35     3.00000000E+03   # mmuR(MX)            
        36     3.00000000E+03   # mtauR(MX)           
        41     3.00000000E+03   # mqL1(MX)            
        42     3.00000000E+03   # mqL2(MX)            
        43     8.99900000E+02   # mqL3(MX)            
        44     3.00000000E+03   # muR(MX)             
        45     3.00000000E+03   # mcR(MX)             
        46     3.00000000E+03   # mtR(MX)             
        47     3.00000000E+03   # mdR(MX)             
        48     3.00000000E+03   # msR(MX)             
        49     3.00000000E+03   # mbR(MX)             
#
BLOCK MASS  # Mass Spectrum
# PDG code           mass       particle
        24     8.03998289E+01   # W+
        25     1.24942748E+02   # h
        35     3.00003385E+03   # H
        36     2.99999995E+03   # A
        37     3.00108822E+03   # H+
         5     4.81337004E+00   # b-quark pole mass calculated from mb(mb)_Msbar
   1000001     3.04038084E+03   # ~d_L
   2000001     3.03521392E+03   # ~d_R
   1000002     3.03947282E+03   # ~u_L
   2000002     3.03666326E+03   # ~u_R
   1000003     3.04038084E+03   # ~s_L
   2000003     3.03521392E+03   # ~s_R
   1000004     3.03947282E+03   # ~c_L
   2000004     3.03666326E+03   # ~c_R
   1000005     9.98809964E+02   # ~b_1
   2000005     3.03295758E+03   # ~b_2
   1000006     9.96636731E+02   # ~t_1
   2000006     3.02414492E+03   # ~t_2
   1000011     3.00647633E+03   # ~e_L
   2000011     3.00170326E+03   # ~e_R
   1000012     3.00508741E+03   # ~nu_eL
   1000013     3.00647633E+03   # ~mu_L
   2000013     3.00170326E+03   # ~mu_R
   1000014     3.00508741E+03   # ~nu_muL
   1000015     2.98607965E+03   # ~tau_1
   2000015     3.02169170E+03   # ~tau_2
   1000016     3.00497656E+03   # ~nu_tauL
   1000021     2.35014712E+03   # ~g
   1000022     2.51636740E+02   # ~chi_10
   1000023     5.30641154E+02   # ~chi_20
   1000025    -2.99593728E+03   # ~chi_30
   1000035     2.99612553E+03   # ~chi_40
   1000024     5.30804488E+02   # ~chi_1+
   1000037     2.99697161E+03   # ~chi_2+
#
BLOCK NMIX  # Neutralino Mixing Matrix
  1  1     9.99891052E-01   # N_11
  1  2     7.58941621E-05   # N_12
  1  3    -1.47524504E-02   # N_13
  1  4    -4.93364580E-04   # N_14
  2  1     3.15086066E-04   # N_21
  2  2     9.99646730E-01   # N_22
  2  3     2.63948089E-02   # N_23
  2  4     3.10314250E-03   # N_24
  3  1    -1.00810833E-02   # N_31
  3  2     1.64715926E-02   # N_32
  3  3    -7.06838411E-01   # N_33
  3  4     7.07111391E-01   # N_34
  4  1     1.07775898E-02   # N_41
  4  2    -2.08589449E-02   # N_42
  4  3     7.06728477E-01   # N_43
  4  4     7.07095190E-01   # N_44
#
BLOCK UMIX  # Chargino Mixing Matrix U
  1  1     9.99303309E-01   # U_11
  1  2     3.73215434E-02   # U_12
  2  1    -3.73215434E-02   # U_21
  2  2     9.99303309E-01   # U_22
#
BLOCK VMIX  # Chargino Mixing Matrix V
  1  1     9.99990379E-01   # V_11
  1  2    -4.38649199E-03   # V_12
  2  1    -4.38649199E-03   # V_21
  2  2    -9.99990379E-01   # V_22
#
BLOCK STOPMIX  # Stop Mixing Matrix
  1  1     9.98481878E-01   # cos(theta_t)
  1  2    -5.50812065E-02   # sin(theta_t)
  2  1     5.50812065E-02   # -sin(theta_t)
  2  2     9.98481878E-01   # cos(theta_t)
#
BLOCK SBOTMIX  # Sbottom Mixing Matrix
  1  1     9.99712557E-01   # cos(theta_b)
  1  2    -2.39750574E-02   # sin(theta_b)
  2  1     2.39750574E-02   # -sin(theta_b)
  2  2     9.99712557E-01   # cos(theta_b)
#
BLOCK STAUMIX  # Stau Mixing Matrix
  1  1    -7.06948755E-01   # cos(theta_tau)
  1  2     7.07264772E-01   # sin(theta_tau)
  2  1    -7.07264772E-01   # -sin(theta_tau)
  2  2    -7.06948755E-01   # cos(theta_tau)
#
BLOCK ALPHA  # Higgs mixing
          -5.00153539E-02   # Mixing angle in the neutral Higgs boson sector
#
BLOCK HMIX Q=  1.64196686E+03  # DRbar Higgs Parameters
         1    -3.00000000E+03   # mu(Q)MSSM           
         2     2.00000000E+01   # tan                 
         3     2.43891867E+02   # higgs               
         4     1.02750088E+07   # mA^2(Q)MSSM         
#
BLOCK GAUGE Q=  1.64196686E+03  # The gauge couplings
     1     3.62454933E-01   # gprime(Q) DRbar
     2     6.37757866E-01   # g(Q) DRbar
     3     1.02429481E+00   # g3(Q) DRbar
#
BLOCK AU Q=  1.64196686E+03  # The trilinear couplings
  1  1     2.56819747E-06   # A_u(Q) DRbar
  2  2     2.56823600E-06   # A_c(Q) DRbar
  3  3     2.94338000E+03   # A_t(Q) DRbar
#
BLOCK AD Q=  1.64196686E+03  # The trilinear couplings
  1  1     9.03704587E-07   # A_d(Q) DRbar
  2  2     9.03811624E-07   # A_s(Q) DRbar
  3  3     1.85009193E-06   # A_b(Q) DRbar
#
BLOCK AE Q=  1.64196686E+03  # The trilinear couplings
  1  1     3.92810039E-07   # A_e(Q) DRbar
  2  2     3.92829393E-07   # A_mu(Q) DRbar
  3  3     3.98283018E-07   # A_tau(Q) DRbar
#
BLOCK Yu Q=  1.64196686E+03  # The Yukawa couplings
  1  1     0.00000000E+00   # y_u(Q) DRbar
  2  2     0.00000000E+00   # y_c(Q) DRbar
  3  3     8.50708308E-01   # y_t(Q) DRbar
#
BLOCK Yd Q=  1.64196686E+03  # The Yukawa couplings
  1  1     0.00000000E+00   # y_d(Q) DRbar
  2  2     0.00000000E+00   # y_s(Q) DRbar
  3  3     3.80210393E-01   # y_b(Q) DRbar
#
BLOCK Ye Q=  1.64196686E+03  # The Yukawa couplings
  1  1     0.00000000E+00   # y_e(Q) DRbar
  2  2     0.00000000E+00   # y_mu(Q) DRbar
  3  3     2.02060042E-01   # y_tau(Q) DRbar
#
BLOCK MSOFT Q=  1.64196686E+03  # The soft SUSY breaking masses at the scale Q
         1     2.49900000E+02   # M_1(Q)              
         2     4.99900000E+02   # M_2(Q)              
         3     2.20000000E+03   # M_3(Q)              
        21    -3.82848679E+04   # M^2_Hd              
        22    -9.03535024E+06   # M^2_Hu              
        31     3.00000000E+03   # M_eL                
        32     3.00000000E+03   # M_muL               
        33     3.00000000E+03   # M_tauL              
        34     3.00000000E+03   # M_eR                
        35     3.00000000E+03   # M_muR               
        36     3.00000000E+03   # M_tauR              
        41     3.00000000E+03   # M_q1L               
        42     3.00000000E+03   # M_q2L               
        43     8.99899993E+02   # M_q3L               
        44     3.00000000E+03   # M_uR                
        45     3.00000000E+03   # M_cR                
        46     3.00000000E+03   # M_tR                
        47     3.00000000E+03   # M_dR                
        48     3.00000000E+03   # M_sR                
        49     3.00000000E+03   # M_bR                
#
#
#
#                             =================
#                             |The decay table|
#                             =================
#
# - The QCD corrections to the decays gluino -> squark  + quark
#                                     squark -> gaugino + quark_prime
#                                     squark -> squark_prime + Higgs
#                                     squark -> gluino  + quark
#   are included.
#
# - The multi-body decays for the inos, stops and sbottoms are included.
#
# - The loop induced decays for the gluino, neutralinos and stops
#   are included.
#
# - The SUSY decays of the top quark are included.
#
#
#         PDG            Width
DECAY         6     1.41186298E+00   # top decays
#          BR         NDA      ID1       ID2
     1.00000000E+00    2           5        24   # BR(t ->  b    W+)
#
#         PDG            Width
DECAY   1000021     6.42097006E+01   # gluino decays
#          BR         NDA      ID1       ID2
     2.47915116E-01    2     1000005        -5   # BR(~g -> ~b_1  bb)
     2.47915116E-01    2    -1000005         5   # BR(~g -> ~b_1* b )
     2.52084884E-01    2     1000006        -6   # BR(~g -> ~t_1  tb)
     2.52084884E-01    2    -1000006         6   # BR(~g -> ~t_1* t )
#
#         PDG            Width
DECAY   1000006     6.25292315E+00   # stop1 decays
#          BR         NDA      ID1       ID2
     1.96343412E-02    2     1000022         6   # BR(~t_1 -> ~chi_10 t )
     3.02581891E-01    2     1000023         6   # BR(~t_1 -> ~chi_20 t )
     6.77783768E-01    2     1000024         5   # BR(~t_1 -> ~chi_1+ b )
#
#         PDG            Width
DECAY   2000006     1.12727795E+02   # stop2 decays
#          BR         NDA      ID1       ID2
     5.81383405E-02    2     1000022         6   # BR(~t_2 -> ~chi_10 t )
     3.25684969E-04    2     1000023         6   # BR(~t_2 -> ~chi_20 t )
     0.00000000E+00    2     1000025         6   # BR(~t_2 -> ~chi_30 t )
     6.55005712E-04    2     1000024         5   # BR(~t_2 -> ~chi_1+ b )
     1.33125523E-04    2     1000037         5   # BR(~t_2 -> ~chi_2+ b )
     3.00040994E-01    2     1000021         6   # BR(~t_2 -> ~g      t )
     1.67166458E-01    2     1000006        25   # BR(~t_2 -> ~t_1    h )
     1.60134829E-01    2     1000006        23   # BR(~t_2 -> ~t_1    Z )
     3.13405562E-01    2     1000005        24   # BR(~t_2 -> ~b_1    W+)
#
#         PDG            Width
DECAY   1000005     6.08842346E+00   # sbottom1 decays
#          BR         NDA      ID1       ID2
     2.16972551E-02    2     1000022         5   # BR(~b_1 -> ~chi_10 b )
     3.51190966E-01    2     1000023         5   # BR(~b_1 -> ~chi_20 b )
     6.27111779E-01    2    -1000024         6   # BR(~b_1 -> ~chi_1- t )
#
#         PDG            Width
DECAY   2000005     5.32159088E+01   # sbottom2 decays
#          BR         NDA      ID1       ID2
     3.10494123E-02    2     1000022         5   # BR(~b_2 -> ~chi_10 b )
     3.13098866E-07    2     1000023         5   # BR(~b_2 -> ~chi_20 b )
     5.16975452E-05    2     1000025         5   # BR(~b_2 -> ~chi_30 b )
     5.04790259E-05    2     1000035         5   # BR(~b_2 -> ~chi_40 b )
     4.44634195E-07    2    -1000024         6   # BR(~b_2 -> ~chi_1- t )
     6.52238178E-01    2     1000021         5   # BR(~b_2 -> ~g      b )
     7.02124174E-02    2     1000005        25   # BR(~b_2 -> ~b_1    h )
     1.00517365E-01    2     1000005        23   # BR(~b_2 -> ~b_1    Z )
     1.45879693E-01    2     1000006       -24   # BR(~b_2 -> ~t_1    W-)
#
#         PDG            Width
DECAY   1000002     6.87220427E+01   # sup_L decays
#          BR         NDA      ID1       ID2
     6.03917041E-03    2     1000022         2   # BR(~u_L -> ~chi_10 u)
     1.60491429E-01    2     1000023         2   # BR(~u_L -> ~chi_20 u)
     3.35387218E-08    2     1000025         2   # BR(~u_L -> ~chi_30 u)
     5.55359392E-08    2     1000035         2   # BR(~u_L -> ~chi_40 u)
     3.21153140E-01    2     1000024         1   # BR(~u_L -> ~chi_1+ d)
     5.80915781E-09    2     1000037         1   # BR(~u_L -> ~chi_2+ d)
     5.12316165E-01    2     1000021         2   # BR(~u_L -> ~g      u)
#
#         PDG            Width
DECAY   2000002     4.16101227E+01   # sup_R decays
#          BR         NDA      ID1       ID2
     1.59302627E-01    2     1000022         2   # BR(~u_R -> ~chi_10 u)
     1.51033824E-08    2     1000023         2   # BR(~u_R -> ~chi_20 u)
     1.34042887E-08    2     1000025         2   # BR(~u_R -> ~chi_30 u)
     1.51832940E-08    2     1000035         2   # BR(~u_R -> ~chi_40 u)
     8.40697329E-01    2     1000021         2   # BR(~u_R -> ~g      u)
#
#         PDG            Width
DECAY   1000001     6.87730350E+01   # sdown_L decays
#          BR         NDA      ID1       ID2
     6.02692664E-03    2     1000022         1   # BR(~d_L -> ~chi_10 d)
     1.60389224E-01    2     1000023         1   # BR(~d_L -> ~chi_20 d)
     5.55678181E-08    2     1000025         1   # BR(~d_L -> ~chi_30 d)
     8.55434701E-08    2     1000035         1   # BR(~d_L -> ~chi_40 d)
     3.20584308E-01    2    -1000024         2   # BR(~d_L -> ~chi_1- u)
     4.37694439E-07    2    -1000037         2   # BR(~d_L -> ~chi_2- u)
     5.12998963E-01    2     1000021         1   # BR(~d_L -> ~g      d)
#
#         PDG            Width
DECAY   2000001     3.65214450E+01   # sdown_R decays
#          BR         NDA      ID1       ID2
     4.53518911E-02    2     1000022         1   # BR(~d_R -> ~chi_10 d)
     4.29958720E-09    2     1000023         1   # BR(~d_R -> ~chi_20 d)
     3.56019403E-09    2     1000025         1   # BR(~d_R -> ~chi_30 d)
     4.03134938E-09    2     1000035         1   # BR(~d_R -> ~chi_40 d)
     9.54648097E-01    2     1000021         1   # BR(~d_R -> ~g      d)
#
#         PDG            Width
DECAY   1000004     6.87220427E+01   # scharm_L decays
#          BR         NDA      ID1       ID2
     6.03917041E-03    2     1000022         4   # BR(~c_L -> ~chi_10 c)
     1.60491429E-01    2     1000023         4   # BR(~c_L -> ~chi_20 c)
     3.35387218E-08    2     1000025         4   # BR(~c_L -> ~chi_30 c)
     5.55359392E-08    2     1000035         4   # BR(~c_L -> ~chi_40 c)
     3.21153140E-01    2     1000024         3   # BR(~c_L -> ~chi_1+ s)
     5.80915781E-09    2     1000037         3   # BR(~c_L -> ~chi_2+ s)
     5.12316165E-01    2     1000021         4   # BR(~c_L -> ~g      c)
#
#         PDG            Width
DECAY   2000004     4.16101227E+01   # scharm_R decays
#          BR         NDA      ID1       ID2
     1.59302627E-01    2     1000022         4   # BR(~c_R -> ~chi_10 c)
     1.51033824E-08    2     1000023         4   # BR(~c_R -> ~chi_20 c)
     1.34042887E-08    2     1000025         4   # BR(~c_R -> ~chi_30 c)
     1.51832940E-08    2     1000035         4   # BR(~c_R -> ~chi_40 c)
     8.40697329E-01    2     1000021         4   # BR(~c_R -> ~g      c)
#
#         PDG            Width
DECAY   1000003     6.87730350E+01   # sstrange_L decays
#          BR         NDA      ID1       ID2
     6.02692664E-03    2     1000022         3   # BR(~s_L -> ~chi_10 s)
     1.60389224E-01    2     1000023         3   # BR(~s_L -> ~chi_20 s)
     5.55678181E-08    2     1000025         3   # BR(~s_L -> ~chi_30 s)
     8.55434701E-08    2     1000035         3   # BR(~s_L -> ~chi_40 s)
     3.20584308E-01    2    -1000024         4   # BR(~s_L -> ~chi_1- c)
     4.37694439E-07    2    -1000037         4   # BR(~s_L -> ~chi_2- c)
     5.12998963E-01    2     1000021         3   # BR(~s_L -> ~g      s)
#
#         PDG            Width
DECAY   2000003     3.65214450E+01   # sstrange_R decays
#          BR         NDA      ID1       ID2
     4.53518911E-02    2     1000022         3   # BR(~s_R -> ~chi_10 s)
     4.29958720E-09    2     1000023         3   # BR(~s_R -> ~chi_20 s)
     3.56019403E-09    2     1000025         3   # BR(~s_R -> ~chi_30 s)
     4.03134938E-09    2     1000035         3   # BR(~s_R -> ~chi_40 s)
     9.54648097E-01    2     1000021         3   # BR(~s_R -> ~g      s)
#
#         PDG            Width
DECAY   1000011     3.80907812E+01   # selectron_L decays
#          BR         NDA      ID1       ID2
     1.01709432E-01    2     1000022        11   # BR(~e_L -> ~chi_10 e-)
     2.99646810E-01    2     1000023        11   # BR(~e_L -> ~chi_20 e-)
     1.80494173E-09    2     1000025        11   # BR(~e_L -> ~chi_30 e-)
     3.27545860E-09    2     1000035        11   # BR(~e_L -> ~chi_40 e-)
     5.98643718E-01    2    -1000024        12   # BR(~e_L -> ~chi_1- nu_e)
     3.54525836E-08    2    -1000037        12   # BR(~e_L -> ~chi_2- nu_e)
#
#         PDG            Width
DECAY   2000011     1.54673392E+01   # selectron_R decays
#          BR         NDA      ID1       ID2
     9.99999902E-01    2     1000022        11   # BR(~e_R -> ~chi_10 e-)
     9.45150768E-08    2     1000023        11   # BR(~e_R -> ~chi_20 e-)
     1.51869592E-09    2     1000025        11   # BR(~e_R -> ~chi_30 e-)
     1.62441015E-09    2     1000035        11   # BR(~e_R -> ~chi_40 e-)
#
#         PDG            Width
DECAY   1000013     3.80907812E+01   # smuon_L decays
#          BR         NDA      ID1       ID2
     1.01709432E-01    2     1000022        13   # BR(~mu_L -> ~chi_10 mu-)
     2.99646810E-01    2     1000023        13   # BR(~mu_L -> ~chi_20 mu-)
     1.80494173E-09    2     1000025        13   # BR(~mu_L -> ~chi_30 mu-)
     3.27545860E-09    2     1000035        13   # BR(~mu_L -> ~chi_40 mu-)
     5.98643718E-01    2    -1000024        14   # BR(~mu_L -> ~chi_1- nu_mu)
     3.54525836E-08    2    -1000037        14   # BR(~mu_L -> ~chi_2- nu_mu)
#
#         PDG            Width
DECAY   2000013     1.54673392E+01   # smuon_R decays
#          BR         NDA      ID1       ID2
     9.99999902E-01    2     1000022        13   # BR(~mu_R -> ~chi_10 mu-)
     9.45150768E-08    2     1000023        13   # BR(~mu_R -> ~chi_20 mu-)
     1.51869592E-09    2     1000025        13   # BR(~mu_R -> ~chi_30 mu-)
     1.62441015E-09    2     1000035        13   # BR(~mu_R -> ~chi_40 mu-)
#
#         PDG            Width
DECAY   1000015     2.70374396E+01   # stau_1 decays
#          BR         NDA      ID1       ID2
     3.57389848E-01    2     1000022        15   # BR(~tau_1 -> ~chi_10  tau-)
     2.14376216E-01    2     1000023        15   # BR(~tau_1 -> ~chi_20  tau-)
     4.28233936E-01    2    -1000024        16   # BR(~tau_1 -> ~chi_1-  nu_tau)
#
#         PDG            Width
DECAY   2000015     2.64981838E+01   # stau_2 decays
#          BR         NDA      ID1       ID2
     3.65579692E-01    2     1000022        15   # BR(~tau_2 -> ~chi_10  tau-)
     2.11635032E-01    2     1000023        15   # BR(~tau_2 -> ~chi_20  tau-)
     1.52283412E-05    2     1000025        15   # BR(~tau_2 -> ~chi_30  tau-)
     1.32580565E-05    2     1000035        15   # BR(~tau_2 -> ~chi_40  tau-)
     4.22741450E-01    2    -1000024        16   # BR(~tau_2 -> ~chi_1-  nu_tau)
     1.53400214E-05    2    -1000037        16   # BR(~tau_2 -> ~chi_2-  nu_tau)
#
#         PDG            Width
DECAY   1000012     3.80922094E+01   # snu_eL decays
#          BR         NDA      ID1       ID2
     1.01603014E-01    2     1000022        12   # BR(~nu_eL -> ~chi_10 nu_e)
     2.99264831E-01    2     1000023        12   # BR(~nu_eL -> ~chi_20 nu_e)
     5.81637650E-09    2     1000025        12   # BR(~nu_eL -> ~chi_30 nu_e)
     8.24323637E-09    2     1000035        12   # BR(~nu_eL -> ~chi_40 nu_e)
     5.99132141E-01    2     1000024        11   # BR(~nu_eL -> ~chi_1+ e-)
     3.57381592E-10    2     1000037        11   # BR(~nu_eL -> ~chi_2+ e-)
#
#         PDG            Width
DECAY   1000014     3.80922094E+01   # snu_muL decays
#          BR         NDA      ID1       ID2
     1.01603014E-01    2     1000022        14   # BR(~nu_muL -> ~chi_10 nu_mu)
     2.99264831E-01    2     1000023        14   # BR(~nu_muL -> ~chi_20 nu_mu)
     5.81637650E-09    2     1000025        14   # BR(~nu_muL -> ~chi_30 nu_mu)
     8.24323637E-09    2     1000035        14   # BR(~nu_muL -> ~chi_40 nu_mu)
     5.99132141E-01    2     1000024        13   # BR(~nu_muL -> ~chi_1+ mu-)
     3.57381592E-10    2     1000037        13   # BR(~nu_muL -> ~chi_2+ mu-)
#
#         PDG            Width
DECAY   1000016     3.80939948E+01   # snu_tauL decays
#          BR         NDA      ID1       ID2
     1.01594398E-01    2     1000022        16   # BR(~nu_tauL -> ~chi_10 nu_tau)
     2.99238345E-01    2     1000023        16   # BR(~nu_tauL -> ~chi_20 nu_tau)
     5.67645660E-09    2     1000025        16   # BR(~nu_tauL -> ~chi_30 nu_tau)
     8.04079133E-09    2     1000035        16   # BR(~nu_tauL -> ~chi_40 nu_tau)
     5.99165487E-01    2     1000024        15   # BR(~nu_tauL -> ~chi_1+ tau-)
     1.75555630E-06    2     1000037        15   # BR(~nu_tauL -> ~chi_2+ tau-)
#
#         PDG            Width
DECAY   1000024     4.71697972E-06   # chargino1+ decays
#          BR         NDA      ID1       ID2
     1.00000000E+00    2     1000022        24   # BR(~chi_1+ -> ~chi_10  W+)
#
#         PDG            Width
DECAY   1000037     8.65683277E+01   # chargino2+ decays
#          BR         NDA      ID1       ID2
     1.32673000E-01    2     1000006        -5   # BR(~chi_2+ -> ~t_1     bb)
     6.52842051E-01    2    -1000005         6   # BR(~chi_2+ -> ~b_1*    t )
     2.87725398E-07    2    -1000015        16   # BR(~chi_2+ -> ~tau_1+  nu_tau)
     6.41181986E-02    2     1000024        23   # BR(~chi_2+ -> ~chi_1+  Z )
     2.07384865E-02    2     1000022        24   # BR(~chi_2+ -> ~chi_10  W+)
     6.24105506E-02    2     1000023        24   # BR(~chi_2+ -> ~chi_20  W+)
     6.72174256E-02    2     1000024        25   # BR(~chi_2+ -> ~chi_1+  h )
#
#         PDG            Width
DECAY   1000022     0.00000000E+00   # neutralino1 decays
#
#         PDG            Width
DECAY   1000023     4.69985377E-06   # neutralino2 decays
#          BR         NDA      ID1       ID2
     8.05551332E-01    2     1000022        23   # BR(~chi_20 -> ~chi_10   Z )
     1.94448668E-01    2     1000022        25   # BR(~chi_20 -> ~chi_10   h )
#
#         PDG            Width
DECAY   1000025     8.67830073E+01   # neutralino3 decays
#          BR         NDA      ID1       ID2
     1.13333789E-02    2     1000022        23   # BR(~chi_30 -> ~chi_10   Z )
     3.93651482E-02    2     1000023        23   # BR(~chi_30 -> ~chi_20   Z )
     6.22339027E-02    2     1000024       -24   # BR(~chi_30 -> ~chi_1+   W-)
     6.22339027E-02    2    -1000024        24   # BR(~chi_30 -> ~chi_1-   W+)
     1.02897033E-02    2     1000022        25   # BR(~chi_30 -> ~chi_10   h )
     2.50520978E-02    2     1000023        25   # BR(~chi_30 -> ~chi_20   h )
     3.29583851E-01    2     1000006        -6   # BR(~chi_30 -> ~t_1      tb)
     3.29583851E-01    2    -1000006         6   # BR(~chi_30 -> ~t_1*     t )
     6.51617549E-02    2     1000005        -5   # BR(~chi_30 -> ~b_1      bb)
     6.51617549E-02    2    -1000005         5   # BR(~chi_30 -> ~b_1*     b )
     3.26927687E-07    2     1000015       -15   # BR(~chi_30 -> ~tau_1-   tau+)
     3.26927687E-07    2    -1000015        15   # BR(~chi_30 -> ~tau_1+   tau-)
#
#         PDG            Width
DECAY   1000035     8.58232409E+01   # neutralino4 decays
#          BR         NDA      ID1       ID2
     1.00323717E-02    2     1000022        23   # BR(~chi_40 -> ~chi_10   Z )
     2.48614368E-02    2     1000023        23   # BR(~chi_40 -> ~chi_20   Z )
     6.29481306E-02    2     1000024       -24   # BR(~chi_40 -> ~chi_1+   W-)
     6.29481306E-02    2    -1000024        24   # BR(~chi_40 -> ~chi_1-   W+)
     1.19339476E-02    2     1000022        25   # BR(~chi_40 -> ~chi_10   h )
     4.24732747E-02    2     1000023        25   # BR(~chi_40 -> ~chi_20   h )
     3.26507197E-01    2     1000006        -6   # BR(~chi_40 -> ~t_1      tb)
     3.26507197E-01    2    -1000006         6   # BR(~chi_40 -> ~t_1*     t )
     6.58939215E-02    2     1000005        -5   # BR(~chi_40 -> ~b_1      bb)
     6.58939215E-02    2    -1000005         5   # BR(~chi_40 -> ~b_1*     b )
     2.35614807E-07    2     1000015       -15   # BR(~chi_40 -> ~tau_1-   tau+)
     2.35614807E-07    2    -1000015        15   # BR(~chi_40 -> ~tau_1+   tau-)
#
#         PDG            Width
DECAY        25     3.61087733E-03   # h decays
#          BR         NDA      ID1       ID2
     5.64468039E-01    2           5        -5   # BR(h -> b       bb     )
     7.17802343E-02    2         -15        15   # BR(h -> tau+    tau-   )
     2.54104438E-04    2         -13        13   # BR(h -> mu+     mu-    )
     5.39387542E-04    2           3        -3   # BR(h -> s       sb     )
     2.34369049E-02    2           4        -4   # BR(h -> c       cb     )
     7.60367690E-02    2          21        21   # BR(h -> g       g      )
     2.60076603E-03    2          22        22   # BR(h -> gam     gam    )
     1.72165038E-03    2          22        23   # BR(h -> Z       gam    )
     2.30383392E-01    2          24       -24   # BR(h -> W+      W-     )
     2.87787526E-02    2          23        23   # BR(h -> Z       Z      )
#
#         PDG            Width
DECAY        35     3.50734152E+01   # H decays
#          BR         NDA      ID1       ID2
     8.95890904E-01    2           5        -5   # BR(H -> b       bb     )
     7.09005495E-02    2         -15        15   # BR(H -> tau+    tau-   )
     2.50687400E-04    2         -13        13   # BR(H -> mu+     mu-    )
     3.07845582E-04    2           3        -3   # BR(H -> s       sb     )
     8.62907905E-08    2           4        -4   # BR(H -> c       cb     )
     8.60805590E-03    2           6        -6   # BR(H -> t       tb     )
     1.21991481E-05    2          21        21   # BR(H -> g       g      )
     5.91533691E-08    2          22        22   # BR(H -> gam     gam    )
     3.52354842E-09    2          23        22   # BR(H -> Z       gam    )
     8.16074867E-07    2          24       -24   # BR(H -> W+      W-     )
     4.07534257E-07    2          23        23   # BR(H -> Z       Z      )
     5.96635241E-06    2          25        25   # BR(H -> h       h      )
     1.26915322E-24    2          36        36   # BR(H -> A       A      )
     1.17492441E-19    2          23        36   # BR(H -> Z       A      )
     8.34777185E-04    2     1000024  -1000024   # BR(H -> ~chi_1+ ~chi_1-)
     4.33480125E-05    2     1000022   1000022   # BR(H -> ~chi_10 ~chi_10)
     4.17162925E-04    2     1000023   1000023   # BR(H -> ~chi_20 ~chi_20)
     2.72220229E-04    2     1000022   1000023   # BR(H -> ~chi_10 ~chi_20)
     2.24497499E-02    2     1000006  -1000006   # BR(H -> ~t_1    ~t_1*  )
     5.16122623E-06    2     1000005  -1000005   # BR(H -> ~b_1    ~b_1*  )
#
#         PDG            Width
DECAY        36     3.42947993E+01   # A decays
#          BR         NDA      ID1       ID2
     9.16265981E-01    2           5        -5   # BR(A -> b       bb     )
     7.25099439E-02    2         -15        15   # BR(A -> tau+    tau-   )
     2.56377476E-04    2         -13        13   # BR(A -> mu+     mu-    )
     3.14884778E-04    2           3        -3   # BR(A -> s       sb     )
     8.88560209E-08    2           4        -4   # BR(A -> c       cb     )
     8.85907992E-03    2           6        -6   # BR(A -> t       tb     )
     2.60891425E-05    2          21        21   # BR(A -> g       g      )
     6.96481624E-08    2          22        22   # BR(A -> gam     gam    )
     2.56944679E-08    2          23        22   # BR(A -> Z       gam    )
     8.31503661E-07    2          23        25   # BR(A -> Z       h      )
     9.53259630E-04    2     1000024  -1000024   # BR(A -> ~chi_1+ ~chi_1-)
     4.53113649E-05    2     1000022   1000022   # BR(A -> ~chi_10 ~chi_10)
     4.76319228E-04    2     1000023   1000023   # BR(A -> ~chi_20 ~chi_20)
     2.91737972E-04    2     1000022   1000023   # BR(A -> ~chi_10 ~chi_20)
#
#         PDG            Width
DECAY        37     3.76283009E+01   # H+ decays
#          BR         NDA      ID1       ID2
     1.46233585E-03    2           4        -5   # BR(H+ -> c       bb     )
     6.61102412E-02    2         -15        16   # BR(H+ -> tau+    nu_tau )
     2.33749688E-04    2         -13        14   # BR(H+ -> mu+     nu_mu  )
     9.35893787E-06    2           2        -5   # BR(H+ -> u       bb     )
     1.37368731E-05    2           2        -3   # BR(H+ -> u       sb     )
     2.82611653E-04    2           4        -3   # BR(H+ -> c       sb     )
     9.20556206E-01    2           6        -5   # BR(H+ -> t       bb     )
     7.59140685E-07    2          24        25   # BR(H+ -> W+      h      )
     5.33748036E-14    2          24        36   # BR(H+ -> W+      A      )
     5.19788438E-04    2     1000024   1000022   # BR(H+ -> ~chi_1+ ~chi_10)
     4.82692346E-11    2     1000024   1000023   # BR(H+ -> ~chi_1+ ~chi_20)
     1.08112126E-02    2     1000006  -1000005   # BR(H+ -> ~t_1    ~b_1*  )
