#
#                              ======================
#                              | THE SUSYHIT OUTPUT |
#                              ======================
#
#
#              ------------------------------------------------------
#              |     This is the output of the SUSY-HIT package     |
#              |  created by A.Djouadi, M.Muehlleitner and M.Spira. |
#              |  In case of problems with SUSY-HIT email to        |
#              |           margarete.muehlleitner@kit.edu           |
#              |           michael.spira@psi.ch                     |
#              |           abdelhak.djouadi@cern.ch                 |
#              ------------------------------------------------------
#
#              ------------------------------------------------------
#              |  SUSY Les Houches Accord - MSSM Spectrum + Decays  |
#              |              based on the decay programs           |
#              |                                                    |
#              |                     SDECAY 1.5                     |
#              |                                                    |
#              |  Authors: M.Muhlleitner, A.Djouadi and Y.Mambrini  |
#              |  Ref.:    Comput.Phys.Commun.168(2005)46           |
#              |           [hep-ph/0311167]                         |
#              |                                                    |
#              |                     HDECAY 3.4                     |
#              |                                                    |
#              |  By: A.Djouadi,J.Kalinowski,M.Muhlleitner,M.Spira  |
#              |  Ref.:    Comput.Phys.Commun.108(1998)56           |
#              |           [hep-ph/9704448]                         |
#              |                                                    |
#              |                                                    |
#              |  If not stated otherwise all DRbar couplings and   |
#              |  soft SUSY breaking masses are given at the scale  |
#              |  Q=  0.12203540E+04
#              |                                                    |
#              ------------------------------------------------------
#
#
BLOCK DCINFO  # Decay Program information
     1   SDECAY/HDECAY # decay calculator
     2   1.5  /3.4    # version number
#
BLOCK SPINFO  # Spectrum calculator information
     1    SOFTSUSY    # spectrum calculator                
     2    3.7.3       # version number                     
#
BLOCK MODSEL  # Model selection
     1     0   #  nonUniversal                                     
#
BLOCK SMINPUTS  # Standard Model inputs
         1     1.27934000E+02   # alpha_em^-1(M_Z)^MSbar
         2     1.16639000E-05   # G_F [GeV^-2]
         3     1.17200000E-01   # alpha_S(M_Z)^MSbar
         4     9.11870000E+01   # M_Z pole mass
         5     4.19000000E+00   # mb(mb)^MSbar
         6     1.72500000E+02   # mt pole mass
         7     1.77690000E+00   # mtau pole mass
#
BLOCK MINPAR  # Input parameters - minimal models
         3     2.00000000E+01   # tanb                
#
BLOCK EXTPAR  # Input parameters - non-minimal models
         0    -1.00000000E+00   # Set                 
         1     2.49900000E+02   # M_1(MX)             
         2     4.99900000E+02   # M_2(MX)             
         3     2.20000000E+03   # M_3(MX)             
        11     2.94338000E+03   # At(MX)              
        12     0.00000000E+00   # Ab(MX)              
        13     0.00000000E+00   # Atau(MX)            
        23    -3.00000000E+03   # mu(MX)              
        25     2.00000000E+01   # tan                 
        26     3.00000000E+03   # mA(pole)            
        31     3.00000000E+03   # meL(MX)             
        32     3.00000000E+03   # mmuL(MX)            
        33     3.00000000E+03   # mtauL(MX)           
        34     3.00000000E+03   # meR(MX)             
        35     3.00000000E+03   # mmuR(MX)            
        36     3.00000000E+03   # mtauR(MX)           
        41     3.00000000E+03   # mqL1(MX)            
        42     3.00000000E+03   # mqL2(MX)            
        43     4.99900000E+02   # mqL3(MX)            
        44     3.00000000E+03   # muR(MX)             
        45     3.00000000E+03   # mcR(MX)             
        46     3.00000000E+03   # mtR(MX)             
        47     3.00000000E+03   # mdR(MX)             
        48     3.00000000E+03   # msR(MX)             
        49     3.00000000E+03   # mbR(MX)             
#
BLOCK MASS  # Mass Spectrum
# PDG code           mass       particle
        24     8.04019565E+01   # W+
        25     1.26081636E+02   # h
        35     3.00018761E+03   # H
        36     3.00000000E+03   # A
        37     3.00110032E+03   # H+
         5     4.81337004E+00   # b-quark pole mass calculated from mb(mb)_Msbar
   1000001     3.02334248E+03   # ~d_L
   2000001     3.01804650E+03   # ~d_R
   1000002     3.02242855E+03   # ~u_L
   2000002     3.02125575E+03   # ~u_R
   1000003     3.02334248E+03   # ~s_L
   2000003     3.01804650E+03   # ~s_R
   1000004     3.02242855E+03   # ~c_L
   2000004     3.02125575E+03   # ~c_R
   1000005     5.78330645E+02   # ~b_1
   2000005     3.01925704E+03   # ~b_2
   1000006     5.74398659E+02   # ~t_1
   2000006     3.02004853E+03   # ~t_2
   1000011     3.00715505E+03   # ~e_L
   2000011     2.99989587E+03   # ~e_R
   1000012     3.00576705E+03   # ~nu_eL
   1000013     3.00715505E+03   # ~mu_L
   2000013     2.99989587E+03   # ~mu_R
   1000014     3.00576705E+03   # ~nu_muL
   1000015     2.98628618E+03   # ~tau_1
   2000015     3.02217906E+03   # ~tau_2
   1000016     3.00625796E+03   # ~nu_tauL
   1000021     2.32897163E+03   # ~g
   1000022     2.52950216E+02   # ~chi_10
   1000023     5.28574775E+02   # ~chi_20
   1000025    -3.00652275E+03   # ~chi_30
   1000035     3.00667901E+03   # ~chi_40
   1000024     5.28729835E+02   # ~chi_1+
   1000037     3.00753881E+03   # ~chi_2+
#
BLOCK NMIX  # Neutralino Mixing Matrix
  1  1     9.99891119E-01   # N_11
  1  2     7.60099834E-05   # N_12
  1  3    -1.47479463E-02   # N_13
  1  4    -4.93213917E-04   # N_14
  2  1     3.15566465E-04   # N_21
  2  2     9.99645435E-01   # N_22
  2  3     2.64431276E-02   # N_23
  2  4     3.10881862E-03   # N_24
  3  1    -1.00779993E-02   # N_31
  3  2     1.65017504E-02   # N_32
  3  3    -7.06837731E-01   # N_33
  3  4     7.07111411E-01   # N_34
  4  1     1.07742891E-02   # N_41
  4  2    -2.08971239E-02   # N_42
  4  3     7.06727445E-01   # N_43
  4  4     7.07095145E-01   # N_44
#
BLOCK UMIX  # Chargino Mixing Matrix U
  1  1     9.99300756E-01   # U_11
  1  2     3.73898128E-02   # U_12
  2  1    -3.73898128E-02   # U_21
  2  2     9.99300756E-01   # U_22
#
BLOCK VMIX  # Chargino Mixing Matrix V
  1  1     9.99990344E-01   # V_11
  1  2    -4.39450480E-03   # V_12
  2  1    -4.39450480E-03   # V_21
  2  2    -9.99990344E-01   # V_22
#
BLOCK STOPMIX  # Stop Mixing Matrix
  1  1     9.98640153E-01   # cos(theta_t)
  1  2    -5.21329533E-02   # sin(theta_t)
  2  1     5.21329533E-02   # -sin(theta_t)
  2  2     9.98640153E-01   # cos(theta_t)
#
BLOCK SBOTMIX  # Sbottom Mixing Matrix
  1  1     9.99725293E-01   # cos(theta_b)
  1  2    -2.34379721E-02   # sin(theta_b)
  2  1     2.34379721E-02   # -sin(theta_b)
  2  2     9.99725293E-01   # cos(theta_b)
#
BLOCK STAUMIX  # Stau Mixing Matrix
  1  1    -7.06927333E-01   # cos(theta_tau)
  1  2     7.07286184E-01   # sin(theta_tau)
  2  1    -7.07286184E-01   # -sin(theta_tau)
  2  2    -7.06927333E-01   # cos(theta_tau)
#
BLOCK ALPHA  # Higgs mixing
          -5.00139191E-02   # Mixing angle in the neutral Higgs boson sector
#
BLOCK HMIX Q=  1.22035405E+03  # DRbar Higgs Parameters
         1    -3.00000000E+03   # mu(Q)MSSM           
         2     2.00000000E+01   # tan                 
         3     2.44487413E+02   # higgs               
         4     1.15740980E+07   # mA^2(Q)MSSM         
#
BLOCK GAUGE Q=  1.22035405E+03  # The gauge couplings
     1     3.61461791E-01   # gprime(Q) DRbar
     2     6.37369787E-01   # g(Q) DRbar
     3     1.03095440E+00   # g3(Q) DRbar
#
BLOCK AU Q=  1.22035405E+03  # The trilinear couplings
  1  1     1.38097043E-06   # A_u(Q) DRbar
  2  2     1.38099154E-06   # A_c(Q) DRbar
  3  3     2.94338000E+03   # A_t(Q) DRbar
#
BLOCK AD Q=  1.22035405E+03  # The trilinear couplings
  1  1     4.94321574E-07   # A_d(Q) DRbar
  2  2     4.94379609E-07   # A_s(Q) DRbar
  3  3     1.01345480E-06   # A_b(Q) DRbar
#
BLOCK AE Q=  1.22035405E+03  # The trilinear couplings
  1  1     2.24728268E-07   # A_e(Q) DRbar
  2  2     2.24739300E-07   # A_mu(Q) DRbar
  3  3     2.27846357E-07   # A_tau(Q) DRbar
#
BLOCK Yu Q=  1.22035405E+03  # The Yukawa couplings
  1  1     0.00000000E+00   # y_u(Q) DRbar
  2  2     0.00000000E+00   # y_c(Q) DRbar
  3  3     8.57706027E-01   # y_t(Q) DRbar
#
BLOCK Yd Q=  1.22035405E+03  # The Yukawa couplings
  1  1     0.00000000E+00   # y_d(Q) DRbar
  2  2     0.00000000E+00   # y_s(Q) DRbar
  3  3     3.96129125E-01   # y_b(Q) DRbar
#
BLOCK Ye Q=  1.22035405E+03  # The Yukawa couplings
  1  1     0.00000000E+00   # y_e(Q) DRbar
  2  2     0.00000000E+00   # y_mu(Q) DRbar
  3  3     2.01877815E-01   # y_tau(Q) DRbar
#
BLOCK MSOFT Q=  1.22035405E+03  # The soft SUSY breaking masses at the scale Q
         1     2.49900000E+02   # M_1(Q)              
         2     4.99900000E+02   # M_2(Q)              
         3     2.20000000E+03   # M_3(Q)              
        21    -6.18878088E+04   # M^2_Hd              
        22    -9.14341398E+06   # M^2_Hu              
        31     3.00000000E+03   # M_eL                
        32     3.00000000E+03   # M_muL               
        33     3.00000000E+03   # M_tauL              
        34     3.00000000E+03   # M_eR                
        35     3.00000000E+03   # M_muR               
        36     3.00000000E+03   # M_tauR              
        41     3.00000000E+03   # M_q1L               
        42     3.00000000E+03   # M_q2L               
        43     4.99899993E+02   # M_q3L               
        44     3.00000000E+03   # M_uR                
        45     3.00000000E+03   # M_cR                
        46     3.00000000E+03   # M_tR                
        47     3.00000000E+03   # M_dR                
        48     3.00000000E+03   # M_sR                
        49     3.00000000E+03   # M_bR                
#
#
#
#                             =================
#                             |The decay table|
#                             =================
#
# - The QCD corrections to the decays gluino -> squark  + quark
#                                     squark -> gaugino + quark_prime
#                                     squark -> squark_prime + Higgs
#                                     squark -> gluino  + quark
#   are included.
#
# - The multi-body decays for the inos, stops and sbottoms are included.
#
# - The loop induced decays for the gluino, neutralinos and stops
#   are included.
#
# - The SUSY decays of the top quark are included.
#
#
#         PDG            Width
DECAY         6     1.41005180E+00   # top decays
#          BR         NDA      ID1       ID2
     1.00000000E+00    2           5        24   # BR(t ->  b    W+)
#
#         PDG            Width
DECAY   1000021     8.20471302E+01   # gluino decays
#          BR         NDA      ID1       ID2
     2.48048233E-01    2     1000005        -5   # BR(~g -> ~b_1  bb)
     2.48048233E-01    2    -1000005         5   # BR(~g -> ~b_1* b )
     2.51951767E-01    2     1000006        -6   # BR(~g -> ~t_1  tb)
     2.51951767E-01    2    -1000006         6   # BR(~g -> ~t_1* t )
#
#         PDG            Width
DECAY   1000006     1.56292392E-01   # stop1 decays
#          BR         NDA      ID1       ID2
     2.42688139E-01    2     1000022         6   # BR(~t_1 -> ~chi_10 t )
     7.57311861E-01    2     1000024         5   # BR(~t_1 -> ~chi_1+ b )
#
#         PDG            Width
DECAY   2000006     1.22194645E+02   # stop2 decays
#          BR         NDA      ID1       ID2
     5.32510771E-02    2     1000022         6   # BR(~t_2 -> ~chi_10 t )
     2.78861211E-04    2     1000023         6   # BR(~t_2 -> ~chi_20 t )
     0.00000000E+00    2     1000025         6   # BR(~t_2 -> ~chi_30 t )
     5.60834624E-04    2     1000024         5   # BR(~t_2 -> ~chi_1+ b )
     2.57169490E-05    2     1000037         5   # BR(~t_2 -> ~chi_2+ b )
     2.87841473E-01    2     1000021         6   # BR(~t_2 -> ~g      t )
     1.72419660E-01    2     1000006        25   # BR(~t_2 -> ~t_1    h )
     1.63648059E-01    2     1000006        23   # BR(~t_2 -> ~t_1    Z )
     3.21974318E-01    2     1000005        24   # BR(~t_2 -> ~b_1    W+)
#
#         PDG            Width
DECAY   1000005     1.27715333E-01   # sbottom1 decays
#          BR         NDA      ID1       ID2
     4.57043165E-01    2     1000022         5   # BR(~b_1 -> ~chi_10 b )
     5.42956835E-01    2     1000023         5   # BR(~b_1 -> ~chi_20 b )
#
#         PDG            Width
DECAY   2000005     5.64094969E+01   # sbottom2 decays
#          BR         NDA      ID1       ID2
     2.89805212E-02    2     1000022         5   # BR(~b_2 -> ~chi_10 b )
     5.25806119E-08    2     1000023         5   # BR(~b_2 -> ~chi_20 b )
     6.21102996E-06    2     1000025         5   # BR(~b_2 -> ~chi_30 b )
     5.80066937E-06    2     1000035         5   # BR(~b_2 -> ~chi_40 b )
    -5.84397508E-08    2    -1000024         6   # BR(~b_2 -> ~chi_1- t )
     6.26369127E-01    2     1000021         5   # BR(~b_2 -> ~g      b )
     7.67058462E-02    2     1000005        25   # BR(~b_2 -> ~b_1    h )
     1.08939753E-01    2     1000005        23   # BR(~b_2 -> ~b_1    Z )
     1.58992746E-01    2     1000006       -24   # BR(~b_2 -> ~t_1    W-)
#
#         PDG            Width
DECAY   1000002     6.88340730E+01   # sup_L decays
#          BR         NDA      ID1       ID2
     5.95781016E-03    2     1000022         2   # BR(~u_L -> ~chi_10 u)
     1.59020944E-01    2     1000023         2   # BR(~u_L -> ~chi_20 u)
     4.76946223E-09    2     1000025         2   # BR(~u_L -> ~chi_30 u)
     7.81100298E-09    2     1000035         2   # BR(~u_L -> ~chi_40 u)
     3.18211959E-01    2     1000024         1   # BR(~u_L -> ~chi_1+ d)
     7.60192928E-10    2     1000037         1   # BR(~u_L -> ~chi_2+ d)
     5.16809274E-01    2     1000021         2   # BR(~u_L -> ~g      u)
#
#         PDG            Width
DECAY   2000002     4.20332548E+01   # sup_R decays
#          BR         NDA      ID1       ID2
     1.55915738E-01    2     1000022         2   # BR(~u_R -> ~chi_10 u)
     1.48295487E-08    2     1000023         2   # BR(~u_R -> ~chi_20 u)
     1.83422597E-09    2     1000025         2   # BR(~u_R -> ~chi_30 u)
     2.05329886E-09    2     1000035         2   # BR(~u_R -> ~chi_40 u)
     8.44084243E-01    2     1000021         2   # BR(~u_R -> ~g      u)
#
#         PDG            Width
DECAY   1000001     6.88858286E+01   # sdown_L decays
#          BR         NDA      ID1       ID2
     5.94566271E-03    2     1000022         1   # BR(~d_L -> ~chi_10 d)
     1.58918842E-01    2     1000023         1   # BR(~d_L -> ~chi_20 d)
     8.44825355E-09    2     1000025         1   # BR(~d_L -> ~chi_30 d)
     1.28783733E-08    2     1000035         1   # BR(~d_L -> ~chi_40 d)
     3.17645026E-01    2    -1000024         2   # BR(~d_L -> ~chi_1- u)
     6.17441044E-08    2    -1000037         2   # BR(~d_L -> ~chi_2- u)
     5.17490387E-01    2     1000021         1   # BR(~d_L -> ~g      d)
#
#         PDG            Width
DECAY   2000001     3.68579590E+01   # sdown_R decays
#          BR         NDA      ID1       ID2
     4.44022011E-02    2     1000022         1   # BR(~d_R -> ~chi_10 d)
     4.22277805E-09    2     1000023         1   # BR(~d_R -> ~chi_20 d)
     3.24180968E-10    2     1000025         1   # BR(~d_R -> ~chi_30 d)
     3.60784122E-10    2     1000035         1   # BR(~d_R -> ~chi_40 d)
     9.55597794E-01    2     1000021         1   # BR(~d_R -> ~g      d)
#
#         PDG            Width
DECAY   1000004     6.88340730E+01   # scharm_L decays
#          BR         NDA      ID1       ID2
     5.95781016E-03    2     1000022         4   # BR(~c_L -> ~chi_10 c)
     1.59020944E-01    2     1000023         4   # BR(~c_L -> ~chi_20 c)
     4.76946223E-09    2     1000025         4   # BR(~c_L -> ~chi_30 c)
     7.81100298E-09    2     1000035         4   # BR(~c_L -> ~chi_40 c)
     3.18211959E-01    2     1000024         3   # BR(~c_L -> ~chi_1+ s)
     7.60192928E-10    2     1000037         3   # BR(~c_L -> ~chi_2+ s)
     5.16809274E-01    2     1000021         4   # BR(~c_L -> ~g      c)
#
#         PDG            Width
DECAY   2000004     4.20332548E+01   # scharm_R decays
#          BR         NDA      ID1       ID2
     1.55915738E-01    2     1000022         4   # BR(~c_R -> ~chi_10 c)
     1.48295487E-08    2     1000023         4   # BR(~c_R -> ~chi_20 c)
     1.83422597E-09    2     1000025         4   # BR(~c_R -> ~chi_30 c)
     2.05329886E-09    2     1000035         4   # BR(~c_R -> ~chi_40 c)
     8.44084243E-01    2     1000021         4   # BR(~c_R -> ~g      c)
#
#         PDG            Width
DECAY   1000003     6.88858286E+01   # sstrange_L decays
#          BR         NDA      ID1       ID2
     5.94566271E-03    2     1000022         3   # BR(~s_L -> ~chi_10 s)
     1.58918842E-01    2     1000023         3   # BR(~s_L -> ~chi_20 s)
     8.44825355E-09    2     1000025         3   # BR(~s_L -> ~chi_30 s)
     1.28783733E-08    2     1000035         3   # BR(~s_L -> ~chi_40 s)
     3.17645026E-01    2    -1000024         4   # BR(~s_L -> ~chi_1- c)
     6.17441044E-08    2    -1000037         4   # BR(~s_L -> ~chi_2- c)
     5.17490387E-01    2     1000021         3   # BR(~s_L -> ~g      s)
#
#         PDG            Width
DECAY   2000003     3.68579590E+01   # sstrange_R decays
#          BR         NDA      ID1       ID2
     4.44022011E-02    2     1000022         3   # BR(~s_R -> ~chi_10 s)
     4.22277805E-09    2     1000023         3   # BR(~s_R -> ~chi_20 s)
     3.24180968E-10    2     1000025         3   # BR(~s_R -> ~chi_30 s)
     3.60784122E-10    2     1000035         3   # BR(~s_R -> ~chi_40 s)
     9.55597794E-01    2     1000021         3   # BR(~s_R -> ~g      s)
#
#         PDG            Width
DECAY   1000011     3.80539681E+01   # selectron_L decays
#          BR         NDA      ID1       ID2
     1.01259339E-01    2     1000022        11   # BR(~e_L -> ~chi_10 e-)
     2.99796987E-01    2     1000023        11   # BR(~e_L -> ~chi_20 e-)
     6.56890334E-12    2     1000025        11   # BR(~e_L -> ~chi_30 e-)
     6.99773875E-12    2     1000035        11   # BR(~e_L -> ~chi_40 e-)
     5.98943674E-01    2    -1000024        12   # BR(~e_L -> ~chi_1- nu_e)
#
#         PDG            Width
DECAY   2000011     1.53708902E+01   # selectron_R decays
#          BR         NDA      ID1       ID2
     9.99999905E-01    2     1000022        11   # BR(~e_R -> ~chi_10 e-)
     9.48594130E-08    2     1000023        11   # BR(~e_R -> ~chi_20 e-)
#
#         PDG            Width
DECAY   1000013     3.80539681E+01   # smuon_L decays
#          BR         NDA      ID1       ID2
     1.01259339E-01    2     1000022        13   # BR(~mu_L -> ~chi_10 mu-)
     2.99796987E-01    2     1000023        13   # BR(~mu_L -> ~chi_20 mu-)
     6.56890334E-12    2     1000025        13   # BR(~mu_L -> ~chi_30 mu-)
     6.99773875E-12    2     1000035        13   # BR(~mu_L -> ~chi_40 mu-)
     5.98943674E-01    2    -1000024        14   # BR(~mu_L -> ~chi_1- nu_mu)
#
#         PDG            Width
DECAY   2000013     1.53708902E+01   # smuon_R decays
#          BR         NDA      ID1       ID2
     9.99999905E-01    2     1000022        13   # BR(~mu_R -> ~chi_10 mu-)
     9.48594130E-08    2     1000023        13   # BR(~mu_R -> ~chi_20 mu-)
#
#         PDG            Width
DECAY   1000015     2.69727856E+01   # stau_1 decays
#          BR         NDA      ID1       ID2
     3.56273441E-01    2     1000022        15   # BR(~tau_1 -> ~chi_10  tau-)
     2.14748722E-01    2     1000023        15   # BR(~tau_1 -> ~chi_20  tau-)
     4.28977837E-01    2    -1000024        16   # BR(~tau_1 -> ~chi_1-  nu_tau)
#
#         PDG            Width
DECAY   2000015     2.64354887E+01   # stau_2 decays
#          BR         NDA      ID1       ID2
     3.64432858E-01    2     1000022        15   # BR(~tau_2 -> ~chi_10  tau-)
     2.12027029E-01    2     1000023        15   # BR(~tau_2 -> ~chi_20  tau-)
     5.86033702E-06    2     1000025        15   # BR(~tau_2 -> ~chi_30  tau-)
     4.63517959E-06    2     1000035        15   # BR(~tau_2 -> ~chi_40  tau-)
     4.23524214E-01    2    -1000024        16   # BR(~tau_2 -> ~chi_1-  nu_tau)
     5.40285726E-06    2    -1000037        16   # BR(~tau_2 -> ~chi_2-  nu_tau)
#
#         PDG            Width
DECAY   1000012     3.80555626E+01   # snu_eL decays
#          BR         NDA      ID1       ID2
     1.01152778E-01    2     1000022        12   # BR(~nu_eL -> ~chi_10 nu_e)
     2.99413918E-01    2     1000023        12   # BR(~nu_eL -> ~chi_20 nu_e)
     5.99433303E-01    2     1000024        11   # BR(~nu_eL -> ~chi_1+ e-)
#
#         PDG            Width
DECAY   1000014     3.80555626E+01   # snu_muL decays
#          BR         NDA      ID1       ID2
     1.01152778E-01    2     1000022        14   # BR(~nu_muL -> ~chi_10 nu_mu)
     2.99413918E-01    2     1000023        14   # BR(~nu_muL -> ~chi_20 nu_mu)
     5.99433303E-01    2     1000024        13   # BR(~nu_muL -> ~chi_1+ mu-)
#
#         PDG            Width
DECAY   1000016     3.80658082E+01   # snu_tauL decays
#          BR         NDA      ID1       ID2
     1.01142540E-01    2     1000022        16   # BR(~nu_tauL -> ~chi_10 nu_tau)
     2.99388458E-01    2     1000023        16   # BR(~nu_tauL -> ~chi_20 nu_tau)
     5.99469003E-01    2     1000024        15   # BR(~nu_tauL -> ~chi_1+ tau-)
#
#         PDG            Width
DECAY   1000024     4.60049373E-06   # chargino1+ decays
#          BR         NDA      ID1       ID2
     1.00000000E+00    2     1000022        24   # BR(~chi_1+ -> ~chi_10  W+)
#
#         PDG            Width
DECAY   1000037     9.83329223E+01   # chargino2+ decays
#          BR         NDA      ID1       ID2
     1.43997972E-01    2     1000006        -5   # BR(~chi_2+ -> ~t_1     bb)
     6.65313119E-01    2    -1000005         6   # BR(~chi_2+ -> ~b_1*    t )
     3.31136221E-12    2     1000012       -11   # BR(~chi_2+ -> ~nu_eL   e+  )
     3.31136221E-12    2     1000014       -13   # BR(~chi_2+ -> ~nu_muL  mu+ )
     1.12513200E-11    2    -1000011        12   # BR(~chi_2+ -> ~e_L+    nu_e)
     1.12513200E-11    2    -1000013        14   # BR(~chi_2+ -> ~mu_L+   nu_mu)
     9.55496650E-07    2    -1000015        16   # BR(~chi_2+ -> ~tau_1+  nu_tau)
     5.72079007E-02    2     1000024        23   # BR(~chi_2+ -> ~chi_1+  Z )
     1.84150762E-02    2     1000022        24   # BR(~chi_2+ -> ~chi_10  W+)
     5.57391963E-02    2     1000023        24   # BR(~chi_2+ -> ~chi_20  W+)
     5.93257806E-02    2     1000024        25   # BR(~chi_2+ -> ~chi_1+  h )
#
#         PDG            Width
DECAY   1000022     0.00000000E+00   # neutralino1 decays
#
#         PDG            Width
DECAY   1000023     4.59921414E-06   # neutralino2 decays
#          BR         NDA      ID1       ID2
     8.03543288E-01    2     1000022        23   # BR(~chi_20 -> ~chi_10   Z )
     1.96456712E-01    2     1000022        25   # BR(~chi_20 -> ~chi_10   h )
#
#         PDG            Width
DECAY   1000025     9.85838773E+01   # neutralino3 decays
#          BR         NDA      ID1       ID2
     1.00532557E-02    2     1000022        23   # BR(~chi_30 -> ~chi_10   Z )
     3.51214281E-02    2     1000023        23   # BR(~chi_30 -> ~chi_20   Z )
     5.55792741E-02    2     1000024       -24   # BR(~chi_30 -> ~chi_1+   W-)
     5.55792741E-02    2    -1000024        24   # BR(~chi_30 -> ~chi_1-   W+)
     9.03681513E-03    2     1000022        25   # BR(~chi_30 -> ~chi_10   h )
     2.21843624E-02    2     1000023        25   # BR(~chi_30 -> ~chi_20   h )
     3.35335538E-01    2     1000006        -6   # BR(~chi_30 -> ~t_1      tb)
     3.35335538E-01    2    -1000006         6   # BR(~chi_30 -> ~t_1*     t )
     7.08861343E-02    2     1000005        -5   # BR(~chi_30 -> ~b_1      bb)
     7.08861343E-02    2    -1000005         5   # BR(~chi_30 -> ~b_1*     b )
     1.56118228E-10    2     2000011       -11   # BR(~chi_30 -> ~e_R-     e+)
     1.56118228E-10    2    -2000011        11   # BR(~chi_30 -> ~e_R+     e-)
     1.56118228E-10    2     2000013       -13   # BR(~chi_30 -> ~mu_R-    mu+)
     1.56118228E-10    2    -2000013        13   # BR(~chi_30 -> ~mu_R+    mu-)
     1.12209567E-06    2     1000015       -15   # BR(~chi_30 -> ~tau_1-   tau+)
     1.12209567E-06    2    -1000015        15   # BR(~chi_30 -> ~tau_1+   tau-)
     7.68437190E-12    2     1000012       -12   # BR(~chi_30 -> ~nu_eL    nu_eb)
     7.68437190E-12    2    -1000012        12   # BR(~chi_30 -> ~nu_eL*   nu_e )
     7.68437190E-12    2     1000014       -14   # BR(~chi_30 -> ~nu_muL   nu_mub)
     7.68437190E-12    2    -1000014        14   # BR(~chi_30 -> ~nu_muL*  nu_mu )
     9.43590606E-13    2     1000016       -16   # BR(~chi_30 -> ~nu_tau1  nu_taub)
     9.43590606E-13    2    -1000016        16   # BR(~chi_30 -> ~nu_tau1* nu_tau )
#
#         PDG            Width
DECAY   1000035     9.75983335E+01   # neutralino4 decays
#          BR         NDA      ID1       ID2
     8.88930128E-03    2     1000022        23   # BR(~chi_40 -> ~chi_10   Z )
     2.21559700E-02    2     1000023        23   # BR(~chi_40 -> ~chi_20   Z )
     5.61548865E-02    2     1000024       -24   # BR(~chi_40 -> ~chi_1+   W-)
     5.61548865E-02    2    -1000024        24   # BR(~chi_40 -> ~chi_1-   W+)
     1.04756064E-02    2     1000022        25   # BR(~chi_40 -> ~chi_10   h )
     3.73681865E-02    2     1000023        25   # BR(~chi_40 -> ~chi_20   h )
     3.32798489E-01    2     1000006        -6   # BR(~chi_40 -> ~t_1      tb)
     3.32798489E-01    2    -1000006         6   # BR(~chi_40 -> ~t_1*     t )
     7.16011424E-02    2     1000005        -5   # BR(~chi_40 -> ~b_1      bb)
     7.16011424E-02    2    -1000005         5   # BR(~chi_40 -> ~b_1*     b )
     1.88818237E-10    2     2000011       -11   # BR(~chi_40 -> ~e_R-     e+)
     1.88818237E-10    2    -2000011        11   # BR(~chi_40 -> ~e_R+     e-)
     1.88818237E-10    2     2000013       -13   # BR(~chi_40 -> ~mu_R-    mu+)
     1.88818237E-10    2    -2000013        13   # BR(~chi_40 -> ~mu_R+    mu-)
     9.49913324E-07    2     1000015       -15   # BR(~chi_40 -> ~tau_1-   tau+)
     9.49913324E-07    2    -1000015        15   # BR(~chi_40 -> ~tau_1+   tau-)
     1.67019984E-11    2     1000012       -12   # BR(~chi_40 -> ~nu_eL    nu_eb)
     1.67019984E-11    2    -1000012        12   # BR(~chi_40 -> ~nu_eL*   nu_e )
     1.67019984E-11    2     1000014       -14   # BR(~chi_40 -> ~nu_muL   nu_mub)
     1.67019984E-11    2    -1000014        14   # BR(~chi_40 -> ~nu_muL*  nu_mu )
     3.56086179E-12    2     1000016       -16   # BR(~chi_40 -> ~nu_tau1  nu_taub)
     3.56086179E-12    2    -1000016        16   # BR(~chi_40 -> ~nu_tau1* nu_tau )
#
#         PDG            Width
DECAY        25     3.75357514E-03   # h decays
#          BR         NDA      ID1       ID2
     5.45033141E-01    2           5        -5   # BR(h -> b       bb     )
     6.96783507E-02    2         -15        15   # BR(h -> tau+    tau-   )
     2.46658331E-04    2         -13        13   # BR(h -> mu+     mu-    )
     5.22658298E-04    2           3        -3   # BR(h -> s       sb     )
     2.27111984E-02    2           4        -4   # BR(h -> c       cb     )
     7.48649165E-02    2          21        21   # BR(h -> g       g      )
     2.60004079E-03    2          22        22   # BR(h -> gam     gam    )
     1.83170272E-03    2          22        23   # BR(h -> Z       gam    )
     2.50635940E-01    2          24       -24   # BR(h -> W+      W-     )
     3.18753933E-02    2          23        23   # BR(h -> Z       Z      )
#
#         PDG            Width
DECAY        35     4.13477581E+01   # H decays
#          BR         NDA      ID1       ID2
     9.09536384E-01    2           5        -5   # BR(H -> b       bb     )
     6.01447899E-02    2         -15        15   # BR(H -> tau+    tau-   )
     2.12657604E-04    2         -13        13   # BR(H -> mu+     mu-    )
     2.61142998E-04    2           3        -3   # BR(H -> s       sb     )
     7.31955979E-08    2           4        -4   # BR(H -> c       cb     )
     7.30173529E-03    2           6        -6   # BR(H -> t       tb     )
     4.17943405E-06    2          21        21   # BR(H -> g       g      )
     4.36848567E-08    2          22        22   # BR(H -> gam     gam    )
     2.99384964E-09    2          23        22   # BR(H -> Z       gam    )
     6.57904026E-07    2          24       -24   # BR(H -> W+      W-     )
     3.28546478E-07    2          23        23   # BR(H -> Z       Z      )
     4.89573234E-06    2          25        25   # BR(H -> h       h      )
     2.69569812E-25    2          36        36   # BR(H -> A       A      )
     6.19261457E-18    2          23        36   # BR(H -> Z       A      )
     7.11976638E-04    2     1000024  -1000024   # BR(H -> ~chi_1+ ~chi_1-)
     3.67262329E-05    2     1000022   1000022   # BR(H -> ~chi_10 ~chi_10)
     3.55793175E-04    2     1000023   1000023   # BR(H -> ~chi_20 ~chi_20)
     2.31327061E-04    2     1000022   1000023   # BR(H -> ~chi_10 ~chi_20)
     2.11920620E-02    2     1000006  -1000006   # BR(H -> ~t_1    ~t_1*  )
     5.22369136E-06    2     1000005  -1000005   # BR(H -> ~b_1    ~b_1*  )
#
#         PDG            Width
DECAY        36     4.04788196E+01   # A decays
#          BR         NDA      ID1       ID2
     9.29052623E-01    2           5        -5   # BR(A -> b       bb     )
     6.14324736E-02    2         -15        15   # BR(A -> tau+    tau-   )
     2.17210243E-04    2         -13        13   # BR(A -> mu+     mu-    )
     2.66779282E-04    2           3        -3   # BR(A -> s       sb     )
     7.52813318E-08    2           4        -4   # BR(A -> c       cb     )
     7.50566285E-03    2           6        -6   # BR(A -> t       tb     )
     2.21034583E-05    2          21        21   # BR(A -> g       g      )
     5.90826147E-08    2          22        22   # BR(A -> gam     gam    )
     2.17770613E-08    2          23        22   # BR(A -> Z       gam    )
     6.69364419E-07    2          23        25   # BR(A -> Z       h      )
     8.11081293E-04    2     1000024  -1000024   # BR(A -> ~chi_1+ ~chi_1-)
     3.83527135E-05    2     1000022   1000022   # BR(A -> ~chi_10 ~chi_10)
     4.05275289E-04    2     1000023   1000023   # BR(A -> ~chi_20 ~chi_20)
     2.47612565E-04    2     1000022   1000023   # BR(A -> ~chi_10 ~chi_20)
#
#         PDG            Width
DECAY        37     4.41387214E+01   # H+ decays
#          BR         NDA      ID1       ID2
     1.48092604E-03    2           4        -5   # BR(H+ -> c       bb     )
     5.63592691E-02    2         -15        16   # BR(H+ -> tau+    nu_tau )
     1.99272629E-04    2         -13        14   # BR(H+ -> mu+     nu_mu  )
     9.47791510E-06    2           2        -5   # BR(H+ -> u       bb     )
     1.17107382E-05    2           2        -3   # BR(H+ -> u       sb     )
     2.40927542E-04    2           4        -3   # BR(H+ -> c       sb     )
     9.30988714E-01    2           6        -5   # BR(H+ -> t       bb     )
     6.14922554E-07    2          24        25   # BR(H+ -> W+      h      )
     4.80774175E-14    2          24        36   # BR(H+ -> W+      A      )
     4.43904884E-04    2     1000024   1000022   # BR(H+ -> ~chi_1+ ~chi_10)
     4.13729124E-11    2     1000024   1000023   # BR(H+ -> ~chi_1+ ~chi_20)
     1.02651819E-02    2     1000006  -1000005   # BR(H+ -> ~t_1    ~b_1*  )
