#
#                              ======================
#                              | THE SUSYHIT OUTPUT |
#                              ======================
#
#
#              ------------------------------------------------------
#              |     This is the output of the SUSY-HIT package     |
#              |  created by A.Djouadi, M.Muehlleitner and M.Spira. |
#              |  In case of problems with SUSY-HIT email to        |
#              |           margarete.muehlleitner@kit.edu           |
#              |           michael.spira@psi.ch                     |
#              |           abdelhak.djouadi@cern.ch                 |
#              ------------------------------------------------------
#
#              ------------------------------------------------------
#              |  SUSY Les Houches Accord - MSSM Spectrum + Decays  |
#              |              based on the decay programs           |
#              |                                                    |
#              |                     SDECAY 1.5                     |
#              |                                                    |
#              |  Authors: M.Muhlleitner, A.Djouadi and Y.Mambrini  |
#              |  Ref.:    Comput.Phys.Commun.168(2005)46           |
#              |           [hep-ph/0311167]                         |
#              |                                                    |
#              |                     HDECAY 3.4                     |
#              |                                                    |
#              |  By: A.Djouadi,J.Kalinowski,M.Muhlleitner,M.Spira  |
#              |  Ref.:    Comput.Phys.Commun.108(1998)56           |
#              |           [hep-ph/9704448]                         |
#              |                                                    |
#              |                                                    |
#              |  If not stated otherwise all DRbar couplings and   |
#              |  soft SUSY breaking masses are given at the scale  |
#              |  Q=  0.13015276E+04
#              |                                                    |
#              ------------------------------------------------------
#
#
BLOCK DCINFO  # Decay Program information
     1   SDECAY/HDECAY # decay calculator
     2   1.5  /3.4    # version number
#
BLOCK SPINFO  # Spectrum calculator information
     1    SOFTSUSY    # spectrum calculator                
     2    3.7.3       # version number                     
#
BLOCK MODSEL  # Model selection
     1     0   #  nonUniversal                                     
#
BLOCK SMINPUTS  # Standard Model inputs
         1     1.27934000E+02   # alpha_em^-1(M_Z)^MSbar
         2     1.16639000E-05   # G_F [GeV^-2]
         3     1.17200000E-01   # alpha_S(M_Z)^MSbar
         4     9.11870000E+01   # M_Z pole mass
         5     4.19000000E+00   # mb(mb)^MSbar
         6     1.72500000E+02   # mt pole mass
         7     1.77690000E+00   # mtau pole mass
#
BLOCK MINPAR  # Input parameters - minimal models
         3     2.00000000E+01   # tanb                
#
BLOCK EXTPAR  # Input parameters - non-minimal models
         0    -1.00000000E+00   # Set                 
         1     5.59990000E+02   # M_1(MX)             
         2     2.00000000E+03   # M_2(MX)             
         3     1.80000000E+03   # M_3(MX)             
        11     2.64959179E+03   # At(MX)              
        12     0.00000000E+00   # Ab(MX)              
        13     0.00000000E+00   # Atau(MX)            
        23    -5.69990000E+02   # mu(MX)              
        25     2.00000000E+01   # tan                 
        26     4.00000000E+03   # mA(pole)            
        31     4.00000000E+03   # meL(MX)             
        32     4.00000000E+03   # mmuL(MX)            
        33     4.00000000E+03   # mtauL(MX)           
        34     4.00000000E+03   # meR(MX)             
        35     4.00000000E+03   # mmuR(MX)            
        36     4.00000000E+03   # mtauR(MX)           
        41     4.00000000E+03   # mqL1(MX)            
        42     4.00000000E+03   # mqL2(MX)            
        43     9.09990000E+02   # mqL3(MX)            
        44     4.00000000E+03   # muR(MX)             
        45     4.00000000E+03   # mcR(MX)             
        46     1.88485961E+03   # mtR(MX)             
        47     4.00000000E+03   # mdR(MX)             
        48     4.00000000E+03   # msR(MX)             
        49     4.00000000E+03   # mbR(MX)             
#
BLOCK MASS  # Mass Spectrum
# PDG code           mass       particle
        24     8.04194356E+01   # W+
        25     1.25978489E+02   # h
        35     4.00000597E+03   # H
        36     3.99999746E+03   # A
        37     4.00102366E+03   # H+
         5     4.81337004E+00   # b-quark pole mass calculated from mb(mb)_Msbar
   1000001     4.02592635E+03   # ~d_L
   2000001     4.02256399E+03   # ~d_R
   1000002     4.02527644E+03   # ~u_L
   2000002     4.02332455E+03   # ~u_R
   1000003     4.02592635E+03   # ~s_L
   2000003     4.02256399E+03   # ~s_R
   1000004     4.02527644E+03   # ~c_L
   2000004     4.02332455E+03   # ~c_R
   1000005     9.72708631E+02   # ~b_1
   2000005     4.02547385E+03   # ~b_2
   1000006     9.50370439E+02   # ~t_1
   2000006     1.90188560E+03   # ~t_2
   1000011     4.00454216E+03   # ~e_L
   2000011     4.00329617E+03   # ~e_R
   1000012     4.00343182E+03   # ~nu_eL
   1000013     4.00454216E+03   # ~mu_L
   2000013     4.00329617E+03   # ~mu_R
   1000014     4.00343182E+03   # ~nu_muL
   1000015     4.00352701E+03   # ~tau_1
   2000015     4.00854218E+03   # ~tau_2
   1000016     4.00484338E+03   # ~nu_tauL
   1000021     1.97812456E+03   # ~g
   1000022     5.43288051E+02   # ~chi_10
   1000023    -5.82033385E+02   # ~chi_20
   1000025     6.03004550E+02   # ~chi_30
   1000035     2.05208211E+03   # ~chi_40
   1000024     5.80015341E+02   # ~chi_1+
   1000037     2.05224603E+03   # ~chi_2+
#
BLOCK NMIX  # Neutralino Mixing Matrix
  1  1     7.48268800E-01   # N_11
  1  2    -2.25821730E-02   # N_12
  1  3    -4.85016416E-01   # N_13
  1  4    -4.52043056E-01   # N_14
  2  1    -2.89014672E-02   # N_21
  2  2     2.23456941E-02   # N_22
  2  3    -7.05385708E-01   # N_23
  2  4     7.07881613E-01   # N_24
  3  1     6.62764626E-01   # N_31
  3  2     2.83517382E-02   # N_32
  3  3     5.16810430E-01   # N_33
  3  4     5.41152666E-01   # N_34
  4  1    -1.24830255E-03   # N_41
  4  2     9.99093036E-01   # N_42
  4  3    -9.85180064E-03   # N_43
  4  4    -4.14063933E-02   # N_44
#
BLOCK UMIX  # Chargino Mixing Matrix U
  1  1     1.39387358E-02   # U_11
  1  2     9.99902851E-01   # U_12
  2  1    -9.99902851E-01   # U_21
  2  2     1.39387358E-02   # U_22
#
BLOCK VMIX  # Chargino Mixing Matrix V
  1  1     5.85646461E-02   # V_11
  1  2    -9.98283618E-01   # V_12
  2  1    -9.98283618E-01   # V_21
  2  2    -5.85646461E-02   # V_22
#
BLOCK STOPMIX  # Stop Mixing Matrix
  1  1     9.89832601E-01   # cos(theta_t)
  1  2    -1.42237203E-01   # sin(theta_t)
  2  1     1.42237203E-01   # -sin(theta_t)
  2  2     9.89832601E-01   # cos(theta_t)
#
BLOCK SBOTMIX  # Sbottom Mixing Matrix
  1  1     9.99998247E-01   # cos(theta_b)
  1  2    -1.87243075E-03   # sin(theta_b)
  2  1     1.87243075E-03   # -sin(theta_b)
  2  2     9.99998247E-01   # cos(theta_b)
#
BLOCK STAUMIX  # Stau Mixing Matrix
  1  1    -7.06372271E-01   # cos(theta_tau)
  1  2     7.07840529E-01   # sin(theta_tau)
  2  1    -7.07840529E-01   # -sin(theta_tau)
  2  2    -7.06372271E-01   # cos(theta_tau)
#
BLOCK ALPHA  # Higgs mixing
          -5.00238408E-02   # Mixing angle in the neutral Higgs boson sector
#
BLOCK HMIX Q=  1.30152762E+03  # DRbar Higgs Parameters
         1    -5.69990000E+02   # mu(Q)MSSM           
         2     2.00000000E+01   # tan                 
         3     2.43684421E+02   # higgs               
         4     1.61608975E+07   # mA^2(Q)MSSM         
#
BLOCK GAUGE Q=  1.30152762E+03  # The gauge couplings
     1     3.61837951E-01   # gprime(Q) DRbar
     2     6.35578644E-01   # g(Q) DRbar
     3     1.03008221E+00   # g3(Q) DRbar
#
BLOCK AU Q=  1.30152762E+03  # The trilinear couplings
  1  1     0.00000000E+00   # A_u(Q) DRbar
  2  2     1.37035937E-06   # A_c(Q) DRbar
  3  3     2.64959179E+03   # A_t(Q) DRbar
#
BLOCK AD Q=  1.30152762E+03  # The trilinear couplings
  1  1     5.07464931E-07   # A_d(Q) DRbar
  2  2     5.07511539E-07   # A_s(Q) DRbar
  3  3     9.05887306E-07   # A_b(Q) DRbar
#
BLOCK AE Q=  1.30152762E+03  # The trilinear couplings
  1  1     0.00000000E+00   # A_e(Q) DRbar
  2  2     1.13679415E-07   # A_mu(Q) DRbar
  3  3     1.14837728E-07   # A_tau(Q) DRbar
#
BLOCK Yu Q=  1.30152762E+03  # The Yukawa couplings
  1  1     0.00000000E+00   # y_u(Q) DRbar
  2  2     0.00000000E+00   # y_c(Q) DRbar
  3  3     8.67842273E-01   # y_t(Q) DRbar
#
BLOCK Yd Q=  1.30152762E+03  # The Yukawa couplings
  1  1     0.00000000E+00   # y_d(Q) DRbar
  2  2     0.00000000E+00   # y_s(Q) DRbar
  3  3     2.89564592E-01   # y_b(Q) DRbar
#
BLOCK Ye Q=  1.30152762E+03  # The Yukawa couplings
  1  1     0.00000000E+00   # y_e(Q) DRbar
  2  2     0.00000000E+00   # y_mu(Q) DRbar
  3  3     2.02699992E-01   # y_tau(Q) DRbar
#
BLOCK MSOFT Q=  1.30152762E+03  # The soft SUSY breaking masses at the scale Q
         1     5.59990000E+02   # M_1(Q)              
         2     2.00000000E+03   # M_2(Q)              
         3     1.80000000E+03   # M_3(Q)              
        21     1.55685635E+07   # M^2_Hd              
        22    -2.85924086E+05   # M^2_Hu              
        31     4.00000000E+03   # M_eL                
        32     4.00000000E+03   # M_muL               
        33     4.00000000E+03   # M_tauL              
        34     4.00000000E+03   # M_eR                
        35     4.00000000E+03   # M_muR               
        36     4.00000000E+03   # M_tauR              
        41     4.00000000E+03   # M_q1L               
        42     4.00000000E+03   # M_q2L               
        43     9.09989997E+02   # M_q3L               
        44     4.00000000E+03   # M_uR                
        45     4.00000000E+03   # M_cR                
        46     1.88485961E+03   # M_tR                
        47     4.00000000E+03   # M_dR                
        48     4.00000000E+03   # M_sR                
        49     4.00000000E+03   # M_bR                
#
#
#
#                             =================
#                             |The decay table|
#                             =================
#
# - The QCD corrections to the decays gluino -> squark  + quark
#                                     squark -> gaugino + quark_prime
#                                     squark -> squark_prime + Higgs
#                                     squark -> gluino  + quark
#   are included.
#
# - The multi-body decays for the inos, stops and sbottoms are included.
#
# - The loop induced decays for the gluino, neutralinos and stops
#   are included.
#
# - The SUSY decays of the top quark are included.
#
#
#         PDG            Width
DECAY         6     1.40137469E+00   # top decays
#          BR         NDA      ID1       ID2
     1.00000000E+00    2           5        24   # BR(t ->  b    W+)
#
#         PDG            Width
DECAY   1000021     4.93005936E+01   # gluino decays
#          BR         NDA      ID1       ID2
     2.39985309E-01    2     1000005        -5   # BR(~g -> ~b_1  bb)
     2.39985309E-01    2    -1000005         5   # BR(~g -> ~b_1* b )
     2.60014691E-01    2     1000006        -6   # BR(~g -> ~t_1  tb)
     2.60014691E-01    2    -1000006         6   # BR(~g -> ~t_1* t )
#
#         PDG            Width
DECAY   1000006     5.29604582E+00   # stop1 decays
#          BR         NDA      ID1       ID2
     2.22684223E-01    2     1000022         6   # BR(~t_1 -> ~chi_10 t )
     3.98435594E-01    2     1000023         6   # BR(~t_1 -> ~chi_20 t )
     2.57832571E-01    2     1000025         6   # BR(~t_1 -> ~chi_30 t )
     1.21047612E-01    2     1000024         5   # BR(~t_1 -> ~chi_1+ b )
#
#         PDG            Width
DECAY   2000006     1.11150713E+02   # stop2 decays
#          BR         NDA      ID1       ID2
     6.21980023E-02    2     1000022         6   # BR(~t_2 -> ~chi_10 t )
     1.03257831E-01    2     1000023         6   # BR(~t_2 -> ~chi_20 t )
     6.83383202E-02    2     1000025         6   # BR(~t_2 -> ~chi_30 t )
     2.02582119E-01    2     1000024         5   # BR(~t_2 -> ~chi_1+ b )
     1.74519588E-01    2     1000006        25   # BR(~t_2 -> ~t_1    h )
     1.32365197E-01    2     1000006        23   # BR(~t_2 -> ~t_1    Z )
     2.56738942E-01    2     1000005        24   # BR(~t_2 -> ~b_1    W+)
#
#         PDG            Width
DECAY   1000005     5.84801264E+00   # sbottom1 decays
#          BR         NDA      ID1       ID2
     3.89923991E-02    2     1000022         5   # BR(~b_1 -> ~chi_10 b )
     5.52926482E-02    2     1000023         5   # BR(~b_1 -> ~chi_20 b )
     2.94167796E-02    2     1000025         5   # BR(~b_1 -> ~chi_30 b )
     8.76298173E-01    2    -1000024         6   # BR(~b_1 -> ~chi_1- t )
#
#         PDG            Width
DECAY   2000005     1.66468251E+02   # sbottom2 decays
#          BR         NDA      ID1       ID2
     1.59586111E-02    2     1000022         5   # BR(~b_2 -> ~chi_10 b )
     1.83409926E-02    2     1000023         5   # BR(~b_2 -> ~chi_20 b )
     1.55069091E-02    2     1000025         5   # BR(~b_2 -> ~chi_30 b )
     3.31514553E-06    2     1000035         5   # BR(~b_2 -> ~chi_40 b )
     3.67258177E-02    2    -1000024         6   # BR(~b_2 -> ~chi_1- t )
     6.59090150E-06    2    -1000037         6   # BR(~b_2 -> ~chi_2- t )
     9.11757015E-01    2     1000021         5   # BR(~b_2 -> ~g      b )
     3.59915859E-04    2     1000005        25   # BR(~b_2 -> ~b_1    h )
     4.99024597E-04    2     1000005        23   # BR(~b_2 -> ~b_1    Z )
     8.32688332E-04    2     1000006       -24   # BR(~b_2 -> ~t_1    W-)
     9.11983288E-06    2     2000006       -24   # BR(~b_2 -> ~t_2    W-)
#
#         PDG            Width
DECAY   1000002     1.78121035E+02   # sup_L decays
#          BR         NDA      ID1       ID2
     1.20413583E-03    2     1000022         2   # BR(~u_L -> ~chi_10 u)
     2.38776702E-05    2     1000023         2   # BR(~u_L -> ~chi_20 u)
     1.98893750E-03    2     1000025         2   # BR(~u_L -> ~chi_30 u)
     4.80859877E-02    2     1000035         2   # BR(~u_L -> ~chi_40 u)
     5.76297006E-04    2     1000024         1   # BR(~u_L -> ~chi_1+ d)
     9.60510578E-02    2     1000037         1   # BR(~u_L -> ~chi_2+ d)
     8.52069707E-01    2     1000021         2   # BR(~u_L -> ~g      u)
#
#         PDG            Width
DECAY   2000002     1.60233886E+02   # sup_R decays
#          BR         NDA      ID1       ID2
     3.02668888E-02    2     1000022         2   # BR(~u_R -> ~chi_10 u)
     4.49112681E-05    2     1000023         2   # BR(~u_R -> ~chi_20 u)
     2.35449204E-02    2     1000025         2   # BR(~u_R -> ~chi_30 u)
     4.80478589E-08    2     1000035         2   # BR(~u_R -> ~chi_40 u)
     9.46143231E-01    2     1000021         2   # BR(~u_R -> ~g      u)
#
#         PDG            Width
DECAY   1000001     1.78141196E+02   # sdown_L decays
#          BR         NDA      ID1       ID2
     2.28736072E-03    2     1000022         1   # BR(~d_L -> ~chi_10 d)
     6.50552713E-05    2     1000023         1   # BR(~d_L -> ~chi_20 d)
     7.94708926E-04    2     1000025         1   # BR(~d_L -> ~chi_30 d)
     4.81448360E-02    2     1000035         1   # BR(~d_L -> ~chi_40 d)
     3.26475108E-05    2    -1000024         2   # BR(~d_L -> ~chi_1- u)
     9.63893779E-02    2    -1000037         2   # BR(~d_L -> ~chi_2- u)
     8.52286014E-01    2     1000021         1   # BR(~d_L -> ~g      d)
#
#         PDG            Width
DECAY   2000001     1.53695973E+02   # sdown_R decays
#          BR         NDA      ID1       ID2
     7.88696969E-03    2     1000022         1   # BR(~d_R -> ~chi_10 d)
     1.17029894E-05    2     1000023         1   # BR(~d_R -> ~chi_20 d)
     6.13533393E-03    2     1000025         1   # BR(~d_R -> ~chi_30 d)
     1.25172371E-08    2     1000035         1   # BR(~d_R -> ~chi_40 d)
     9.85965981E-01    2     1000021         1   # BR(~d_R -> ~g      d)
#
#         PDG            Width
DECAY   1000004     1.78121035E+02   # scharm_L decays
#          BR         NDA      ID1       ID2
     1.20413583E-03    2     1000022         4   # BR(~c_L -> ~chi_10 c)
     2.38776702E-05    2     1000023         4   # BR(~c_L -> ~chi_20 c)
     1.98893750E-03    2     1000025         4   # BR(~c_L -> ~chi_30 c)
     4.80859877E-02    2     1000035         4   # BR(~c_L -> ~chi_40 c)
     5.76297006E-04    2     1000024         3   # BR(~c_L -> ~chi_1+ s)
     9.60510578E-02    2     1000037         3   # BR(~c_L -> ~chi_2+ s)
     8.52069707E-01    2     1000021         4   # BR(~c_L -> ~g      c)
#
#         PDG            Width
DECAY   2000004     1.60233886E+02   # scharm_R decays
#          BR         NDA      ID1       ID2
     3.02668888E-02    2     1000022         4   # BR(~c_R -> ~chi_10 c)
     4.49112681E-05    2     1000023         4   # BR(~c_R -> ~chi_20 c)
     2.35449204E-02    2     1000025         4   # BR(~c_R -> ~chi_30 c)
     4.80478589E-08    2     1000035         4   # BR(~c_R -> ~chi_40 c)
     9.46143231E-01    2     1000021         4   # BR(~c_R -> ~g      c)
#
#         PDG            Width
DECAY   1000003     1.78141196E+02   # sstrange_L decays
#          BR         NDA      ID1       ID2
     2.28736072E-03    2     1000022         3   # BR(~s_L -> ~chi_10 s)
     6.50552713E-05    2     1000023         3   # BR(~s_L -> ~chi_20 s)
     7.94708926E-04    2     1000025         3   # BR(~s_L -> ~chi_30 s)
     4.81448360E-02    2     1000035         3   # BR(~s_L -> ~chi_40 s)
     3.26475108E-05    2    -1000024         4   # BR(~s_L -> ~chi_1- c)
     9.63893779E-02    2    -1000037         4   # BR(~s_L -> ~chi_2- c)
     8.52286014E-01    2     1000021         3   # BR(~s_L -> ~g      s)
#
#         PDG            Width
DECAY   2000003     1.53695973E+02   # sstrange_R decays
#          BR         NDA      ID1       ID2
     7.88696969E-03    2     1000022         3   # BR(~s_R -> ~chi_10 s)
     1.17029894E-05    2     1000023         3   # BR(~s_R -> ~chi_20 s)
     6.13533393E-03    2     1000025         3   # BR(~s_R -> ~chi_30 s)
     1.25172371E-08    2     1000035         3   # BR(~s_R -> ~chi_40 s)
     9.85965981E-01    2     1000021         3   # BR(~s_R -> ~g      s)
#
#         PDG            Width
DECAY   1000011     3.12752555E+01   # selectron_L decays
#          BR         NDA      ID1       ID2
     8.06770117E-02    2     1000022        11   # BR(~e_L -> ~chi_10 e-)
     1.71144825E-05    2     1000023        11   # BR(~e_L -> ~chi_20 e-)
     8.08738727E-02    2     1000025        11   # BR(~e_L -> ~chi_30 e-)
     2.78867979E-01    2     1000035        11   # BR(~e_L -> ~chi_40 e-)
     1.91624936E-04    2    -1000024        12   # BR(~e_L -> ~chi_1- nu_e)
     5.59372397E-01    2    -1000037        12   # BR(~e_L -> ~chi_2- nu_e)
#
#         PDG            Width
DECAY   2000011     2.00169478E+01   # selectron_R decays
#          BR         NDA      ID1       ID2
     5.62053093E-01    2     1000022        11   # BR(~e_R -> ~chi_10 e-)
     8.33856096E-04    2     1000023        11   # BR(~e_R -> ~chi_20 e-)
     4.37112169E-01    2     1000025        11   # BR(~e_R -> ~chi_30 e-)
     8.82408042E-07    2     1000035        11   # BR(~e_R -> ~chi_40 e-)
#
#         PDG            Width
DECAY   1000013     3.12752555E+01   # smuon_L decays
#          BR         NDA      ID1       ID2
     8.06770117E-02    2     1000022        13   # BR(~mu_L -> ~chi_10 mu-)
     1.71144825E-05    2     1000023        13   # BR(~mu_L -> ~chi_20 mu-)
     8.08738727E-02    2     1000025        13   # BR(~mu_L -> ~chi_30 mu-)
     2.78867979E-01    2     1000035        13   # BR(~mu_L -> ~chi_40 mu-)
     1.91624936E-04    2    -1000024        14   # BR(~mu_L -> ~chi_1- nu_mu)
     5.59372397E-01    2    -1000037        14   # BR(~mu_L -> ~chi_2- nu_mu)
#
#         PDG            Width
DECAY   2000013     2.00169478E+01   # smuon_R decays
#          BR         NDA      ID1       ID2
     5.62053093E-01    2     1000022        13   # BR(~mu_R -> ~chi_10 mu-)
     8.33856096E-04    2     1000023        13   # BR(~mu_R -> ~chi_20 mu-)
     4.37112169E-01    2     1000025        13   # BR(~mu_R -> ~chi_30 mu-)
     8.82408042E-07    2     1000035        13   # BR(~mu_R -> ~chi_40 mu-)
#
#         PDG            Width
DECAY   1000015     3.04347537E+01   # stau_1 decays
#          BR         NDA      ID1       ID2
     3.00916126E-01    2     1000022        15   # BR(~tau_1 -> ~chi_10  tau-)
     4.52893783E-02    2     1000023        15   # BR(~tau_1 -> ~chi_20  tau-)
     1.71849045E-01    2     1000025        15   # BR(~tau_1 -> ~chi_30  tau-)
     1.41628167E-01    2     1000035        15   # BR(~tau_1 -> ~chi_40  tau-)
     5.62284839E-02    2    -1000024        16   # BR(~tau_1 -> ~chi_1-  nu_tau)
     2.84088800E-01    2    -1000037        16   # BR(~tau_1 -> ~chi_2-  nu_tau)
#
#         PDG            Width
DECAY   2000015     3.03147903E+01   # stau_2 decays
#          BR         NDA      ID1       ID2
     2.01470388E-01    2     1000022        15   # BR(~tau_2 -> ~chi_10  tau-)
     5.81131876E-02    2     1000023        15   # BR(~tau_2 -> ~chi_20  tau-)
     2.54944789E-01    2     1000025        15   # BR(~tau_2 -> ~chi_30  tau-)
     1.45789666E-01    2     1000035        15   # BR(~tau_2 -> ~chi_40  tau-)
     4.72574955E-02    2    -1000024        16   # BR(~tau_2 -> ~chi_1-  nu_tau)
     2.92424473E-01    2    -1000037        16   # BR(~tau_2 -> ~chi_2-  nu_tau)
#
#         PDG            Width
DECAY   1000012     3.12857541E+01   # snu_eL decays
#          BR         NDA      ID1       ID2
     9.96896204E-02    2     1000022        12   # BR(~nu_eL -> ~chi_10 nu_e)
     7.41685457E-04    2     1000023        12   # BR(~nu_eL -> ~chi_20 nu_e)
     5.98069290E-02    2     1000025        12   # BR(~nu_eL -> ~chi_30 nu_e)
     2.79380773E-01    2     1000035        12   # BR(~nu_eL -> ~chi_40 nu_e)
     3.38064663E-03    2     1000024        11   # BR(~nu_eL -> ~chi_1+ e-)
     5.57000345E-01    2     1000037        11   # BR(~nu_eL -> ~chi_2+ e-)
#
#         PDG            Width
DECAY   1000014     3.12857541E+01   # snu_muL decays
#          BR         NDA      ID1       ID2
     9.96896204E-02    2     1000022        14   # BR(~nu_muL -> ~chi_10 nu_mu)
     7.41685457E-04    2     1000023        14   # BR(~nu_muL -> ~chi_20 nu_mu)
     5.98069290E-02    2     1000025        14   # BR(~nu_muL -> ~chi_30 nu_mu)
     2.79380773E-01    2     1000035        14   # BR(~nu_muL -> ~chi_40 nu_mu)
     3.38064663E-03    2     1000024        13   # BR(~nu_muL -> ~chi_1+ mu-)
     5.57000345E-01    2     1000037        13   # BR(~nu_muL -> ~chi_2+ mu-)
#
#         PDG            Width
DECAY   1000016     3.44475564E+01   # snu_tauL decays
#          BR         NDA      ID1       ID2
     9.05738304E-02    2     1000022        16   # BR(~nu_tauL -> ~chi_10 nu_tau)
     6.73867156E-04    2     1000023        16   # BR(~nu_tauL -> ~chi_20 nu_tau)
     5.43384218E-02    2     1000025        16   # BR(~nu_tauL -> ~chi_30 nu_tau)
     2.53954528E-01    2     1000035        16   # BR(~nu_tauL -> ~chi_40 nu_tau)
     9.41442662E-02    2     1000024        15   # BR(~nu_tauL -> ~chi_1+ tau-)
     5.06315087E-01    2     1000037        15   # BR(~nu_tauL -> ~chi_2+ tau-)
#
#         PDG            Width
DECAY   1000024     3.60113745E-05   # chargino1+ decays
#           BR         NDA      ID1       ID2       ID3
     3.33758278E-01    3     1000022         2        -1   # BR(~chi_1+ -> ~chi_10 u    db)
     3.33758278E-01    3     1000022         4        -3   # BR(~chi_1+ -> ~chi_10 c    sb)
     1.11254102E-01    3     1000022       -11        12   # BR(~chi_1+ -> ~chi_10 e+   nu_e)
     1.11254102E-01    3     1000022       -13        14   # BR(~chi_1+ -> ~chi_10 mu+  nu_mu)
     1.09975239E-01    3     1000022       -15        16   # BR(~chi_1+ -> ~chi_10 tau+ nu_tau)
#
#         PDG            Width
DECAY   1000037     5.06357049E+01   # chargino2+ decays
#          BR         NDA      ID1       ID2
     3.58080459E-01    2     1000006        -5   # BR(~chi_2+ -> ~t_1     bb)
     4.75980775E-05    2     2000006        -5   # BR(~chi_2+ -> ~t_2     bb)
     3.40026794E-01    2    -1000005         6   # BR(~chi_2+ -> ~b_1*    t )
     7.67024974E-02    2     1000024        23   # BR(~chi_2+ -> ~chi_1+  Z )
     2.82350324E-02    2     1000022        24   # BR(~chi_2+ -> ~chi_10  W+)
     7.47242910E-02    2     1000023        24   # BR(~chi_2+ -> ~chi_20  W+)
     4.64843823E-02    2     1000025        24   # BR(~chi_2+ -> ~chi_30  W+)
     7.56989457E-02    2     1000024        25   # BR(~chi_2+ -> ~chi_1+  h )
#
#         PDG            Width
DECAY   1000022     0.00000000E+00   # neutralino1 decays
#
#         PDG            Width
DECAY   1000023     3.79902434E-05   # neutralino2 decays
#          BR         NDA      ID1       ID2
     8.91469348E-04    2     1000022        22   # BR(~chi_20 -> ~chi_10 gam)
#           BR         NDA      ID1       ID2       ID3
     1.18917871E-01    3     1000022        -2         2   # BR(~chi_20 -> ~chi_10 ub      u)
     1.54273966E-01    3     1000022        -1         1   # BR(~chi_20 -> ~chi_10 db      d)
     1.18917871E-01    3     1000022        -4         4   # BR(~chi_20 -> ~chi_10 cb      c)
     1.54273966E-01    3     1000022        -3         3   # BR(~chi_20 -> ~chi_10 sb      s)
     1.34799314E-01    3     1000022        -5         5   # BR(~chi_20 -> ~chi_10 bb      b)
     3.53876826E-02    3     1000022       -11        11   # BR(~chi_20 -> ~chi_10 e+      e-)
     3.53876826E-02    3     1000022       -13        13   # BR(~chi_20 -> ~chi_10 mu+     mu-)
     3.49046927E-02    3     1000022       -15        15   # BR(~chi_20 -> ~chi_10 tau+    tau-)
     7.07478827E-02    3     1000022       -12        12   # BR(~chi_20 -> ~chi_10 nu_eb   nu_e)
     7.07478827E-02    3     1000022       -14        14   # BR(~chi_20 -> ~chi_10 nu_mub  nu_mu)
     7.07478816E-02    3     1000022       -16        16   # BR(~chi_20 -> ~chi_10 nu_taub nu_tau)
     3.44362675E-07    3     1000024        -2         1   # BR(~chi_20 -> ~chi_1+ ub      d)
     3.44362675E-07    3    -1000024        -1         2   # BR(~chi_20 -> ~chi_1- db      u)
     3.44362675E-07    3     1000024        -4         3   # BR(~chi_20 -> ~chi_1+ cb      s)
     3.44362675E-07    3    -1000024        -3         4   # BR(~chi_20 -> ~chi_1- sb      c)
     1.14787634E-07    3     1000024       -12        11   # BR(~chi_20 -> ~chi_1+ nu_eb   e-)
     1.14787634E-07    3    -1000024        12       -11   # BR(~chi_20 -> ~chi_1- nu_e    e+)
     1.14787634E-07    3     1000024       -14        13   # BR(~chi_20 -> ~chi_1+ nu_mub  mu-)
     1.14787634E-07    3    -1000024        14       -13   # BR(~chi_20 -> ~chi_1- nu_mu   mu+)
     3.82225766E-10    3     1000024       -16        15   # BR(~chi_20 -> ~chi_1+ nu_taub tau-)
     3.82225766E-10    3    -1000024        16       -15   # BR(~chi_20 -> ~chi_1- nu_tau  tau+)
#
#         PDG            Width
DECAY   1000025     1.17508761E-05   # neutralino3 decays
#          BR         NDA      ID1       ID2
     8.29469871E-02    2     1000022        22   # BR(~chi_30 -> ~chi_10 gam)
     1.26879029E-02    2     1000023        22   # BR(~chi_30 -> ~chi_20 gam)
#           BR         NDA      ID1       ID2       ID3
     1.21271163E-03    3     1000022        -2         2   # BR(~chi_30 -> ~chi_10 ub      u)
     1.53828345E-03    3     1000022        -1         1   # BR(~chi_30 -> ~chi_10 db      d)
     1.21271163E-03    3     1000022        -4         4   # BR(~chi_30 -> ~chi_10 cb      c)
     1.53828345E-03    3     1000022        -3         3   # BR(~chi_30 -> ~chi_10 sb      s)
     1.49496451E-03    3     1000022        -5         5   # BR(~chi_30 -> ~chi_10 bb      b)
     3.26388772E-04    3     1000022       -11        11   # BR(~chi_30 -> ~chi_10 e+      e-)
     3.26388772E-04    3     1000022       -13        13   # BR(~chi_30 -> ~chi_10 mu+     mu-)
     3.31612356E-04    3     1000022       -15        15   # BR(~chi_30 -> ~chi_10 tau+    tau-)
     7.19093864E-04    3     1000022       -12        12   # BR(~chi_30 -> ~chi_10 nu_eb   nu_e)
     7.19093864E-04    3     1000022       -14        14   # BR(~chi_30 -> ~chi_10 nu_mub  nu_mu)
     7.19085738E-04    3     1000022       -16        16   # BR(~chi_30 -> ~chi_10 nu_taub nu_tau)
     2.20592112E-02    3     1000023        -2         2   # BR(~chi_30 -> ~chi_20 ub      u)
     2.86183107E-02    3     1000023        -1         1   # BR(~chi_30 -> ~chi_20 db      d)
     2.20592112E-02    3     1000023        -4         4   # BR(~chi_30 -> ~chi_20 cb      c)
     2.86183107E-02    3     1000023        -3         3   # BR(~chi_30 -> ~chi_20 sb      s)
     1.77216290E-02    3     1000023        -5         5   # BR(~chi_30 -> ~chi_20 bb      b)
     6.56479654E-03    3     1000023       -11        11   # BR(~chi_30 -> ~chi_20 e+      e-)
     6.56479654E-03    3     1000023       -13        13   # BR(~chi_30 -> ~chi_20 mu+     mu-)
     6.30151618E-03    3     1000023       -15        15   # BR(~chi_30 -> ~chi_20 tau+    tau-)
     1.31233692E-02    3     1000023       -12        12   # BR(~chi_30 -> ~chi_20 nu_eb   nu_e)
     1.31233692E-02    3     1000023       -14        14   # BR(~chi_30 -> ~chi_20 nu_mub  nu_mu)
     1.31233693E-02    3     1000023       -16        16   # BR(~chi_30 -> ~chi_20 nu_taub nu_tau)
     1.19778699E-01    3     1000024        -2         1   # BR(~chi_30 -> ~chi_1+ ub      d)
     1.19778699E-01    3    -1000024        -1         2   # BR(~chi_30 -> ~chi_1- db      u)
     1.19778699E-01    3     1000024        -4         3   # BR(~chi_30 -> ~chi_1+ cb      s)
     1.19778699E-01    3    -1000024        -3         4   # BR(~chi_30 -> ~chi_1- sb      c)
     3.99256976E-02    3     1000024       -12        11   # BR(~chi_30 -> ~chi_1+ nu_eb   e-)
     3.99256976E-02    3    -1000024        12       -11   # BR(~chi_30 -> ~chi_1- nu_e    e+)
     3.99256976E-02    3     1000024       -14        13   # BR(~chi_30 -> ~chi_1+ nu_mub  mu-)
     3.99256976E-02    3    -1000024        14       -13   # BR(~chi_30 -> ~chi_1- nu_mu   mu+)
     3.87655077E-02    3     1000024       -16        15   # BR(~chi_30 -> ~chi_1+ nu_taub tau-)
     3.87655077E-02    3    -1000024        16       -15   # BR(~chi_30 -> ~chi_1- nu_tau  tau+)
#
#         PDG            Width
DECAY   1000035     5.06190897E+01   # neutralino4 decays
#          BR         NDA      ID1       ID2
     8.56430870E-03    2     1000022        23   # BR(~chi_40 -> ~chi_10   Z )
     5.56153013E-02    2     1000023        23   # BR(~chi_40 -> ~chi_20   Z )
     1.25415931E-02    2     1000025        23   # BR(~chi_40 -> ~chi_30   Z )
     7.47487084E-02    2     1000024       -24   # BR(~chi_40 -> ~chi_1+   W-)
     7.47487084E-02    2    -1000024        24   # BR(~chi_40 -> ~chi_1-   W+)
     2.01061569E-02    2     1000022        25   # BR(~chi_40 -> ~chi_10   h )
     2.08225510E-02    2     1000023        25   # BR(~chi_40 -> ~chi_20   h )
     3.45853323E-02    2     1000025        25   # BR(~chi_40 -> ~chi_30   h )
     1.74557443E-01    2     1000006        -6   # BR(~chi_40 -> ~t_1      tb)
     1.74557443E-01    2    -1000006         6   # BR(~chi_40 -> ~t_1*     t )
     1.74576227E-01    2     1000005        -5   # BR(~chi_40 -> ~b_1      bb)
     1.74576227E-01    2    -1000005         5   # BR(~chi_40 -> ~b_1*     b )
#
#         PDG            Width
DECAY        25     4.05389000E-03   # h decays
#          BR         NDA      ID1       ID2
     5.82758281E-01    2           5        -5   # BR(h -> b       bb     )
     6.44891832E-02    2         -15        15   # BR(h -> tau+    tau-   )
     2.28289349E-04    2         -13        13   # BR(h -> mu+     mu-    )
     4.83809716E-04    2           3        -3   # BR(h -> s       sb     )
     2.10148651E-02    2           4        -4   # BR(h -> c       cb     )
     6.88707278E-02    2          21        21   # BR(h -> g       g      )
     2.40425410E-03    2          22        22   # BR(h -> gam     gam    )
     1.68185416E-03    2          22        23   # BR(h -> Z       gam    )
     2.28925350E-01    2          24       -24   # BR(h -> W+      W-     )
     2.91433857E-02    2          23        23   # BR(h -> Z       Z      )
#
#         PDG            Width
DECAY        35     5.60063499E+01   # H decays
#          BR         NDA      ID1       ID2
     3.72614941E-01    2           5        -5   # BR(H -> b       bb     )
     5.92004358E-02    2         -15        15   # BR(H -> tau+    tau-   )
     2.09318402E-04    2         -13        13   # BR(H -> mu+     mu-    )
     2.47587588E-04    2           3        -3   # BR(H -> s       sb     )
     6.94354233E-08    2           4        -4   # BR(H -> c       cb     )
     6.95887505E-03    2           6        -6   # BR(H -> t       tb     )
     4.57091963E-07    2          21        21   # BR(H -> g       g      )
     1.28169431E-08    2          22        22   # BR(H -> gam     gam    )
     1.79243553E-09    2          23        22   # BR(H -> Z       gam    )
     1.60226482E-06    2          24       -24   # BR(H -> W+      W-     )
     8.00577486E-07    2          23        23   # BR(H -> Z       Z      )
     6.59616252E-06    2          25        25   # BR(H -> h       h      )
    -2.24510439E-25    2          36        36   # BR(H -> A       A      )
    -8.90879571E-21    2          23        36   # BR(H -> Z       A      )
     1.86138050E-03    2     1000024  -1000024   # BR(H -> ~chi_1+ ~chi_1-)
     1.48243205E-01    2     1000024  -1000037   # BR(H -> ~chi_1+ ~chi_2-)
     1.48243205E-01    2     1000037  -1000024   # BR(H -> ~chi_2+ ~chi_1-)
     2.48054758E-02    2     1000022   1000022   # BR(H -> ~chi_10 ~chi_10)
     3.39536318E-04    2     1000023   1000023   # BR(H -> ~chi_20 ~chi_20)
     1.64725357E-02    2     1000025   1000025   # BR(H -> ~chi_30 ~chi_30)
     2.02060549E-02    2     1000022   1000023   # BR(H -> ~chi_10 ~chi_20)
     1.10197933E-03    2     1000022   1000025   # BR(H -> ~chi_10 ~chi_30)
     3.11547496E-02    2     1000022   1000035   # BR(H -> ~chi_10 ~chi_40)
     1.64830058E-02    2     1000023   1000025   # BR(H -> ~chi_20 ~chi_30)
     8.22329818E-02    2     1000023   1000035   # BR(H -> ~chi_20 ~chi_40)
     3.53705926E-02    2     1000025   1000035   # BR(H -> ~chi_30 ~chi_40)
     2.17403047E-03    2     1000006  -1000006   # BR(H -> ~t_1    ~t_1*  )
     4.69470739E-04    2     2000006  -2000006   # BR(H -> ~t_2    ~t_2*  )
     1.58004801E-02    2     1000006  -2000006   # BR(H -> ~t_1    ~t_2*  )
     1.58004801E-02    2     2000006  -1000006   # BR(H -> ~t_2    ~t_1*  )
     1.38366726E-07    2     1000005  -1000005   # BR(H -> ~b_1    ~b_1*  )
#
#         PDG            Width
DECAY        36     5.60069350E+01   # A decays
#          BR         NDA      ID1       ID2
     3.72637011E-01    2           5        -5   # BR(A -> b       bb     )
     5.92001258E-02    2         -15        15   # BR(A -> tau+    tau-   )
     2.09317141E-04    2         -13        13   # BR(A -> mu+     mu-    )
     2.47626468E-04    2           3        -3   # BR(A -> s       sb     )
     6.98915815E-08    2           4        -4   # BR(A -> c       cb     )
     6.97293947E-03    2           6        -6   # BR(A -> t       tb     )
     1.43276232E-05    2          21        21   # BR(A -> g       g      )
     7.13183846E-08    2          22        22   # BR(A -> gam     gam    )
     1.57560488E-08    2          23        22   # BR(A -> Z       gam    )
     1.59885091E-06    2          23        25   # BR(A -> Z       h      )
     1.93790542E-03    2     1000024  -1000024   # BR(A -> ~chi_1+ ~chi_1-)
     1.48191372E-01    2     1000024  -1000037   # BR(A -> ~chi_1+ ~chi_2-)
     1.48191372E-01    2     1000037  -1000024   # BR(A -> ~chi_2+ ~chi_1-)
     2.22214412E-02    2     1000022   1000022   # BR(A -> ~chi_10 ~chi_10)
     4.53539644E-04    2     1000023   1000023   # BR(A -> ~chi_20 ~chi_20)
     1.46912154E-02    2     1000025   1000025   # BR(A -> ~chi_30 ~chi_30)
     2.33381396E-02    2     1000022   1000023   # BR(A -> ~chi_10 ~chi_20)
     9.15984250E-04    2     1000022   1000025   # BR(A -> ~chi_10 ~chi_30)
     3.85113224E-02    2     1000022   1000035   # BR(A -> ~chi_10 ~chi_40)
     1.78017056E-02    2     1000023   1000025   # BR(A -> ~chi_20 ~chi_30)
     6.57954550E-02    2     1000023   1000035   # BR(A -> ~chi_20 ~chi_40)
     4.43630505E-02    2     1000025   1000035   # BR(A -> ~chi_30 ~chi_40)
     1.71521967E-02    2     1000006  -2000006   # BR(A -> ~t_1    ~t_2*  )
     1.71521967E-02    2    -1000006   2000006   # BR(A -> ~t_1*   ~t_2   )
#
#         PDG            Width
DECAY        37     5.63415646E+01   # H+ decays
#          BR         NDA      ID1       ID2
     6.01940575E-04    2           4        -5   # BR(H+ -> c       bb     )
     5.88636159E-02    2         -15        16   # BR(H+ -> tau+    nu_tau )
     2.08127325E-04    2         -13        14   # BR(H+ -> mu+     nu_mu  )
     3.85241645E-06    2           2        -5   # BR(H+ -> u       bb     )
     1.17908038E-05    2           2        -3   # BR(H+ -> u       sb     )
     2.42574751E-04    2           4        -3   # BR(H+ -> c       sb     )
     3.82760378E-01    2           6        -5   # BR(H+ -> t       bb     )
     1.59113490E-06    2          24        25   # BR(H+ -> W+      h      )
     2.65805781E-14    2          24        36   # BR(H+ -> W+      A      )
     4.14306844E-02    2     1000024   1000022   # BR(H+ -> ~chi_1+ ~chi_10)
     1.19781453E-04    2     1000024   1000023   # BR(H+ -> ~chi_1+ ~chi_20)
     3.80093943E-02    2     1000024   1000025   # BR(H+ -> ~chi_1+ ~chi_30)
     1.47556807E-01    2     1000024   1000035   # BR(H+ -> ~chi_1+ ~chi_40)
     6.94344274E-02    2     1000037   1000022   # BR(H+ -> ~chi_2+ ~chi_10)
     1.47100371E-01    2     1000037   1000023   # BR(H+ -> ~chi_2+ ~chi_20)
     7.94932220E-02    2     1000037   1000025   # BR(H+ -> ~chi_2+ ~chi_30)
     1.11229439E-03    2     1000006  -1000005   # BR(H+ -> ~t_1    ~b_1*  )
     3.30491473E-02    2     2000006  -1000005   # BR(H+ -> ~t_2    ~b_1*  )
