#  ISAJET SUSY parameters in SUSY Les Houches Accord 2 format
#  Created by ISALHA 2.0 Last revision: H Baer 27 May 2014
Block SPINFO   # Program information
     1   ISASUGRA/ISASUSY from ISAJET   # Spectrum Calculator
     2   7.87   18-JUL-2017 13:55:55    # Version number
Block MODSEL   # Model selection
     1    13   # Non-universal supergravity model                  
Block SMINPUTS   # Standard Model inputs
     1     1.28000000E+02   # alpha_em^(-1)
     2     1.16570000E-05   # G_Fermi
     3     1.19999997E-01   # alpha_s(M_Z)
     4     9.11699982E+01   # m_{Z}(pole)
     5     4.19999981E+00   # m_{b}(m_{b})
     6     1.72500000E+02   # m_{top}(pole)
     7     1.77699995E+00   # m_{tau}(pole)
Block MINPAR   # SUSY breaking input parameters
     1     5.00000000E+03   # m_0
     2     5.00000000E+03   # m_{1/2}
     3     1.50000000E+01   # tan(beta)
     4     1.00000000E+00   # sign(mu)
     5    -8.00000000E+03   # A_0
Block EXTPAR   # Non-universal SUSY breaking parameters
     0     1.05538052E+16   # Input scale
    21    -5.63167900E+06   # Down type Higgs mass squared
    22     8.27971920E+07   #  Up  type Higgs mass squared
Block MASS   # Scalar and gaugino mass spectrum
#  PDG code   mass                 particle
         6     1.72500000E+02   #  top            
        24     8.04229965E+01   #  W^+
        25     1.25660255E+02   #  h^0            
        35     1.00666895E+03   #  H^0            
        36     1.00000000E+03   #  A^0            
        37     1.00322870E+03   #  H^+            
   1000001     1.01525332E+04   #  dnl            
   1000002     1.01522012E+04   #  upl            
   1000003     1.01525332E+04   #  stl            
   1000004     1.01522012E+04   #  chl            
   1000005     8.41376758E+03   #  b1             
   1000006     5.94272607E+03   #  t1             
   1000011     6.12008203E+03   #  el-            
   1000012     6.11669922E+03   #  nuel           
   1000013     6.12008203E+03   #  mul-           
   1000014     6.11669922E+03   #  numl           
   1000015     4.71430420E+03   #  tau1           
   1000016     6.04019434E+03   #  nutl           
   1000021     1.00063281E+04   #  glss           
   1000022     1.76278809E+02   #  z1ss           
   1000023    -1.78419067E+02   #  z2ss           
   1000024     1.85024323E+02   #  w1ss           
   1000025     2.27398242E+03   #  z3ss           
   1000035     4.17542041E+03   #  z4ss           
   1000037     4.12682471E+03   #  w2ss           
   1000039     1.00000002E+20   #  gvss
   2000001     9.70863086E+03   #  dnr            
   2000002     9.97746289E+03   #  upr            
   2000003     9.70863086E+03   #  str            
   2000004     9.97746289E+03   #  chr            
   2000005     9.47835059E+03   #  b2             
   2000006     8.43155176E+03   #  t2             
   2000011     4.89770166E+03   #  er-            
   2000013     4.89770166E+03   #  mur-           
   2000015     6.04197510E+03   #  tau2           
Block ALPHA   # Effective Higgs mixing parameter
         -6.81581870E-02   # alpha
Block STOPMIX   # stop mixing matrix
  1  1     4.23778482E-02   # O_{11}
  1  2     9.99101639E-01   # O_{12}
  2  1    -9.99101639E-01   # O_{21}
  2  2     4.23778482E-02   # O_{22}
Block SBOTMIX   # sbottom mixing matrix
  1  1     9.99986053E-01   # O_{11}
  1  2     5.28004952E-03   # O_{12}
  2  1    -5.28004952E-03   # O_{21}
  2  2     9.99986053E-01   # O_{22}
Block STAUMIX   # stau mixing matrix
  1  1     9.55776253E-04   # O_{11}
  1  2     9.99999523E-01   # O_{12}
  2  1    -9.99999523E-01   # O_{21}
  2  2     9.55776253E-04   # O_{22}
Block NMIX   # neutralino mixing matrix
  1  1     1.48181086E-02   #
  1  2    -1.44232428E-02   #
  1  3     7.09136963E-01   #
  1  4    -7.04767644E-01   #
  2  1    -1.10834064E-02   #
  2  2     1.08648157E-02   #
  2  3     7.05060899E-01   #
  2  4     7.08976805E-01   #
  3  1     9.99818265E-01   #
  3  2     4.95119393E-03   #
  3  3    -2.68216198E-03   #
  3  4     1.82215907E-02   #
  4  1    -4.61693853E-03   #
  4  2     9.99825120E-01   #
  4  3     2.58124736E-03   #
  4  4    -1.79613903E-02   #
Block UMIX   # chargino U mixing matrix
  1  1    -3.18207988E-03   # U_{11}
  1  2     9.99994934E-01   # U_{12}
  2  1    -9.99994934E-01   # U_{21}
  2  2    -3.18207988E-03   # U_{22}
Block VMIX   # chargino V mixing matrix
  1  1    -2.65892707E-02   # V_{11}
  1  2     9.99646425E-01   # V_{12}
  2  1    -9.99646425E-01   # V_{21}
  2  2    -2.65892707E-02   # V_{22}
Block GAUGE Q=  6.91228906E+03   #
     1     3.57524693E-01   # g`
     2     6.52378261E-01   # g_2
     3     1.21928358E+00   # g_3
Block YU Q=  6.91228906E+03   #
  3  3     7.93492615E-01   # y_t
Block YD Q=  6.91228906E+03   #
  3  3     1.76441267E-01   # y_b
Block YE Q=  6.91228906E+03   #
  3  3     1.47952914E-01   # y_tau
Block HMIX Q=  6.91228906E+03   # Higgs mixing parameters
     1     1.70000000E+02   # mu(Q)
     2     1.41993237E+01   # tan(beta)(Q)
     3     2.52928253E+02   # Higgs vev at Q
     4     1.00000000E+06   # m_A^2(Q)
Block MSOFT Q=  6.91228906E+03   # DRbar SUSY breaking parameters
     1     2.29040942E+03   # M_1(Q)          
     2     4.05821973E+03   # M_2(Q)          
     3     9.54530371E+03   # M_3(Q)          
    21     9.78858250E+05   # MHd^2(Q)        
    22     3.43732906E+05   # MHu^2(Q)        
    31     6.08562744E+03   # MeL(Q)          
    32     6.08562744E+03   # MmuL(Q)         
    33     6.01122998E+03   # MtauL(Q)        
    34     4.89229102E+03   # MeR(Q)          
    35     4.89229102E+03   # MmuR(Q)         
    36     4.71161182E+03   # MtauR(Q)        
    41     9.66576172E+03   # MqL1(Q)         
    42     9.66576172E+03   # MqL2(Q)         
    43     8.11520605E+03   # MqL3(Q)         
    44     9.49351660E+03   # MuR(Q)          
    45     9.49351660E+03   # McR(Q)          
    46     5.88768066E+03   # MtR(Q)          
    47     9.22995605E+03   # MdR(Q)          
    48     9.22995605E+03   # MsR(Q)          
    49     9.16280469E+03   # MbR(Q)          
Block AU Q=  6.91228906E+03   #
  1  1    -1.05826748E+04   # A_u
  2  2    -1.05826748E+04   # A_c
  3  3    -1.05826748E+04   # A_t
Block AD Q=  6.91228906E+03   #
  1  1    -1.70543809E+04   # A_d
  2  2    -1.70543809E+04   # A_s
  3  3    -1.70543809E+04   # A_b
Block AE Q=  6.91228906E+03   #
  1  1    -1.03397314E+04   # A_e
  2  2    -1.03397314E+04   # A_mu
  3  3    -1.03397314E+04   # A_tau
#  ISAJET decay tables in SUSY Les Houches accord format
#  Created by ISALHD. Last revision: C. Balazs, 2005 May 25
Block DCINFO                           # Program information
     1   ISASUGRA from ISAJET          # Spectrum Calculator
     2   7.87   18-JUL-2017 13:55:55   # Version number
#         PDG         Width
DECAY         6  1.46776152E+00   # TP    decays
#          BR          NDA       ID1       ID2       ID3       ID4
      3.33333313E-01    3            2        -1         5             # TP     -->  UP     DB     BT          
      3.33333313E-01    3            4        -3         5             # TP     -->  CH     SB     BT          
      1.11111097E-01    3          -11        12         5             # TP     -->  E+     NUE    BT          
      1.11111097E-01    3          -13        14         5             # TP     -->  MU+    NUM    BT          
      1.11111097E-01    3          -15        16         5             # TP     -->  TAU+   NUT    BT          
#         PDG         Width
DECAY   1000021  1.13501175E+02   # GLSS  decays
#          BR          NDA       ID1       ID2       ID3       ID4
      5.85037526E-07    3      1000024         1        -2             # GLSS   -->  W1SS+  DN     UB          
      5.85037526E-07    3     -1000024         2        -1             # GLSS   -->  W1SS-  UP     DB          
      5.85037526E-07    3      1000024         3        -4             # GLSS   -->  W1SS+  ST     CB          
      5.85037526E-07    3     -1000024         4        -3             # GLSS   -->  W1SS-  CH     SB          
      9.50957707E-04    3      1000037         1        -2             # GLSS   -->  W2SS+  DN     UB          
      9.50957707E-04    3     -1000037         2        -1             # GLSS   -->  W2SS-  UP     DB          
      9.50957707E-04    3      1000037         3        -4             # GLSS   -->  W2SS+  ST     CB          
      9.50957707E-04    3     -1000037         4        -3             # GLSS   -->  W2SS-  CH     SB          
      4.67151207E-10    2      1000022        21                       # GLSS   -->  Z1SS   GL                 
      1.11602120E-07    3      1000022         2        -2             # GLSS   -->  Z1SS   UP     UB          
      2.38990197E-07    3      1000022         1        -1             # GLSS   -->  Z1SS   DN     DB          
      2.38990197E-07    3      1000022         3        -3             # GLSS   -->  Z1SS   ST     SB          
      1.11602120E-07    3      1000022         4        -4             # GLSS   -->  Z1SS   CH     CB          
      2.72815048E-10    2      1000023        21                       # GLSS   -->  Z2SS   GL                 
      6.35201047E-08    3      1000023         2        -2             # GLSS   -->  Z2SS   UP     UB          
      1.35277205E-07    3      1000023         1        -1             # GLSS   -->  Z2SS   DN     DB          
      1.35277205E-07    3      1000023         3        -3             # GLSS   -->  Z2SS   ST     SB          
      6.35201047E-08    3      1000023         4        -4             # GLSS   -->  Z2SS   CH     CB          
      1.43529280E-06    2      1000025        21                       # GLSS   -->  Z3SS   GL                 
      2.87132243E-05    3      1000025         2        -2             # GLSS   -->  Z3SS   UP     UB          
      2.57572683E-05    3      1000025         1        -1             # GLSS   -->  Z3SS   DN     DB          
      2.57572683E-05    3      1000025         3        -3             # GLSS   -->  Z3SS   ST     SB          
      2.87132243E-05    3      1000025         4        -4             # GLSS   -->  Z3SS   CH     CB          
      1.10153909E-11    2      1000035        21                       # GLSS   -->  Z4SS   GL                 
      7.81220617E-04    3      1000035         2        -2             # GLSS   -->  Z4SS   UP     UB          
      7.83471274E-04    3      1000035         1        -1             # GLSS   -->  Z4SS   DN     DB          
      7.83471274E-04    3      1000035         3        -3             # GLSS   -->  Z4SS   ST     SB          
      7.81220617E-04    3      1000035         4        -4             # GLSS   -->  Z4SS   CH     CB          
      2.72485140E-05    2     -2000002         2                       # GLSS   -->  UBR    UP                 
      2.72485140E-05    2      2000002        -2                       # GLSS   -->  UPR    UB                 
      2.82088690E-03    2     -2000001         1                       # GLSS   -->  DBR    DN                 
      2.82088690E-03    2      2000001        -1                       # GLSS   -->  DNR    DB                 
      2.82088644E-03    2     -2000003         3                       # GLSS   -->  SBR    ST                 
      2.82088644E-03    2      2000003        -3                       # GLSS   -->  STR    SB                 
      2.72187845E-05    2     -2000004         4                       # GLSS   -->  CBR    CH                 
      2.72187845E-05    2      2000004        -4                       # GLSS   -->  CHR    CB                 
      7.04696402E-02    2     -1000005         5                       # GLSS   -->  BB1    BT                 
      7.04696402E-02    2      1000005        -5                       # GLSS   -->  BT1    BB                 
      8.66737310E-03    2     -2000005         5                       # GLSS   -->  BB2    BT                 
      8.66737310E-03    2      2000005        -5                       # GLSS   -->  BT2    BB                 
      3.42260003E-01    2     -1000006         6                       # GLSS   -->  TB1    TP                 
      3.42260003E-01    2      1000006        -6                       # GLSS   -->  TP1    TB                 
      6.93832114E-02    2     -2000006         6                       # GLSS   -->  TB2    TP                 
      6.93832114E-02    2      2000006        -6                       # GLSS   -->  TP2    TB                 
#         PDG         Width
DECAY   1000002  9.07973633E+01   # UPL   decays
#          BR          NDA       ID1       ID2       ID3       ID4
      6.44817555E-05    2      1000022         2                       # UPL    -->  Z1SS   UP                 
      3.67088651E-05    2      1000023         2                       # UPL    -->  Z2SS   UP                 
      1.50273498E-02    2      1000025         2                       # UPL    -->  Z3SS   UP                 
      3.24230701E-01    2      1000035         2                       # UPL    -->  Z4SS   UP                 
      4.51504299E-03    2      1000021         2                       # UPL    -->  GLSS   UP                 
      6.65048545E-04    2      1000024         1                       # UPL    -->  W1SS+  DN                 
      6.55460715E-01    2      1000037         1                       # UPL    -->  W2SS+  DN                 
#         PDG         Width
DECAY   1000001  9.07568512E+01   # DNL   decays
#          BR          NDA       ID1       ID2       ID3       ID4
      1.38218689E-04    2      1000022         1                       # DNL    -->  Z1SS   DN                 
      7.82540228E-05    2      1000023         1                       # DNL    -->  Z2SS   DN                 
      1.34935398E-02    2      1000025         1                       # DNL    -->  Z3SS   DN                 
      3.25494200E-01    2      1000035         1                       # DNL    -->  Z4SS   DN                 
      4.53731744E-03    2      1000021         1                       # DNL    -->  GLSS   DN                 
      9.52951450E-06    2     -1000024         2                       # DNL    -->  W1SS-  UP                 
      6.56248927E-01    2     -1000037         2                       # DNL    -->  W2SS-  UP                 
#         PDG         Width
DECAY   1000003  9.07568588E+01   # STL   decays
#          BR          NDA       ID1       ID2       ID3       ID4
      1.38218675E-04    2      1000022         3                       # STL    -->  Z1SS   ST                 
      7.82540155E-05    2      1000023         3                       # STL    -->  Z2SS   ST                 
      1.34935388E-02    2      1000025         3                       # STL    -->  Z3SS   ST                 
      3.25494170E-01    2      1000035         3                       # STL    -->  Z4SS   ST                 
      4.53731697E-03    2      1000021         3                       # STL    -->  GLSS   ST                 
      9.52951359E-06    2     -1000024         4                       # STL    -->  W1SS-  CH                 
      6.56248927E-01    2     -1000037         4                       # STL    -->  W2SS-  CH                 
#         PDG         Width
DECAY   1000004  9.07973480E+01   # CHL   decays
#          BR          NDA       ID1       ID2       ID3       ID4
      6.44817628E-05    2      1000022         4                       # CHL    -->  Z1SS   CH                 
      3.67088687E-05    2      1000023         4                       # CHL    -->  Z2SS   CH                 
      1.50273526E-02    2      1000025         4                       # CHL    -->  Z3SS   CH                 
      3.24230760E-01    2      1000035         4                       # CHL    -->  Z4SS   CH                 
      4.51484835E-03    2      1000021         4                       # CHL    -->  GLSS   CH                 
      6.65048661E-04    2      1000024         3                       # CHL    -->  W1SS+  ST                 
      6.55460835E-01    2      1000037         3                       # CHL    -->  W2SS+  ST                 
#         PDG         Width
DECAY   1000005  2.54897827E+02   # BT1   decays
#          BR          NDA       ID1       ID2       ID3       ID4
      1.09101934E-02    2      1000022         5                       # BT1    -->  Z1SS   BT                 
      1.07516348E-02    2      1000023         5                       # BT1    -->  Z2SS   BT                 
      3.79182072E-03    2      1000025         5                       # BT1    -->  Z3SS   BT                 
      7.90368021E-02    2      1000035         5                       # BT1    -->  Z4SS   BT                 
      3.90748173E-01    2     -1000024         6                       # BT1    -->  W1SS-  TP                 
      1.60450041E-01    2     -1000037         6                       # BT1    -->  W2SS-  TP                 
      3.43126565E-01    2          -24   1000006                       # BT1    -->  W-     TP1                
      1.18477782E-03    2          -37   1000006                       # BT1    -->  H-     TP1                
#         PDG         Width
DECAY   1000006  1.50461884E+02   # TP1   decays
#          BR          NDA       ID1       ID2       ID3       ID4
      2.32373789E-01    2      1000022         6                       # TP1    -->  Z1SS   TP                 
      2.35124871E-01    2      1000023         6                       # TP1    -->  Z2SS   TP                 
      6.48895130E-02    2      1000025         6                       # TP1    -->  Z3SS   TP                 
      6.31677040E-06    2      1000035         6                       # TP1    -->  Z4SS   TP                 
      4.67595041E-01    2      1000024         5                       # TP1    -->  W1SS+  BT                 
      1.04385144E-05    2      1000037         5                       # TP1    -->  W2SS+  BT                 
#         PDG         Width
DECAY   2000002  2.02730522E+01   # UPR   decays
#          BR          NDA       ID1       ID2       ID3       ID4
      2.44135867E-04    2      1000022         2                       # UPR    -->  Z1SS   UP                 
      1.36579663E-04    2      1000023         2                       # UPR    -->  Z2SS   UP                 
      9.99603093E-01    2      1000025         2                       # UPR    -->  Z3SS   UP                 
      1.61360258E-05    2      1000035         2                       # UPR    -->  Z4SS   UP                 
#         PDG         Width
DECAY   2000001  4.90141821E+00   # DNR   decays
#          BR          NDA       ID1       ID2       ID3       ID4
      2.45635776E-04    2      1000022         1                       # DNR    -->  Z1SS   DN                 
      1.37418639E-04    2      1000023         1                       # DNR    -->  Z2SS   DN                 
      9.99601126E-01    2      1000025         1                       # DNR    -->  Z3SS   DN                 
      1.58509574E-05    2      1000035         1                       # DNR    -->  Z4SS   DN                 
#         PDG         Width
DECAY   2000003  4.90141821E+00   # STR   decays
#          BR          NDA       ID1       ID2       ID3       ID4
      2.45635776E-04    2      1000022         3                       # STR    -->  Z1SS   ST                 
      1.37418639E-04    2      1000023         3                       # STR    -->  Z2SS   ST                 
      9.99601126E-01    2      1000025         3                       # STR    -->  Z3SS   ST                 
      1.58509574E-05    2      1000035         3                       # STR    -->  Z4SS   ST                 
#         PDG         Width
DECAY   2000004  2.02730522E+01   # CHR   decays
#          BR          NDA       ID1       ID2       ID3       ID4
      2.44135867E-04    2      1000022         4                       # CHR    -->  Z1SS   CH                 
      1.36579649E-04    2      1000023         4                       # CHR    -->  Z2SS   CH                 
      9.99603093E-01    2      1000025         4                       # CHR    -->  Z3SS   CH                 
      1.61360258E-05    2      1000035         4                       # CHR    -->  Z4SS   CH                 
#         PDG         Width
DECAY   2000005  3.21221733E+01   # BT2   decays
#          BR          NDA       ID1       ID2       ID3       ID4
      9.70545113E-02    2      1000022         5                       # BT2    -->  Z1SS   BT                 
      9.60682333E-02    2      1000023         5                       # BT2    -->  Z2SS   BT                 
      1.48064286E-01    2      1000025         5                       # BT2    -->  Z3SS   BT                 
      3.43709071E-05    2      1000035         5                       # BT2    -->  Z4SS   BT                 
      1.93022564E-01    2     -1000024         6                       # BT2    -->  W1SS-  TP                 
      6.21093131E-05    2     -1000037         6                       # BT2    -->  W2SS-  TP                 
      1.92925596E-04    2          -24   1000006                       # BT2    -->  W-     TP1                
      4.32457635E-03    2          -24   2000006                       # BT2    -->  W-     TP2                
      2.29661865E-03    2           23   1000005                       # BT2    -->  Z0     BT1                
      2.25365697E-03    2           25   1000005                       # BT2    -->  HL0    BT1                
      1.26792073E-01    2           36   1000005                       # BT2    -->  HA0    BT1                
      1.20214500E-01    2           35   1000005                       # BT2    -->  HH0    BT1                
      2.05598888E-03    2          -37   1000006                       # BT2    -->  H-     TP1                
      2.07563683E-01    2          -37   2000006                       # BT2    -->  H-     TP2                
#         PDG         Width
DECAY   2000006  2.77351715E+02   # TP2   decays
#          BR          NDA       ID1       ID2       ID3       ID4
      1.99962631E-02    2      1000024         5                       # TP2    -->  W1SS+  BT                 
      1.48020610E-01    2      1000037         5                       # TP2    -->  W2SS+  BT                 
      1.62443146E-01    2           23   1000006                       # TP2    -->  Z0     TP1                
      2.31870040E-01    2           25   1000006                       # TP2    -->  HL0    TP1                
      5.76030696E-04    2           35   1000006                       # TP2    -->  HH0    TP1                
      5.45856485E-04    2           36   1000006                       # TP2    -->  HA0    TP1                
      1.78633794E-01    2      1000022         6                       # TP2    -->  Z1SS   TP                 
      1.80815265E-01    2      1000023         6                       # TP2    -->  Z2SS   TP                 
      4.21698950E-03    2      1000025         6                       # TP2    -->  Z3SS   TP                 
      7.28818998E-02    2      1000035         6                       # TP2    -->  Z4SS   TP                 
#         PDG         Width
DECAY   1000011  2.85278835E+01   # EL-   decays
#          BR          NDA       ID1       ID2       ID3       ID4
      3.55423217E-05    2      1000022        11                       # EL-    -->  Z1SS   E-                 
      2.05385568E-05    2      1000023        11                       # EL-    -->  Z2SS   E-                 
      2.06260577E-01    2      1000025        11                       # EL-    -->  Z3SS   E-                 
      2.56622523E-01    2      1000035        11                       # EL-    -->  Z4SS   E-                 
      1.82539843E-05    2     -1000024        12                       # EL-    -->  W1SS-  NUE                
      5.37042558E-01    2     -1000037        12                       # EL-    -->  W2SS-  NUE                
#         PDG         Width
DECAY   1000013  2.85278835E+01   # MUL-  decays
#          BR          NDA       ID1       ID2       ID3       ID4
      3.55423217E-05    2      1000022        13                       # MUL-   -->  Z1SS   MU-                
      2.05385568E-05    2      1000023        13                       # MUL-   -->  Z2SS   MU-                
      2.06260577E-01    2      1000025        13                       # MUL-   -->  Z3SS   MU-                
      2.56622523E-01    2      1000035        13                       # MUL-   -->  Z4SS   MU-                
      1.82539843E-05    2     -1000024        14                       # MUL-   -->  W1SS-  NUM                
      5.37042558E-01    2     -1000037        14                       # MUL-   -->  W2SS-  NUM                
#         PDG         Width
DECAY   1000015  1.84499702E+01   # TAU1- decays
#          BR          NDA       ID1       ID2       ID3       ID4
      5.92947192E-02    2      1000022        15                       # TAU1-  -->  Z1SS   TAU-               
      5.84701560E-02    2      1000023        15                       # TAU1-  -->  Z2SS   TAU-               
      7.64941096E-01    2      1000025        15                       # TAU1-  -->  Z3SS   TAU-               
      1.28705392E-06    2      1000035        15                       # TAU1-  -->  Z4SS   TAU-               
      1.17292784E-01    2     -1000024        16                       # TAU1-  -->  W1SS-  NUT                
      5.25982546E-09    2     -1000037        16                       # TAU1-  -->  W2SS-  NUT                
#         PDG         Width
DECAY   1000012  2.83781548E+01   # NUEL  decays
#          BR          NDA       ID1       ID2       ID3       ID4
      4.61310818E-04    2      1000022        12                       # NUEL   -->  Z1SS   NUE                
      2.60421919E-04    2      1000023        12                       # NUEL   -->  Z2SS   NUE                
      1.99827448E-01    2      1000025        12                       # NUEL   -->  Z3SS   NUE                
      2.59963125E-01    2      1000035        12                       # NUEL   -->  Z4SS   NUE                
      1.28053909E-03    2      1000024        11                       # NUEL   -->  W1SS+  E-                 
      5.38207114E-01    2      1000037        11                       # NUEL   -->  W2SS+  E-                 
#         PDG         Width
DECAY   1000014  2.83781548E+01   # NUML  decays
#          BR          NDA       ID1       ID2       ID3       ID4
      4.61310818E-04    2      1000022        14                       # NUML   -->  Z1SS   NUM                
      2.60421919E-04    2      1000023        14                       # NUML   -->  Z2SS   NUM                
      1.99827448E-01    2      1000025        14                       # NUML   -->  Z3SS   NUM                
      2.59963125E-01    2      1000035        14                       # NUML   -->  Z4SS   NUM                
      1.28053909E-03    2      1000024        13                       # NUML   -->  W1SS+  MU-                
      5.38207114E-01    2      1000037        13                       # NUML   -->  W2SS+  MU-                
#         PDG         Width
DECAY   1000016  3.18828335E+01   # NUTL  decays
#          BR          NDA       ID1       ID2       ID3       ID4
      4.05448955E-04    2      1000022        16                       # NUTL   -->  Z1SS   NUT                
      2.28886274E-04    2      1000023        16                       # NUTL   -->  Z2SS   NUT                
      1.74203873E-01    2      1000025        16                       # NUTL   -->  Z3SS   NUT                
      2.18440741E-01    2      1000035        16                       # NUTL   -->  Z4SS   NUT                
      8.81925672E-02    2      1000024        15                       # NUTL   -->  W1SS+  TAU-               
      4.53117371E-01    2      1000037        15                       # NUTL   -->  W2SS+  TAU-               
      2.43955117E-04    2           24   1000015                       # NUTL   -->  W+     TAU1-              
      6.51671737E-02    2           37   1000015                       # NUTL   -->  H+     TAU1-              
#         PDG         Width
DECAY   2000011  1.53314486E+01   # ER-   decays
#          BR          NDA       ID1       ID2       ID3       ID4
      3.55850498E-04    2      1000022        11                       # ER-    -->  Z1SS   E-                 
      1.99067814E-04    2      1000023        11                       # ER-    -->  Z2SS   E-                 
      9.99442458E-01    2      1000025        11                       # ER-    -->  Z3SS   E-                 
      2.58507407E-06    2      1000035        11                       # ER-    -->  Z4SS   E-                 
#         PDG         Width
DECAY   2000013  1.53314486E+01   # MUR-  decays
#          BR          NDA       ID1       ID2       ID3       ID4
      3.55850498E-04    2      1000022        13                       # MUR-   -->  Z1SS   MU-                
      1.99067814E-04    2      1000023        13                       # MUR-   -->  Z2SS   MU-                
      9.99442458E-01    2      1000025        13                       # MUR-   -->  Z3SS   MU-                
      2.58507407E-06    2      1000035        13                       # MUR-   -->  Z4SS   MU-                
#         PDG         Width
DECAY   2000015  3.20170174E+01   # TAU2- decays
#          BR          NDA       ID1       ID2       ID3       ID4
      4.36446741E-02    2      1000022        15                       # TAU2-  -->  Z1SS   TAU-               
      4.31436859E-02    2      1000023        15                       # TAU2-  -->  Z2SS   TAU-               
      1.79929167E-01    2      1000025        15                       # TAU2-  -->  Z3SS   TAU-               
      2.15624481E-01    2      1000035        15                       # TAU2-  -->  Z4SS   TAU-               
      1.38798396E-05    2     -1000024        16                       # TAU2-  -->  W1SS-  NUT                
      4.52132225E-01    2     -1000037        16                       # TAU2-  -->  W2SS-  NUT                
      1.23322709E-04    2           23   1000015                       # TAU2-  -->  Z0     TAU1-              
      3.56905890E-04    2           25   1000015                       # TAU2-  -->  HL0    TAU1-              
      3.26650962E-02    2           36   1000015                       # TAU2-  -->  HA0    TAU1-              
      3.23665664E-02    2           35   1000015                       # TAU2-  -->  HH0    TAU1-              
#         PDG         Width
DECAY   1000023  5.82901921E-11   # Z2SS  decays
#          BR          NDA       ID1       ID2       ID3       ID4
      4.34761733E-01    2      1000022        22                       # Z2SS   -->  Z1SS   GM                 
      9.56385285E-02    3      1000022         2        -2             # Z2SS   -->  Z1SS   UP     UB          
      1.23326510E-01    3      1000022         1        -1             # Z2SS   -->  Z1SS   DN     DB          
      1.23326510E-01    3      1000022         3        -3             # Z2SS   -->  Z1SS   ST     SB          
      2.79765576E-02    3      1000022        11       -11             # Z2SS   -->  Z1SS   E-     E+          
      2.79765576E-02    3      1000022        13       -13             # Z2SS   -->  Z1SS   MU-    MU+         
      5.56645542E-02    3      1000022        12       -12             # Z2SS   -->  Z1SS   NUE    ANUE        
      5.56645542E-02    3      1000022        14       -14             # Z2SS   -->  Z1SS   NUM    ANUM        
      5.56645542E-02    3      1000022        16       -16             # Z2SS   -->  Z1SS   NUT    ANUT        
#         PDG         Width
DECAY   1000025  8.95551872E+00   # Z3SS  decays
#          BR          NDA       ID1       ID2       ID3       ID4
      3.16020348E-08    2      1000022        22                       # Z3SS   -->  Z1SS   GM                 
      3.18657065E-08    2      1000023        22                       # Z3SS   -->  Z2SS   GM                 
      1.44856408E-01    2      1000024       -24                       # Z3SS   -->  W1SS+  W-                 
      1.44856408E-01    2     -1000024        24                       # Z3SS   -->  W1SS-  W+                 
      1.03302188E-01    2      1000024       -37                       # Z3SS   -->  W1SS+  H-                 
      1.03302188E-01    2     -1000024        37                       # Z3SS   -->  W1SS-  H+                 
      5.09203076E-02    2      1000022        23                       # Z3SS   -->  Z1SS   Z0                 
      9.31328759E-02    2      1000023        23                       # Z3SS   -->  Z2SS   Z0                 
      7.43409362E-11    3      1000022         2        -2             # Z3SS   -->  Z1SS   UP     UB          
      1.43734035E-11    3      1000022         1        -1             # Z3SS   -->  Z1SS   DN     DB          
      1.43734035E-11    3      1000022         3        -3             # Z3SS   -->  Z1SS   ST     SB          
      7.43409362E-11    3      1000022         4        -4             # Z3SS   -->  Z1SS   CH     CB          
      9.55373824E-09    3      1000022         5        -5             # Z3SS   -->  Z1SS   BT     BB          
      2.35594855E-09    3      1000022        11       -11             # Z3SS   -->  Z1SS   E-     E+          
      2.35594855E-09    3      1000022        13       -13             # Z3SS   -->  Z1SS   MU-    MU+         
      6.97952089E-07    3      1000022        15       -15             # Z3SS   -->  Z1SS   TAU-   TAU+        
      4.19898838E-10    3      1000022        12       -12             # Z3SS   -->  Z1SS   NUE    ANUE        
      4.19898838E-10    3      1000022        14       -14             # Z3SS   -->  Z1SS   NUM    ANUM        
      4.42928555E-10    3      1000022        16       -16             # Z3SS   -->  Z1SS   NUT    ANUT        
      3.13809291E-11    3      1000023         2        -2             # Z3SS   -->  Z2SS   UP     UB          
      6.10841065E-12    3      1000023         1        -1             # Z3SS   -->  Z2SS   DN     DB          
      6.10841065E-12    3      1000023         3        -3             # Z3SS   -->  Z2SS   ST     SB          
      3.13809291E-11    3      1000023         4        -4             # Z3SS   -->  Z2SS   CH     CB          
      9.42900247E-09    3      1000023         5        -5             # Z3SS   -->  Z2SS   BT     BB          
      1.00794129E-09    3      1000023        11       -11             # Z3SS   -->  Z2SS   E-     E+          
      1.00794129E-09    3      1000023        13       -13             # Z3SS   -->  Z2SS   MU-    MU+         
      6.87569525E-07    3      1000023        15       -15             # Z3SS   -->  Z2SS   TAU-   TAU+        
      1.79950721E-10    3      1000023        12       -12             # Z3SS   -->  Z2SS   NUE    ANUE        
      1.79950721E-10    3      1000023        14       -14             # Z3SS   -->  Z2SS   NUM    ANUM        
      1.89878599E-10    3      1000023        16       -16             # Z3SS   -->  Z2SS   NUT    ANUT        
      1.02474645E-01    2      1000022        25                       # Z3SS   -->  Z1SS   HL0                
      5.28794602E-02    2      1000022        35                       # Z3SS   -->  Z1SS   HH0                
      4.72983196E-02    2      1000022        36                       # Z3SS   -->  Z1SS   HA0                
      5.76557443E-02    2      1000023        25                       # Z3SS   -->  Z2SS   HL0                
      4.65052873E-02    2      1000023        35                       # Z3SS   -->  Z2SS   HH0                
      5.28146438E-02    2      1000023        36                       # Z3SS   -->  Z2SS   HA0                
#         PDG         Width
DECAY   1000035  6.59123917E+01   # Z4SS  decays
#          BR          NDA       ID1       ID2       ID3       ID4
      2.42539215E-07    2      1000022        22                       # Z4SS   -->  Z1SS   GM                 
      3.59651693E-07    2      1000023        22                       # Z4SS   -->  Z2SS   GM                 
      4.40964731E-09    2      1000025        22                       # Z4SS   -->  Z3SS   GM                 
      1.39138773E-01    2      1000024       -24                       # Z4SS   -->  W1SS+  W-                 
      1.39138773E-01    2     -1000024        24                       # Z4SS   -->  W1SS-  W+                 
      1.16239578E-01    2      1000024       -37                       # Z4SS   -->  W1SS+  H-                 
      1.16239578E-01    2     -1000024        37                       # Z4SS   -->  W1SS-  H+                 
      8.86455018E-06    3     -1000037         2        -1             # Z4SS   -->  W2SS-  UP     DB          
      2.95485006E-06    3     -1000037        12       -11             # Z4SS   -->  W2SS-  NUE    E+          
      2.95485006E-06    3     -1000037        14       -13             # Z4SS   -->  W2SS-  NUM    MU+         
      8.86455018E-06    3      1000037         1        -2             # Z4SS   -->  W2SS+  DN     UB          
      2.95485006E-06    3      1000037        11       -12             # Z4SS   -->  W2SS+  E-     ANUE        
      2.95485006E-06    3      1000037        13       -14             # Z4SS   -->  W2SS+  MU-    ANUM        
      8.86455018E-06    3     -1000037         4        -3             # Z4SS   -->  W2SS-  CH     SB          
      2.95485006E-06    3     -1000037        16       -15             # Z4SS   -->  W2SS-  NUT    TAU+        
      8.86455018E-06    3      1000037         3        -4             # Z4SS   -->  W2SS+  ST     CB          
      2.95485006E-06    3      1000037        15       -16             # Z4SS   -->  W2SS+  TAU-   ANUT        
      4.24704663E-02    2      1000022        23                       # Z4SS   -->  Z1SS   Z0                 
      7.66989142E-02    2      1000023        23                       # Z4SS   -->  Z2SS   Z0                 
      1.30466187E-05    2      1000025        23                       # Z4SS   -->  Z3SS   Z0                 
      4.29168090E-10    3      1000022         2        -2             # Z4SS   -->  Z1SS   UP     UB          
      9.22471988E-10    3      1000022         1        -1             # Z4SS   -->  Z1SS   DN     DB          
      9.22471988E-10    3      1000022         3        -3             # Z4SS   -->  Z1SS   ST     SB          
      4.29168090E-10    3      1000022         4        -4             # Z4SS   -->  Z1SS   CH     CB          
      5.21670188E-07    3      1000022         5        -5             # Z4SS   -->  Z1SS   BT     BB          
      4.20691898E-10    3      1000022        11       -11             # Z4SS   -->  Z1SS   E-     E+          
      4.20691898E-10    3      1000022        13       -13             # Z4SS   -->  Z1SS   MU-    MU+         
      5.81632094E-07    3      1000022        15       -15             # Z4SS   -->  Z1SS   TAU-   TAU+        
      5.50217250E-09    3      1000022        12       -12             # Z4SS   -->  Z1SS   NUE    ANUE        
      5.50217250E-09    3      1000022        14       -14             # Z4SS   -->  Z1SS   NUM    ANUM        
      5.86941118E-09    3      1000022        16       -16             # Z4SS   -->  Z1SS   NUT    ANUT        
      2.09118139E-10    3      1000023         2        -2             # Z4SS   -->  Z2SS   UP     UB          
      4.47016119E-10    3      1000023         1        -1             # Z4SS   -->  Z2SS   DN     DB          
      4.47016119E-10    3      1000023         3        -3             # Z4SS   -->  Z2SS   ST     SB          
      2.09118139E-10    3      1000023         4        -4             # Z4SS   -->  Z2SS   CH     CB          
      5.14353758E-07    3      1000023         5        -5             # Z4SS   -->  Z2SS   BT     BB          
      2.11998516E-10    3      1000023        11       -11             # Z4SS   -->  Z2SS   E-     E+          
      2.11998516E-10    3      1000023        13       -13             # Z4SS   -->  Z2SS   MU-    MU+         
      5.74707087E-07    3      1000023        15       -15             # Z4SS   -->  Z2SS   TAU-   TAU+        
      2.70882983E-09    3      1000023        12       -12             # Z4SS   -->  Z2SS   NUE    ANUE        
      2.70882983E-09    3      1000023        14       -14             # Z4SS   -->  Z2SS   NUM    ANUM        
      2.89218982E-09    3      1000023        16       -16             # Z4SS   -->  Z2SS   NUT    ANUT        
      1.82797510E-08    3      1000025         2        -2             # Z4SS   -->  Z3SS   UP     UB          
      1.64563581E-08    3      1000025         1        -1             # Z4SS   -->  Z3SS   DN     DB          
      1.64563581E-08    3      1000025         3        -3             # Z4SS   -->  Z3SS   ST     SB          
      1.82797510E-08    3      1000025         4        -4             # Z4SS   -->  Z3SS   CH     CB          
      3.89365518E-08    3      1000025         5        -5             # Z4SS   -->  Z3SS   BT     BB          
      6.37821643E-07    3      1000025        11       -11             # Z4SS   -->  Z3SS   E-     E+          
      6.37821643E-07    3      1000025        13       -13             # Z4SS   -->  Z3SS   MU-    MU+         
      6.86625867E-07    3      1000025        15       -15             # Z4SS   -->  Z3SS   TAU-   TAU+        
      6.23209075E-07    3      1000025        12       -12             # Z4SS   -->  Z3SS   NUE    ANUE        
      6.23209075E-07    3      1000025        14       -14             # Z4SS   -->  Z3SS   NUM    ANUM        
      6.69843530E-07    3      1000025        16       -16             # Z4SS   -->  Z3SS   NUT    ANUT        
      8.17810073E-02    2      1000022        25                       # Z4SS   -->  Z1SS   HL0                
      5.62916845E-02    2      1000022        35                       # Z4SS   -->  Z1SS   HH0                
      6.16652668E-02    2      1000022        36                       # Z4SS   -->  Z1SS   HA0                
      5.31120636E-02    2      1000023        25                       # Z4SS   -->  Z2SS   HL0                
      6.10582195E-02    2      1000023        35                       # Z4SS   -->  Z2SS   HH0                
      5.59132062E-02    2      1000023        36                       # Z4SS   -->  Z2SS   HA0                
      1.78192306E-04    2      1000025        25                       # Z4SS   -->  Z3SS   HL0                
      8.65005745E-07    2      1000025        35                       # Z4SS   -->  Z3SS   HH0                
      4.18607669E-07    2      1000025        36                       # Z4SS   -->  Z3SS   HA0                
#         PDG         Width
DECAY   1000024  7.75347999E-08   # W1SS+ decays
#          BR          NDA       ID1       ID2       ID3       ID4
      2.66807228E-01    3      1000022         2        -1             # W1SS+  -->  Z1SS   UP     DB          
      2.66807228E-01    3      1000022         4        -3             # W1SS+  -->  Z1SS   CH     SB          
      8.89357477E-02    3      1000022       -11        12             # W1SS+  -->  Z1SS   E+     NUE         
      8.89357477E-02    3      1000022       -13        14             # W1SS+  -->  Z1SS   MU+    NUM         
      8.89371857E-02    3      1000022       -15        16             # W1SS+  -->  Z1SS   TAU+   NUT         
      6.65255040E-02    3      1000023         2        -1             # W1SS+  -->  Z2SS   UP     DB          
      6.65255040E-02    3      1000023         4        -3             # W1SS+  -->  Z2SS   CH     SB          
      2.21751686E-02    3      1000023       -11        12             # W1SS+  -->  Z2SS   E+     NUE         
      2.21751686E-02    3      1000023       -13        14             # W1SS+  -->  Z2SS   MU+    NUM         
      2.21755225E-02    3      1000023       -15        16             # W1SS+  -->  Z2SS   TAU+   NUT         
#         PDG         Width
DECAY   1000037  6.29557037E+01   # W2SS+ decays
#          BR          NDA       ID1       ID2       ID3       ID4
      1.14417786E-09    3      1000022         2        -1             # W2SS+  -->  Z1SS   UP     DB          
      1.14417786E-09    3      1000022         4        -3             # W2SS+  -->  Z1SS   CH     SB          
      5.18744070E-09    3      1000022       -11        12             # W2SS+  -->  Z1SS   E+     NUE         
      5.18744070E-09    3      1000022       -13        14             # W2SS+  -->  Z1SS   MU+    NUM         
      5.80198105E-07    3      1000022       -15        16             # W2SS+  -->  Z1SS   TAU+   NUT         
      1.19880430E-01    2      1000022        24                       # W2SS+  -->  Z1SS   W+                 
      1.21339083E-01    2      1000022        37                       # W2SS+  -->  Z1SS   H+                 
      7.50962736E-10    3      1000023         2        -1             # W2SS+  -->  Z2SS   UP     DB          
      7.50962736E-10    3      1000023         4        -3             # W2SS+  -->  Z2SS   CH     SB          
      3.15136184E-09    3      1000023       -11        12             # W2SS+  -->  Z2SS   E+     NUE         
      3.15136184E-09    3      1000023       -13        14             # W2SS+  -->  Z2SS   MU+    NUM         
      5.71437340E-07    3      1000023       -15        16             # W2SS+  -->  Z2SS   TAU+   NUT         
      1.16407163E-01    2      1000023        24                       # W2SS+  -->  Z2SS   W+                 
      1.19916759E-01    2      1000023        37                       # W2SS+  -->  Z2SS   H+                 
      3.22888098E-08    3      1000025         2        -1             # W2SS+  -->  Z3SS   UP     DB          
      3.22888098E-08    3      1000025         4        -3             # W2SS+  -->  Z3SS   CH     SB          
      1.16047147E-06    3      1000025       -11        12             # W2SS+  -->  Z3SS   E+     NUE         
      1.16047147E-06    3      1000025       -13        14             # W2SS+  -->  Z3SS   MU+    NUM         
      1.24749556E-06    3      1000025       -15        16             # W2SS+  -->  Z3SS   TAU+   NUT         
      1.11780697E-02    2      1000025        24                       # W2SS+  -->  Z3SS   W+                 
      1.14658155E-06    2      1000025        37                       # W2SS+  -->  Z3SS   H+                 
      1.31084204E-01    2      1000024        23                       # W2SS+  -->  W1SS+  Z0                 
      4.04240019E-09    3      1000024         1        -1             # W2SS+  -->  W1SS+  DN     DB          
      4.04240019E-09    3      1000024         3        -3             # W2SS+  -->  W1SS+  ST     SB          
      5.79282351E-11    3      1000024         2        -2             # W2SS+  -->  W1SS+  UP     UB          
      5.79282351E-11    3      1000024         4        -4             # W2SS+  -->  W1SS+  CH     CB          
      1.97875161E-10    3      1000024        12       -12             # W2SS+  -->  W1SS+  NUE    ANUE        
      1.97875161E-10    3      1000024        14       -14             # W2SS+  -->  W1SS+  NUM    ANUM        
      9.07623476E-10    3      1000024        16       -16             # W2SS+  -->  W1SS+  NUT    ANUT        
      1.38453569E-08    3      1000024        11       -11             # W2SS+  -->  W1SS+  E-     E+          
      1.38453569E-08    3      1000024        13       -13             # W2SS+  -->  W1SS+  MU-    MU+         
      1.47678234E-08    3      1000024        15       -15             # W2SS+  -->  W1SS+  TAU-   TAU+        
      1.39277354E-01    2      1000024        25                       # W2SS+  -->  W1SS+  HL0                
      1.20336540E-01    2      1000024        35                       # W2SS+  -->  W1SS+  HH0                
      1.20574459E-01    2      1000024        36                       # W2SS+  -->  W1SS+  HA0                
#         PDG         Width
DECAY        25  4.00665402E-03   # HL0   decays
#          BR          NDA       ID1       ID2       ID3       ID4
      5.58702684E-09    2           11       -11                       # HL0    -->  E-     E+                 
      2.35893342E-04    2           13       -13                       # HL0    -->  MU-    MU+                
      6.74827024E-02    2           15       -15                       # HL0    -->  TAU-   TAU+               
      7.00306146E-06    2            1        -1                       # HL0    -->  DN     DB                 
      2.82958825E-03    2            3        -3                       # HL0    -->  ST     SB                 
      6.06295347E-01    2            5        -5                       # HL0    -->  BT     BB                 
      2.13712087E-06    2            2        -2                       # HL0    -->  UP     UB                 
      3.96904051E-02    2            4        -4                       # HL0    -->  CH     CB                 
      2.65216408E-03    2           22        22                       # HL0    -->  GM     GM                 
      5.31011112E-02    2           21        21                       # HL0    -->  GL     GL                 
      1.13642476E-02    3           24        11       -12             # HL0    -->  W+     E-     ANUE        
      1.13642476E-02    3           24        13       -14             # HL0    -->  W+     MU-    ANUM        
      1.13642476E-02    3           24        15       -16             # HL0    -->  W+     TAU-   ANUT        
      3.40927429E-02    3           24        -2         1             # HL0    -->  W+     UB     DN          
      3.40927429E-02    3           24        -4         3             # HL0    -->  W+     CB     ST          
      1.13642476E-02    3          -24       -11        12             # HL0    -->  W-     E+     NUE         
      1.13642476E-02    3          -24       -13        14             # HL0    -->  W-     MU+    NUM         
      1.13642476E-02    3          -24       -15        16             # HL0    -->  W-     TAU+   NUT         
      3.40927429E-02    3          -24         2        -1             # HL0    -->  W-     UP     DB          
      3.40927429E-02    3          -24         4        -3             # HL0    -->  W-     CH     SB          
      1.58302707E-03    3           23        12       -12             # HL0    -->  Z0     NUE    ANUE        
      1.58302707E-03    3           23        14       -14             # HL0    -->  Z0     NUM    ANUM        
      1.58302707E-03    3           23        16       -16             # HL0    -->  Z0     NUT    ANUT        
      7.96721608E-04    3           23        11       -11             # HL0    -->  Z0     E-     E+          
      7.96721608E-04    3           23        13       -13             # HL0    -->  Z0     MU-    MU+         
      7.96721608E-04    3           23        15       -15             # HL0    -->  Z0     TAU-   TAU+        
      2.72950088E-03    3           23         2        -2             # HL0    -->  Z0     UP     UB          
      2.72950088E-03    3           23         4        -4             # HL0    -->  Z0     CH     CB          
      3.51626938E-03    3           23         1        -1             # HL0    -->  Z0     DN     DB          
      3.51626938E-03    3           23         3        -3             # HL0    -->  Z0     ST     SB          
      3.51626938E-03    3           23         5        -5             # HL0    -->  Z0     BT     BB          
#         PDG         Width
DECAY        35  3.53728652E+00   # HH0   decays
#          BR          NDA       ID1       ID2       ID3       ID4
      1.08792380E-08    2           11       -11                       # HH0    -->  E-     E+                 
      4.59341041E-04    2           13       -13                       # HH0    -->  MU-    MU+                
      1.31559864E-01    2           15       -15                       # HH0    -->  TAU-   TAU+               
      1.33271160E-05    2            1        -1                       # HH0    -->  DN     DB                 
      5.38482890E-03    2            3        -3                       # HH0    -->  ST     SB                 
      8.02496672E-01    2            5        -5                       # HH0    -->  BT     BB                 
      8.83166248E-11    2            2        -2                       # HH0    -->  UP     UB                 
      1.24376220E-06    2            4        -4                       # HH0    -->  CH     CB                 
      5.67374974E-02    2            6        -6                       # HH0    -->  TP     TB                 
      1.66620822E-07    2           22        22                       # HH0    -->  GM     GM                 
      2.39616347E-05    2           21        21                       # HH0    -->  GL     GL                 
      2.28329678E-04    2           24       -24                       # HH0    -->  W+     W-                 
      1.15926669E-04    2           23        23                       # HH0    -->  Z0     Z0                 
      4.36116999E-04    2      1000022   1000022                       # HH0    -->  Z1SS   Z1SS               
      3.74744559E-05    2      1000022   1000023                       # HH0    -->  Z1SS   Z2SS               
      3.18241189E-04    2      1000023   1000023                       # HH0    -->  Z2SS   Z2SS               
      1.33399235E-03    2      1000024  -1000024                       # HH0    -->  W1SS+  W1SS-              
      8.52943922E-04    2           25        25                       # HH0    -->  HL0    HL0                
#         PDG         Width
DECAY        36  3.52505040E+00   # HA0   decays
#          BR          NDA       ID1       ID2       ID3       ID4
      1.08470068E-08    2           11       -11                       # HA0    -->  E-     E+                 
      4.57980175E-04    2           13       -13                       # HA0    -->  MU-    MU+                
      1.31171718E-01    2           15       -15                       # HA0    -->  TAU-   TAU+               
      1.32883642E-05    2            1        -1                       # HA0    -->  DN     DB                 
      5.36917197E-03    2            3        -3                       # HA0    -->  ST     SB                 
      8.00199091E-01    2            5        -5                       # HA0    -->  BT     BB                 
      8.39872547E-11    2            2        -2                       # HA0    -->  UP     UB                 
      1.18372270E-06    2            4        -4                       # HA0    -->  CH     CB                 
      5.99783547E-02    2            6        -6                       # HA0    -->  TP     TB                 
      3.23882830E-07    2           22        22                       # HA0    -->  GM     GM                 
      7.44064018E-05    2           21        21                       # HA0    -->  GL     GL                 
      6.47862325E-04    2      1000022   1000022                       # HA0    -->  Z1SS   Z1SS               
      3.97941312E-06    2      1000022   1000023                       # HA0    -->  Z1SS   Z2SS               
      2.76330597E-04    2      1000023   1000023                       # HA0    -->  Z2SS   Z2SS               
      1.58664887E-03    2      1000024  -1000024                       # HA0    -->  W1SS+  W1SS-              
      2.19576294E-04    2           25        23                       # HA0    -->  HL0    Z0                 
#         PDG         Width
DECAY        37  3.11865330E+00   # H+    decays
#          BR          NDA       ID1       ID2       ID3       ID4
      1.23000836E-08    2           12       -11                       # H+     -->  NUE    E+                 
      5.19331777E-04    2           14       -13                       # H+     -->  NUM    MU+                
      1.48743644E-01    2           16       -15                       # H+     -->  NUT    TAU+               
      1.38503483E-05    2            2        -1                       # H+     -->  UP     DB                 
      5.59741864E-03    2            4        -3                       # H+     -->  CH     SB                 
      8.44785631E-01    2            6        -5                       # H+     -->  TP     BB                 
      1.26705236E-05    2      1000024   1000022                       # H+     -->  W1SS+  Z1SS               
      7.85367884E-05    2      1000024   1000023                       # H+     -->  W1SS+  Z2SS               
      2.48898810E-04    2           25        24                       # H+     -->  HL0    W+                 
