#  ISAJET SUSY parameters in SUSY Les Houches Accord 2 format
#  Created by ISALHA 2.0 Last revision: H Baer 27 May 2014
Block SPINFO   # Program information
     1   ISASUGRA/ISASUSY from ISAJET   # Spectrum Calculator
     2   7.87   18-JUL-2017 13:55:55    # Version number
Block MODSEL   # Model selection
     1    13   # Non-universal supergravity model                  
Block SMINPUTS   # Standard Model inputs
     1     1.28000000E+02   # alpha_em^(-1)
     2     1.16570000E-05   # G_Fermi
     3     1.19999997E-01   # alpha_s(M_Z)
     4     9.11699982E+01   # m_{Z}(pole)
     5     4.19999981E+00   # m_{b}(m_{b})
     6     1.72500000E+02   # m_{top}(pole)
     7     1.77699995E+00   # m_{tau}(pole)
Block MINPAR   # SUSY breaking input parameters
     1     5.00000000E+03   # m_0
     2     8.00000000E+02   # m_{1/2}
     3     1.50000000E+01   # tan(beta)
     4     1.00000000E+00   # sign(mu)
     5    -8.00000000E+03   # A_0
Block EXTPAR   # Non-universal SUSY breaking parameters
     0     1.78799510E+16   # Input scale
    21     2.90977075E+06   # Down type Higgs mass squared
    22     3.91332720E+07   #  Up  type Higgs mass squared
Block MASS   # Scalar and gaugino mass spectrum
#  PDG code   mass                 particle
         6     1.72500000E+02   #  top            
        24     8.04229965E+01   #  W^+
        25     1.24592461E+02   #  h^0            
        35     1.00666742E+03   #  H^0            
        36     1.00000000E+03   #  A^0            
        37     1.00322870E+03   #  H^+            
   1000001     5.17196582E+03   #  dnl            
   1000002     5.17133887E+03   #  upl            
   1000003     5.17196582E+03   #  stl            
   1000004     5.17133887E+03   #  chl            
   1000005     3.65678760E+03   #  b1             
   1000006     1.59006274E+03   #  t1             
   1000011     5.10890430E+03   #  el-            
   1000012     5.11360107E+03   #  nuel           
   1000013     5.10890430E+03   #  mul-           
   1000014     5.11360107E+03   #  numl           
   1000015     4.65807178E+03   #  tau1           
   1000016     5.03851270E+03   #  nutl           
   1000021     2.00977051E+03   #  glss           
   1000022     9.34881821E+01   #  z1ss           
   1000023    -1.07891441E+02   #  z2ss           
   1000024     1.04129425E+02   #  w1ss           
   1000025     3.61649963E+02   #  z3ss           
   1000035     7.01709961E+02   #  z4ss           
   1000037     6.90509460E+02   #  w2ss           
   1000039     1.00000002E+20   #  gvss
   2000001     5.14097754E+03   #  dnr            
   2000002     5.31529150E+03   #  upr            
   2000003     5.14097754E+03   #  str            
   2000004     5.31529199E+03   #  chr            
   2000005     4.97370020E+03   #  b2             
   2000006     3.63188354E+03   #  t2             
   2000011     4.82029443E+03   #  er-            
   2000013     4.82029443E+03   #  mur-           
   2000015     5.03237061E+03   #  tau2           
Block ALPHA   # Effective Higgs mixing parameter
         -6.81287870E-02   # alpha
Block STOPMIX   # stop mixing matrix
  1  1     5.41209839E-02   # O_{11}
  1  2     9.98534381E-01   # O_{12}
  2  1    -9.98534381E-01   # O_{21}
  2  2     5.41209839E-02   # O_{22}
Block SBOTMIX   # sbottom mixing matrix
  1  1     9.99994934E-01   # O_{11}
  1  2     3.19187855E-03   # O_{12}
  2  1    -3.19187855E-03   # O_{21}
  2  2     9.99994934E-01   # O_{22}
Block STAUMIX   # stau mixing matrix
  1  1     7.40135508E-03   # O_{11}
  1  2     9.99972582E-01   # O_{12}
  2  1    -9.99972582E-01   # O_{21}
  2  2     7.40135508E-03   # O_{22}
Block NMIX   # neutralino mixing matrix
  1  1     1.15405492E-01   #
  1  2    -9.77286622E-02   #
  1  3     7.26753592E-01   #
  1  4    -6.70045137E-01   #
  2  1    -6.14746436E-02   #
  2  2     6.32514581E-02   #
  2  3     6.85011983E-01   #
  2  4     7.23173022E-01   #
  3  1     9.91258681E-01   #
  3  2     3.28865387E-02   #
  3  3    -4.16101068E-02   #
  3  4     1.20801553E-01   #
  4  1     1.75612569E-02   #
  4  2    -9.92656648E-01   #
  4  3    -2.92802230E-02   #
  4  4     1.16049364E-01   #
Block UMIX   # chargino U mixing matrix
  1  1    -3.79753895E-02   # U_{11}
  1  2     9.99278665E-01   # U_{12}
  2  1    -9.99278665E-01   # U_{21}
  2  2    -3.79753895E-02   # U_{22}
Block VMIX   # chargino V mixing matrix
  1  1    -1.61209136E-01   # V_{11}
  1  2     9.86920238E-01   # V_{12}
  2  1    -9.86920238E-01   # V_{21}
  2  2    -1.61209136E-01   # V_{22}
Block GAUGE Q=  2.39975366E+03   #
     1     3.57524991E-01   # g`
     2     6.52378917E-01   # g_2
     3     1.21928072E+00   # g_3
Block YU Q=  2.39975366E+03   #
  3  3     8.27080846E-01   # y_t
Block YD Q=  2.39975366E+03   #
  3  3     1.92482844E-01   # y_b
Block YE Q=  2.39975366E+03   #
  3  3     1.50869250E-01   # y_tau
Block HMIX Q=  2.39975366E+03   # Higgs mixing parameters
     1     1.00000000E+02   # mu(Q)
     2     1.43598328E+01   # tan(beta)(Q)
     3     2.52247894E+02   # Higgs vev at Q
     4     1.00000000E+06   # m_A^2(Q)
Block MSOFT Q=  2.39975366E+03   # DRbar SUSY breaking parameters
     1     3.55139679E+02   # M_1(Q)          
     2     6.50698608E+02   # M_2(Q)          
     3     1.74726050E+03   # M_3(Q)          
    21     9.59424000E+05   # MHd^2(Q)        
    22    -4.46871133E+04   # MHu^2(Q)        
    31     5.09248584E+03   # MeL(Q)          
    32     5.09248584E+03   # MmuL(Q)         
    33     5.01942773E+03   # MtauL(Q)        
    34     4.81669629E+03   # MeR(Q)          
    35     4.81669629E+03   # MmuR(Q)         
    36     4.65538037E+03   # MtauR(Q)        
    41     5.08182568E+03   # MqL1(Q)         
    42     5.08182568E+03   # MqL2(Q)         
    43     3.60298315E+03   # MqL3(Q)         
    44     5.22456348E+03   # MuR(Q)          
    45     5.22456348E+03   # McR(Q)          
    46     1.59834705E+03   # MtR(Q)          
    47     5.05133691E+03   # MdR(Q)          
    48     5.05133691E+03   # MsR(Q)          
    49     4.92067432E+03   # MbR(Q)          
Block AU Q=  2.39975366E+03   #
  1  1    -4.28001855E+03   # A_u
  2  2    -4.28001855E+03   # A_c
  3  3    -4.28001855E+03   # A_t
Block AD Q=  2.39975366E+03   #
  1  1    -8.71272363E+03   # A_d
  2  2    -8.71272363E+03   # A_s
  3  3    -8.71272363E+03   # A_b
Block AE Q=  2.39975366E+03   #
  1  1    -8.10708643E+03   # A_e
  2  2    -8.10708643E+03   # A_mu
  3  3    -8.10708643E+03   # A_tau
#  ISAJET decay tables in SUSY Les Houches accord format
#  Created by ISALHD. Last revision: C. Balazs, 2005 May 25
Block DCINFO                           # Program information
     1   ISASUGRA from ISAJET          # Spectrum Calculator
     2   7.87   18-JUL-2017 13:55:55   # Version number
#         PDG         Width
DECAY         6  1.46776152E+00   # TP    decays
#          BR          NDA       ID1       ID2       ID3       ID4
      3.33333313E-01    3            2        -1         5             # TP     -->  UP     DB     BT          
      3.33333313E-01    3            4        -3         5             # TP     -->  CH     SB     BT          
      1.11111097E-01    3          -11        12         5             # TP     -->  E+     NUE    BT          
      1.11111097E-01    3          -13        14         5             # TP     -->  MU+    NUM    BT          
      1.11111097E-01    3          -15        16         5             # TP     -->  TAU+   NUT    BT          
#         PDG         Width
DECAY   1000021  5.34455299E+00   # GLSS  decays
#          BR          NDA       ID1       ID2       ID3       ID4
      6.54999212E-07    3      1000024         1        -2             # GLSS   -->  W1SS+  DN     UB          
      6.54999212E-07    3     -1000024         2        -1             # GLSS   -->  W1SS-  UP     DB          
      6.54999212E-07    3      1000024         3        -4             # GLSS   -->  W1SS+  ST     CB          
      6.54999212E-07    3     -1000024         4        -3             # GLSS   -->  W1SS-  CH     SB          
      1.65622943E-04    3      1000024         5        -6             # GLSS   -->  W1SS+  BT     TB          
      1.65622943E-04    3     -1000024         6        -5             # GLSS   -->  W1SS-  TP     BB          
      2.80691311E-05    3      1000037         1        -2             # GLSS   -->  W2SS+  DN     UB          
      2.80691311E-05    3     -1000037         2        -1             # GLSS   -->  W2SS-  UP     DB          
      2.80691311E-05    3      1000037         3        -4             # GLSS   -->  W2SS+  ST     CB          
      2.80691311E-05    3     -1000037         4        -3             # GLSS   -->  W2SS-  CH     SB          
      1.35628856E-04    3      1000037         5        -6             # GLSS   -->  W2SS+  BT     TB          
      1.35628856E-04    3     -1000037         6        -5             # GLSS   -->  W2SS-  TP     BB          
      2.79520032E-06    2      1000022        21                       # GLSS   -->  Z1SS   GL                 
      3.05248335E-07    3      1000022         2        -2             # GLSS   -->  Z1SS   UP     UB          
      3.98299761E-07    3      1000022         1        -1             # GLSS   -->  Z1SS   DN     DB          
      3.98299761E-07    3      1000022         3        -3             # GLSS   -->  Z1SS   ST     SB          
      3.05248278E-07    3      1000022         4        -4             # GLSS   -->  Z1SS   CH     CB          
      1.97501831E-05    3      1000022         5        -5             # GLSS   -->  Z1SS   BT     BB          
      1.38298943E-04    3      1000022         6        -6             # GLSS   -->  Z1SS   TP     TB          
      3.21511561E-06    2      1000023        21                       # GLSS   -->  Z2SS   GL                 
      9.31538722E-08    3      1000023         2        -2             # GLSS   -->  Z2SS   UP     UB          
      1.25438319E-07    3      1000023         1        -1             # GLSS   -->  Z2SS   DN     DB          
      1.25438319E-07    3      1000023         3        -3             # GLSS   -->  Z2SS   ST     SB          
      9.31538651E-08    3      1000023         4        -4             # GLSS   -->  Z2SS   CH     CB          
      1.66191712E-05    3      1000023         5        -5             # GLSS   -->  Z2SS   BT     BB          
      1.60330033E-04    3      1000023         6        -6             # GLSS   -->  Z2SS   TP     TB          
      1.18411447E-09    2      1000025        21                       # GLSS   -->  Z3SS   GL                 
      1.20655532E-05    3      1000025         2        -2             # GLSS   -->  Z3SS   UP     UB          
      3.68495353E-06    3      1000025         1        -1             # GLSS   -->  Z3SS   DN     DB          
      3.68495353E-06    3      1000025         3        -3             # GLSS   -->  Z3SS   ST     SB          
      1.20655504E-05    3      1000025         4        -4             # GLSS   -->  Z3SS   CH     CB          
      6.10728921E-06    3      1000025         5        -5             # GLSS   -->  Z3SS   BT     BB          
      7.00634337E-06    3      1000025         6        -6             # GLSS   -->  Z3SS   TP     TB          
      7.93697694E-08    2      1000035        21                       # GLSS   -->  Z4SS   GL                 
      1.35989176E-05    3      1000035         2        -2             # GLSS   -->  Z4SS   UP     UB          
      1.37676716E-05    3      1000035         1        -1             # GLSS   -->  Z4SS   DN     DB          
      1.37676716E-05    3      1000035         3        -3             # GLSS   -->  Z4SS   ST     SB          
      1.35989176E-05    3      1000035         4        -4             # GLSS   -->  Z4SS   CH     CB          
      6.54982796E-05    3      1000035         5        -5             # GLSS   -->  Z4SS   BT     BB          
      6.67248096E-05    3      1000035         6        -6             # GLSS   -->  Z4SS   TP     TB          
      4.99354064E-01    2     -1000006         6                       # GLSS   -->  TB1    TP                 
      4.99354064E-01    2      1000006        -6                       # GLSS   -->  TP1    TB                 
#         PDG         Width
DECAY   1000002  2.59594177E+02   # UPL   decays
#          BR          NDA       ID1       ID2       ID3       ID4
      4.91507410E-04    2      1000022         2                       # UPL    -->  Z1SS   UP                 
      2.26445016E-04    2      1000023         2                       # UPL    -->  Z2SS   UP                 
      3.82018369E-03    2      1000025         2                       # UPL    -->  Z3SS   UP                 
      7.90963843E-02    2      1000035         2                       # UPL    -->  Z4SS   UP                 
      7.54435182E-01    2      1000021         2                       # UPL    -->  GLSS   UP                 
      4.35489044E-03    2      1000024         1                       # UPL    -->  W1SS+  DN                 
      1.57575339E-01    2      1000037         1                       # UPL    -->  W2SS+  DN                 
#         PDG         Width
DECAY   1000001  2.59598877E+02   # DNL   decays
#          BR          NDA       ID1       ID2       ID3       ID4
      1.18423649E-03    2      1000022         1                       # DNL    -->  Z1SS   DN                 
      4.65225079E-04    2      1000023         1                       # DNL    -->  Z2SS   DN                 
      1.83670956E-03    2      1000025         1                       # DNL    -->  Z3SS   DN                 
      8.01375061E-02    2      1000035         1                       # DNL    -->  Z4SS   DN                 
      7.54570067E-01    2      1000021         1                       # DNL    -->  GLSS   DN                 
      2.41683651E-04    2     -1000024         2                       # DNL    -->  W1SS-  UP                 
      1.61564529E-01    2     -1000037         2                       # DNL    -->  W2SS-  UP                 
#         PDG         Width
DECAY   1000003  2.59598877E+02   # STL   decays
#          BR          NDA       ID1       ID2       ID3       ID4
      1.18423649E-03    2      1000022         3                       # STL    -->  Z1SS   ST                 
      4.65225079E-04    2      1000023         3                       # STL    -->  Z2SS   ST                 
      1.83670956E-03    2      1000025         3                       # STL    -->  Z3SS   ST                 
      8.01375061E-02    2      1000035         3                       # STL    -->  Z4SS   ST                 
      7.54570067E-01    2      1000021         3                       # STL    -->  GLSS   ST                 
      2.41683621E-04    2     -1000024         4                       # STL    -->  W1SS-  CH                 
      1.61564499E-01    2     -1000037         4                       # STL    -->  W2SS-  CH                 
#         PDG         Width
DECAY   1000004  2.59594116E+02   # CHL   decays
#          BR          NDA       ID1       ID2       ID3       ID4
      4.91507468E-04    2      1000022         4                       # CHL    -->  Z1SS   CH                 
      2.26445045E-04    2      1000023         4                       # CHL    -->  Z2SS   CH                 
      3.82018439E-03    2      1000025         4                       # CHL    -->  Z3SS   CH                 
      7.90963992E-02    2      1000035         4                       # CHL    -->  Z4SS   CH                 
      7.54435182E-01    2      1000021         4                       # CHL    -->  GLSS   CH                 
      4.35489183E-03    2      1000024         3                       # CHL    -->  W1SS+  ST                 
      1.57575369E-01    2      1000037         3                       # CHL    -->  W2SS+  ST                 
#         PDG         Width
DECAY   1000005  2.40014481E+02   # BT1   decays
#          BR          NDA       ID1       ID2       ID3       ID4
      7.13722548E-03    2      1000022         5                       # BT1    -->  Z1SS   BT                 
      5.86012611E-03    2      1000023         5                       # BT1    -->  Z2SS   BT                 
      1.40729651E-03    2      1000025         5                       # BT1    -->  Z3SS   BT                 
      5.90104908E-02    2      1000035         5                       # BT1    -->  Z4SS   BT                 
      4.02216285E-01    2      1000021         5                       # BT1    -->  GLSS   BT                 
      1.93078801E-01    2     -1000024         6                       # BT1    -->  W1SS-  TP                 
      1.24204494E-01    2     -1000037         6                       # BT1    -->  W2SS-  TP                 
      2.06559703E-01    2          -24   1000006                       # BT1    -->  W-     TP1                
      5.25539857E-04    2          -37   1000006                       # BT1    -->  H-     TP1                
#         PDG         Width
DECAY   1000006  4.38347931E+01   # TP1   decays
#          BR          NDA       ID1       ID2       ID3       ID4
      2.09985301E-01    2      1000022         6                       # TP1    -->  Z1SS   TP                 
      2.42959291E-01    2      1000023         6                       # TP1    -->  Z2SS   TP                 
      7.71217719E-02    2      1000025         6                       # TP1    -->  Z3SS   TP                 
      2.17425451E-03    2      1000035         6                       # TP1    -->  Z4SS   TP                 
      4.63401228E-01    2      1000024         5                       # TP1    -->  W1SS+  BT                 
      4.35822085E-03    2      1000037         5                       # TP1    -->  W2SS+  BT                 
#         PDG         Width
DECAY   2000002  2.16556824E+02   # UPR   decays
#          BR          NDA       ID1       ID2       ID3       ID4
      7.38508883E-04    2      1000022         2                       # UPR    -->  Z1SS   UP                 
      2.09510385E-04    2      1000023         2                       # UPR    -->  Z2SS   UP                 
      5.40150851E-02    2      1000025         2                       # UPR    -->  Z3SS   UP                 
      1.65200381E-05    2      1000035         2                       # UPR    -->  Z4SS   UP                 
      9.45020318E-01    2      1000021         2                       # UPR    -->  GLSS   UP                 
#         PDG         Width
DECAY   2000001  1.96854752E+02   # DNR   decays
#          BR          NDA       ID1       ID2       ID3       ID4
      1.96436318E-04    2      1000022         1                       # DNR    -->  Z1SS   DN                 
      5.57269777E-05    2      1000023         1                       # DNR    -->  Z2SS   DN                 
      1.43588968E-02    2      1000025         1                       # DNR    -->  Z3SS   DN                 
      4.38361621E-06    2      1000035         1                       # DNR    -->  Z4SS   DN                 
      9.85384524E-01    2      1000021         1                       # DNR    -->  GLSS   DN                 
#         PDG         Width
DECAY   2000003  1.96854752E+02   # STR   decays
#          BR          NDA       ID1       ID2       ID3       ID4
      1.96436318E-04    2      1000022         3                       # STR    -->  Z1SS   ST                 
      5.57269777E-05    2      1000023         3                       # STR    -->  Z2SS   ST                 
      1.43588968E-02    2      1000025         3                       # STR    -->  Z3SS   ST                 
      4.38361621E-06    2      1000035         3                       # STR    -->  Z4SS   ST                 
      9.85384524E-01    2      1000021         3                       # STR    -->  GLSS   ST                 
#         PDG         Width
DECAY   2000004  2.16556824E+02   # CHR   decays
#          BR          NDA       ID1       ID2       ID3       ID4
      7.38508825E-04    2      1000022         4                       # CHR    -->  Z1SS   CH                 
      2.09510385E-04    2      1000023         4                       # CHR    -->  Z2SS   CH                 
      5.40150851E-02    2      1000025         4                       # CHR    -->  Z3SS   CH                 
      1.65200399E-05    2      1000035         4                       # CHR    -->  Z4SS   CH                 
      9.45020318E-01    2      1000021         4                       # CHR    -->  GLSS   CH                 
#         PDG         Width
DECAY   2000005  2.27959702E+02   # BT2   decays
#          BR          NDA       ID1       ID2       ID3       ID4
      9.03592631E-03    2      1000022         5                       # BT2    -->  Z1SS   BT                 
      7.96949863E-03    2      1000023         5                       # BT2    -->  Z2SS   BT                 
      1.20222550E-02    2      1000025         5                       # BT2    -->  Z3SS   BT                 
      2.55210234E-05    2      1000035         5                       # BT2    -->  Z4SS   BT                 
      8.05385590E-01    2      1000021         5                       # BT2    -->  GLSS   BT                 
      1.67753026E-02    2     -1000024         6                       # BT2    -->  W1SS-  TP                 
      3.81682039E-05    2     -1000037         6                       # BT2    -->  W2SS-  TP                 
      7.57744965E-06    2          -24   1000006                       # BT2    -->  W-     TP1                
      3.60904844E-04    2          -24   2000006                       # BT2    -->  W-     TP2                
      1.74535118E-04    2           23   1000005                       # BT2    -->  Z0     BT1                
      3.56280827E-04    2           25   1000005                       # BT2    -->  HL0    BT1                
      3.63341495E-02    2           36   1000005                       # BT2    -->  HA0    BT1                
      3.59876454E-02    2           35   1000005                       # BT2    -->  HH0    BT1                
      2.41023838E-04    2          -37   1000006                       # BT2    -->  H-     TP1                
      7.52856657E-02    2          -37   2000006                       # BT2    -->  H-     TP2                
#         PDG         Width
DECAY   2000006  2.49702148E+02   # TP2   decays
#          BR          NDA       ID1       ID2       ID3       ID4
      3.73005033E-01    2      1000021         6                       # TP2    -->  GLSS   TP                 
      1.22640170E-02    2      1000024         5                       # TP2    -->  W1SS+  BT                 
      1.12942487E-01    2      1000037         5                       # TP2    -->  W2SS+  BT                 
      9.72316340E-02    2           23   1000006                       # TP2    -->  Z0     TP1                
      1.56452149E-01    2           25   1000006                       # TP2    -->  HL0    TP1                
      2.68880045E-04    2           35   1000006                       # TP2    -->  HH0    TP1                
      2.53674982E-04    2           36   1000006                       # TP2    -->  HA0    TP1                
      8.40131938E-02    2      1000022         6                       # TP2    -->  Z1SS   TP                 
      9.82115790E-02    2      1000023         6                       # TP2    -->  Z2SS   TP                 
      6.18709624E-03    2      1000025         6                       # TP2    -->  Z3SS   TP                 
      5.91703020E-02    2      1000035         6                       # TP2    -->  Z4SS   TP                 
#         PDG         Width
DECAY   1000011  6.86081009E+01   # EL-   decays
#          BR          NDA       ID1       ID2       ID3       ID4
      3.68507230E-04    2      1000022        11                       # EL-    -->  Z1SS   E-                 
      2.71863915E-04    2      1000023        11                       # EL-    -->  Z2SS   E-                 
      1.03564426E-01    2      1000025        11                       # EL-    -->  Z3SS   E-                 
      2.91563392E-01    2      1000035        11                       # EL-    -->  Z4SS   E-                 
      9.03312466E-04    2     -1000024        12                       # EL-    -->  W1SS-  NUE                
      6.03328466E-01    2     -1000037        12                       # EL-    -->  W2SS-  NUE                
#         PDG         Width
DECAY   1000013  6.86081009E+01   # MUL-  decays
#          BR          NDA       ID1       ID2       ID3       ID4
      3.68507230E-04    2      1000022        13                       # MUL-   -->  Z1SS   MU-                
      2.71863915E-04    2      1000023        13                       # MUL-   -->  Z2SS   MU-                
      1.03564426E-01    2      1000025        13                       # MUL-   -->  Z3SS   MU-                
      2.91563392E-01    2      1000035        13                       # MUL-   -->  Z4SS   MU-                
      9.03312466E-04    2     -1000024        14                       # MUL-   -->  W1SS-  NUM                
      6.03328466E-01    2     -1000037        14                       # MUL-   -->  W2SS-  NUM                
#         PDG         Width
DECAY   1000015  2.78335781E+01   # TAU1- decays
#          BR          NDA       ID1       ID2       ID3       ID4
      5.36777824E-02    2      1000022        15                       # TAU1-  -->  Z1SS   TAU-               
      4.02323417E-02    2      1000023        15                       # TAU1-  -->  Z2SS   TAU-               
      8.26370299E-01    2      1000025        15                       # TAU1-  -->  Z3SS   TAU-               
      2.53243546E-04    2      1000035        15                       # TAU1-  -->  Z4SS   TAU-               
      7.94627145E-02    2     -1000024        16                       # TAU1-  -->  W1SS-  NUT                
      3.55004818E-06    2     -1000037        16                       # TAU1-  -->  W2SS-  NUT                
#         PDG         Width
DECAY   1000012  6.86969528E+01   # NUEL  decays
#          BR          NDA       ID1       ID2       ID3       ID4
      8.13232176E-03    2      1000022        12                       # NUEL   -->  Z1SS   NUE                
      2.94787646E-03    2      1000023        12                       # NUEL   -->  Z2SS   NUE                
      8.12956691E-02    2      1000025        12                       # NUEL   -->  Z3SS   NUE                
      3.03034812E-01    2      1000035        12                       # NUEL   -->  Z4SS   NUE                
      1.62723605E-02    2      1000024        11                       # NUEL   -->  W1SS+  E-                 
      5.88316977E-01    2      1000037        11                       # NUEL   -->  W2SS+  E-                 
#         PDG         Width
DECAY   1000014  6.86969528E+01   # NUML  decays
#          BR          NDA       ID1       ID2       ID3       ID4
      8.13232176E-03    2      1000022        14                       # NUML   -->  Z1SS   NUM                
      2.94787646E-03    2      1000023        14                       # NUML   -->  Z2SS   NUM                
      8.12956691E-02    2      1000025        14                       # NUML   -->  Z3SS   NUM                
      3.03034812E-01    2      1000035        14                       # NUML   -->  Z4SS   NUM                
      1.62723605E-02    2      1000024        13                       # NUML   -->  W1SS+  MU-                
      5.88316977E-01    2      1000037        13                       # NUML   -->  W2SS+  MU-                
#         PDG         Width
DECAY   1000016  7.00220413E+01   # NUTL  decays
#          BR          NDA       ID1       ID2       ID3       ID4
      7.86111224E-03    2      1000022        16                       # NUTL   -->  Z1SS   NUT                
      2.84954743E-03    2      1000023        16                       # NUTL   -->  Z2SS   NUT                
      7.85623640E-02    2      1000025        16                       # NUTL   -->  Z3SS   NUT                
      2.92597115E-01    2      1000035        16                       # NUTL   -->  Z4SS   NUT                
      4.98209372E-02    2      1000024        15                       # NUTL   -->  W1SS+  TAU-               
      5.68122387E-01    2      1000037        15                       # NUTL   -->  W2SS+  TAU-               
      1.86562305E-04    2           24   1000015                       # NUTL   -->  W+     TAU1-              
#         PDG         Width
DECAY   2000011  2.42461777E+01   # ER-   decays
#          BR          NDA       ID1       ID2       ID3       ID4
      1.34572163E-02    2      1000022        11                       # ER-    -->  Z1SS   E-                 
      3.81756038E-03    2      1000023        11                       # ER-    -->  Z2SS   E-                 
      9.82426405E-01    2      1000025        11                       # ER-    -->  Z3SS   E-                 
      2.98768980E-04    2      1000035        11                       # ER-    -->  Z4SS   E-                 
#         PDG         Width
DECAY   2000013  2.42461777E+01   # MUR-  decays
#          BR          NDA       ID1       ID2       ID3       ID4
      1.34572163E-02    2      1000022        13                       # MUR-   -->  Z1SS   MU-                
      3.81756038E-03    2      1000023        13                       # MUR-   -->  Z2SS   MU-                
      9.82426405E-01    2      1000025        13                       # MUR-   -->  Z3SS   MU-                
      2.98768980E-04    2      1000035        13                       # MUR-   -->  Z4SS   MU-                
#         PDG         Width
DECAY   2000015  6.99024811E+01   # TAU2- decays
#          BR          NDA       ID1       ID2       ID3       ID4
      1.82242934E-02    2      1000022        15                       # TAU2-  -->  Z1SS   TAU-               
      1.63901579E-02    2      1000023        15                       # TAU2-  -->  Z2SS   TAU-               
      1.00197047E-01    2      1000025        15                       # TAU2-  -->  Z3SS   TAU-               
      2.81601280E-01    2      1000035        15                       # TAU2-  -->  Z4SS   TAU-               
      7.94316293E-04    2     -1000024        16                       # TAU2-  -->  W1SS-  NUT                
      5.82666755E-01    2     -1000037        16                       # TAU2-  -->  W2SS-  NUT                
      8.82451204E-05    2           23   1000015                       # TAU2-  -->  Z0     TAU1-              
      3.78314835E-05    2           25   1000015                       # TAU2-  -->  HL0    TAU1-              
#         PDG         Width
DECAY   1000023  4.72532946E-07   # Z2SS  decays
#          BR          NDA       ID1       ID2       ID3       ID4
      1.02011934E-02    2      1000022        22                       # Z2SS   -->  Z1SS   GM                 
      6.50424394E-04    3     -1000024         2        -1             # Z2SS   -->  W1SS-  UP     DB          
      2.16808141E-04    3     -1000024        12       -11             # Z2SS   -->  W1SS-  NUE    E+          
      2.16808141E-04    3     -1000024        14       -13             # Z2SS   -->  W1SS-  NUM    MU+         
      6.50424394E-04    3      1000024         1        -2             # Z2SS   -->  W1SS+  DN     UB          
      2.16808141E-04    3      1000024        11       -12             # Z2SS   -->  W1SS+  E-     ANUE        
      2.16808141E-04    3      1000024        13       -14             # Z2SS   -->  W1SS+  MU-    ANUM        
      6.50424394E-04    3     -1000024         4        -3             # Z2SS   -->  W1SS-  CH     SB          
      2.16808141E-04    3     -1000024        16       -15             # Z2SS   -->  W1SS-  NUT    TAU+        
      6.50424394E-04    3      1000024         3        -4             # Z2SS   -->  W1SS+  ST     CB          
      2.16808141E-04    3      1000024        15       -16             # Z2SS   -->  W1SS+  TAU-   ANUT        
      1.32594734E-01    3      1000022         2        -2             # Z2SS   -->  Z1SS   UP     UB          
      1.70980394E-01    3      1000022         1        -1             # Z2SS   -->  Z1SS   DN     DB          
      1.70980394E-01    3      1000022         3        -3             # Z2SS   -->  Z1SS   ST     SB          
      1.32594734E-01    3      1000022         4        -4             # Z2SS   -->  Z1SS   CH     CB          
      3.77328955E-02    3      1000022         5        -5             # Z2SS   -->  Z1SS   BT     BB          
      3.87868173E-02    3      1000022        11       -11             # Z2SS   -->  Z1SS   E-     E+          
      3.87868173E-02    3      1000022        13       -13             # Z2SS   -->  Z1SS   MU-    MU+         
      3.19158882E-02    3      1000022        15       -15             # Z2SS   -->  Z1SS   TAU-   TAU+        
      7.71745369E-02    3      1000022        12       -12             # Z2SS   -->  Z1SS   NUE    ANUE        
      7.71745369E-02    3      1000022        14       -14             # Z2SS   -->  Z1SS   NUM    ANUM        
      7.71745592E-02    3      1000022        16       -16             # Z2SS   -->  Z1SS   NUT    ANUT        
#         PDG         Width
DECAY   1000025  6.99308455E-01   # Z3SS  decays
#          BR          NDA       ID1       ID2       ID3       ID4
      6.27970280E-08    2      1000022        22                       # Z3SS   -->  Z1SS   GM                 
      3.80287375E-08    2      1000023        22                       # Z3SS   -->  Z2SS   GM                 
      2.83696026E-01    2      1000024       -24                       # Z3SS   -->  W1SS+  W-                 
      2.83696026E-01    2     -1000024        24                       # Z3SS   -->  W1SS-  W+                 
      5.07254489E-02    2      1000022        23                       # Z3SS   -->  Z1SS   Z0                 
      1.94068477E-01    2      1000023        23                       # Z3SS   -->  Z2SS   Z0                 
      5.25299110E-11    3      1000022         2        -2             # Z3SS   -->  Z1SS   UP     UB          
      7.96992854E-12    3      1000022         1        -1             # Z3SS   -->  Z1SS   DN     DB          
      7.96992854E-12    3      1000022         3        -3             # Z3SS   -->  Z1SS   ST     SB          
      5.25298936E-11    3      1000022         4        -4             # Z3SS   -->  Z1SS   CH     CB          
      1.89094806E-07    3      1000022         5        -5             # Z3SS   -->  Z1SS   BT     BB          
      1.23455746E-10    3      1000022        11       -11             # Z3SS   -->  Z1SS   E-     E+          
      1.23455746E-10    3      1000022        13       -13             # Z3SS   -->  Z1SS   MU-    MU+         
      3.97433269E-08    3      1000022        15       -15             # Z3SS   -->  Z1SS   TAU-   TAU+        
      3.41483855E-11    3      1000022        12       -12             # Z3SS   -->  Z1SS   NUE    ANUE        
      3.41483855E-11    3      1000022        14       -14             # Z3SS   -->  Z1SS   NUM    ANUM        
      3.62347964E-11    3      1000022        16       -16             # Z3SS   -->  Z1SS   NUT    ANUT        
      6.29295227E-12    3      1000023         2        -2             # Z3SS   -->  Z2SS   UP     UB          
      1.11077575E-12    3      1000023         1        -1             # Z3SS   -->  Z2SS   DN     DB          
      1.11077575E-12    3      1000023         3        -3             # Z3SS   -->  Z2SS   ST     SB          
      6.29294967E-12    3      1000023         4        -4             # Z3SS   -->  Z2SS   CH     CB          
      1.51525114E-07    3      1000023         5        -5             # Z3SS   -->  Z2SS   BT     BB          
      1.45022232E-11    3      1000023        11       -11             # Z3SS   -->  Z2SS   E-     E+          
      1.45022232E-11    3      1000023        13       -13             # Z3SS   -->  Z2SS   MU-    MU+         
      3.17131992E-08    3      1000023        15       -15             # Z3SS   -->  Z2SS   TAU-   TAU+        
      4.99702276E-12    3      1000023        12       -12             # Z3SS   -->  Z2SS   NUE    ANUE        
      4.99702276E-12    3      1000023        14       -14             # Z3SS   -->  Z2SS   NUM    ANUM        
      5.30246333E-12    3      1000023        16       -16             # Z3SS   -->  Z2SS   NUT    ANUT        
      1.53199226E-01    2      1000022        25                       # Z3SS   -->  Z1SS   HL0                
      3.46143320E-02    2      1000023        25                       # Z3SS   -->  Z2SS   HL0                
#         PDG         Width
DECAY   1000035  5.57928228E+00   # Z4SS  decays
#          BR          NDA       ID1       ID2       ID3       ID4
      1.88324259E-06    2      1000022        22                       # Z4SS   -->  Z1SS   GM                 
      3.39509165E-06    2      1000023        22                       # Z4SS   -->  Z2SS   GM                 
      6.15753351E-08    2      1000025        22                       # Z4SS   -->  Z3SS   GM                 
      2.45060891E-01    2      1000024       -24                       # Z4SS   -->  W1SS+  W-                 
      2.45060891E-01    2     -1000024        24                       # Z4SS   -->  W1SS-  W+                 
      5.30644471E-08    3     -1000037         2        -1             # Z4SS   -->  W2SS-  UP     DB          
      1.76881478E-08    3     -1000037        12       -11             # Z4SS   -->  W2SS-  NUE    E+          
      1.76881478E-08    3     -1000037        14       -13             # Z4SS   -->  W2SS-  NUM    MU+         
      5.30644471E-08    3      1000037         1        -2             # Z4SS   -->  W2SS+  DN     UB          
      1.76881478E-08    3      1000037        11       -12             # Z4SS   -->  W2SS+  E-     ANUE        
      1.76881478E-08    3      1000037        13       -14             # Z4SS   -->  W2SS+  MU-    ANUM        
      5.30644471E-08    3     -1000037         4        -3             # Z4SS   -->  W2SS-  CH     SB          
      1.76881478E-08    3     -1000037        16       -15             # Z4SS   -->  W2SS-  NUT    TAU+        
      5.30644471E-08    3      1000037         3        -4             # Z4SS   -->  W2SS+  ST     CB          
      1.76881478E-08    3      1000037        15       -16             # Z4SS   -->  W2SS+  TAU-   ANUT        
      6.25150353E-02    2      1000022        23                       # Z4SS   -->  Z1SS   Z0                 
      2.01983437E-01    2      1000023        23                       # Z4SS   -->  Z2SS   Z0                 
      1.44398457E-03    2      1000025        23                       # Z4SS   -->  Z3SS   Z0                 
      3.73223119E-10    3      1000022         2        -2             # Z4SS   -->  Z1SS   UP     UB          
      9.10274911E-10    3      1000022         1        -1             # Z4SS   -->  Z1SS   DN     DB          
      9.10274911E-10    3      1000022         3        -3             # Z4SS   -->  Z1SS   ST     SB          
      3.73223119E-10    3      1000022         4        -4             # Z4SS   -->  Z1SS   CH     CB          
      5.39118173E-06    3      1000022         5        -5             # Z4SS   -->  Z1SS   BT     BB          
      2.60330316E-11    3      1000022        11       -11             # Z4SS   -->  Z1SS   E-     E+          
      2.60330316E-11    3      1000022        13       -13             # Z4SS   -->  Z1SS   MU-    MU+         
      1.06974949E-06    3      1000022        15       -15             # Z4SS   -->  Z1SS   TAU-   TAU+        
      5.91360627E-10    3      1000022        12       -12             # Z4SS   -->  Z1SS   NUE    ANUE        
      5.91360627E-10    3      1000022        14       -14             # Z4SS   -->  Z1SS   NUM    ANUM        
      6.27694341E-10    3      1000022        16       -16             # Z4SS   -->  Z1SS   NUT    ANUT        
      1.02263552E-10    3      1000023         2        -2             # Z4SS   -->  Z2SS   UP     UB          
      2.12689824E-10    3      1000023         1        -1             # Z4SS   -->  Z2SS   DN     DB          
      2.12689824E-10    3      1000023         3        -3             # Z4SS   -->  Z2SS   ST     SB          
      1.02263552E-10    3      1000023         4        -4             # Z4SS   -->  Z2SS   CH     CB          
      4.61778836E-06    3      1000023         5        -5             # Z4SS   -->  Z2SS   BT     BB          
      1.13771544E-11    3      1000023        11       -11             # Z4SS   -->  Z2SS   E-     E+          
      1.13771544E-11    3      1000023        13       -13             # Z4SS   -->  Z2SS   MU-    MU+         
      9.16672036E-07    3      1000023        15       -15             # Z4SS   -->  Z2SS   TAU-   TAU+        
      1.27503605E-10    3      1000023        12       -12             # Z4SS   -->  Z2SS   NUE    ANUE        
      1.27503605E-10    3      1000023        14       -14             # Z4SS   -->  Z2SS   NUM    ANUM        
      1.35347275E-10    3      1000023        16       -16             # Z4SS   -->  Z2SS   NUT    ANUT        
      5.74417736E-10    3      1000025         2        -2             # Z4SS   -->  Z3SS   UP     UB          
      2.79198498E-10    3      1000025         1        -1             # Z4SS   -->  Z3SS   DN     DB          
      2.79198498E-10    3      1000025         3        -3             # Z4SS   -->  Z3SS   ST     SB          
      5.74417736E-10    3      1000025         4        -4             # Z4SS   -->  Z3SS   CH     CB          
      3.95195032E-09    3      1000025         5        -5             # Z4SS   -->  Z3SS   BT     BB          
      1.43999790E-09    3      1000025        11       -11             # Z4SS   -->  Z3SS   E-     E+          
      1.43999790E-09    3      1000025        13       -13             # Z4SS   -->  Z3SS   MU-    MU+         
      2.08969952E-09    3      1000025        15       -15             # Z4SS   -->  Z3SS   TAU-   TAU+        
      1.16922483E-09    3      1000025        12       -12             # Z4SS   -->  Z3SS   NUE    ANUE        
      1.16922483E-09    3      1000025        14       -14             # Z4SS   -->  Z3SS   NUM    ANUM        
      1.24133548E-09    3      1000025        16       -16             # Z4SS   -->  Z3SS   NUT    ANUT        
      1.54565141E-01    2      1000022        25                       # Z4SS   -->  Z1SS   HL0                
      7.55896941E-02    2      1000023        25                       # Z4SS   -->  Z2SS   HL0                
      1.37635050E-02    2      1000025        25                       # Z4SS   -->  Z3SS   HL0                
#         PDG         Width
DECAY   1000024  1.53306488E-07   # W1SS+ decays
#          BR          NDA       ID1       ID2       ID3       ID4
      3.33332419E-01    3      1000022         2        -1             # W1SS+  -->  Z1SS   UP     DB          
      3.33332419E-01    3      1000022         4        -3             # W1SS+  -->  Z1SS   CH     SB          
      1.11111030E-01    3      1000022       -11        12             # W1SS+  -->  Z1SS   E+     NUE         
      1.11111030E-01    3      1000022       -13        14             # W1SS+  -->  Z1SS   MU+    NUM         
      1.11113153E-01    3      1000022       -15        16             # W1SS+  -->  Z1SS   TAU+   NUT         
#         PDG         Width
DECAY   1000037  5.52118826E+00   # W2SS+ decays
#          BR          NDA       ID1       ID2       ID3       ID4
      7.83817455E-10    3      1000022         2        -1             # W2SS+  -->  Z1SS   UP     DB          
      7.83817455E-10    3      1000022         4        -3             # W2SS+  -->  Z1SS   CH     SB          
      4.15164736E-10    3      1000022       -11        12             # W2SS+  -->  Z1SS   E+     NUE         
      4.15164736E-10    3      1000022       -13        14             # W2SS+  -->  Z1SS   MU+    NUM         
      9.93557251E-07    3      1000022       -15        16             # W2SS+  -->  Z1SS   TAU+   NUT         
      2.37533525E-01    2      1000022        24                       # W2SS+  -->  Z1SS   W+                 
      4.75743445E-10    3      1000023         2        -1             # W2SS+  -->  Z2SS   UP     DB          
      4.75743445E-10    3      1000023         4        -3             # W2SS+  -->  Z2SS   CH     SB          
      1.88666388E-10    3      1000023       -11        12             # W2SS+  -->  Z2SS   E+     NUE         
      1.88666388E-10    3      1000023       -13        14             # W2SS+  -->  Z2SS   MU+    NUM         
      8.14977170E-07    3      1000023       -15        16             # W2SS+  -->  Z2SS   TAU+   NUT         
      2.52670586E-01    2      1000023        24                       # W2SS+  -->  Z2SS   W+                 
      7.28244687E-10    3      1000025         2        -1             # W2SS+  -->  Z3SS   UP     DB          
      7.28244687E-10    3      1000025         4        -3             # W2SS+  -->  Z3SS   CH     SB          
      2.27595764E-09    3      1000025       -11        12             # W2SS+  -->  Z3SS   E+     NUE         
      2.27595764E-09    3      1000025       -13        14             # W2SS+  -->  Z3SS   MU+    NUM         
      2.91325208E-09    3      1000025       -15        16             # W2SS+  -->  Z3SS   TAU+   NUT         
      1.87053978E-02    2      1000025        24                       # W2SS+  -->  Z3SS   W+                 
      2.43413255E-01    2      1000024        23                       # W2SS+  -->  W1SS+  Z0                 
      2.42505727E-09    3      1000024         1        -1             # W2SS+  -->  W1SS+  DN     DB          
      2.42505727E-09    3      1000024         3        -3             # W2SS+  -->  W1SS+  ST     SB          
      1.37893572E-10    3      1000024         2        -2             # W2SS+  -->  W1SS+  UP     UB          
      1.37893572E-10    3      1000024         4        -4             # W2SS+  -->  W1SS+  CH     CB          
      4.82946773E-11    3      1000024        12       -12             # W2SS+  -->  W1SS+  NUE    ANUE        
      4.82946773E-11    3      1000024        14       -14             # W2SS+  -->  W1SS+  NUM    ANUM        
      7.01082040E-11    3      1000024        16       -16             # W2SS+  -->  W1SS+  NUT    ANUT        
      8.45777615E-10    3      1000024        11       -11             # W2SS+  -->  W1SS+  E-     E+          
      8.45777615E-10    3      1000024        13       -13             # W2SS+  -->  W1SS+  MU-    MU+         
      8.97755870E-10    3      1000024        15       -15             # W2SS+  -->  W1SS+  TAU-   TAU+        
      2.47675449E-01    2      1000024        25                       # W2SS+  -->  W1SS+  HL0                
#         PDG         Width
DECAY        25  3.86467855E-03   # HL0   decays
#          BR          NDA       ID1       ID2       ID3       ID4
      5.73810954E-09    2           11       -11                       # HL0    -->  E-     E+                 
      2.42272319E-04    2           13       -13                       # HL0    -->  MU-    MU+                
      6.93061277E-02    2           15       -15                       # HL0    -->  TAU-   TAU+               
      7.19334002E-06    2            1        -1                       # HL0    -->  DN     DB                 
      2.90647033E-03    2            3        -3                       # HL0    -->  ST     SB                 
      6.22713149E-01    2            5        -5                       # HL0    -->  BT     BB                 
      2.19708909E-06    2            2        -2                       # HL0    -->  UP     UB                 
      4.08570245E-02    2            4        -4                       # HL0    -->  CH     CB                 
      2.69074482E-03    2           22        22                       # HL0    -->  GM     GM                 
      5.26477396E-02    2           21        21                       # HL0    -->  GL     GL                 
      1.04417894E-02    3           24        11       -12             # HL0    -->  W+     E-     ANUE        
      1.04417894E-02    3           24        13       -14             # HL0    -->  W+     MU-    ANUM        
      1.04417894E-02    3           24        15       -16             # HL0    -->  W+     TAU-   ANUT        
      3.13253701E-02    3           24        -2         1             # HL0    -->  W+     UB     DN          
      3.13253701E-02    3           24        -4         3             # HL0    -->  W+     CB     ST          
      1.04417894E-02    3          -24       -11        12             # HL0    -->  W-     E+     NUE         
      1.04417894E-02    3          -24       -13        14             # HL0    -->  W-     MU+    NUM         
      1.04417894E-02    3          -24       -15        16             # HL0    -->  W-     TAU+   NUT         
      3.13253701E-02    3          -24         2        -1             # HL0    -->  W-     UP     DB          
      3.13253701E-02    3          -24         4        -3             # HL0    -->  W-     CH     SB          
      1.41395477E-03    3           23        12       -12             # HL0    -->  Z0     NUE    ANUE        
      1.41395477E-03    3           23        14       -14             # HL0    -->  Z0     NUM    ANUM        
      1.41395477E-03    3           23        16       -16             # HL0    -->  Z0     NUT    ANUT        
      7.11629167E-04    3           23        11       -11             # HL0    -->  Z0     E-     E+          
      7.11629167E-04    3           23        13       -13             # HL0    -->  Z0     MU-    MU+         
      7.11629167E-04    3           23        15       -15             # HL0    -->  Z0     TAU-   TAU+        
      2.43798131E-03    3           23         2        -2             # HL0    -->  Z0     UP     UB          
      2.43798131E-03    3           23         4        -4             # HL0    -->  Z0     CH     CB          
      3.14072054E-03    3           23         1        -1             # HL0    -->  Z0     DN     DB          
      3.14072054E-03    3           23         3        -3             # HL0    -->  Z0     ST     SB          
      3.14072054E-03    3           23         5        -5             # HL0    -->  Z0     BT     BB          
#         PDG         Width
DECAY        35  8.01562595E+00   # HH0   decays
#          BR          NDA       ID1       ID2       ID3       ID4
      4.80100759E-09    2           11       -11                       # HH0    -->  E-     E+                 
      2.02707175E-04    2           13       -13                       # HH0    -->  MU-    MU+                
      5.80573604E-02    2           15       -15                       # HH0    -->  TAU-   TAU+               
      5.88125613E-06    2            1        -1                       # HH0    -->  DN     DB                 
      2.37632520E-03    2            3        -3                       # HH0    -->  ST     SB                 
      3.55723768E-01    2            5        -5                       # HH0    -->  BT     BB                 
      3.89404065E-11    2            2        -2                       # HH0    -->  UP     UB                 
      5.48397395E-07    2            4        -4                       # HH0    -->  CH     CB                 
      2.50165854E-02    2            6        -6                       # HH0    -->  TP     TB                 
      1.71230752E-07    2           22        22                       # HH0    -->  GM     GM                 
      1.20619370E-05    2           21        21                       # HH0    -->  GL     GL                 
      9.70692927E-05    2           24       -24                       # HH0    -->  W+     W-                 
      4.92836443E-05    2           23        23                       # HH0    -->  Z0     Z0                 
      1.20266052E-02    2      1000022   1000022                       # HH0    -->  Z1SS   Z1SS               
      1.40763295E-03    2      1000022   1000023                       # HH0    -->  Z1SS   Z2SS               
      4.24078554E-02    2      1000022   1000025                       # HH0    -->  Z1SS   Z3SS               
      4.45920937E-02    2      1000022   1000035                       # HH0    -->  Z1SS   Z4SS               
      4.98013431E-03    2      1000023   1000023                       # HH0    -->  Z2SS   Z2SS               
      6.06437512E-02    2      1000023   1000025                       # HH0    -->  Z2SS   Z3SS               
      8.97057280E-02    2      1000023   1000035                       # HH0    -->  Z2SS   Z4SS               
      1.03314262E-04    2      1000025   1000025                       # HH0    -->  Z3SS   Z3SS               
      2.47702878E-02    2      1000024  -1000024                       # HH0    -->  W1SS+  W1SS-              
      1.38733476E-01    2      1000024  -1000037                       # HH0    -->  W1SS+  W2SS-              
      1.38733476E-01    2     -1000024   1000037                       # HH0    -->  W1SS-  W2SS+              
      3.53853102E-04    2           25        25                       # HH0    -->  HL0    HL0                
#         PDG         Width
DECAY        36  7.87662983E+00   # HA0   decays
#          BR          NDA       ID1       ID2       ID3       ID4
      4.85439156E-09    2           11       -11                       # HA0    -->  E-     E+                 
      2.04961165E-04    2           13       -13                       # HA0    -->  MU-    MU+                
      5.87036535E-02    2           15       -15                       # HA0    -->  TAU-   TAU+               
      5.94697894E-06    2            1        -1                       # HA0    -->  DN     DB                 
      2.40288069E-03    2            3        -3                       # HA0    -->  ST     SB                 
      3.59715104E-01    2            5        -5                       # HA0    -->  BT     BB                 
      3.75870550E-11    2            2        -2                       # HA0    -->  UP     UB                 
      5.29754743E-07    2            4        -4                       # HA0    -->  CH     CB                 
      2.68422812E-02    2            6        -6                       # HA0    -->  TP     TB                 
      9.36016917E-08    2           22        22                       # HA0    -->  GM     GM                 
      3.84243685E-05    2           21        21                       # HA0    -->  GL     GL                 
      1.61561277E-02    2      1000022   1000022                       # HA0    -->  Z1SS   Z1SS               
      3.85472900E-04    2      1000022   1000023                       # HA0    -->  Z1SS   Z2SS               
      6.34085983E-02    2      1000022   1000025                       # HA0    -->  Z1SS   Z3SS               
      9.49749798E-02    2      1000022   1000035                       # HA0    -->  Z1SS   Z4SS               
      3.96755617E-03    2      1000023   1000023                       # HA0    -->  Z2SS   Z2SS               
      3.87629643E-02    2      1000023   1000025                       # HA0    -->  Z2SS   Z3SS               
      3.56680565E-02    2      1000023   1000035                       # HA0    -->  Z2SS   Z4SS               
      4.74960689E-04    2      1000025   1000025                       # HA0    -->  Z3SS   Z3SS               
      2.78527718E-02    2      1000024  -1000024                       # HA0    -->  W1SS+  W1SS-              
      1.35169923E-01    2      1000024  -1000037                       # HA0    -->  W1SS+  W2SS-              
      1.35169923E-01    2     -1000024   1000037                       # HA0    -->  W1SS-  W2SS+              
      9.47462468E-05    2           25        23                       # HA0    -->  HL0    Z0                 
#         PDG         Width
DECAY        37  7.43705416E+00   # H+    decays
#          BR          NDA       ID1       ID2       ID3       ID4
      5.15791543E-09    2           12       -11                       # H+     -->  NUE    E+                 
      2.17776513E-04    2           14       -13                       # H+     -->  NUM    MU+                
      6.23741411E-02    2           16       -15                       # H+     -->  NUT    TAU+               
      5.80800315E-06    2            2        -1                       # H+     -->  UP     DB                 
      2.34722090E-03    2            4        -3                       # H+     -->  CH     SB                 
      3.55723560E-01    2            6        -5                       # H+     -->  TP     BB                 
      4.72489082E-05    2      1000024   1000022                       # H+     -->  W1SS+  Z1SS               
      2.42865854E-03    2      1000024   1000023                       # H+     -->  W1SS+  Z2SS               
      1.39553547E-01    2      1000024   1000025                       # H+     -->  W1SS+  Z3SS               
      1.36636689E-01    2      1000024   1000035                       # H+     -->  W1SS+  Z4SS               
      1.60415620E-01    2      1000037   1000022                       # H+     -->  W2SS+  Z1SS               
      1.40149042E-01    2      1000037   1000023                       # H+     -->  W2SS+  Z2SS               
      1.00632016E-04    2           25        24                       # H+     -->  HL0    W+                 
