#  ISAJET SUSY parameters in SUSY Les Houches Accord 2 format
#  Created by ISALHA 2.0 Last revision: H Baer 27 May 2014
Block SPINFO   # Program information
     1   ISASUGRA/ISASUSY from ISAJET   # Spectrum Calculator
     2   7.87   18-JUL-2017 13:55:55    # Version number
Block MODSEL   # Model selection
     1    13   # Non-universal supergravity model                  
Block SMINPUTS   # Standard Model inputs
     1     1.28000000E+02   # alpha_em^(-1)
     2     1.16570000E-05   # G_Fermi
     3     1.19999997E-01   # alpha_s(M_Z)
     4     9.11699982E+01   # m_{Z}(pole)
     5     4.19999981E+00   # m_{b}(m_{b})
     6     1.72500000E+02   # m_{top}(pole)
     7     1.77699995E+00   # m_{tau}(pole)
Block MINPAR   # SUSY breaking input parameters
     1     5.00000000E+03   # m_0
     2     3.50000000E+02   # m_{1/2}
     3     1.50000000E+01   # tan(beta)
     4     1.00000000E+00   # sign(mu)
     5    -8.00000000E+03   # A_0
Block EXTPAR   # Non-universal SUSY breaking parameters
     0     2.12845351E+16   # Input scale
    21     3.00838650E+06   # Down type Higgs mass squared
    22     3.70394720E+07   #  Up  type Higgs mass squared
Block MASS   # Scalar and gaugino mass spectrum
#  PDG code   mass                 particle
         6     1.72500000E+02   #  top            
        24     8.04229965E+01   #  W^+
        25     1.24081749E+02   #  h^0            
        35     1.00666602E+03   #  H^0            
        36     1.00000000E+03   #  A^0            
        37     1.00322870E+03   #  H^+            
   1000001     4.98290137E+03   #  dnl            
   1000002     4.98224951E+03   #  upl            
   1000003     4.98290137E+03   #  stl            
   1000004     4.98225000E+03   #  chl            
   1000005     3.49180615E+03   #  b1             
   1000006     1.43281543E+03   #  t1             
   1000011     5.08204736E+03   #  el-            
   1000012     5.08670557E+03   #  nuel           
   1000013     5.08204736E+03   #  mul-           
   1000014     5.08670557E+03   #  numl           
   1000015     4.66294434E+03   #  tau1           
   1000016     5.01156738E+03   #  nutl           
   1000021     1.01776624E+03   #  glss           
   1000022     1.27440338E+02   #  z1ss           
   1000023    -1.81697479E+02   #  z2ss           
   1000024     1.62687210E+02   #  w1ss           
   1000025     1.84688339E+02   #  z3ss           
   1000035     3.43178894E+02   #  z4ss           
   1000037     3.34900360E+02   #  w2ss           
   1000039     1.00000002E+20   #  gvss
   2000001     4.97044531E+03   #  dnr            
   2000002     5.13970361E+03   #  upr            
   2000003     4.97044531E+03   #  str            
   2000004     5.13970410E+03   #  chr            
   2000005     4.81738623E+03   #  b2             
   2000006     3.46806348E+03   #  t2             
   2000011     4.82309717E+03   #  er-            
   2000013     4.82309717E+03   #  mur-           
   2000015     5.00550977E+03   #  tau2           
Block ALPHA   # Effective Higgs mixing parameter
         -6.81054443E-02   # alpha
Block STOPMIX   # stop mixing matrix
  1  1     4.76329774E-02   # O_{11}
  1  2     9.98864889E-01   # O_{12}
  2  1    -9.98864889E-01   # O_{21}
  2  2     4.76329774E-02   # O_{22}
Block SBOTMIX   # sbottom mixing matrix
  1  1     9.99994397E-01   # O_{11}
  1  2     3.34497495E-03   # O_{12}
  2  1    -3.34497495E-03   # O_{21}
  2  2     9.99994397E-01   # O_{22}
Block STAUMIX   # stau mixing matrix
  1  1     8.07296019E-03   # O_{11}
  1  2     9.99967396E-01   # O_{12}
  2  1    -9.99967396E-01   # O_{21}
  2  2     8.07296019E-03   # O_{22}
Block NMIX   # neutralino mixing matrix
  1  1     6.55179739E-01   #
  1  2    -2.10446283E-01   #
  1  3     5.75398028E-01   #
  1  4    -4.42005247E-01   #
  2  1     8.37069750E-02   #
  2  2    -9.99872237E-02   #
  2  3    -6.83552504E-01   #
  2  4    -7.18158603E-01   #
  3  1    -7.46931076E-01   #
  3  2    -2.90639520E-01   #
  3  3     4.09208536E-01   #
  3  4    -4.36085969E-01   #
  4  1     7.63313025E-02   #
  4  2    -9.28032160E-01   #
  4  3    -1.84989259E-01   #
  4  4     3.14179718E-01   #
Block UMIX   # chargino U mixing matrix
  1  1    -2.58080512E-01   # U_{11}
  1  2     9.66123402E-01   # U_{12}
  2  1    -9.66123402E-01   # U_{21}
  2  2    -2.58080512E-01   # U_{22}
Block VMIX   # chargino V mixing matrix
  1  1    -4.37502384E-01   # V_{11}
  1  2     8.99217248E-01   # V_{12}
  2  1    -8.99217248E-01   # V_{21}
  2  2    -4.37502384E-01   # V_{22}
Block GAUGE Q=  2.27340674E+03   #
     1     3.57520670E-01   # g`
     2     6.52392030E-01   # g_2
     3     1.21949732E+00   # g_3
Block YU Q=  2.27340674E+03   #
  3  3     8.38621080E-01   # y_t
Block YD Q=  2.27340674E+03   #
  3  3     1.95878014E-01   # y_b
Block YE Q=  2.27340674E+03   #
  3  3     1.51508301E-01   # y_tau
Block HMIX Q=  2.27340674E+03   # Higgs mixing parameters
     1     1.70000000E+02   # mu(Q)
     2     1.43665981E+01   # tan(beta)(Q)
     3     2.52212753E+02   # Higgs vev at Q
     4     1.00000000E+06   # m_A^2(Q)
Block MSOFT Q=  2.27340674E+03   # DRbar SUSY breaking parameters
     1     1.57836517E+02   # M_1(Q)          
     2     2.91778931E+02   # M_2(Q)          
     3     8.30077454E+02   # M_3(Q)          
    21     9.44790750E+05   # MHd^2(Q)        
    22    -3.07712285E+04   # MHu^2(Q)        
    31     5.06588770E+03   # MeL(Q)          
    32     5.06588770E+03   # MmuL(Q)         
    33     4.99277734E+03   # MtauL(Q)        
    34     4.81954639E+03   # MeR(Q)          
    35     4.81954639E+03   # MmuR(Q)         
    36     4.65990576E+03   # MtauR(Q)        
    41     4.91262842E+03   # MqL1(Q)         
    42     4.91262842E+03   # MqL2(Q)         
    43     3.45157935E+03   # MqL3(Q)         
    44     5.06805078E+03   # MuR(Q)          
    45     5.06805078E+03   # McR(Q)          
    46     1.49739514E+03   # MtR(Q)          
    47     4.90060938E+03   # MdR(Q)          
    48     4.90060938E+03   # MsR(Q)          
    49     4.76403760E+03   # MbR(Q)          
Block AU Q=  2.27340674E+03   #
  1  1    -3.46563135E+03   # A_u
  2  2    -3.46563135E+03   # A_c
  3  3    -3.46563135E+03   # A_t
Block AD Q=  2.27340674E+03   #
  1  1    -7.67678613E+03   # A_d
  2  2    -7.67678613E+03   # A_s
  3  3    -7.67678613E+03   # A_b
Block AE Q=  2.27340674E+03   #
  1  1    -7.85226855E+03   # A_e
  2  2    -7.85226855E+03   # A_mu
  3  3    -7.85226855E+03   # A_tau
#  ISAJET decay tables in SUSY Les Houches accord format
#  Created by ISALHD. Last revision: C. Balazs, 2005 May 25
Block DCINFO                           # Program information
     1   ISASUGRA from ISAJET          # Spectrum Calculator
     2   7.87   18-JUL-2017 13:55:55   # Version number
#         PDG         Width
DECAY         6  1.46776152E+00   # TP    decays
#          BR          NDA       ID1       ID2       ID3       ID4
      3.33333313E-01    3            2        -1         5             # TP     -->  UP     DB     BT          
      3.33333313E-01    3            4        -3         5             # TP     -->  CH     SB     BT          
      1.11111097E-01    3          -11        12         5             # TP     -->  E+     NUE    BT          
      1.11111097E-01    3          -13        14         5             # TP     -->  MU+    NUM    BT          
      1.11111097E-01    3          -15        16         5             # TP     -->  TAU+   NUT    BT          
#         PDG         Width
DECAY   1000021  4.33723582E-03   # GLSS  decays
#          BR          NDA       ID1       ID2       ID3       ID4
      2.81597284E-04    3      1000024         1        -2             # GLSS   -->  W1SS+  DN     UB          
      2.81597284E-04    3     -1000024         2        -1             # GLSS   -->  W1SS-  UP     DB          
      2.81597197E-04    3      1000024         3        -4             # GLSS   -->  W1SS+  ST     CB          
      2.81597197E-04    3     -1000024         4        -3             # GLSS   -->  W1SS-  CH     SB          
      2.13318035E-01    3      1000024         5        -6             # GLSS   -->  W1SS+  BT     TB          
      2.13318035E-01    3     -1000024         6        -5             # GLSS   -->  W1SS-  TP     BB          
      1.20140414E-03    3      1000037         1        -2             # GLSS   -->  W2SS+  DN     UB          
      1.20140414E-03    3     -1000037         2        -1             # GLSS   -->  W2SS-  UP     DB          
      1.20140368E-03    3      1000037         3        -4             # GLSS   -->  W2SS+  ST     CB          
      1.20140368E-03    3     -1000037         4        -3             # GLSS   -->  W2SS-  CH     SB          
      3.67822237E-02    3      1000037         5        -6             # GLSS   -->  W2SS+  BT     TB          
      3.67822237E-02    3     -1000037         6        -5             # GLSS   -->  W2SS-  TP     BB          
      3.82231385E-03    2      1000022        21                       # GLSS   -->  Z1SS   GL                 
      2.45812902E-04    3      1000022         2        -2             # GLSS   -->  Z1SS   UP     UB          
      1.94675842E-04    3      1000022         1        -1             # GLSS   -->  Z1SS   DN     DB          
      1.94675842E-04    3      1000022         3        -3             # GLSS   -->  Z1SS   ST     SB          
      2.45812844E-04    3      1000022         4        -4             # GLSS   -->  Z1SS   CH     CB          
      1.06552546E-03    3      1000022         5        -5             # GLSS   -->  Z1SS   BT     BB          
      8.32380652E-02    3      1000022         6        -6             # GLSS   -->  Z1SS   TP     TB          
      1.27080707E-02    2      1000023        21                       # GLSS   -->  Z2SS   GL                 
      6.56407838E-06    3      1000023         2        -2             # GLSS   -->  Z2SS   UP     UB          
      8.92016396E-06    3      1000023         1        -1             # GLSS   -->  Z2SS   DN     DB          
      8.92016396E-06    3      1000023         3        -3             # GLSS   -->  Z2SS   ST     SB          
      6.56407656E-06    3      1000023         4        -4             # GLSS   -->  Z2SS   CH     CB          
      6.23660744E-04    3      1000023         5        -5             # GLSS   -->  Z2SS   BT     BB          
      1.88311636E-01    3      1000023         6        -6             # GLSS   -->  Z2SS   TP     TB          
      6.81797508E-03    2      1000025        21                       # GLSS   -->  Z3SS   GL                 
      4.82845062E-04    3      1000025         2        -2             # GLSS   -->  Z3SS   UP     UB          
      1.07296168E-04    3      1000025         1        -1             # GLSS   -->  Z3SS   DN     DB          
      1.07296168E-04    3      1000025         3        -3             # GLSS   -->  Z3SS   ST     SB          
      4.82844800E-04    3      1000025         4        -4             # GLSS   -->  Z3SS   CH     CB          
      4.10215696E-04    3      1000025         5        -5             # GLSS   -->  Z3SS   BT     BB          
      1.60298303E-01    3      1000025         6        -6             # GLSS   -->  Z3SS   TP     TB          
      1.89115317E-03    2      1000035        21                       # GLSS   -->  Z4SS   GL                 
      5.58747211E-04    3      1000035         2        -2             # GLSS   -->  Z4SS   UP     UB          
      5.91723947E-04    3      1000035         1        -1             # GLSS   -->  Z4SS   DN     DB          
      5.91723947E-04    3      1000035         3        -3             # GLSS   -->  Z4SS   ST     SB          
      5.58746979E-04    3      1000035         4        -4             # GLSS   -->  Z4SS   CH     CB          
      2.59415014E-03    3      1000035         5        -5             # GLSS   -->  Z4SS   BT     BB          
      2.76934803E-02    3      1000035         6        -6             # GLSS   -->  Z4SS   TP     TB          
#         PDG         Width
DECAY   1000002  3.04311188E+02   # UPL   decays
#          BR          NDA       ID1       ID2       ID3       ID4
      5.62614179E-04    2      1000022         2                       # UPL    -->  Z1SS   UP                 
      4.92530584E-04    2      1000023         2                       # UPL    -->  Z2SS   UP                 
      1.25592006E-02    2      1000025         2                       # UPL    -->  Z3SS   UP                 
      5.70330545E-02    2      1000035         2                       # UPL    -->  Z4SS   UP                 
      7.92581856E-01    2      1000021         2                       # UPL    -->  GLSS   UP                 
      2.63259374E-02    2      1000024         1                       # UPL    -->  W1SS+  DN                 
      1.10444836E-01    2      1000037         1                       # UPL    -->  W2SS+  DN                 
#         PDG         Width
DECAY   1000001  3.04313568E+02   # DNL   decays
#          BR          NDA       ID1       ID2       ID3       ID4
      7.51786539E-03    2      1000022         1                       # DNL    -->  Z1SS   DN                 
      9.14215751E-04    2      1000023         1                       # DNL    -->  Z2SS   DN                 
      1.62581785E-03    2      1000025         1                       # DNL    -->  Z3SS   DN                 
      6.05843440E-02    2      1000035         1                       # DNL    -->  Z4SS   DN                 
      7.92688310E-01    2      1000021         1                       # DNL    -->  GLSS   DN                 
      9.16193333E-03    2     -1000024         2                       # DNL    -->  W1SS-  UP                 
      1.27507523E-01    2     -1000037         2                       # DNL    -->  W2SS-  UP                 
#         PDG         Width
DECAY   1000003  3.04313568E+02   # STL   decays
#          BR          NDA       ID1       ID2       ID3       ID4
      7.51786539E-03    2      1000022         3                       # STL    -->  Z1SS   ST                 
      9.14215751E-04    2      1000023         3                       # STL    -->  Z2SS   ST                 
      1.62581785E-03    2      1000025         3                       # STL    -->  Z3SS   ST                 
      6.05843440E-02    2      1000035         3                       # STL    -->  Z4SS   ST                 
      7.92688310E-01    2      1000021         3                       # STL    -->  GLSS   ST                 
      9.16193333E-03    2     -1000024         4                       # STL    -->  W1SS-  CH                 
      1.27507508E-01    2     -1000037         4                       # STL    -->  W2SS-  CH                 
#         PDG         Width
DECAY   1000004  3.04311218E+02   # CHL   decays
#          BR          NDA       ID1       ID2       ID3       ID4
      5.62614121E-04    2      1000022         4                       # CHL    -->  Z1SS   CH                 
      4.92530467E-04    2      1000023         4                       # CHL    -->  Z2SS   CH                 
      1.25591978E-02    2      1000025         4                       # CHL    -->  Z3SS   CH                 
      5.70330434E-02    2      1000035         4                       # CHL    -->  Z4SS   CH                 
      7.92581737E-01    2      1000021         4                       # CHL    -->  GLSS   CH                 
      2.63259374E-02    2      1000024         3                       # CHL    -->  W1SS+  ST                 
      1.10444844E-01    2      1000037         3                       # CHL    -->  W2SS+  ST                 
#         PDG         Width
DECAY   1000005  2.88280029E+02   # BT1   decays
#          BR          NDA       ID1       ID2       ID3       ID4
      8.80162604E-03    2      1000022         5                       # BT1    -->  Z1SS   BT                 
      5.16301673E-03    2      1000023         5                       # BT1    -->  Z2SS   BT                 
      2.80541065E-03    2      1000025         5                       # BT1    -->  Z3SS   BT                 
      4.46751602E-02    2      1000035         5                       # BT1    -->  Z4SS   BT                 
      5.51947832E-01    2      1000021         5                       # BT1    -->  GLSS   BT                 
      1.37060702E-01    2     -1000024         6                       # BT1    -->  W1SS-  TP                 
      1.24409124E-01    2     -1000037         6                       # BT1    -->  W2SS-  TP                 
      1.25086546E-01    2          -24   1000006                       # BT1    -->  W-     TP1                
      5.06265242E-05    2          -37   1000006                       # BT1    -->  H-     TP1                
#         PDG         Width
DECAY   1000006  5.86995049E+01   # TP1   decays
#          BR          NDA       ID1       ID2       ID3       ID4
      3.23075265E-01    2      1000021         6                       # TP1    -->  GLSS   TP                 
      8.63299221E-02    2      1000022         6                       # TP1    -->  Z1SS   TP                 
      1.62139490E-01    2      1000023         6                       # TP1    -->  Z2SS   TP                 
      8.91137794E-02    2      1000025         6                       # TP1    -->  Z3SS   TP                 
      2.38995403E-02    2      1000035         6                       # TP1    -->  Z4SS   TP                 
      2.67745554E-01    2      1000024         5                       # TP1    -->  W1SS+  BT                 
      4.76965606E-02    2      1000037         5                       # TP1    -->  W2SS+  BT                 
#         PDG         Width
DECAY   2000002  2.61034210E+02   # UPR   decays
#          BR          NDA       ID1       ID2       ID3       ID4
      1.90828685E-02    2      1000022         2                       # UPR    -->  Z1SS   UP                 
      3.11095704E-04    2      1000023         2                       # UPR    -->  Z2SS   UP                 
      2.47682724E-02    2      1000025         2                       # UPR    -->  Z3SS   UP                 
      2.57028500E-04    2      1000035         2                       # UPR    -->  Z4SS   UP                 
      9.55580711E-01    2      1000021         2                       # UPR    -->  GLSS   UP                 
#         PDG         Width
DECAY   2000001  2.43373611E+02   # DNR   decays
#          BR          NDA       ID1       ID2       ID3       ID4
      4.94797900E-03    2      1000022         1                       # DNR    -->  Z1SS   DN                 
      8.06566022E-05    2      1000023         1                       # DNR    -->  Z2SS   DN                 
      6.42153807E-03    2      1000025         1                       # DNR    -->  Z3SS   DN                 
      6.66090054E-05    2      1000035         1                       # DNR    -->  Z4SS   DN                 
      9.88483191E-01    2      1000021         1                       # DNR    -->  GLSS   DN                 
#         PDG         Width
DECAY   2000003  2.43373611E+02   # STR   decays
#          BR          NDA       ID1       ID2       ID3       ID4
      4.94797900E-03    2      1000022         3                       # STR    -->  Z1SS   ST                 
      8.06566022E-05    2      1000023         3                       # STR    -->  Z2SS   ST                 
      6.42153807E-03    2      1000025         3                       # STR    -->  Z3SS   ST                 
      6.66090054E-05    2      1000035         3                       # STR    -->  Z4SS   ST                 
      9.88483191E-01    2      1000021         3                       # STR    -->  GLSS   ST                 
#         PDG         Width
DECAY   2000004  2.61034210E+02   # CHR   decays
#          BR          NDA       ID1       ID2       ID3       ID4
      1.90828703E-02    2      1000022         4                       # CHR    -->  Z1SS   CH                 
      3.11095733E-04    2      1000023         4                       # CHR    -->  Z2SS   CH                 
      2.47682724E-02    2      1000025         4                       # CHR    -->  Z3SS   CH                 
      2.57028471E-04    2      1000035         4                       # CHR    -->  Z4SS   CH                 
      9.55580711E-01    2      1000021         4                       # CHR    -->  GLSS   CH                 
#         PDG         Width
DECAY   2000005  2.71151703E+02   # BT2   decays
#          BR          NDA       ID1       ID2       ID3       ID4
      8.93193763E-03    2      1000022         5                       # BT2    -->  Z1SS   BT                 
      6.71500480E-03    2      1000023         5                       # BT2    -->  Z2SS   BT                 
      7.96982273E-03    2      1000025         5                       # BT2    -->  Z3SS   BT                 
      5.78984211E-04    2      1000035         5                       # BT2    -->  Z4SS   BT                 
      8.57404053E-01    2      1000021         5                       # BT2    -->  GLSS   BT                 
      1.31308800E-02    2     -1000024         6                       # BT2    -->  W1SS-  TP                 
      1.01352157E-03    2     -1000037         6                       # BT2    -->  W2SS-  TP                 
      5.15374813E-06    2          -24   1000006                       # BT2    -->  W-     TP1                
      3.33058240E-04    2          -24   2000006                       # BT2    -->  W-     TP2                
      1.61427757E-04    2           23   1000005                       # BT2    -->  Z0     BT1                
      3.18701233E-04    2           25   1000005                       # BT2    -->  HL0    BT1                
      2.54658498E-02    2           36   1000005                       # BT2    -->  HA0    BT1                
      2.52290722E-02    2           35   1000005                       # BT2    -->  HH0    BT1                
      8.83973844E-05    2          -37   1000006                       # BT2    -->  H-     TP1                
      5.26541844E-02    2          -37   2000006                       # BT2    -->  H-     TP2                
#         PDG         Width
DECAY   2000006  2.94191559E+02   # TP2   decays
#          BR          NDA       ID1       ID2       ID3       ID4
      5.31344652E-01    2      1000021         6                       # TP2    -->  GLSS   TP                 
      2.32255235E-02    2      1000024         5                       # TP2    -->  W1SS+  BT                 
      8.38745236E-02    2      1000037         5                       # TP2    -->  W2SS+  BT                 
      6.01443127E-02    2           23   1000006                       # TP2    -->  Z0     TP1                
      9.41234455E-02    2           25   1000006                       # TP2    -->  HL0    TP1                
      2.93422363E-05    2           35   1000006                       # TP2    -->  HH0    TP1                
      2.50049670E-05    2           36   1000006                       # TP2    -->  HA0    TP1                
      2.90492568E-02    2      1000022         6                       # TP2    -->  Z1SS   TP                 
      8.04375708E-02    2      1000023         6                       # TP2    -->  Z2SS   TP                 
      3.90988998E-02    2      1000025         6                       # TP2    -->  Z3SS   TP                 
      5.86475171E-02    2      1000035         6                       # TP2    -->  Z4SS   TP                 
#         PDG         Width
DECAY   1000011  7.01047974E+01   # EL-   decays
#          BR          NDA       ID1       ID2       ID3       ID4
      6.82550762E-03    2      1000022        11                       # EL-    -->  Z1SS   E-                 
      8.86869151E-04    2      1000023        11                       # EL-    -->  Z2SS   E-                 
      1.49623573E-01    2      1000025        11                       # EL-    -->  Z3SS   E-                 
      2.37398535E-01    2      1000035        11                       # EL-    -->  Z4SS   E-                 
      4.05651294E-02    2     -1000024        12                       # EL-    -->  W1SS-  NUE                
      5.64700425E-01    2     -1000037        12                       # EL-    -->  W2SS-  NUE                
#         PDG         Width
DECAY   1000013  7.01047974E+01   # MUL-  decays
#          BR          NDA       ID1       ID2       ID3       ID4
      6.82550762E-03    2      1000022        13                       # MUL-   -->  Z1SS   MU-                
      8.86869151E-04    2      1000023        13                       # MUL-   -->  Z2SS   MU-                
      1.49623573E-01    2      1000025        13                       # MUL-   -->  Z3SS   MU-                
      2.37398535E-01    2      1000035        13                       # MUL-   -->  Z4SS   MU-                
      4.05651294E-02    2     -1000024        14                       # MUL-   -->  W1SS-  NUM                
      5.64700425E-01    2     -1000037        14                       # MUL-   -->  W2SS-  NUM                
#         PDG         Width
DECAY   1000015  2.81127453E+01   # TAU1- decays
#          BR          NDA       ID1       ID2       ID3       ID4
      3.89067560E-01    2      1000022        15                       # TAU1-  -->  Z1SS   TAU-               
      4.25008610E-02    2      1000023        15                       # TAU1-  -->  Z2SS   TAU-               
      4.82259423E-01    2      1000025        15                       # TAU1-  -->  Z3SS   TAU-               
      6.91077253E-03    2      1000035        15                       # TAU1-  -->  Z4SS   TAU-               
      7.52701983E-02    2     -1000024        16                       # TAU1-  -->  W1SS-  NUT                
      3.99118382E-03    2     -1000037        16                       # TAU1-  -->  W2SS-  NUT                
#         PDG         Width
DECAY   1000012  7.01928253E+01   # NUEL  decays
#          BR          NDA       ID1       ID2       ID3       ID4
      9.91729498E-02    2      1000022        12                       # NUEL   -->  Z1SS   NUE                
      6.48513529E-03    2      1000023        12                       # NUEL   -->  Z2SS   NUE                
      4.37293295E-03    2      1000025        12                       # NUEL   -->  Z3SS   NUE                
      2.84396291E-01    2      1000035        12                       # NUEL   -->  Z4SS   NUE                
      1.16535380E-01    2      1000024        11                       # NUEL   -->  W1SS+  E-                 
      4.89037335E-01    2      1000037        11                       # NUEL   -->  W2SS+  E-                 
#         PDG         Width
DECAY   1000014  7.01928253E+01   # NUML  decays
#          BR          NDA       ID1       ID2       ID3       ID4
      9.91729498E-02    2      1000022        14                       # NUML   -->  Z1SS   NUM                
      6.48513529E-03    2      1000023        14                       # NUML   -->  Z2SS   NUM                
      4.37293295E-03    2      1000025        14                       # NUML   -->  Z3SS   NUM                
      2.84396291E-01    2      1000035        14                       # NUML   -->  Z4SS   NUM                
      1.16535380E-01    2      1000024        13                       # NUML   -->  W1SS+  MU-                
      4.89037335E-01    2      1000037        13                       # NUML   -->  W2SS+  MU-                
#         PDG         Width
DECAY   1000016  7.15456619E+01   # NUTL  decays
#          BR          NDA       ID1       ID2       ID3       ID4
      9.58568379E-02    2      1000022        16                       # NUTL   -->  Z1SS   NUT                
      6.26804167E-03    2      1000023        16                       # NUTL   -->  Z2SS   NUT                
      4.22653602E-03    2      1000025        16                       # NUTL   -->  Z3SS   NUT                
      2.74821281E-01    2      1000035        16                       # NUTL   -->  Z4SS   NUT                
      1.43865749E-01    2      1000024        15                       # NUTL   -->  W1SS+  TAU-               
      4.74795133E-01    2      1000037        15                       # NUTL   -->  W2SS+  TAU-               
      1.66456070E-04    2           24   1000015                       # NUTL   -->  W+     TAU1-              
#         PDG         Width
DECAY   2000011  2.44747982E+01   # ER-   decays
#          BR          NDA       ID1       ID2       ID3       ID4
      4.29655075E-01    2      1000022        11                       # ER-    -->  Z1SS   E-                 
      7.00318208E-03    2      1000023        11                       # ER-    -->  Z2SS   E-                 
      5.57560802E-01    2      1000025        11                       # ER-    -->  Z3SS   E-                 
      5.78099303E-03    2      1000035        11                       # ER-    -->  Z4SS   E-                 
#         PDG         Width
DECAY   2000013  2.44747982E+01   # MUR-  decays
#          BR          NDA       ID1       ID2       ID3       ID4
      4.29655075E-01    2      1000022        13                       # MUR-   -->  Z1SS   MU-                
      7.00318208E-03    2      1000023        13                       # MUR-   -->  Z2SS   MU-                
      5.57560802E-01    2      1000025        13                       # MUR-   -->  Z3SS   MU-                
      5.78099303E-03    2      1000035        13                       # MUR-   -->  Z4SS   MU-                
#         PDG         Width
DECAY   2000015  7.14284058E+01   # TAU2- decays
#          BR          NDA       ID1       ID2       ID3       ID4
      1.71733331E-02    2      1000022        15                       # TAU2-  -->  Z1SS   TAU-               
      1.66500360E-02    2      1000023        15                       # TAU2-  -->  Z2SS   TAU-               
      1.50310114E-01    2      1000025        15                       # TAU2-  -->  Z3SS   TAU-               
      2.30834946E-01    2      1000035        15                       # TAU2-  -->  Z4SS   TAU-               
      3.86456996E-02    2     -1000024        16                       # TAU2-  -->  W1SS-  NUT                
      5.46268165E-01    2     -1000037        16                       # TAU2-  -->  W2SS-  NUT                
      7.80413829E-05    2           23   1000015                       # TAU2-  -->  Z0     TAU1-              
      3.96269170E-05    2           25   1000015                       # TAU2-  -->  HL0    TAU1-              
#         PDG         Width
DECAY   1000023  2.04805576E-04   # Z2SS  decays
#          BR          NDA       ID1       ID2       ID3       ID4
      4.02819453E-04    2      1000022        22                       # Z2SS   -->  Z1SS   GM                 
      4.12895577E-03    3     -1000024         2        -1             # Z2SS   -->  W1SS-  UP     DB          
      1.37631863E-03    3     -1000024        12       -11             # Z2SS   -->  W1SS-  NUE    E+          
      1.37631863E-03    3     -1000024        14       -13             # Z2SS   -->  W1SS-  NUM    MU+         
      4.12895577E-03    3      1000024         1        -2             # Z2SS   -->  W1SS+  DN     UB          
      1.37631863E-03    3      1000024        11       -12             # Z2SS   -->  W1SS+  E-     ANUE        
      1.37631863E-03    3      1000024        13       -14             # Z2SS   -->  W1SS+  MU-    ANUM        
      4.12895577E-03    3     -1000024         4        -3             # Z2SS   -->  W1SS-  CH     SB          
      1.37631863E-03    3     -1000024        16       -15             # Z2SS   -->  W1SS-  NUT    TAU+        
      4.12895577E-03    3      1000024         3        -4             # Z2SS   -->  W1SS+  ST     CB          
      1.37631863E-03    3      1000024        15       -16             # Z2SS   -->  W1SS+  TAU-   ANUT        
      1.16336234E-01    3      1000022         2        -2             # Z2SS   -->  Z1SS   UP     UB          
      1.50009692E-01    3      1000022         1        -1             # Z2SS   -->  Z1SS   DN     DB          
      1.50009692E-01    3      1000022         3        -3             # Z2SS   -->  Z1SS   ST     SB          
      1.16336234E-01    3      1000022         4        -4             # Z2SS   -->  Z1SS   CH     CB          
      1.37400508E-01    3      1000022         5        -5             # Z2SS   -->  Z1SS   BT     BB          
      3.40293646E-02    3      1000022        11       -11             # Z2SS   -->  Z1SS   E-     E+          
      3.40293646E-02    3      1000022        13       -13             # Z2SS   -->  Z1SS   MU-    MU+         
      3.35312448E-02    3      1000022        15       -15             # Z2SS   -->  Z1SS   TAU-   TAU+        
      6.77136704E-02    3      1000022        12       -12             # Z2SS   -->  Z1SS   NUE    ANUE        
      6.77136704E-02    3      1000022        14       -14             # Z2SS   -->  Z1SS   NUM    ANUM        
      6.77137747E-02    3      1000022        16       -16             # Z2SS   -->  Z1SS   NUT    ANUT        
#         PDG         Width
DECAY   1000025  1.02039712E-05   # Z3SS  decays
#          BR          NDA       ID1       ID2       ID3       ID4
      7.10067200E-03    2      1000022        22                       # Z3SS   -->  Z1SS   GM                 
      3.96072295E-08    2      1000023        22                       # Z3SS   -->  Z2SS   GM                 
      1.10700399E-01    3     -1000024         2        -1             # Z3SS   -->  W1SS-  UP     DB          
      3.69001329E-02    3     -1000024        12       -11             # Z3SS   -->  W1SS-  NUE    E+          
      3.69001329E-02    3     -1000024        14       -13             # Z3SS   -->  W1SS-  NUM    MU+         
      1.10700399E-01    3      1000024         1        -2             # Z3SS   -->  W1SS+  DN     UB          
      3.69001329E-02    3      1000024        11       -12             # Z3SS   -->  W1SS+  E-     ANUE        
      3.69001329E-02    3      1000024        13       -14             # Z3SS   -->  W1SS+  MU-    ANUM        
      1.10700399E-01    3     -1000024         4        -3             # Z3SS   -->  W1SS-  CH     SB          
      3.69001329E-02    3     -1000024        16       -15             # Z3SS   -->  W1SS-  NUT    TAU+        
      1.10700399E-01    3      1000024         3        -4             # Z3SS   -->  W1SS+  ST     CB          
      3.69001329E-02    3      1000024        15       -16             # Z3SS   -->  W1SS+  TAU-   ANUT        
      3.91192660E-02    3      1000022         2        -2             # Z3SS   -->  Z1SS   UP     UB          
      5.04241325E-02    3      1000022         1        -1             # Z3SS   -->  Z1SS   DN     DB          
      5.04241325E-02    3      1000022         3        -3             # Z3SS   -->  Z1SS   ST     SB          
      3.91192660E-02    3      1000022         4        -4             # Z3SS   -->  Z1SS   CH     CB          
      4.73066308E-02    3      1000022         5        -5             # Z3SS   -->  Z1SS   BT     BB          
      1.13591747E-02    3      1000022        11       -11             # Z3SS   -->  Z1SS   E-     E+          
      1.13591747E-02    3      1000022        13       -13             # Z3SS   -->  Z1SS   MU-    MU+         
      1.12865902E-02    3      1000022        15       -15             # Z3SS   -->  Z1SS   TAU-   TAU+        
      2.27639899E-02    3      1000022        12       -12             # Z3SS   -->  Z1SS   NUE    ANUE        
      2.27639899E-02    3      1000022        14       -14             # Z3SS   -->  Z1SS   NUM    ANUM        
      2.27644183E-02    3      1000022        16       -16             # Z3SS   -->  Z1SS   NUT    ANUT        
      1.01863191E-06    3      1000023         2        -2             # Z3SS   -->  Z2SS   UP     UB          
      1.31349850E-06    3      1000023         1        -1             # Z3SS   -->  Z2SS   DN     DB          
      1.31349850E-06    3      1000023         3        -3             # Z3SS   -->  Z2SS   ST     SB          
      2.97975021E-07    3      1000023        11       -11             # Z3SS   -->  Z2SS   E-     E+          
      2.97975021E-07    3      1000023        13       -13             # Z3SS   -->  Z2SS   MU-    MU+         
      5.92861170E-07    3      1000023        12       -12             # Z3SS   -->  Z2SS   NUE    ANUE        
      5.92861170E-07    3      1000023        14       -14             # Z3SS   -->  Z2SS   NUM    ANUM        
      5.92861852E-07    3      1000023        16       -16             # Z3SS   -->  Z2SS   NUT    ANUT        
#         PDG         Width
DECAY   1000035  1.69670522E+00   # Z4SS  decays
#          BR          NDA       ID1       ID2       ID3       ID4
      6.19014600E-07    2      1000022        22                       # Z4SS   -->  Z1SS   GM                 
      3.54337908E-06    2      1000023        22                       # Z4SS   -->  Z2SS   GM                 
      1.19227366E-06    2      1000025        22                       # Z4SS   -->  Z3SS   GM                 
      3.11866641E-01    2      1000024       -24                       # Z4SS   -->  W1SS+  W-                 
      3.11866641E-01    2     -1000024        24                       # Z4SS   -->  W1SS-  W+                 
      3.32474741E-08    3     -1000037         2        -1             # Z4SS   -->  W2SS-  UP     DB          
      1.10824914E-08    3     -1000037        12       -11             # Z4SS   -->  W2SS-  NUE    E+          
      1.10824914E-08    3     -1000037        14       -13             # Z4SS   -->  W2SS-  NUM    MU+         
      3.32474741E-08    3      1000037         1        -2             # Z4SS   -->  W2SS+  DN     UB          
      1.10824914E-08    3      1000037        11       -12             # Z4SS   -->  W2SS+  E-     ANUE        
      1.10824914E-08    3      1000037        13       -14             # Z4SS   -->  W2SS+  MU-    ANUM        
      3.32474741E-08    3     -1000037         4        -3             # Z4SS   -->  W2SS-  CH     SB          
      1.10824914E-08    3     -1000037        16       -15             # Z4SS   -->  W2SS-  NUT    TAU+        
      3.32474741E-08    3      1000037         3        -4             # Z4SS   -->  W2SS+  ST     CB          
      1.10824914E-08    3      1000037        15       -16             # Z4SS   -->  W2SS+  TAU-   ANUT        
      6.14529056E-03    2      1000022        23                       # Z4SS   -->  Z1SS   Z0                 
      2.13068590E-01    2      1000023        23                       # Z4SS   -->  Z2SS   Z0                 
      1.37465727E-02    2      1000025        23                       # Z4SS   -->  Z3SS   Z0                 
      2.50208899E-11    3      1000022         2        -2             # Z4SS   -->  Z1SS   UP     UB          
      3.24770516E-10    3      1000022         1        -1             # Z4SS   -->  Z1SS   DN     DB          
      3.24770516E-10    3      1000022         3        -3             # Z4SS   -->  Z1SS   ST     SB          
      2.50208847E-11    3      1000022         4        -4             # Z4SS   -->  Z1SS   CH     CB          
      6.06742319E-08    3      1000022         5        -5             # Z4SS   -->  Z1SS   BT     BB          
      2.27873467E-11    3      1000022        11       -11             # Z4SS   -->  Z1SS   E-     E+          
      2.27873467E-11    3      1000022        13       -13             # Z4SS   -->  Z1SS   MU-    MU+         
      1.13226744E-08    3      1000022        15       -15             # Z4SS   -->  Z1SS   TAU-   TAU+        
      3.14816118E-10    3      1000022        12       -12             # Z4SS   -->  Z1SS   NUE    ANUE        
      3.14816118E-10    3      1000022        14       -14             # Z4SS   -->  Z1SS   NUM    ANUM        
      3.34171052E-10    3      1000022        16       -16             # Z4SS   -->  Z1SS   NUT    ANUT        
      2.65786546E-12    3      1000023         2        -2             # Z4SS   -->  Z2SS   UP     UB          
      5.22781601E-12    3      1000023         1        -1             # Z4SS   -->  Z2SS   DN     DB          
      5.22781601E-12    3      1000023         3        -3             # Z4SS   -->  Z2SS   ST     SB          
      2.65786438E-12    3      1000023         4        -4             # Z4SS   -->  Z2SS   CH     CB          
      4.44526087E-08    3      1000023         5        -5             # Z4SS   -->  Z2SS   BT     BB          
      3.22140996E-13    3      1000023        11       -11             # Z4SS   -->  Z2SS   E-     E+          
      3.22140996E-13    3      1000023        13       -13             # Z4SS   -->  Z2SS   MU-    MU+         
      8.54885585E-09    3      1000023        15       -15             # Z4SS   -->  Z2SS   TAU-   TAU+        
      2.72585188E-12    3      1000023        12       -12             # Z4SS   -->  Z2SS   NUE    ANUE        
      2.72585188E-12    3      1000023        14       -14             # Z4SS   -->  Z2SS   NUM    ANUM        
      2.89354760E-12    3      1000023        16       -16             # Z4SS   -->  Z2SS   NUT    ANUT        
      1.70327419E-10    3      1000025         2        -2             # Z4SS   -->  Z3SS   UP     UB          
      2.33435823E-11    3      1000025         1        -1             # Z4SS   -->  Z3SS   DN     DB          
      2.33435823E-11    3      1000025         3        -3             # Z4SS   -->  Z3SS   ST     SB          
      1.70327336E-10    3      1000025         4        -4             # Z4SS   -->  Z3SS   CH     CB          
      1.45390873E-08    3      1000025         5        -5             # Z4SS   -->  Z3SS   BT     BB          
      1.33849806E-10    3      1000025        11       -11             # Z4SS   -->  Z3SS   E-     E+          
      1.33849806E-10    3      1000025        13       -13             # Z4SS   -->  Z3SS   MU-    MU+         
      2.93693003E-09    3      1000025        15       -15             # Z4SS   -->  Z3SS   TAU-   TAU+        
      4.60244169E-12    3      1000025        12       -12             # Z4SS   -->  Z3SS   NUE    ANUE        
      4.60244169E-12    3      1000025        14       -14             # Z4SS   -->  Z3SS   NUM    ANUM        
      4.88554336E-12    3      1000025        16       -16             # Z4SS   -->  Z3SS   NUT    ANUT        
      3.96457501E-02    2      1000022        25                       # Z4SS   -->  Z1SS   HL0                
      6.26636855E-03    2      1000023        25                       # Z4SS   -->  Z2SS   HL0                
      9.73886400E-02    2      1000025        25                       # Z4SS   -->  Z3SS   HL0                
#         PDG         Width
DECAY   1000024  3.90993227E-05   # W1SS+ decays
#          BR          NDA       ID1       ID2       ID3       ID4
      3.33332986E-01    3      1000022         2        -1             # W1SS+  -->  Z1SS   UP     DB          
      3.33332986E-01    3      1000022         4        -3             # W1SS+  -->  Z1SS   CH     SB          
      1.11110598E-01    3      1000022       -11        12             # W1SS+  -->  Z1SS   E+     NUE         
      1.11110598E-01    3      1000022       -13        14             # W1SS+  -->  Z1SS   MU+    NUM         
      1.11112870E-01    3      1000022       -15        16             # W1SS+  -->  Z1SS   TAU+   NUT         
#         PDG         Width
DECAY   1000037  1.52801073E+00   # W2SS+ decays
#          BR          NDA       ID1       ID2       ID3       ID4
      1.94420743E-10    3      1000022         2        -1             # W2SS+  -->  Z1SS   UP     DB          
      1.94420743E-10    3      1000022         4        -3             # W2SS+  -->  Z1SS   CH     SB          
      2.35953729E-10    3      1000022       -11        12             # W2SS+  -->  Z1SS   E+     NUE         
      2.35953729E-10    3      1000022       -13        14             # W2SS+  -->  Z1SS   MU+    NUM         
      1.46161589E-08    3      1000022       -15        16             # W2SS+  -->  Z1SS   TAU+   NUT         
      1.05103537E-01    2      1000022        24                       # W2SS+  -->  Z1SS   W+                 
      1.87020243E-11    3      1000023         2        -1             # W2SS+  -->  Z2SS   UP     DB          
      1.87020226E-11    3      1000023         4        -3             # W2SS+  -->  Z2SS   CH     SB          
      5.79529393E-12    3      1000023       -11        12             # W2SS+  -->  Z2SS   E+     NUE         
      5.79529393E-12    3      1000023       -13        14             # W2SS+  -->  Z2SS   MU+    NUM         
      6.52520349E-09    3      1000023       -15        16             # W2SS+  -->  Z2SS   TAU+   NUT         
      2.52803087E-01    2      1000023        24                       # W2SS+  -->  Z2SS   W+                 
      7.75979767E-11    3      1000025         2        -1             # W2SS+  -->  Z3SS   UP     DB          
      7.75979420E-11    3      1000025         4        -3             # W2SS+  -->  Z3SS   CH     SB          
      1.09942742E-10    3      1000025       -11        12             # W2SS+  -->  Z3SS   E+     NUE         
      1.09942742E-10    3      1000025       -13        14             # W2SS+  -->  Z3SS   MU+    NUM         
      3.93787358E-09    3      1000025       -15        16             # W2SS+  -->  Z3SS   TAU+   NUT         
      2.07873508E-01    2      1000025        24                       # W2SS+  -->  Z3SS   W+                 
      2.62723386E-01    2      1000024        23                       # W2SS+  -->  W1SS+  Z0                 
      3.51668417E-10    3      1000024         1        -1             # W2SS+  -->  W1SS+  DN     DB          
      3.51668222E-10    3      1000024         3        -3             # W2SS+  -->  W1SS+  ST     SB          
      1.41185771E-10    3      1000024         2        -2             # W2SS+  -->  W1SS+  UP     UB          
      1.41185771E-10    3      1000024         4        -4             # W2SS+  -->  W1SS+  CH     CB          
      4.34866101E-11    3      1000024        12       -12             # W2SS+  -->  W1SS+  NUE    ANUE        
      4.34866101E-11    3      1000024        14       -14             # W2SS+  -->  W1SS+  NUM    ANUM        
      6.14161777E-11    3      1000024        16       -16             # W2SS+  -->  W1SS+  NUT    ANUT        
      1.07863503E-10    3      1000024        11       -11             # W2SS+  -->  W1SS+  E-     E+          
      1.07863503E-10    3      1000024        13       -13             # W2SS+  -->  W1SS+  MU-    MU+         
      1.14496704E-10    3      1000024        15       -15             # W2SS+  -->  W1SS+  TAU-   TAU+        
      1.71496421E-01    2      1000024        25                       # W2SS+  -->  W1SS+  HL0                
#         PDG         Width
DECAY        25  3.80084058E-03   # HL0   decays
#          BR          NDA       ID1       ID2       ID3       ID4
      5.80659432E-09    2           11       -11                       # HL0    -->  E-     E+                 
      2.45163828E-04    2           13       -13                       # HL0    -->  MU-    MU+                
      7.01325908E-02    2           15       -15                       # HL0    -->  TAU-   TAU+               
      7.27963379E-06    2            1        -1                       # HL0    -->  DN     DB                 
      2.94133741E-03    2            3        -3                       # HL0    -->  ST     SB                 
      6.30155861E-01    2            5        -5                       # HL0    -->  BT     BB                 
      2.22497556E-06    2            2        -2                       # HL0    -->  UP     UB                 
      4.14014310E-02    2            4        -4                       # HL0    -->  CH     CB                 
      2.69971928E-03    2           22        22                       # HL0    -->  GM     GM                 
      5.26107401E-02    2           21        21                       # HL0    -->  GL     GL                 
      1.00143775E-02    3           24        11       -12             # HL0    -->  W+     E-     ANUE        
      1.00143775E-02    3           24        13       -14             # HL0    -->  W+     MU-    ANUM        
      1.00143775E-02    3           24        15       -16             # HL0    -->  W+     TAU-   ANUT        
      3.00431326E-02    3           24        -2         1             # HL0    -->  W+     UB     DN          
      3.00431326E-02    3           24        -4         3             # HL0    -->  W+     CB     ST          
      1.00143775E-02    3          -24       -11        12             # HL0    -->  W-     E+     NUE         
      1.00143775E-02    3          -24       -13        14             # HL0    -->  W-     MU+    NUM         
      1.00143775E-02    3          -24       -15        16             # HL0    -->  W-     TAU+   NUT         
      3.00431326E-02    3          -24         2        -1             # HL0    -->  W-     UP     DB          
      3.00431326E-02    3          -24         4        -3             # HL0    -->  W-     CH     SB          
      1.33665616E-03    3           23        12       -12             # HL0    -->  Z0     NUE    ANUE        
      1.33665616E-03    3           23        14       -14             # HL0    -->  Z0     NUM    ANUM        
      1.33665616E-03    3           23        16       -16             # HL0    -->  Z0     NUT    ANUT        
      6.72725611E-04    3           23        11       -11             # HL0    -->  Z0     E-     E+          
      6.72725611E-04    3           23        13       -13             # HL0    -->  Z0     MU-    MU+         
      6.72725611E-04    3           23        15       -15             # HL0    -->  Z0     TAU-   TAU+        
      2.30470067E-03    3           23         2        -2             # HL0    -->  Z0     UP     UB          
      2.30470067E-03    3           23         4        -4             # HL0    -->  Z0     CH     CB          
      2.96902237E-03    3           23         1        -1             # HL0    -->  Z0     DN     DB          
      2.96902237E-03    3           23         3        -3             # HL0    -->  Z0     ST     SB          
      2.96902237E-03    3           23         5        -5             # HL0    -->  Z0     BT     BB          
#         PDG         Width
DECAY        35  1.44285479E+01   # HH0   decays
#          BR          NDA       ID1       ID2       ID3       ID4
      2.66715339E-09    2           11       -11                       # HH0    -->  E-     E+                 
      1.12612026E-04    2           13       -13                       # HH0    -->  MU-    MU+                
      3.22532095E-02    2           15       -15                       # HH0    -->  TAU-   TAU+               
      3.26727513E-06    2            1        -1                       # HH0    -->  DN     DB                 
      1.32014439E-03    2            3        -3                       # HH0    -->  ST     SB                 
      1.99003100E-01    2            5        -5                       # HH0    -->  BT     BB                 
      2.16180979E-11    2            2        -2                       # HH0    -->  UP     UB                 
      3.04447553E-07    2            4        -4                       # HH0    -->  CH     CB                 
      1.38881654E-02    2            6        -6                       # HH0    -->  TP     TB                 
      4.24368437E-07    2           22        22                       # HH0    -->  GM     GM                 
      6.97753103E-06    2           21        21                       # HH0    -->  GL     GL                 
      5.23244380E-05    2           24       -24                       # HH0    -->  W+     W-                 
      2.65659601E-05    2           23        23                       # HH0    -->  Z0     Z0                 
      5.12271188E-02    2      1000022   1000022                       # HH0    -->  Z1SS   Z1SS               
      3.17083076E-02    2      1000022   1000023                       # HH0    -->  Z1SS   Z2SS               
      5.72821684E-03    2      1000022   1000025                       # HH0    -->  Z1SS   Z3SS               
      3.74196582E-02    2      1000022   1000035                       # HH0    -->  Z1SS   Z4SS               
      5.42333955E-03    2      1000023   1000023                       # HH0    -->  Z2SS   Z2SS               
      5.58499340E-03    2      1000023   1000025                       # HH0    -->  Z2SS   Z3SS               
      1.29385591E-01    2      1000023   1000035                       # HH0    -->  Z2SS   Z4SS               
      9.74061259E-04    2      1000025   1000025                       # HH0    -->  Z3SS   Z3SS               
      2.67854016E-02    2      1000025   1000035                       # HH0    -->  Z3SS   Z4SS               
      5.76046389E-03    2      1000035   1000035                       # HH0    -->  Z4SS   Z4SS               
      8.20125490E-02    2      1000024  -1000024                       # HH0    -->  W1SS+  W1SS-              
      1.00467000E-02    2      1000037  -1000037                       # HH0    -->  W2SS+  W2SS-              
      1.80547595E-01    2      1000024  -1000037                       # HH0    -->  W1SS+  W2SS-              
      1.80547595E-01    2     -1000024   1000037                       # HH0    -->  W1SS-  W2SS+              
      1.81316631E-04    2           25        25                       # HH0    -->  HL0    HL0                
#         PDG         Width
DECAY        36  1.42888336E+01   # HA0   decays
#          BR          NDA       ID1       ID2       ID3       ID4
      2.67595279E-09    2           11       -11                       # HA0    -->  E-     E+                 
      1.12983551E-04    2           13       -13                       # HA0    -->  MU-    MU+                
      3.23600210E-02    2           15       -15                       # HA0    -->  TAU-   TAU+               
      3.27823500E-06    2            1        -1                       # HA0    -->  DN     DB                 
      1.32457295E-03    2            3        -3                       # HA0    -->  ST     SB                 
      1.99679598E-01    2            5        -5                       # HA0    -->  BT     BB                 
      2.07196274E-11    2            2        -2                       # HA0    -->  UP     UB                 
      2.92023969E-07    2            4        -4                       # HA0    -->  CH     CB                 
      1.47966398E-02    2            6        -6                       # HA0    -->  TP     TB                 
      1.04616583E-06    2           22        22                       # HA0    -->  GM     GM                 
      2.19689027E-05    2           21        21                       # HA0    -->  GL     GL                 
      6.75512180E-02    2      1000022   1000022                       # HA0    -->  Z1SS   Z1SS               
      1.89629309E-02    2      1000022   1000023                       # HA0    -->  Z1SS   Z2SS               
      8.73974990E-03    2      1000022   1000025                       # HA0    -->  Z1SS   Z3SS               
      5.30418754E-02    2      1000022   1000035                       # HA0    -->  Z1SS   Z4SS               
      4.70660627E-03    2      1000023   1000023                       # HA0    -->  Z2SS   Z2SS               
      4.64370241E-03    2      1000023   1000025                       # HA0    -->  Z2SS   Z3SS               
      7.46392161E-02    2      1000023   1000035                       # HA0    -->  Z2SS   Z4SS               
      1.50498992E-03    2      1000025   1000025                       # HA0    -->  Z3SS   Z3SS               
      4.85132560E-02    2      1000025   1000035                       # HA0    -->  Z3SS   Z4SS               
      1.70216057E-02    2      1000035   1000035                       # HA0    -->  Z4SS   Z4SS               
      1.06480733E-01    2      1000024  -1000024                       # HA0    -->  W1SS+  W1SS-              
      2.94997711E-02    2      1000037  -1000037                       # HA0    -->  W2SS+  W2SS-              
      1.58171594E-01    2      1000024  -1000037                       # HA0    -->  W1SS+  W2SS-              
      1.58171594E-01    2     -1000024   1000037                       # HA0    -->  W1SS-  W2SS+              
      5.06976576E-05    2           25        23                       # HA0    -->  HL0    Z0                 
#         PDG         Width
DECAY        37  1.38469687E+01   # H+    decays
#          BR          NDA       ID1       ID2       ID3       ID4
      2.77025958E-09    2           12       -11                       # H+     -->  NUE    E+                 
      1.16965362E-04    2           14       -13                       # H+     -->  NUM    MU+                
      3.35004628E-02    2           16       -15                       # H+     -->  NUT    TAU+               
      3.11941449E-06    2            2        -1                       # H+     -->  UP     DB                 
      1.26066641E-03    2            4        -3                       # H+     -->  CH     SB                 
      1.92299768E-01    2            6        -5                       # H+     -->  TP     BB                 
      3.54094021E-02    2      1000024   1000022                       # H+     -->  W1SS+  Z1SS               
      2.48615481E-02    2      1000024   1000023                       # H+     -->  W1SS+  Z2SS               
      7.52151534E-02    2      1000024   1000025                       # H+     -->  W1SS+  Z3SS               
      1.92931682E-01    2      1000024   1000035                       # H+     -->  W1SS+  Z4SS               
      1.29888311E-01    2      1000037   1000022                       # H+     -->  W2SS+  Z1SS               
      1.90745607E-01    2      1000037   1000023                       # H+     -->  W2SS+  Z2SS               
      1.23612784E-01    2      1000037   1000025                       # H+     -->  W2SS+  Z3SS               
      1.02095284E-04    2      1000037   1000035                       # H+     -->  W2SS+  Z4SS               
      5.24641328E-05    2           25        24                       # H+     -->  HL0    W+                 
