#  ISAJET SUSY parameters in SUSY Les Houches Accord 2 format
#  Created by ISALHA 2.0 Last revision: H Baer 27 May 2014
Block SPINFO   # Program information
     1   ISASUGRA/ISASUSY from ISAJET   # Spectrum Calculator
     2   7.87   18-JUL-2017 13:55:55    # Version number
Block MODSEL   # Model selection
     1    13   # Non-universal supergravity model                  
Block SMINPUTS   # Standard Model inputs
     1     1.28000000E+02   # alpha_em^(-1)
     2     1.16570000E-05   # G_Fermi
     3     1.19999997E-01   # alpha_s(M_Z)
     4     9.11699982E+01   # m_{Z}(pole)
     5     4.19999981E+00   # m_{b}(m_{b})
     6     1.72500000E+02   # m_{top}(pole)
     7     1.77699995E+00   # m_{tau}(pole)
Block MINPAR   # SUSY breaking input parameters
     1     5.00000000E+03   # m_0
     2     1.20000000E+03   # m_{1/2}
     3     1.50000000E+01   # tan(beta)
     4     1.00000000E+00   # sign(mu)
     5    -8.00000000E+03   # A_0
Block EXTPAR   # Non-universal SUSY breaking parameters
     0     1.57628134E+16   # Input scale
    21     2.66973200E+06   # Down type Higgs mass squared
    22     4.15969480E+07   #  Up  type Higgs mass squared
Block MASS   # Scalar and gaugino mass spectrum
#  PDG code   mass                 particle
         6     1.72500000E+02   #  top            
        24     8.04229965E+01   #  W^+
        25     1.24912598E+02   #  h^0            
        35     1.00666705E+03   #  H^0            
        36     1.00000000E+03   #  A^0            
        37     1.00322870E+03   #  H^+            
   1000001     5.44077246E+03   #  dnl            
   1000002     5.44017773E+03   #  upl            
   1000003     5.44077246E+03   #  stl            
   1000004     5.44017773E+03   #  chl            
   1000005     3.91636377E+03   #  b1             
   1000006     1.83071875E+03   #  t1             
   1000011     5.14822998E+03   #  el-            
   1000012     5.15271680E+03   #  nuel           
   1000013     5.14822998E+03   #  mul-           
   1000014     5.15271680E+03   #  numl           
   1000015     4.65429053E+03   #  tau1           
   1000016     5.07783545E+03   #  nutl           
   1000021     2.83192334E+03   #  glss           
   1000022     1.68367615E+02   #  z1ss           
   1000023    -1.78288040E+02   #  z2ss           
   1000024     1.79243195E+02   #  w1ss           
   1000025     5.39001221E+02   #  z3ss           
   1000035     1.03110413E+03   #  z4ss           
   1000037     1.01726563E+03   #  w2ss           
   1000039     1.00000002E+20   #  gvss
   2000001     5.38454102E+03   #  dnr            
   2000002     5.56414746E+03   #  upr            
   2000003     5.38454102E+03   #  str            
   2000004     5.56414795E+03   #  chr            
   2000005     5.20518018E+03   #  b2             
   2000006     3.89281396E+03   #  t2             
   2000011     4.81878662E+03   #  er-            
   2000013     4.81878662E+03   #  mur-           
   2000015     5.07180029E+03   #  tau2           
Block ALPHA   # Effective Higgs mixing parameter
         -6.81278110E-02   # alpha
Block STOPMIX   # stop mixing matrix
  1  1     5.71802706E-02   # O_{11}
  1  2     9.98363853E-01   # O_{12}
  2  1    -9.98363853E-01   # O_{21}
  2  2     5.71802706E-02   # O_{22}
Block SBOTMIX   # sbottom mixing matrix
  1  1     9.99993503E-01   # O_{11}
  1  2     3.60890222E-03   # O_{12}
  2  1    -3.60890222E-03   # O_{21}
  2  2     9.99993503E-01   # O_{22}
Block STAUMIX   # stau mixing matrix
  1  1     7.78841646E-03   # O_{11}
  1  2     9.99969661E-01   # O_{12}
  2  1    -9.99969661E-01   # O_{21}
  2  2     7.78841646E-03   # O_{22}
Block NMIX   # neutralino mixing matrix
  1  1     8.47962946E-02   #
  1  2    -6.93593994E-02   #
  1  3     7.14407623E-01   #
  1  4    -6.91101015E-01   #
  2  1    -3.93410921E-02   #
  2  2     4.13863547E-02   #
  2  3     6.98625386E-01   #
  2  4     7.13205576E-01   #
  3  1     9.95573878E-01   #
  3  2     1.72757730E-02   #
  3  3    -3.30337584E-02   #
  3  4     8.62727314E-02   #
  4  1     9.72292759E-03   #
  4  2    -9.96583343E-01   #
  4  3    -2.12807450E-02   #
  4  4     7.92126805E-02   #
Block UMIX   # chargino U mixing matrix
  1  1    -2.85976604E-02   # U_{11}
  1  2     9.99590993E-01   # U_{12}
  2  1    -9.99590993E-01   # U_{21}
  2  2    -2.85976604E-02   # U_{22}
Block VMIX   # chargino V mixing matrix
  1  1    -1.11010075E-01   # V_{11}
  1  2     9.93819296E-01   # V_{12}
  2  1    -9.93819296E-01   # V_{21}
  2  2    -1.11010075E-01   # V_{22}
Block GAUGE Q=  2.65171021E+03   #
     1     3.57521087E-01   # g`
     2     6.52391016E-01   # g_2
     3     1.21945548E+00   # g_3
Block YU Q=  2.65171021E+03   #
  3  3     8.20331275E-01   # y_t
Block YD Q=  2.65171021E+03   #
  3  3     1.90474153E-01   # y_b
Block YE Q=  2.65171021E+03   #
  3  3     1.50515169E-01   # y_tau
Block HMIX Q=  2.65171021E+03   # Higgs mixing parameters
     1     1.70000000E+02   # mu(Q)
     2     1.43442497E+01   # tan(beta)(Q)
     3     2.52297333E+02   # Higgs vev at Q
     4     1.00000000E+06   # m_A^2(Q)
Block MSOFT Q=  2.65171021E+03   # DRbar SUSY breaking parameters
     1     5.33870422E+02   # M_1(Q)          
     2     9.71906250E+02   # M_2(Q)          
     3     2.53185083E+03   # M_3(Q)          
    21     9.43595063E+05   # MHd^2(Q)        
    22    -5.06116289E+04   # MHu^2(Q)        
    31     5.13126416E+03   # MeL(Q)          
    32     5.13126416E+03   # MmuL(Q)         
    33     5.05841211E+03   # MtauL(Q)        
    34     4.81512988E+03   # MeR(Q)          
    35     4.81512988E+03   # MmuR(Q)         
    36     4.65220068E+03   # MtauR(Q)        
    41     5.32214404E+03   # MqL1(Q)         
    42     5.32214404E+03   # MqL2(Q)         
    43     3.83956934E+03   # MqL3(Q)         
    44     5.44583496E+03   # MuR(Q)          
    45     5.44583496E+03   # McR(Q)          
    46     1.83134265E+03   # MtR(Q)          
    47     5.26620996E+03   # MdR(Q)          
    48     5.26620996E+03   # MsR(Q)          
    49     5.14461865E+03   # MbR(Q)          
Block AU Q=  2.65171021E+03   #
  1  1    -4.95883740E+03   # A_u
  2  2    -4.95883740E+03   # A_c
  3  3    -4.95883740E+03   # A_t
Block AD Q=  2.65171021E+03   #
  1  1    -9.59257227E+03   # A_d
  2  2    -9.59257227E+03   # A_s
  3  3    -9.59257227E+03   # A_b
Block AE Q=  2.65171021E+03   #
  1  1    -8.32719629E+03   # A_e
  2  2    -8.32719629E+03   # A_mu
  3  3    -8.32719629E+03   # A_tau
#  ISAJET decay tables in SUSY Les Houches accord format
#  Created by ISALHD. Last revision: C. Balazs, 2005 May 25
Block DCINFO                           # Program information
     1   ISASUGRA from ISAJET          # Spectrum Calculator
     2   7.87   18-JUL-2017 13:55:55   # Version number
#         PDG         Width
DECAY         6  1.46776152E+00   # TP    decays
#          BR          NDA       ID1       ID2       ID3       ID4
      3.33333313E-01    3            2        -1         5             # TP     -->  UP     DB     BT          
      3.33333313E-01    3            4        -3         5             # TP     -->  CH     SB     BT          
      1.11111097E-01    3          -11        12         5             # TP     -->  E+     NUE    BT          
      1.11111097E-01    3          -13        14         5             # TP     -->  MU+    NUM    BT          
      1.11111097E-01    3          -15        16         5             # TP     -->  TAU+   NUT    BT          
#         PDG         Width
DECAY   1000021  1.93429985E+01   # GLSS  decays
#          BR          NDA       ID1       ID2       ID3       ID4
      4.26867899E-07    3      1000024         1        -2             # GLSS   -->  W1SS+  DN     UB          
      4.26867899E-07    3     -1000024         2        -1             # GLSS   -->  W1SS-  UP     DB          
      4.26867899E-07    3      1000024         3        -4             # GLSS   -->  W1SS+  ST     CB          
      4.26867899E-07    3     -1000024         4        -3             # GLSS   -->  W1SS-  CH     SB          
      2.47748627E-04    3      1000024         5        -6             # GLSS   -->  W1SS+  BT     TB          
      2.47748627E-04    3     -1000024         6        -5             # GLSS   -->  W1SS-  TP     BB          
      3.66763525E-05    3      1000037         1        -2             # GLSS   -->  W2SS+  DN     UB          
      3.66763525E-05    3     -1000037         2        -1             # GLSS   -->  W2SS-  UP     DB          
      3.66763525E-05    3      1000037         3        -4             # GLSS   -->  W2SS+  ST     CB          
      3.66763525E-05    3     -1000037         4        -3             # GLSS   -->  W2SS-  CH     SB          
      1.95752771E-04    3      1000037         5        -6             # GLSS   -->  W2SS+  BT     TB          
      1.95752771E-04    3     -1000037         6        -5             # GLSS   -->  W2SS-  TP     BB          
      2.24602445E-06    2      1000022        21                       # GLSS   -->  Z1SS   GL                 
      2.17987420E-07    3      1000022         2        -2             # GLSS   -->  Z1SS   UP     UB          
      2.80443999E-07    3      1000022         1        -1             # GLSS   -->  Z1SS   DN     DB          
      2.80443999E-07    3      1000022         3        -3             # GLSS   -->  Z1SS   ST     SB          
      2.17987349E-07    3      1000022         4        -4             # GLSS   -->  Z1SS   CH     CB          
      2.57109659E-05    3      1000022         5        -5             # GLSS   -->  Z1SS   BT     BB          
      2.21418872E-04    3      1000022         6        -6             # GLSS   -->  Z1SS   TP     TB          
      2.37342783E-06    2      1000023        21                       # GLSS   -->  Z2SS   GL                 
      5.28719966E-08    3      1000023         2        -2             # GLSS   -->  Z2SS   UP     UB          
      7.10537336E-08    3      1000023         1        -1             # GLSS   -->  Z2SS   DN     DB          
      7.10537336E-08    3      1000023         3        -3             # GLSS   -->  Z2SS   ST     SB          
      5.28719823E-08    3      1000023         4        -4             # GLSS   -->  Z2SS   CH     CB          
      2.37145050E-05    3      1000023         5        -5             # GLSS   -->  Z2SS   BT     BB          
      2.34779320E-04    3      1000023         6        -6             # GLSS   -->  Z2SS   TP     TB          
      4.39456542E-08    2      1000025        21                       # GLSS   -->  Z3SS   GL                 
      1.62933302E-05    3      1000025         2        -2             # GLSS   -->  Z3SS   UP     UB          
      5.21886295E-06    3      1000025         1        -1             # GLSS   -->  Z3SS   DN     DB          
      5.21886295E-06    3      1000025         3        -3             # GLSS   -->  Z3SS   ST     SB          
      1.62933266E-05    3      1000025         4        -4             # GLSS   -->  Z3SS   CH     CB          
      9.39506117E-06    3      1000025         5        -5             # GLSS   -->  Z3SS   BT     BB          
      8.26869564E-06    3      1000025         6        -6             # GLSS   -->  Z3SS   TP     TB          
      3.14824220E-08    2      1000035        21                       # GLSS   -->  Z4SS   GL                 
      1.78760019E-05    3      1000035         2        -2             # GLSS   -->  Z4SS   UP     UB          
      1.79945164E-05    3      1000035         1        -1             # GLSS   -->  Z4SS   DN     DB          
      1.79945164E-05    3      1000035         3        -3             # GLSS   -->  Z4SS   ST     SB          
      1.78760019E-05    3      1000035         4        -4             # GLSS   -->  Z4SS   CH     CB          
      9.44099593E-05    3      1000035         5        -5             # GLSS   -->  Z4SS   BT     BB          
      9.73614515E-05    3      1000035         6        -6             # GLSS   -->  Z4SS   TP     TB          
      4.99064416E-01    2     -1000006         6                       # GLSS   -->  TB1    TP                 
      4.99064416E-01    2      1000006        -6                       # GLSS   -->  TP1    TB                 
#         PDG         Width
DECAY   1000002  2.15992905E+02   # UPL   decays
#          BR          NDA       ID1       ID2       ID3       ID4
      3.06554197E-04    2      1000022         2                       # UPL    -->  Z1SS   UP                 
      1.23584992E-04    2      1000023         2                       # UPL    -->  Z2SS   UP                 
      4.14429791E-03    2      1000025         2                       # UPL    -->  Z3SS   UP                 
      9.75173935E-02    2      1000035         2                       # UPL    -->  Z4SS   UP                 
      7.00264215E-01    2      1000021         2                       # UPL    -->  GLSS   UP                 
      2.60733650E-03    2      1000024         1                       # UPL    -->  W1SS+  DN                 
      1.95036545E-01    2      1000037         1                       # UPL    -->  W2SS+  DN                 
#         PDG         Width
DECAY   1000001  2.15999542E+02   # DNL   decays
#          BR          NDA       ID1       ID2       ID3       ID4
      7.62690848E-04    2      1000022         1                       # DNL    -->  Z1SS   DN                 
      2.49833392E-04    2      1000023         1                       # DNL    -->  Z2SS   DN                 
      2.83435523E-03    2      1000025         1                       # DNL    -->  Z3SS   DN                 
      9.82264131E-02    2      1000035         1                       # DNL    -->  Z4SS   DN                 
      7.00426459E-01    2      1000021         1                       # DNL    -->  GLSS   DN                 
      1.73048407E-04    2     -1000024         2                       # DNL    -->  W1SS-  UP                 
      1.97327152E-01    2     -1000037         2                       # DNL    -->  W2SS-  UP                 
#         PDG         Width
DECAY   1000003  2.15999542E+02   # STL   decays
#          BR          NDA       ID1       ID2       ID3       ID4
      7.62690848E-04    2      1000022         3                       # STL    -->  Z1SS   ST                 
      2.49833392E-04    2      1000023         3                       # STL    -->  Z2SS   ST                 
      2.83435523E-03    2      1000025         3                       # STL    -->  Z3SS   ST                 
      9.82264131E-02    2      1000035         3                       # STL    -->  Z4SS   ST                 
      7.00426459E-01    2      1000021         3                       # STL    -->  GLSS   ST                 
      1.73048393E-04    2     -1000024         4                       # STL    -->  W1SS-  CH                 
      1.97327137E-01    2     -1000037         4                       # STL    -->  W2SS-  CH                 
#         PDG         Width
DECAY   1000004  2.15992874E+02   # CHL   decays
#          BR          NDA       ID1       ID2       ID3       ID4
      3.06554226E-04    2      1000022         4                       # CHL    -->  Z1SS   CH                 
      1.23584992E-04    2      1000023         4                       # CHL    -->  Z2SS   CH                 
      4.14429745E-03    2      1000025         4                       # CHL    -->  Z3SS   CH                 
      9.75173935E-02    2      1000035         4                       # CHL    -->  Z4SS   CH                 
      7.00264215E-01    2      1000021         4                       # CHL    -->  GLSS   CH                 
      2.60733697E-03    2      1000024         3                       # CHL    -->  W1SS+  ST                 
      1.95036575E-01    2      1000037         3                       # CHL    -->  W2SS+  ST                 
#         PDG         Width
DECAY   1000005  2.05291412E+02   # BT1   decays
#          BR          NDA       ID1       ID2       ID3       ID4
      7.94363581E-03    2      1000022         5                       # BT1    -->  Z1SS   BT                 
      7.20080873E-03    2      1000023         5                       # BT1    -->  Z2SS   BT                 
      2.11849529E-03    2      1000025         5                       # BT1    -->  Z3SS   BT                 
      6.93285018E-02    2      1000035         5                       # BT1    -->  Z4SS   BT                 
      2.33912885E-01    2      1000021         5                       # BT1    -->  GLSS   BT                 
      2.40204632E-01    2     -1000024         6                       # BT1    -->  W1SS-  TP                 
      1.42468184E-01    2     -1000037         6                       # BT1    -->  W2SS-  TP                 
      2.96404690E-01    2          -24   1000006                       # BT1    -->  W-     TP1                
      4.18149750E-04    2          -37   1000006                       # BT1    -->  H-     TP1                
#         PDG         Width
DECAY   1000006  4.91210747E+01   # TP1   decays
#          BR          NDA       ID1       ID2       ID3       ID4
      2.22952336E-01    2      1000022         6                       # TP1    -->  Z1SS   TP                 
      2.36832336E-01    2      1000023         6                       # TP1    -->  Z2SS   TP                 
      7.15465024E-02    2      1000025         6                       # TP1    -->  Z3SS   TP                 
      4.63368837E-04    2      1000035         6                       # TP1    -->  Z4SS   TP                 
      4.67244059E-01    2      1000024         5                       # TP1    -->  W1SS+  BT                 
      9.61402082E-04    2      1000037         5                       # TP1    -->  W2SS+  BT                 
#         PDG         Width
DECAY   2000002  1.71838608E+02   # UPR   decays
#          BR          NDA       ID1       ID2       ID3       ID4
      5.25354233E-04    2      1000022         2                       # UPR    -->  Z1SS   UP                 
      1.13056289E-04    2      1000023         2                       # UPR    -->  Z2SS   UP                 
      7.11953864E-02    2      1000025         2                       # UPR    -->  Z3SS   UP                 
      6.45262162E-06    2      1000035         2                       # UPR    -->  Z4SS   UP                 
      9.28159773E-01    2      1000021         2                       # UPR    -->  GLSS   UP                 
#         PDG         Width
DECAY   2000001  1.50517807E+02   # DNR   decays
#          BR          NDA       ID1       ID2       ID3       ID4
      1.45084545E-04    2      1000022         1                       # DNR    -->  Z1SS   DN                 
      3.12217380E-05    2      1000023         1                       # DNR    -->  Z2SS   DN                 
      1.96388755E-02    2      1000025         1                       # DNR    -->  Z3SS   DN                 
      1.77362438E-06    2      1000035         1                       # DNR    -->  Z4SS   DN                 
      9.80183065E-01    2      1000021         1                       # DNR    -->  GLSS   DN                 
#         PDG         Width
DECAY   2000003  1.50517807E+02   # STR   decays
#          BR          NDA       ID1       ID2       ID3       ID4
      1.45084545E-04    2      1000022         3                       # STR    -->  Z1SS   ST                 
      3.12217380E-05    2      1000023         3                       # STR    -->  Z2SS   ST                 
      1.96388755E-02    2      1000025         3                       # STR    -->  Z3SS   ST                 
      1.77362438E-06    2      1000035         3                       # STR    -->  Z4SS   ST                 
      9.80183065E-01    2      1000021         3                       # STR    -->  GLSS   ST                 
#         PDG         Width
DECAY   2000004  1.71838608E+02   # CHR   decays
#          BR          NDA       ID1       ID2       ID3       ID4
      5.25354233E-04    2      1000022         4                       # CHR    -->  Z1SS   CH                 
      1.13056289E-04    2      1000023         4                       # CHR    -->  Z2SS   CH                 
      7.11953938E-02    2      1000025         4                       # CHR    -->  Z3SS   CH                 
      6.45262207E-06    2      1000035         4                       # CHR    -->  Z4SS   CH                 
      9.28159773E-01    2      1000021         4                       # CHR    -->  GLSS   CH                 
#         PDG         Width
DECAY   2000005  1.82234863E+02   # BT2   decays
#          BR          NDA       ID1       ID2       ID3       ID4
      1.11035099E-02    2      1000022         5                       # BT2    -->  Z1SS   BT                 
      1.05751501E-02    2      1000023         5                       # BT2    -->  Z2SS   BT                 
      1.56877320E-02    2      1000025         5                       # BT2    -->  Z3SS   BT                 
      1.91414892E-05    2      1000035         5                       # BT2    -->  Z4SS   BT                 
      7.43417144E-01    2      1000021         5                       # BT2    -->  GLSS   BT                 
      2.15083584E-02    2     -1000024         6                       # BT2    -->  W1SS-  TP                 
      3.30398434E-05    2     -1000037         6                       # BT2    -->  W2SS-  TP                 
      1.44169135E-05    2          -24   1000006                       # BT2    -->  W-     TP1                
      5.56340674E-04    2          -24   2000006                       # BT2    -->  W-     TP2                
      2.69381533E-04    2           23   1000005                       # BT2    -->  Z0     BT1                
      5.66720671E-04    2           25   1000005                       # BT2    -->  HL0    BT1                
      4.81956266E-02    2           36   1000005                       # BT2    -->  HA0    BT1                
      4.76859435E-02    2           35   1000005                       # BT2    -->  HH0    BT1                
      4.45955317E-04    2          -37   1000006                       # BT2    -->  H-     TP1                
      9.99216288E-02    2          -37   2000006                       # BT2    -->  H-     TP2                
#         PDG         Width
DECAY   2000006  2.17700058E+02   # TP2   decays
#          BR          NDA       ID1       ID2       ID3       ID4
      2.06489667E-01    2      1000021         6                       # TP2    -->  GLSS   TP                 
      1.36780115E-02    2      1000024         5                       # TP2    -->  W1SS+  BT                 
      1.30700305E-01    2      1000037         5                       # TP2    -->  W2SS+  BT                 
      1.37093335E-01    2           23   1000006                       # TP2    -->  Z0     TP1                
      2.16573849E-01    2           25   1000006                       # TP2    -->  HL0    TP1                
      2.14194137E-04    2           35   1000006                       # TP2    -->  HH0    TP1                
      1.97608693E-04    2           36   1000006                       # TP2    -->  HA0    TP1                
      1.07914798E-01    2      1000022         6                       # TP2    -->  Z1SS   TP                 
      1.15294978E-01    2      1000023         6                       # TP2    -->  Z2SS   TP                 
      5.22081694E-03    2      1000025         6                       # TP2    -->  Z3SS   TP                 
      6.66224137E-02    2      1000035         6                       # TP2    -->  Z4SS   TP                 
#         PDG         Width
DECAY   1000011  6.64177246E+01   # EL-   decays
#          BR          NDA       ID1       ID2       ID3       ID4
      1.68560437E-04    2      1000022        11                       # EL-    -->  Z1SS   E-                 
      1.27138905E-04    2      1000023        11                       # EL-    -->  Z2SS   E-                 
      1.01691663E-01    2      1000025        11                       # EL-    -->  Z3SS   E-                 
      2.95381367E-01    2      1000035        11                       # EL-    -->  Z4SS   E-                 
      5.32382168E-04    2     -1000024        12                       # EL-    -->  W1SS-  NUE                
      6.02098942E-01    2     -1000037        12                       # EL-    -->  W2SS-  NUE                
#         PDG         Width
DECAY   1000013  6.64177246E+01   # MUL-  decays
#          BR          NDA       ID1       ID2       ID3       ID4
      1.68560437E-04    2      1000022        13                       # MUL-   -->  Z1SS   MU-                
      1.27138905E-04    2      1000023        13                       # MUL-   -->  Z2SS   MU-                
      1.01691663E-01    2      1000025        13                       # MUL-   -->  Z3SS   MU-                
      2.95381367E-01    2      1000035        13                       # MUL-   -->  Z4SS   MU-                
      5.32382168E-04    2     -1000024        14                       # MUL-   -->  W1SS-  NUM                
      6.02098942E-01    2     -1000037        14                       # MUL-   -->  W2SS-  NUM                
#         PDG         Width
DECAY   1000015  2.74392700E+01   # TAU1- decays
#          BR          NDA       ID1       ID2       ID3       ID4
      4.73306365E-02    2      1000022        15                       # TAU1-  -->  Z1SS   TAU-               
      4.02071513E-02    2      1000023        15                       # TAU1-  -->  Z2SS   TAU-               
      8.32323074E-01    2      1000025        15                       # TAU1-  -->  Z3SS   TAU-               
      7.32020126E-05    2      1000035        15                       # TAU1-  -->  Z4SS   TAU-               
      8.00646245E-02    2     -1000024        16                       # TAU1-  -->  W1SS-  NUT                
      1.31352385E-06    2     -1000037        16                       # TAU1-  -->  W2SS-  NUT                
#         PDG         Width
DECAY   1000012  6.65021362E+01   # NUEL  decays
#          BR          NDA       ID1       ID2       ID3       ID4
      4.37663589E-03    2      1000022        12                       # NUEL   -->  Z1SS   NUE                
      1.29174883E-03    2      1000023        12                       # NUEL   -->  Z2SS   NUE                
      8.95910338E-02    2      1000025        12                       # NUEL   -->  Z3SS   NUE                
      3.01708966E-01    2      1000035        12                       # NUEL   -->  Z4SS   NUE                
      8.01891927E-03    2      1000024        11                       # NUEL   -->  W1SS+  E-                 
      5.95012605E-01    2      1000037        11                       # NUEL   -->  W2SS+  E-                 
#         PDG         Width
DECAY   1000014  6.65021362E+01   # NUML  decays
#          BR          NDA       ID1       ID2       ID3       ID4
      4.37663589E-03    2      1000022        14                       # NUML   -->  Z1SS   NUM                
      1.29174883E-03    2      1000023        14                       # NUML   -->  Z2SS   NUM                
      8.95910338E-02    2      1000025        14                       # NUML   -->  Z3SS   NUM                
      3.01708966E-01    2      1000035        14                       # NUML   -->  Z4SS   NUM                
      8.01891927E-03    2      1000024        13                       # NUML   -->  W1SS+  MU-                
      5.95012605E-01    2      1000037        13                       # NUML   -->  W2SS+  MU-                
#         PDG         Width
DECAY   1000016  6.78042908E+01   # NUTL  decays
#          BR          NDA       ID1       ID2       ID3       ID4
      4.22993442E-03    2      1000022        16                       # NUTL   -->  Z1SS   NUT                
      1.24844071E-03    2      1000023        16                       # NUTL   -->  Z2SS   NUT                
      8.65365937E-02    2      1000025        16                       # NUTL   -->  Z3SS   NUT                
      2.90892005E-01    2      1000035        16                       # NUTL   -->  Z4SS   NUT                
      4.30510975E-02    2      1000024        15                       # NUTL   -->  W1SS+  TAU-               
      5.73747218E-01    2      1000037        15                       # NUTL   -->  W2SS+  TAU-               
      2.94721976E-04    2           24   1000015                       # NUTL   -->  W+     TAU1-              
#         PDG         Width
DECAY   2000011  2.39047966E+01   # ER-   decays
#          BR          NDA       ID1       ID2       ID3       ID4
      7.35434797E-03    2      1000022        11                       # ER-    -->  Z1SS   E-                 
      1.58253941E-03    2      1000023        11                       # ER-    -->  Z2SS   E-                 
      9.90974844E-01    2      1000025        11                       # ER-    -->  Z3SS   E-                 
      8.82546083E-05    2      1000035        11                       # ER-    -->  Z4SS   E-                 
#         PDG         Width
DECAY   2000013  2.39047966E+01   # MUR-  decays
#          BR          NDA       ID1       ID2       ID3       ID4
      7.35434797E-03    2      1000022        13                       # MUR-   -->  Z1SS   MU-                
      1.58253941E-03    2      1000023        13                       # MUR-   -->  Z2SS   MU-                
      9.90974844E-01    2      1000025        13                       # MUR-   -->  Z3SS   MU-                
      8.82546083E-05    2      1000035        13                       # MUR-   -->  Z4SS   MU-                
#         PDG         Width
DECAY   2000015  6.76844101E+01   # TAU2- decays
#          BR          NDA       ID1       ID2       ID3       ID4
      1.80746019E-02    2      1000022        15                       # TAU2-  -->  Z1SS   TAU-               
      1.74496695E-02    2      1000023        15                       # TAU2-  -->  Z2SS   TAU-               
      9.83228087E-02    2      1000025        15                       # TAU2-  -->  Z3SS   TAU-               
      2.84856349E-01    2      1000035        15                       # TAU2-  -->  Z4SS   TAU-               
      4.50326304E-04    2     -1000024        16                       # TAU2-  -->  W1SS-  NUT                
      5.80650091E-01    2     -1000037        16                       # TAU2-  -->  W2SS-  NUT                
      1.40910473E-04    2           23   1000015                       # TAU2-  -->  Z0     TAU1-              
      5.52262863E-05    2           25   1000015                       # TAU2-  -->  HL0    TAU1-              
#         PDG         Width
DECAY   1000023  8.08618239E-08   # Z2SS  decays
#          BR          NDA       ID1       ID2       ID3       ID4
      2.50181891E-02    2      1000022        22                       # Z2SS   -->  Z1SS   GM                 
      1.37136459E-01    3      1000022         2        -2             # Z2SS   -->  Z1SS   UP     UB          
      1.76837757E-01    3      1000022         1        -1             # Z2SS   -->  Z1SS   DN     DB          
      1.76837757E-01    3      1000022         3        -3             # Z2SS   -->  Z1SS   ST     SB          
      1.37136459E-01    3      1000022         4        -4             # Z2SS   -->  Z1SS   CH     CB          
      4.01155502E-02    3      1000022        11       -11             # Z2SS   -->  Z1SS   E-     E+          
      4.01155502E-02    3      1000022        13       -13             # Z2SS   -->  Z1SS   MU-    MU+         
      2.73489021E-02    3      1000022        15       -15             # Z2SS   -->  Z1SS   TAU-   TAU+        
      7.98177794E-02    3      1000022        12       -12             # Z2SS   -->  Z1SS   NUE    ANUE        
      7.98177794E-02    3      1000022        14       -14             # Z2SS   -->  Z1SS   NUM    ANUM        
      7.98177943E-02    3      1000022        16       -16             # Z2SS   -->  Z1SS   NUT    ANUT        
#         PDG         Width
DECAY   1000025  1.18577600E+00   # Z3SS  decays
#          BR          NDA       ID1       ID2       ID3       ID4
      8.52675939E-08    2      1000022        22                       # Z3SS   -->  Z1SS   GM                 
      6.46708642E-08    2      1000023        22                       # Z3SS   -->  Z2SS   GM                 
      2.60465354E-01    2      1000024       -24                       # Z3SS   -->  W1SS+  W-                 
      2.60465354E-01    2     -1000024        24                       # Z3SS   -->  W1SS-  W+                 
      4.39984612E-02    2      1000022        23                       # Z3SS   -->  Z1SS   Z0                 
      2.04178765E-01    2      1000023        23                       # Z3SS   -->  Z2SS   Z0                 
      8.41848605E-11    3      1000022         2        -2             # Z3SS   -->  Z1SS   UP     UB          
      1.39515439E-11    3      1000022         1        -1             # Z3SS   -->  Z1SS   DN     DB          
      1.39515439E-11    3      1000022         3        -3             # Z3SS   -->  Z1SS   ST     SB          
      8.41848327E-11    3      1000022         4        -4             # Z3SS   -->  Z1SS   CH     CB          
      7.18753824E-07    3      1000022         5        -5             # Z3SS   -->  Z1SS   BT     BB          
      2.41499626E-10    3      1000022        11       -11             # Z3SS   -->  Z1SS   E-     E+          
      2.41499626E-10    3      1000022        13       -13             # Z3SS   -->  Z1SS   MU-    MU+         
      1.53392989E-07    3      1000022        15       -15             # Z3SS   -->  Z1SS   TAU-   TAU+        
      6.61342092E-11    3      1000022        12       -12             # Z3SS   -->  Z1SS   NUE    ANUE        
      6.61342092E-11    3      1000022        14       -14             # Z3SS   -->  Z1SS   NUM    ANUM        
      7.01438352E-11    3      1000022        16       -16             # Z3SS   -->  Z1SS   NUT    ANUT        
      7.82318481E-12    3      1000023         2        -2             # Z3SS   -->  Z2SS   UP     UB          
      1.61732704E-12    3      1000023         1        -1             # Z3SS   -->  Z2SS   DN     DB          
      1.61732704E-12    3      1000023         3        -3             # Z3SS   -->  Z2SS   ST     SB          
      7.82318307E-12    3      1000023         4        -4             # Z3SS   -->  Z2SS   CH     CB          
      6.57412386E-07    3      1000023         5        -5             # Z3SS   -->  Z2SS   BT     BB          
      2.20128568E-11    3      1000023        11       -11             # Z3SS   -->  Z2SS   E-     E+          
      2.20128568E-11    3      1000023        13       -13             # Z3SS   -->  Z2SS   MU-    MU+         
      1.39967426E-07    3      1000023        15       -15             # Z3SS   -->  Z2SS   TAU-   TAU+        
      8.02485248E-12    3      1000023        12       -12             # Z3SS   -->  Z2SS   NUE    ANUE        
      8.02485248E-12    3      1000023        14       -14             # Z3SS   -->  Z2SS   NUM    ANUM        
      8.51178156E-12    3      1000023        16       -16             # Z3SS   -->  Z2SS   NUT    ANUT        
      1.93687633E-01    2      1000022        25                       # Z3SS   -->  Z1SS   HL0                
      3.72026451E-02    2      1000023        25                       # Z3SS   -->  Z2SS   HL0                
#         PDG         Width
DECAY   1000035  8.49948788E+00   # Z4SS  decays
#          BR          NDA       ID1       ID2       ID3       ID4
      1.46696175E-06    2      1000022        22                       # Z4SS   -->  Z1SS   GM                 
      2.40394252E-06    2      1000023        22                       # Z4SS   -->  Z2SS   GM                 
      6.57032251E-09    2      1000025        22                       # Z4SS   -->  Z3SS   GM                 
      2.44369790E-01    2      1000024       -24                       # Z4SS   -->  W1SS+  W-                 
      2.44369790E-01    2     -1000024        24                       # Z4SS   -->  W1SS-  W+                 
      1.01578422E-07    3     -1000037         2        -1             # Z4SS   -->  W2SS-  UP     DB          
      3.38594752E-08    3     -1000037        12       -11             # Z4SS   -->  W2SS-  NUE    E+          
      3.38594752E-08    3     -1000037        14       -13             # Z4SS   -->  W2SS-  NUM    MU+         
      1.01578422E-07    3      1000037         1        -2             # Z4SS   -->  W2SS+  DN     UB          
      3.38594752E-08    3      1000037        11       -12             # Z4SS   -->  W2SS+  E-     ANUE        
      3.38594752E-08    3      1000037        13       -14             # Z4SS   -->  W2SS+  MU-    ANUM        
      1.01578422E-07    3     -1000037         4        -3             # Z4SS   -->  W2SS-  CH     SB          
      3.38594752E-08    3     -1000037        16       -15             # Z4SS   -->  W2SS-  NUT    TAU+        
      1.01578422E-07    3      1000037         3        -4             # Z4SS   -->  W2SS+  ST     CB          
      3.38594752E-08    3      1000037        15       -16             # Z4SS   -->  W2SS+  TAU-   ANUT        
      6.17864132E-02    2      1000022        23                       # Z4SS   -->  Z1SS   Z0                 
      1.95976287E-01    2      1000023        23                       # Z4SS   -->  Z2SS   Z0                 
      6.41018909E-04    2      1000025        23                       # Z4SS   -->  Z3SS   Z0                 
      6.68926692E-10    3      1000022         2        -2             # Z4SS   -->  Z1SS   UP     UB          
      1.67521774E-09    3      1000022         1        -1             # Z4SS   -->  Z1SS   DN     DB          
      1.67521774E-09    3      1000022         3        -3             # Z4SS   -->  Z1SS   ST     SB          
      6.68926692E-10    3      1000022         4        -4             # Z4SS   -->  Z1SS   CH     CB          
      4.31078552E-05    3      1000022         5        -5             # Z4SS   -->  Z1SS   BT     BB          
      4.96251269E-11    3      1000022        11       -11             # Z4SS   -->  Z1SS   E-     E+          
      4.96251269E-11    3      1000022        13       -13             # Z4SS   -->  Z1SS   MU-    MU+         
      8.83130542E-06    3      1000022        15       -15             # Z4SS   -->  Z1SS   TAU-   TAU+        
      1.30896172E-09    3      1000022        12       -12             # Z4SS   -->  Z1SS   NUE    ANUE        
      1.30896172E-09    3      1000022        14       -14             # Z4SS   -->  Z1SS   NUM    ANUM        
      1.38927503E-09    3      1000022        16       -16             # Z4SS   -->  Z1SS   NUT    ANUT        
      1.54954535E-10    3      1000023         2        -2             # Z4SS   -->  Z2SS   UP     UB          
      3.15320797E-10    3      1000023         1        -1             # Z4SS   -->  Z2SS   DN     DB          
      3.15320797E-10    3      1000023         3        -3             # Z4SS   -->  Z2SS   ST     SB          
      1.54954535E-10    3      1000023         4        -4             # Z4SS   -->  Z2SS   CH     CB          
      4.02954429E-05    3      1000023         5        -5             # Z4SS   -->  Z2SS   BT     BB          
      2.14813584E-11    3      1000023        11       -11             # Z4SS   -->  Z2SS   E-     E+          
      2.14813584E-11    3      1000023        13       -13             # Z4SS   -->  Z2SS   MU-    MU+         
      8.25549887E-06    3      1000023        15       -15             # Z4SS   -->  Z2SS   TAU-   TAU+        
      2.22120655E-10    3      1000023        12       -12             # Z4SS   -->  Z2SS   NUE    ANUE        
      2.22120655E-10    3      1000023        14       -14             # Z4SS   -->  Z2SS   NUM    ANUM        
      2.35785780E-10    3      1000023        16       -16             # Z4SS   -->  Z2SS   NUT    ANUT        
      1.77749404E-09    3      1000025         2        -2             # Z4SS   -->  Z3SS   UP     UB          
      1.22304766E-09    3      1000025         1        -1             # Z4SS   -->  Z3SS   DN     DB          
      1.22304766E-09    3      1000025         3        -3             # Z4SS   -->  Z3SS   ST     SB          
      1.77749404E-09    3      1000025         4        -4             # Z4SS   -->  Z3SS   CH     CB          
      1.33672682E-08    3      1000025         5        -5             # Z4SS   -->  Z3SS   BT     BB          
      5.89153570E-09    3      1000025        11       -11             # Z4SS   -->  Z3SS   E-     E+          
      5.89153570E-09    3      1000025        13       -13             # Z4SS   -->  Z3SS   MU-    MU+         
      8.02157984E-09    3      1000025        15       -15             # Z4SS   -->  Z3SS   TAU-   TAU+        
      5.28299449E-09    3      1000025        12       -12             # Z4SS   -->  Z3SS   NUE    ANUE        
      5.28299449E-09    3      1000025        14       -14             # Z4SS   -->  Z3SS   NUM    ANUM        
      5.60973623E-09    3      1000025        16       -16             # Z4SS   -->  Z3SS   NUT    ANUT        
      1.74556032E-01    2      1000022        25                       # Z4SS   -->  Z1SS   HL0                
      7.11067021E-02    2      1000023        25                       # Z4SS   -->  Z2SS   HL0                
      7.08892709E-03    2      1000025        25                       # Z4SS   -->  Z3SS   HL0                
#         PDG         Width
DECAY   1000024  1.81736809E-07   # W1SS+ decays
#          BR          NDA       ID1       ID2       ID3       ID4
      3.33332121E-01    3      1000022         2        -1             # W1SS+  -->  Z1SS   UP     DB          
      3.33332121E-01    3      1000022         4        -3             # W1SS+  -->  Z1SS   CH     SB          
      1.11110866E-01    3      1000022       -11        12             # W1SS+  -->  Z1SS   E+     NUE         
      1.11110866E-01    3      1000022       -13        14             # W1SS+  -->  Z1SS   MU+    NUM         
      1.11112840E-01    3      1000022       -15        16             # W1SS+  -->  Z1SS   TAU+   NUT         
      6.19764478E-07    3      1000023       -11        12             # W1SS+  -->  Z2SS   E+     NUE         
      6.19764478E-07    3      1000023       -13        14             # W1SS+  -->  Z2SS   MU+    NUM         
#         PDG         Width
DECAY   1000037  8.35073662E+00   # W2SS+ decays
#          BR          NDA       ID1       ID2       ID3       ID4
      1.36302669E-09    3      1000022         2        -1             # W2SS+  -->  Z1SS   UP     DB          
      1.36302669E-09    3      1000022         4        -3             # W2SS+  -->  Z1SS   CH     SB          
      9.11928255E-10    3      1000022       -11        12             # W2SS+  -->  Z1SS   E+     NUE         
      9.11928255E-10    3      1000022       -13        14             # W2SS+  -->  Z1SS   MU+    NUM         
      8.01858278E-06    3      1000022       -15        16             # W2SS+  -->  Z1SS   TAU+   NUT         
      2.42821008E-01    2      1000022        24                       # W2SS+  -->  Z1SS   W+                 
      7.54374618E-10    3      1000023         2        -1             # W2SS+  -->  Z2SS   UP     DB          
      7.54374618E-10    3      1000023         4        -3             # W2SS+  -->  Z2SS   CH     SB          
      3.55141860E-10    3      1000023       -11        12             # W2SS+  -->  Z2SS   E+     NUE         
      3.55141860E-10    3      1000023       -13        14             # W2SS+  -->  Z2SS   MU+    NUM         
      7.16467730E-06    3      1000023       -15        16             # W2SS+  -->  Z2SS   TAU+   NUT         
      2.45694399E-01    2      1000023        24                       # W2SS+  -->  Z2SS   W+                 
      2.67503530E-09    3      1000025         2        -1             # W2SS+  -->  Z3SS   UP     DB          
      2.67503530E-09    3      1000025         4        -3             # W2SS+  -->  Z3SS   CH     SB          
      1.00217887E-08    3      1000025       -11        12             # W2SS+  -->  Z3SS   E+     NUE         
      1.00217887E-08    3      1000025       -13        14             # W2SS+  -->  Z3SS   MU+    NUM         
      1.22274342E-08    3      1000025       -15        16             # W2SS+  -->  Z3SS   TAU+   NUT         
      1.13085117E-02    2      1000025        24                       # W2SS+  -->  Z3SS   W+                 
      2.44423866E-01    2      1000024        23                       # W2SS+  -->  W1SS+  Z0                 
      4.17425428E-09    3      1000024         1        -1             # W2SS+  -->  W1SS+  DN     DB          
      4.17425428E-09    3      1000024         3        -3             # W2SS+  -->  W1SS+  ST     SB          
      2.80125229E-10    3      1000024         2        -2             # W2SS+  -->  W1SS+  UP     UB          
      2.80125229E-10    3      1000024         4        -4             # W2SS+  -->  W1SS+  CH     CB          
      1.16899337E-10    3      1000024        12       -12             # W2SS+  -->  W1SS+  NUE    ANUE        
      1.16899337E-10    3      1000024        14       -14             # W2SS+  -->  W1SS+  NUM    ANUM        
      1.76359982E-10    3      1000024        16       -16             # W2SS+  -->  W1SS+  NUT    ANUT        
      1.73502790E-09    3      1000024        11       -11             # W2SS+  -->  W1SS+  E-     E+          
      1.73502790E-09    3      1000024        13       -13             # W2SS+  -->  W1SS+  MU-    MU+         
      1.84154836E-09    3      1000024        15       -15             # W2SS+  -->  W1SS+  TAU-   TAU+        
      2.55737007E-01    2      1000024        25                       # W2SS+  -->  W1SS+  HL0                
#         PDG         Width
DECAY        25  3.90474335E-03   # HL0   decays
#          BR          NDA       ID1       ID2       ID3       ID4
      5.69366287E-09    2           11       -11                       # HL0    -->  E-     E+                 
      2.40395704E-04    2           13       -13                       # HL0    -->  MU-    MU+                
      6.87697157E-02    2           15       -15                       # HL0    -->  TAU-   TAU+               
      7.13735153E-06    2            1        -1                       # HL0    -->  DN     DB                 
      2.88384804E-03    2            3        -3                       # HL0    -->  ST     SB                 
      6.17883027E-01    2            5        -5                       # HL0    -->  BT     BB                 
      2.18005107E-06    2            2        -2                       # HL0    -->  UP     UB                 
      4.05243896E-02    2            4        -4                       # HL0    -->  CH     CB                 
      2.66884104E-03    2           22        22                       # HL0    -->  GM     GM                 
      5.26925363E-02    2           21        21                       # HL0    -->  GL     GL                 
      1.07177859E-02    3           24        11       -12             # HL0    -->  W+     E-     ANUE        
      1.07177859E-02    3           24        13       -14             # HL0    -->  W+     MU-    ANUM        
      1.07177859E-02    3           24        15       -16             # HL0    -->  W+     TAU-   ANUT        
      3.21533568E-02    3           24        -2         1             # HL0    -->  W+     UB     DN          
      3.21533568E-02    3           24        -4         3             # HL0    -->  W+     CB     ST          
      1.07177859E-02    3          -24       -11        12             # HL0    -->  W-     E+     NUE         
      1.07177859E-02    3          -24       -13        14             # HL0    -->  W-     MU+    NUM         
      1.07177859E-02    3          -24       -15        16             # HL0    -->  W-     TAU+   NUT         
      3.21533568E-02    3          -24         2        -1             # HL0    -->  W-     UP     DB          
      3.21533568E-02    3          -24         4        -3             # HL0    -->  W-     CH     SB          
      1.46407343E-03    3           23        12       -12             # HL0    -->  Z0     NUE    ANUE        
      1.46407343E-03    3           23        14       -14             # HL0    -->  Z0     NUM    ANUM        
      1.46407343E-03    3           23        16       -16             # HL0    -->  Z0     NUT    ANUT        
      7.36853457E-04    3           23        11       -11             # HL0    -->  Z0     E-     E+          
      7.36853457E-04    3           23        13       -13             # HL0    -->  Z0     MU-    MU+         
      7.36853457E-04    3           23        15       -15             # HL0    -->  Z0     TAU-   TAU+        
      2.52439734E-03    3           23         2        -2             # HL0    -->  Z0     UP     UB          
      2.52439734E-03    3           23         4        -4             # HL0    -->  Z0     CH     CB          
      3.25204572E-03    3           23         1        -1             # HL0    -->  Z0     DN     DB          
      3.25204572E-03    3           23         3        -3             # HL0    -->  Z0     ST     SB          
      3.25204572E-03    3           23         5        -5             # HL0    -->  Z0     BT     BB          
#         PDG         Width
DECAY        35  4.23355007E+00   # HH0   decays
#          BR          NDA       ID1       ID2       ID3       ID4
      9.09002296E-09    2           11       -11                       # HH0    -->  E-     E+                 
      3.83797189E-04    2           13       -13                       # HH0    -->  MU-    MU+                
      1.09923348E-01    2           15       -15                       # HH0    -->  TAU-   TAU+               
      1.11353202E-05    2            1        -1                       # HH0    -->  DN     DB                 
      4.49923286E-03    2            3        -3                       # HH0    -->  ST     SB                 
      6.71128035E-01    2            5        -5                       # HH0    -->  BT     BB                 
      7.37259975E-11    2            2        -2                       # HH0    -->  UP     UB                 
      1.03828256E-06    2            4        -4                       # HH0    -->  CH     CB                 
      4.73639704E-02    2            6        -6                       # HH0    -->  TP     TB                 
      2.64318601E-07    2           22        22                       # HH0    -->  GM     GM                 
      2.22466260E-05    2           21        21                       # HH0    -->  GL     GL                 
      1.83556898E-04    2           24       -24                       # HH0    -->  W+     W-                 
      9.31947943E-05    2           23        23                       # HH0    -->  Z0     Z0                 
      9.98476986E-03    2      1000022   1000022                       # HH0    -->  Z1SS   Z1SS               
      1.86165515E-03    2      1000022   1000023                       # HH0    -->  Z1SS   Z2SS               
      4.09724973E-02    2      1000022   1000025                       # HH0    -->  Z1SS   Z3SS               
      3.61287990E-03    2      1000023   1000023                       # HH0    -->  Z2SS   Z2SS               
      8.99694115E-02    2      1000023   1000025                       # HH0    -->  Z2SS   Z3SS               
      1.93250291E-02    2      1000024  -1000024                       # HH0    -->  W1SS+  W1SS-              
      6.63977815E-04    2           25        25                       # HH0    -->  HL0    HL0                
#         PDG         Width
DECAY        36  4.23209763E+00   # HA0   decays
#          BR          NDA       ID1       ID2       ID3       ID4
      9.03482089E-09    2           11       -11                       # HA0    -->  E-     E+                 
      3.81466438E-04    2           13       -13                       # HA0    -->  MU-    MU+                
      1.09257154E-01    2           15       -15                       # HA0    -->  TAU-   TAU+               
      1.10683068E-05    2            1        -1                       # HA0    -->  DN     DB                 
      4.47215606E-03    2            3        -3                       # HA0    -->  ST     SB                 
      6.67119026E-01    2            5        -5                       # HA0    -->  BT     BB                 
      6.99556940E-11    2            2        -2                       # HA0    -->  UP     UB                 
      9.85960696E-07    2            4        -4                       # HA0    -->  CH     CB                 
      4.99579012E-02    2            6        -6                       # HA0    -->  TP     TB                 
      1.32436853E-07    2           22        22                       # HA0    -->  GM     GM                 
      6.99185039E-05    2           21        21                       # HA0    -->  GL     GL                 
      1.45030394E-02    2      1000022   1000022                       # HA0    -->  Z1SS   Z1SS               
      6.21815154E-04    2      1000022   1000023                       # HA0    -->  Z1SS   Z2SS               
      8.90488550E-02    2      1000022   1000025                       # HA0    -->  Z1SS   Z3SS               
      3.11389123E-03    2      1000023   1000023                       # HA0    -->  Z2SS   Z2SS               
      3.77177671E-02    2      1000023   1000025                       # HA0    -->  Z2SS   Z3SS               
      2.35486757E-02    2      1000024  -1000024                       # HA0    -->  W1SS+  W1SS-              
      1.76073867E-04    2           25        23                       # HA0    -->  HL0    Z0                 
#         PDG         Width
DECAY        37  3.74357820E+00   # H+    decays
#          BR          NDA       ID1       ID2       ID3       ID4
      1.02467999E-08    2           12       -11                       # H+     -->  NUE    E+                 
      4.32638393E-04    2           14       -13                       # H+     -->  NUM    MU+                
      1.23913497E-01    2           16       -15                       # H+     -->  NUT    TAU+               
      1.15382754E-05    2            2        -1                       # H+     -->  UP     DB                 
      4.66302782E-03    2            4        -3                       # H+     -->  CH     SB                 
      7.04359770E-01    2            6        -5                       # H+     -->  TP     BB                 
      7.43396376E-05    2      1000024   1000022                       # H+     -->  W1SS+  Z1SS               
      2.34165997E-03    2      1000024   1000023                       # H+     -->  W1SS+  Z2SS               
      1.64003953E-01    2      1000024   1000025                       # H+     -->  W1SS+  Z3SS               
      1.99617993E-04    2           25        24                       # H+     -->  HL0    W+                 
