#  ISAJET SUSY parameters in SUSY Les Houches Accord 2 format
#  Created by ISALHA 2.0 Last revision: H Baer 27 May 2014
Block SPINFO   # Program information
     1   ISASUGRA/ISASUSY from ISAJET   # Spectrum Calculator
     2   7.87   18-JUL-2017 13:55:55    # Version number
Block MODSEL   # Model selection
     1    13   # Non-universal supergravity model                  
Block SMINPUTS   # Standard Model inputs
     1     1.28000000E+02   # alpha_em^(-1)
     2     1.16570000E-05   # G_Fermi
     3     1.19999997E-01   # alpha_s(M_Z)
     4     9.11699982E+01   # m_{Z}(pole)
     5     4.19999981E+00   # m_{b}(m_{b})
     6     1.72500000E+02   # m_{top}(pole)
     7     1.77699995E+00   # m_{tau}(pole)
Block MINPAR   # SUSY breaking input parameters
     1     5.00000000E+03   # m_0
     2     3.50000000E+02   # m_{1/2}
     3     1.50000000E+01   # tan(beta)
     4     1.00000000E+00   # sign(mu)
     5    -8.00000000E+03   # A_0
Block EXTPAR   # Non-universal SUSY breaking parameters
     0     2.17565198E+16   # Input scale
    21     3.01784700E+06   # Down type Higgs mass squared
    22     3.70655000E+07   #  Up  type Higgs mass squared
Block MASS   # Scalar and gaugino mass spectrum
#  PDG code   mass                 particle
         6     1.72500000E+02   #  top            
        24     8.04229965E+01   #  W^+
        25     1.24074326E+02   #  h^0            
        35     1.00666693E+03   #  H^0            
        36     1.00000000E+03   #  A^0            
        37     1.00322870E+03   #  H^+            
   1000001     4.98277246E+03   #  dnl            
   1000002     4.98212061E+03   #  upl            
   1000003     4.98277246E+03   #  stl            
   1000004     4.98212109E+03   #  chl            
   1000005     3.49145459E+03   #  b1             
   1000006     1.43109509E+03   #  t1             
   1000011     5.08209717E+03   #  el-            
   1000012     5.08676025E+03   #  nuel           
   1000013     5.08209717E+03   #  mul-           
   1000014     5.08676025E+03   #  numl           
   1000015     4.66257471E+03   #  tau1           
   1000016     5.01161230E+03   #  nutl           
   1000021     1.01807318E+03   #  glss           
   1000022     8.55401306E+01   #  z1ss           
   1000023    -1.21715958E+02   #  z2ss           
   1000024     1.06267868E+02   #  w1ss           
   1000025     1.71464447E+02   #  z3ss           
   1000035     3.37993317E+02   #  z4ss           
   1000037     3.29779938E+02   #  w2ss           
   1000039     1.00000002E+20   #  gvss
   2000001     4.97035303E+03   #  dnr            
   2000002     5.13989941E+03   #  upr            
   2000003     4.97035303E+03   #  str            
   2000004     5.13989941E+03   #  chr            
   2000005     4.81778906E+03   #  b2             
   2000006     3.46767236E+03   #  t2             
   2000011     4.82275342E+03   #  er-            
   2000013     4.82275342E+03   #  mur-           
   2000015     5.00555078E+03   #  tau2           
Block ALPHA   # Effective Higgs mixing parameter
         -6.81168362E-02   # alpha
Block STOPMIX   # stop mixing matrix
  1  1     4.75571267E-02   # O_{11}
  1  2     9.98868525E-01   # O_{12}
  2  1    -9.98868525E-01   # O_{21}
  2  2     4.75571267E-02   # O_{22}
Block SBOTMIX   # sbottom mixing matrix
  1  1     9.99994755E-01   # O_{11}
  1  2     3.23946448E-03   # O_{12}
  2  1    -3.23946448E-03   # O_{21}
  2  2     9.99994755E-01   # O_{22}
Block STAUMIX   # stau mixing matrix
  1  1     7.58171361E-03   # O_{11}
  1  2     9.99971271E-01   # O_{12}
  2  1    -9.99971271E-01   # O_{21}
  2  2     7.58171361E-03   # O_{22}
Block NMIX   # neutralino mixing matrix
  1  1     3.56404692E-01   #
  1  2    -2.20621467E-01   #
  1  3     7.10943639E-01   #
  1  4    -5.64677835E-01   #
  2  1     1.03313148E-01   #
  2  2    -1.15883015E-01   #
  2  3    -6.66731834E-01   #
  2  4    -7.28948772E-01   #
  3  1    -9.26184475E-01   #
  3  2    -1.66796118E-01   #
  3  3     1.90762937E-01   #
  3  4    -2.79232174E-01   #
  4  1     6.69628754E-02   #
  4  2    -9.53979373E-01   #
  4  3    -1.16779208E-01   #
  4  4     2.67959416E-01   #
Block UMIX   # chargino U mixing matrix
  1  1    -1.57371357E-01   # U_{11}
  1  2     9.87539470E-01   # U_{12}
  2  1    -9.87539470E-01   # U_{21}
  2  2    -1.57371357E-01   # U_{22}
Block VMIX   # chargino V mixing matrix
  1  1    -3.69705081E-01   # V_{11}
  1  2     9.29149151E-01   # V_{12}
  2  1    -9.29149151E-01   # V_{21}
  2  2    -3.69705081E-01   # V_{22}
Block GAUGE Q=  2.27190894E+03   #
     1     3.57522726E-01   # g`
     2     6.52386069E-01   # g_2
     3     1.21939504E+00   # g_3
Block YU Q=  2.27190894E+03   #
  3  3     8.38649035E-01   # y_t
Block YD Q=  2.27190894E+03   #
  3  3     1.95506483E-01   # y_b
Block YE Q=  2.27190894E+03   #
  3  3     1.51500285E-01   # y_tau
Block HMIX Q=  2.27190894E+03   # Higgs mixing parameters
     1     1.10000000E+02   # mu(Q)
     2     1.43665171E+01   # tan(beta)(Q)
     3     2.52212753E+02   # Higgs vev at Q
     4     1.00000000E+06   # m_A^2(Q)
Block MSOFT Q=  2.27190894E+03   # DRbar SUSY breaking parameters
     1     1.57593094E+02   # M_1(Q)          
     2     2.91620880E+02   # M_2(Q)          
     3     8.30361206E+02   # M_3(Q)          
    21     9.61779125E+05   # MHd^2(Q)        
    22    -1.76946211E+04   # MHu^2(Q)        
    31     5.06594043E+03   # MeL(Q)          
    32     5.06594043E+03   # MmuL(Q)         
    33     4.99282080E+03   # MtauL(Q)        
    34     4.81920264E+03   # MeR(Q)          
    35     4.81920264E+03   # MmuR(Q)         
    36     4.65953369E+03   # MtauR(Q)        
    41     4.91249756E+03   # MqL1(Q)         
    42     4.91249756E+03   # MqL2(Q)         
    43     3.45121875E+03   # MqL3(Q)         
    44     5.06824072E+03   # MuR(Q)          
    45     5.06824072E+03   # McR(Q)          
    46     1.49557886E+03   # MtR(Q)          
    47     4.90051465E+03   # MdR(Q)          
    48     4.90051465E+03   # MsR(Q)          
    49     4.76442578E+03   # MbR(Q)          
Block AU Q=  2.27190894E+03   #
  1  1    -3.46600513E+03   # A_u
  2  2    -3.46600513E+03   # A_c
  3  3    -3.46600513E+03   # A_t
Block AD Q=  2.27190894E+03   #
  1  1    -7.67868213E+03   # A_d
  2  2    -7.67868213E+03   # A_s
  3  3    -7.67868213E+03   # A_b
Block AE Q=  2.27190894E+03   #
  1  1    -7.85324414E+03   # A_e
  2  2    -7.85324414E+03   # A_mu
  3  3    -7.85324414E+03   # A_tau
#  ISAJET decay tables in SUSY Les Houches accord format
#  Created by ISALHD. Last revision: C. Balazs, 2005 May 25
Block DCINFO                           # Program information
     1   ISASUGRA from ISAJET          # Spectrum Calculator
     2   7.87   18-JUL-2017 13:55:55   # Version number
#         PDG         Width
DECAY         6  1.46776152E+00   # TP    decays
#          BR          NDA       ID1       ID2       ID3       ID4
      3.33333313E-01    3            2        -1         5             # TP     -->  UP     DB     BT          
      3.33333313E-01    3            4        -3         5             # TP     -->  CH     SB     BT          
      1.11111097E-01    3          -11        12         5             # TP     -->  E+     NUE    BT          
      1.11111097E-01    3          -13        14         5             # TP     -->  MU+    NUM    BT          
      1.11111097E-01    3          -15        16         5             # TP     -->  TAU+   NUT    BT          
#         PDG         Width
DECAY   1000021  4.96081123E-03   # GLSS  decays
#          BR          NDA       ID1       ID2       ID3       ID4
      1.59371193E-04    3      1000024         1        -2             # GLSS   -->  W1SS+  DN     UB          
      1.59371193E-04    3     -1000024         2        -1             # GLSS   -->  W1SS-  UP     DB          
      1.59371149E-04    3      1000024         3        -4             # GLSS   -->  W1SS+  ST     CB          
      1.59371149E-04    3     -1000024         4        -3             # GLSS   -->  W1SS-  CH     SB          
      2.25837708E-01    3      1000024         5        -6             # GLSS   -->  W1SS+  BT     TB          
      2.25837708E-01    3     -1000024         6        -5             # GLSS   -->  W1SS-  TP     BB          
      1.13481155E-03    3      1000037         1        -2             # GLSS   -->  W2SS+  DN     UB          
      1.13481155E-03    3     -1000037         2        -1             # GLSS   -->  W2SS-  UP     DB          
      1.13481132E-03    3      1000037         3        -4             # GLSS   -->  W2SS+  ST     CB          
      1.13481132E-03    3     -1000037         4        -3             # GLSS   -->  W2SS-  CH     SB          
      2.55011320E-02    3      1000037         5        -6             # GLSS   -->  W2SS+  BT     TB          
      2.55011320E-02    3     -1000037         6        -5             # GLSS   -->  W2SS-  TP     BB          
      6.77033328E-03    2      1000022        21                       # GLSS   -->  Z1SS   GL                 
      8.71153752E-05    3      1000022         2        -2             # GLSS   -->  Z1SS   UP     UB          
      1.02322199E-04    3      1000022         1        -1             # GLSS   -->  Z1SS   DN     DB          
      1.02322199E-04    3      1000022         3        -3             # GLSS   -->  Z1SS   ST     SB          
      8.71153679E-05    3      1000022         4        -4             # GLSS   -->  Z1SS   CH     CB          
      1.02546031E-03    3      1000022         5        -5             # GLSS   -->  Z1SS   BT     BB          
      1.23249255E-01    3      1000022         6        -6             # GLSS   -->  Z1SS   TP     TB          
      1.20608974E-02    2      1000023        21                       # GLSS   -->  Z2SS   GL                 
      9.85279075E-06    3      1000023         2        -2             # GLSS   -->  Z2SS   UP     UB          
      1.33731810E-05    3      1000023         1        -1             # GLSS   -->  Z2SS   DN     DB          
      1.33731810E-05    3      1000023         3        -3             # GLSS   -->  Z2SS   ST     SB          
      9.85278803E-06    3      1000023         4        -4             # GLSS   -->  Z2SS   CH     CB          
      6.09019771E-04    3      1000023         5        -5             # GLSS   -->  Z2SS   BT     BB          
      2.02161178E-01    3      1000023         6        -6             # GLSS   -->  Z2SS   TP     TB          
      3.21813137E-03    2      1000025        21                       # GLSS   -->  Z3SS   GL                 
      5.02253533E-04    3      1000025         2        -2             # GLSS   -->  Z3SS   UP     UB          
      1.12534028E-04    3      1000025         1        -1             # GLSS   -->  Z3SS   DN     DB          
      1.12534028E-04    3      1000025         3        -3             # GLSS   -->  Z3SS   ST     SB          
      5.02253533E-04    3      1000025         4        -4             # GLSS   -->  Z3SS   CH     CB          
      1.71003674E-04    3      1000025         5        -5             # GLSS   -->  Z3SS   BT     BB          
      1.16296418E-01    3      1000025         6        -6             # GLSS   -->  Z3SS   TP     TB          
      1.19693391E-03    2      1000035        21                       # GLSS   -->  Z4SS   GL                 
      5.30712714E-04    3      1000035         2        -2             # GLSS   -->  Z4SS   UP     UB          
      5.57460939E-04    3      1000035         1        -1             # GLSS   -->  Z4SS   DN     DB          
      5.57460939E-04    3      1000035         3        -3             # GLSS   -->  Z4SS   ST     SB          
      5.30712481E-04    3      1000035         4        -4             # GLSS   -->  Z4SS   CH     CB          
      2.42639147E-03    3      1000035         5        -5             # GLSS   -->  Z4SS   BT     BB          
      1.91291478E-02    3      1000035         6        -6             # GLSS   -->  Z4SS   TP     TB          
#         PDG         Width
DECAY   1000002  3.04291260E+02   # UPL   decays
#          BR          NDA       ID1       ID2       ID3       ID4
      1.66175491E-03    2      1000022         2                       # UPL    -->  Z1SS   UP                 
      6.47085311E-04    2      1000023         2                       # UPL    -->  Z2SS   UP                 
      7.78439594E-03    2      1000025         2                       # UPL    -->  Z3SS   UP                 
      6.05571643E-02    2      1000035         2                       # UPL    -->  Z4SS   UP                 
      7.92569816E-01    2      1000021         2                       # UPL    -->  GLSS   UP                 
      1.88227221E-02    2      1000024         1                       # UPL    -->  W1SS+  DN                 
      1.17956989E-01    2      1000037         1                       # UPL    -->  W2SS+  DN                 
#         PDG         Width
DECAY   1000001  3.04292816E+02   # DNL   decays
#          BR          NDA       ID1       ID2       ID3       ID4
      5.63139981E-03    2      1000022         1                       # DNL    -->  Z1SS   DN                 
      1.25118589E-03    2      1000023         1                       # DNL    -->  Z2SS   DN                 
      5.73275656E-07    2      1000025         1                       # DNL    -->  Z3SS   DN                 
      6.37620613E-02    2      1000035         1                       # DNL    -->  Z4SS   DN                 
      7.92678475E-01    2      1000021         1                       # DNL    -->  GLSS   DN                 
      3.41096823E-03    2     -1000024         2                       # DNL    -->  W1SS-  UP                 
      1.33265376E-01    2     -1000037         2                       # DNL    -->  W2SS-  UP                 
#         PDG         Width
DECAY   1000003  3.04292816E+02   # STL   decays
#          BR          NDA       ID1       ID2       ID3       ID4
      5.63139981E-03    2      1000022         3                       # STL    -->  Z1SS   ST                 
      1.25118589E-03    2      1000023         3                       # STL    -->  Z2SS   ST                 
      5.73275656E-07    2      1000025         3                       # STL    -->  Z3SS   ST                 
      6.37620613E-02    2      1000035         3                       # STL    -->  Z4SS   ST                 
      7.92678475E-01    2      1000021         3                       # STL    -->  GLSS   ST                 
      3.41096777E-03    2     -1000024         4                       # STL    -->  W1SS-  CH                 
      1.33265346E-01    2     -1000037         4                       # STL    -->  W2SS-  CH                 
#         PDG         Width
DECAY   1000004  3.04291260E+02   # CHL   decays
#          BR          NDA       ID1       ID2       ID3       ID4
      1.66175491E-03    2      1000022         4                       # CHL    -->  Z1SS   CH                 
      6.47085253E-04    2      1000023         4                       # CHL    -->  Z2SS   CH                 
      7.78439501E-03    2      1000025         4                       # CHL    -->  Z3SS   CH                 
      6.05571643E-02    2      1000035         4                       # CHL    -->  Z4SS   CH                 
      7.92569876E-01    2      1000021         4                       # CHL    -->  GLSS   CH                 
      1.88227221E-02    2      1000024         3                       # CHL    -->  W1SS+  ST                 
      1.17956996E-01    2      1000037         3                       # CHL    -->  W2SS+  ST                 
#         PDG         Width
DECAY   1000005  2.88341949E+02   # BT1   decays
#          BR          NDA       ID1       ID2       ID3       ID4
      9.07620974E-03    2      1000022         5                       # BT1    -->  Z1SS   BT                 
      5.18738618E-03    2      1000023         5                       # BT1    -->  Z2SS   BT                 
      3.40701983E-04    2      1000025         5                       # BT1    -->  Z3SS   BT                 
      4.68127131E-02    2      1000035         5                       # BT1    -->  Z4SS   BT                 
      5.51696301E-01    2      1000021         5                       # BT1    -->  GLSS   BT                 
      1.42131865E-01    2     -1000024         6                       # BT1    -->  W1SS-  TP                 
      1.19764224E-01    2     -1000037         6                       # BT1    -->  W2SS-  TP                 
      1.24791048E-01    2          -24   1000006                       # BT1    -->  W-     TP1                
      1.99660848E-04    2          -37   1000006                       # BT1    -->  H-     TP1                
#         PDG         Width
DECAY   1000006  5.91570358E+01   # TP1   decays
#          BR          NDA       ID1       ID2       ID3       ID4
      3.17933977E-01    2      1000021         6                       # TP1    -->  GLSS   TP                 
      1.09758042E-01    2      1000022         6                       # TP1    -->  Z1SS   TP                 
      1.68851286E-01    2      1000023         6                       # TP1    -->  Z2SS   TP                 
      6.84329569E-02    2      1000025         6                       # TP1    -->  Z3SS   TP                 
      1.67105906E-02    2      1000035         6                       # TP1    -->  Z4SS   TP                 
      2.85691500E-01    2      1000024         5                       # TP1    -->  W1SS+  BT                 
      3.26216742E-02    2      1000037         5                       # TP1    -->  W2SS+  BT                 
#         PDG         Width
DECAY   2000002  2.61032715E+02   # UPR   decays
#          BR          NDA       ID1       ID2       ID3       ID4
      5.65095898E-03    2      1000022         2                       # UPR    -->  Z1SS   UP                 
      4.74569621E-04    2      1000023         2                       # UPR    -->  Z2SS   UP                 
      3.80981378E-02    2      1000025         2                       # UPR    -->  Z3SS   UP                 
      1.97870060E-04    2      1000035         2                       # UPR    -->  Z4SS   UP                 
      9.55578387E-01    2      1000021         2                       # UPR    -->  GLSS   UP                 
#         PDG         Width
DECAY   2000001  2.43356018E+02   # DNR   decays
#          BR          NDA       ID1       ID2       ID3       ID4
      1.46531488E-03    2      1000022         1                       # DNR    -->  Z1SS   DN                 
      1.23052829E-04    2      1000023         1                       # DNR    -->  Z2SS   DN                 
      9.87784285E-03    2      1000025         1                       # DNR    -->  Z3SS   DN                 
      5.12794977E-05    2      1000035         1                       # DNR    -->  Z4SS   DN                 
      9.88482475E-01    2      1000021         1                       # DNR    -->  GLSS   DN                 
#         PDG         Width
DECAY   2000003  2.43356018E+02   # STR   decays
#          BR          NDA       ID1       ID2       ID3       ID4
      1.46531488E-03    2      1000022         3                       # STR    -->  Z1SS   ST                 
      1.23052829E-04    2      1000023         3                       # STR    -->  Z2SS   ST                 
      9.87784285E-03    2      1000025         3                       # STR    -->  Z3SS   ST                 
      5.12794977E-05    2      1000035         3                       # STR    -->  Z4SS   ST                 
      9.88482475E-01    2      1000021         3                       # STR    -->  GLSS   ST                 
#         PDG         Width
DECAY   2000004  2.61032654E+02   # CHR   decays
#          BR          NDA       ID1       ID2       ID3       ID4
      5.65095944E-03    2      1000022         4                       # CHR    -->  Z1SS   CH                 
      4.74569679E-04    2      1000023         4                       # CHR    -->  Z2SS   CH                 
      3.80981416E-02    2      1000025         4                       # CHR    -->  Z3SS   CH                 
      1.97870075E-04    2      1000035         4                       # CHR    -->  Z4SS   CH                 
      9.55578506E-01    2      1000021         4                       # CHR    -->  GLSS   CH                 
#         PDG         Width
DECAY   2000005  2.71194794E+02   # BT2   decays
#          BR          NDA       ID1       ID2       ID3       ID4
      8.36489163E-03    2      1000022         5                       # BT2    -->  Z1SS   BT                 
      6.41810149E-03    2      1000023         5                       # BT2    -->  Z2SS   BT                 
      9.11841635E-03    2      1000025         5                       # BT2    -->  Z3SS   BT                 
      2.60705303E-04    2      1000035         5                       # BT2    -->  Z4SS   BT                 
      8.57298374E-01    2      1000021         5                       # BT2    -->  GLSS   BT                 
      1.37177892E-02    2     -1000024         6                       # BT2    -->  W1SS-  TP                 
      3.94274510E-04    2     -1000037         6                       # BT2    -->  W2SS-  TP                 
      4.82241330E-06    2          -24   1000006                       # BT2    -->  W-     TP1                
      3.12807359E-04    2          -24   2000006                       # BT2    -->  W-     TP2                
      1.51605200E-04    2           23   1000005                       # BT2    -->  Z0     BT1                
      2.66190473E-04    2           25   1000005                       # BT2    -->  HL0    BT1                
      2.55284160E-02    2           36   1000005                       # BT2    -->  HA0    BT1                
      2.52922662E-02    2           35   1000005                       # BT2    -->  HH0    BT1                
      8.77271668E-05    2          -37   1000006                       # BT2    -->  H-     TP1                
      5.27834333E-02    2          -37   2000006                       # BT2    -->  H-     TP2                
#         PDG         Width
DECAY   2000006  2.94244049E+02   # TP2   decays
#          BR          NDA       ID1       ID2       ID3       ID4
      5.31112790E-01    2      1000021         6                       # TP2    -->  GLSS   TP                 
      1.88497510E-02    2      1000024         5                       # TP2    -->  W1SS+  BT                 
      8.82184878E-02    2      1000037         5                       # TP2    -->  W2SS+  BT                 
      6.00031093E-02    2           23   1000006                       # TP2    -->  Z0     TP1                
      9.39609632E-02    2           25   1000006                       # TP2    -->  HL0    TP1                
      1.06329833E-04    2           35   1000006                       # TP2    -->  HH0    TP1                
      9.84162834E-05    2           36   1000006                       # TP2    -->  HA0    TP1                
      4.94483933E-02    2      1000022         6                       # TP2    -->  Z1SS   TP                 
      8.30587596E-02    2      1000023         6                       # TP2    -->  Z2SS   TP                 
      1.85587462E-02    2      1000025         6                       # TP2    -->  Z3SS   TP                 
      5.65841906E-02    2      1000035         6                       # TP2    -->  Z4SS   TP                 
#         PDG         Width
DECAY   1000011  7.01060181E+01   # EL-   decays
#          BR          NDA       ID1       ID2       ID3       ID4
      1.86569319E-04    2      1000022        11                       # EL-    -->  Z1SS   E-                 
      1.06457307E-03    2      1000023        11                       # EL-    -->  Z2SS   E-                 
      1.39061451E-01    2      1000025        11                       # EL-    -->  Z3SS   E-                 
      2.54421532E-01    2      1000035        11                       # EL-    -->  Z4SS   E-                 
      1.51008442E-02    2     -1000024        12                       # EL-    -->  W1SS-  NUE                
      5.90165019E-01    2     -1000037        12                       # EL-    -->  W2SS-  NUE                
#         PDG         Width
DECAY   1000013  7.01060181E+01   # MUL-  decays
#          BR          NDA       ID1       ID2       ID3       ID4
      1.86569319E-04    2      1000022        13                       # MUL-   -->  Z1SS   MU-                
      1.06457307E-03    2      1000023        13                       # MUL-   -->  Z2SS   MU-                
      1.39061451E-01    2      1000025        13                       # MUL-   -->  Z3SS   MU-                
      2.54421532E-01    2      1000035        13                       # MUL-   -->  Z4SS   MU-                
      1.51008442E-02    2     -1000024        14                       # MUL-   -->  W1SS-  NUM                
      5.90165019E-01    2     -1000037        14                       # MUL-   -->  W2SS-  NUM                
#         PDG         Width
DECAY   1000015  2.81172695E+01   # TAU1- decays
#          BR          NDA       ID1       ID2       ID3       ID4
      1.48204863E-01    2      1000022        15                       # TAU1-  -->  Z1SS   TAU-               
      4.38152328E-02    2      1000023        15                       # TAU1-  -->  Z2SS   TAU-               
      7.24185169E-01    2      1000025        15                       # TAU1-  -->  Z3SS   TAU-               
      4.43819351E-03    2      1000035        15                       # TAU1-  -->  Z4SS   TAU-               
      7.81095549E-02    2     -1000024        16                       # TAU1-  -->  W1SS-  NUT                
      1.24691892E-03    2     -1000037        16                       # TAU1-  -->  W2SS-  NUT                
#         PDG         Width
DECAY   1000012  7.01946259E+01   # NUEL  decays
#          BR          NDA       ID1       ID2       ID3       ID4
      5.28874509E-02    2      1000022        12                       # NUEL   -->  Z1SS   NUE                
      9.08377208E-03    2      1000023        12                       # NUEL   -->  Z2SS   NUE                
      3.56500372E-02    2      1000025        12                       # NUEL   -->  Z3SS   NUE                
      2.96799898E-01    2      1000035        12                       # NUEL   -->  Z4SS   NUE                
      8.33127052E-02    2      1000024        11                       # NUEL   -->  W1SS+  E-                 
      5.22266209E-01    2      1000037        11                       # NUEL   -->  W2SS+  E-                 
#         PDG         Width
DECAY   1000014  7.01946259E+01   # NUML  decays
#          BR          NDA       ID1       ID2       ID3       ID4
      5.28874509E-02    2      1000022        14                       # NUML   -->  Z1SS   NUM                
      9.08377208E-03    2      1000023        14                       # NUML   -->  Z2SS   NUM                
      3.56500372E-02    2      1000025        14                       # NUML   -->  Z3SS   NUM                
      2.96799898E-01    2      1000035        14                       # NUML   -->  Z4SS   NUM                
      8.33127052E-02    2      1000024        13                       # NUML   -->  W1SS+  MU-                
      5.22266209E-01    2      1000037        13                       # NUML   -->  W2SS+  MU-                
#         PDG         Width
DECAY   1000016  7.15493164E+01   # NUTL  decays
#          BR          NDA       ID1       ID2       ID3       ID4
      5.11186905E-02    2      1000022        16                       # NUTL   -->  Z1SS   NUT                
      8.77982285E-03    2      1000023        16                       # NUTL   -->  Z2SS   NUT                
      3.44559811E-02    2      1000025        16                       # NUTL   -->  Z3SS   NUT                
      2.86801815E-01    2      1000035        16                       # NUTL   -->  Z4SS   NUT                
      1.13191828E-01    2      1000024        15                       # NUTL   -->  W1SS+  TAU-               
      5.05504549E-01    2      1000037        15                       # NUTL   -->  W2SS+  TAU-               
      1.47342071E-04    2           24   1000015                       # NUTL   -->  W+     TAU1-              
#         PDG         Width
DECAY   2000011  2.44732513E+01   # ER-   decays
#          BR          NDA       ID1       ID2       ID3       ID4
      1.27237678E-01    2      1000022        11                       # ER-    -->  Z1SS   E-                 
      1.06846420E-02    2      1000023        11                       # ER-    -->  Z2SS   E-                 
      8.57627273E-01    2      1000025        11                       # ER-    -->  Z3SS   E-                 
      4.45034495E-03    2      1000035        11                       # ER-    -->  Z4SS   E-                 
#         PDG         Width
DECAY   2000013  2.44732513E+01   # MUR-  decays
#          BR          NDA       ID1       ID2       ID3       ID4
      1.27237678E-01    2      1000022        13                       # MUR-   -->  Z1SS   MU-                
      1.06846420E-02    2      1000023        13                       # MUR-   -->  Z2SS   MU-                
      8.57627273E-01    2      1000025        13                       # MUR-   -->  Z3SS   MU-                
      4.45034495E-03    2      1000035        13                       # MUR-   -->  Z4SS   MU-                
#         PDG         Width
DECAY   2000015  7.14320831E+01   # TAU2- decays
#          BR          NDA       ID1       ID2       ID3       ID4
      1.66800749E-02    2      1000022        15                       # TAU2-  -->  Z1SS   TAU-               
      1.60952620E-02    2      1000023        15                       # TAU2-  -->  Z2SS   TAU-               
      1.35739878E-01    2      1000025        15                       # TAU2-  -->  Z3SS   TAU-               
      2.46483326E-01    2      1000035        15                       # TAU2-  -->  Z4SS   TAU-               
      1.42667480E-02    2     -1000024        16                       # TAU2-  -->  W1SS-  NUT                
      5.70632398E-01    2     -1000037        16                       # TAU2-  -->  W2SS-  NUT                
      6.90875822E-05    2           23   1000015                       # TAU2-  -->  Z0     TAU1-              
      3.32333220E-05    2           25   1000015                       # TAU2-  -->  HL0    TAU1-              
#         PDG         Width
DECAY   1000023  3.67578250E-05   # Z2SS  decays
#          BR          NDA       ID1       ID2       ID3       ID4
      9.30415874E-04    2      1000022        22                       # Z2SS   -->  Z1SS   GM                 
      8.29424616E-03    3     -1000024         2        -1             # Z2SS   -->  W1SS-  UP     DB          
      2.76474864E-03    3     -1000024        12       -11             # Z2SS   -->  W1SS-  NUE    E+          
      2.76474864E-03    3     -1000024        14       -13             # Z2SS   -->  W1SS-  NUM    MU+         
      8.29424616E-03    3      1000024         1        -2             # Z2SS   -->  W1SS+  DN     UB          
      2.76474864E-03    3      1000024        11       -12             # Z2SS   -->  W1SS+  E-     ANUE        
      2.76474864E-03    3      1000024        13       -14             # Z2SS   -->  W1SS+  MU-    ANUM        
      8.29424616E-03    3     -1000024         4        -3             # Z2SS   -->  W1SS-  CH     SB          
      2.76474864E-03    3     -1000024        16       -15             # Z2SS   -->  W1SS-  NUT    TAU+        
      8.29424616E-03    3      1000024         3        -4             # Z2SS   -->  W1SS+  ST     CB          
      2.76474864E-03    3      1000024        15       -16             # Z2SS   -->  W1SS+  TAU-   ANUT        
      1.15347184E-01    3      1000022         2        -2             # Z2SS   -->  Z1SS   UP     UB          
      1.48734927E-01    3      1000022         1        -1             # Z2SS   -->  Z1SS   DN     DB          
      1.48734927E-01    3      1000022         3        -3             # Z2SS   -->  Z1SS   ST     SB          
      1.15347184E-01    3      1000022         4        -4             # Z2SS   -->  Z1SS   CH     CB          
      1.19697154E-01    3      1000022         5        -5             # Z2SS   -->  Z1SS   BT     BB          
      3.37404385E-02    3      1000022        11       -11             # Z2SS   -->  Z1SS   E-     E+          
      3.37404385E-02    3      1000022        13       -13             # Z2SS   -->  Z1SS   MU-    MU+         
      3.25503387E-02    3      1000022        15       -15             # Z2SS   -->  Z1SS   TAU-   TAU+        
      6.71371147E-02    3      1000022        12       -12             # Z2SS   -->  Z1SS   NUE    ANUE        
      6.71371147E-02    3      1000022        14       -14             # Z2SS   -->  Z1SS   NUM    ANUM        
      6.71371892E-02    3      1000022        16       -16             # Z2SS   -->  Z1SS   NUT    ANUT        
#         PDG         Width
DECAY   1000025  5.99345251E-04   # Z3SS  decays
#          BR          NDA       ID1       ID2       ID3       ID4
      7.77765526E-04    2      1000022        22                       # Z3SS   -->  Z1SS   GM                 
      7.59728719E-05    2      1000023        22                       # Z3SS   -->  Z2SS   GM                 
      1.54165983E-01    3     -1000024         2        -1             # Z3SS   -->  W1SS-  UP     DB          
      5.13886623E-02    3     -1000024        12       -11             # Z3SS   -->  W1SS-  NUE    E+          
      5.13886623E-02    3     -1000024        14       -13             # Z3SS   -->  W1SS-  NUM    MU+         
      1.54165983E-01    3      1000024         1        -2             # Z3SS   -->  W1SS+  DN     UB          
      5.13886623E-02    3      1000024        11       -12             # Z3SS   -->  W1SS+  E-     ANUE        
      5.13886623E-02    3      1000024        13       -14             # Z3SS   -->  W1SS+  MU-    ANUM        
      1.54165983E-01    3     -1000024         4        -3             # Z3SS   -->  W1SS-  CH     SB          
      5.13886623E-02    3     -1000024        16       -15             # Z3SS   -->  W1SS-  NUT    TAU+        
      1.54165983E-01    3      1000024         3        -4             # Z3SS   -->  W1SS+  ST     CB          
      5.13886623E-02    3      1000024        15       -16             # Z3SS   -->  W1SS+  TAU-   ANUT        
      3.41174402E-03    3      1000022         2        -2             # Z3SS   -->  Z1SS   UP     UB          
      4.40080371E-03    3      1000022         1        -1             # Z3SS   -->  Z1SS   DN     DB          
      4.40080371E-03    3      1000022         3        -3             # Z3SS   -->  Z1SS   ST     SB          
      3.41174402E-03    3      1000022         4        -4             # Z3SS   -->  Z1SS   CH     CB          
      4.32711048E-03    3      1000022         5        -5             # Z3SS   -->  Z1SS   BT     BB          
      1.00131915E-03    3      1000022        11       -11             # Z3SS   -->  Z1SS   E-     E+          
      1.00131915E-03    3      1000022        13       -13             # Z3SS   -->  Z1SS   MU-    MU+         
      9.99954878E-04    3      1000022        15       -15             # Z3SS   -->  Z1SS   TAU-   TAU+        
      1.98395015E-03    3      1000022        12       -12             # Z3SS   -->  Z1SS   NUE    ANUE        
      1.98395015E-03    3      1000022        14       -14             # Z3SS   -->  Z1SS   NUM    ANUM        
      1.98388309E-03    3      1000022        16       -16             # Z3SS   -->  Z1SS   NUT    ANUT        
      5.41568408E-03    3      1000023         2        -2             # Z3SS   -->  Z2SS   UP     UB          
      6.98346086E-03    3      1000023         1        -1             # Z3SS   -->  Z2SS   DN     DB          
      6.98346086E-03    3      1000023         3        -3             # Z3SS   -->  Z2SS   ST     SB          
      5.41568408E-03    3      1000023         4        -4             # Z3SS   -->  Z2SS   CH     CB          
      6.26539439E-03    3      1000023         5        -5             # Z3SS   -->  Z2SS   BT     BB          
      1.58435048E-03    3      1000023        11       -11             # Z3SS   -->  Z2SS   E-     E+          
      1.58435048E-03    3      1000023        13       -13             # Z3SS   -->  Z2SS   MU-    MU+         
      1.55581301E-03    3      1000023        15       -15             # Z3SS   -->  Z2SS   TAU-   TAU+        
      3.15178302E-03    3      1000023        12       -12             # Z3SS   -->  Z2SS   NUE    ANUE        
      3.15178302E-03    3      1000023        14       -14             # Z3SS   -->  Z2SS   NUM    ANUM        
      3.15177534E-03    3      1000023        16       -16             # Z3SS   -->  Z2SS   NUT    ANUT        
#         PDG         Width
DECAY   1000035  2.11134171E+00   # Z4SS  decays
#          BR          NDA       ID1       ID2       ID3       ID4
      1.51368499E-06    2      1000022        22                       # Z4SS   -->  Z1SS   GM                 
      4.38090683E-06    2      1000023        22                       # Z4SS   -->  Z2SS   GM                 
      6.02949171E-07    2      1000025        22                       # Z4SS   -->  Z3SS   GM                 
      2.82661766E-01    2      1000024       -24                       # Z4SS   -->  W1SS+  W-                 
      2.82661766E-01    2     -1000024        24                       # Z4SS   -->  W1SS-  W+                 
      2.70567622E-08    3     -1000037         2        -1             # Z4SS   -->  W2SS-  UP     DB          
      9.01892072E-09    3     -1000037        12       -11             # Z4SS   -->  W2SS-  NUE    E+          
      9.01892072E-09    3     -1000037        14       -13             # Z4SS   -->  W2SS-  NUM    MU+         
      2.70567622E-08    3      1000037         1        -2             # Z4SS   -->  W2SS+  DN     UB          
      9.01892072E-09    3      1000037        11       -12             # Z4SS   -->  W2SS+  E-     ANUE        
      9.01892072E-09    3      1000037        13       -14             # Z4SS   -->  W2SS+  MU-    ANUM        
      2.70567622E-08    3     -1000037         4        -3             # Z4SS   -->  W2SS-  CH     SB          
      9.01892072E-09    3     -1000037        16       -15             # Z4SS   -->  W2SS-  NUT    TAU+        
      2.70567622E-08    3      1000037         3        -4             # Z4SS   -->  W2SS+  ST     CB          
      9.01892072E-09    3      1000037        15       -16             # Z4SS   -->  W2SS+  TAU-   ANUT        
      2.52421666E-02    2      1000022        23                       # Z4SS   -->  Z1SS   Z0                 
      2.33864054E-01    2      1000023        23                       # Z4SS   -->  Z2SS   Z0                 
      8.69168621E-03    2      1000025        23                       # Z4SS   -->  Z3SS   Z0                 
      8.63751987E-11    3      1000022         2        -2             # Z4SS   -->  Z1SS   UP     UB          
      3.05931003E-10    3      1000022         1        -1             # Z4SS   -->  Z1SS   DN     DB          
      3.05931003E-10    3      1000022         3        -3             # Z4SS   -->  Z1SS   ST     SB          
      8.63751709E-11    3      1000022         4        -4             # Z4SS   -->  Z1SS   CH     CB          
      1.59735436E-07    3      1000022         5        -5             # Z4SS   -->  Z1SS   BT     BB          
      1.90151562E-12    3      1000022        11       -11             # Z4SS   -->  Z1SS   E-     E+          
      1.90151562E-12    3      1000022        13       -13             # Z4SS   -->  Z1SS   MU-    MU+         
      3.04225338E-08    3      1000022        15       -15             # Z4SS   -->  Z1SS   TAU-   TAU+        
      2.09430473E-10    3      1000022        12       -12             # Z4SS   -->  Z1SS   NUE    ANUE        
      2.09430473E-10    3      1000022        14       -14             # Z4SS   -->  Z1SS   NUM    ANUM        
      2.22303342E-10    3      1000022        16       -16             # Z4SS   -->  Z1SS   NUT    ANUT        
      9.42229975E-12    3      1000023         2        -2             # Z4SS   -->  Z2SS   UP     UB          
      1.91409718E-11    3      1000023         1        -1             # Z4SS   -->  Z2SS   DN     DB          
      1.91409718E-11    3      1000023         3        -3             # Z4SS   -->  Z2SS   ST     SB          
      9.42229628E-12    3      1000023         4        -4             # Z4SS   -->  Z2SS   CH     CB          
      1.02698429E-07    3      1000023         5        -5             # Z4SS   -->  Z2SS   BT     BB          
      1.05065587E-12    3      1000023        11       -11             # Z4SS   -->  Z2SS   E-     E+          
      1.05065587E-12    3      1000023        13       -13             # Z4SS   -->  Z2SS   MU-    MU+         
      1.97543830E-08    3      1000023        15       -15             # Z4SS   -->  Z2SS   TAU-   TAU+        
      1.01296957E-11    3      1000023        12       -12             # Z4SS   -->  Z2SS   NUE    ANUE        
      1.01296957E-11    3      1000023        14       -14             # Z4SS   -->  Z2SS   NUM    ANUM        
      1.07526505E-11    3      1000023        16       -16             # Z4SS   -->  Z2SS   NUT    ANUT        
      1.07569301E-10    3      1000025         2        -2             # Z4SS   -->  Z3SS   UP     UB          
      8.25204569E-14    3      1000025         1        -1             # Z4SS   -->  Z3SS   DN     DB          
      8.25204569E-14    3      1000025         3        -3             # Z4SS   -->  Z3SS   ST     SB          
      1.07569252E-10    3      1000025         4        -4             # Z4SS   -->  Z3SS   CH     CB          
      3.88358901E-09    3      1000025         5        -5             # Z4SS   -->  Z3SS   BT     BB          
      1.27748825E-10    3      1000025        11       -11             # Z4SS   -->  Z3SS   E-     E+          
      1.27748825E-10    3      1000025        13       -13             # Z4SS   -->  Z3SS   MU-    MU+         
      8.91805019E-10    3      1000025        15       -15             # Z4SS   -->  Z3SS   TAU-   TAU+        
      3.74155498E-11    3      1000025        12       -12             # Z4SS   -->  Z3SS   NUE    ANUE        
      3.74155498E-11    3      1000025        14       -14             # Z4SS   -->  Z3SS   NUM    ANUM        
      3.97168860E-11    3      1000025        16       -16             # Z4SS   -->  Z3SS   NUT    ANUT        
      9.10400301E-02    2      1000022        25                       # Z4SS   -->  Z1SS   HL0                
      2.50594616E-02    2      1000023        25                       # Z4SS   -->  Z2SS   HL0                
      5.07723503E-02    2      1000025        25                       # Z4SS   -->  Z3SS   HL0                
#         PDG         Width
DECAY   1000024  3.75250056E-06   # W1SS+ decays
#          BR          NDA       ID1       ID2       ID3       ID4
      3.33332062E-01    3      1000022         2        -1             # W1SS+  -->  Z1SS   UP     DB          
      3.33332062E-01    3      1000022         4        -3             # W1SS+  -->  Z1SS   CH     SB          
      1.11111179E-01    3      1000022       -11        12             # W1SS+  -->  Z1SS   E+     NUE         
      1.11111179E-01    3      1000022       -13        14             # W1SS+  -->  Z1SS   MU+    NUM         
      1.11113556E-01    3      1000022       -15        16             # W1SS+  -->  Z1SS   TAU+   NUT         
#         PDG         Width
DECAY   1000037  2.03051782E+00   # W2SS+ decays
#          BR          NDA       ID1       ID2       ID3       ID4
      1.96084440E-10    3      1000022         2        -1             # W2SS+  -->  Z1SS   UP     DB          
      1.96084440E-10    3      1000022         4        -3             # W2SS+  -->  Z1SS   CH     SB          
      1.18987820E-10    3      1000022       -11        12             # W2SS+  -->  Z1SS   E+     NUE         
      1.18987820E-10    3      1000022       -13        14             # W2SS+  -->  Z1SS   MU+    NUM         
      3.17030810E-08    3      1000022       -15        16             # W2SS+  -->  Z1SS   TAU+   NUT         
      1.92804590E-01    2      1000022        24                       # W2SS+  -->  Z1SS   W+                 
      5.86920720E-11    3      1000023         2        -1             # W2SS+  -->  Z2SS   UP     DB          
      5.86920651E-11    3      1000023         4        -3             # W2SS+  -->  Z2SS   CH     SB          
      1.86154078E-11    3      1000023       -11        12             # W2SS+  -->  Z2SS   E+     NUE         
      1.86154078E-11    3      1000023       -13        14             # W2SS+  -->  Z2SS   MU+    NUM         
      1.55720858E-08    3      1000023       -15        16             # W2SS+  -->  Z2SS   TAU+   NUT         
      2.71455377E-01    2      1000023        24                       # W2SS+  -->  Z2SS   W+                 
      5.97620078E-11    3      1000025         2        -1             # W2SS+  -->  Z3SS   UP     DB          
      5.97619731E-11    3      1000025         4        -3             # W2SS+  -->  Z3SS   CH     SB          
      1.38015793E-10    3      1000025       -11        12             # W2SS+  -->  Z3SS   E+     NUE         
      1.38015793E-10    3      1000025       -13        14             # W2SS+  -->  Z3SS   MU+    NUM         
      9.83907289E-10    3      1000025       -15        16             # W2SS+  -->  Z3SS   TAU+   NUT         
      8.58992264E-02    2      1000025        24                       # W2SS+  -->  Z3SS   W+                 
      2.53290236E-01    2      1000024        23                       # W2SS+  -->  W1SS+  Z0                 
      4.90965102E-10    3      1000024         1        -1             # W2SS+  -->  W1SS+  DN     DB          
      4.90964991E-10    3      1000024         3        -3             # W2SS+  -->  W1SS+  ST     SB          
      1.00438761E-10    3      1000024         2        -2             # W2SS+  -->  W1SS+  UP     UB          
      1.00438761E-10    3      1000024         4        -4             # W2SS+  -->  W1SS+  CH     CB          
      3.09328604E-11    3      1000024        12       -12             # W2SS+  -->  W1SS+  NUE    ANUE        
      3.09328604E-11    3      1000024        14       -14             # W2SS+  -->  W1SS+  NUM    ANUM        
      4.36945514E-11    3      1000024        16       -16             # W2SS+  -->  W1SS+  NUT    ANUT        
      1.50572305E-10    3      1000024        11       -11             # W2SS+  -->  W1SS+  E-     E+          
      1.50572305E-10    3      1000024        13       -13             # W2SS+  -->  W1SS+  MU-    MU+         
      1.59828595E-10    3      1000024        15       -15             # W2SS+  -->  W1SS+  TAU-   TAU+        
      1.96550533E-01    2      1000024        25                       # W2SS+  -->  W1SS+  HL0                
#         PDG         Width
DECAY        25  3.80101218E-03   # HL0   decays
#          BR          NDA       ID1       ID2       ID3       ID4
      5.80792525E-09    2           11       -11                       # HL0    -->  E-     E+                 
      2.45220028E-04    2           13       -13                       # HL0    -->  MU-    MU+                
      7.01486543E-02    2           15       -15                       # HL0    -->  TAU-   TAU+               
      7.28130863E-06    2            1        -1                       # HL0    -->  DN     DB                 
      2.94201402E-03    2            3        -3                       # HL0    -->  ST     SB                 
      6.30300462E-01    2            5        -5                       # HL0    -->  BT     BB                 
      2.22474046E-06    2            2        -2                       # HL0    -->  UP     UB                 
      4.13974337E-02    2            4        -4                       # HL0    -->  CH     CB                 
      2.73297052E-03    2           22        22                       # HL0    -->  GM     GM                 
      5.26041053E-02    2           21        21                       # HL0    -->  GL     GL                 
      1.00053847E-02    3           24        11       -12             # HL0    -->  W+     E-     ANUE        
      1.00053847E-02    3           24        13       -14             # HL0    -->  W+     MU-    ANUM        
      1.00053847E-02    3           24        15       -16             # HL0    -->  W+     TAU-   ANUT        
      3.00161559E-02    3           24        -2         1             # HL0    -->  W+     UB     DN          
      3.00161559E-02    3           24        -4         3             # HL0    -->  W+     CB     ST          
      1.00053847E-02    3          -24       -11        12             # HL0    -->  W-     E+     NUE         
      1.00053847E-02    3          -24       -13        14             # HL0    -->  W-     MU+    NUM         
      1.00053847E-02    3          -24       -15        16             # HL0    -->  W-     TAU+   NUT         
      3.00161559E-02    3          -24         2        -1             # HL0    -->  W-     UP     DB          
      3.00161559E-02    3          -24         4        -3             # HL0    -->  W-     CH     SB          
      1.33517012E-03    3           23        12       -12             # HL0    -->  Z0     NUE    ANUE        
      1.33517012E-03    3           23        14       -14             # HL0    -->  Z0     NUM    ANUM        
      1.33517012E-03    3           23        16       -16             # HL0    -->  Z0     NUT    ANUT        
      6.71977701E-04    3           23        11       -11             # HL0    -->  Z0     E-     E+          
      6.71977701E-04    3           23        13       -13             # HL0    -->  Z0     MU-    MU+         
      6.71977701E-04    3           23        15       -15             # HL0    -->  Z0     TAU-   TAU+        
      2.30213860E-03    3           23         2        -2             # HL0    -->  Z0     UP     UB          
      2.30213860E-03    3           23         4        -4             # HL0    -->  Z0     CH     CB          
      2.96572177E-03    3           23         1        -1             # HL0    -->  Z0     DN     DB          
      2.96572177E-03    3           23         3        -3             # HL0    -->  Z0     ST     SB          
      2.96572177E-03    3           23         5        -5             # HL0    -->  Z0     BT     BB          
#         PDG         Width
DECAY        35  1.48621778E+01   # HH0   decays
#          BR          NDA       ID1       ID2       ID3       ID4
      2.58933297E-09    2           11       -11                       # HH0    -->  E-     E+                 
      1.09326298E-04    2           13       -13                       # HH0    -->  MU-    MU+                
      3.13121453E-02    2           15       -15                       # HH0    -->  TAU-   TAU+               
      3.17194440E-06    2            1        -1                       # HH0    -->  DN     DB                 
      1.28162617E-03    2            3        -3                       # HH0    -->  ST     SB                 
      1.93233311E-01    2            5        -5                       # HH0    -->  BT     BB                 
      2.09943850E-11    2            2        -2                       # HH0    -->  UP     UB                 
      2.95663739E-07    2            4        -4                       # HH0    -->  CH     CB                 
      1.34874741E-02    2            6        -6                       # HH0    -->  TP     TB                 
      3.89896485E-07    2           22        22                       # HH0    -->  GM     GM                 
      6.78082415E-06    2           21        21                       # HH0    -->  GL     GL                 
      5.15536049E-05    2           24       -24                       # HH0    -->  W+     W-                 
      2.61745954E-05    2           23        23                       # HH0    -->  Z0     Z0                 
      4.26056013E-02    2      1000022   1000022                       # HH0    -->  Z1SS   Z1SS               
      9.21228994E-03    2      1000022   1000023                       # HH0    -->  Z1SS   Z2SS               
      6.43001357E-03    2      1000022   1000025                       # HH0    -->  Z1SS   Z3SS               
      8.01710784E-02    2      1000022   1000035                       # HH0    -->  Z1SS   Z4SS               
      7.93553703E-03    2      1000023   1000023                       # HH0    -->  Z2SS   Z2SS               
      2.04355698E-02    2      1000023   1000025                       # HH0    -->  Z2SS   Z3SS               
      1.24261416E-01    2      1000023   1000035                       # HH0    -->  Z2SS   Z4SS               
      1.62920845E-03    2      1000025   1000025                       # HH0    -->  Z3SS   Z3SS               
      7.46129919E-03    2      1000025   1000035                       # HH0    -->  Z3SS   Z4SS               
      2.19933642E-03    2      1000035   1000035                       # HH0    -->  Z4SS   Z4SS               
      6.68468103E-02    2      1000024  -1000024                       # HH0    -->  W1SS+  W1SS-              
      3.60152614E-03    2      1000037  -1000037                       # HH0    -->  W2SS+  W2SS-              
      1.93757415E-01    2      1000024  -1000037                       # HH0    -->  W1SS+  W2SS-              
      1.93757415E-01    2     -1000024   1000037                       # HH0    -->  W1SS-  W2SS+              
      1.83076510E-04    2           25        25                       # HH0    -->  HL0    HL0                
#         PDG         Width
DECAY        36  1.47327051E+01   # HA0   decays
#          BR          NDA       ID1       ID2       ID3       ID4
      2.59533084E-09    2           11       -11                       # HA0    -->  E-     E+                 
      1.09579552E-04    2           13       -13                       # HA0    -->  MU-    MU+                
      3.13850679E-02    2           15       -15                       # HA0    -->  TAU-   TAU+               
      3.17946729E-06    2            1        -1                       # HA0    -->  DN     DB                 
      1.28466578E-03    2            3        -3                       # HA0    -->  ST     SB                 
      1.93700269E-01    2            5        -5                       # HA0    -->  BT     BB                 
      2.00953802E-11    2            2        -2                       # HA0    -->  UP     UB                 
      2.83225802E-07    2            4        -4                       # HA0    -->  CH     CB                 
      1.43508418E-02    2            6        -6                       # HA0    -->  TP     TB                 
      1.17483171E-06    2           22        22                       # HA0    -->  GM     GM                 
      2.12763935E-05    2           21        21                       # HA0    -->  GL     GL                 
      5.44902384E-02    2      1000022   1000022                       # HA0    -->  Z1SS   Z1SS               
      4.37435368E-03    2      1000022   1000023                       # HA0    -->  Z1SS   Z2SS               
      7.76444143E-03    2      1000022   1000025                       # HA0    -->  Z1SS   Z3SS               
      1.09730653E-01    2      1000022   1000035                       # HA0    -->  Z1SS   Z4SS               
      6.28564414E-03    2      1000023   1000023                       # HA0    -->  Z2SS   Z2SS               
      1.52339088E-02    2      1000023   1000025                       # HA0    -->  Z2SS   Z3SS               
      7.86009803E-02    2      1000023   1000035                       # HA0    -->  Z2SS   Z4SS               
      2.74427910E-03    2      1000025   1000025                       # HA0    -->  Z3SS   Z3SS               
      1.50831938E-02    2      1000025   1000035                       # HA0    -->  Z3SS   Z4SS               
      7.46065099E-03    2      1000035   1000035                       # HA0    -->  Z4SS   Z4SS               
      7.81093761E-02    2      1000024  -1000024                       # HA0    -->  W1SS+  W1SS-              
      1.24397548E-02    2      1000037  -1000037                       # HA0    -->  W2SS+  W2SS-              
      1.83388144E-01    2      1000024  -1000037                       # HA0    -->  W1SS+  W2SS-              
      1.83388144E-01    2     -1000024   1000037                       # HA0    -->  W1SS-  W2SS+              
      4.99019807E-05    2           25        23                       # HA0    -->  HL0    Z0                 
#         PDG         Width
DECAY        37  1.42768183E+01   # H+    decays
#          BR          NDA       ID1       ID2       ID3       ID4
      2.68685207E-09    2           12       -11                       # H+     -->  NUE    E+                 
      1.13443741E-04    2           14       -13                       # H+     -->  NUM    MU+                
      3.24918218E-02    2           16       -15                       # H+     -->  NUT    TAU+               
      3.02549461E-06    2            2        -1                       # H+     -->  UP     DB                 
      1.22271001E-03    2            4        -3                       # H+     -->  CH     SB                 
      1.86542839E-01    2            6        -5                       # H+     -->  TP     BB                 
      5.19664073E-03    2      1000024   1000022                       # H+     -->  W1SS+  Z1SS               
      1.21372221E-02    2      1000024   1000023                       # H+     -->  W1SS+  Z2SS               
      1.06521919E-01    2      1000024   1000025                       # H+     -->  W1SS+  Z3SS               
      1.98444679E-01    2      1000024   1000035                       # H+     -->  W1SS+  Z4SS               
      2.30568096E-01    2      1000037   1000022                       # H+     -->  W2SS+  Z1SS               
      1.95210084E-01    2      1000037   1000023                       # H+     -->  W2SS+  Z2SS               
      3.14339474E-02    2      1000037   1000025                       # H+     -->  W2SS+  Z3SS               
      6.18919512E-05    2      1000037   1000035                       # H+     -->  W2SS+  Z4SS               
      5.16418004E-05    2           25        24                       # H+     -->  HL0    W+                 
