#  ISAJET SUSY parameters in SUSY Les Houches Accord 2 format
#  Created by ISALHA 2.0 Last revision: H Baer 27 May 2014
Block SPINFO   # Program information
     1   ISASUGRA/ISASUSY from ISAJET   # Spectrum Calculator
     2   7.87   18-JUL-2017 13:55:55    # Version number
Block MODSEL   # Model selection
     1    13   # Non-universal supergravity model                  
Block SMINPUTS   # Standard Model inputs
     1     1.28000000E+02   # alpha_em^(-1)
     2     1.16570000E-05   # G_Fermi
     3     1.19999997E-01   # alpha_s(M_Z)
     4     9.11699982E+01   # m_{Z}(pole)
     5     4.19999981E+00   # m_{b}(m_{b})
     6     1.72500000E+02   # m_{top}(pole)
     7     1.77699995E+00   # m_{tau}(pole)
Block MINPAR   # SUSY breaking input parameters
     1     5.00000000E+03   # m_0
     2     5.00000000E+03   # m_{1/2}
     3     1.50000000E+01   # tan(beta)
     4     1.00000000E+00   # sign(mu)
     5    -8.00000000E+03   # A_0
Block EXTPAR   # Non-universal SUSY breaking parameters
     0     1.06421140E+16   # Input scale
    21    -5.66092500E+06   # Down type Higgs mass squared
    22     8.27738480E+07   #  Up  type Higgs mass squared
Block MASS   # Scalar and gaugino mass spectrum
#  PDG code   mass                 particle
         6     1.72500000E+02   #  top            
        24     8.04229965E+01   #  W^+
        25     1.25648567E+02   #  h^0            
        35     1.00666895E+03   #  H^0            
        36     1.00000000E+03   #  A^0            
        37     1.00322870E+03   #  H^+            
   1000001     1.01541113E+04   #  dnl            
   1000002     1.01537803E+04   #  upl            
   1000003     1.01541113E+04   #  stl            
   1000004     1.01537803E+04   #  chl            
   1000005     8.41535352E+03   #  b1             
   1000006     5.94369873E+03   #  t1             
   1000011     6.12059473E+03   #  el-            
   1000012     6.11720898E+03   #  nuel           
   1000013     6.12059473E+03   #  mul-           
   1000014     6.11720898E+03   #  numl           
   1000015     4.71418359E+03   #  tau1           
   1000016     6.04072656E+03   #  nutl           
   1000021     1.00093262E+04   #  glss           
   1000022     1.55524994E+02   #  z1ss           
   1000023    -1.57659622E+02   #  z2ss           
   1000024     1.63503830E+02   #  w1ss           
   1000025     2.27283716E+03   #  z3ss           
   1000035     4.17471826E+03   #  z4ss           
   1000037     4.12677734E+03   #  w2ss           
   1000039     1.00000002E+20   #  gvss
   2000001     9.70961621E+03   #  dnr            
   2000002     9.97892090E+03   #  upr            
   2000003     9.70961621E+03   #  str            
   2000004     9.97892090E+03   #  chr            
   2000005     9.48013281E+03   #  b2             
   2000006     8.43314063E+03   #  t2             
   2000011     4.89754346E+03   #  er-            
   2000013     4.89754346E+03   #  mur-           
   2000015     6.04250830E+03   #  tau2           
Block ALPHA   # Effective Higgs mixing parameter
         -6.81590810E-02   # alpha
Block STOPMIX   # stop mixing matrix
  1  1     4.23616506E-02   # O_{11}
  1  2     9.99102354E-01   # O_{12}
  2  1    -9.99102354E-01   # O_{21}
  2  2     4.23616506E-02   # O_{22}
Block SBOTMIX   # sbottom mixing matrix
  1  1     9.99987006E-01   # O_{11}
  1  2     5.09272376E-03   # O_{12}
  2  1    -5.09272376E-03   # O_{21}
  2  2     9.99987006E-01   # O_{22}
Block STAUMIX   # stau mixing matrix
  1  1     9.21086350E-04   # O_{11}
  1  2     9.99999583E-01   # O_{12}
  2  1    -9.99999583E-01   # O_{21}
  2  2     9.21086350E-04   # O_{22}
Block NMIX   # neutralino mixing matrix
  1  1     1.46806221E-02   #
  1  2    -1.43605005E-02   #
  1  3     7.09411085E-01   #
  1  4    -7.04495788E-01   #
  2  1    -1.11857709E-02   #
  2  2     1.09251086E-02   #
  2  3     7.04786301E-01   #
  2  4     7.09247470E-01   #
  3  1     9.99817193E-01   #
  3  2     5.31529635E-03   #
  3  3    -2.51901429E-03   #
  3  4     1.81897357E-02   #
  4  1    -4.98217344E-03   #
  4  2     9.99823153E-01   #
  4  3     2.50164187E-03   #
  4  4    -1.79653782E-02   #
Block UMIX   # chargino U mixing matrix
  1  1    -3.02806241E-03   # U_{11}
  1  2     9.99995410E-01   # U_{12}
  2  1    -9.99995410E-01   # U_{21}
  2  2    -3.02806241E-03   # U_{22}
Block VMIX   # chargino V mixing matrix
  1  1    -2.65003722E-02   # V_{11}
  1  2     9.99648809E-01   # V_{12}
  2  1    -9.99648809E-01   # V_{21}
  2  2    -2.65003722E-02   # V_{22}
Block GAUGE Q=  6.91352588E+03   #
     1     3.57517600E-01   # g`
     2     6.52395129E-01   # g_2
     3     1.21956146E+00   # g_3
Block YU Q=  6.91352588E+03   #
  3  3     7.93414772E-01   # y_t
Block YD Q=  6.91352588E+03   #
  3  3     1.75889850E-01   # y_b
Block YE Q=  6.91352588E+03   #
  3  3     1.47922814E-01   # y_tau
Block HMIX Q=  6.91352588E+03   # Higgs mixing parameters
     1     1.50000000E+02   # mu(Q)
     2     1.41991539E+01   # tan(beta)(Q)
     3     2.52928253E+02   # Higgs vev at Q
     4     1.00000000E+06   # m_A^2(Q)
Block MSOFT Q=  6.91352588E+03   # DRbar SUSY breaking parameters
     1     2.28925781E+03   # M_1(Q)          
     2     4.05749414E+03   # M_2(Q)          
     3     9.54834668E+03   # M_3(Q)          
    21     9.82526125E+05   # MHd^2(Q)        
    22     3.19615156E+05   # MHu^2(Q)        
    31     6.08614160E+03   # MeL(Q)          
    32     6.08614160E+03   # MmuL(Q)         
    33     6.01176660E+03   # MtauL(Q)        
    34     4.89213770E+03   # MeR(Q)          
    35     4.89213770E+03   # MmuR(Q)         
    36     4.71149414E+03   # MtauR(Q)        
    41     9.66721289E+03   # MqL1(Q)         
    42     9.66721289E+03   # MqL2(Q)         
    43     8.11673047E+03   # MqL3(Q)         
    44     9.49485547E+03   # MuR(Q)          
    45     9.49485547E+03   # McR(Q)          
    46     5.88868115E+03   # MtR(Q)          
    47     9.23084277E+03   # MdR(Q)          
    48     9.23084277E+03   # MsR(Q)          
    49     9.16445020E+03   # MbR(Q)          
Block AU Q=  6.91352588E+03   #
  1  1    -1.05856143E+04   # A_u
  2  2    -1.05856143E+04   # A_c
  3  3    -1.05856143E+04   # A_t
Block AD Q=  6.91352588E+03   #
  1  1    -1.70597539E+04   # A_d
  2  2    -1.70597539E+04   # A_s
  3  3    -1.70597539E+04   # A_b
Block AE Q=  6.91352588E+03   #
  1  1    -1.03427139E+04   # A_e
  2  2    -1.03427139E+04   # A_mu
  3  3    -1.03427139E+04   # A_tau
#  ISAJET decay tables in SUSY Les Houches accord format
#  Created by ISALHD. Last revision: C. Balazs, 2005 May 25
Block DCINFO                           # Program information
     1   ISASUGRA from ISAJET          # Spectrum Calculator
     2   7.87   18-JUL-2017 13:55:55   # Version number
#         PDG         Width
DECAY         6  1.46776152E+00   # TP    decays
#          BR          NDA       ID1       ID2       ID3       ID4
      3.33333313E-01    3            2        -1         5             # TP     -->  UP     DB     BT          
      3.33333313E-01    3            4        -3         5             # TP     -->  CH     SB     BT          
      1.11111097E-01    3          -11        12         5             # TP     -->  E+     NUE    BT          
      1.11111097E-01    3          -13        14         5             # TP     -->  MU+    NUM    BT          
      1.11111097E-01    3          -15        16         5             # TP     -->  TAU+   NUT    BT          
#         PDG         Width
DECAY   1000021  1.13617432E+02   # GLSS  decays
#          BR          NDA       ID1       ID2       ID3       ID4
      5.81090433E-07    3      1000024         1        -2             # GLSS   -->  W1SS+  DN     UB          
      5.81090433E-07    3     -1000024         2        -1             # GLSS   -->  W1SS-  UP     DB          
      5.81090433E-07    3      1000024         3        -4             # GLSS   -->  W1SS+  ST     CB          
      5.81090433E-07    3     -1000024         4        -3             # GLSS   -->  W1SS-  CH     SB          
      9.52950912E-04    3      1000037         1        -2             # GLSS   -->  W2SS+  DN     UB          
      9.52950912E-04    3     -1000037         2        -1             # GLSS   -->  W2SS-  UP     DB          
      9.52950912E-04    3      1000037         3        -4             # GLSS   -->  W2SS+  ST     CB          
      9.52950912E-04    3     -1000037         4        -3             # GLSS   -->  W2SS-  CH     SB          
      4.60408656E-10    2      1000022        21                       # GLSS   -->  Z1SS   GL                 
      1.11045793E-07    3      1000022         2        -2             # GLSS   -->  Z1SS   UP     UB          
      2.36881931E-07    3      1000022         1        -1             # GLSS   -->  Z1SS   DN     DB          
      2.36881931E-07    3      1000022         3        -3             # GLSS   -->  Z1SS   ST     SB          
      1.11045793E-07    3      1000022         4        -4             # GLSS   -->  Z1SS   CH     CB          
      2.77615292E-10    2      1000023        21                       # GLSS   -->  Z2SS   GL                 
      6.42104823E-08    3      1000023         2        -2             # GLSS   -->  Z2SS   UP     UB          
      1.37136396E-07    3      1000023         1        -1             # GLSS   -->  Z2SS   DN     DB          
      1.37136396E-07    3      1000023         3        -3             # GLSS   -->  Z2SS   ST     SB          
      6.42104823E-08    3      1000023         4        -4             # GLSS   -->  Z2SS   CH     CB          
      1.43830653E-06    2      1000025        21                       # GLSS   -->  Z3SS   GL                 
      2.88660758E-05    3      1000025         2        -2             # GLSS   -->  Z3SS   UP     UB          
      2.56891453E-05    3      1000025         1        -1             # GLSS   -->  Z3SS   DN     DB          
      2.56891453E-05    3      1000025         3        -3             # GLSS   -->  Z3SS   ST     SB          
      2.88660758E-05    3      1000025         4        -4             # GLSS   -->  Z3SS   CH     CB          
      1.32996921E-11    2      1000035        21                       # GLSS   -->  Z4SS   GL                 
      7.82334420E-04    3      1000035         2        -2             # GLSS   -->  Z4SS   UP     UB          
      7.84798583E-04    3      1000035         1        -1             # GLSS   -->  Z4SS   DN     DB          
      7.84798583E-04    3      1000035         3        -3             # GLSS   -->  Z4SS   ST     SB          
      7.82334420E-04    3      1000035         4        -4             # GLSS   -->  Z4SS   CH     CB          
      3.01886030E-05    2     -2000002         2                       # GLSS   -->  UBR    UP                 
      3.01886030E-05    2      2000002        -2                       # GLSS   -->  UPR    UB                 
      2.85474584E-03    2     -2000001         1                       # GLSS   -->  DBR    DN                 
      2.85474584E-03    2      2000001        -1                       # GLSS   -->  DNR    DB                 
      2.85474537E-03    2     -2000003         3                       # GLSS   -->  SBR    ST                 
      2.85474537E-03    2      2000003        -3                       # GLSS   -->  STR    SB                 
      3.01589225E-05    2     -2000004         4                       # GLSS   -->  CBR    CH                 
      3.01589225E-05    2      2000004        -4                       # GLSS   -->  CHR    CB                 
      7.04925135E-02    2     -1000005         5                       # GLSS   -->  BB1    BT                 
      7.04925135E-02    2      1000005        -5                       # GLSS   -->  BT1    BB                 
      8.69462825E-03    2     -2000005         5                       # GLSS   -->  BB2    BT                 
      8.69462825E-03    2      2000005        -5                       # GLSS   -->  BT2    BB                 
      3.42106402E-01    2     -1000006         6                       # GLSS   -->  TB1    TP                 
      3.42106402E-01    2      1000006        -6                       # GLSS   -->  TP1    TB                 
      6.94065392E-02    2     -2000006         6                       # GLSS   -->  TB2    TP                 
      6.94065392E-02    2      2000006        -6                       # GLSS   -->  TP2    TB                 
#         PDG         Width
DECAY   1000002  9.08203888E+01   # UPL   decays
#          BR          NDA       ID1       ID2       ID3       ID4
      6.40710641E-05    2      1000022         2                       # UPL    -->  Z1SS   UP                 
      3.70562848E-05    2      1000023         2                       # UPL    -->  Z2SS   UP                 
      1.50861638E-02    2      1000025         2                       # UPL    -->  Z3SS   UP                 
      3.24239522E-01    2      1000035         2                       # UPL    -->  Z4SS   UP                 
      4.42639692E-03    2      1000021         2                       # UPL    -->  GLSS   UP                 
      6.60640537E-04    2      1000024         1                       # UPL    -->  W1SS+  DN                 
      6.55486166E-01    2      1000037         1                       # UPL    -->  W2SS+  DN                 
#         PDG         Width
DECAY   1000001  9.07775192E+01   # DNL   decays
#          BR          NDA       ID1       ID2       ID3       ID4
      1.36812378E-04    2      1000022         1                       # DNL    -->  Z1SS   DN                 
      7.92213323E-05    2      1000023         1                       # DNL    -->  Z2SS   DN                 
      1.34393359E-02    2      1000025         1                       # DNL    -->  Z3SS   DN                 
      3.25598717E-01    2      1000035         1                       # DNL    -->  Z4SS   DN                 
      4.44848742E-03    2      1000021         1                       # DNL    -->  GLSS   DN                 
      8.62998513E-06    2     -1000024         2                       # DNL    -->  W1SS-  UP                 
      6.56288803E-01    2     -1000037         2                       # DNL    -->  W2SS-  UP                 
#         PDG         Width
DECAY   1000003  9.07775192E+01   # STL   decays
#          BR          NDA       ID1       ID2       ID3       ID4
      1.36812378E-04    2      1000022         3                       # STL    -->  Z1SS   ST                 
      7.92213323E-05    2      1000023         3                       # STL    -->  Z2SS   ST                 
      1.34393359E-02    2      1000025         3                       # STL    -->  Z3SS   ST                 
      3.25598717E-01    2      1000035         3                       # STL    -->  Z4SS   ST                 
      4.44848742E-03    2      1000021         3                       # STL    -->  GLSS   ST                 
      8.62998604E-06    2     -1000024         4                       # STL    -->  W1SS-  CH                 
      6.56288803E-01    2     -1000037         4                       # STL    -->  W2SS-  CH                 
#         PDG         Width
DECAY   1000004  9.08203735E+01   # CHL   decays
#          BR          NDA       ID1       ID2       ID3       ID4
      6.40710714E-05    2      1000022         4                       # CHL    -->  Z1SS   CH                 
      3.70562921E-05    2      1000023         4                       # CHL    -->  Z2SS   CH                 
      1.50861666E-02    2      1000025         4                       # CHL    -->  Z3SS   CH                 
      3.24239582E-01    2      1000035         4                       # CHL    -->  Z4SS   CH                 
      4.42620181E-03    2      1000021         4                       # CHL    -->  GLSS   CH                 
      6.60640653E-04    2      1000024         3                       # CHL    -->  W1SS+  ST                 
      6.55486286E-01    2      1000037         3                       # CHL    -->  W2SS+  ST                 
#         PDG         Width
DECAY   1000005  2.54934036E+02   # BT1   decays
#          BR          NDA       ID1       ID2       ID3       ID4
      1.08526656E-02    2      1000022         5                       # BT1    -->  Z1SS   BT                 
      1.06795458E-02    2      1000023         5                       # BT1    -->  Z2SS   BT                 
      3.77736380E-03    2      1000025         5                       # BT1    -->  Z3SS   BT                 
      7.90877566E-02    2      1000035         5                       # BT1    -->  Z4SS   BT                 
      3.90769571E-01    2     -1000024         6                       # BT1    -->  W1SS-  TP                 
      1.60496712E-01    2     -1000037         6                       # BT1    -->  W2SS-  TP                 
      3.43061179E-01    2          -24   1000006                       # BT1    -->  W-     TP1                
      1.27517688E-03    2          -37   1000006                       # BT1    -->  H-     TP1                
#         PDG         Width
DECAY   1000006  1.50518951E+02   # TP1   decays
#          BR          NDA       ID1       ID2       ID3       ID4
      2.32188895E-01    2      1000022         6                       # TP1    -->  Z1SS   TP                 
      2.35294893E-01    2      1000023         6                       # TP1    -->  Z2SS   TP                 
      6.49050027E-02    2      1000025         6                       # TP1    -->  Z3SS   TP                 
      6.32925776E-06    2      1000035         6                       # TP1    -->  Z4SS   TP                 
      4.67594206E-01    2      1000024         5                       # TP1    -->  W1SS+  BT                 
      1.06226516E-05    2      1000037         5                       # TP1    -->  W2SS+  BT                 
#         PDG         Width
DECAY   2000002  2.02788677E+01   # UPR   decays
#          BR          NDA       ID1       ID2       ID3       ID4
      2.39626097E-04    2      1000022         2                       # UPR    -->  Z1SS   UP                 
      1.39114098E-04    2      1000023         2                       # UPR    -->  Z2SS   UP                 
      9.99602437E-01    2      1000025         2                       # UPR    -->  Z3SS   UP                 
      1.87923379E-05    2      1000035         2                       # UPR    -->  Z4SS   UP                 
#         PDG         Width
DECAY   2000001  4.90259600E+00   # DNR   decays
#          BR          NDA       ID1       ID2       ID3       ID4
      2.41100643E-04    2      1000022         1                       # DNR    -->  Z1SS   DN                 
      1.39970041E-04    2      1000023         1                       # DNR    -->  Z2SS   DN                 
      9.99600470E-01    2      1000025         1                       # DNR    -->  Z3SS   DN                 
      1.84599703E-05    2      1000035         1                       # DNR    -->  Z4SS   DN                 
#         PDG         Width
DECAY   2000003  4.90259600E+00   # STR   decays
#          BR          NDA       ID1       ID2       ID3       ID4
      2.41100643E-04    2      1000022         3                       # STR    -->  Z1SS   ST                 
      1.39970041E-04    2      1000023         3                       # STR    -->  Z2SS   ST                 
      9.99600470E-01    2      1000025         3                       # STR    -->  Z3SS   ST                 
      1.84599703E-05    2      1000035         3                       # STR    -->  Z4SS   ST                 
#         PDG         Width
DECAY   2000004  2.02788677E+01   # CHR   decays
#          BR          NDA       ID1       ID2       ID3       ID4
      2.39626126E-04    2      1000022         4                       # CHR    -->  Z1SS   CH                 
      1.39114098E-04    2      1000023         4                       # CHR    -->  Z2SS   CH                 
      9.99602437E-01    2      1000025         4                       # CHR    -->  Z3SS   CH                 
      1.87923360E-05    2      1000035         4                       # CHR    -->  Z4SS   CH                 
#         PDG         Width
DECAY   2000005  3.20675697E+01   # BT2   decays
#          BR          NDA       ID1       ID2       ID3       ID4
      9.67244431E-02    2      1000022         5                       # BT2    -->  Z1SS   BT                 
      9.55895111E-02    2      1000023         5                       # BT2    -->  Z2SS   BT                 
      1.48368374E-01    2      1000025         5                       # BT2    -->  Z3SS   BT                 
      3.26102854E-05    2      1000035         5                       # BT2    -->  Z4SS   BT                 
      1.92210078E-01    2     -1000024         6                       # BT2    -->  W1SS-  TP                 
      5.76261882E-05    2     -1000037         6                       # BT2    -->  W2SS-  TP                 
      1.79765862E-04    2          -24   1000006                       # BT2    -->  W-     TP1                
      4.03227052E-03    2          -24   2000006                       # BT2    -->  W-     TP2                
      2.14138883E-03    2           23   1000005                       # BT2    -->  Z0     BT1                
      2.19117291E-03    2           25   1000005                       # BT2    -->  HL0    BT1                
      1.27259597E-01    2           36   1000005                       # BT2    -->  HA0    BT1                
      1.20680191E-01    2           35   1000005                       # BT2    -->  HH0    BT1                
      2.05922849E-03    2          -37   1000006                       # BT2    -->  H-     TP1                
      2.08473772E-01    2          -37   2000006                       # BT2    -->  H-     TP2                
#         PDG         Width
DECAY   2000006  2.77401855E+02   # TP2   decays
#          BR          NDA       ID1       ID2       ID3       ID4
      1.98777393E-02    2      1000024         5                       # TP2    -->  W1SS+  BT                 
      1.48058414E-01    2      1000037         5                       # TP2    -->  W2SS+  BT                 
      1.62405640E-01    2           23   1000006                       # TP2    -->  Z0     TP1                
      2.31866151E-01    2           25   1000006                       # TP2    -->  HL0    TP1                
      6.18776947E-04    2           35   1000006                       # TP2    -->  HH0    TP1                
      5.87645220E-04    2           36   1000006                       # TP2    -->  HA0    TP1                
      1.78494945E-01    2      1000022         6                       # TP2    -->  Z1SS   TP                 
      1.80952311E-01    2      1000023         6                       # TP2    -->  Z2SS   TP                 
      4.23207786E-03    2      1000025         6                       # TP2    -->  Z3SS   TP                 
      7.29063749E-02    2      1000035         6                       # TP2    -->  Z4SS   TP                 
#         PDG         Width
DECAY   1000011  2.85484924E+01   # EL-   decays
#          BR          NDA       ID1       ID2       ID3       ID4
      3.56780001E-05    2      1000022        11                       # EL-    -->  Z1SS   E-                 
      2.05678116E-05    2      1000023        11                       # EL-    -->  Z2SS   E-                 
      2.06477016E-01    2      1000025        11                       # EL-    -->  Z3SS   E-                 
      2.56579489E-01    2      1000035        11                       # EL-    -->  Z4SS   E-                 
      1.65257861E-05    2     -1000024        12                       # EL-    -->  W1SS-  NUE                
      5.36870718E-01    2     -1000037        12                       # EL-    -->  W2SS-  NUE                
#         PDG         Width
DECAY   1000013  2.85484924E+01   # MUL-  decays
#          BR          NDA       ID1       ID2       ID3       ID4
      3.56780001E-05    2      1000022        13                       # MUL-   -->  Z1SS   MU-                
      2.05678116E-05    2      1000023        13                       # MUL-   -->  Z2SS   MU-                
      2.06477016E-01    2      1000025        13                       # MUL-   -->  Z3SS   MU-                
      2.56579489E-01    2      1000035        13                       # MUL-   -->  Z4SS   MU-                
      1.65257861E-05    2     -1000024        14                       # MUL-   -->  W1SS-  NUM                
      5.36870718E-01    2     -1000037        14                       # MUL-   -->  W2SS-  NUM                
#         PDG         Width
DECAY   1000015  1.84587078E+01   # TAU1- decays
#          BR          NDA       ID1       ID2       ID3       ID4
      5.93183674E-02    2      1000022        15                       # TAU1-  -->  Z1SS   TAU-               
      5.84123395E-02    2      1000023        15                       # TAU1-  -->  Z2SS   TAU-               
      7.65000939E-01    2      1000025        15                       # TAU1-  -->  Z3SS   TAU-               
      1.50103449E-06    2      1000035        15                       # TAU1-  -->  Z4SS   TAU-               
      1.17266729E-01    2     -1000024        16                       # TAU1-  -->  W1SS-  NUT                
      5.32957145E-09    2     -1000037        16                       # TAU1-  -->  W2SS-  NUT                
#         PDG         Width
DECAY   1000012  2.83890991E+01   # NUEL  decays
#          BR          NDA       ID1       ID2       ID3       ID4
      4.55703994E-04    2      1000022        12                       # NUEL   -->  Z1SS   NUE                
      2.64033239E-04    2      1000023        12                       # NUEL   -->  Z2SS   NUE                
      1.99574664E-01    2      1000025        12                       # NUEL   -->  Z3SS   NUE                
      2.60215849E-01    2      1000035        12                       # NUEL   -->  Z4SS   NUE                
      1.27211679E-03    2      1000024        11                       # NUEL   -->  W1SS+  E-                 
      5.38217604E-01    2      1000037        11                       # NUEL   -->  W2SS+  E-                 
#         PDG         Width
DECAY   1000014  2.83890991E+01   # NUML  decays
#          BR          NDA       ID1       ID2       ID3       ID4
      4.55703994E-04    2      1000022        14                       # NUML   -->  Z1SS   NUM                
      2.64033239E-04    2      1000023        14                       # NUML   -->  Z2SS   NUM                
      1.99574664E-01    2      1000025        14                       # NUML   -->  Z3SS   NUM                
      2.60215849E-01    2      1000035        14                       # NUML   -->  Z4SS   NUM                
      1.27211679E-03    2      1000024        13                       # NUML   -->  W1SS+  MU-                
      5.38217604E-01    2      1000037        13                       # NUML   -->  W2SS+  MU-                
#         PDG         Width
DECAY   1000016  3.18974762E+01   # NUTL  decays
#          BR          NDA       ID1       ID2       ID3       ID4
      4.00497345E-04    2      1000022        16                       # NUTL   -->  Z1SS   NUT                
      2.32046528E-04    2      1000023        16                       # NUTL   -->  Z2SS   NUT                
      1.73974007E-01    2      1000025        16                       # NUTL   -->  Z3SS   NUT                
      2.18651220E-01    2      1000035        16                       # NUTL   -->  Z4SS   NUT                
      8.81541520E-02    2      1000024        15                       # NUTL   -->  W1SS+  TAU-               
      4.53109264E-01    2      1000037        15                       # NUTL   -->  W2SS+  TAU-               
      2.26765784E-04    2           24   1000015                       # NUTL   -->  W+     TAU1-              
      6.52520210E-02    2           37   1000015                       # NUTL   -->  H+     TAU1-              
#         PDG         Width
DECAY   2000011  1.53388262E+01   # ER-   decays
#          BR          NDA       ID1       ID2       ID3       ID4
      3.49299167E-04    2      1000022        11                       # ER-    -->  Z1SS   E-                 
      2.02775889E-04    2      1000023        11                       # ER-    -->  Z2SS   E-                 
      9.99444902E-01    2      1000025        11                       # ER-    -->  Z3SS   E-                 
      3.01305636E-06    2      1000035        11                       # ER-    -->  Z4SS   E-                 
#         PDG         Width
DECAY   2000013  1.53388262E+01   # MUR-  decays
#          BR          NDA       ID1       ID2       ID3       ID4
      3.49299167E-04    2      1000022        13                       # MUR-   -->  Z1SS   MU-                
      2.02775889E-04    2      1000023        13                       # MUR-   -->  Z2SS   MU-                
      9.99444902E-01    2      1000025        13                       # MUR-   -->  Z3SS   MU-                
      3.01305636E-06    2      1000035        13                       # MUR-   -->  Z4SS   MU-                
#         PDG         Width
DECAY   2000015  3.20409966E+01   # TAU2- decays
#          BR          NDA       ID1       ID2       ID3       ID4
      4.36491780E-02    2      1000022        15                       # TAU2-  -->  Z1SS   TAU-               
      4.30808589E-02    2      1000023        15                       # TAU2-  -->  Z2SS   TAU-               
      1.80116430E-01    2      1000025        15                       # TAU2-  -->  Z3SS   TAU-               
      2.15596482E-01    2      1000035        15                       # TAU2-  -->  Z4SS   TAU-               
      1.25418537E-05    2     -1000024        16                       # TAU2-  -->  W1SS-  NUT                
      4.51991647E-01    2     -1000037        16                       # TAU2-  -->  W2SS-  NUT                
      1.14600327E-04    2           23   1000015                       # TAU2-  -->  Z0     TAU1-              
      3.40798870E-04    2           25   1000015                       # TAU2-  -->  HL0    TAU1-              
      3.26977186E-02    2           36   1000015                       # TAU2-  -->  HA0    TAU1-              
      3.23997587E-02    2           35   1000015                       # TAU2-  -->  HH0    TAU1-              
#         PDG         Width
DECAY   1000023  5.77234892E-11   # Z2SS  decays
#          BR          NDA       ID1       ID2       ID3       ID4
      4.36027527E-01    2      1000022        22                       # Z2SS   -->  Z1SS   GM                 
      9.54243466E-02    3      1000022         2        -2             # Z2SS   -->  Z1SS   UP     UB          
      1.23050332E-01    3      1000022         1        -1             # Z2SS   -->  Z1SS   DN     DB          
      1.23050332E-01    3      1000022         3        -3             # Z2SS   -->  Z1SS   ST     SB          
      2.79139038E-02    3      1000022        11       -11             # Z2SS   -->  Z1SS   E-     E+          
      2.79139038E-02    3      1000022        13       -13             # Z2SS   -->  Z1SS   MU-    MU+         
      5.55398911E-02    3      1000022        12       -12             # Z2SS   -->  Z1SS   NUE    ANUE        
      5.55398911E-02    3      1000022        14       -14             # Z2SS   -->  Z1SS   NUM    ANUM        
      5.55398911E-02    3      1000022        16       -16             # Z2SS   -->  Z1SS   NUT    ANUT        
#         PDG         Width
DECAY   1000025  8.95187283E+00   # Z3SS  decays
#          BR          NDA       ID1       ID2       ID3       ID4
      3.15703836E-08    2      1000022        22                       # Z3SS   -->  Z1SS   GM                 
      3.19543396E-08    2      1000023        22                       # Z3SS   -->  Z2SS   GM                 
      1.44684643E-01    2      1000024       -24                       # Z3SS   -->  W1SS+  W-                 
      1.44684643E-01    2     -1000024        24                       # Z3SS   -->  W1SS-  W+                 
      1.03795238E-01    2      1000024       -37                       # Z3SS   -->  W1SS+  H-                 
      1.03795238E-01    2     -1000024        37                       # Z3SS   -->  W1SS-  H+                 
      5.18846549E-02    2      1000022        23                       # Z3SS   -->  Z1SS   Z0                 
      9.17414352E-02    2      1000023        23                       # Z3SS   -->  Z2SS   Z0                 
      7.26492269E-11    3      1000022         2        -2             # Z3SS   -->  Z1SS   UP     UB          
      1.40714489E-11    3      1000022         1        -1             # Z3SS   -->  Z1SS   DN     DB          
      1.40714489E-11    3      1000022         3        -3             # Z3SS   -->  Z1SS   ST     SB          
      7.26492269E-11    3      1000022         4        -4             # Z3SS   -->  Z1SS   CH     CB          
      9.56554658E-09    3      1000022         5        -5             # Z3SS   -->  Z1SS   BT     BB          
      2.30189778E-09    3      1000022        11       -11             # Z3SS   -->  Z1SS   E-     E+          
      2.30189778E-09    3      1000022        13       -13             # Z3SS   -->  Z1SS   MU-    MU+         
      7.03377680E-07    3      1000022        15       -15             # Z3SS   -->  Z1SS   TAU-   TAU+        
      4.12018170E-10    3      1000022        12       -12             # Z3SS   -->  Z1SS   NUE    ANUE        
      4.12018170E-10    3      1000022        14       -14             # Z3SS   -->  Z1SS   NUM    ANUM        
      4.34604824E-10    3      1000022        16       -16             # Z3SS   -->  Z1SS   NUT    ANUT        
      3.27313038E-11    3      1000023         2        -2             # Z3SS   -->  Z2SS   UP     UB          
      6.33047347E-12    3      1000023         1        -1             # Z3SS   -->  Z2SS   DN     DB          
      6.33047347E-12    3      1000023         3        -3             # Z3SS   -->  Z2SS   ST     SB          
      3.27313038E-11    3      1000023         4        -4             # Z3SS   -->  Z2SS   CH     CB          
      9.42739220E-09    3      1000023         5        -5             # Z3SS   -->  Z2SS   BT     BB          
      1.05064790E-09    3      1000023        11       -11             # Z3SS   -->  Z2SS   E-     E+          
      1.05064790E-09    3      1000023        13       -13             # Z3SS   -->  Z2SS   MU-    MU+         
      6.92053902E-07    3      1000023        15       -15             # Z3SS   -->  Z2SS   TAU-   TAU+        
      1.86534913E-10    3      1000023        12       -12             # Z3SS   -->  Z2SS   NUE    ANUE        
      1.86534913E-10    3      1000023        14       -14             # Z3SS   -->  Z2SS   NUM    ANUM        
      1.96815536E-10    3      1000023        16       -16             # Z3SS   -->  Z2SS   NUT    ANUT        
      1.00672461E-01    2      1000022        25                       # Z3SS   -->  Z1SS   HL0                
      5.18881828E-02    2      1000022        35                       # Z3SS   -->  Z1SS   HH0                
      4.85688820E-02    2      1000022        36                       # Z3SS   -->  Z1SS   HA0                
      5.88497780E-02    2      1000023        25                       # Z3SS   -->  Z2SS   HL0                
      4.76973988E-02    2      1000023        35                       # Z3SS   -->  Z2SS   HH0                
      5.17359339E-02    2      1000023        36                       # Z3SS   -->  Z2SS   HA0                
#         PDG         Width
DECAY   1000035  6.56921082E+01   # Z4SS  decays
#          BR          NDA       ID1       ID2       ID3       ID4
      2.41010554E-07    2      1000022        22                       # Z4SS   -->  Z1SS   GM                 
      3.56893139E-07    2      1000023        22                       # Z4SS   -->  Z2SS   GM                 
      4.44657067E-09    2      1000025        22                       # Z4SS   -->  Z3SS   GM                 
      1.37709185E-01    2      1000024       -24                       # Z4SS   -->  W1SS+  W-                 
      1.37709185E-01    2     -1000024        24                       # Z4SS   -->  W1SS-  W+                 
      1.16734438E-01    2      1000024       -37                       # Z4SS   -->  W1SS+  H-                 
      1.16734438E-01    2     -1000024        37                       # Z4SS   -->  W1SS-  H+                 
      8.29240071E-06    3     -1000037         2        -1             # Z4SS   -->  W2SS-  UP     DB          
      2.76413357E-06    3     -1000037        12       -11             # Z4SS   -->  W2SS-  NUE    E+          
      2.76413357E-06    3     -1000037        14       -13             # Z4SS   -->  W2SS-  NUM    MU+         
      8.29240071E-06    3      1000037         1        -2             # Z4SS   -->  W2SS+  DN     UB          
      2.76413357E-06    3      1000037        11       -12             # Z4SS   -->  W2SS+  E-     ANUE        
      2.76413357E-06    3      1000037        13       -14             # Z4SS   -->  W2SS+  MU-    ANUM        
      8.29240071E-06    3     -1000037         4        -3             # Z4SS   -->  W2SS-  CH     SB          
      2.76413357E-06    3     -1000037        16       -15             # Z4SS   -->  W2SS-  NUT    TAU+        
      8.29240071E-06    3      1000037         3        -4             # Z4SS   -->  W2SS+  ST     CB          
      2.76413357E-06    3      1000037        15       -16             # Z4SS   -->  W2SS+  TAU-   ANUT        
      4.30652164E-02    2      1000022        23                       # Z4SS   -->  Z1SS   Z0                 
      7.64918402E-02    2      1000023        23                       # Z4SS   -->  Z2SS   Z0                 
      1.31048273E-05    2      1000025        23                       # Z4SS   -->  Z3SS   Z0                 
      4.24953434E-10    3      1000022         2        -2             # Z4SS   -->  Z1SS   UP     UB          
      9.10134523E-10    3      1000022         1        -1             # Z4SS   -->  Z1SS   DN     DB          
      9.10134523E-10    3      1000022         3        -3             # Z4SS   -->  Z1SS   ST     SB          
      4.24953434E-10    3      1000022         4        -4             # Z4SS   -->  Z1SS   CH     CB          
      5.21122388E-07    3      1000022         5        -5             # Z4SS   -->  Z1SS   BT     BB          
      4.21153917E-10    3      1000022        11       -11             # Z4SS   -->  Z1SS   E-     E+          
      4.21153917E-10    3      1000022        13       -13             # Z4SS   -->  Z1SS   MU-    MU+         
      5.83763097E-07    3      1000022        15       -15             # Z4SS   -->  Z1SS   TAU-   TAU+        
      5.42265077E-09    3      1000022        12       -12             # Z4SS   -->  Z1SS   NUE    ANUE        
      5.42265077E-09    3      1000022        14       -14             # Z4SS   -->  Z1SS   NUM    ANUM        
      5.78453108E-09    3      1000022        16       -16             # Z4SS   -->  Z1SS   NUT    ANUT        
      2.14049695E-10    3      1000023         2        -2             # Z4SS   -->  Z2SS   UP     UB          
      4.58981603E-10    3      1000023         1        -1             # Z4SS   -->  Z2SS   DN     DB          
      4.58981603E-10    3      1000023         3        -3             # Z4SS   -->  Z2SS   ST     SB          
      2.14049695E-10    3      1000023         4        -4             # Z4SS   -->  Z2SS   CH     CB          
      5.13095301E-07    3      1000023         5        -5             # Z4SS   -->  Z2SS   BT     BB          
      2.15008053E-10    3      1000023        11       -11             # Z4SS   -->  Z2SS   E-     E+          
      2.15008053E-10    3      1000023        13       -13             # Z4SS   -->  Z2SS   MU-    MU+         
      5.75938827E-07    3      1000023        15       -15             # Z4SS   -->  Z2SS   TAU-   TAU+        
      2.78240075E-09    3      1000023        12       -12             # Z4SS   -->  Z2SS   NUE    ANUE        
      2.78240075E-09    3      1000023        14       -14             # Z4SS   -->  Z2SS   NUM    ANUM        
      2.97042879E-09    3      1000023        16       -16             # Z4SS   -->  Z2SS   NUT    ANUT        
      1.84086524E-08    3      1000025         2        -2             # Z4SS   -->  Z3SS   UP     UB          
      1.64450125E-08    3      1000025         1        -1             # Z4SS   -->  Z3SS   DN     DB          
      1.64450125E-08    3      1000025         3        -3             # Z4SS   -->  Z3SS   ST     SB          
      1.84086524E-08    3      1000025         4        -4             # Z4SS   -->  Z3SS   CH     CB          
      3.88993726E-08    3      1000025         5        -5             # Z4SS   -->  Z3SS   BT     BB          
      6.40471512E-07    3      1000025        11       -11             # Z4SS   -->  Z3SS   E-     E+          
      6.40471512E-07    3      1000025        13       -13             # Z4SS   -->  Z3SS   MU-    MU+         
      6.89457920E-07    3      1000025        15       -15             # Z4SS   -->  Z3SS   TAU-   TAU+        
      6.24598954E-07    3      1000025        12       -12             # Z4SS   -->  Z3SS   NUE    ANUE        
      6.24598954E-07    3      1000025        14       -14             # Z4SS   -->  Z3SS   NUM    ANUM        
      6.71303951E-07    3      1000025        16       -16             # Z4SS   -->  Z3SS   NUT    ANUT        
      8.12715441E-02    2      1000022        25                       # Z4SS   -->  Z1SS   HL0                
      5.60000129E-02    2      1000022        35                       # Z4SS   -->  Z1SS   HH0                
      6.26418144E-02    2      1000022        36                       # Z4SS   -->  Z1SS   HA0                
      5.39256744E-02    2      1000023        25                       # Z4SS   -->  Z2SS   HL0                
      6.19421788E-02    2      1000023        35                       # Z4SS   -->  Z2SS   HH0                
      5.55253662E-02    2      1000023        36                       # Z4SS   -->  Z2SS   HA0                
      1.78177506E-04    2      1000025        25                       # Z4SS   -->  Z3SS   HL0                
      7.12225699E-07    2      1000025        35                       # Z4SS   -->  Z3SS   HH0                
      3.91485145E-07    2      1000025        36                       # Z4SS   -->  Z3SS   HA0                
#         PDG         Width
DECAY   1000024  4.74794817E-08   # W1SS+ decays
#          BR          NDA       ID1       ID2       ID3       ID4
      2.74454981E-01    3      1000022         2        -1             # W1SS+  -->  Z1SS   UP     DB          
      2.74454981E-01    3      1000022         4        -3             # W1SS+  -->  Z1SS   CH     SB          
      9.14850011E-02    3      1000022       -11        12             # W1SS+  -->  Z1SS   E+     NUE         
      9.14850011E-02    3      1000022       -13        14             # W1SS+  -->  Z1SS   MU+    NUM         
      9.14864689E-02    3      1000022       -15        16             # W1SS+  -->  Z1SS   TAU+   NUT         
      5.88777699E-02    3      1000023         2        -1             # W1SS+  -->  Z2SS   UP     DB          
      5.88777699E-02    3      1000023         4        -3             # W1SS+  -->  Z2SS   CH     SB          
      1.96259264E-02    3      1000023       -11        12             # W1SS+  -->  Z2SS   E+     NUE         
      1.96259264E-02    3      1000023       -13        14             # W1SS+  -->  Z2SS   MU+    NUM         
      1.96262207E-02    3      1000023       -15        16             # W1SS+  -->  Z2SS   TAU+   NUT         
#         PDG         Width
DECAY   1000037  6.30385857E+01   # W2SS+ decays
#          BR          NDA       ID1       ID2       ID3       ID4
      1.14487664E-09    3      1000022         2        -1             # W2SS+  -->  Z1SS   UP     DB          
      1.14487664E-09    3      1000022         4        -3             # W2SS+  -->  Z1SS   CH     SB          
      5.15491916E-09    3      1000022       -11        12             # W2SS+  -->  Z1SS   E+     NUE         
      5.15491916E-09    3      1000022       -13        14             # W2SS+  -->  Z1SS   MU+    NUM         
      5.80876929E-07    3      1000022       -15        16             # W2SS+  -->  Z1SS   TAU+   NUT         
      1.20100118E-01    2      1000022        24                       # W2SS+  -->  Z1SS   W+                 
      1.21450499E-01    2      1000022        37                       # W2SS+  -->  Z1SS   H+                 
      7.54505014E-10    3      1000023         2        -1             # W2SS+  -->  Z2SS   UP     DB          
      7.54505014E-10    3      1000023         4        -3             # W2SS+  -->  Z2SS   CH     SB          
      3.18205351E-09    3      1000023       -11        12             # W2SS+  -->  Z2SS   E+     NUE         
      3.18205351E-09    3      1000023       -13        14             # W2SS+  -->  Z2SS   MU+    NUM         
      5.71302905E-07    3      1000023       -15        16             # W2SS+  -->  Z2SS   TAU+   NUT         
      1.15738258E-01    2      1000023        24                       # W2SS+  -->  Z2SS   W+                 
      1.19842932E-01    2      1000023        37                       # W2SS+  -->  Z2SS   H+                 
      3.22984484E-08    3      1000025         2        -1             # W2SS+  -->  Z3SS   UP     DB          
      3.22984484E-08    3      1000025         4        -3             # W2SS+  -->  Z3SS   CH     SB          
      1.16082822E-06    3      1000025       -11        12             # W2SS+  -->  Z3SS   E+     NUE         
      1.16082822E-06    3      1000025       -13        14             # W2SS+  -->  Z3SS   MU+    NUM         
      1.24782878E-06    3      1000025       -15        16             # W2SS+  -->  Z3SS   TAU+   NUT         
      1.29500069E-02    2      1000025        24                       # W2SS+  -->  Z3SS   W+                 
      9.61129558E-07    2      1000025        37                       # W2SS+  -->  Z3SS   H+                 
      1.30044386E-01    2      1000024        23                       # W2SS+  -->  W1SS+  Z0                 
      4.02044797E-09    3      1000024         1        -1             # W2SS+  -->  W1SS+  DN     DB          
      4.02044797E-09    3      1000024         3        -3             # W2SS+  -->  W1SS+  ST     SB          
      5.25219070E-11    3      1000024         2        -2             # W2SS+  -->  W1SS+  UP     UB          
      5.25219070E-11    3      1000024         4        -4             # W2SS+  -->  W1SS+  CH     CB          
      1.79387616E-10    3      1000024        12       -12             # W2SS+  -->  W1SS+  NUE    ANUE        
      1.79387616E-10    3      1000024        14       -14             # W2SS+  -->  W1SS+  NUM    ANUM        
      8.22910406E-10    3      1000024        16       -16             # W2SS+  -->  W1SS+  NUT    ANUT        
      1.37686484E-08    3      1000024        11       -11             # W2SS+  -->  W1SS+  E-     E+          
      1.37686484E-08    3      1000024        13       -13             # W2SS+  -->  W1SS+  MU-    MU+         
      1.46853569E-08    3      1000024        15       -15             # W2SS+  -->  W1SS+  TAU-   TAU+        
      1.38900399E-01    2      1000024        25                       # W2SS+  -->  W1SS+  HL0                
      1.20367259E-01    2      1000024        35                       # W2SS+  -->  W1SS+  HH0                
      1.20600343E-01    2      1000024        36                       # W2SS+  -->  W1SS+  HA0                
#         PDG         Width
DECAY        25  4.00521932E-03   # HL0   decays
#          BR          NDA       ID1       ID2       ID3       ID4
      5.58865354E-09    2           11       -11                       # HL0    -->  E-     E+                 
      2.35962056E-04    2           13       -13                       # HL0    -->  MU-    MU+                
      6.75023422E-02    2           15       -15                       # HL0    -->  TAU-   TAU+               
      7.00511055E-06    2            1        -1                       # HL0    -->  DN     DB                 
      2.83041620E-03    2            3        -3                       # HL0    -->  ST     SB                 
      6.06472135E-01    2            5        -5                       # HL0    -->  BT     BB                 
      2.13769022E-06    2            2        -2                       # HL0    -->  UP     UB                 
      3.97015400E-02    2            4        -4                       # HL0    -->  CH     CB                 
      2.65238038E-03    2           22        22                       # HL0    -->  GM     GM                 
      5.31162433E-02    2           21        21                       # HL0    -->  GL     GL                 
      1.13534210E-02    3           24        11       -12             # HL0    -->  W+     E-     ANUE        
      1.13534210E-02    3           24        13       -14             # HL0    -->  W+     MU-    ANUM        
      1.13534210E-02    3           24        15       -16             # HL0    -->  W+     TAU-   ANUT        
      3.40602621E-02    3           24        -2         1             # HL0    -->  W+     UB     DN          
      3.40602621E-02    3           24        -4         3             # HL0    -->  W+     CB     ST          
      1.13534210E-02    3          -24       -11        12             # HL0    -->  W-     E+     NUE         
      1.13534210E-02    3          -24       -13        14             # HL0    -->  W-     MU+    NUM         
      1.13534210E-02    3          -24       -15        16             # HL0    -->  W-     TAU+   NUT         
      3.40602621E-02    3          -24         2        -1             # HL0    -->  W-     UP     DB          
      3.40602621E-02    3          -24         4        -3             # HL0    -->  W-     CH     SB          
      1.58105034E-03    3           23        12       -12             # HL0    -->  Z0     NUE    ANUE        
      1.58105034E-03    3           23        14       -14             # HL0    -->  Z0     NUM    ANUM        
      1.58105034E-03    3           23        16       -16             # HL0    -->  Z0     NUT    ANUT        
      7.95726781E-04    3           23        11       -11             # HL0    -->  Z0     E-     E+          
      7.95726781E-04    3           23        13       -13             # HL0    -->  Z0     MU-    MU+         
      7.95726781E-04    3           23        15       -15             # HL0    -->  Z0     TAU-   TAU+        
      2.72609224E-03    3           23         2        -2             # HL0    -->  Z0     UP     UB          
      2.72609224E-03    3           23         4        -4             # HL0    -->  Z0     CH     CB          
      3.51187866E-03    3           23         1        -1             # HL0    -->  Z0     DN     DB          
      3.51187866E-03    3           23         3        -3             # HL0    -->  Z0     ST     SB          
      3.51187866E-03    3           23         5        -5             # HL0    -->  Z0     BT     BB          
#         PDG         Width
DECAY        35  3.53752232E+00   # HH0   decays
#          BR          NDA       ID1       ID2       ID3       ID4
      1.08785114E-08    2           11       -11                       # HH0    -->  E-     E+                 
      4.59310366E-04    2           13       -13                       # HH0    -->  MU-    MU+                
      1.31551072E-01    2           15       -15                       # HH0    -->  TAU-   TAU+               
      1.33262256E-05    2            1        -1                       # HH0    -->  DN     DB                 
      5.38446940E-03    2            3        -3                       # HH0    -->  ST     SB                 
      8.02411795E-01    2            5        -5                       # HH0    -->  BT     BB                 
      8.83130444E-11    2            2        -2                       # HH0    -->  UP     UB                 
      1.24371172E-06    2            4        -4                       # HH0    -->  CH     CB                 
      5.67351915E-02    2            6        -6                       # HH0    -->  TP     TB                 
      1.65486483E-07    2           22        22                       # HH0    -->  GM     GM                 
      2.39797064E-05    2           21        21                       # HH0    -->  GL     GL                 
      2.28571298E-04    2           24       -24                       # HH0    -->  W+     W-                 
      1.16049341E-04    2           23        23                       # HH0    -->  Z0     Z0                 
      4.51329863E-04    2      1000022   1000022                       # HH0    -->  Z1SS   Z1SS               
      3.55733573E-05    2      1000022   1000023                       # HH0    -->  Z1SS   Z2SS               
      3.37741454E-04    2      1000023   1000023                       # HH0    -->  Z2SS   Z2SS               
      1.39465102E-03    2      1000024  -1000024                       # HH0    -->  W1SS+  W1SS-              
      8.55593826E-04    2           25        25                       # HH0    -->  HL0    HL0                
#         PDG         Width
DECAY        36  3.52502990E+00   # HA0   decays
#          BR          NDA       ID1       ID2       ID3       ID4
      1.08470699E-08    2           11       -11                       # HA0    -->  E-     E+                 
      4.57982853E-04    2           13       -13                       # HA0    -->  MU-    MU+                
      1.31172493E-01    2           15       -15                       # HA0    -->  TAU-   TAU+               
      1.32884416E-05    2            1        -1                       # HA0    -->  DN     DB                 
      5.36920317E-03    2            3        -3                       # HA0    -->  ST     SB                 
      8.00172508E-01    2            5        -5                       # HA0    -->  BT     BB                 
      8.39877473E-11    2            2        -2                       # HA0    -->  UP     UB                 
      1.18372952E-06    2            4        -4                       # HA0    -->  CH     CB                 
      5.99787012E-02    2            6        -6                       # HA0    -->  TP     TB                 
      3.24887679E-07    2           22        22                       # HA0    -->  GM     GM                 
      7.42227494E-05    2           21        21                       # HA0    -->  GL     GL                 
      6.50376256E-04    2      1000022   1000022                       # HA0    -->  Z1SS   Z1SS               
      3.42378257E-06    2      1000022   1000023                       # HA0    -->  Z1SS   Z2SS               
      2.84335139E-04    2      1000023   1000023                       # HA0    -->  Z2SS   Z2SS               
      1.60208065E-03    2      1000024  -1000024                       # HA0    -->  W1SS+  W1SS-              
      2.19826587E-04    2           25        23                       # HA0    -->  HL0    Z0                 
#         PDG         Width
DECAY        37  3.11856127E+00   # H+    decays
#          BR          NDA       ID1       ID2       ID3       ID4
      1.23004469E-08    2           12       -11                       # H+     -->  NUE    E+                 
      5.19347086E-04    2           14       -13                       # H+     -->  NUM    MU+                
      1.48748025E-01    2           16       -15                       # H+     -->  NUT    TAU+               
      1.38507576E-05    2            2        -1                       # H+     -->  UP     DB                 
      5.59758395E-03    2            4        -3                       # H+     -->  CH     SB                 
      8.44779909E-01    2            6        -5                       # H+     -->  TP     BB                 
      1.44648257E-05    2      1000024   1000022                       # H+     -->  W1SS+  Z1SS               
      7.76735396E-05    2      1000024   1000023                       # H+     -->  W1SS+  Z2SS               
      2.49188422E-04    2           25        24                       # H+     -->  HL0    W+                 
