#  ISAJET SUSY parameters in SUSY Les Houches Accord 2 format
#  Created by ISALHA 2.0 Last revision: H Baer 27 May 2014
Block SPINFO   # Program information
     1   ISASUGRA/ISASUSY from ISAJET   # Spectrum Calculator
     2   7.87   18-JUL-2017 13:55:55    # Version number
Block MODSEL   # Model selection
     1    13   # Non-universal supergravity model                  
Block SMINPUTS   # Standard Model inputs
     1     1.28000000E+02   # alpha_em^(-1)
     2     1.16570000E-05   # G_Fermi
     3     1.19999997E-01   # alpha_s(M_Z)
     4     9.11699982E+01   # m_{Z}(pole)
     5     4.19999981E+00   # m_{b}(m_{b})
     6     1.72500000E+02   # m_{top}(pole)
     7     1.77699995E+00   # m_{tau}(pole)
Block MINPAR   # SUSY breaking input parameters
     1     5.00000000E+03   # m_0
     2     8.00000000E+03   # m_{1/2}
     3     1.50000000E+01   # tan(beta)
     4     1.00000000E+00   # sign(mu)
     5    -8.00000000E+03   # A_0
Block EXTPAR   # Non-universal SUSY breaking parameters
     0     9.39019545E+15   # Input scale
    21    -1.97494400E+07   # Down type Higgs mass squared
    22     1.32436032E+08   #  Up  type Higgs mass squared
Block MASS   # Scalar and gaugino mass spectrum
#  PDG code   mass                 particle
         6     1.72500000E+02   #  top            
        24     8.04229965E+01   #  W^+
        25     1.25938354E+02   #  h^0            
        35     1.00666956E+03   #  H^0            
        36     1.00000000E+03   #  A^0            
        37     1.00322870E+03   #  H^+            
   1000001     1.45898213E+04   #  dnl            
   1000002     1.45895859E+04   #  upl            
   1000003     1.45898213E+04   #  stl            
   1000004     1.45895859E+04   #  chl            
   1000005     1.25655527E+04   #  b1             
   1000006     9.49419727E+03   #  t1             
   1000011     7.40781104E+03   #  el-            
   1000012     7.39541797E+03   #  nuel           
   1000013     7.40781104E+03   #  mul-           
   1000014     7.39541797E+03   #  numl           
   1000015     4.91596484E+03   #  tau1           
   1000016     7.30732227E+03   #  nutl           
   1000021     1.54366426E+04   #  glss           
   1000022     9.41227341E+01   #  z1ss           
   1000023    -9.54262924E+01   #  z2ss           
   1000024     9.96393509E+01   #  w1ss           
   1000025     3.67589355E+03   #  z3ss           
   1000035     6.67899072E+03   #  z4ss           
   1000037     6.59748535E+03   #  w2ss           
   1000039     1.00000002E+20   #  gvss
   2000001     1.38048496E+04   #  dnr            
   2000002     1.41626201E+04   #  upr            
   2000003     1.38048496E+04   #  str            
   2000004     1.41626201E+04   #  chr            
   2000005     1.35472412E+04   #  b2             
   2000006     1.26109258E+04   #  t2             
   2000011     5.10717432E+03   #  er-            
   2000013     5.10717432E+03   #  mur-           
   2000015     7.32422070E+03   #  tau2           
Block ALPHA   # Effective Higgs mixing parameter
         -6.81706592E-02   # alpha
Block STOPMIX   # stop mixing matrix
  1  1     3.03799417E-02   # O_{11}
  1  2     9.99538422E-01   # O_{12}
  2  1    -9.99538422E-01   # O_{21}
  2  2     3.03799417E-02   # O_{22}
Block SBOTMIX   # sbottom mixing matrix
  1  1     9.99979079E-01   # O_{11}
  1  2     6.46790722E-03   # O_{12}
  2  1    -6.46790722E-03   # O_{21}
  2  2     9.99979079E-01   # O_{22}
Block STAUMIX   # stau mixing matrix
  1  1     1.85318280E-03   # O_{11}
  1  2    -9.99998271E-01   # O_{12}
  2  1     9.99998271E-01   # O_{21}
  2  2     1.85318280E-03   # O_{22}
Block NMIX   # neutralino mixing matrix
  1  1    -8.53270758E-03   #
  1  2     8.52569658E-03   #
  1  3    -7.09483683E-01   #
  1  4     7.04618514E-01   #
  2  1    -7.05234101E-03   #
  2  2     6.73768483E-03   #
  2  3     7.04719484E-01   #
  2  4     7.09418833E-01   #
  3  1     9.99929905E-01   #
  3  2     4.31264564E-03   #
  3  3    -1.07849645E-03   #
  3  4     1.09707108E-02   #
  4  1     4.19236720E-03   #
  4  2    -9.99931574E-01   #
  4  3    -1.30553008E-03   #
  4  4     1.08353943E-02   #
Block UMIX   # chargino U mixing matrix
  1  1    -1.45092758E-03   # U_{11}
  1  2     9.99998927E-01   # U_{12}
  2  1    -9.99998927E-01   # U_{21}
  2  2    -1.45092758E-03   # U_{22}
Block VMIX   # chargino V mixing matrix
  1  1    -1.65728219E-02   # V_{11}
  1  2     9.99862671E-01   # V_{12}
  2  1    -9.99862671E-01   # V_{21}
  2  2    -1.65728219E-02   # V_{22}
Block GAUGE Q=  1.06346143E+04   #
     1     3.57514054E-01   # g`
     2     6.52403355E-01   # g_2
     3     1.21970832E+00   # g_3
Block YU Q=  1.06346143E+04   #
  3  3     7.83764005E-01   # y_t
Block YD Q=  1.06346143E+04   #
  3  3     1.70455635E-01   # y_b
Block YE Q=  1.06346143E+04   #
  3  3     1.47014350E-01   # y_tau
Block HMIX Q=  1.06346143E+04   # Higgs mixing parameters
     1     9.00000000E+01   # mu(Q)
     2     1.41389313E+01   # tan(beta)(Q)
     3     2.53292801E+02   # Higgs vev at Q
     4     1.00000000E+06   # m_A^2(Q)
Block MSOFT Q=  1.06346143E+04   # DRbar SUSY breaking parameters
     1     3.71565259E+03   # M_1(Q)          
     2     6.52254541E+03   # M_2(Q)          
     3     1.48825986E+04   # M_3(Q)          
    21     1.02490800E+06   # MHd^2(Q)        
    22     1.00258150E+06   # MHu^2(Q)        
    31     7.35119238E+03   # MeL(Q)          
    32     7.35119238E+03   # MmuL(Q)         
    33     7.26562354E+03   # MtauL(Q)        
    34     5.09902979E+03   # MeR(Q)          
    35     5.09902979E+03   # MmuR(Q)         
    36     4.89946191E+03   # MtauR(Q)        
    41     1.38613271E+04   # MqL1(Q)         
    42     1.38613271E+04   # MqL2(Q)         
    43     1.20951885E+04   # MqL3(Q)         
    44     1.34478594E+04   # MuR(Q)          
    45     1.34478594E+04   # McR(Q)          
    46     9.35041406E+03   # MtR(Q)          
    47     1.31034229E+04   # MdR(Q)          
    48     1.31034229E+04   # MsR(Q)          
    49     1.30420469E+04   # MbR(Q)          
Block AU Q=  1.06346143E+04   #
  1  1    -1.46219023E+04   # A_u
  2  2    -1.46219023E+04   # A_c
  3  3    -1.46219023E+04   # A_t
Block AD Q=  1.06346143E+04   #
  1  1    -2.24362773E+04   # A_d
  2  2    -2.24362773E+04   # A_s
  3  3    -2.24362773E+04   # A_b
Block AE Q=  1.06346143E+04   #
  1  1    -1.18726162E+04   # A_e
  2  2    -1.18726162E+04   # A_mu
  3  3    -1.18726162E+04   # A_tau
#  ISAJET decay tables in SUSY Les Houches accord format
#  Created by ISALHD. Last revision: C. Balazs, 2005 May 25
Block DCINFO                           # Program information
     1   ISASUGRA from ISAJET          # Spectrum Calculator
     2   7.87   18-JUL-2017 13:55:55   # Version number
#         PDG         Width
DECAY         6  1.46776152E+00   # TP    decays
#          BR          NDA       ID1       ID2       ID3       ID4
      3.33333313E-01    3            2        -1         5             # TP     -->  UP     DB     BT          
      3.33333313E-01    3            4        -3         5             # TP     -->  CH     SB     BT          
      1.11111097E-01    3          -11        12         5             # TP     -->  E+     NUE    BT          
      1.11111097E-01    3          -13        14         5             # TP     -->  MU+    NUM    BT          
      1.11111097E-01    3          -15        16         5             # TP     -->  TAU+   NUT    BT          
#         PDG         Width
DECAY   1000021  2.32839249E+02   # GLSS  decays
#          BR          NDA       ID1       ID2       ID3       ID4
      6.78934529E-03    2     -1000002         2                       # GLSS   -->  UBL    UP                 
      6.78934529E-03    2      1000002        -2                       # GLSS   -->  UPL    UB                 
      6.78568333E-03    2     -1000001         1                       # GLSS   -->  DBL    DN                 
      6.78568333E-03    2      1000001        -1                       # GLSS   -->  DNL    DB                 
      1.49251064E-02    2     -2000002         2                       # GLSS   -->  UBR    UP                 
      1.49251064E-02    2      2000002        -2                       # GLSS   -->  UPR    UB                 
      2.38962974E-02    2     -2000001         1                       # GLSS   -->  DBR    DN                 
      2.38962974E-02    2      2000001        -1                       # GLSS   -->  DNR    DB                 
      6.78568333E-03    2     -1000003         3                       # GLSS   -->  SBL    ST                 
      6.78568333E-03    2      1000003        -3                       # GLSS   -->  STL    SB                 
      2.38962974E-02    2     -2000003         3                       # GLSS   -->  SBR    ST                 
      2.38962974E-02    2      2000003        -3                       # GLSS   -->  STR    SB                 
      6.78933738E-03    2     -1000004         4                       # GLSS   -->  CBL    CH                 
      6.78933738E-03    2      1000004        -4                       # GLSS   -->  CHL    CB                 
      1.49250980E-02    2     -2000004         4                       # GLSS   -->  CBR    CH                 
      1.49250980E-02    2      2000004        -4                       # GLSS   -->  CHR    CB                 
      6.78371787E-02    2     -1000005         5                       # GLSS   -->  BB1    BT                 
      6.78371787E-02    2      1000005        -5                       # GLSS   -->  BT1    BB                 
      3.14758569E-02    2     -2000005         5                       # GLSS   -->  BB2    BT                 
      3.14758569E-02    2      2000005        -5                       # GLSS   -->  BT2    BB                 
      2.29800239E-01    2     -1000006         6                       # GLSS   -->  TB1    TP                 
      2.29800239E-01    2      1000006        -6                       # GLSS   -->  TP1    TB                 
      6.60938770E-02    2     -2000006         6                       # GLSS   -->  TB2    TP                 
      6.60938770E-02    2      2000006        -6                       # GLSS   -->  TP2    TB                 
#         PDG         Width
DECAY   1000002  1.17943481E+02   # UPL   decays
#          BR          NDA       ID1       ID2       ID3       ID4
      2.52387945E-05    2      1000022         2                       # UPL    -->  Z1SS   UP                 
      1.54398404E-05    2      1000023         2                       # UPL    -->  Z2SS   UP                 
      1.60564259E-02    2      1000025         2                       # UPL    -->  Z3SS   UP                 
      3.24771225E-01    2      1000035         2                       # UPL    -->  Z4SS   UP                 
      2.85998336E-04    2      1000024         1                       # UPL    -->  W1SS+  DN                 
      6.58845663E-01    2      1000037         1                       # UPL    -->  W2SS+  DN                 
#         PDG         Width
DECAY   1000001  1.17888123E+02   # DNL   decays
#          BR          NDA       ID1       ID2       ID3       ID4
      5.30209873E-05    2      1000022         1                       # DNL    -->  Z1SS   DN                 
      3.35858240E-05    2      1000023         1                       # DNL    -->  Z2SS   DN                 
      1.46203749E-02    2      1000025         1                       # DNL    -->  Z3SS   DN                 
      3.25934440E-01    2      1000035         1                       # DNL    -->  Z4SS   DN                 
      2.19317349E-06    2     -1000024         2                       # DNL    -->  W1SS-  UP                 
      6.59356356E-01    2     -1000037         2                       # DNL    -->  W2SS-  UP                 
#         PDG         Width
DECAY   1000003  1.17888115E+02   # STL   decays
#          BR          NDA       ID1       ID2       ID3       ID4
      5.30209873E-05    2      1000022         3                       # STL    -->  Z1SS   ST                 
      3.35858276E-05    2      1000023         3                       # STL    -->  Z2SS   ST                 
      1.46203758E-02    2      1000025         3                       # STL    -->  Z3SS   ST                 
      3.25934440E-01    2      1000035         3                       # STL    -->  Z4SS   ST                 
      2.19317371E-06    2     -1000024         4                       # STL    -->  W1SS-  CH                 
      6.59356356E-01    2     -1000037         4                       # STL    -->  W2SS-  CH                 
#         PDG         Width
DECAY   1000004  1.17943481E+02   # CHL   decays
#          BR          NDA       ID1       ID2       ID3       ID4
      2.52387945E-05    2      1000022         4                       # CHL    -->  Z1SS   CH                 
      1.54398404E-05    2      1000023         4                       # CHL    -->  Z2SS   CH                 
      1.60564259E-02    2      1000025         4                       # CHL    -->  Z3SS   CH                 
      3.24771225E-01    2      1000035         4                       # CHL    -->  Z4SS   CH                 
      2.85998336E-04    2      1000024         3                       # CHL    -->  W1SS+  ST                 
      6.58845663E-01    2      1000037         3                       # CHL    -->  W2SS+  ST                 
#         PDG         Width
DECAY   1000005  3.31202972E+02   # BT1   decays
#          BR          NDA       ID1       ID2       ID3       ID4
      1.17420163E-02    2      1000022         5                       # BT1    -->  Z1SS   BT                 
      1.15658799E-02    2      1000023         5                       # BT1    -->  Z2SS   BT                 
      4.27308911E-03    2      1000025         5                       # BT1    -->  Z3SS   BT                 
      8.23186859E-02    2      1000035         5                       # BT1    -->  Z4SS   BT                 
      4.36996043E-01    2     -1000024         6                       # BT1    -->  W1SS-  TP                 
      1.67634800E-01    2     -1000037         6                       # BT1    -->  W2SS-  TP                 
      2.83991158E-01    2          -24   1000006                       # BT1    -->  W-     TP1                
      1.47835992E-03    2          -37   1000006                       # BT1    -->  H-     TP1                
#         PDG         Width
DECAY   1000006  2.34280594E+02   # TP1   decays
#          BR          NDA       ID1       ID2       ID3       ID4
      2.31900245E-01    2      1000022         6                       # TP1    -->  Z1SS   TP                 
      2.35046580E-01    2      1000023         6                       # TP1    -->  Z2SS   TP                 
      6.61136135E-02    2      1000025         6                       # TP1    -->  Z3SS   TP                 
      6.84764791E-06    2      1000035         6                       # TP1    -->  Z4SS   TP                 
      4.66921747E-01    2      1000024         5                       # TP1    -->  W1SS+  BT                 
      1.10222300E-05    2      1000037         5                       # TP1    -->  W2SS+  BT                 
#         PDG         Width
DECAY   2000002  2.78476353E+01   # UPR   decays
#          BR          NDA       ID1       ID2       ID3       ID4
      8.36964318E-05    2      1000022         2                       # UPR    -->  Z1SS   UP                 
      5.71740202E-05    2      1000023         2                       # UPR    -->  Z2SS   UP                 
      9.99846935E-01    2      1000025         2                       # UPR    -->  Z3SS   UP                 
      1.22180754E-05    2      1000035         2                       # UPR    -->  Z4SS   UP                 
#         PDG         Width
DECAY   2000001  6.73467112E+00   # DNR   decays
#          BR          NDA       ID1       ID2       ID3       ID4
      8.43344387E-05    2      1000022         1                       # DNR    -->  Z1SS   DN                 
      5.76098428E-05    2      1000023         1                       # DNR    -->  Z2SS   DN                 
      9.99846101E-01    2      1000025         1                       # DNR    -->  Z3SS   DN                 
      1.19442993E-05    2      1000035         1                       # DNR    -->  Z4SS   DN                 
#         PDG         Width
DECAY   2000003  6.73467112E+00   # STR   decays
#          BR          NDA       ID1       ID2       ID3       ID4
      8.43344387E-05    2      1000022         3                       # STR    -->  Z1SS   ST                 
      5.76098428E-05    2      1000023         3                       # STR    -->  Z2SS   ST                 
      9.99846101E-01    2      1000025         3                       # STR    -->  Z3SS   ST                 
      1.19442993E-05    2      1000035         3                       # STR    -->  Z4SS   ST                 
#         PDG         Width
DECAY   2000004  2.78476372E+01   # CHR   decays
#          BR          NDA       ID1       ID2       ID3       ID4
      8.36964246E-05    2      1000022         4                       # CHR    -->  Z1SS   CH                 
      5.71740165E-05    2      1000023         4                       # CHR    -->  Z2SS   CH                 
      9.99846935E-01    2      1000025         4                       # CHR    -->  Z3SS   CH                 
      1.22180754E-05    2      1000035         4                       # CHR    -->  Z4SS   CH                 
#         PDG         Width
DECAY   2000005  2.35443974E+01   # BT2   decays
#          BR          NDA       ID1       ID2       ID3       ID4
      1.77637145E-01    2      1000022         5                       # BT2    -->  Z1SS   BT                 
      1.75451934E-01    2      1000023         5                       # BT2    -->  Z2SS   BT                 
      2.79016107E-01    2      1000025         5                       # BT2    -->  Z3SS   BT                 
      7.07355648E-05    2      1000035         5                       # BT2    -->  Z4SS   BT                 
      3.53195906E-01    2     -1000024         6                       # BT2    -->  W1SS-  TP                 
      1.32686444E-04    2     -1000037         6                       # BT2    -->  W2SS-  TP                 
      3.49398586E-04    2          -24   1000006                       # BT2    -->  W-     TP1                
      6.75143814E-03    2          -24   2000006                       # BT2    -->  W-     TP2                
      3.91756790E-03    2           23   1000005                       # BT2    -->  Z0     BT1                
      2.09147809E-03    2           25   1000005                       # BT2    -->  HL0    BT1                
      1.38559286E-03    2          -37   1000006                       # BT2    -->  H-     TP1                
#         PDG         Width
DECAY   2000006  3.58877441E+02   # TP2   decays
#          BR          NDA       ID1       ID2       ID3       ID4
      2.16486976E-02    2      1000024         5                       # TP2    -->  W1SS+  BT                 
      1.56054214E-01    2      1000037         5                       # TP2    -->  W2SS+  BT                 
      1.37946278E-01    2           23   1000006                       # TP2    -->  Z0     TP1                
      1.97401315E-01    2           25   1000006                       # TP2    -->  HL0    TP1                
      7.20265904E-04    2           35   1000006                       # TP2    -->  HH0    TP1                
      6.86520536E-04    2           36   1000006                       # TP2    -->  HA0    TP1                
      2.00891733E-01    2      1000022         6                       # TP2    -->  Z1SS   TP                 
      2.03658924E-01    2      1000023         6                       # TP2    -->  Z2SS   TP                 
      4.50867694E-03    2      1000025         6                       # TP2    -->  Z3SS   TP                 
      7.64833093E-02    2      1000035         6                       # TP2    -->  Z4SS   TP                 
#         PDG         Width
DECAY   1000011  9.18985367E+00   # EL-   decays
#          BR          NDA       ID1       ID2       ID3       ID4
      4.99110974E-05    2      1000022        11                       # EL-    -->  Z1SS   E-                 
      2.77752479E-05    2      1000023        11                       # EL-    -->  Z2SS   E-                 
      5.91456652E-01    2      1000025        11                       # EL-    -->  Z3SS   E-                 
      1.18205145E-01    2      1000035        11                       # EL-    -->  Z4SS   E-                 
      1.42809704E-05    2     -1000024        12                       # EL-    -->  W1SS-  NUE                
      2.90246308E-01    2     -1000037        12                       # EL-    -->  W2SS-  NUE                
#         PDG         Width
DECAY   1000013  9.18985367E+00   # MUL-  decays
#          BR          NDA       ID1       ID2       ID3       ID4
      4.99110974E-05    2      1000022        13                       # MUL-   -->  Z1SS   MU-                
      2.77752479E-05    2      1000023        13                       # MUL-   -->  Z2SS   MU-                
      5.91456652E-01    2      1000025        13                       # MUL-   -->  Z3SS   MU-                
      1.18205145E-01    2      1000035        13                       # MUL-   -->  Z4SS   MU-                
      1.42809704E-05    2     -1000024        14                       # MUL-   -->  W1SS-  NUM                
      2.90246308E-01    2     -1000037        14                       # MUL-   -->  W2SS-  NUM                
#         PDG         Width
DECAY   1000015  9.34704018E+00   # TAU1- decays
#          BR          NDA       ID1       ID2       ID3       ID4
      1.20934315E-01    2      1000022        15                       # TAU1-  -->  Z1SS   TAU-               
      1.19299263E-01    2      1000023        15                       # TAU1-  -->  Z2SS   TAU-               
      5.19879818E-01    2      1000025        15                       # TAU1-  -->  Z3SS   TAU-               
      2.39886597E-01    2     -1000024        16                       # TAU1-  -->  W1SS-  NUT                
#         PDG         Width
DECAY   1000012  8.93005848E+00   # NUEL  decays
#          BR          NDA       ID1       ID2       ID3       ID4
      6.08616741E-04    2      1000022        12                       # NUEL   -->  Z1SS   NUE                
      3.92570510E-04    2      1000023        12                       # NUEL   -->  Z2SS   NUE                
      5.87578058E-01    2      1000025        12                       # NUEL   -->  Z3SS   NUE                
      1.19018376E-01    2      1000035        12                       # NUEL   -->  Z4SS   NUE                
      1.91419304E-03    2      1000024        11                       # NUEL   -->  W1SS+  E-                 
      2.90488243E-01    2      1000037        11                       # NUEL   -->  W2SS+  E-                 
#         PDG         Width
DECAY   1000014  8.93005848E+00   # NUML  decays
#          BR          NDA       ID1       ID2       ID3       ID4
      6.08616741E-04    2      1000022        14                       # NUML   -->  Z1SS   NUM                
      3.92570510E-04    2      1000023        14                       # NUML   -->  Z2SS   NUM                
      5.87578058E-01    2      1000025        14                       # NUML   -->  Z3SS   NUM                
      1.19018376E-01    2      1000035        14                       # NUML   -->  Z4SS   NUM                
      1.91419304E-03    2      1000024        13                       # NUML   -->  W1SS+  MU-                
      2.90488243E-01    2      1000037        13                       # NUML   -->  W2SS+  MU-                
#         PDG         Width
DECAY   1000016  1.59564438E+01   # NUTL  decays
#          BR          NDA       ID1       ID2       ID3       ID4
      3.36553581E-04    2      1000022        16                       # NUTL   -->  Z1SS   NUT                
      2.17084060E-04    2      1000023        16                       # NUTL   -->  Z2SS   NUT                
      3.19770396E-01    2      1000025        16                       # NUTL   -->  Z3SS   NUT                
      5.24475984E-02    2      1000035        16                       # NUTL   -->  Z4SS   NUT                
      2.10036203E-01    2      1000024        15                       # NUTL   -->  W1SS+  TAU-               
      1.31691709E-01    2      1000037        15                       # NUTL   -->  W2SS+  TAU-               
      8.94971844E-03    2           24   1000015                       # NUTL   -->  W+     TAU1-              
      2.76550680E-01    2           37   1000015                       # NUTL   -->  H+     TAU1-              
#         PDG         Width
DECAY   2000011  6.03624678E+00   # ER-   decays
#          BR          NDA       ID1       ID2       ID3       ID4
      3.13105789E-04    2      1000022        11                       # ER-    -->  Z1SS   E-                 
      2.13882755E-04    2      1000023        11                       # ER-    -->  Z2SS   E-                 
      9.99473035E-01    2      1000025        11                       # ER-    -->  Z3SS   E-                 
      2.00763662E-19    3      1000015        11       -15             # ER-    -->  TAU1-  E-     TAU+        
      2.84543694E-19    3     -1000015        11        15             # ER-    -->  TAU1+  E-     TAU-        
      6.71355285E-29    3      1000015        12       -16             # ER-    -->  TAU1-  NUE    ANUT        
#         PDG         Width
DECAY   2000013  6.03624678E+00   # MUR-  decays
#          BR          NDA       ID1       ID2       ID3       ID4
      3.13105789E-04    2      1000022        13                       # MUR-   -->  Z1SS   MU-                
      2.13882755E-04    2      1000023        13                       # MUR-   -->  Z2SS   MU-                
      9.99473035E-01    2      1000025        13                       # MUR-   -->  Z3SS   MU-                
      2.00763662E-19    3      1000015        13       -15             # MUR-   -->  TAU1-  MU-    TAU+        
      2.84543694E-19    3     -1000015        13        15             # MUR-   -->  TAU1+  MU-    TAU-        
      5.14468103E-24    3      1000015        14       -16             # MUR-   -->  TAU1-  NUM    ANUT        
#         PDG         Width
DECAY   2000015  1.62139912E+01   # TAU2- decays
#          BR          NDA       ID1       ID2       ID3       ID4
      1.03815317E-01    2      1000022        15                       # TAU2-  -->  Z1SS   TAU-               
      1.02373958E-01    2      1000023        15                       # TAU2-  -->  Z2SS   TAU-               
      3.26496989E-01    2      1000025        15                       # TAU2-  -->  Z3SS   TAU-               
      5.36853820E-02    2      1000035        15                       # TAU2-  -->  Z4SS   TAU-               
      1.34711563E-05    2     -1000024        16                       # TAU2-  -->  W1SS-  NUT                
      1.35270312E-01    2     -1000037        16                       # TAU2-  -->  W2SS-  NUT                
      4.54233633E-03    2           23   1000015                       # TAU2-  -->  Z0     TAU1-              
      8.66364921E-04    2           25   1000015                       # TAU2-  -->  HL0    TAU1-              
      1.36583775E-01    2           36   1000015                       # TAU2-  -->  HA0    TAU1-              
      1.36352047E-01    2           35   1000015                       # TAU2-  -->  HH0    TAU1-              
#         PDG         Width
DECAY   1000023  7.49285009E-12   # Z2SS  decays
#          BR          NDA       ID1       ID2       ID3       ID4
      7.12201595E-01    2      1000022        22                       # Z2SS   -->  Z1SS   GM                 
      6.22853190E-02    3      1000022         2        -2             # Z2SS   -->  Z1SS   UP     UB          
      8.03173333E-02    3      1000022         1        -1             # Z2SS   -->  Z1SS   DN     DB          
      1.82199460E-02    3      1000022        11       -11             # Z2SS   -->  Z1SS   E-     E+          
      1.82199460E-02    3      1000022        13       -13             # Z2SS   -->  Z1SS   MU-    MU+         
      3.62519622E-02    3      1000022        12       -12             # Z2SS   -->  Z1SS   NUE    ANUE        
      3.62519622E-02    3      1000022        14       -14             # Z2SS   -->  Z1SS   NUM    ANUM        
      3.62519622E-02    3      1000022        16       -16             # Z2SS   -->  Z1SS   NUT    ANUT        
#         PDG         Width
DECAY   1000025  1.62282810E+01   # Z3SS  decays
#          BR          NDA       ID1       ID2       ID3       ID4
      1.57025628E-08    2      1000022        22                       # Z3SS   -->  Z1SS   GM                 
      1.69113878E-08    2      1000023        22                       # Z3SS   -->  Z2SS   GM                 
      1.22959055E-01    2      1000024       -24                       # Z3SS   -->  W1SS+  W-                 
      1.22959055E-01    2     -1000024        24                       # Z3SS   -->  W1SS-  W+                 
      1.24292761E-01    2      1000024       -37                       # Z3SS   -->  W1SS+  H-                 
      1.24292761E-01    2     -1000024        37                       # Z3SS   -->  W1SS-  H+                 
      4.88607772E-02    2      1000022        23                       # Z3SS   -->  Z1SS   Z0                 
      7.34885931E-02    2      1000023        23                       # Z3SS   -->  Z2SS   Z0                 
      3.59820021E-11    3      1000022         2        -2             # Z3SS   -->  Z1SS   UP     UB          
      6.94031291E-12    3      1000022         1        -1             # Z3SS   -->  Z1SS   DN     DB          
      6.94031291E-12    3      1000022         3        -3             # Z3SS   -->  Z1SS   ST     SB          
      3.59820021E-11    3      1000022         4        -4             # Z3SS   -->  Z1SS   CH     CB          
      1.36234561E-08    3      1000022         5        -5             # Z3SS   -->  Z1SS   BT     BB          
      5.33417754E-09    3      1000022        11       -11             # Z3SS   -->  Z1SS   E-     E+          
      5.33417754E-09    3      1000022        13       -13             # Z3SS   -->  Z1SS   MU-    MU+         
      4.75929573E-06    3      1000022        15       -15             # Z3SS   -->  Z1SS   TAU-   TAU+        
      4.36649356E-10    3      1000022        12       -12             # Z3SS   -->  Z1SS   NUE    ANUE        
      4.36649356E-10    3      1000022        14       -14             # Z3SS   -->  Z1SS   NUM    ANUM        
      4.60731786E-10    3      1000022        16       -16             # Z3SS   -->  Z1SS   NUT    ANUT        
      2.20963716E-11    3      1000023         2        -2             # Z3SS   -->  Z2SS   UP     UB          
      4.08468355E-12    3      1000023         1        -1             # Z3SS   -->  Z2SS   DN     DB          
      4.08468355E-12    3      1000023         3        -3             # Z3SS   -->  Z2SS   ST     SB          
      2.20963716E-11    3      1000023         4        -4             # Z3SS   -->  Z2SS   CH     CB          
      1.34361411E-08    3      1000023         5        -5             # Z3SS   -->  Z2SS   BT     BB          
      3.35268768E-09    3      1000023        11       -11             # Z3SS   -->  Z2SS   E-     E+          
      3.35268768E-09    3      1000023        13       -13             # Z3SS   -->  Z2SS   MU-    MU+         
      4.69383394E-06    3      1000023        15       -15             # Z3SS   -->  Z2SS   TAU-   TAU+        
      2.56537930E-10    3      1000023        12       -12             # Z3SS   -->  Z2SS   NUE    ANUE        
      2.56537930E-10    3      1000023        14       -14             # Z3SS   -->  Z2SS   NUM    ANUM        
      2.70746398E-10    3      1000023        16       -16             # Z3SS   -->  Z2SS   NUT    ANUT        
      8.38504359E-02    2      1000022        25                       # Z3SS   -->  Z1SS   HL0                
      5.57161979E-02    2      1000022        35                       # Z3SS   -->  Z1SS   HH0                
      6.53980821E-02    2      1000022        36                       # Z3SS   -->  Z1SS   HA0                
      5.83185144E-02    2      1000023        25                       # Z3SS   -->  Z2SS   HL0                
      6.46276250E-02    2      1000023        35                       # Z3SS   -->  Z2SS   HH0                
      5.52266128E-02    2      1000023        36                       # Z3SS   -->  Z2SS   HA0                
#         PDG         Width
DECAY   1000035  1.10231102E+02   # Z4SS  decays
#          BR          NDA       ID1       ID2       ID3       ID4
      8.62192717E-09    2      1000022        22                       # Z4SS   -->  Z1SS   GM                 
      9.03143960E-09    2      1000023        22                       # Z4SS   -->  Z2SS   GM                 
      3.85432308E-09    2      1000025        22                       # Z4SS   -->  Z3SS   GM                 
      1.40074283E-01    2      1000024       -24                       # Z4SS   -->  W1SS+  W-                 
      1.40074283E-01    2     -1000024        24                       # Z4SS   -->  W1SS-  W+                 
      1.20764129E-01    2      1000024       -37                       # Z4SS   -->  W1SS+  H-                 
      1.20764129E-01    2     -1000024        37                       # Z4SS   -->  W1SS-  H+                 
      4.27141998E-07    2      1000037       -24                       # Z4SS   -->  W2SS+  W-                 
      4.27141998E-07    2     -1000037        24                       # Z4SS   -->  W2SS-  W+                 
      4.00823206E-02    2      1000022        23                       # Z4SS   -->  Z1SS   Z0                 
      6.59723952E-02    2      1000023        23                       # Z4SS   -->  Z2SS   Z0                 
      4.17044703E-06    2      1000025        23                       # Z4SS   -->  Z3SS   Z0                 
      2.23098942E-10    3      1000022         2        -2             # Z4SS   -->  Z1SS   UP     UB          
      4.69857209E-10    3      1000022         1        -1             # Z4SS   -->  Z1SS   DN     DB          
      4.69857209E-10    3      1000022         3        -3             # Z4SS   -->  Z1SS   ST     SB          
      2.23098942E-10    3      1000022         4        -4             # Z4SS   -->  Z1SS   CH     CB          
      6.44248018E-07    3      1000022         5        -5             # Z4SS   -->  Z1SS   BT     BB          
      7.75911890E-10    3      1000022        11       -11             # Z4SS   -->  Z1SS   E-     E+          
      7.75911890E-10    3      1000022        13       -13             # Z4SS   -->  Z1SS   MU-    MU+         
      3.09608936E-06    3      1000022        15       -15             # Z4SS   -->  Z1SS   TAU-   TAU+        
      9.41569134E-09    3      1000022        12       -12             # Z4SS   -->  Z1SS   NUE    ANUE        
      9.41569134E-09    3      1000022        14       -14             # Z4SS   -->  Z1SS   NUM    ANUM        
      1.03519326E-08    3      1000022        16       -16             # Z4SS   -->  Z1SS   NUT    ANUT        
      1.29471295E-10    3      1000023         2        -2             # Z4SS   -->  Z2SS   UP     UB          
      2.82341900E-10    3      1000023         1        -1             # Z4SS   -->  Z2SS   DN     DB          
      2.82341900E-10    3      1000023         3        -3             # Z4SS   -->  Z2SS   ST     SB          
      1.29471295E-10    3      1000023         4        -4             # Z4SS   -->  Z2SS   CH     CB          
      6.35159495E-07    3      1000023         5        -5             # Z4SS   -->  Z2SS   BT     BB          
      4.16933432E-10    3      1000023        11       -11             # Z4SS   -->  Z2SS   E-     E+          
      4.16933432E-10    3      1000023        13       -13             # Z4SS   -->  Z2SS   MU-    MU+         
      3.05298590E-06    3      1000023        15       -15             # Z4SS   -->  Z2SS   TAU-   TAU+        
      5.86510218E-09    3      1000023        12       -12             # Z4SS   -->  Z2SS   NUE    ANUE        
      5.86510218E-09    3      1000023        14       -14             # Z4SS   -->  Z2SS   NUM    ANUM        
      6.45452802E-09    3      1000023        16       -16             # Z4SS   -->  Z2SS   NUT    ANUT        
      2.68933036E-08    3      1000025         2        -2             # Z4SS   -->  Z3SS   UP     UB          
      2.45457752E-08    3      1000025         1        -1             # Z4SS   -->  Z3SS   DN     DB          
      2.45457752E-08    3      1000025         3        -3             # Z4SS   -->  Z3SS   ST     SB          
      2.68933036E-08    3      1000025         4        -4             # Z4SS   -->  Z3SS   CH     CB          
      4.97034662E-08    3      1000025         5        -5             # Z4SS   -->  Z3SS   BT     BB          
      4.07325888E-06    3      1000025        11       -11             # Z4SS   -->  Z3SS   E-     E+          
      4.07325888E-06    3      1000025        13       -13             # Z4SS   -->  Z3SS   MU-    MU+         
      4.53978237E-06    3      1000025        15       -15             # Z4SS   -->  Z3SS   TAU-   TAU+        
      4.04699904E-06    3      1000025        12       -12             # Z4SS   -->  Z3SS   NUE    ANUE        
      4.04699904E-06    3      1000025        14       -14             # Z4SS   -->  Z3SS   NUM    ANUM        
      4.54212704E-06    3      1000025        16       -16             # Z4SS   -->  Z3SS   NUT    ANUT        
      7.42617697E-02    2      1000022        25                       # Z4SS   -->  Z1SS   HL0                
      5.47994263E-02    2      1000022        35                       # Z4SS   -->  Z1SS   HH0                
      6.77239746E-02    2      1000022        36                       # Z4SS   -->  Z1SS   HA0                
      5.41073531E-02    2      1000023        25                       # Z4SS   -->  Z2SS   HL0                
      6.70558959E-02    2      1000023        35                       # Z4SS   -->  Z2SS   HH0                
      5.42171076E-02    2      1000023        36                       # Z4SS   -->  Z2SS   HA0                
      6.15842946E-05    2      1000025        25                       # Z4SS   -->  Z3SS   HL0                
      8.05766192E-08    2      1000025        35                       # Z4SS   -->  Z3SS   HH0                
      1.27275641E-07    2      1000025        36                       # Z4SS   -->  Z3SS   HA0                
      4.67088739E-07    2      2000011       -11                       # Z4SS   -->  ER-    E+                 
      4.67088739E-07    2     -2000011        11                       # Z4SS   -->  ER+    E-                 
      4.67088739E-07    2      2000013       -13                       # Z4SS   -->  MUR-   MU+                
      4.67088739E-07    2     -2000013        13                       # Z4SS   -->  MUR+   MU-                
      7.07325114E-07    2      1000015       -15                       # Z4SS   -->  TAU1-  TAU+               
      7.07325114E-07    2     -1000015        15                       # Z4SS   -->  TAU1+  TAU-               
#         PDG         Width
DECAY   1000024  7.71211361E-09   # W1SS+ decays
#          BR          NDA       ID1       ID2       ID3       ID4
      2.63570189E-01    3      1000022         2        -1             # W1SS+  -->  Z1SS   UP     DB          
      2.63570189E-01    3      1000022         4        -3             # W1SS+  -->  Z1SS   CH     SB          
      8.78567323E-02    3      1000022       -11        12             # W1SS+  -->  Z1SS   E+     NUE         
      8.78567323E-02    3      1000022       -13        14             # W1SS+  -->  Z1SS   MU+    NUM         
      8.78580138E-02    3      1000022       -15        16             # W1SS+  -->  Z1SS   TAU+   NUT         
      6.97627515E-02    3      1000023         2        -1             # W1SS+  -->  Z2SS   UP     DB          
      6.97627515E-02    3      1000023         4        -3             # W1SS+  -->  Z2SS   CH     SB          
      2.32542492E-02    3      1000023       -11        12             # W1SS+  -->  Z2SS   E+     NUE         
      2.32542492E-02    3      1000023       -13        14             # W1SS+  -->  Z2SS   MU+    NUM         
      2.32542492E-02    3      1000023       -15        16             # W1SS+  -->  Z2SS   TAU+   NUT         
#         PDG         Width
DECAY   1000037  1.04241928E+02   # W2SS+ decays
#          BR          NDA       ID1       ID2       ID3       ID4
      6.51483534E-10    3      1000022         2        -1             # W2SS+  -->  Z1SS   UP     DB          
      6.51483534E-10    3      1000022         4        -3             # W2SS+  -->  Z1SS   CH     SB          
      9.39949540E-09    3      1000022       -11        12             # W2SS+  -->  Z1SS   E+     NUE         
      9.39949540E-09    3      1000022       -13        14             # W2SS+  -->  Z1SS   MU+    NUM         
      2.95906216E-06    3      1000022       -15        16             # W2SS+  -->  Z1SS   TAU+   NUT         
      1.09076507E-01    2      1000022        24                       # W2SS+  -->  Z1SS   W+                 
      1.27470747E-01    2      1000022        37                       # W2SS+  -->  Z1SS   H+                 
      4.28888119E-10    3      1000023         2        -1             # W2SS+  -->  Z2SS   UP     DB          
      4.28888119E-10    3      1000023         4        -3             # W2SS+  -->  Z2SS   CH     SB          
      6.11212458E-09    3      1000023       -11        12             # W2SS+  -->  Z2SS   E+     NUE         
      6.11212458E-09    3      1000023       -13        14             # W2SS+  -->  Z2SS   MU+    NUM         
      2.91488550E-06    3      1000023       -15        16             # W2SS+  -->  Z2SS   TAU+   NUT         
      1.04184859E-01    2      1000023        24                       # W2SS+  -->  Z2SS   W+                 
      1.25763789E-01    2      1000023        37                       # W2SS+  -->  Z2SS   H+                 
      4.78829882E-08    3      1000025         2        -1             # W2SS+  -->  Z3SS   UP     DB          
      4.78829882E-08    3      1000025         4        -3             # W2SS+  -->  Z3SS   CH     SB          
      7.23074299E-06    3      1000025       -11        12             # W2SS+  -->  Z3SS   E+     NUE         
      7.23074299E-06    3      1000025       -13        14             # W2SS+  -->  Z3SS   MU+    NUM         
      8.05181298E-06    3      1000025       -15        16             # W2SS+  -->  Z3SS   TAU+   NUT         
      2.11941879E-02    2      1000025        24                       # W2SS+  -->  Z3SS   W+                 
      1.64655049E-07    2      1000025        37                       # W2SS+  -->  Z3SS   H+                 
      2.53018811E-07    2     -1000015        16                       # W2SS+  -->  TAU1+  NUT                
      1.25565961E-01    2      1000024        23                       # W2SS+  -->  W1SS+  Z0                 
      2.44128295E-09    3      1000024         1        -1             # W2SS+  -->  W1SS+  DN     DB          
      2.44128295E-09    3      1000024         3        -3             # W2SS+  -->  W1SS+  ST     SB          
      1.87156245E-11    3      1000024         2        -2             # W2SS+  -->  W1SS+  UP     UB          
      1.87156245E-11    3      1000024         4        -4             # W2SS+  -->  W1SS+  CH     CB          
      2.08619413E-10    3      1000024        12       -12             # W2SS+  -->  W1SS+  NUE    ANUE        
      2.08619413E-10    3      1000024        14       -14             # W2SS+  -->  W1SS+  NUM    ANUM        
      2.75529466E-08    3      1000024        11       -11             # W2SS+  -->  W1SS+  E-     E+          
      2.75529466E-08    3      1000024        13       -13             # W2SS+  -->  W1SS+  MU-    MU+         
      3.01900158E-08    3      1000024        15       -15             # W2SS+  -->  W1SS+  TAU-   TAU+        
      1.33615628E-01    2      1000024        25                       # W2SS+  -->  W1SS+  HL0                
      1.26504153E-01    2      1000024        35                       # W2SS+  -->  W1SS+  HH0                
      1.26595214E-01    2      1000024        36                       # W2SS+  -->  W1SS+  HA0                
#         PDG         Width
DECAY        25  4.04615188E-03   # HL0   decays
#          BR          NDA       ID1       ID2       ID3       ID4
      5.54675683E-09    2           11       -11                       # HL0    -->  E-     E+                 
      2.34193125E-04    2           13       -13                       # HL0    -->  MU-    MU+                
      6.69966713E-02    2           15       -15                       # HL0    -->  TAU-   TAU+               
      6.95235985E-06    2            1        -1                       # HL0    -->  DN     DB                 
      2.80910218E-03    2            3        -3                       # HL0    -->  ST     SB                 
      6.01919591E-01    2            5        -5                       # HL0    -->  BT     BB                 
      2.12086979E-06    2            2        -2                       # HL0    -->  UP     UB                 
      3.93753834E-02    2            4        -4                       # HL0    -->  CH     CB                 
      2.64861924E-03    2           22        22                       # HL0    -->  GM     GM                 
      5.32310382E-02    2           21        21                       # HL0    -->  GL     GL                 
      1.16091724E-02    3           24        11       -12             # HL0    -->  W+     E-     ANUE        
      1.16091724E-02    3           24        13       -14             # HL0    -->  W+     MU-    ANUM        
      1.16091724E-02    3           24        15       -16             # HL0    -->  W+     TAU-   ANUT        
      3.48275192E-02    3           24        -2         1             # HL0    -->  W+     UB     DN          
      3.48275192E-02    3           24        -4         3             # HL0    -->  W+     CB     ST          
      1.16091724E-02    3          -24       -11        12             # HL0    -->  W-     E+     NUE         
      1.16091724E-02    3          -24       -13        14             # HL0    -->  W-     MU+    NUM         
      1.16091724E-02    3          -24       -15        16             # HL0    -->  W-     TAU+   NUT         
      3.48275192E-02    3          -24         2        -1             # HL0    -->  W-     UP     DB          
      3.48275192E-02    3          -24         4        -3             # HL0    -->  W-     CH     SB          
      1.62845210E-03    3           23        12       -12             # HL0    -->  Z0     NUE    ANUE        
      1.62845210E-03    3           23        14       -14             # HL0    -->  Z0     NUM    ANUM        
      1.62845210E-03    3           23        16       -16             # HL0    -->  Z0     NUT    ANUT        
      8.19583598E-04    3           23        11       -11             # HL0    -->  Z0     E-     E+          
      8.19583598E-04    3           23        13       -13             # HL0    -->  Z0     MU-    MU+         
      8.19583598E-04    3           23        15       -15             # HL0    -->  Z0     TAU-   TAU+        
      2.80782394E-03    3           23         2        -2             # HL0    -->  Z0     UP     UB          
      2.80782394E-03    3           23         4        -4             # HL0    -->  Z0     CH     CB          
      3.61716910E-03    3           23         1        -1             # HL0    -->  Z0     DN     DB          
      3.61716910E-03    3           23         3        -3             # HL0    -->  Z0     ST     SB          
      3.61716910E-03    3           23         5        -5             # HL0    -->  Z0     BT     BB          
#         PDG         Width
DECAY        35  3.53174806E+00   # HH0   decays
#          BR          NDA       ID1       ID2       ID3       ID4
      1.08962874E-08    2           11       -11                       # HH0    -->  E-     E+                 
      4.60060895E-04    2           13       -13                       # HH0    -->  MU-    MU+                
      1.31766036E-01    2           15       -15                       # HH0    -->  TAU-   TAU+               
      1.33480007E-05    2            1        -1                       # HH0    -->  DN     DB                 
      5.39326761E-03    2            3        -3                       # HH0    -->  ST     SB                 
      8.03334594E-01    2            5        -5                       # HH0    -->  BT     BB                 
      8.84875090E-11    2            2        -2                       # HH0    -->  UP     UB                 
      1.24616861E-06    2            4        -4                       # HH0    -->  CH     CB                 
      5.68472818E-02    2            6        -6                       # HH0    -->  TP     TB                 
      1.49769562E-07    2           22        22                       # HH0    -->  GM     GM                 
      2.31518243E-05    2           21        21                       # HH0    -->  GL     GL                 
      2.32290055E-04    2           24       -24                       # HH0    -->  W+     W-                 
      1.17937409E-04    2           23        23                       # HH0    -->  Z0     Z0                 
      1.72978122E-04    2      1000022   1000022                       # HH0    -->  Z1SS   Z1SS               
      1.00937150E-05    2      1000022   1000023                       # HH0    -->  Z1SS   Z2SS               
      1.44472389E-04    2      1000023   1000023                       # HH0    -->  Z2SS   Z2SS               
      6.10467512E-04    2      1000024  -1000024                       # HH0    -->  W1SS+  W1SS-              
      8.72686040E-04    2           25        25                       # HH0    -->  HL0    HL0                
#         PDG         Width
DECAY        36  3.51821923E+00   # HA0   decays
#          BR          NDA       ID1       ID2       ID3       ID4
      1.08680673E-08    2           11       -11                       # HA0    -->  E-     E+                 
      4.58869414E-04    2           13       -13                       # HA0    -->  MU-    MU+                
      1.31426409E-01    2           15       -15                       # HA0    -->  TAU-   TAU+               
      1.33141657E-05    2            1        -1                       # HA0    -->  DN     DB                 
      5.37959719E-03    2            3        -3                       # HA0    -->  ST     SB                 
      8.01334143E-01    2            5        -5                       # HA0    -->  BT     BB                 
      8.41503325E-11    2            2        -2                       # HA0    -->  UP     UB                 
      1.18602111E-06    2            4        -4                       # HA0    -->  CH     CB                 
      6.00948110E-02    2            6        -6                       # HA0    -->  TP     TB                 
      3.30190687E-07    2           22        22                       # HA0    -->  GM     GM                 
      7.10617533E-05    2           21        21                       # HA0    -->  GL     GL                 
      2.33825951E-04    2      1000022   1000022                       # HA0    -->  Z1SS   Z1SS               
      4.90064394E-07    2      1000022   1000023                       # HA0    -->  Z1SS   Z2SS               
      1.13859722E-04    2      1000023   1000023                       # HA0    -->  Z2SS   Z2SS               
      6.48694462E-04    2      1000024  -1000024                       # HA0    -->  W1SS+  W1SS-              
      2.23418800E-04    2           25        23                       # HA0    -->  HL0    Z0                 
#         PDG         Width
DECAY        37  3.11720634E+00   # H+    decays
#          BR          NDA       ID1       ID2       ID3       ID4
      1.23057937E-08    2           12       -11                       # H+     -->  NUE    E+                 
      5.19572815E-04    2           14       -13                       # H+     -->  NUM    MU+                
      1.48812681E-01    2           16       -15                       # H+     -->  NUT    TAU+               
      1.38567775E-05    2            2        -1                       # H+     -->  UP     DB                 
      5.60001703E-03    2            4        -3                       # H+     -->  CH     SB                 
      8.44767451E-01    2            6        -5                       # H+     -->  TP     BB                 
      8.18521130E-06    2      1000024   1000022                       # H+     -->  W1SS+  Z1SS               
      2.53746293E-05    2      1000024   1000023                       # H+     -->  W1SS+  Z2SS               
      2.52881699E-04    2           25        24                       # H+     -->  HL0    W+                 
