#  ISAJET SUSY parameters in SUSY Les Houches Accord 2 format
#  Created by ISALHA 2.0 Last revision: H Baer 27 May 2014
Block SPINFO   # Program information
     1   ISASUGRA/ISASUSY from ISAJET   # Spectrum Calculator
     2   7.87   18-JUL-2017 13:55:55    # Version number
Block MODSEL   # Model selection
     1    13   # Non-universal supergravity model                  
Block SMINPUTS   # Standard Model inputs
     1     1.28000000E+02   # alpha_em^(-1)
     2     1.16570000E-05   # G_Fermi
     3     1.19999997E-01   # alpha_s(M_Z)
     4     9.11699982E+01   # m_{Z}(pole)
     5     4.19999981E+00   # m_{b}(m_{b})
     6     1.72500000E+02   # m_{top}(pole)
     7     1.77699995E+00   # m_{tau}(pole)
Block MINPAR   # SUSY breaking input parameters
     1     5.00000000E+03   # m_0
     2     2.00000000E+03   # m_{1/2}
     3     1.50000000E+01   # tan(beta)
     4     1.00000000E+00   # sign(mu)
     5    -8.00000000E+03   # A_0
Block EXTPAR   # Non-universal SUSY breaking parameters
     0     1.40989571E+16   # Input scale
    21     1.83190338E+06   # Down type Higgs mass squared
    22     4.79019480E+07   #  Up  type Higgs mass squared
Block MASS   # Scalar and gaugino mass spectrum
#  PDG code   mass                 particle
         6     1.72500000E+02   #  top            
        24     8.04229965E+01   #  W^+
        25     1.25233406E+02   #  h^0            
        35     1.00666821E+03   #  H^0            
        36     1.00000000E+03   #  A^0            
        37     1.00322870E+03   #  H^+            
   1000001     6.19649316E+03   #  dnl            
   1000002     6.19597266E+03   #  upl            
   1000003     6.19649316E+03   #  stl            
   1000004     6.19597266E+03   #  chl            
   1000005     4.66086084E+03   #  b1             
   1000006     2.53530762E+03   #  t1             
   1000011     5.26847021E+03   #  el-            
   1000012     5.27200098E+03   #  nuel           
   1000013     5.26847021E+03   #  mul-           
   1000014     5.27200098E+03   #  numl           
   1000015     4.65013623E+03   #  tau1           
   1000016     5.19793506E+03   #  nutl           
   1000021     4.40890820E+03   #  glss           
   1000022     1.10613701E+02   #  z1ss           
   1000023    -1.16119270E+02   #  z2ss           
   1000024     1.17810760E+02   #  w1ss           
   1000025     8.95611755E+02   #  z3ss           
   1000035     1.68735535E+03   #  z4ss           
   1000037     1.66765027E+03   #  w2ss           
   1000039     1.00000002E+20   #  gvss
   2000001     6.07401904E+03   #  dnr            
   2000002     6.26675098E+03   #  upr            
   2000003     6.07401904E+03   #  str            
   2000004     6.26675098E+03   #  chr            
   2000005     5.87852734E+03   #  b2             
   2000006     4.64540869E+03   #  t2             
   2000011     4.81893994E+03   #  er-            
   2000013     4.81893994E+03   #  mur-           
   2000015     5.19253369E+03   #  tau2           
Block ALPHA   # Effective Higgs mixing parameter
         -6.81446940E-02   # alpha
Block STOPMIX   # stop mixing matrix
  1  1     5.76094277E-02   # O_{11}
  1  2     9.98339176E-01   # O_{12}
  2  1    -9.98339176E-01   # O_{21}
  2  2     5.76094277E-02   # O_{22}
Block SBOTMIX   # sbottom mixing matrix
  1  1     9.99993443E-01   # O_{11}
  1  2     3.61432158E-03   # O_{12}
  2  1    -3.61432158E-03   # O_{21}
  2  2     9.99993443E-01   # O_{22}
Block STAUMIX   # stau mixing matrix
  1  1     6.62865955E-03   # O_{11}
  1  2     9.99978006E-01   # O_{12}
  2  1    -9.99978006E-01   # O_{21}
  2  2     6.62865955E-03   # O_{22}
Block NMIX   # neutralino mixing matrix
  1  1    -3.99523042E-02   #
  1  2     3.76164429E-02   #
  1  3    -7.15013385E-01   #
  1  4     6.96954072E-01   #
  2  1     2.76694167E-02   #
  2  2    -2.74766013E-02   #
  2  3    -6.99007332E-01   #
  2  4    -7.14050651E-01   #
  3  1     9.98801589E-01   #
  3  2     8.08046758E-03   #
  3  3    -9.19112843E-03   #
  3  4     4.73900698E-02   #
  4  1    -5.81414998E-03   #
  4  2     9.98882115E-01   #
  4  3     7.77303381E-03   #
  4  4    -4.62713465E-02   #
Block UMIX   # chargino U mixing matrix
  1  1    -9.78016388E-03   # U_{11}
  1  2     9.99952197E-01   # U_{12}
  2  1    -9.99952197E-01   # U_{21}
  2  2    -9.78016388E-03   # U_{22}
Block VMIX   # chargino V mixing matrix
  1  1    -6.58887103E-02   # V_{11}
  1  2     9.97826993E-01   # V_{12}
  2  1    -9.97826993E-01   # V_{21}
  2  2    -6.58887103E-02   # V_{22}
Block GAUGE Q=  3.38878882E+03   #
     1     3.57524872E-01   # g`
     2     6.52378559E-01   # g_2
     3     1.21927857E+00   # g_3
Block YU Q=  3.38878882E+03   #
  3  3     8.11206460E-01   # y_t
Block YD Q=  3.38878882E+03   #
  3  3     1.85856342E-01   # y_b
Block YE Q=  3.38878882E+03   #
  3  3     1.49670273E-01   # y_tau
Block HMIX Q=  3.38878882E+03   # Higgs mixing parameters
     1     1.10000000E+02   # mu(Q)
     2     1.43057528E+01   # tan(beta)(Q)
     3     2.52426636E+02   # Higgs vev at Q
     4     1.00000000E+06   # m_A^2(Q)
Block MSOFT Q=  3.38878882E+03   # DRbar SUSY breaking parameters
     1     8.93720032E+02   # M_1(Q)          
     2     1.61529797E+03   # M_2(Q)          
     3     4.05850415E+03   # M_3(Q)          
    21     9.69384063E+05   # MHd^2(Q)        
    22    -6.57893896E+03   # MHu^2(Q)        
    31     5.24955957E+03   # MeL(Q)          
    32     5.24955957E+03   # MmuL(Q)         
    33     5.17751318E+03   # MtauL(Q)        
    34     4.81510693E+03   # MeR(Q)          
    35     4.81510693E+03   # MmuR(Q)         
    36     4.64933105E+03   # MtauR(Q)        
    41     6.00123291E+03   # MqL1(Q)         
    42     6.00123291E+03   # MqL2(Q)         
    43     4.52525146E+03   # MqL3(Q)         
    44     6.07268311E+03   # MuR(Q)          
    45     6.07268311E+03   # McR(Q)          
    46     2.53773511E+03   # MtR(Q)          
    47     5.87752441E+03   # MdR(Q)          
    48     5.87752441E+03   # MsR(Q)          
    49     5.77695996E+03   # MbR(Q)          
Block AU Q=  3.38878882E+03   #
  1  1    -6.24449414E+03   # A_u
  2  2    -6.24449414E+03   # A_c
  3  3    -6.24449414E+03   # A_t
Block AD Q=  3.38878882E+03   #
  1  1    -1.12843115E+04   # A_d
  2  2    -1.12843115E+04   # A_s
  3  3    -1.12843115E+04   # A_b
Block AE Q=  3.38878882E+03   #
  1  1    -8.76701953E+03   # A_e
  2  2    -8.76701953E+03   # A_mu
  3  3    -8.76701953E+03   # A_tau
#  ISAJET decay tables in SUSY Les Houches accord format
#  Created by ISALHD. Last revision: C. Balazs, 2005 May 25
Block DCINFO                           # Program information
     1   ISASUGRA from ISAJET          # Spectrum Calculator
     2   7.87   18-JUL-2017 13:55:55   # Version number
#         PDG         Width
DECAY         6  1.46776152E+00   # TP    decays
#          BR          NDA       ID1       ID2       ID3       ID4
      3.33333313E-01    3            2        -1         5             # TP     -->  UP     DB     BT          
      3.33333313E-01    3            4        -3         5             # TP     -->  CH     SB     BT          
      1.11111097E-01    3          -11        12         5             # TP     -->  E+     NUE    BT          
      1.11111097E-01    3          -13        14         5             # TP     -->  MU+    NUM    BT          
      1.11111097E-01    3          -15        16         5             # TP     -->  TAU+   NUT    BT          
#         PDG         Width
DECAY   1000021  3.91683197E+01   # GLSS  decays
#          BR          NDA       ID1       ID2       ID3       ID4
      4.77351819E-07    3      1000024         1        -2             # GLSS   -->  W1SS+  DN     UB          
      4.77351819E-07    3     -1000024         2        -1             # GLSS   -->  W1SS-  UP     DB          
      4.77351819E-07    3      1000024         3        -4             # GLSS   -->  W1SS+  ST     CB          
      4.77351819E-07    3     -1000024         4        -3             # GLSS   -->  W1SS-  CH     SB          
      1.10917911E-03    3      1000024         5        -6             # GLSS   -->  W1SS+  BT     TB          
      1.10917911E-03    3     -1000024         6        -5             # GLSS   -->  W1SS-  TP     BB          
      1.20075732E-04    3      1000037         1        -2             # GLSS   -->  W2SS+  DN     UB          
      1.20075732E-04    3     -1000037         2        -1             # GLSS   -->  W2SS-  UP     DB          
      1.20075732E-04    3      1000037         3        -4             # GLSS   -->  W2SS+  ST     CB          
      1.20075732E-04    3     -1000037         4        -3             # GLSS   -->  W2SS-  CH     SB          
      8.78607912E-04    3      1000037         5        -6             # GLSS   -->  W2SS+  BT     TB          
      8.78607912E-04    3     -1000037         6        -5             # GLSS   -->  W2SS-  TP     BB          
      4.50213793E-06    2      1000022        21                       # GLSS   -->  Z1SS   GL                 
      1.90815769E-07    3      1000022         2        -2             # GLSS   -->  Z1SS   UP     UB          
      2.49554262E-07    3      1000022         1        -1             # GLSS   -->  Z1SS   DN     DB          
      2.49554262E-07    3      1000022         3        -3             # GLSS   -->  Z1SS   ST     SB          
      1.90815769E-07    3      1000022         4        -4             # GLSS   -->  Z1SS   CH     CB          
      9.87593958E-05    3      1000022         5        -5             # GLSS   -->  Z1SS   BT     BB          
      9.88519634E-04    3      1000022         6        -6             # GLSS   -->  Z1SS   TP     TB          
      4.71398516E-06    2      1000023        21                       # GLSS   -->  Z2SS   GL                 
      9.05389470E-08    3      1000023         2        -2             # GLSS   -->  Z2SS   UP     UB          
      1.19449155E-07    3      1000023         1        -1             # GLSS   -->  Z2SS   DN     DB          
      1.19449155E-07    3      1000023         3        -3             # GLSS   -->  Z2SS   ST     SB          
      9.05389470E-08    3      1000023         4        -4             # GLSS   -->  Z2SS   CH     CB          
      9.37133591E-05    3      1000023         5        -5             # GLSS   -->  Z2SS   BT     BB          
      1.03762129E-03    3      1000023         6        -6             # GLSS   -->  Z2SS   TP     TB          
      4.50313507E-07    2      1000025        21                       # GLSS   -->  Z3SS   GL                 
      5.58695428E-05    3      1000025         2        -2             # GLSS   -->  Z3SS   UP     UB          
      1.85466870E-05    3      1000025         1        -1             # GLSS   -->  Z3SS   DN     DB          
      1.85466870E-05    3      1000025         3        -3             # GLSS   -->  Z3SS   ST     SB          
      5.58695428E-05    3      1000025         4        -4             # GLSS   -->  Z3SS   CH     CB          
      3.88667540E-05    3      1000025         5        -5             # GLSS   -->  Z3SS   BT     BB          
      2.82128476E-05    3      1000025         6        -6             # GLSS   -->  Z3SS   TP     TB          
      1.47636383E-08    2      1000035        21                       # GLSS   -->  Z4SS   GL                 
      5.87468930E-05    3      1000035         2        -2             # GLSS   -->  Z4SS   UP     UB          
      5.89697047E-05    3      1000035         1        -1             # GLSS   -->  Z4SS   DN     DB          
      5.89697047E-05    3      1000035         3        -3             # GLSS   -->  Z4SS   ST     SB          
      5.87468930E-05    3      1000035         4        -4             # GLSS   -->  Z4SS   CH     CB          
      4.31926048E-04    3      1000035         5        -5             # GLSS   -->  Z4SS   BT     BB          
      4.32710367E-04    3      1000035         6        -6             # GLSS   -->  Z4SS   TP     TB          
      4.95998353E-01    2     -1000006         6                       # GLSS   -->  TB1    TP                 
      4.95998353E-01    2      1000006        -6                       # GLSS   -->  TP1    TB                 
#         PDG         Width
DECAY   1000002  1.46219391E+02   # UPL   decays
#          BR          NDA       ID1       ID2       ID3       ID4
      1.63619945E-04    2      1000022         2                       # UPL    -->  Z1SS   UP                 
      8.94938639E-05    2      1000023         2                       # UPL    -->  Z2SS   UP                 
      6.24240004E-03    2      1000025         2                       # UPL    -->  Z3SS   UP                 
      1.52225107E-01    2      1000035         2                       # UPL    -->  Z4SS   UP                 
      5.34141839E-01    2      1000021         2                       # UPL    -->  GLSS   UP                 
      1.54758501E-03    2      1000024         1                       # UPL    -->  W1SS+  DN                 
      3.05589974E-01    2      1000037         1                       # UPL    -->  W2SS+  DN                 
#         PDG         Width
DECAY   1000001  1.46219559E+02   # DNL   decays
#          BR          NDA       ID1       ID2       ID3       ID4
      3.59968370E-04    2      1000022         1                       # DNL    -->  Z1SS   DN                 
      1.88815786E-04    2      1000023         1                       # DNL    -->  Z2SS   DN                 
      5.23153925E-03    2      1000025         1                       # DNL    -->  Z3SS   DN                 
      1.52892619E-01    2      1000035         1                       # DNL    -->  Z4SS   DN                 
      5.34366369E-01    2      1000021         1                       # DNL    -->  GLSS   DN                 
      3.41005070E-05    2     -1000024         2                       # DNL    -->  W1SS-  UP                 
      3.06926578E-01    2     -1000037         2                       # DNL    -->  W2SS-  UP                 
#         PDG         Width
DECAY   1000003  1.46219559E+02   # STL   decays
#          BR          NDA       ID1       ID2       ID3       ID4
      3.59968370E-04    2      1000022         3                       # STL    -->  Z1SS   ST                 
      1.88815786E-04    2      1000023         3                       # STL    -->  Z2SS   ST                 
      5.23153925E-03    2      1000025         3                       # STL    -->  Z3SS   ST                 
      1.52892619E-01    2      1000035         3                       # STL    -->  Z4SS   ST                 
      5.34366369E-01    2      1000021         3                       # STL    -->  GLSS   ST                 
      3.41004998E-05    2     -1000024         4                       # STL    -->  W1SS-  CH                 
      3.06926548E-01    2     -1000037         4                       # STL    -->  W2SS-  CH                 
#         PDG         Width
DECAY   1000004  1.46219360E+02   # CHL   decays
#          BR          NDA       ID1       ID2       ID3       ID4
      1.63619959E-04    2      1000022         4                       # CHL    -->  Z1SS   CH                 
      8.94938712E-05    2      1000023         4                       # CHL    -->  Z2SS   CH                 
      6.24240097E-03    2      1000025         4                       # CHL    -->  Z3SS   CH                 
      1.52225122E-01    2      1000035         4                       # CHL    -->  Z4SS   CH                 
      5.34141779E-01    2      1000021         4                       # CHL    -->  GLSS   CH                 
      1.54758536E-03    2      1000024         3                       # CHL    -->  W1SS+  ST                 
      3.05590063E-01    2      1000037         3                       # CHL    -->  W2SS+  ST                 
#         PDG         Width
DECAY   1000005  1.85842163E+02   # BT1   decays
#          BR          NDA       ID1       ID2       ID3       ID4
      9.47749242E-03    2      1000022         5                       # BT1    -->  Z1SS   BT                 
      8.94284714E-03    2      1000023         5                       # BT1    -->  Z2SS   BT                 
      2.99562421E-03    2      1000025         5                       # BT1    -->  Z3SS   BT                 
      7.96992928E-02    2      1000035         5                       # BT1    -->  Z4SS   BT                 
      1.47155635E-02    2      1000021         5                       # BT1    -->  GLSS   BT                 
      3.11306417E-01    2     -1000024         6                       # BT1    -->  W1SS-  TP                 
      1.61753237E-01    2     -1000037         6                       # BT1    -->  W2SS-  TP                 
      4.09822464E-01    2          -24   1000006                       # BT1    -->  W-     TP1                
      1.28712633E-03    2          -37   1000006                       # BT1    -->  H-     TP1                
#         PDG         Width
DECAY   1000006  6.72881393E+01   # TP1   decays
#          BR          NDA       ID1       ID2       ID3       ID4
      2.27295652E-01    2      1000022         6                       # TP1    -->  Z1SS   TP                 
      2.38459468E-01    2      1000023         6                       # TP1    -->  Z2SS   TP                 
      6.51851073E-02    2      1000025         6                       # TP1    -->  Z3SS   TP                 
      2.33627579E-05    2      1000035         6                       # TP1    -->  Z4SS   TP                 
      4.68983680E-01    2      1000024         5                       # TP1    -->  W1SS+  BT                 
      5.27138618E-05    2      1000037         5                       # TP1    -->  W2SS+  BT                 
#         PDG         Width
DECAY   2000002  9.61895218E+01   # UPR   decays
#          BR          NDA       ID1       ID2       ID3       ID4
      2.34932959E-04    2      1000022         2                       # UPR    -->  Z1SS   UP                 
      1.12676353E-04    2      1000023         2                       # UPR    -->  Z2SS   UP                 
      1.40982479E-01    2      1000025         2                       # UPR    -->  Z3SS   UP                 
      4.28284875E-06    2      1000035         2                       # UPR    -->  Z4SS   UP                 
      8.58665645E-01    2      1000021         2                       # UPR    -->  GLSS   UP                 
#         PDG         Width
DECAY   2000001  7.37332458E+01   # DNR   decays
#          BR          NDA       ID1       ID2       ID3       ID4
      7.42616612E-05    2      1000022         1                       # DNR    -->  Z1SS   DN                 
      3.56165328E-05    2      1000023         1                       # DNR    -->  Z2SS   DN                 
      4.44462299E-02    2      1000025         1                       # DNR    -->  Z3SS   DN                 
      1.34024083E-06    2      1000035         1                       # DNR    -->  Z4SS   DN                 
      9.55442607E-01    2      1000021         1                       # DNR    -->  GLSS   DN                 
#         PDG         Width
DECAY   2000003  7.37332458E+01   # STR   decays
#          BR          NDA       ID1       ID2       ID3       ID4
      7.42616612E-05    2      1000022         3                       # STR    -->  Z1SS   ST                 
      3.56165328E-05    2      1000023         3                       # STR    -->  Z2SS   ST                 
      4.44462299E-02    2      1000025         3                       # STR    -->  Z3SS   ST                 
      1.34024083E-06    2      1000035         3                       # STR    -->  Z4SS   ST                 
      9.55442607E-01    2      1000021         3                       # STR    -->  GLSS   ST                 
#         PDG         Width
DECAY   2000004  9.61894836E+01   # CHR   decays
#          BR          NDA       ID1       ID2       ID3       ID4
      2.34933046E-04    2      1000022         4                       # CHR    -->  Z1SS   CH                 
      1.12676367E-04    2      1000023         4                       # CHR    -->  Z2SS   CH                 
      1.40982509E-01    2      1000025         4                       # CHR    -->  Z3SS   CH                 
      4.28285011E-06    2      1000035         4                       # CHR    -->  Z4SS   CH                 
      8.58665586E-01    2      1000021         4                       # CHR    -->  GLSS   CH                 
#         PDG         Width
DECAY   2000005  1.04221817E+02   # BT2   decays
#          BR          NDA       ID1       ID2       ID3       ID4
      2.08352748E-02    2      1000022         5                       # BT2    -->  Z1SS   BT                 
      1.99373681E-02    2      1000023         5                       # BT2    -->  Z2SS   BT                 
      3.03472113E-02    2      1000025         5                       # BT2    -->  Z3SS   BT                 
      1.02572030E-05    2      1000035         5                       # BT2    -->  Z4SS   BT                 
      5.60949981E-01    2      1000021         5                       # BT2    -->  GLSS   BT                 
      4.06363420E-02    2     -1000024         6                       # BT2    -->  W1SS-  TP                 
      1.68800889E-05    2     -1000037         6                       # BT2    -->  W2SS-  TP                 
      2.96324924E-05    2          -24   1000006                       # BT2    -->  W-     TP1                
      8.69023439E-04    2          -24   2000006                       # BT2    -->  W-     TP2                
      4.26305516E-04    2           23   1000005                       # BT2    -->  Z0     BT1                
      8.55192775E-04    2           25   1000005                       # BT2    -->  HL0    BT1                
      8.01421106E-02    2           36   1000005                       # BT2    -->  HA0    BT1                
      7.89947212E-02    2           35   1000005                       # BT2    -->  HH0    BT1                
      1.03557727E-03    2          -37   1000006                       # BT2    -->  H-     TP1                
      1.64914131E-01    2          -37   2000006                       # BT2    -->  H-     TP2                
#         PDG         Width
DECAY   2000006  2.02058731E+02   # TP2   decays
#          BR          NDA       ID1       ID2       ID3       ID4
      7.42804212E-03    2      1000021         6                       # TP2    -->  GLSS   TP                 
      1.65324621E-02    2      1000024         5                       # TP2    -->  W1SS+  BT                 
      1.47112176E-01    2      1000037         5                       # TP2    -->  W2SS+  BT                 
      1.86724707E-01    2           23   1000006                       # TP2    -->  Z0     TP1                
      2.78868020E-01    2           25   1000006                       # TP2    -->  HL0    TP1                
      6.22225343E-04    2           35   1000006                       # TP2    -->  HH0    TP1                
      5.92552591E-04    2           36   1000006                       # TP2    -->  HA0    TP1                
      1.38546258E-01    2      1000022         6                       # TP2    -->  Z1SS   TP                 
      1.45577893E-01    2      1000023         6                       # TP2    -->  Z2SS   TP                 
      4.40440373E-03    2      1000025         6                       # TP2    -->  Z3SS   TP                 
      7.35912547E-02    2      1000035         6                       # TP2    -->  Z4SS   TP                 
#         PDG         Width
DECAY   1000011  6.01164093E+01   # EL-   decays
#          BR          NDA       ID1       ID2       ID3       ID4
      9.03614127E-05    2      1000022        11                       # EL-    -->  Z1SS   E-                 
      5.54745056E-05    2      1000023        11                       # EL-    -->  Z2SS   E-                 
      1.07946940E-01    2      1000025        11                       # EL-    -->  Z3SS   E-                 
      2.94540226E-01    2      1000035        11                       # EL-    -->  Z4SS   E-                 
      7.05003768E-05    2     -1000024        12                       # EL-    -->  W1SS-  NUE                
      5.97296536E-01    2     -1000037        12                       # EL-    -->  W2SS-  NUE                
#         PDG         Width
DECAY   1000013  6.01164093E+01   # MUL-  decays
#          BR          NDA       ID1       ID2       ID3       ID4
      9.03614127E-05    2      1000022        13                       # MUL-   -->  Z1SS   MU-                
      5.54745056E-05    2      1000023        13                       # MUL-   -->  Z2SS   MU-                
      1.07946940E-01    2      1000025        13                       # MUL-   -->  Z3SS   MU-                
      2.94540226E-01    2      1000035        13                       # MUL-   -->  Z4SS   MU-                
      7.05003768E-05    2     -1000024        14                       # MUL-   -->  W1SS-  NUM                
      5.97296536E-01    2     -1000037        14                       # MUL-   -->  W2SS-  NUM                
#         PDG         Width
DECAY   1000015  2.62863464E+01   # TAU1- decays
#          BR          NDA       ID1       ID2       ID3       ID4
      4.38927859E-02    2      1000022        15                       # TAU1-  -->  Z1SS   TAU-               
      4.10299636E-02    2      1000023        15                       # TAU1-  -->  Z2SS   TAU-               
      8.32227588E-01    2      1000025        15                       # TAU1-  -->  Z3SS   TAU-               
      3.18156199E-05    2      1000035        15                       # TAU1-  -->  Z4SS   TAU-               
      8.27967748E-02    2     -1000024        16                       # TAU1-  -->  W1SS-  NUT                
      2.11174975E-05    2     -1000037        16                       # TAU1-  -->  W2SS-  NUT                
#         PDG         Width
DECAY   1000012  6.01762047E+01   # NUEL  decays
#          BR          NDA       ID1       ID2       ID3       ID4
      1.30770402E-03    2      1000022        12                       # NUEL   -->  Z1SS   NUE                
      6.71239570E-04    2      1000023        12                       # NUEL   -->  Z2SS   NUE                
      1.01749405E-01    2      1000025        12                       # NUEL   -->  Z3SS   NUE                
      2.98328131E-01    2      1000035        12                       # NUEL   -->  Z4SS   NUE                
      3.19875451E-03    2      1000024        11                       # NUEL   -->  W1SS+  E-                 
      5.94744742E-01    2      1000037        11                       # NUEL   -->  W2SS+  E-                 
#         PDG         Width
DECAY   1000014  6.01762047E+01   # NUML  decays
#          BR          NDA       ID1       ID2       ID3       ID4
      1.30770402E-03    2      1000022        14                       # NUML   -->  Z1SS   NUM                
      6.71239570E-04    2      1000023        14                       # NUML   -->  Z2SS   NUM                
      1.01749405E-01    2      1000025        14                       # NUML   -->  Z3SS   NUM                
      2.98328131E-01    2      1000035        14                       # NUML   -->  Z4SS   NUM                
      3.19875451E-03    2      1000024        13                       # NUML   -->  W1SS+  MU-                
      5.94744742E-01    2      1000037        13                       # NUML   -->  W2SS+  MU-                
#         PDG         Width
DECAY   1000016  6.14432144E+01   # NUTL  decays
#          BR          NDA       ID1       ID2       ID3       ID4
      1.26271322E-03    2      1000022        16                       # NUTL   -->  Z1SS   NUT                
      6.48144167E-04    2      1000023        16                       # NUTL   -->  Z2SS   NUT                
      9.80837271E-02    2      1000025        16                       # NUTL   -->  Z3SS   NUT                
      2.86187470E-01    2      1000035        16                       # NUTL   -->  Z4SS   NUT                
      4.26729731E-02    2      1000024        15                       # NUTL   -->  W1SS+  TAU-               
      5.70641458E-01    2      1000037        15                       # NUTL   -->  W2SS+  TAU-               
      5.03518619E-04    2           24   1000015                       # NUTL   -->  W+     TAU1-              
#         PDG         Width
DECAY   2000011  2.28501434E+01   # ER-   decays
#          BR          NDA       ID1       ID2       ID3       ID4
      1.71035901E-03    2      1000022        11                       # ER-    -->  Z1SS   E-                 
      8.20270099E-04    2      1000023        11                       # ER-    -->  Z2SS   E-                 
      9.97441471E-01    2      1000025        11                       # ER-    -->  Z3SS   E-                 
      2.79141022E-05    2      1000035        11                       # ER-    -->  Z4SS   E-                 
#         PDG         Width
DECAY   2000013  2.28501434E+01   # MUR-  decays
#          BR          NDA       ID1       ID2       ID3       ID4
      1.71035901E-03    2      1000022        13                       # MUR-   -->  Z1SS   MU-                
      8.20270099E-04    2      1000023        13                       # MUR-   -->  Z2SS   MU-                
      9.97441471E-01    2      1000025        13                       # MUR-   -->  Z3SS   MU-                
      2.79141022E-05    2      1000035        13                       # MUR-   -->  Z4SS   MU-                
#         PDG         Width
DECAY   2000015  6.13371468E+01   # TAU2- decays
#          BR          NDA       ID1       ID2       ID3       ID4
      2.02759076E-02    2      1000022        15                       # TAU2-  -->  Z1SS   TAU-               
      1.94577165E-02    2      1000023        15                       # TAU2-  -->  Z2SS   TAU-               
      1.04114123E-01    2      1000025        15                       # TAU2-  -->  Z3SS   TAU-               
      2.82604009E-01    2      1000035        15                       # TAU2-  -->  Z4SS   TAU-               
      4.80632734E-05    2     -1000024        16                       # TAU2-  -->  W1SS-  NUT                
      5.73184252E-01    2     -1000037        16                       # TAU2-  -->  W2SS-  NUT                
      2.45840463E-04    2           23   1000015                       # TAU2-  -->  Z0     TAU1-              
      7.01072568E-05    2           25   1000015                       # TAU2-  -->  HL0    TAU1-              
#         PDG         Width
DECAY   1000023  4.52411264E-09   # Z2SS  decays
#          BR          NDA       ID1       ID2       ID3       ID4
      8.07739794E-02    2      1000022        22                       # Z2SS   -->  Z1SS   GM                 
      1.31468832E-01    3      1000022         2        -2             # Z2SS   -->  Z1SS   UP     UB          
      1.69529885E-01    3      1000022         1        -1             # Z2SS   -->  Z1SS   DN     DB          
      1.69529885E-01    3      1000022         3        -3             # Z2SS   -->  Z1SS   ST     SB          
      1.31468832E-01    3      1000022         4        -4             # Z2SS   -->  Z1SS   CH     CB          
      3.84577624E-02    3      1000022        11       -11             # Z2SS   -->  Z1SS   E-     E+          
      3.84577624E-02    3      1000022        13       -13             # Z2SS   -->  Z1SS   MU-    MU+         
      1.07562309E-02    3      1000022        15       -15             # Z2SS   -->  Z1SS   TAU-   TAU+        
      7.65189379E-02    3      1000022        12       -12             # Z2SS   -->  Z1SS   NUE    ANUE        
      7.65189379E-02    3      1000022        14       -14             # Z2SS   -->  Z1SS   NUM    ANUM        
      7.65189305E-02    3      1000022        16       -16             # Z2SS   -->  Z1SS   NUT    ANUT        
#         PDG         Width
DECAY   1000025  2.11289382E+00   # Z3SS  decays
#          BR          NDA       ID1       ID2       ID3       ID4
      1.12097460E-07    2      1000022        22                       # Z3SS   -->  Z1SS   GM                 
      1.10563214E-07    2      1000023        22                       # Z3SS   -->  Z2SS   GM                 
      2.50728518E-01    2      1000024       -24                       # Z3SS   -->  W1SS+  W-                 
      2.50728518E-01    2     -1000024        24                       # Z3SS   -->  W1SS-  W+                 
      7.54904523E-02    2      1000022        23                       # Z3SS   -->  Z1SS   Z0                 
      1.71233431E-01    2      1000023        23                       # Z3SS   -->  Z2SS   Z0                 
      1.34553063E-10    3      1000022         2        -2             # Z3SS   -->  Z1SS   UP     UB          
      2.64584535E-11    3      1000022         1        -1             # Z3SS   -->  Z1SS   DN     DB          
      2.64584535E-11    3      1000022         3        -3             # Z3SS   -->  Z1SS   ST     SB          
      1.34553063E-10    3      1000022         4        -4             # Z3SS   -->  Z1SS   CH     CB          
      1.85376393E-05    3      1000022         5        -5             # Z3SS   -->  Z1SS   BT     BB          
      6.24123420E-10    3      1000022        11       -11             # Z3SS   -->  Z1SS   E-     E+          
      6.24123420E-10    3      1000022        13       -13             # Z3SS   -->  Z1SS   MU-    MU+         
      4.09383711E-06    3      1000022        15       -15             # Z3SS   -->  Z1SS   TAU-   TAU+        
      1.89367674E-10    3      1000022        12       -12             # Z3SS   -->  Z1SS   NUE    ANUE        
      1.89367674E-10    3      1000022        14       -14             # Z3SS   -->  Z1SS   NUM    ANUM        
      2.00528039E-10    3      1000022        16       -16             # Z3SS   -->  Z1SS   NUT    ANUT        
      4.19775326E-11    3      1000023         2        -2             # Z3SS   -->  Z2SS   UP     UB          
      8.68279840E-12    3      1000023         1        -1             # Z3SS   -->  Z2SS   DN     DB          
      8.68279840E-12    3      1000023         3        -3             # Z3SS   -->  Z2SS   ST     SB          
      4.19775326E-11    3      1000023         4        -4             # Z3SS   -->  Z2SS   CH     CB          
      1.76807425E-05    3      1000023         5        -5             # Z3SS   -->  Z2SS   BT     BB          
      1.94293678E-10    3      1000023        11       -11             # Z3SS   -->  Z2SS   E-     E+          
      1.94293678E-10    3      1000023        13       -13             # Z3SS   -->  Z2SS   MU-    MU+         
      3.90372907E-06    3      1000023        15       -15             # Z3SS   -->  Z2SS   TAU-   TAU+        
      6.26636312E-11    3      1000023        12       -12             # Z3SS   -->  Z2SS   NUE    ANUE        
      6.26636312E-11    3      1000023        14       -14             # Z3SS   -->  Z2SS   NUM    ANUM        
      6.63628041E-11    3      1000023        16       -16             # Z3SS   -->  Z2SS   NUT    ANUT        
      1.70736983E-01    2      1000022        25                       # Z3SS   -->  Z1SS   HL0                
      8.10375810E-02    2      1000023        25                       # Z3SS   -->  Z2SS   HL0                
#         PDG         Width
DECAY   1000035  1.95853596E+01   # Z4SS  decays
#          BR          NDA       ID1       ID2       ID3       ID4
      7.42144948E-07    2      1000022        22                       # Z4SS   -->  Z1SS   GM                 
      1.15457794E-06    2      1000023        22                       # Z4SS   -->  Z2SS   GM                 
      4.21111146E-09    2      1000025        22                       # Z4SS   -->  Z3SS   GM                 
      1.75886288E-01    2      1000024       -24                       # Z4SS   -->  W1SS+  W-                 
      1.75886288E-01    2     -1000024        24                       # Z4SS   -->  W1SS-  W+                 
      7.23847225E-02    2      1000024       -37                       # Z4SS   -->  W1SS+  H-                 
      7.23847225E-02    2     -1000024        37                       # Z4SS   -->  W1SS-  H+                 
      2.65424575E-07    3     -1000037         2        -1             # Z4SS   -->  W2SS-  UP     DB          
      8.84748630E-08    3     -1000037        12       -11             # Z4SS   -->  W2SS-  NUE    E+          
      8.84748630E-08    3     -1000037        14       -13             # Z4SS   -->  W2SS-  NUM    MU+         
      2.65424575E-07    3      1000037         1        -2             # Z4SS   -->  W2SS+  DN     UB          
      8.84748630E-08    3      1000037        11       -12             # Z4SS   -->  W2SS+  E-     ANUE        
      8.84748630E-08    3      1000037        13       -14             # Z4SS   -->  W2SS+  MU-    ANUM        
      2.65424575E-07    3     -1000037         4        -3             # Z4SS   -->  W2SS-  CH     SB          
      8.84748630E-08    3     -1000037        16       -15             # Z4SS   -->  W2SS-  NUT    TAU+        
      2.65424575E-07    3      1000037         3        -4             # Z4SS   -->  W2SS+  ST     CB          
      8.84748630E-08    3      1000037        15       -16             # Z4SS   -->  W2SS+  TAU-   ANUT        
      5.69402613E-02    2      1000022        23                       # Z4SS   -->  Z1SS   Z0                 
      1.17870390E-01    2      1000023        23                       # Z4SS   -->  Z2SS   Z0                 
      1.37265364E-04    2      1000025        23                       # Z4SS   -->  Z3SS   Z0                 
      7.02767233E-10    3      1000022         2        -2             # Z4SS   -->  Z1SS   UP     UB          
      1.55202617E-09    3      1000022         1        -1             # Z4SS   -->  Z1SS   DN     DB          
      1.55202617E-09    3      1000022         3        -3             # Z4SS   -->  Z1SS   ST     SB          
      7.02767233E-10    3      1000022         4        -4             # Z4SS   -->  Z1SS   CH     CB          
      2.02661369E-07    3      1000022         5        -5             # Z4SS   -->  Z1SS   BT     BB          
      1.22083857E-10    3      1000022        11       -11             # Z4SS   -->  Z1SS   E-     E+          
      1.22083857E-10    3      1000022        13       -13             # Z4SS   -->  Z1SS   MU-    MU+         
      2.68080012E-08    3      1000022        15       -15             # Z4SS   -->  Z1SS   TAU-   TAU+        
      1.78428405E-09    3      1000022        12       -12             # Z4SS   -->  Z1SS   NUE    ANUE        
      1.78428405E-09    3      1000022        14       -14             # Z4SS   -->  Z1SS   NUM    ANUM        
      1.89285254E-09    3      1000022        16       -16             # Z4SS   -->  Z1SS   NUT    ANUT        
      2.99737513E-10    3      1000023         2        -2             # Z4SS   -->  Z2SS   UP     UB          
      6.34813091E-10    3      1000023         1        -1             # Z4SS   -->  Z2SS   DN     DB          
      6.34813091E-10    3      1000023         3        -3             # Z4SS   -->  Z2SS   ST     SB          
      2.99737513E-10    3      1000023         4        -4             # Z4SS   -->  Z2SS   CH     CB          
      1.90221996E-07    3      1000023         5        -5             # Z4SS   -->  Z2SS   BT     BB          
      5.85645976E-11    3      1000023        11       -11             # Z4SS   -->  Z2SS   E-     E+          
      5.85645976E-11    3      1000023        13       -13             # Z4SS   -->  Z2SS   MU-    MU+         
      2.55027839E-08    3      1000023        15       -15             # Z4SS   -->  Z2SS   TAU-   TAU+        
      7.15712434E-10    3      1000023        12       -12             # Z4SS   -->  Z2SS   NUE    ANUE        
      7.15712434E-10    3      1000023        14       -14             # Z4SS   -->  Z2SS   NUM    ANUM        
      7.59431518E-10    3      1000023        16       -16             # Z4SS   -->  Z2SS   NUT    ANUT        
      4.86696505E-09    3      1000025         2        -2             # Z4SS   -->  Z3SS   UP     UB          
      4.09350553E-09    3      1000025         1        -1             # Z4SS   -->  Z3SS   DN     DB          
      4.09350553E-09    3      1000025         3        -3             # Z4SS   -->  Z3SS   ST     SB          
      4.86696505E-09    3      1000025         4        -4             # Z4SS   -->  Z3SS   CH     CB          
      1.84004421E-08    3      1000025         5        -5             # Z4SS   -->  Z3SS   BT     BB          
      2.72351635E-08    3      1000025        11       -11             # Z4SS   -->  Z3SS   E-     E+          
      2.72351635E-08    3      1000025        13       -13             # Z4SS   -->  Z3SS   MU-    MU+         
      2.99704368E-08    3      1000025        15       -15             # Z4SS   -->  Z3SS   TAU-   TAU+        
      2.59282125E-08    3      1000025        12       -12             # Z4SS   -->  Z3SS   NUE    ANUE        
      2.59282125E-08    3      1000025        14       -14             # Z4SS   -->  Z3SS   NUM    ANUM        
      2.75423027E-08    3      1000025        16       -16             # Z4SS   -->  Z3SS   NUT    ANUT        
      1.11924358E-01    2      1000022        25                       # Z4SS   -->  Z1SS   HL0                
      3.99282426E-02    2      1000022        35                       # Z4SS   -->  Z1SS   HH0                
      3.50410827E-02    2      1000022        36                       # Z4SS   -->  Z1SS   HA0                
      6.82090223E-02    2      1000023        25                       # Z4SS   -->  Z2SS   HL0                
      3.28595638E-02    2      1000023        35                       # Z4SS   -->  Z2SS   HH0                
      3.89320180E-02    2      1000023        36                       # Z4SS   -->  Z2SS   HA0                
      1.61169341E-03    2      1000025        25                       # Z4SS   -->  Z3SS   HL0                
#         PDG         Width
DECAY   1000024  2.29119141E-08   # W1SS+ decays
#          BR          NDA       ID1       ID2       ID3       ID4
      3.33191276E-01    3      1000022         2        -1             # W1SS+  -->  Z1SS   UP     DB          
      3.33191276E-01    3      1000022         4        -3             # W1SS+  -->  Z1SS   CH     SB          
      1.11063816E-01    3      1000022       -11        12             # W1SS+  -->  Z1SS   E+     NUE         
      1.11063816E-01    3      1000022       -13        14             # W1SS+  -->  Z1SS   MU+    NUM         
      1.11065358E-01    3      1000022       -15        16             # W1SS+  -->  Z1SS   TAU+   NUT         
      2.54682993E-04    3      1000023         2        -1             # W1SS+  -->  Z2SS   UP     DB          
      8.48943018E-05    3      1000023       -11        12             # W1SS+  -->  Z2SS   E+     NUE         
      8.48943018E-05    3      1000023       -13        14             # W1SS+  -->  Z2SS   MU+    NUM         
#         PDG         Width
DECAY   1000037  1.89020767E+01   # W2SS+ decays
#          BR          NDA       ID1       ID2       ID3       ID4
      1.74484205E-09    3      1000022         2        -1             # W2SS+  -->  Z1SS   UP     DB          
      1.74484205E-09    3      1000022         4        -3             # W2SS+  -->  Z1SS   CH     SB          
      1.55158641E-09    3      1000022       -11        12             # W2SS+  -->  Z1SS   E+     NUE         
      1.55158641E-09    3      1000022       -13        14             # W2SS+  -->  Z1SS   MU+    NUM         
      2.80598176E-08    3      1000022       -15        16             # W2SS+  -->  Z1SS   TAU+   NUT         
      1.72181502E-01    2      1000022        24                       # W2SS+  -->  Z1SS   W+                 
      7.46381953E-02    2      1000022        37                       # W2SS+  -->  Z1SS   H+                 
      1.16268029E-09    3      1000023         2        -1             # W2SS+  -->  Z2SS   UP     DB          
      1.16268029E-09    3      1000023         4        -3             # W2SS+  -->  Z2SS   CH     SB          
      9.11058617E-10    3      1000023       -11        12             # W2SS+  -->  Z2SS   E+     NUE         
      9.11058617E-10    3      1000023       -13        14             # W2SS+  -->  Z2SS   MU+    NUM         
      2.61763820E-08    3      1000023       -15        16             # W2SS+  -->  Z2SS   TAU+   NUT         
      1.69605196E-01    2      1000023        24                       # W2SS+  -->  Z2SS   W+                 
      7.10707679E-02    2      1000023        37                       # W2SS+  -->  Z2SS   H+                 
      8.28268831E-09    3      1000025         2        -1             # W2SS+  -->  Z3SS   UP     DB          
      8.28268831E-09    3      1000025         4        -3             # W2SS+  -->  Z3SS   CH     SB          
      4.91741545E-08    3      1000025       -11        12             # W2SS+  -->  Z3SS   E+     NUE         
      4.91741545E-08    3      1000025       -13        14             # W2SS+  -->  Z3SS   MU+    NUM         
      5.30866053E-08    3      1000025       -15        16             # W2SS+  -->  Z3SS   TAU+   NUT         
      5.58984373E-03    2      1000025        24                       # W2SS+  -->  Z3SS   W+                 
      1.75969765E-01    2      1000024        23                       # W2SS+  -->  W1SS+  Z0                 
      5.76461145E-09    3      1000024         1        -1             # W2SS+  -->  W1SS+  DN     DB          
      5.76461145E-09    3      1000024         3        -3             # W2SS+  -->  W1SS+  ST     SB          
      1.27508143E-10    3      1000024         2        -2             # W2SS+  -->  W1SS+  UP     UB          
      1.27508143E-10    3      1000024         4        -4             # W2SS+  -->  W1SS+  CH     CB          
      8.33061259E-11    3      1000024        12       -12             # W2SS+  -->  W1SS+  NUE    ANUE        
      8.33061259E-11    3      1000024        14       -14             # W2SS+  -->  W1SS+  NUM    ANUM        
      1.40748371E-10    3      1000024        16       -16             # W2SS+  -->  W1SS+  NUT    ANUT        
      3.75442921E-09    3      1000024        11       -11             # W2SS+  -->  W1SS+  E-     E+          
      3.75442921E-09    3      1000024        13       -13             # W2SS+  -->  W1SS+  MU-    MU+         
      3.98301703E-09    3      1000024        15       -15             # W2SS+  -->  W1SS+  TAU-   TAU+        
      1.86212704E-01    2      1000024        25                       # W2SS+  -->  W1SS+  HL0                
      7.17686266E-02    2      1000024        35                       # W2SS+  -->  W1SS+  HH0                
      7.29631782E-02    2      1000024        36                       # W2SS+  -->  W1SS+  HA0                
#         PDG         Width
DECAY        25  3.94783355E-03   # HL0   decays
#          BR          NDA       ID1       ID2       ID3       ID4
      5.64877523E-09    2           11       -11                       # HL0    -->  E-     E+                 
      2.38500463E-04    2           13       -13                       # HL0    -->  MU-    MU+                
      6.82279691E-02    2           15       -15                       # HL0    -->  TAU-   TAU+               
      7.08081461E-06    2            1        -1                       # HL0    -->  DN     DB                 
      2.86100432E-03    2            3        -3                       # HL0    -->  ST     SB                 
      6.13005102E-01    2            5        -5                       # HL0    -->  BT     BB                 
      2.16170747E-06    2            2        -2                       # HL0    -->  UP     UB                 
      4.01677601E-02    2            4        -4                       # HL0    -->  CH     CB                 
      2.66614812E-03    2           22        22                       # HL0    -->  GM     GM                 
      5.28107770E-02    2           21        21                       # HL0    -->  GL     GL                 
      1.09926881E-02    3           24        11       -12             # HL0    -->  W+     E-     ANUE        
      1.09926881E-02    3           24        13       -14             # HL0    -->  W+     MU-    ANUM        
      1.09926881E-02    3           24        15       -16             # HL0    -->  W+     TAU-   ANUT        
      3.29780653E-02    3           24        -2         1             # HL0    -->  W+     UB     DN          
      3.29780653E-02    3           24        -4         3             # HL0    -->  W+     CB     ST          
      1.09926881E-02    3          -24       -11        12             # HL0    -->  W-     E+     NUE         
      1.09926881E-02    3          -24       -13        14             # HL0    -->  W-     MU+    NUM         
      1.09926881E-02    3          -24       -15        16             # HL0    -->  W-     TAU+   NUT         
      3.29780653E-02    3          -24         2        -1             # HL0    -->  W-     UP     DB          
      3.29780653E-02    3          -24         4        -3             # HL0    -->  W-     CH     SB          
      1.51449780E-03    3           23        12       -12             # HL0    -->  Z0     NUE    ANUE        
      1.51449780E-03    3           23        14       -14             # HL0    -->  Z0     NUM    ANUM        
      1.51449780E-03    3           23        16       -16             # HL0    -->  Z0     NUT    ANUT        
      7.62231532E-04    3           23        11       -11             # HL0    -->  Z0     E-     E+          
      7.62231532E-04    3           23        13       -13             # HL0    -->  Z0     MU-    MU+         
      7.62231532E-04    3           23        15       -15             # HL0    -->  Z0     TAU-   TAU+        
      2.61134049E-03    3           23         2        -2             # HL0    -->  Z0     UP     UB          
      2.61134049E-03    3           23         4        -4             # HL0    -->  Z0     CH     CB          
      3.36405006E-03    3           23         1        -1             # HL0    -->  Z0     DN     DB          
      3.36405006E-03    3           23         3        -3             # HL0    -->  Z0     ST     SB          
      3.36405006E-03    3           23         5        -5             # HL0    -->  Z0     BT     BB          
#         PDG         Width
DECAY        35  3.58490014E+00   # HH0   decays
#          BR          NDA       ID1       ID2       ID3       ID4
      1.07347553E-08    2           11       -11                       # HH0    -->  E-     E+                 
      4.53240733E-04    2           13       -13                       # HH0    -->  MU-    MU+                
      1.29812673E-01    2           15       -15                       # HH0    -->  TAU-   TAU+               
      1.31501247E-05    2            1        -1                       # HH0    -->  DN     DB                 
      5.31331589E-03    2            3        -3                       # HH0    -->  ST     SB                 
      7.92101324E-01    2            5        -5                       # HH0    -->  BT     BB                 
      8.71091255E-11    2            2        -2                       # HH0    -->  UP     UB                 
      1.22675692E-06    2            4        -4                       # HH0    -->  CH     CB                 
      5.59617467E-02    2            6        -6                       # HH0    -->  TP     TB                 
      2.02270257E-07    2           22        22                       # HH0    -->  GM     GM                 
      2.53786584E-05    2           21        21                       # HH0    -->  GL     GL                 
      2.21488939E-04    2           24       -24                       # HH0    -->  W+     W-                 
      1.12453505E-04    2           23        23                       # HH0    -->  Z0     Z0                 
      3.45420255E-03    2      1000022   1000022                       # HH0    -->  Z1SS   Z1SS               
      2.95544800E-04    2      1000022   1000023                       # HH0    -->  Z1SS   Z2SS               
      2.49862865E-06    2      1000022   1000025                       # HH0    -->  Z1SS   Z3SS               
      2.20822939E-03    2      1000023   1000023                       # HH0    -->  Z2SS   Z2SS               
      9.19781066E-03    2      1000024  -1000024                       # HH0    -->  W1SS+  W1SS-              
      8.25454015E-04    2           25        25                       # HH0    -->  HL0    HL0                
#         PDG         Width
DECAY        36  3.57646680E+00   # HA0   decays
#          BR          NDA       ID1       ID2       ID3       ID4
      1.06910667E-08    2           11       -11                       # HA0    -->  E-     E+                 
      4.51396103E-04    2           13       -13                       # HA0    -->  MU-    MU+                
      1.29285961E-01    2           15       -15                       # HA0    -->  TAU-   TAU+               
      1.30973267E-05    2            1        -1                       # HA0    -->  DN     DB                 
      5.29198302E-03    2            3        -3                       # HA0    -->  ST     SB                 
      7.88956344E-01    2            5        -5                       # HA0    -->  BT     BB                 
      8.27798316E-11    2            2        -2                       # HA0    -->  UP     UB                 
      1.16670515E-06    2            4        -4                       # HA0    -->  CH     CB                 
      5.91160879E-02    2            6        -6                       # HA0    -->  TP     TB                 
      2.80746519E-07    2           22        22                       # HA0    -->  GM     GM                 
      7.95177912E-05    2           21        21                       # HA0    -->  GL     GL                 
      4.70336108E-03    2      1000022   1000022                       # HA0    -->  Z1SS   Z1SS               
      4.30250875E-05    2      1000022   1000023                       # HA0    -->  Z1SS   Z2SS               
      1.76221738E-03    2      1000023   1000023                       # HA0    -->  Z2SS   Z2SS               
      1.00826416E-02    2      1000024  -1000024                       # HA0    -->  W1SS+  W1SS-              
      2.12833256E-04    2           25        23                       # HA0    -->  HL0    Z0                 
#         PDG         Width
DECAY        37  3.12132263E+00   # H+    decays
#          BR          NDA       ID1       ID2       ID3       ID4
      1.22895649E-08    2           12       -11                       # H+     -->  NUE    E+                 
      5.18887653E-04    2           14       -13                       # H+     -->  NUM    MU+                
      1.48616433E-01    2           16       -15                       # H+     -->  NUT    TAU+               
      1.38385039E-05    2            2        -1                       # H+     -->  UP     DB                 
      5.59263211E-03    2            4        -3                       # H+     -->  CH     SB                 
      8.44323099E-01    2            6        -5                       # H+     -->  TP     BB                 
      5.50175464E-05    2      1000024   1000022                       # H+     -->  W1SS+  Z1SS               
      6.35501638E-04    2      1000024   1000023                       # H+     -->  W1SS+  Z2SS               
      2.44563911E-04    2           25        24                       # H+     -->  HL0    W+                 
