#  ISAJET SUSY parameters in SUSY Les Houches Accord 2 format
#  Created by ISALHA 2.0 Last revision: H Baer 27 May 2014
Block SPINFO   # Program information
     1   ISASUGRA/ISASUSY from ISAJET   # Spectrum Calculator
     2   7.87   18-JUL-2017 13:55:55    # Version number
Block MODSEL   # Model selection
     1    13   # Non-universal supergravity model                  
Block SMINPUTS   # Standard Model inputs
     1     1.28000000E+02   # alpha_em^(-1)
     2     1.16570000E-05   # G_Fermi
     3     1.19999997E-01   # alpha_s(M_Z)
     4     9.11699982E+01   # m_{Z}(pole)
     5     4.19999981E+00   # m_{b}(m_{b})
     6     1.72500000E+02   # m_{top}(pole)
     7     1.77699995E+00   # m_{tau}(pole)
Block MINPAR   # SUSY breaking input parameters
     1     5.00000000E+03   # m_0
     2     5.00000000E+03   # m_{1/2}
     3     1.50000000E+01   # tan(beta)
     4     1.00000000E+00   # sign(mu)
     5    -8.00000000E+03   # A_0
Block EXTPAR   # Non-universal SUSY breaking parameters
     0     1.08363786E+16   # Input scale
    21    -5.63711500E+06   # Down type Higgs mass squared
    22     8.28674400E+07   #  Up  type Higgs mass squared
Block MASS   # Scalar and gaugino mass spectrum
#  PDG code   mass                 particle
         6     1.72500000E+02   #  top            
        24     8.04229965E+01   #  W^+
        25     1.25657768E+02   #  h^0            
        35     1.00666907E+03   #  H^0            
        36     1.00000000E+03   #  A^0            
        37     1.00322870E+03   #  H^+            
   1000001     1.01571123E+04   #  dnl            
   1000002     1.01567803E+04   #  upl            
   1000003     1.01571123E+04   #  stl            
   1000004     1.01567803E+04   #  chl            
   1000005     8.41690527E+03   #  b1             
   1000006     5.94355371E+03   #  t1             
   1000011     6.12217383E+03   #  el-            
   1000012     6.11878955E+03   #  nuel           
   1000013     6.12217383E+03   #  mul-           
   1000014     6.11878955E+03   #  numl           
   1000015     4.71354395E+03   #  tau1           
   1000016     6.04234131E+03   #  nutl           
   1000021     1.00105186E+04   #  glss           
   1000022     1.03497818E+02   #  z1ss           
   1000023    -1.05615868E+02   #  z2ss           
   1000024     1.09444046E+02   #  w1ss           
   1000025     2.26985742E+03   #  z3ss           
   1000035     4.17272656E+03   #  z4ss           
   1000037     4.12862109E+03   #  w2ss           
   1000039     1.00000002E+20   #  gvss
   2000001     9.71175000E+03   #  dnr            
   2000002     9.98169824E+03   #  upr            
   2000003     9.71175000E+03   #  str            
   2000004     9.98169824E+03   #  chr            
   2000005     9.48173438E+03   #  b2             
   2000006     8.43466016E+03   #  t2             
   2000011     4.89686719E+03   #  er-            
   2000013     4.89686719E+03   #  mur-           
   2000015     6.04411914E+03   #  tau2           
Block ALPHA   # Effective Higgs mixing parameter
         -6.81613833E-02   # alpha
Block STOPMIX   # stop mixing matrix
  1  1     4.23293710E-02   # O_{11}
  1  2     9.99103725E-01   # O_{12}
  2  1    -9.99103725E-01   # O_{21}
  2  2     4.23293710E-02   # O_{22}
Block SBOTMIX   # sbottom mixing matrix
  1  1     9.99986291E-01   # O_{11}
  1  2     5.23390248E-03   # O_{12}
  2  1    -5.23390248E-03   # O_{21}
  2  2     9.99986291E-01   # O_{22}
Block STAUMIX   # stau mixing matrix
  1  1     8.33825150E-04   # O_{11}
  1  2     9.99999642E-01   # O_{12}
  2  1    -9.99999642E-01   # O_{21}
  2  2     8.33825150E-04   # O_{22}
Block NMIX   # neutralino mixing matrix
  1  1    -1.43314973E-02   #
  1  2     1.41339842E-02   #
  1  3    -7.10572720E-01   #
  1  4     7.03335941E-01   #
  2  1     1.14536509E-02   #
  2  2    -1.10486588E-02   #
  2  3    -7.03616738E-01   #
  2  4    -7.10401356E-01   #
  3  1     9.99830902E-01   #
  3  2     1.62198953E-03   #
  3  3    -2.12201057E-03   #
  3  4     1.81965791E-02   #
  4  1    -1.29281357E-03   #
  4  2     9.99837756E-01   #
  4  3     2.27274583E-03   #
  4  4    -1.78223308E-02   #
Block UMIX   # chargino U mixing matrix
  1  1    -2.63944152E-03   # U_{11}
  1  2     9.99996543E-01   # U_{12}
  2  1    -9.99996543E-01   # U_{21}
  2  2    -2.63944152E-03   # U_{22}
Block VMIX   # chargino V mixing matrix
  1  1    -2.61481125E-02   # V_{11}
  1  2     9.99658108E-01   # V_{12}
  2  1    -9.99658108E-01   # V_{21}
  2  2    -2.61481125E-02   # V_{22}
Block GAUGE Q=  6.91418457E+03   #
     1     3.57523978E-01   # g`
     2     6.52382553E-01   # g_2
     3     1.21933544E+00   # g_3
Block YU Q=  6.91418457E+03   #
  3  3     7.93476701E-01   # y_t
Block YD Q=  6.91418457E+03   #
  3  3     1.76383466E-01   # y_b
Block YE Q=  6.91418457E+03   #
  3  3     1.47843435E-01   # y_tau
Block HMIX Q=  6.91418457E+03   # Higgs mixing parameters
     1     1.00000000E+02   # mu(Q)
     2     1.41989737E+01   # tan(beta)(Q)
     3     2.52928253E+02   # Higgs vev at Q
     4     1.00000000E+06   # m_A^2(Q)
Block MSOFT Q=  6.91418457E+03   # DRbar SUSY breaking parameters
     1     2.28625415E+03   # M_1(Q)          
     2     4.05546045E+03   # M_2(Q)          
     3     9.54935254E+03   # M_3(Q)          
    21     9.96736313E+05   # MHd^2(Q)        
    22     3.35030625E+05   # MHu^2(Q)        
    31     6.08773145E+03   # MeL(Q)          
    32     6.08773145E+03   # MmuL(Q)         
    33     6.01339014E+03   # MtauL(Q)        
    34     4.89147314E+03   # MeR(Q)          
    35     4.89147314E+03   # MmuR(Q)         
    36     4.71085791E+03   # MtauR(Q)        
    41     9.67013281E+03   # MqL1(Q)         
    42     9.67013281E+03   # MqL2(Q)         
    43     8.11832910E+03   # MqL3(Q)         
    44     9.49754688E+03   # MuR(Q)          
    45     9.49754688E+03   # McR(Q)          
    46     5.88864355E+03   # MtR(Q)          
    47     9.23289746E+03   # MdR(Q)          
    48     9.23289746E+03   # MsR(Q)          
    49     9.16612207E+03   # MbR(Q)          
Block AU Q=  6.91418457E+03   #
  1  1    -1.05893467E+04   # A_u
  2  2    -1.05893467E+04   # A_c
  3  3    -1.05893467E+04   # A_t
Block AD Q=  6.91418457E+03   #
  1  1    -1.70659453E+04   # A_d
  2  2    -1.70659453E+04   # A_s
  3  3    -1.70659453E+04   # A_b
Block AE Q=  6.91418457E+03   #
  1  1    -1.03463672E+04   # A_e
  2  2    -1.03463672E+04   # A_mu
  3  3    -1.03463672E+04   # A_tau
#  ISAJET decay tables in SUSY Les Houches accord format
#  Created by ISALHD. Last revision: C. Balazs, 2005 May 25
Block DCINFO                           # Program information
     1   ISASUGRA from ISAJET          # Spectrum Calculator
     2   7.87   18-JUL-2017 13:55:55   # Version number
#         PDG         Width
DECAY         6  1.46776152E+00   # TP    decays
#          BR          NDA       ID1       ID2       ID3       ID4
      3.33333313E-01    3            2        -1         5             # TP     -->  UP     DB     BT          
      3.33333313E-01    3            4        -3         5             # TP     -->  CH     SB     BT          
      1.11111097E-01    3          -11        12         5             # TP     -->  E+     NUE    BT          
      1.11111097E-01    3          -13        14         5             # TP     -->  MU+    NUM    BT          
      1.11111097E-01    3          -15        16         5             # TP     -->  TAU+   NUT    BT          
#         PDG         Width
DECAY   1000021  1.13619324E+02   # GLSS  decays
#          BR          NDA       ID1       ID2       ID3       ID4
      5.62339494E-07    3      1000024         1        -2             # GLSS   -->  W1SS+  DN     UB          
      5.62339494E-07    3     -1000024         2        -1             # GLSS   -->  W1SS-  UP     DB          
      5.62339494E-07    3      1000024         3        -4             # GLSS   -->  W1SS+  ST     CB          
      5.62339494E-07    3     -1000024         4        -3             # GLSS   -->  W1SS-  CH     SB          
      9.49816720E-04    3      1000037         1        -2             # GLSS   -->  W2SS+  DN     UB          
      9.49816720E-04    3     -1000037         2        -1             # GLSS   -->  W2SS-  UP     DB          
      9.49816720E-04    3      1000037         3        -4             # GLSS   -->  W2SS+  ST     CB          
      9.49816720E-04    3     -1000037         4        -3             # GLSS   -->  W2SS-  CH     SB          
      4.40550318E-10    2      1000022        21                       # GLSS   -->  Z1SS   GL                 
      1.07696806E-07    3      1000022         2        -2             # GLSS   -->  Z1SS   UP     UB          
      2.28291910E-07    3      1000022         1        -1             # GLSS   -->  Z1SS   DN     DB          
      2.28291910E-07    3      1000022         3        -3             # GLSS   -->  Z1SS   ST     SB          
      1.07696806E-07    3      1000022         4        -4             # GLSS   -->  Z1SS   CH     CB          
      2.88607055E-10    2      1000023        21                       # GLSS   -->  Z2SS   GL                 
      6.51248726E-08    3      1000023         2        -2             # GLSS   -->  Z2SS   UP     UB          
      1.40448492E-07    3      1000023         1        -1             # GLSS   -->  Z2SS   DN     DB          
      1.40448492E-07    3      1000023         3        -3             # GLSS   -->  Z2SS   ST     SB          
      6.51248726E-08    3      1000023         4        -4             # GLSS   -->  Z2SS   CH     CB          
      1.43538216E-06    2      1000025        21                       # GLSS   -->  Z3SS   GL                 
      2.76758074E-05    3      1000025         2        -2             # GLSS   -->  Z3SS   UP     UB          
      2.66995012E-05    3      1000025         1        -1             # GLSS   -->  Z3SS   DN     DB          
      2.66995012E-05    3      1000025         3        -3             # GLSS   -->  Z3SS   ST     SB          
      2.76758074E-05    3      1000025         4        -4             # GLSS   -->  Z3SS   CH     CB          
      1.54220766E-13    2      1000035        21                       # GLSS   -->  Z4SS   GL                 
      7.81420968E-04    3      1000035         2        -2             # GLSS   -->  Z4SS   UP     UB          
      7.81765790E-04    3      1000035         1        -1             # GLSS   -->  Z4SS   DN     DB          
      7.81765790E-04    3      1000035         3        -3             # GLSS   -->  Z4SS   ST     SB          
      7.81420968E-04    3      1000035         4        -4             # GLSS   -->  Z4SS   CH     CB          
      2.71242407E-05    2     -2000002         2                       # GLSS   -->  UBR    UP                 
      2.71242407E-05    2      2000002        -2                       # GLSS   -->  UPR    UB                 
      2.83670984E-03    2     -2000001         1                       # GLSS   -->  DBR    DN                 
      2.83670984E-03    2      2000001        -1                       # GLSS   -->  DNR    DB                 
      2.83670938E-03    2     -2000003         3                       # GLSS   -->  SBR    ST                 
      2.83670938E-03    2      2000003        -3                       # GLSS   -->  STR    SB                 
      2.70945511E-05    2     -2000004         4                       # GLSS   -->  CBR    CH                 
      2.70945511E-05    2      2000004        -4                       # GLSS   -->  CHR    CB                 
      7.04545900E-02    2     -1000005         5                       # GLSS   -->  BB1    BT                 
      7.04545900E-02    2      1000005        -5                       # GLSS   -->  BT1    BB                 
      8.68036970E-03    2     -2000005         5                       # GLSS   -->  BB2    BT                 
      8.68036970E-03    2      2000005        -5                       # GLSS   -->  BT2    BB                 
      3.42246860E-01    2     -1000006         6                       # GLSS   -->  TB1    TP                 
      3.42246860E-01    2      1000006        -6                       # GLSS   -->  TP1    TB                 
      6.93709776E-02    2     -2000006         6                       # GLSS   -->  TB2    TP                 
      6.93709776E-02    2      2000006        -6                       # GLSS   -->  TP2    TB                 
#         PDG         Width
DECAY   1000002  9.08559036E+01   # UPL   decays
#          BR          NDA       ID1       ID2       ID3       ID4
      6.23090600E-05    2      1000022         2                       # UPL    -->  Z1SS   UP                 
      3.76871540E-05    2      1000023         2                       # UPL    -->  Z2SS   UP                 
      1.45046683E-02    2      1000025         2                       # UPL    -->  Z3SS   UP                 
      3.24860960E-01    2      1000035         2                       # UPL    -->  Z4SS   UP                 
      4.53382591E-03    2      1000021         2                       # UPL    -->  GLSS   UP                 
      6.43316715E-04    2      1000024         1                       # UPL    -->  W1SS+  DN                 
      6.55357242E-01    2      1000037         1                       # UPL    -->  W2SS+  DN                 
#         PDG         Width
DECAY   1000001  9.08379364E+01   # DNL   decays
#          BR          NDA       ID1       ID2       ID3       ID4
      1.32176108E-04    2      1000022         1                       # DNL    -->  Z1SS   DN                 
      8.13350343E-05    2      1000023         1                       # DNL    -->  Z2SS   DN                 
      1.40032247E-02    2      1000025         1                       # DNL    -->  Z3SS   DN                 
      3.25252563E-01    2      1000035         1                       # DNL    -->  Z4SS   DN                 
      4.55503492E-03    2      1000021         1                       # DNL    -->  GLSS   DN                 
      6.55644362E-06    2     -1000024         2                       # DNL    -->  W1SS-  UP                 
      6.55969143E-01    2     -1000037         2                       # DNL    -->  W2SS-  UP                 
#         PDG         Width
DECAY   1000003  9.08379364E+01   # STL   decays
#          BR          NDA       ID1       ID2       ID3       ID4
      1.32176108E-04    2      1000022         3                       # STL    -->  Z1SS   ST                 
      8.13350343E-05    2      1000023         3                       # STL    -->  Z2SS   ST                 
      1.40032247E-02    2      1000025         3                       # STL    -->  Z3SS   ST                 
      3.25252563E-01    2      1000035         3                       # STL    -->  Z4SS   ST                 
      4.55503492E-03    2      1000021         3                       # STL    -->  GLSS   ST                 
      6.55644362E-06    2     -1000024         4                       # STL    -->  W1SS-  CH                 
      6.55969143E-01    2     -1000037         4                       # STL    -->  W2SS-  CH                 
#         PDG         Width
DECAY   1000004  9.08558884E+01   # CHL   decays
#          BR          NDA       ID1       ID2       ID3       ID4
      6.23090600E-05    2      1000022         4                       # CHL    -->  Z1SS   CH                 
      3.76871612E-05    2      1000023         4                       # CHL    -->  Z2SS   CH                 
      1.45046702E-02    2      1000025         4                       # CHL    -->  Z3SS   CH                 
      3.24861020E-01    2      1000035         4                       # CHL    -->  Z4SS   CH                 
      4.53363126E-03    2      1000021         4                       # CHL    -->  GLSS   CH                 
      6.43316773E-04    2      1000024         3                       # CHL    -->  W1SS+  ST                 
      6.55357361E-01    2      1000037         3                       # CHL    -->  W2SS+  ST                 
#         PDG         Width
DECAY   1000005  2.55158356E+02   # BT1   decays
#          BR          NDA       ID1       ID2       ID3       ID4
      1.09445872E-02    2      1000022         5                       # BT1    -->  Z1SS   BT                 
      1.07012158E-02    2      1000023         5                       # BT1    -->  Z2SS   BT                 
      3.93516244E-03    2      1000025         5                       # BT1    -->  Z3SS   BT                 
      7.89964572E-02    2      1000035         5                       # BT1    -->  Z4SS   BT                 
      3.90728742E-01    2     -1000024         6                       # BT1    -->  W1SS-  TP                 
      1.60324529E-01    2     -1000037         6                       # BT1    -->  W2SS-  TP                 
      3.42854112E-01    2          -24   1000006                       # BT1    -->  W-     TP1                
      1.51522481E-03    2          -37   1000006                       # BT1    -->  H-     TP1                
#         PDG         Width
DECAY   1000006  1.50658630E+02   # TP1   decays
#          BR          NDA       ID1       ID2       ID3       ID4
      2.31422469E-01    2      1000022         6                       # TP1    -->  Z1SS   TP                 
      2.36049131E-01    2      1000023         6                       # TP1    -->  Z2SS   TP                 
      6.49001598E-02    2      1000025         6                       # TP1    -->  Z3SS   TP                 
      6.56980865E-06    2      1000035         6                       # TP1    -->  Z4SS   TP                 
      4.67610329E-01    2      1000024         5                       # TP1    -->  W1SS+  BT                 
      1.13514416E-05    2      1000037         5                       # TP1    -->  W2SS+  BT                 
#         PDG         Width
DECAY   2000002  2.02916679E+01   # UPR   decays
#          BR          NDA       ID1       ID2       ID3       ID4
      2.28345612E-04    2      1000022         2                       # UPR    -->  Z1SS   UP                 
      1.45845697E-04    2      1000023         2                       # UPR    -->  Z2SS   UP                 
      9.99624550E-01    2      1000025         2                       # UPR    -->  Z3SS   UP                 
      1.26572684E-06    2      1000035         2                       # UPR    -->  Z4SS   UP                 
#         PDG         Width
DECAY   2000001  4.90543985E+00   # DNR   decays
#          BR          NDA       ID1       ID2       ID3       ID4
      2.29752535E-04    2      1000022         1                       # DNR    -->  Z1SS   DN                 
      1.46744191E-04    2      1000023         1                       # DNR    -->  Z2SS   DN                 
      9.99622285E-01    2      1000025         1                       # DNR    -->  Z3SS   DN                 
      1.24332041E-06    2      1000035         1                       # DNR    -->  Z4SS   DN                 
#         PDG         Width
DECAY   2000003  4.90543985E+00   # STR   decays
#          BR          NDA       ID1       ID2       ID3       ID4
      2.29752535E-04    2      1000022         3                       # STR    -->  Z1SS   ST                 
      1.46744191E-04    2      1000023         3                       # STR    -->  Z2SS   ST                 
      9.99622285E-01    2      1000025         3                       # STR    -->  Z3SS   ST                 
      1.24332041E-06    2      1000035         3                       # STR    -->  Z4SS   ST                 
#         PDG         Width
DECAY   2000004  2.02916679E+01   # CHR   decays
#          BR          NDA       ID1       ID2       ID3       ID4
      2.28345612E-04    2      1000022         4                       # CHR    -->  Z1SS   CH                 
      1.45845683E-04    2      1000023         4                       # CHR    -->  Z2SS   CH                 
      9.99624550E-01    2      1000025         4                       # CHR    -->  Z3SS   CH                 
      1.26572684E-06    2      1000035         4                       # CHR    -->  Z4SS   CH                 
#         PDG         Width
DECAY   2000005  3.21733475E+01   # BT2   decays
#          BR          NDA       ID1       ID2       ID3       ID4
      9.73117799E-02    2      1000022         5                       # BT2    -->  Z1SS   BT                 
      9.55441892E-02    2      1000023         5                       # BT2    -->  Z2SS   BT                 
      1.47961736E-01    2      1000025         5                       # BT2    -->  Z3SS   BT                 
      3.04989189E-05    2      1000035         5                       # BT2    -->  Z4SS   BT                 
      1.92760989E-01    2     -1000024         6                       # BT2    -->  W1SS-  TP                 
      5.81161476E-05    2     -1000037         6                       # BT2    -->  W2SS-  TP                 
      1.89196260E-04    2          -24   1000006                       # BT2    -->  W-     TP1                
      4.24601696E-03    2          -24   2000006                       # BT2    -->  W-     TP2                
      2.25468841E-03    2           23   1000005                       # BT2    -->  Z0     BT1                
      2.02196604E-03    2           25   1000005                       # BT2    -->  HL0    BT1                
      1.26991287E-01    2           36   1000005                       # BT2    -->  HA0    BT1                
      1.20431393E-01    2           35   1000005                       # BT2    -->  HH0    BT1                
      2.04566657E-03    2          -37   1000006                       # BT2    -->  H-     TP1                
      2.08152488E-01    2          -37   2000006                       # BT2    -->  H-     TP2                
#         PDG         Width
DECAY   2000006  2.77601685E+02   # TP2   decays
#          BR          NDA       ID1       ID2       ID3       ID4
      1.99906100E-02    2      1000024         5                       # TP2    -->  W1SS+  BT                 
      1.47926405E-01    2      1000037         5                       # TP2    -->  W2SS+  BT                 
      1.62326351E-01    2           23   1000006                       # TP2    -->  Z0     TP1                
      2.31767729E-01    2           25   1000006                       # TP2    -->  HL0    TP1                
      7.31929089E-04    2           35   1000006                       # TP2    -->  HH0    TP1                
      6.98466552E-04    2           36   1000006                       # TP2    -->  HA0    TP1                
      1.77908674E-01    2      1000022         6                       # TP2    -->  Z1SS   TP                 
      1.81542307E-01    2      1000023         6                       # TP2    -->  Z2SS   TP                 
      4.08218428E-03    2      1000025         6                       # TP2    -->  Z3SS   TP                 
      7.30253980E-02    2      1000035         6                       # TP2    -->  Z4SS   TP                 
#         PDG         Width
DECAY   1000011  2.85227470E+01   # EL-   decays
#          BR          NDA       ID1       ID2       ID3       ID4
      3.53527430E-05    2      1000022        11                       # EL-    -->  Z1SS   E-                 
      2.04029602E-05    2      1000023        11                       # EL-    -->  Z2SS   E-                 
      2.04184026E-01    2      1000025        11                       # EL-    -->  Z3SS   E-                 
      2.58590579E-01    2      1000035        11                       # EL-    -->  Z4SS   E-                 
      1.25806419E-05    2     -1000024        12                       # EL-    -->  W1SS-  NUE                
      5.37157059E-01    2     -1000037        12                       # EL-    -->  W2SS-  NUE                
#         PDG         Width
DECAY   1000013  2.85227470E+01   # MUL-  decays
#          BR          NDA       ID1       ID2       ID3       ID4
      3.53527430E-05    2      1000022        13                       # MUL-   -->  Z1SS   MU-                
      2.04029602E-05    2      1000023        13                       # MUL-   -->  Z2SS   MU-                
      2.04184026E-01    2      1000025        13                       # MUL-   -->  Z3SS   MU-                
      2.58590579E-01    2      1000035        13                       # MUL-   -->  Z4SS   MU-                
      1.25806419E-05    2     -1000024        14                       # MUL-   -->  W1SS-  NUM                
      5.37157059E-01    2     -1000037        14                       # MUL-   -->  W2SS-  NUM                
#         PDG         Width
DECAY   1000015  1.84775562E+01   # TAU1- decays
#          BR          NDA       ID1       ID2       ID3       ID4
      5.94389625E-02    2      1000022        15                       # TAU1-  -->  Z1SS   TAU-               
      5.81713431E-02    2      1000023        15                       # TAU1-  -->  Z2SS   TAU-               
      7.65225887E-01    2      1000025        15                       # TAU1-  -->  Z3SS   TAU-               
      1.01678005E-07    2      1000035        15                       # TAU1-  -->  Z4SS   TAU-               
      1.17163688E-01    2     -1000024        16                       # TAU1-  -->  W1SS-  NUT                
      5.47955903E-09    2     -1000037        16                       # TAU1-  -->  W2SS-  NUT                
#         PDG         Width
DECAY   1000012  2.84582977E+01   # NUEL  decays
#          BR          NDA       ID1       ID2       ID3       ID4
      4.38222691E-04    2      1000022        12                       # NUEL   -->  Z1SS   NUE                
      2.72081932E-04    2      1000023        12                       # NUEL   -->  Z2SS   NUE                
      2.02061355E-01    2      1000025        12                       # NUEL   -->  Z3SS   NUE                
      2.59271801E-01    2      1000035        12                       # NUEL   -->  Z4SS   NUE                
      1.23680569E-03    2      1000024        11                       # NUEL   -->  W1SS+  E-                 
      5.36719739E-01    2      1000037        11                       # NUEL   -->  W2SS+  E-                 
#         PDG         Width
DECAY   1000014  2.84582977E+01   # NUML  decays
#          BR          NDA       ID1       ID2       ID3       ID4
      4.38222691E-04    2      1000022        14                       # NUML   -->  Z1SS   NUM                
      2.72081932E-04    2      1000023        14                       # NUML   -->  Z2SS   NUM                
      2.02061355E-01    2      1000025        14                       # NUML   -->  Z3SS   NUM                
      2.59271801E-01    2      1000035        14                       # NUML   -->  Z4SS   NUM                
      1.23680569E-03    2      1000024        13                       # NUML   -->  W1SS+  MU-                
      5.36719739E-01    2      1000037        13                       # NUML   -->  W2SS+  MU-                
#         PDG         Width
DECAY   1000016  3.19756947E+01   # NUTL  decays
#          BR          NDA       ID1       ID2       ID3       ID4
      3.85138730E-04    2      1000022        16                       # NUTL   -->  Z1SS   NUT                
      2.39123256E-04    2      1000023        16                       # NUTL   -->  Z2SS   NUT                
      1.76147014E-01    2      1000025        16                       # NUTL   -->  Z3SS   NUT                
      2.17890948E-01    2      1000035        16                       # NUTL   -->  Z4SS   NUT                
      8.79129916E-02    2      1000024        15                       # NUTL   -->  W1SS+  TAU-               
      4.51846123E-01    2      1000037        15                       # NUTL   -->  W2SS+  TAU-               
      1.86231642E-04    2           24   1000015                       # NUTL   -->  W+     TAU1-              
      6.53924644E-02    2           37   1000015                       # NUTL   -->  H+     TAU1-              
#         PDG         Width
DECAY   2000011  1.53567324E+01   # ER-   decays
#          BR          NDA       ID1       ID2       ID3       ID4
      3.32822994E-04    2      1000022        11                       # ER-    -->  Z1SS   E-                 
      2.12570027E-04    2      1000023        11                       # ER-    -->  Z2SS   E-                 
      9.99454439E-01    2      1000025        11                       # ER-    -->  Z3SS   E-                 
      2.03347298E-07    2      1000035        11                       # ER-    -->  Z4SS   E-                 
#         PDG         Width
DECAY   2000013  1.53567324E+01   # MUR-  decays
#          BR          NDA       ID1       ID2       ID3       ID4
      3.32822994E-04    2      1000022        13                       # MUR-   -->  Z1SS   MU-                
      2.12570027E-04    2      1000023        13                       # MUR-   -->  Z2SS   MU-                
      9.99454439E-01    2      1000025        13                       # MUR-   -->  Z3SS   MU-                
      2.03347298E-07    2      1000035        13                       # MUR-   -->  Z4SS   MU-                
#         PDG         Width
DECAY   2000015  3.20233116E+01   # TAU2- decays
#          BR          NDA       ID1       ID2       ID3       ID4
      4.38149907E-02    2      1000022        15                       # TAU2-  -->  Z1SS   TAU-               
      4.29598317E-02    2      1000023        15                       # TAU2-  -->  Z2SS   TAU-               
      1.78061500E-01    2      1000025        15                       # TAU2-  -->  Z3SS   TAU-               
      2.17246369E-01    2      1000035        15                       # TAU2-  -->  Z4SS   TAU-               
      9.48924480E-06    2     -1000024        16                       # TAU2-  -->  W1SS-  NUT                
      4.52077895E-01    2     -1000037        16                       # TAU2-  -->  W2SS-  NUT                
      9.43976265E-05    2           23   1000015                       # TAU2-  -->  Z0     TAU1-              
      3.02825298E-04    2           25   1000015                       # TAU2-  -->  HL0    TAU1-              
      3.28646936E-02    2           36   1000015                       # TAU2-  -->  HA0    TAU1-              
      3.25679816E-02    2           35   1000015                       # TAU2-  -->  HH0    TAU1-              
#         PDG         Width
DECAY   1000023  5.37556909E-11   # Z2SS  decays
#          BR          NDA       ID1       ID2       ID3       ID4
      4.23827857E-01    2      1000022        22                       # Z2SS   -->  Z1SS   GM                 
      9.74885598E-02    3      1000022         2        -2             # Z2SS   -->  Z1SS   UP     UB          
      1.25712141E-01    3      1000022         1        -1             # Z2SS   -->  Z1SS   DN     DB          
      1.25712141E-01    3      1000022         3        -3             # Z2SS   -->  Z1SS   ST     SB          
      2.85177343E-02    3      1000022        11       -11             # Z2SS   -->  Z1SS   E-     E+          
      2.85177343E-02    3      1000022        13       -13             # Z2SS   -->  Z1SS   MU-    MU+         
      5.67413196E-02    3      1000022        12       -12             # Z2SS   -->  Z1SS   NUE    ANUE        
      5.67413196E-02    3      1000022        14       -14             # Z2SS   -->  Z1SS   NUM    ANUM        
      5.67413196E-02    3      1000022        16       -16             # Z2SS   -->  Z1SS   NUT    ANUT        
#         PDG         Width
DECAY   1000025  8.94596767E+00   # Z3SS  decays
#          BR          NDA       ID1       ID2       ID3       ID4
      3.19027720E-08    2      1000022        22                       # Z3SS   -->  Z1SS   GM                 
      3.28123875E-08    2      1000023        22                       # Z3SS   -->  Z2SS   GM                 
      1.42602116E-01    2      1000024       -24                       # Z3SS   -->  W1SS+  W-                 
      1.42602116E-01    2     -1000024        24                       # Z3SS   -->  W1SS-  W+                 
      1.03214338E-01    2      1000024       -37                       # Z3SS   -->  W1SS+  H-                 
      1.03214338E-01    2     -1000024        37                       # Z3SS   -->  W1SS-  H+                 
      5.46243228E-02    2      1000022        23                       # Z3SS   -->  Z1SS   Z0                 
      8.89999717E-02    2      1000023        23                       # Z3SS   -->  Z2SS   Z0                 
      6.76306719E-11    3      1000022         2        -2             # Z3SS   -->  Z1SS   UP     UB          
      1.36079741E-11    3      1000022         1        -1             # Z3SS   -->  Z1SS   DN     DB          
      1.36079741E-11    3      1000022         3        -3             # Z3SS   -->  Z1SS   ST     SB          
      6.76306719E-11    3      1000022         4        -4             # Z3SS   -->  Z1SS   CH     CB          
      9.82127268E-09    3      1000022         5        -5             # Z3SS   -->  Z1SS   BT     BB          
      2.15017670E-09    3      1000022        11       -11             # Z3SS   -->  Z1SS   E-     E+          
      2.15017670E-09    3      1000022        13       -13             # Z3SS   -->  Z1SS   MU-    MU+         
      7.12204667E-07    3      1000022        15       -15             # Z3SS   -->  Z1SS   TAU-   TAU+        
      3.93405725E-10    3      1000022        12       -12             # Z3SS   -->  Z1SS   NUE    ANUE        
      3.93405725E-10    3      1000022        14       -14             # Z3SS   -->  Z1SS   NUM    ANUM        
      4.14955709E-10    3      1000022        16       -16             # Z3SS   -->  Z1SS   NUT    ANUT        
      3.61393797E-11    3      1000023         2        -2             # Z3SS   -->  Z2SS   UP     UB          
      7.11700620E-12    3      1000023         1        -1             # Z3SS   -->  Z2SS   DN     DB          
      7.11700620E-12    3      1000023         3        -3             # Z3SS   -->  Z2SS   ST     SB          
      3.61393797E-11    3      1000023         4        -4             # Z3SS   -->  Z2SS   CH     CB          
      9.61898028E-09    3      1000023         5        -5             # Z3SS   -->  Z2SS   BT     BB          
      1.16197052E-09    3      1000023        11       -11             # Z3SS   -->  Z2SS   E-     E+          
      1.16197052E-09    3      1000023        13       -13             # Z3SS   -->  Z2SS   MU-    MU+         
      6.96688346E-07    3      1000023        15       -15             # Z3SS   -->  Z2SS   TAU-   TAU+        
      2.06042655E-10    3      1000023        12       -12             # Z3SS   -->  Z2SS   NUE    ANUE        
      2.06042655E-10    3      1000023        14       -14             # Z3SS   -->  Z2SS   NUM    ANUM        
      2.17372426E-10    3      1000023        16       -16             # Z3SS   -->  Z2SS   NUT    ANUT        
      9.76371095E-02    2      1000022        25                       # Z3SS   -->  Z1SS   HL0                
      5.02509847E-02    2      1000022        35                       # Z3SS   -->  Z1SS   HH0                
      5.26774488E-02    2      1000022        36                       # Z3SS   -->  Z1SS   HA0                
      6.29864782E-02    2      1000023        25                       # Z3SS   -->  Z2SS   HL0                
      5.14536351E-02    2      1000023        35                       # Z3SS   -->  Z2SS   HH0                
      4.97357957E-02    2      1000023        36                       # Z3SS   -->  Z2SS   HA0                
#         PDG         Width
DECAY   1000035  6.49018860E+01   # Z4SS  decays
#          BR          NDA       ID1       ID2       ID3       ID4
      2.29988316E-07    2      1000022        22                       # Z4SS   -->  Z1SS   GM                 
      3.41320600E-07    2      1000023        22                       # Z4SS   -->  Z2SS   GM                 
      4.46409532E-09    2      1000025        22                       # Z4SS   -->  Z3SS   GM                 
      1.34178028E-01    2      1000024       -24                       # Z4SS   -->  W1SS+  W-                 
      1.34178028E-01    2     -1000024        24                       # Z4SS   -->  W1SS-  W+                 
      1.19018517E-01    2      1000024       -37                       # Z4SS   -->  W1SS+  H-                 
      1.19018517E-01    2     -1000024        37                       # Z4SS   -->  W1SS-  H+                 
      5.33784623E-06    3     -1000037         2        -1             # Z4SS   -->  W2SS-  UP     DB          
      1.77928200E-06    3     -1000037        12       -11             # Z4SS   -->  W2SS-  NUE    E+          
      1.77928200E-06    3     -1000037        14       -13             # Z4SS   -->  W2SS-  NUM    MU+         
      5.33784623E-06    3      1000037         1        -2             # Z4SS   -->  W2SS+  DN     UB          
      1.77928200E-06    3      1000037        11       -12             # Z4SS   -->  W2SS+  E-     ANUE        
      1.77928200E-06    3      1000037        13       -14             # Z4SS   -->  W2SS+  MU-    ANUM        
      5.33784623E-06    3     -1000037         4        -3             # Z4SS   -->  W2SS-  CH     SB          
      1.77928200E-06    3     -1000037        16       -15             # Z4SS   -->  W2SS-  NUT    TAU+        
      5.33784623E-06    3      1000037         3        -4             # Z4SS   -->  W2SS+  ST     CB          
      1.77928200E-06    3      1000037        15       -16             # Z4SS   -->  W2SS+  TAU-   ANUT        
      4.39343452E-02    2      1000022        23                       # Z4SS   -->  Z1SS   Z0                 
      7.49033019E-02    2      1000023        23                       # Z4SS   -->  Z2SS   Z0                 
      1.31904972E-05    2      1000025        23                       # Z4SS   -->  Z3SS   Z0                 
      4.10917217E-10    3      1000022         2        -2             # Z4SS   -->  Z1SS   UP     UB          
      8.72180161E-10    3      1000022         1        -1             # Z4SS   -->  Z1SS   DN     DB          
      8.72180161E-10    3      1000022         3        -3             # Z4SS   -->  Z1SS   ST     SB          
      4.10917217E-10    3      1000022         4        -4             # Z4SS   -->  Z1SS   CH     CB          
      5.33077866E-07    3      1000022         5        -5             # Z4SS   -->  Z1SS   BT     BB          
      4.15611517E-10    3      1000022        11       -11             # Z4SS   -->  Z1SS   E-     E+          
      4.15611517E-10    3      1000022        13       -13             # Z4SS   -->  Z1SS   MU-    MU+         
      5.99812324E-07    3      1000022        15       -15             # Z4SS   -->  Z1SS   TAU-   TAU+        
      5.17202148E-09    3      1000022        12       -12             # Z4SS   -->  Z1SS   NUE    ANUE        
      5.17202148E-09    3      1000022        14       -14             # Z4SS   -->  Z1SS   NUM    ANUM        
      5.51720403E-09    3      1000022        16       -16             # Z4SS   -->  Z1SS   NUT    ANUT        
      2.26336463E-10    3      1000023         2        -2             # Z4SS   -->  Z2SS   UP     UB          
      4.88752205E-10    3      1000023         1        -1             # Z4SS   -->  Z2SS   DN     DB          
      4.88752205E-10    3      1000023         3        -3             # Z4SS   -->  Z2SS   ST     SB          
      2.26336463E-10    3      1000023         4        -4             # Z4SS   -->  Z2SS   CH     CB          
      5.21636935E-07    3      1000023         5        -5             # Z4SS   -->  Z2SS   BT     BB          
      2.20939350E-10    3      1000023        11       -11             # Z4SS   -->  Z2SS   E-     E+          
      2.20939350E-10    3      1000023        13       -13             # Z4SS   -->  Z2SS   MU-    MU+         
      5.87939098E-07    3      1000023        15       -15             # Z4SS   -->  Z2SS   TAU-   TAU+        
      2.95793212E-09    3      1000023        12       -12             # Z4SS   -->  Z2SS   NUE    ANUE        
      2.95793212E-09    3      1000023        14       -14             # Z4SS   -->  Z2SS   NUM    ANUM        
      3.15704107E-09    3      1000023        16       -16             # Z4SS   -->  Z2SS   NUT    ANUT        
      1.79293522E-08    3      1000025         2        -2             # Z4SS   -->  Z3SS   UP     UB          
      1.73190386E-08    3      1000025         1        -1             # Z4SS   -->  Z3SS   DN     DB          
      1.73190386E-08    3      1000025         3        -3             # Z4SS   -->  Z3SS   ST     SB          
      1.79293522E-08    3      1000025         4        -4             # Z4SS   -->  Z3SS   CH     CB          
      4.09777527E-08    3      1000025         5        -5             # Z4SS   -->  Z3SS   BT     BB          
      6.41282952E-07    3      1000025        11       -11             # Z4SS   -->  Z3SS   E-     E+          
      6.41282952E-07    3      1000025        13       -13             # Z4SS   -->  Z3SS   MU-    MU+         
      6.90162381E-07    3      1000025        15       -15             # Z4SS   -->  Z3SS   TAU-   TAU+        
      6.37541575E-07    3      1000025        12       -12             # Z4SS   -->  Z3SS   NUE    ANUE        
      6.37541575E-07    3      1000025        14       -14             # Z4SS   -->  Z3SS   NUM    ANUM        
      6.85136229E-07    3      1000025        16       -16             # Z4SS   -->  Z3SS   NUT    ANUT        
      7.97709376E-02    2      1000022        25                       # Z4SS   -->  Z1SS   HL0                
      5.52559011E-02    2      1000022        35                       # Z4SS   -->  Z1SS   HH0                
      6.51110187E-02    2      1000022        36                       # Z4SS   -->  Z1SS   HA0                
      5.60060516E-02    2      1000023        25                       # Z4SS   -->  Z2SS   HL0                
      6.40164316E-02    2      1000023        35                       # Z4SS   -->  Z2SS   HH0                
      5.43769263E-02    2      1000023        36                       # Z4SS   -->  Z2SS   HA0                
      1.79300521E-04    2      1000025        25                       # Z4SS   -->  Z3SS   HL0                
      3.93444253E-07    2      1000025        35                       # Z4SS   -->  Z3SS   HH0                
      3.28636361E-07    2      1000025        36                       # Z4SS   -->  Z3SS   HA0                
#         PDG         Width
DECAY   1000024  9.90033833E-09   # W1SS+ decays
#          BR          NDA       ID1       ID2       ID3       ID4
      2.99300879E-01    3      1000022         2        -1             # W1SS+  -->  Z1SS   UP     DB          
      2.99300879E-01    3      1000022         4        -3             # W1SS+  -->  Z1SS   CH     SB          
      9.97669622E-02    3      1000022       -11        12             # W1SS+  -->  Z1SS   E+     NUE         
      9.97669622E-02    3      1000022       -13        14             # W1SS+  -->  Z1SS   MU+    NUM         
      9.97677669E-02    3      1000022       -15        16             # W1SS+  -->  Z1SS   TAU+   NUT         
      3.40321772E-02    3      1000023         2        -1             # W1SS+  -->  Z2SS   UP     DB          
      3.40321772E-02    3      1000023         4        -3             # W1SS+  -->  Z2SS   CH     SB          
      1.13440584E-02    3      1000023       -11        12             # W1SS+  -->  Z2SS   E+     NUE         
      1.13440584E-02    3      1000023       -13        14             # W1SS+  -->  Z2SS   MU+    NUM         
      1.13439877E-02    3      1000023       -15        16             # W1SS+  -->  Z2SS   TAU+   NUT         
#         PDG         Width
DECAY   1000037  6.20616531E+01   # W2SS+ decays
#          BR          NDA       ID1       ID2       ID3       ID4
      1.15923504E-09    3      1000022         2        -1             # W2SS+  -->  Z1SS   UP     DB          
      1.15923504E-09    3      1000022         4        -3             # W2SS+  -->  Z1SS   CH     SB          
      5.13990672E-09    3      1000022       -11        12             # W2SS+  -->  Z1SS   E+     NUE         
      5.13990672E-09    3      1000022       -13        14             # W2SS+  -->  Z1SS   MU+    NUM         
      5.95156621E-07    3      1000022       -15        16             # W2SS+  -->  Z1SS   TAU+   NUT         
      1.21759288E-01    2      1000022        24                       # W2SS+  -->  Z1SS   W+                 
      1.24289326E-01    2      1000022        37                       # W2SS+  -->  Z1SS   H+                 
      7.74520281E-10    3      1000023         2        -1             # W2SS+  -->  Z2SS   UP     DB          
      7.74520281E-10    3      1000023         4        -3             # W2SS+  -->  Z2SS   CH     SB          
      3.31369043E-09    3      1000023       -11        12             # W2SS+  -->  Z2SS   E+     NUE         
      3.31369043E-09    3      1000023       -13        14             # W2SS+  -->  Z2SS   MU+    NUM         
      5.81752317E-07    3      1000023       -15        16             # W2SS+  -->  Z2SS   TAU+   NUT         
      1.15767948E-01    2      1000023        24                       # W2SS+  -->  Z2SS   W+                 
      1.21846728E-01    2      1000023        37                       # W2SS+  -->  Z2SS   H+                 
      3.31092309E-08    3      1000025         2        -1             # W2SS+  -->  Z3SS   UP     DB          
      3.31092309E-08    3      1000025         4        -3             # W2SS+  -->  Z3SS   CH     SB          
      1.19005404E-06    3      1000025       -11        12             # W2SS+  -->  Z3SS   E+     NUE         
      1.19005404E-06    3      1000025       -13        14             # W2SS+  -->  Z3SS   MU+    NUM         
      1.27915109E-06    3      1000025       -15        16             # W2SS+  -->  Z3SS   TAU+   NUT         
      1.06751372E-03    2      1000025        24                       # W2SS+  -->  Z3SS   W+                 
      5.95470453E-07    2      1000025        37                       # W2SS+  -->  Z3SS   H+                 
      1.28749385E-01    2      1000024        23                       # W2SS+  -->  W1SS+  Z0                 
      4.00634725E-09    3      1000024         1        -1             # W2SS+  -->  W1SS+  DN     DB          
      4.00634725E-09    3      1000024         3        -3             # W2SS+  -->  W1SS+  ST     SB          
      4.08436930E-11    3      1000024         2        -2             # W2SS+  -->  W1SS+  UP     UB          
      4.08436930E-11    3      1000024         4        -4             # W2SS+  -->  W1SS+  CH     CB          
      1.39448689E-10    3      1000024        12       -12             # W2SS+  -->  W1SS+  NUE    ANUE        
      1.39448689E-10    3      1000024        14       -14             # W2SS+  -->  W1SS+  NUM    ANUM        
      6.41122488E-10    3      1000024        16       -16             # W2SS+  -->  W1SS+  NUT    ANUT        
      1.37151748E-08    3      1000024        11       -11             # W2SS+  -->  W1SS+  E-     E+          
      1.37151748E-08    3      1000024        13       -13             # W2SS+  -->  W1SS+  MU-    MU+         
      1.46273269E-08    3      1000024        15       -15             # W2SS+  -->  W1SS+  TAU-   TAU+        
      1.40658319E-01    2      1000024        25                       # W2SS+  -->  W1SS+  HL0                
      1.22815266E-01    2      1000024        35                       # W2SS+  -->  W1SS+  HH0                
      1.23040698E-01    2      1000024        36                       # W2SS+  -->  W1SS+  HA0                
#         PDG         Width
DECAY        25  4.00658930E-03   # HL0   decays
#          BR          NDA       ID1       ID2       ID3       ID4
      5.58752955E-09    2           11       -11                       # HL0    -->  E-     E+                 
      2.35914587E-04    2           13       -13                       # HL0    -->  MU-    MU+                
      6.74887821E-02    2           15       -15                       # HL0    -->  TAU-   TAU+               
      7.00369355E-06    2            1        -1                       # HL0    -->  DN     DB                 
      2.82984390E-03    2            3        -3                       # HL0    -->  ST     SB                 
      6.06349945E-01    2            5        -5                       # HL0    -->  BT     BB                 
      2.13711292E-06    2            2        -2                       # HL0    -->  UP     UB                 
      3.96903753E-02    2            4        -4                       # HL0    -->  CH     CB                 
      2.65399506E-03    2           22        22                       # HL0    -->  GM     GM                 
      5.30999638E-02    2           21        21                       # HL0    -->  GL     GL                 
      1.13612600E-02    3           24        11       -12             # HL0    -->  W+     E-     ANUE        
      1.13612600E-02    3           24        13       -14             # HL0    -->  W+     MU-    ANUM        
      1.13612600E-02    3           24        15       -16             # HL0    -->  W+     TAU-   ANUT        
      3.40837799E-02    3           24        -2         1             # HL0    -->  W+     UB     DN          
      3.40837799E-02    3           24        -4         3             # HL0    -->  W+     CB     ST          
      1.13612600E-02    3          -24       -11        12             # HL0    -->  W-     E+     NUE         
      1.13612600E-02    3          -24       -13        14             # HL0    -->  W-     MU+    NUM         
      1.13612600E-02    3          -24       -15        16             # HL0    -->  W-     TAU+   NUT         
      3.40837799E-02    3          -24         2        -1             # HL0    -->  W-     UP     DB          
      3.40837799E-02    3          -24         4        -3             # HL0    -->  W-     CH     SB          
      1.58251124E-03    3           23        12       -12             # HL0    -->  Z0     NUE    ANUE        
      1.58251124E-03    3           23        14       -14             # HL0    -->  Z0     NUM    ANUM        
      1.58251124E-03    3           23        16       -16             # HL0    -->  Z0     NUT    ANUT        
      7.96462060E-04    3           23        11       -11             # HL0    -->  Z0     E-     E+          
      7.96462060E-04    3           23        13       -13             # HL0    -->  Z0     MU-    MU+         
      7.96462060E-04    3           23        15       -15             # HL0    -->  Z0     TAU-   TAU+        
      2.72861146E-03    3           23         2        -2             # HL0    -->  Z0     UP     UB          
      2.72861146E-03    3           23         4        -4             # HL0    -->  Z0     CH     CB          
      3.51512386E-03    3           23         1        -1             # HL0    -->  Z0     DN     DB          
      3.51512386E-03    3           23         3        -3             # HL0    -->  Z0     ST     SB          
      3.51512386E-03    3           23         5        -5             # HL0    -->  Z0     BT     BB          
#         PDG         Width
DECAY        35  3.53853989E+00   # HH0   decays
#          BR          NDA       ID1       ID2       ID3       ID4
      1.08753824E-08    2           11       -11                       # HH0    -->  E-     E+                 
      4.59178205E-04    2           13       -13                       # HH0    -->  MU-    MU+                
      1.31513238E-01    2           15       -15                       # HH0    -->  TAU-   TAU+               
      1.33223912E-05    2            1        -1                       # HH0    -->  DN     DB                 
      5.38292062E-03    2            3        -3                       # HH0    -->  ST     SB                 
      8.02296519E-01    2            5        -5                       # HH0    -->  BT     BB                 
      8.82936294E-11    2            2        -2                       # HH0    -->  UP     UB                 
      1.24343819E-06    2            4        -4                       # HH0    -->  CH     CB                 
      5.67227229E-02    2            6        -6                       # HH0    -->  TP     TB                 
      1.61428204E-07    2           22        22                       # HH0    -->  GM     GM                 
      2.39560977E-05    2           21        21                       # HH0    -->  GL     GL                 
      2.29167505E-04    2           24       -24                       # HH0    -->  W+     W-                 
      1.16352043E-04    2           23        23                       # HH0    -->  Z0     Z0                 
      4.75187291E-04    2      1000022   1000022                       # HH0    -->  Z1SS   Z1SS               
      2.98921823E-05    2      1000022   1000023                       # HH0    -->  Z1SS   Z2SS               
      3.79148230E-04    2      1000023   1000023                       # HH0    -->  Z2SS   Z2SS               
      1.49488356E-03    2      1000024  -1000024                       # HH0    -->  W1SS+  W1SS-              
      8.62097251E-04    2           25        25                       # HH0    -->  HL0    HL0                
#         PDG         Width
DECAY        36  3.52549911E+00   # HA0   decays
#          BR          NDA       ID1       ID2       ID3       ID4
      1.08456257E-08    2           11       -11                       # HA0    -->  E-     E+                 
      4.57921880E-04    2           13       -13                       # HA0    -->  MU-    MU+                
      1.31155029E-01    2           15       -15                       # HA0    -->  TAU-   TAU+               
      1.32866726E-05    2            1        -1                       # HA0    -->  DN     DB                 
      5.36848884E-03    2            3        -3                       # HA0    -->  ST     SB                 
      8.00181329E-01    2            5        -5                       # HA0    -->  BT     BB                 
      8.39765688E-11    2            2        -2                       # HA0    -->  UP     UB                 
      1.18357207E-06    2            4        -4                       # HA0    -->  CH     CB                 
      5.99707216E-02    2            6        -6                       # HA0    -->  TP     TB                 
      3.29896949E-07    2           22        22                       # HA0    -->  GM     GM                 
      7.43764540E-05    2           21        21                       # HA0    -->  GL     GL                 
      6.46520581E-04    2      1000022   1000022                       # HA0    -->  Z1SS   Z1SS               
      1.90028152E-06    2      1000022   1000023                       # HA0    -->  Z1SS   Z2SS               
      3.01037857E-04    2      1000023   1000023                       # HA0    -->  Z2SS   Z2SS               
      1.60744204E-03    2      1000024  -1000024                       # HA0    -->  W1SS+  W1SS-              
      2.20432354E-04    2           25        23                       # HA0    -->  HL0    Z0                 
#         PDG         Width
DECAY        37  3.11891603E+00   # H+    decays
#          BR          NDA       ID1       ID2       ID3       ID4
      1.22990480E-08    2           12       -11                       # H+     -->  NUE    E+                 
      5.19288005E-04    2           14       -13                       # H+     -->  NUM    MU+                
      1.48731112E-01    2           16       -15                       # H+     -->  NUT    TAU+               
      1.38491823E-05    2            2        -1                       # H+     -->  UP     DB                 
      5.59694739E-03    2            4        -3                       # H+     -->  CH     SB                 
      8.44796956E-01    2            6        -5                       # H+     -->  TP     BB                 
      1.86815105E-05    2      1000024   1000022                       # H+     -->  W1SS+  Z1SS               
      7.33467750E-05    2      1000024   1000023                       # H+     -->  W1SS+  Z2SS               
      2.49879959E-04    2           25        24                       # H+     -->  HL0    W+                 
