#  ISAJET SUSY parameters in SUSY Les Houches Accord 2 format
#  Created by ISALHA 2.0 Last revision: H Baer 27 May 2014
Block SPINFO   # Program information
     1   ISASUGRA/ISASUSY from ISAJET   # Spectrum Calculator
     2   7.87   18-JUL-2017 13:55:55    # Version number
Block MODSEL   # Model selection
     1    13   # Non-universal supergravity model                  
Block SMINPUTS   # Standard Model inputs
     1     1.28000000E+02   # alpha_em^(-1)
     2     1.16570000E-05   # G_Fermi
     3     1.19999997E-01   # alpha_s(M_Z)
     4     9.11699982E+01   # m_{Z}(pole)
     5     4.19999981E+00   # m_{b}(m_{b})
     6     1.72500000E+02   # m_{top}(pole)
     7     1.77699995E+00   # m_{tau}(pole)
Block MINPAR   # SUSY breaking input parameters
     1     5.00000000E+03   # m_0
     2     5.00000000E+02   # m_{1/2}
     3     1.50000000E+01   # tan(beta)
     4     1.00000000E+00   # sign(mu)
     5    -8.00000000E+03   # A_0
Block EXTPAR   # Non-universal SUSY breaking parameters
     0     1.95272020E+16   # Input scale
    21     2.99196225E+06   # Down type Higgs mass squared
    22     3.76810320E+07   #  Up  type Higgs mass squared
Block MASS   # Scalar and gaugino mass spectrum
#  PDG code   mass                 particle
         6     1.72500000E+02   #  top            
        24     8.04229965E+01   #  W^+
        25     1.24347298E+02   #  h^0            
        35     1.00666620E+03   #  H^0            
        36     1.00000000E+03   #  A^0            
        37     1.00322870E+03   #  H^+            
   1000001     5.03144043E+03   #  dnl            
   1000002     5.03079541E+03   #  upl            
   1000003     5.03144043E+03   #  stl            
   1000004     5.03079590E+03   #  chl            
   1000005     3.52808569E+03   #  b1             
   1000006     1.46363367E+03   #  t1             
   1000011     5.08893652E+03   #  el-            
   1000012     5.09366309E+03   #  nuel           
   1000013     5.08893652E+03   #  mul-           
   1000014     5.09366309E+03   #  numl           
   1000015     4.66131934E+03   #  tau1           
   1000016     5.01848975E+03   #  nutl           
   1000021     1.36105823E+03   #  glss           
   1000022     1.49652283E+02   #  z1ss           
   1000023    -1.80467880E+02   #  z2ss           
   1000024     1.71423492E+02   #  w1ss           
   1000025     2.37921814E+02   #  z3ss           
   1000035     4.59096039E+02   #  z4ss           
   1000037     4.49720551E+02   #  w2ss           
   1000039     1.00000002E+20   #  gvss
   2000001     5.01410840E+03   #  dnr            
   2000002     5.18490234E+03   #  upr            
   2000003     5.01410840E+03   #  str            
   2000004     5.18490234E+03   #  chr            
   2000005     4.85578418E+03   #  b2             
   2000006     3.50339868E+03   #  t2             
   2000011     4.82214404E+03   #  er-            
   2000013     4.82214404E+03   #  mur-           
   2000015     5.01235693E+03   #  tau2           
Block ALPHA   # Effective Higgs mixing parameter
         -6.81109130E-02   # alpha
Block STOPMIX   # stop mixing matrix
  1  1     4.96920198E-02   # O_{11}
  1  2     9.98764575E-01   # O_{12}
  2  1    -9.98764575E-01   # O_{21}
  2  2     4.96920198E-02   # O_{22}
Block SBOTMIX   # sbottom mixing matrix
  1  1     9.99994516E-01   # O_{11}
  1  2     3.31486645E-03   # O_{12}
  2  1    -3.31486645E-03   # O_{21}
  2  2     9.99994516E-01   # O_{22}
Block STAUMIX   # stau mixing matrix
  1  1     7.96639081E-03   # O_{11}
  1  2     9.99968290E-01   # O_{12}
  2  1    -9.99968290E-01   # O_{21}
  2  2     7.96639081E-03   # O_{22}
Block NMIX   # neutralino mixing matrix
  1  1     3.66029441E-01   #
  1  2    -1.81239262E-01   #
  1  3     6.85483515E-01   #
  1  4    -6.02732956E-01   #
  2  1     7.00657219E-02   #
  2  2    -8.00484046E-02   #
  2  3    -6.88969970E-01   #
  2  4    -7.16940165E-01   #
  3  1    -9.27083373E-01   #
  3  2    -1.19969904E-01   #
  3  3     2.14327842E-01   #
  3  4    -2.83173978E-01   #
  4  1     4.03724313E-02   #
  4  2    -9.72806215E-01   #
  4  3    -9.74483863E-02   #
  4  4     2.06208780E-01   #
Block UMIX   # chargino U mixing matrix
  1  1    -1.34015635E-01   # U_{11}
  1  2     9.90979195E-01   # U_{12}
  2  1    -9.90979195E-01   # U_{21}
  2  2    -1.34015635E-01   # U_{22}
Block VMIX   # chargino V mixing matrix
  1  1    -2.85505205E-01   # V_{11}
  1  2     9.58377182E-01   # V_{12}
  2  1    -9.58377182E-01   # V_{21}
  2  2    -2.85505205E-01   # V_{22}
Block GAUGE Q=  2.28615430E+03   #
     1     3.57524931E-01   # g`
     2     6.52379453E-01   # g_2
     3     1.21927965E+00   # g_3
Block YU Q=  2.28615430E+03   #
  3  3     8.34943712E-01   # y_t
Block YD Q=  2.28615430E+03   #
  3  3     1.95012346E-01   # y_b
Block YE Q=  2.28615430E+03   #
  3  3     1.51304275E-01   # y_tau
Block HMIX Q=  2.28615430E+03   # Higgs mixing parameters
     1     1.70000000E+02   # mu(Q)
     2     1.43665314E+01   # tan(beta)(Q)
     3     2.52221664E+02   # Higgs vev at Q
     4     1.00000000E+06   # m_A^2(Q)
Block MSOFT Q=  2.28615430E+03   # DRbar SUSY breaking parameters
     1     2.23529099E+02   # M_1(Q)          
     2     4.11389313E+02   # M_2(Q)          
     3     1.14154883E+03   # M_3(Q)          
    21     9.41691125E+05   # MHd^2(Q)        
    22    -4.63872930E+04   # MHu^2(Q)        
    31     5.07274365E+03   # MeL(Q)          
    32     5.07274365E+03   # MmuL(Q)         
    33     4.99959961E+03   # MtauL(Q)        
    34     4.81857813E+03   # MeR(Q)          
    35     4.81857813E+03   # MmuR(Q)         
    36     4.65832764E+03   # MtauR(Q)        
    41     4.95609082E+03   # MqL1(Q)         
    42     4.95609082E+03   # MqL2(Q)         
    43     3.48477612E+03   # MqL3(Q)         
    44     5.10837939E+03   # MuR(Q)          
    45     5.10837939E+03   # McR(Q)          
    46     1.49980994E+03   # MtR(Q)          
    47     4.93922998E+03   # MdR(Q)          
    48     4.93922998E+03   # MsR(Q)          
    49     4.80325488E+03   # MbR(Q)          
Block AU Q=  2.28615430E+03   #
  1  1    -3.73361475E+03   # A_u
  2  2    -3.73361475E+03   # A_c
  3  3    -3.73361475E+03   # A_t
Block AD Q=  2.28615430E+03   #
  1  1    -8.02393848E+03   # A_d
  2  2    -8.02393848E+03   # A_s
  3  3    -8.02393848E+03   # A_b
Block AE Q=  2.28615430E+03   #
  1  1    -7.93671387E+03   # A_e
  2  2    -7.93671387E+03   # A_mu
  3  3    -7.93671387E+03   # A_tau
#  ISAJET decay tables in SUSY Les Houches accord format
#  Created by ISALHD. Last revision: C. Balazs, 2005 May 25
Block DCINFO                           # Program information
     1   ISASUGRA from ISAJET          # Spectrum Calculator
     2   7.87   18-JUL-2017 13:55:55   # Version number
#         PDG         Width
DECAY         6  1.46776152E+00   # TP    decays
#          BR          NDA       ID1       ID2       ID3       ID4
      3.33333313E-01    3            2        -1         5             # TP     -->  UP     DB     BT          
      3.33333313E-01    3            4        -3         5             # TP     -->  CH     SB     BT          
      1.11111097E-01    3          -11        12         5             # TP     -->  E+     NUE    BT          
      1.11111097E-01    3          -13        14         5             # TP     -->  MU+    NUM    BT          
      1.11111097E-01    3          -15        16         5             # TP     -->  TAU+   NUT    BT          
#         PDG         Width
DECAY   1000021  3.55099663E-02   # GLSS  decays
#          BR          NDA       ID1       ID2       ID3       ID4
      5.56259038E-05    3      1000024         1        -2             # GLSS   -->  W1SS+  DN     UB          
      5.56259038E-05    3     -1000024         2        -1             # GLSS   -->  W1SS-  UP     DB          
      5.56258856E-05    3      1000024         3        -4             # GLSS   -->  W1SS+  ST     CB          
      5.56258856E-05    3     -1000024         4        -3             # GLSS   -->  W1SS-  CH     SB          
      2.25271389E-01    3      1000024         5        -6             # GLSS   -->  W1SS+  BT     TB          
      2.25271389E-01    3     -1000024         6        -5             # GLSS   -->  W1SS-  TP     BB          
      6.56407443E-04    3      1000037         1        -2             # GLSS   -->  W2SS+  DN     UB          
      6.56407443E-04    3     -1000037         2        -1             # GLSS   -->  W2SS-  UP     DB          
      6.56407326E-04    3      1000037         3        -4             # GLSS   -->  W2SS+  ST     CB          
      6.56407326E-04    3     -1000037         4        -3             # GLSS   -->  W2SS-  CH     SB          
      1.47823570E-02    3      1000037         5        -6             # GLSS   -->  W2SS+  BT     TB          
      1.47823570E-02    3     -1000037         6        -5             # GLSS   -->  W2SS-  TP     BB          
      2.83513498E-03    2      1000022        21                       # GLSS   -->  Z1SS   GL                 
      4.50433581E-05    3      1000022         2        -2             # GLSS   -->  Z1SS   UP     UB          
      4.69686602E-05    3      1000022         1        -1             # GLSS   -->  Z1SS   DN     DB          
      4.69686602E-05    3      1000022         3        -3             # GLSS   -->  Z1SS   ST     SB          
      4.50433545E-05    3      1000022         4        -4             # GLSS   -->  Z1SS   CH     CB          
      5.10009821E-04    3      1000022         5        -5             # GLSS   -->  Z1SS   BT     BB          
      1.54855594E-01    3      1000022         6        -6             # GLSS   -->  Z1SS   TP     TB          
      4.59390925E-03    2      1000023        21                       # GLSS   -->  Z2SS   GL                 
      2.56037879E-06    3      1000023         2        -2             # GLSS   -->  Z2SS   UP     UB          
      3.47560103E-06    3      1000023         1        -1             # GLSS   -->  Z2SS   DN     DB          
      3.47560103E-06    3      1000023         3        -3             # GLSS   -->  Z2SS   ST     SB          
      2.56037788E-06    3      1000023         4        -4             # GLSS   -->  Z2SS   CH     CB          
      3.50150804E-04    3      1000023         5        -5             # GLSS   -->  Z2SS   BT     BB          
      2.16466635E-01    3      1000023         6        -6             # GLSS   -->  Z2SS   TP     TB          
      1.70677935E-03    2      1000025        21                       # GLSS   -->  Z3SS   GL                 
      2.69447017E-04    3      1000025         2        -2             # GLSS   -->  Z3SS   UP     UB          
      6.54849064E-05    3      1000025         1        -1             # GLSS   -->  Z3SS   DN     DB          
      6.54849064E-05    3      1000025         3        -3             # GLSS   -->  Z3SS   ST     SB          
      2.69446988E-04    3      1000025         4        -4             # GLSS   -->  Z3SS   CH     CB          
      1.10191999E-04    3      1000025         5        -5             # GLSS   -->  Z3SS   BT     BB          
      1.19283967E-01    3      1000025         6        -6             # GLSS   -->  Z3SS   TP     TB          
      2.74710357E-04    2      1000035        21                       # GLSS   -->  Z4SS   GL                 
      3.12924298E-04    3      1000035         2        -2             # GLSS   -->  Z4SS   UP     UB          
      3.22223699E-04    3      1000035         1        -1             # GLSS   -->  Z4SS   DN     DB          
      3.22223699E-04    3      1000035         3        -3             # GLSS   -->  Z4SS   ST     SB          
      3.12924210E-04    3      1000035         4        -4             # GLSS   -->  Z4SS   CH     CB          
      1.44611369E-03    3      1000035         5        -5             # GLSS   -->  Z4SS   BT     BB          
      1.24748321E-02    3      1000035         6        -6             # GLSS   -->  Z4SS   TP     TB          
#         PDG         Width
DECAY   1000002  2.90892456E+02   # UPL   decays
#          BR          NDA       ID1       ID2       ID3       ID4
      9.47388879E-04    2      1000022         2                       # UPL    -->  Z1SS   UP                 
      3.28012044E-04    2      1000023         2                       # UPL    -->  Z2SS   UP                 
      6.08726591E-03    2      1000025         2                       # UPL    -->  Z3SS   UP                 
      6.67230412E-02    2      1000035         2                       # UPL    -->  Z4SS   UP                 
      7.82475591E-01    2      1000021         2                       # UPL    -->  GLSS   UP                 
      1.18403686E-02    2      1000024         1                       # UPL    -->  W1SS+  DN                 
      1.31598294E-01    2      1000037         1                       # UPL    -->  W2SS+  DN                 
#         PDG         Width
DECAY   1000001  2.90895569E+02   # DNL   decays
#          BR          NDA       ID1       ID2       ID3       ID4
      4.48070653E-03    2      1000022         1                       # DNL    -->  Z1SS   DN                 
      6.26526889E-04    2      1000023         1                       # DNL    -->  Z2SS   DN                 
      1.80320683E-04    2      1000025         1                       # DNL    -->  Z3SS   DN                 
      6.87918887E-02    2      1000035         1                       # DNL    -->  Z4SS   DN                 
      7.82590389E-01    2      1000021         1                       # DNL    -->  GLSS   DN                 
      2.60915235E-03    2     -1000024         2                       # DNL    -->  W1SS-  UP                 
      1.40721098E-01    2     -1000037         2                       # DNL    -->  W2SS-  UP                 
#         PDG         Width
DECAY   1000003  2.90895569E+02   # STL   decays
#          BR          NDA       ID1       ID2       ID3       ID4
      4.48070653E-03    2      1000022         3                       # STL    -->  Z1SS   ST                 
      6.26526889E-04    2      1000023         3                       # STL    -->  Z2SS   ST                 
      1.80320683E-04    2      1000025         3                       # STL    -->  Z3SS   ST                 
      6.87918887E-02    2      1000035         3                       # STL    -->  Z4SS   ST                 
      7.82590389E-01    2      1000021         3                       # STL    -->  GLSS   ST                 
      2.60915211E-03    2     -1000024         4                       # STL    -->  W1SS-  CH                 
      1.40721083E-01    2     -1000037         4                       # STL    -->  W2SS-  CH                 
#         PDG         Width
DECAY   1000004  2.90892456E+02   # CHL   decays
#          BR          NDA       ID1       ID2       ID3       ID4
      9.47388762E-04    2      1000022         4                       # CHL    -->  Z1SS   CH                 
      3.28012044E-04    2      1000023         4                       # CHL    -->  Z2SS   CH                 
      6.08726591E-03    2      1000025         4                       # CHL    -->  Z3SS   CH                 
      6.67230412E-02    2      1000035         4                       # CHL    -->  Z4SS   CH                 
      7.82475650E-01    2      1000021         4                       # CHL    -->  GLSS   CH                 
      1.18403696E-02    2      1000024         3                       # CHL    -->  W1SS+  ST                 
      1.31598309E-01    2      1000037         3                       # CHL    -->  W2SS+  ST                 
#         PDG         Width
DECAY   1000005  2.71925781E+02   # BT1   decays
#          BR          NDA       ID1       ID2       ID3       ID4
      8.21301155E-03    2      1000022         5                       # BT1    -->  Z1SS   BT                 
      5.31471381E-03    2      1000023         5                       # BT1    -->  Z2SS   BT                 
      5.90217242E-04    2      1000025         5                       # BT1    -->  Z3SS   BT                 
      5.07912226E-02    2      1000035         5                       # BT1    -->  Z4SS   BT                 
      5.11090994E-01    2      1000021         5                       # BT1    -->  GLSS   BT                 
      1.59231633E-01    2     -1000024         6                       # BT1    -->  W1SS-  TP                 
      1.17800780E-01    2     -1000037         6                       # BT1    -->  W2SS-  TP                 
      1.46878704E-01    2          -24   1000006                       # BT1    -->  W-     TP1                
      8.86215712E-05    2          -37   1000006                       # BT1    -->  H-     TP1                
#         PDG         Width
DECAY   1000006  4.02965508E+01   # TP1   decays
#          BR          NDA       ID1       ID2       ID3       ID4
      1.81356132E-01    2      1000022         6                       # TP1    -->  Z1SS   TP                 
      2.38423079E-01    2      1000023         6                       # TP1    -->  Z2SS   TP                 
      1.01618707E-01    2      1000025         6                       # TP1    -->  Z3SS   TP                 
      1.22771459E-02    2      1000035         6                       # TP1    -->  Z4SS   TP                 
      4.42025930E-01    2      1000024         5                       # TP1    -->  W1SS+  BT                 
      2.42990814E-02    2      1000037         5                       # TP1    -->  W2SS+  BT                 
#         PDG         Width
DECAY   2000002  2.47811859E+02   # UPR   decays
#          BR          NDA       ID1       ID2       ID3       ID4
      6.32619904E-03    2      1000022         2                       # UPR    -->  Z1SS   UP                 
      2.31629048E-04    2      1000023         2                       # UPR    -->  Z2SS   UP                 
      4.04800959E-02    2      1000025         2                       # UPR    -->  Z3SS   UP                 
      7.58870883E-05    2      1000035         2                       # UPR    -->  Z4SS   UP                 
      9.52886224E-01    2      1000021         2                       # UPR    -->  GLSS   UP                 
#         PDG         Width
DECAY   2000001  2.29510635E+02   # DNR   decays
#          BR          NDA       ID1       ID2       ID3       ID4
      1.65122084E-03    2      1000022         1                       # DNR    -->  Z1SS   DN                 
      6.04550332E-05    2      1000023         1                       # DNR    -->  Z2SS   DN                 
      1.05639631E-02    2      1000025         1                       # DNR    -->  Z3SS   DN                 
      1.97881218E-05    2      1000035         1                       # DNR    -->  Z4SS   DN                 
      9.87704575E-01    2      1000021         1                       # DNR    -->  GLSS   DN                 
#         PDG         Width
DECAY   2000003  2.29510635E+02   # STR   decays
#          BR          NDA       ID1       ID2       ID3       ID4
      1.65122084E-03    2      1000022         3                       # STR    -->  Z1SS   ST                 
      6.04550332E-05    2      1000023         3                       # STR    -->  Z2SS   ST                 
      1.05639631E-02    2      1000025         3                       # STR    -->  Z3SS   ST                 
      1.97881218E-05    2      1000035         3                       # STR    -->  Z4SS   ST                 
      9.87704575E-01    2      1000021         3                       # STR    -->  GLSS   ST                 
#         PDG         Width
DECAY   2000004  2.47811844E+02   # CHR   decays
#          BR          NDA       ID1       ID2       ID3       ID4
      6.32619811E-03    2      1000022         4                       # CHR    -->  Z1SS   CH                 
      2.31629048E-04    2      1000023         4                       # CHR    -->  Z2SS   CH                 
      4.04800884E-02    2      1000025         4                       # CHR    -->  Z3SS   CH                 
      7.58870738E-05    2      1000035         4                       # CHR    -->  Z4SS   CH                 
      9.52886224E-01    2      1000021         4                       # CHR    -->  GLSS   CH                 
#         PDG         Width
DECAY   2000005  2.58799957E+02   # BT2   decays
#          BR          NDA       ID1       ID2       ID3       ID4
      8.33747815E-03    2      1000022         5                       # BT2    -->  Z1SS   BT                 
      7.11479085E-03    2      1000023         5                       # BT2    -->  Z2SS   BT                 
      9.76947322E-03    2      1000025         5                       # BT2    -->  Z3SS   BT                 
      1.78262955E-04    2      1000035         5                       # BT2    -->  Z4SS   BT                 
      8.41717005E-01    2      1000021         5                       # BT2    -->  GLSS   BT                 
      1.45018771E-02    2     -1000024         6                       # BT2    -->  W1SS-  TP                 
      3.05883877E-04    2     -1000037         6                       # BT2    -->  W2SS-  TP                 
      5.86407259E-06    2          -24   1000006                       # BT2    -->  W-     TP1                
      3.45933367E-04    2          -24   2000006                       # BT2    -->  W-     TP2                
      1.67408638E-04    2           23   1000005                       # BT2    -->  Z0     BT1                
      3.52421805E-04    2           25   1000005                       # BT2    -->  HL0    BT1                
      2.88325325E-02    2           36   1000005                       # BT2    -->  HA0    BT1                
      2.85664704E-02    2           35   1000005                       # BT2    -->  HH0    BT1                
      1.25904422E-04    2          -37   1000006                       # BT2    -->  H-     TP1                
      5.96789084E-02    2          -37   2000006                       # BT2    -->  H-     TP2                
#         PDG         Width
DECAY   2000006  2.79432343E+02   # TP2   decays
#          BR          NDA       ID1       ID2       ID3       ID4
      4.86259282E-01    2      1000021         6                       # TP2    -->  GLSS   TP                 
      1.50205400E-02    2      1000024         5                       # TP2    -->  W1SS+  BT                 
      9.72432122E-02    2      1000037         5                       # TP2    -->  W2SS+  BT                 
      7.00454861E-02    2           23   1000006                       # TP2    -->  Z0     TP1                
      1.13178104E-01    2           25   1000006                       # TP2    -->  HL0    TP1                
      4.95224012E-05    2           35   1000006                       # TP2    -->  HH0    TP1                
      4.34002795E-05    2           36   1000006                       # TP2    -->  HA0    TP1                
      5.87621331E-02    2      1000022         6                       # TP2    -->  Z1SS   TP                 
      8.45315754E-02    2      1000023         6                       # TP2    -->  Z2SS   TP                 
      1.85540039E-02    2      1000025         6                       # TP2    -->  Z3SS   TP                 
      5.63126169E-02    2      1000035         6                       # TP2    -->  Z4SS   TP                 
#         PDG         Width
DECAY   1000011  6.97265167E+01   # EL-   decays
#          BR          NDA       ID1       ID2       ID3       ID4
      1.21916470E-04    2      1000022        11                       # EL-    -->  Z1SS   E-                 
      5.28756995E-04    2      1000023        11                       # EL-    -->  Z2SS   E-                 
      1.21213742E-01    2      1000025        11                       # EL-    -->  Z3SS   E-                 
      2.73120254E-01    2      1000035        11                       # EL-    -->  Z4SS   E-                 
      1.10102175E-02    2     -1000024        12                       # EL-    -->  W1SS-  NUE                
      5.94005167E-01    2     -1000037        12                       # EL-    -->  W2SS-  NUE                
#         PDG         Width
DECAY   1000013  6.97265167E+01   # MUL-  decays
#          BR          NDA       ID1       ID2       ID3       ID4
      1.21916470E-04    2      1000022        13                       # MUL-   -->  Z1SS   MU-                
      5.28756995E-04    2      1000023        13                       # MUL-   -->  Z2SS   MU-                
      1.21213742E-01    2      1000025        13                       # MUL-   -->  Z3SS   MU-                
      2.73120254E-01    2      1000035        13                       # MUL-   -->  Z4SS   MU-                
      1.10102175E-02    2     -1000024        14                       # MUL-   -->  W1SS-  NUM                
      5.94005167E-01    2     -1000037        14                       # MUL-   -->  W2SS-  NUM                
#         PDG         Width
DECAY   1000015  2.80361824E+01   # TAU1- decays
#          BR          NDA       ID1       ID2       ID3       ID4
      1.51259899E-01    2      1000022        15                       # TAU1-  -->  Z1SS   TAU-               
      4.14003618E-02    2      1000023        15                       # TAU1-  -->  Z2SS   TAU-               
      7.26328313E-01    2      1000025        15                       # TAU1-  -->  Z3SS   TAU-               
      1.77331571E-03    2      1000035        15                       # TAU1-  -->  Z4SS   TAU-               
      7.84454942E-02    2     -1000024        16                       # TAU1-  -->  W1SS-  NUT                
      7.92592065E-04    2     -1000037        16                       # TAU1-  -->  W2SS-  NUT                
#         PDG         Width
DECAY   1000012  6.98161392E+01   # NUEL  decays
#          BR          NDA       ID1       ID2       ID3       ID4
      4.48342785E-02    2      1000022        12                       # NUEL   -->  Z1SS   NUE                
      4.30583302E-03    2      1000023        12                       # NUEL   -->  Z2SS   NUE                
      4.64056246E-02    2      1000025        12                       # NUEL   -->  Z3SS   NUE                
      2.99119055E-01    2      1000035        12                       # NUEL   -->  Z4SS   NUE                
      4.99528348E-02    2      1000024        11                       # NUEL   -->  W1SS+  E-                 
      5.55382371E-01    2      1000037        11                       # NUEL   -->  W2SS+  E-                 
#         PDG         Width
DECAY   1000014  6.98161392E+01   # NUML  decays
#          BR          NDA       ID1       ID2       ID3       ID4
      4.48342785E-02    2      1000022        14                       # NUML   -->  Z1SS   NUM                
      4.30583302E-03    2      1000023        14                       # NUML   -->  Z2SS   NUM                
      4.64056246E-02    2      1000025        14                       # NUML   -->  Z3SS   NUM                
      2.99119055E-01    2      1000035        14                       # NUML   -->  Z4SS   NUM                
      4.99528348E-02    2      1000024        13                       # NUML   -->  W1SS+  MU-                
      5.55382371E-01    2      1000037        13                       # NUML   -->  W2SS+  MU-                
#         PDG         Width
DECAY   1000016  7.11590805E+01   # NUTL  decays
#          BR          NDA       ID1       ID2       ID3       ID4
      4.33367044E-02    2      1000022        16                       # NUTL   -->  Z1SS   NUT                
      4.16190829E-03    2      1000023        16                       # NUTL   -->  Z2SS   NUT                
      4.48519811E-02    2      1000025        16                       # NUTL   -->  Z3SS   NUT                
      2.88999885E-01    2      1000035        16                       # NUTL   -->  Z4SS   NUT                
      8.12720731E-02    2      1000024        15                       # NUTL   -->  W1SS+  TAU-               
      5.37201881E-01    2      1000037        15                       # NUTL   -->  W2SS+  TAU-               
      1.75514331E-04    2           24   1000015                       # NUTL   -->  W+     TAU1-              
#         PDG         Width
DECAY   2000011  2.44168053E+01   # ER-   decays
#          BR          NDA       ID1       ID2       ID3       ID4
      1.34321406E-01    2      1000022        11                       # ER-    -->  Z1SS   E-                 
      4.91749542E-03    2      1000023        11                       # ER-    -->  Z2SS   E-                 
      8.59153390E-01    2      1000025        11                       # ER-    -->  Z3SS   E-                 
      1.60772237E-03    2      1000035        11                       # ER-    -->  Z4SS   E-                 
#         PDG         Width
DECAY   2000013  2.44168053E+01   # MUR-  decays
#          BR          NDA       ID1       ID2       ID3       ID4
      1.34321406E-01    2      1000022        13                       # MUR-   -->  Z1SS   MU-                
      4.91749542E-03    2      1000023        13                       # MUR-   -->  Z2SS   MU-                
      8.59153390E-01    2      1000025        13                       # MUR-   -->  Z3SS   MU-                
      1.60772237E-03    2      1000035        13                       # MUR-   -->  Z4SS   MU-                
#         PDG         Width
DECAY   2000015  7.10399094E+01   # TAU2- decays
#          BR          NDA       ID1       ID2       ID3       ID4
      1.55051528E-02    2      1000022        15                       # TAU2-  -->  Z1SS   TAU-               
      1.65903065E-02    2      1000023        15                       # TAU2-  -->  Z2SS   TAU-               
      1.18850634E-01    2      1000025        15                       # TAU2-  -->  Z3SS   TAU-               
      2.64354348E-01    2      1000035        15                       # TAU2-  -->  Z4SS   TAU-               
      1.03461007E-02    2     -1000024        16                       # TAU2-  -->  W1SS-  NUT                
      5.74229598E-01    2     -1000037        16                       # TAU2-  -->  W2SS-  NUT                
      8.24647941E-05    2           23   1000015                       # TAU2-  -->  Z0     TAU1-              
      4.14925416E-05    2           25   1000015                       # TAU2-  -->  HL0    TAU1-              
#         PDG         Width
DECAY   1000023  1.94718268E-05   # Z2SS  decays
#          BR          NDA       ID1       ID2       ID3       ID4
      1.73325406E-03    2      1000022        22                       # Z2SS   -->  Z1SS   GM                 
      1.20831979E-03    3     -1000024         2        -1             # Z2SS   -->  W1SS-  UP     DB          
      4.02773236E-04    3     -1000024        12       -11             # Z2SS   -->  W1SS-  NUE    E+          
      4.02773236E-04    3     -1000024        14       -13             # Z2SS   -->  W1SS-  NUM    MU+         
      1.20831979E-03    3      1000024         1        -2             # Z2SS   -->  W1SS+  DN     UB          
      4.02773236E-04    3      1000024        11       -12             # Z2SS   -->  W1SS+  E-     ANUE        
      4.02773236E-04    3      1000024        13       -14             # Z2SS   -->  W1SS+  MU-    ANUM        
      1.20831979E-03    3     -1000024         4        -3             # Z2SS   -->  W1SS-  CH     SB          
      4.02773236E-04    3     -1000024        16       -15             # Z2SS   -->  W1SS-  NUT    TAU+        
      1.20831979E-03    3      1000024         3        -4             # Z2SS   -->  W1SS+  ST     CB          
      4.02773236E-04    3      1000024        15       -16             # Z2SS   -->  W1SS+  TAU-   ANUT        
      1.21643849E-01    3      1000022         2        -2             # Z2SS   -->  Z1SS   UP     UB          
      1.56856880E-01    3      1000022         1        -1             # Z2SS   -->  Z1SS   DN     DB          
      1.56856880E-01    3      1000022         3        -3             # Z2SS   -->  Z1SS   ST     SB          
      1.21643849E-01    3      1000022         4        -4             # Z2SS   -->  Z1SS   CH     CB          
      1.16556011E-01    3      1000022         5        -5             # Z2SS   -->  Z1SS   BT     BB          
      3.55828442E-02    3      1000022        11       -11             # Z2SS   -->  Z1SS   E-     E+          
      3.55828442E-02    3      1000022        13       -13             # Z2SS   -->  Z1SS   MU-    MU+         
      3.38889845E-02    3      1000022        15       -15             # Z2SS   -->  Z1SS   TAU-   TAU+        
      7.08015189E-02    3      1000022        12       -12             # Z2SS   -->  Z1SS   NUE    ANUE        
      7.08015189E-02    3      1000022        14       -14             # Z2SS   -->  Z1SS   NUM    ANUM        
      7.08015636E-02    3      1000022        16       -16             # Z2SS   -->  Z1SS   NUT    ANUT        
#         PDG         Width
DECAY   1000025  7.74502289E-04   # Z3SS  decays
#          BR          NDA       ID1       ID2       ID3       ID4
      4.99402871E-04    2      1000022        22                       # Z3SS   -->  Z1SS   GM                 
      9.41989219E-06    2      1000023        22                       # Z3SS   -->  Z2SS   GM                 
      1.40593484E-01    3     -1000024         2        -1             # Z3SS   -->  W1SS-  UP     DB          
      4.68644910E-02    3     -1000024        12       -11             # Z3SS   -->  W1SS-  NUE    E+          
      4.68644910E-02    3     -1000024        14       -13             # Z3SS   -->  W1SS-  NUM    MU+         
      1.40593484E-01    3      1000024         1        -2             # Z3SS   -->  W1SS+  DN     UB          
      4.68644910E-02    3      1000024        11       -12             # Z3SS   -->  W1SS+  E-     ANUE        
      4.68644910E-02    3      1000024        13       -14             # Z3SS   -->  W1SS+  MU-    ANUM        
      1.40593484E-01    3     -1000024         4        -3             # Z3SS   -->  W1SS-  CH     SB          
      4.68644910E-02    3     -1000024        16       -15             # Z3SS   -->  W1SS-  NUT    TAU+        
      1.40593484E-01    3      1000024         3        -4             # Z3SS   -->  W1SS+  ST     CB          
      4.68644910E-02    3      1000024        15       -16             # Z3SS   -->  W1SS+  TAU-   ANUT        
      7.16477912E-03    3      1000022         2        -2             # Z3SS   -->  Z1SS   UP     UB          
      9.24301054E-03    3      1000022         1        -1             # Z3SS   -->  Z1SS   DN     DB          
      9.24301054E-03    3      1000022         3        -3             # Z3SS   -->  Z1SS   ST     SB          
      7.16477912E-03    3      1000022         4        -4             # Z3SS   -->  Z1SS   CH     CB          
      9.12056584E-03    3      1000022         5        -5             # Z3SS   -->  Z1SS   BT     BB          
      2.10152566E-03    3      1000022        11       -11             # Z3SS   -->  Z1SS   E-     E+          
      2.10152566E-03    3      1000022        13       -13             # Z3SS   -->  Z1SS   MU-    MU+         
      2.10020971E-03    3      1000022        15       -15             # Z3SS   -->  Z1SS   TAU-   TAU+        
      4.16794280E-03    3      1000022        12       -12             # Z3SS   -->  Z1SS   NUE    ANUE        
      4.16794280E-03    3      1000022        14       -14             # Z3SS   -->  Z1SS   NUM    ANUM        
      4.16783942E-03    3      1000022        16       -16             # Z3SS   -->  Z1SS   NUT    ANUT        
      1.13379862E-02    3      1000023         2        -2             # Z3SS   -->  Z2SS   UP     UB          
      1.46204336E-02    3      1000023         1        -1             # Z3SS   -->  Z2SS   DN     DB          
      1.46204336E-02    3      1000023         3        -3             # Z3SS   -->  Z2SS   ST     SB          
      1.13379862E-02    3      1000023         4        -4             # Z3SS   -->  Z2SS   CH     CB          
      1.35657247E-02    3      1000023         5        -5             # Z3SS   -->  Z2SS   BT     BB          
      3.31682223E-03    3      1000023        11       -11             # Z3SS   -->  Z2SS   E-     E+          
      3.31682223E-03    3      1000023        13       -13             # Z3SS   -->  Z2SS   MU-    MU+         
      3.27510340E-03    3      1000023        15       -15             # Z3SS   -->  Z2SS   TAU-   TAU+        
      6.59863465E-03    3      1000023        12       -12             # Z3SS   -->  Z2SS   NUE    ANUE        
      6.59863465E-03    3      1000023        14       -14             # Z3SS   -->  Z2SS   NUM    ANUM        
      6.59862347E-03    3      1000023        16       -16             # Z3SS   -->  Z2SS   NUT    ANUT        
#         PDG         Width
DECAY   1000035  3.26844907E+00   # Z4SS  decays
#          BR          NDA       ID1       ID2       ID3       ID4
      1.37989650E-06    2      1000022        22                       # Z4SS   -->  Z1SS   GM                 
      3.50339224E-06    2      1000023        22                       # Z4SS   -->  Z2SS   GM                 
      4.04311152E-07    2      1000025        22                       # Z4SS   -->  Z3SS   GM                 
      2.61129230E-01    2      1000024       -24                       # Z4SS   -->  W1SS+  W-                 
      2.61129230E-01    2     -1000024        24                       # Z4SS   -->  W1SS-  W+                 
      3.54062095E-08    3     -1000037         2        -1             # Z4SS   -->  W2SS-  UP     DB          
      1.18020695E-08    3     -1000037        12       -11             # Z4SS   -->  W2SS-  NUE    E+          
      1.18020695E-08    3     -1000037        14       -13             # Z4SS   -->  W2SS-  NUM    MU+         
      3.54062095E-08    3      1000037         1        -2             # Z4SS   -->  W2SS+  DN     UB          
      1.18020695E-08    3      1000037        11       -12             # Z4SS   -->  W2SS+  E-     ANUE        
      1.18020695E-08    3      1000037        13       -14             # Z4SS   -->  W2SS+  MU-    ANUM        
      3.54062095E-08    3     -1000037         4        -3             # Z4SS   -->  W2SS-  CH     SB          
      1.18020695E-08    3     -1000037        16       -15             # Z4SS   -->  W2SS-  NUT    TAU+        
      3.54062095E-08    3      1000037         3        -4             # Z4SS   -->  W2SS+  ST     CB          
      1.18020695E-08    3      1000037        15       -16             # Z4SS   -->  W2SS+  TAU-   ANUT        
      2.49647982E-02    2      1000022        23                       # Z4SS   -->  Z1SS   Z0                 
      2.36947760E-01    2      1000023        23                       # Z4SS   -->  Z2SS   Z0                 
      6.39139349E-03    2      1000025        23                       # Z4SS   -->  Z3SS   Z0                 
      1.08274757E-10    3      1000022         2        -2             # Z4SS   -->  Z1SS   UP     UB          
      5.25192778E-10    3      1000022         1        -1             # Z4SS   -->  Z1SS   DN     DB          
      5.25192778E-10    3      1000022         3        -3             # Z4SS   -->  Z1SS   ST     SB          
      1.08274736E-10    3      1000022         4        -4             # Z4SS   -->  Z1SS   CH     CB          
      3.44384404E-07    3      1000022         5        -5             # Z4SS   -->  Z1SS   BT     BB          
      2.13185416E-12    3      1000022        11       -11             # Z4SS   -->  Z1SS   E-     E+          
      2.13185416E-12    3      1000022        13       -13             # Z4SS   -->  Z1SS   MU-    MU+         
      6.58616486E-08    3      1000022        15       -15             # Z4SS   -->  Z1SS   TAU-   TAU+        
      4.07257950E-10    3      1000022        12       -12             # Z4SS   -->  Z1SS   NUE    ANUE        
      4.07257950E-10    3      1000022        14       -14             # Z4SS   -->  Z1SS   NUM    ANUM        
      4.32314434E-10    3      1000022        16       -16             # Z4SS   -->  Z1SS   NUT    ANUT        
      1.11928080E-11    3      1000023         2        -2             # Z4SS   -->  Z2SS   UP     UB          
      2.20150235E-11    3      1000023         1        -1             # Z4SS   -->  Z2SS   DN     DB          
      2.20150235E-11    3      1000023         3        -3             # Z4SS   -->  Z2SS   ST     SB          
      1.11928036E-11    3      1000023         4        -4             # Z4SS   -->  Z2SS   CH     CB          
      2.76444410E-07    3      1000023         5        -5             # Z4SS   -->  Z2SS   BT     BB          
      1.33099716E-12    3      1000023        11       -11             # Z4SS   -->  Z2SS   E-     E+          
      1.33099716E-12    3      1000023        13       -13             # Z4SS   -->  Z2SS   MU-    MU+         
      5.32873656E-08    3      1000023        15       -15             # Z4SS   -->  Z2SS   TAU-   TAU+        
      1.17252076E-11    3      1000023        12       -12             # Z4SS   -->  Z2SS   NUE    ANUE        
      1.17252076E-11    3      1000023        14       -14             # Z4SS   -->  Z2SS   NUM    ANUM        
      1.24471657E-11    3      1000023        16       -16             # Z4SS   -->  Z2SS   NUT    ANUT        
      2.20950133E-10    3      1000025         2        -2             # Z4SS   -->  Z3SS   UP     UB          
      6.78417609E-12    3      1000025         1        -1             # Z4SS   -->  Z3SS   DN     DB          
      6.78417609E-12    3      1000025         3        -3             # Z4SS   -->  Z3SS   ST     SB          
      2.20950092E-10    3      1000025         4        -4             # Z4SS   -->  Z3SS   CH     CB          
      1.33758826E-08    3      1000025         5        -5             # Z4SS   -->  Z3SS   BT     BB          
      3.22515292E-10    3      1000025        11       -11             # Z4SS   -->  Z3SS   E-     E+          
      3.22515292E-10    3      1000025        13       -13             # Z4SS   -->  Z3SS   MU-    MU+         
      2.93505464E-09    3      1000025        15       -15             # Z4SS   -->  Z3SS   TAU-   TAU+        
      1.33863420E-10    3      1000025        12       -12             # Z4SS   -->  Z3SS   NUE    ANUE        
      1.33863420E-10    3      1000025        14       -14             # Z4SS   -->  Z3SS   NUM    ANUM        
      1.42107562E-10    3      1000025        16       -16             # Z4SS   -->  Z3SS   NUT    ANUT        
      1.26723900E-01    2      1000022        25                       # Z4SS   -->  Z1SS   HL0                
      2.64977962E-02    2      1000023        25                       # Z4SS   -->  Z2SS   HL0                
      5.62096797E-02    2      1000025        25                       # Z4SS   -->  Z3SS   HL0                
#         PDG         Width
DECAY   1000024  5.09664869E-06   # W1SS+ decays
#          BR          NDA       ID1       ID2       ID3       ID4
      3.33331972E-01    3      1000022         2        -1             # W1SS+  -->  Z1SS   UP     DB          
      3.33331972E-01    3      1000022         4        -3             # W1SS+  -->  Z1SS   CH     SB          
      1.11111306E-01    3      1000022       -11        12             # W1SS+  -->  Z1SS   E+     NUE         
      1.11111306E-01    3      1000022       -13        14             # W1SS+  -->  Z1SS   MU+    NUM         
      1.11113459E-01    3      1000022       -15        16             # W1SS+  -->  Z1SS   TAU+   NUT         
#         PDG         Width
DECAY   1000037  3.15428019E+00   # W2SS+ decays
#          BR          NDA       ID1       ID2       ID3       ID4
      3.00000108E-10    3      1000022         2        -1             # W2SS+  -->  Z1SS   UP     DB          
      3.00000108E-10    3      1000022         4        -3             # W2SS+  -->  Z1SS   CH     SB          
      2.58337685E-10    3      1000022       -11        12             # W2SS+  -->  Z1SS   E+     NUE         
      2.58337685E-10    3      1000022       -13        14             # W2SS+  -->  Z1SS   MU+    NUM         
      6.62204158E-08    3      1000022       -15        16             # W2SS+  -->  Z1SS   TAU+   NUT         
      1.96006119E-01    2      1000022        24                       # W2SS+  -->  Z1SS   W+                 
      7.11749618E-11    3      1000023         2        -1             # W2SS+  -->  Z2SS   UP     DB          
      7.11749479E-11    3      1000023         4        -3             # W2SS+  -->  Z2SS   CH     SB          
      2.37960259E-11    3      1000023       -11        12             # W2SS+  -->  Z2SS   E+     NUE         
      2.37960259E-11    3      1000023       -13        14             # W2SS+  -->  Z2SS   MU+    NUM         
      4.41505001E-08    3      1000023       -15        16             # W2SS+  -->  Z2SS   TAU+   NUT         
      2.58686572E-01    2      1000023        24                       # W2SS+  -->  Z2SS   W+                 
      1.51972337E-10    3      1000025         2        -1             # W2SS+  -->  Z3SS   UP     DB          
      1.51972282E-10    3      1000025         4        -3             # W2SS+  -->  Z3SS   CH     SB          
      3.88952565E-10    3      1000025       -11        12             # W2SS+  -->  Z3SS   E+     NUE         
      3.88952565E-10    3      1000025       -13        14             # W2SS+  -->  Z3SS   MU+    NUM         
      3.03229131E-09    3      1000025       -15        16             # W2SS+  -->  Z3SS   TAU+   NUT         
      7.60218203E-02    2      1000025        24                       # W2SS+  -->  Z3SS   W+                 
      2.46005073E-01    2      1000024        23                       # W2SS+  -->  W1SS+  Z0                 
      6.79193979E-10    3      1000024         1        -1             # W2SS+  -->  W1SS+  DN     DB          
      6.79193812E-10    3      1000024         3        -3             # W2SS+  -->  W1SS+  ST     SB          
      1.59922381E-10    3      1000024         2        -2             # W2SS+  -->  W1SS+  UP     UB          
      1.59922381E-10    3      1000024         4        -4             # W2SS+  -->  W1SS+  CH     CB          
      5.09292816E-11    3      1000024        12       -12             # W2SS+  -->  W1SS+  NUE    ANUE        
      5.09292816E-11    3      1000024        14       -14             # W2SS+  -->  W1SS+  NUM    ANUM        
      7.24639376E-11    3      1000024        16       -16             # W2SS+  -->  W1SS+  NUT    ANUT        
      2.15381851E-10    3      1000024        11       -11             # W2SS+  -->  W1SS+  E-     E+          
      2.15381851E-10    3      1000024        13       -13             # W2SS+  -->  W1SS+  MU-    MU+         
      2.28636152E-10    3      1000024        15       -15             # W2SS+  -->  W1SS+  TAU-   TAU+        
      2.23280221E-01    2      1000024        25                       # W2SS+  -->  W1SS+  HL0                
#         PDG         Width
DECAY        25  3.83293186E-03   # HL0   decays
#          BR          NDA       ID1       ID2       ID3       ID4
      5.77122616E-09    2           11       -11                       # HL0    -->  E-     E+                 
      2.43670540E-04    2           13       -13                       # HL0    -->  MU-    MU+                
      6.97057769E-02    2           15       -15                       # HL0    -->  TAU-   TAU+               
      7.23506537E-06    2            1        -1                       # HL0    -->  DN     DB                 
      2.92332936E-03    2            3        -3                       # HL0    -->  ST     SB                 
      6.26312137E-01    2            5        -5                       # HL0    -->  BT     BB                 
      2.21099708E-06    2            2        -2                       # HL0    -->  UP     UB                 
      4.11279611E-02    2            4        -4                       # HL0    -->  CH     CB                 
      2.68754805E-03    2           22        22                       # HL0    -->  GM     GM                 
      5.25816083E-02    2           21        21                       # HL0    -->  GL     GL                 
      1.02375746E-02    3           24        11       -12             # HL0    -->  W+     E-     ANUE        
      1.02375746E-02    3           24        13       -14             # HL0    -->  W+     MU-    ANUM        
      1.02375746E-02    3           24        15       -16             # HL0    -->  W+     TAU-   ANUT        
      3.07127256E-02    3           24        -2         1             # HL0    -->  W+     UB     DN          
      3.07127256E-02    3           24        -4         3             # HL0    -->  W+     CB     ST          
      1.02375746E-02    3          -24       -11        12             # HL0    -->  W-     E+     NUE         
      1.02375746E-02    3          -24       -13        14             # HL0    -->  W-     MU+    NUM         
      1.02375746E-02    3          -24       -15        16             # HL0    -->  W-     TAU+   NUT         
      3.07127256E-02    3          -24         2        -1             # HL0    -->  W-     UP     DB          
      3.07127256E-02    3          -24         4        -3             # HL0    -->  W-     CH     SB          
      1.37683668E-03    3           23        12       -12             # HL0    -->  Z0     NUE    ANUE        
      1.37683668E-03    3           23        14       -14             # HL0    -->  Z0     NUM    ANUM        
      1.37683668E-03    3           23        16       -16             # HL0    -->  Z0     NUT    ANUT        
      6.92948117E-04    3           23        11       -11             # HL0    -->  Z0     E-     E+          
      6.92948117E-04    3           23        13       -13             # HL0    -->  Z0     MU-    MU+         
      6.92948117E-04    3           23        15       -15             # HL0    -->  Z0     TAU-   TAU+        
      2.37398129E-03    3           23         2        -2             # HL0    -->  Z0     UP     UB          
      2.37398129E-03    3           23         4        -4             # HL0    -->  Z0     CH     CB          
      3.05827288E-03    3           23         1        -1             # HL0    -->  Z0     DN     DB          
      3.05827288E-03    3           23         3        -3             # HL0    -->  Z0     ST     SB          
      3.05827288E-03    3           23         5        -5             # HL0    -->  Z0     BT     BB          
#         PDG         Width
DECAY        35  1.24031773E+01   # HH0   decays
#          BR          NDA       ID1       ID2       ID3       ID4
      3.10268300E-09    2           11       -11                       # HH0    -->  E-     E+                 
      1.31000867E-04    2           13       -13                       # HH0    -->  MU-    MU+                
      3.75199541E-02    2           15       -15                       # HH0    -->  TAU-   TAU+               
      3.80080041E-06    2            1        -1                       # HH0    -->  DN     DB                 
      1.53571588E-03    2            3        -3                       # HH0    -->  ST     SB                 
      2.30846822E-01    2            5        -5                       # HH0    -->  BT     BB                 
      2.51522518E-11    2            2        -2                       # HH0    -->  UP     UB                 
      3.54218969E-07    2            4        -4                       # HH0    -->  CH     CB                 
      1.61586199E-02    2            6        -6                       # HH0    -->  TP     TB                 
      4.18345053E-07    2           22        22                       # HH0    -->  GM     GM                 
      8.01299939E-06    2           21        21                       # HH0    -->  GL     GL                 
      6.13026205E-05    2           24       -24                       # HH0    -->  W+     W-                 
      3.11243275E-05    2           23        23                       # HH0    -->  Z0     Z0                 
      3.59438844E-02    2      1000022   1000022                       # HH0    -->  Z1SS   Z1SS               
      1.35845458E-02    2      1000022   1000023                       # HH0    -->  Z1SS   Z2SS               
      8.29119328E-03    2      1000022   1000025                       # HH0    -->  Z1SS   Z3SS               
      6.06811941E-02    2      1000022   1000035                       # HH0    -->  Z1SS   Z4SS               
      4.23416775E-03    2      1000023   1000023                       # HH0    -->  Z2SS   Z2SS               
      2.96883620E-02    2      1000023   1000025                       # HH0    -->  Z2SS   Z3SS               
      1.29005402E-01    2      1000023   1000035                       # HH0    -->  Z2SS   Z4SS               
      2.68621440E-03    2      1000025   1000025                       # HH0    -->  Z3SS   Z3SS               
      6.39353599E-03    2      1000025   1000035                       # HH0    -->  Z3SS   Z4SS               
      3.22497886E-04    2      1000035   1000035                       # HH0    -->  Z4SS   Z4SS               
      4.24909405E-02    2      1000024  -1000024                       # HH0    -->  W1SS+  W1SS-              
      7.33722933E-04    2      1000037  -1000037                       # HH0    -->  W2SS+  W2SS-              
      1.89716771E-01    2      1000024  -1000037                       # HH0    -->  W1SS+  W2SS-              
      1.89716771E-01    2     -1000024   1000037                       # HH0    -->  W1SS-  W2SS+              
      2.13769730E-04    2           25        25                       # HH0    -->  HL0    HL0                
#         PDG         Width
DECAY        36  1.22299290E+01   # HA0   decays
#          BR          NDA       ID1       ID2       ID3       ID4
      3.12644866E-09    2           11       -11                       # HA0    -->  E-     E+                 
      1.32004294E-04    2           13       -13                       # HA0    -->  MU-    MU+                
      3.78078185E-02    2           15       -15                       # HA0    -->  TAU-   TAU+               
      3.83012457E-06    2            1        -1                       # HA0    -->  DN     DB                 
      1.54756429E-03    2            3        -3                       # HA0    -->  ST     SB                 
      2.32638285E-01    2            5        -5                       # HA0    -->  BT     BB                 
      2.42077712E-11    2            2        -2                       # HA0    -->  UP     UB                 
      3.41186137E-07    2            4        -4                       # HA0    -->  CH     CB                 
      1.72876492E-02    2            6        -6                       # HA0    -->  TP     TB                 
      8.23024834E-07    2           22        22                       # HA0    -->  GM     GM                 
      2.53984163E-05    2           21        21                       # HA0    -->  GL     GL                 
      5.03569469E-02    2      1000022   1000022                       # HA0    -->  Z1SS   Z1SS               
      7.29738595E-03    2      1000022   1000023                       # HA0    -->  Z1SS   Z2SS               
      1.16914650E-02    2      1000022   1000025                       # HA0    -->  Z1SS   Z3SS               
      1.07933566E-01    2      1000022   1000035                       # HA0    -->  Z1SS   Z4SS               
      3.69314826E-03    2      1000023   1000023                       # HA0    -->  Z2SS   Z2SS               
      1.97289381E-02    2      1000023   1000025                       # HA0    -->  Z2SS   Z3SS               
      6.33882731E-02    2      1000023   1000035                       # HA0    -->  Z2SS   Z4SS               
      4.97512612E-03    2      1000025   1000025                       # HA0    -->  Z3SS   Z3SS               
      1.72797162E-02    2      1000025   1000035                       # HA0    -->  Z3SS   Z4SS               
      3.32318083E-03    2      1000035   1000035                       # HA0    -->  Z4SS   Z4SS               
      5.47006764E-02    2      1000024  -1000024                       # HA0    -->  W1SS+  W1SS-              
      6.49857381E-03    2      1000037  -1000037                       # HA0    -->  W2SS+  W2SS-              
      1.79814816E-01    2      1000024  -1000037                       # HA0    -->  W1SS+  W2SS-              
      1.79814816E-01    2     -1000024   1000037                       # HA0    -->  W1SS-  W2SS+              
      5.96424798E-05    2           25        23                       # HA0    -->  HL0    Z0                 
#         PDG         Width
DECAY        37  1.18151293E+01   # H+    decays
#          BR          NDA       ID1       ID2       ID3       ID4
      3.24665916E-09    2           12       -11                       # H+     -->  NUE    E+                 
      1.37079813E-04    2           14       -13                       # H+     -->  NUM    MU+                
      3.92615125E-02    2           16       -15                       # H+     -->  NUT    TAU+               
      3.65585811E-06    2            2        -1                       # H+     -->  UP     DB                 
      1.47746236E-03    2            4        -3                       # H+     -->  CH     SB                 
      2.24778593E-01    2            6        -5                       # H+     -->  TP     BB                 
      7.35004712E-03    2      1000024   1000022                       # H+     -->  W1SS+  Z1SS               
      9.42700449E-03    2      1000024   1000023                       # H+     -->  W1SS+  Z2SS               
      1.02150299E-01    2      1000024   1000025                       # H+     -->  W1SS+  Z3SS               
      1.92420691E-01    2      1000024   1000035                       # H+     -->  W1SS+  Z4SS               
      1.98509693E-01    2      1000037   1000022                       # H+     -->  W2SS+  Z1SS               
      1.94745749E-01    2      1000037   1000023                       # H+     -->  W2SS+  Z2SS               
      2.96681840E-02    2      1000037   1000025                       # H+     -->  W2SS+  Z3SS               
      8.11175869E-06    2      1000037   1000035                       # H+     -->  W2SS+  Z4SS               
      6.19119965E-05    2           25        24                       # H+     -->  HL0    W+                 
