#  ISAJET SUSY parameters in SUSY Les Houches Accord 2 format
#  Created by ISALHA 2.0 Last revision: H Baer 27 May 2014
Block SPINFO   # Program information
     1   ISASUGRA/ISASUSY from ISAJET   # Spectrum Calculator
     2   7.87   18-JUL-2017 13:55:55    # Version number
Block MODSEL   # Model selection
     1    13   # Non-universal supergravity model                  
Block SMINPUTS   # Standard Model inputs
     1     1.28000000E+02   # alpha_em^(-1)
     2     1.16570000E-05   # G_Fermi
     3     1.19999997E-01   # alpha_s(M_Z)
     4     9.11699982E+01   # m_{Z}(pole)
     5     4.19999981E+00   # m_{b}(m_{b})
     6     1.72500000E+02   # m_{top}(pole)
     7     1.77699995E+00   # m_{tau}(pole)
Block MINPAR   # SUSY breaking input parameters
     1     5.00000000E+03   # m_0
     2     5.00000000E+02   # m_{1/2}
     3     1.50000000E+01   # tan(beta)
     4     1.00000000E+00   # sign(mu)
     5    -8.00000000E+03   # A_0
Block EXTPAR   # Non-universal SUSY breaking parameters
     0     1.99903369E+16   # Input scale
    21     3.00032600E+06   # Down type Higgs mass squared
    22     3.76987400E+07   #  Up  type Higgs mass squared
Block MASS   # Scalar and gaugino mass spectrum
#  PDG code   mass                 particle
         6     1.72500000E+02   #  top            
        24     8.04229965E+01   #  W^+
        25     1.24333099E+02   #  h^0            
        35     1.00666705E+03   #  H^0            
        36     1.00000000E+03   #  A^0            
        37     1.00322870E+03   #  H^+            
   1000001     5.03135986E+03   #  dnl            
   1000002     5.03071484E+03   #  upl            
   1000003     5.03135986E+03   #  stl            
   1000004     5.03071533E+03   #  chl            
   1000005     3.52822290E+03   #  b1             
   1000006     1.46370947E+03   #  t1             
   1000011     5.08898926E+03   #  el-            
   1000012     5.09371533E+03   #  nuel           
   1000013     5.08898926E+03   #  mul-           
   1000014     5.09371533E+03   #  numl           
   1000015     4.66101904E+03   #  tau1           
   1000016     5.01855420E+03   #  nutl           
   1000021     1.36138892E+03   #  glss           
   1000022     9.55790710E+01   #  z1ss           
   1000023    -1.19956879E+02   #  z2ss           
   1000024     1.11127495E+02   #  w1ss           
   1000025     2.32970261E+02   #  z3ss           
   1000035     4.57092255E+02   #  z4ss           
   1000037     4.47860748E+02   #  w2ss           
   1000039     1.00000002E+20   #  gvss
   2000001     5.01405908E+03   #  dnr            
   2000002     5.18511328E+03   #  upr            
   2000003     5.01405908E+03   #  str            
   2000004     5.18511328E+03   #  chr            
   2000005     4.85630566E+03   #  b2             
   2000006     3.50354102E+03   #  t2             
   2000011     4.82182764E+03   #  er-            
   2000013     4.82182764E+03   #  mur-           
   2000015     5.01241992E+03   #  tau2           
Block ALPHA   # Effective Higgs mixing parameter
         -6.81209117E-02   # alpha
Block STOPMIX   # stop mixing matrix
  1  1     4.96533252E-02   # O_{11}
  1  2     9.98766541E-01   # O_{12}
  2  1    -9.98766541E-01   # O_{21}
  2  2     4.96533252E-02   # O_{22}
Block SBOTMIX   # sbottom mixing matrix
  1  1     9.99995053E-01   # O_{11}
  1  2     3.13718244E-03   # O_{12}
  2  1    -3.13718244E-03   # O_{21}
  2  2     9.99995053E-01   # O_{22}
Block STAUMIX   # stau mixing matrix
  1  1     7.49314390E-03   # O_{11}
  1  2     9.99971926E-01   # O_{12}
  2  1    -9.99971926E-01   # O_{21}
  2  2     7.49314390E-03   # O_{22}
Block NMIX   # neutralino mixing matrix
  1  1     2.23412618E-01   #
  1  2    -1.61204591E-01   #
  1  3     7.25427687E-01   #
  1  4    -6.30757153E-01   #
  2  1     8.35126340E-02   #
  2  2    -9.00928900E-02   #
  2  3    -6.76832914E-01   #
  2  4    -7.25814104E-01   #
  3  1    -9.70414460E-01   #
  3  2    -8.27358961E-02   #
  3  3     1.06206544E-01   #
  3  4    -2.00425863E-01   #
  4  1     3.75254862E-02   #
  4  2    -9.79311585E-01   #
  4  3    -6.61194995E-02   #
  4  4     1.87533990E-01   #
Block UMIX   # chargino U mixing matrix
  1  1    -8.78026038E-02   # U_{11}
  1  2     9.96137917E-01   # U_{12}
  2  1    -9.96137917E-01   # U_{21}
  2  2    -8.78026038E-02   # U_{22}
Block VMIX   # chargino V mixing matrix
  1  1    -2.58567184E-01   # V_{11}
  1  2     9.65993285E-01   # V_{12}
  2  1    -9.65993285E-01   # V_{21}
  2  2    -2.58567184E-01   # V_{22}
Block GAUGE Q=  2.28626514E+03   #
     1     3.57524931E-01   # g`
     2     6.52377963E-01   # g_2
     3     1.21931434E+00   # g_3
Block YU Q=  2.28626514E+03   #
  3  3     8.34844828E-01   # y_t
Block YD Q=  2.28626514E+03   #
  3  3     1.94598526E-01   # y_b
Block YE Q=  2.28626514E+03   #
  3  3     1.51265681E-01   # y_tau
Block HMIX Q=  2.28626514E+03   # Higgs mixing parameters
     1     1.10000000E+02   # mu(Q)
     2     1.43668718E+01   # tan(beta)(Q)
     3     2.52221664E+02   # Higgs vev at Q
     4     1.00000000E+06   # m_A^2(Q)
Block MSOFT Q=  2.28626514E+03   # DRbar SUSY breaking parameters
     1     2.23160217E+02   # M_1(Q)          
     2     4.11147552E+02   # M_2(Q)          
     3     1.14185132E+03   # M_3(Q)          
    21     9.58773313E+05   # MHd^2(Q)        
    22    -3.30611563E+04   # MHu^2(Q)        
    31     5.07279639E+03   # MeL(Q)          
    32     5.07279639E+03   # MmuL(Q)         
    33     4.99966357E+03   # MtauL(Q)        
    34     4.81826221E+03   # MeR(Q)          
    35     4.81826221E+03   # MmuR(Q)         
    36     4.65802441E+03   # MtauR(Q)        
    41     4.95600586E+03   # MqL1(Q)         
    42     4.95600586E+03   # MqL2(Q)         
    43     3.48491479E+03   # MqL3(Q)         
    44     5.10858301E+03   # MuR(Q)          
    45     5.10858301E+03   # McR(Q)          
    46     1.49989563E+03   # MtR(Q)          
    47     4.93917627E+03   # MdR(Q)          
    48     4.93917627E+03   # MsR(Q)          
    49     4.80375635E+03   # MbR(Q)          
Block AU Q=  2.28626514E+03   #
  1  1    -3.73604419E+03   # A_u
  2  2    -3.73604419E+03   # A_c
  3  3    -3.73604419E+03   # A_t
Block AD Q=  2.28626514E+03   #
  1  1    -8.02677441E+03   # A_d
  2  2    -8.02677441E+03   # A_s
  3  3    -8.02677441E+03   # A_b
Block AE Q=  2.28626514E+03   #
  1  1    -7.93802100E+03   # A_e
  2  2    -7.93802100E+03   # A_mu
  3  3    -7.93802100E+03   # A_tau
#  ISAJET decay tables in SUSY Les Houches accord format
#  Created by ISALHD. Last revision: C. Balazs, 2005 May 25
Block DCINFO                           # Program information
     1   ISASUGRA from ISAJET          # Spectrum Calculator
     2   7.87   18-JUL-2017 13:55:55   # Version number
#         PDG         Width
DECAY         6  1.46776152E+00   # TP    decays
#          BR          NDA       ID1       ID2       ID3       ID4
      3.33333313E-01    3            2        -1         5             # TP     -->  UP     DB     BT          
      3.33333313E-01    3            4        -3         5             # TP     -->  CH     SB     BT          
      1.11111097E-01    3          -11        12         5             # TP     -->  E+     NUE    BT          
      1.11111097E-01    3          -13        14         5             # TP     -->  MU+    NUM    BT          
      1.11111097E-01    3          -15        16         5             # TP     -->  TAU+   NUT    BT          
#         PDG         Width
DECAY   1000021  3.76562998E-02   # GLSS  decays
#          BR          NDA       ID1       ID2       ID3       ID4
      3.95676980E-05    3      1000024         1        -2             # GLSS   -->  W1SS+  DN     UB          
      3.95676980E-05    3     -1000024         2        -1             # GLSS   -->  W1SS-  UP     DB          
      3.95676907E-05    3      1000024         3        -4             # GLSS   -->  W1SS+  ST     CB          
      3.95676907E-05    3     -1000024         4        -3             # GLSS   -->  W1SS-  CH     SB          
      2.28981301E-01    3      1000024         5        -6             # GLSS   -->  W1SS+  BT     TB          
      2.28981301E-01    3     -1000024         6        -5             # GLSS   -->  W1SS-  TP     BB          
      6.31776231E-04    3      1000037         1        -2             # GLSS   -->  W2SS+  DN     UB          
      6.31776231E-04    3     -1000037         2        -1             # GLSS   -->  W2SS-  UP     DB          
      6.31776173E-04    3      1000037         3        -4             # GLSS   -->  W2SS+  ST     CB          
      6.31776173E-04    3     -1000037         4        -3             # GLSS   -->  W2SS-  CH     SB          
      1.20322853E-02    3      1000037         5        -6             # GLSS   -->  W2SS+  BT     TB          
      1.20322853E-02    3     -1000037         6        -5             # GLSS   -->  W2SS-  TP     BB          
      3.23939975E-03    2      1000022        21                       # GLSS   -->  Z1SS   GL                 
      2.12316318E-05    3      1000022         2        -2             # GLSS   -->  Z1SS   UP     UB          
      2.65186991E-05    3      1000022         1        -1             # GLSS   -->  Z1SS   DN     DB          
      2.65186991E-05    3      1000022         3        -3             # GLSS   -->  Z1SS   ST     SB          
      2.12316281E-05    3      1000022         4        -4             # GLSS   -->  Z1SS   CH     CB          
      4.81782685E-04    3      1000022         5        -5             # GLSS   -->  Z1SS   BT     BB          
      1.69828996E-01    3      1000022         6        -6             # GLSS   -->  Z1SS   TP     TB          
      4.54374775E-03    2      1000023        21                       # GLSS   -->  Z2SS   GL                 
      3.64037078E-06    3      1000023         2        -2             # GLSS   -->  Z2SS   UP     UB          
      4.92932440E-06    3      1000023         1        -1             # GLSS   -->  Z2SS   DN     DB          
      4.92932440E-06    3      1000023         3        -3             # GLSS   -->  Z2SS   ST     SB          
      3.64036964E-06    3      1000023         4        -4             # GLSS   -->  Z2SS   CH     CB          
      3.47771827E-04    3      1000023         5        -5             # GLSS   -->  Z2SS   BT     BB          
      2.24210337E-01    3      1000023         6        -6             # GLSS   -->  Z2SS   TP     TB          
      1.09678542E-03    2      1000025        21                       # GLSS   -->  Z3SS   GL                 
      2.67814728E-04    3      1000025         2        -2             # GLSS   -->  Z3SS   UP     UB          
      7.14393027E-05    3      1000025         1        -1             # GLSS   -->  Z3SS   DN     DB          
      7.14393027E-05    3      1000025         3        -3             # GLSS   -->  Z3SS   ST     SB          
      2.67814728E-04    3      1000025         4        -4             # GLSS   -->  Z3SS   CH     CB          
      1.04644016E-04    3      1000025         5        -5             # GLSS   -->  Z3SS   BT     BB          
      9.77776274E-02    3      1000025         6        -6             # GLSS   -->  Z3SS   TP     TB          
      2.10811879E-04    2      1000035        21                       # GLSS   -->  Z4SS   GL                 
      3.01774620E-04    3      1000035         2        -2             # GLSS   -->  Z4SS   UP     UB          
      3.10046395E-04    3      1000035         1        -1             # GLSS   -->  Z4SS   DN     DB          
      3.10046395E-04    3      1000035         3        -3             # GLSS   -->  Z4SS   ST     SB          
      3.01774533E-04    3      1000035         4        -4             # GLSS   -->  Z4SS   CH     CB          
      1.38854142E-03    3      1000035         5        -5             # GLSS   -->  Z4SS   BT     BB          
      1.00422744E-02    3      1000035         6        -6             # GLSS   -->  Z4SS   TP     TB          
#         PDG         Width
DECAY   1000002  2.90870239E+02   # UPL   decays
#          BR          NDA       ID1       ID2       ID3       ID4
      1.05237670E-03    2      1000022         2                       # UPL    -->  Z1SS   UP                 
      4.06787818E-04    2      1000023         2                       # UPL    -->  Z2SS   UP                 
      4.92003979E-03    2      1000025         2                       # UPL    -->  Z3SS   UP                 
      6.77118450E-02    2      1000035         2                       # UPL    -->  Z4SS   UP                 
      7.82459915E-01    2      1000021         2                       # UPL    -->  GLSS   UP                 
      9.72512830E-03    2      1000024         1                       # UPL    -->  W1SS+  DN                 
      1.33723974E-01    2      1000037         1                       # UPL    -->  W2SS+  DN                 
#         PDG         Width
DECAY   1000001  2.90872803E+02   # DNL   decays
#          BR          NDA       ID1       ID2       ID3       ID4
      2.97279749E-03    2      1000022         1                       # DNL    -->  Z1SS   DN                 
      8.07837350E-04    2      1000023         1                       # DNL    -->  Z2SS   DN                 
      6.55000855E-04    2      1000025         1                       # DNL    -->  Z3SS   DN                 
      6.96488395E-02    2      1000035         1                       # DNL    -->  Z4SS   DN                 
      7.82576203E-01    2      1000021         1                       # DNL    -->  GLSS   DN                 
      1.12154137E-03    2     -1000024         2                       # DNL    -->  W1SS-  UP                 
      1.42217681E-01    2     -1000037         2                       # DNL    -->  W2SS-  UP                 
#         PDG         Width
DECAY   1000003  2.90872803E+02   # STL   decays
#          BR          NDA       ID1       ID2       ID3       ID4
      2.97279749E-03    2      1000022         3                       # STL    -->  Z1SS   ST                 
      8.07837350E-04    2      1000023         3                       # STL    -->  Z2SS   ST                 
      6.55000855E-04    2      1000025         3                       # STL    -->  Z3SS   ST                 
      6.96488395E-02    2      1000035         3                       # STL    -->  Z4SS   ST                 
      7.82576203E-01    2      1000021         3                       # STL    -->  GLSS   ST                 
      1.12154125E-03    2     -1000024         4                       # STL    -->  W1SS-  CH                 
      1.42217666E-01    2     -1000037         4                       # STL    -->  W2SS-  CH                 
#         PDG         Width
DECAY   1000004  2.90870270E+02   # CHL   decays
#          BR          NDA       ID1       ID2       ID3       ID4
      1.05237670E-03    2      1000022         4                       # CHL    -->  Z1SS   CH                 
      4.06787760E-04    2      1000023         4                       # CHL    -->  Z2SS   CH                 
      4.92003933E-03    2      1000025         4                       # CHL    -->  Z3SS   CH                 
      6.77118450E-02    2      1000035         4                       # CHL    -->  Z4SS   CH                 
      7.82459855E-01    2      1000021         4                       # CHL    -->  GLSS   CH                 
      9.72512830E-03    2      1000024         3                       # CHL    -->  W1SS+  ST                 
      1.33723974E-01    2      1000037         3                       # CHL    -->  W2SS+  ST                 
#         PDG         Width
DECAY   1000005  2.72037109E+02   # BT1   decays
#          BR          NDA       ID1       ID2       ID3       ID4
      7.63988914E-03    2      1000022         5                       # BT1    -->  Z1SS   BT                 
      5.27269766E-03    2      1000023         5                       # BT1    -->  Z2SS   BT                 
      5.96586440E-04    2      1000025         5                       # BT1    -->  Z3SS   BT                 
      5.13623953E-02    2      1000035         5                       # BT1    -->  Z4SS   BT                 
      5.10826707E-01    2      1000021         5                       # BT1    -->  GLSS   BT                 
      1.61075711E-01    2     -1000024         6                       # BT1    -->  W1SS-  TP                 
      1.16345689E-01    2     -1000037         6                       # BT1    -->  W2SS-  TP                 
      1.46604940E-01    2          -24   1000006                       # BT1    -->  W-     TP1                
      2.75412138E-04    2          -37   1000006                       # BT1    -->  H-     TP1                
#         PDG         Width
DECAY   1000006  4.09418335E+01   # TP1   decays
#          BR          NDA       ID1       ID2       ID3       ID4
      1.90172061E-01    2      1000022         6                       # TP1    -->  Z1SS   TP                 
      2.44835615E-01    2      1000023         6                       # TP1    -->  Z2SS   TP                 
      8.82726833E-02    2      1000025         6                       # TP1    -->  Z3SS   TP                 
      9.69932321E-03    2      1000035         6                       # TP1    -->  Z4SS   TP                 
      4.48041379E-01    2      1000024         5                       # TP1    -->  W1SS+  BT                 
      1.89789440E-02    2      1000037         5                       # TP1    -->  W2SS+  BT                 
#         PDG         Width
DECAY   2000002  2.47807144E+02   # UPR   decays
#          BR          NDA       ID1       ID2       ID3       ID4
      2.35928805E-03    2      1000022         2                       # UPR    -->  Z1SS   UP                 
      3.29533854E-04    2      1000023         2                       # UPR    -->  Z2SS   UP                 
      4.43629101E-02    2      1000025         2                       # UPR    -->  Z3SS   UP                 
      6.55748081E-05    2      1000035         2                       # UPR    -->  Z4SS   UP                 
      9.52882648E-01    2      1000021         2                       # UPR    -->  GLSS   UP                 
#         PDG         Width
DECAY   2000001  2.29490387E+02   # DNR   decays
#          BR          NDA       ID1       ID2       ID3       ID4
      6.15858589E-04    2      1000022         1                       # DNR    -->  Z1SS   DN                 
      8.60177897E-05    2      1000023         1                       # DNR    -->  Z2SS   DN                 
      1.15776015E-02    2      1000025         1                       # DNR    -->  Z3SS   DN                 
      1.70995754E-05    2      1000035         1                       # DNR    -->  Z4SS   DN                 
      9.87703443E-01    2      1000021         1                       # DNR    -->  GLSS   DN                 
#         PDG         Width
DECAY   2000003  2.29490387E+02   # STR   decays
#          BR          NDA       ID1       ID2       ID3       ID4
      6.15858589E-04    2      1000022         3                       # STR    -->  Z1SS   ST                 
      8.60177897E-05    2      1000023         3                       # STR    -->  Z2SS   ST                 
      1.15776015E-02    2      1000025         3                       # STR    -->  Z3SS   ST                 
      1.70995754E-05    2      1000035         3                       # STR    -->  Z4SS   ST                 
      9.87703443E-01    2      1000021         3                       # STR    -->  GLSS   ST                 
#         PDG         Width
DECAY   2000004  2.47807098E+02   # CHR   decays
#          BR          NDA       ID1       ID2       ID3       ID4
      2.35928828E-03    2      1000022         4                       # CHR    -->  Z1SS   CH                 
      3.29533854E-04    2      1000023         4                       # CHR    -->  Z2SS   CH                 
      4.43629064E-02    2      1000025         4                       # CHR    -->  Z3SS   CH                 
      6.55748081E-05    2      1000035         4                       # CHR    -->  Z4SS   CH                 
      9.52882707E-01    2      1000021         4                       # CHR    -->  GLSS   CH                 
#         PDG         Width
DECAY   2000005  2.58827454E+02   # BT2   decays
#          BR          NDA       ID1       ID2       ID3       ID4
      8.27673730E-03    2      1000022         5                       # BT2    -->  Z1SS   BT                 
      6.87371986E-03    2      1000023         5                       # BT2    -->  Z2SS   BT                 
      1.01162689E-02    2      1000025         5                       # BT2    -->  Z3SS   BT                 
      9.30063252E-05    2      1000035         5                       # BT2    -->  Z4SS   BT                 
      8.41671228E-01    2      1000021         5                       # BT2    -->  GLSS   BT                 
      1.46282753E-02    2     -1000024         6                       # BT2    -->  W1SS-  TP                 
      1.39787997E-04    2     -1000037         6                       # BT2    -->  W2SS-  TP                 
      5.24540019E-06    2          -24   1000006                       # BT2    -->  W-     TP1                
      3.10045551E-04    2          -24   2000006                       # BT2    -->  W-     TP2                
      1.50044812E-04    2           23   1000005                       # BT2    -->  Z0     BT1                
      2.96172278E-04    2           25   1000005                       # BT2    -->  HL0    BT1                
      2.88909860E-02    2           36   1000005                       # BT2    -->  HA0    BT1                
      2.86254603E-02    2           35   1000005                       # BT2    -->  HH0    BT1                
      1.25463543E-04    2          -37   1000006                       # BT2    -->  H-     TP1                
      5.97975478E-02    2          -37   2000006                       # BT2    -->  H-     TP2                
#         PDG         Width
DECAY   2000006  2.79541687E+02   # TP2   decays
#          BR          NDA       ID1       ID2       ID3       ID4
      4.86018091E-01    2      1000021         6                       # TP2    -->  GLSS   TP                 
      1.39004402E-02    2      1000024         5                       # TP2    -->  W1SS+  BT                 
      9.83166844E-02    2      1000037         5                       # TP2    -->  W2SS+  BT                 
      6.99169412E-02    2           23   1000006                       # TP2    -->  Z0     TP1                
      1.13029957E-01    2           25   1000006                       # TP2    -->  HL0    TP1                
      1.44713093E-04    2           35   1000006                       # TP2    -->  HH0    TP1                
      1.34751754E-04    2           36   1000006                       # TP2    -->  HA0    TP1                
      6.51537850E-02    2      1000022         6                       # TP2    -->  Z1SS   TP                 
      8.67964923E-02    2      1000023         6                       # TP2    -->  Z2SS   TP                 
      1.09742852E-02    2      1000025         6                       # TP2    -->  Z3SS   TP                 
      5.56137227E-02    2      1000035         6                       # TP2    -->  Z4SS   TP                 
#         PDG         Width
DECAY   1000011  6.97277832E+01   # EL-   decays
#          BR          NDA       ID1       ID2       ID3       ID4
      4.52972832E-04    2      1000022        11                       # EL-    -->  Z1SS   E-                 
      5.99313236E-04    2      1000023        11                       # EL-    -->  Z2SS   E-                 
      1.16121441E-01    2      1000025        11                       # EL-    -->  Z3SS   E-                 
      2.77814806E-01    2      1000035        11                       # EL-    -->  Z4SS   E-                 
      4.73225676E-03    2     -1000024        12                       # EL-    -->  W1SS-  NUE                
      6.00279152E-01    2     -1000037        12                       # EL-    -->  W2SS-  NUE                
#         PDG         Width
DECAY   1000013  6.97277832E+01   # MUL-  decays
#          BR          NDA       ID1       ID2       ID3       ID4
      4.52972832E-04    2      1000022        13                       # MUL-   -->  Z1SS   MU-                
      5.99313236E-04    2      1000023        13                       # MUL-   -->  Z2SS   MU-                
      1.16121441E-01    2      1000025        13                       # MUL-   -->  Z3SS   MU-                
      2.77814806E-01    2      1000035        13                       # MUL-   -->  Z4SS   MU-                
      4.73225676E-03    2     -1000024        14                       # MUL-   -->  W1SS-  NUM                
      6.00279152E-01    2     -1000037        14                       # MUL-   -->  W2SS-  NUM                
#         PDG         Width
DECAY   1000015  2.80395546E+01   # TAU1- decays
#          BR          NDA       ID1       ID2       ID3       ID4
      8.45995843E-02    2      1000022        15                       # TAU1-  -->  Z1SS   TAU-               
      4.18557674E-02    2      1000023        15                       # TAU1-  -->  Z2SS   TAU-               
      7.92922795E-01    2      1000025        15                       # TAU1-  -->  Z3SS   TAU-               
      1.31441606E-03    2      1000035        15                       # TAU1-  -->  Z4SS   TAU-               
      7.90592656E-02    2     -1000024        16                       # TAU1-  -->  W1SS-  NUT                
      2.48135795E-04    2     -1000037        16                       # TAU1-  -->  W2SS-  NUT                
#         PDG         Width
DECAY   1000012  6.98174896E+01   # NUEL  decays
#          BR          NDA       ID1       ID2       ID3       ID4
      2.47516260E-02    2      1000022        12                       # NUEL   -->  Z1SS   NUE                
      5.67328930E-03    2      1000023        12                       # NUEL   -->  Z2SS   NUE                
      6.21001869E-02    2      1000025        12                       # NUEL   -->  Z3SS   NUE                
      3.02137434E-01    2      1000035        12                       # NUEL   -->  Z4SS   NUE                
      4.10247371E-02    2      1000024        11                       # NUEL   -->  W1SS+  E-                 
      5.64312756E-01    2      1000037        11                       # NUEL   -->  W2SS+  E-                 
#         PDG         Width
DECAY   1000014  6.98174896E+01   # NUML  decays
#          BR          NDA       ID1       ID2       ID3       ID4
      2.47516260E-02    2      1000022        14                       # NUML   -->  Z1SS   NUM                
      5.67328930E-03    2      1000023        14                       # NUML   -->  Z2SS   NUM                
      6.21001869E-02    2      1000025        14                       # NUML   -->  Z3SS   NUM                
      3.02137434E-01    2      1000035        14                       # NUML   -->  Z4SS   NUM                
      4.10247371E-02    2      1000024        13                       # NUML   -->  W1SS+  MU-                
      5.64312756E-01    2      1000037        13                       # NUML   -->  W2SS+  MU-                
#         PDG         Width
DECAY   1000016  7.11615982E+01   # NUTL  decays
#          BR          NDA       ID1       ID2       ID3       ID4
      2.39252783E-02    2      1000022        16                       # NUTL   -->  Z1SS   NUT                
      5.48381684E-03    2      1000023        16                       # NUTL   -->  Z2SS   NUT                
      6.00206181E-02    2      1000025        16                       # NUTL   -->  Z3SS   NUT                
      2.91913509E-01    2      1000035        16                       # NUTL   -->  Z4SS   NUT                
      7.30163902E-02    2      1000024        15                       # NUTL   -->  W1SS+  TAU-               
      5.45484662E-01    2      1000037        15                       # NUTL   -->  W2SS+  TAU-               
      1.55759393E-04    2           24   1000015                       # NUTL   -->  W+     TAU1-              
#         PDG         Width
DECAY   2000011  2.44155846E+01   # ER-   decays
#          BR          NDA       ID1       ID2       ID3       ID4
      5.00976518E-02    2      1000022        11                       # ER-    -->  Z1SS   E-                 
      6.99696923E-03    2      1000023        11                       # ER-    -->  Z2SS   E-                 
      9.41516221E-01    2      1000025        11                       # ER-    -->  Z3SS   E-                 
      1.38916948E-03    2      1000035        11                       # ER-    -->  Z4SS   E-                 
#         PDG         Width
DECAY   2000013  2.44155846E+01   # MUR-  decays
#          BR          NDA       ID1       ID2       ID3       ID4
      5.00976518E-02    2      1000022        13                       # MUR-   -->  Z1SS   MU-                
      6.99696923E-03    2      1000023        13                       # MUR-   -->  Z2SS   MU-                
      9.41516221E-01    2      1000025        13                       # MUR-   -->  Z3SS   MU-                
      1.38916948E-03    2      1000035        13                       # MUR-   -->  Z4SS   MU-                
#         PDG         Width
DECAY   2000015  7.10428543E+01   # TAU2- decays
#          BR          NDA       ID1       ID2       ID3       ID4
      1.78360865E-02    2      1000022        15                       # TAU2-  -->  Z1SS   TAU-               
      1.61237847E-02    2      1000023        15                       # TAU2-  -->  Z2SS   TAU-               
      1.12704188E-01    2      1000025        15                       # TAU2-  -->  Z3SS   TAU-               
      2.68662989E-01    2      1000035        15                       # TAU2-  -->  Z4SS   TAU-               
      4.39107977E-03    2     -1000024        16                       # TAU2-  -->  W1SS-  NUT                
      5.80173850E-01    2     -1000037        16                       # TAU2-  -->  W2SS-  NUT                
      7.31906548E-05    2           23   1000015                       # TAU2-  -->  Z0     TAU1-              
      3.48454923E-05    2           25   1000015                       # TAU2-  -->  HL0    TAU1-              
#         PDG         Width
DECAY   1000023  6.10254392E-06   # Z2SS  decays
#          BR          NDA       ID1       ID2       ID3       ID4
      2.85043009E-03    2      1000022        22                       # Z2SS   -->  Z1SS   GM                 
      3.35730659E-03    3     -1000024         2        -1             # Z2SS   -->  W1SS-  UP     DB          
      1.11910223E-03    3     -1000024        12       -11             # Z2SS   -->  W1SS-  NUE    E+          
      1.11910223E-03    3     -1000024        14       -13             # Z2SS   -->  W1SS-  NUM    MU+         
      3.35730659E-03    3      1000024         1        -2             # Z2SS   -->  W1SS+  DN     UB          
      1.11910223E-03    3      1000024        11       -12             # Z2SS   -->  W1SS+  E-     ANUE        
      1.11910223E-03    3      1000024        13       -14             # Z2SS   -->  W1SS+  MU-    ANUM        
      3.35730659E-03    3     -1000024         4        -3             # Z2SS   -->  W1SS-  CH     SB          
      1.11910223E-03    3     -1000024        16       -15             # Z2SS   -->  W1SS-  NUT    TAU+        
      3.35730659E-03    3      1000024         3        -4             # Z2SS   -->  W1SS+  ST     CB          
      1.11910223E-03    3      1000024        15       -16             # Z2SS   -->  W1SS+  TAU-   ANUT        
      1.22388922E-01    3      1000022         2        -2             # Z2SS   -->  Z1SS   UP     UB          
      1.57817960E-01    3      1000022         1        -1             # Z2SS   -->  Z1SS   DN     DB          
      1.57817960E-01    3      1000022         3        -3             # Z2SS   -->  Z1SS   ST     SB          
      1.22388922E-01    3      1000022         4        -4             # Z2SS   -->  Z1SS   CH     CB          
      9.80943963E-02    3      1000022         5        -5             # Z2SS   -->  Z1SS   BT     BB          
      3.58009338E-02    3      1000022        11       -11             # Z2SS   -->  Z1SS   E-     E+          
      3.58009338E-02    3      1000022        13       -13             # Z2SS   -->  Z1SS   MU-    MU+         
      3.31909694E-02    3      1000022        15       -15             # Z2SS   -->  Z1SS   TAU-   TAU+        
      7.12348968E-02    3      1000022        12       -12             # Z2SS   -->  Z1SS   NUE    ANUE        
      7.12348968E-02    3      1000022        14       -14             # Z2SS   -->  Z1SS   NUM    ANUM        
      7.12349415E-02    3      1000022        16       -16             # Z2SS   -->  Z1SS   NUT    ANUT        
#         PDG         Width
DECAY   1000025  1.70330778E-01   # Z3SS  decays
#          BR          NDA       ID1       ID2       ID3       ID4
      5.04963928E-08    2      1000022        22                       # Z3SS   -->  Z1SS   GM                 
      6.76742065E-11    2      1000023        22                       # Z3SS   -->  Z2SS   GM                 
      3.77733350E-01    2      1000024       -24                       # Z3SS   -->  W1SS+  W-                 
      3.77733350E-01    2     -1000024        24                       # Z3SS   -->  W1SS-  W+                 
      4.28243503E-02    2      1000022        23                       # Z3SS   -->  Z1SS   Z0                 
      1.03691220E-01    2      1000023        23                       # Z3SS   -->  Z2SS   Z0                 
      4.87243336E-11    3      1000022         2        -2             # Z3SS   -->  Z1SS   UP     UB          
      4.60352980E-12    3      1000022         1        -1             # Z3SS   -->  Z1SS   DN     DB          
      4.60352980E-12    3      1000022         3        -3             # Z3SS   -->  Z1SS   ST     SB          
      4.87243336E-11    3      1000022         4        -4             # Z3SS   -->  Z1SS   CH     CB          
      2.60586539E-08    3      1000022         5        -5             # Z3SS   -->  Z1SS   BT     BB          
      1.02338804E-10    3      1000022        11       -11             # Z3SS   -->  Z1SS   E-     E+          
      1.02338804E-10    3      1000022        13       -13             # Z3SS   -->  Z1SS   MU-    MU+         
      5.60397151E-09    3      1000022        15       -15             # Z3SS   -->  Z1SS   TAU-   TAU+        
      1.94780234E-11    3      1000022        12       -12             # Z3SS   -->  Z1SS   NUE    ANUE        
      1.94780234E-11    3      1000022        14       -14             # Z3SS   -->  Z1SS   NUM    ANUM        
      2.06727274E-11    3      1000022        16       -16             # Z3SS   -->  Z1SS   NUT    ANUT        
      1.42537176E-12    3      1000023         2        -2             # Z3SS   -->  Z2SS   UP     UB          
      1.52570814E-13    3      1000023         1        -1             # Z3SS   -->  Z2SS   DN     DB          
      1.52570814E-13    3      1000023         3        -3             # Z3SS   -->  Z2SS   ST     SB          
      1.42537176E-12    3      1000023         4        -4             # Z3SS   -->  Z2SS   CH     CB          
      3.84128320E-08    3      1000023         5        -5             # Z3SS   -->  Z2SS   BT     BB          
      2.78738968E-12    3      1000023        11       -11             # Z3SS   -->  Z2SS   E-     E+          
      2.78738968E-12    3      1000023        13       -13             # Z3SS   -->  Z2SS   MU-    MU+         
      7.92246357E-09    3      1000023        15       -15             # Z3SS   -->  Z2SS   TAU-   TAU+        
      8.24902809E-13    3      1000023        12       -12             # Z3SS   -->  Z2SS   NUE    ANUE        
      8.24902809E-13    3      1000023        14       -14             # Z3SS   -->  Z2SS   NUM    ANUM        
      8.75510873E-13    3      1000023        16       -16             # Z3SS   -->  Z2SS   NUT    ANUT        
      9.80175883E-02    2      1000022        25                       # Z3SS   -->  Z1SS   HL0                
#         PDG         Width
DECAY   1000035  3.37948084E+00   # Z4SS  decays
#          BR          NDA       ID1       ID2       ID3       ID4
      1.87028706E-06    2      1000022        22                       # Z4SS   -->  Z1SS   GM                 
      4.10399798E-06    2      1000023        22                       # Z4SS   -->  Z2SS   GM                 
      2.47208277E-07    2      1000025        22                       # Z4SS   -->  Z3SS   GM                 
      2.55248845E-01    2      1000024       -24                       # Z4SS   -->  W1SS+  W-                 
      2.55248845E-01    2     -1000024        24                       # Z4SS   -->  W1SS-  W+                 
      3.21045626E-08    3     -1000037         2        -1             # Z4SS   -->  W2SS-  UP     DB          
      1.07015206E-08    3     -1000037        12       -11             # Z4SS   -->  W2SS-  NUE    E+          
      1.07015206E-08    3     -1000037        14       -13             # Z4SS   -->  W2SS-  NUM    MU+         
      3.21045626E-08    3      1000037         1        -2             # Z4SS   -->  W2SS+  DN     UB          
      1.07015206E-08    3      1000037        11       -12             # Z4SS   -->  W2SS+  E-     ANUE        
      1.07015206E-08    3      1000037        13       -14             # Z4SS   -->  W2SS+  MU-    ANUM        
      3.21045626E-08    3     -1000037         4        -3             # Z4SS   -->  W2SS-  CH     SB          
      1.07015206E-08    3     -1000037        16       -15             # Z4SS   -->  W2SS-  NUT    TAU+        
      3.21045626E-08    3      1000037         3        -4             # Z4SS   -->  W2SS+  ST     CB          
      1.07015206E-08    3      1000037        15       -16             # Z4SS   -->  W2SS+  TAU-   ANUT        
      4.21684720E-02    2      1000022        23                       # Z4SS   -->  Z1SS   Z0                 
      2.27625370E-01    2      1000023        23                       # Z4SS   -->  Z2SS   Z0                 
      4.18036757E-03    2      1000025        23                       # Z4SS   -->  Z3SS   Z0                 
      1.68488265E-10    3      1000022         2        -2             # Z4SS   -->  Z1SS   UP     UB          
      4.88571517E-10    3      1000022         1        -1             # Z4SS   -->  Z1SS   DN     DB          
      4.88571517E-10    3      1000022         3        -3             # Z4SS   -->  Z1SS   ST     SB          
      1.68488168E-10    3      1000022         4        -4             # Z4SS   -->  Z1SS   CH     CB          
      6.38228869E-07    3      1000022         5        -5             # Z4SS   -->  Z1SS   BT     BB          
      5.80811180E-12    3      1000022        11       -11             # Z4SS   -->  Z1SS   E-     E+          
      5.80811180E-12    3      1000022        13       -13             # Z4SS   -->  Z1SS   MU-    MU+         
      1.23105053E-07    3      1000022        15       -15             # Z4SS   -->  Z1SS   TAU-   TAU+        
      3.14551080E-10    3      1000022        12       -12             # Z4SS   -->  Z1SS   NUE    ANUE        
      3.14551080E-10    3      1000022        14       -14             # Z4SS   -->  Z1SS   NUM    ANUM        
      3.33890915E-10    3      1000022        16       -16             # Z4SS   -->  Z1SS   NUT    ANUT        
      2.75067746E-11    3      1000023         2        -2             # Z4SS   -->  Z2SS   UP     UB          
      5.61198935E-11    3      1000023         1        -1             # Z4SS   -->  Z2SS   DN     DB          
      5.61198935E-11    3      1000023         3        -3             # Z4SS   -->  Z2SS   ST     SB          
      2.75067642E-11    3      1000023         4        -4             # Z4SS   -->  Z2SS   CH     CB          
      4.88751368E-07    3      1000023         5        -5             # Z4SS   -->  Z2SS   BT     BB          
      2.99860917E-12    3      1000023        11       -11             # Z4SS   -->  Z2SS   E-     E+          
      2.99860917E-12    3      1000023        13       -13             # Z4SS   -->  Z2SS   MU-    MU+         
      9.45790291E-08    3      1000023        15       -15             # Z4SS   -->  Z2SS   TAU-   TAU+        
      3.04747304E-11    3      1000023        12       -12             # Z4SS   -->  Z2SS   NUE    ANUE        
      3.04747304E-11    3      1000023        14       -14             # Z4SS   -->  Z2SS   NUM    ANUM        
      3.23497999E-11    3      1000023        16       -16             # Z4SS   -->  Z2SS   NUT    ANUT        
      1.83488669E-10    3      1000025         2        -2             # Z4SS   -->  Z3SS   UP     UB          
      2.50444977E-11    3      1000025         1        -1             # Z4SS   -->  Z3SS   DN     DB          
      2.50444977E-11    3      1000025         3        -3             # Z4SS   -->  Z3SS   ST     SB          
      1.83488599E-10    3      1000025         4        -4             # Z4SS   -->  Z3SS   CH     CB          
      3.73277054E-09    3      1000025         5        -5             # Z4SS   -->  Z3SS   BT     BB          
      3.17920912E-10    3      1000025        11       -11             # Z4SS   -->  Z3SS   E-     E+          
      3.17920912E-10    3      1000025        13       -13             # Z4SS   -->  Z3SS   MU-    MU+         
      1.04635889E-09    3      1000025        15       -15             # Z4SS   -->  Z3SS   TAU-   TAU+        
      1.83079191E-10    3      1000025        12       -12             # Z4SS   -->  Z3SS   NUE    ANUE        
      1.83079191E-10    3      1000025        14       -14             # Z4SS   -->  Z3SS   NUM    ANUM        
      1.94351285E-10    3      1000025        16       -16             # Z4SS   -->  Z3SS   NUT    ANUT        
      1.34693414E-01    2      1000022        25                       # Z4SS   -->  Z1SS   HL0                
      4.80652191E-02    2      1000023        25                       # Z4SS   -->  Z2SS   HL0                
      3.27617191E-02    2      1000025        25                       # Z4SS   -->  Z3SS   HL0                
#         PDG         Width
DECAY   1000024  9.72848625E-07   # W1SS+ decays
#          BR          NDA       ID1       ID2       ID3       ID4
      3.33332092E-01    3      1000022         2        -1             # W1SS+  -->  Z1SS   UP     DB          
      3.33332092E-01    3      1000022         4        -3             # W1SS+  -->  Z1SS   CH     SB          
      1.11111194E-01    3      1000022       -11        12             # W1SS+  -->  Z1SS   E+     NUE         
      1.11111194E-01    3      1000022       -13        14             # W1SS+  -->  Z1SS   MU+    NUM         
      1.11113429E-01    3      1000022       -15        16             # W1SS+  -->  Z1SS   TAU+   NUT         
#         PDG         Width
DECAY   1000037  3.33120346E+00   # W2SS+ decays
#          BR          NDA       ID1       ID2       ID3       ID4
      3.40494771E-10    3      1000022         2        -1             # W2SS+  -->  Z1SS   UP     DB          
      3.40494771E-10    3      1000022         4        -3             # W2SS+  -->  Z1SS   CH     SB          
      1.90776325E-10    3      1000022       -11        12             # W2SS+  -->  Z1SS   E+     NUE         
      1.90776325E-10    3      1000022       -13        14             # W2SS+  -->  Z1SS   MU+    NUM         
      1.17387891E-07    3      1000022       -15        16             # W2SS+  -->  Z1SS   TAU+   NUT         
      2.21563950E-01    2      1000022        24                       # W2SS+  -->  Z1SS   W+                 
      1.52577964E-10    3      1000023         2        -1             # W2SS+  -->  Z2SS   UP     DB          
      1.52577936E-10    3      1000023         4        -3             # W2SS+  -->  Z2SS   CH     SB          
      5.22646475E-11    3      1000023       -11        12             # W2SS+  -->  Z2SS   E+     NUE         
      5.22646475E-11    3      1000023       -13        14             # W2SS+  -->  Z2SS   MU+    NUM         
      7.98968500E-08    3      1000023       -15        16             # W2SS+  -->  Z2SS   TAU+   NUT         
      2.62125969E-01    2      1000023        24                       # W2SS+  -->  Z2SS   W+                 
      1.54768517E-10    3      1000025         2        -1             # W2SS+  -->  Z3SS   UP     DB          
      1.54768448E-10    3      1000025         4        -3             # W2SS+  -->  Z3SS   CH     SB          
      4.23635155E-10    3      1000025       -11        12             # W2SS+  -->  Z3SS   E+     NUE         
      4.23635155E-10    3      1000025       -13        14             # W2SS+  -->  Z3SS   MU+    NUM         
      1.12436349E-09    3      1000025       -15        16             # W2SS+  -->  Z3SS   TAU+   NUT         
      4.35098968E-02    2      1000025        24                       # W2SS+  -->  Z3SS   W+                 
      2.44953364E-01    2      1000024        23                       # W2SS+  -->  W1SS+  Z0                 
      9.51973389E-10    3      1000024         1        -1             # W2SS+  -->  W1SS+  DN     DB          
      9.51972945E-10    3      1000024         3        -3             # W2SS+  -->  W1SS+  ST     SB          
      1.16670201E-10    3      1000024         2        -2             # W2SS+  -->  W1SS+  UP     UB          
      1.16670201E-10    3      1000024         4        -4             # W2SS+  -->  W1SS+  CH     CB          
      3.71520488E-11    3      1000024        12       -12             # W2SS+  -->  W1SS+  NUE    ANUE        
      3.71520488E-11    3      1000024        14       -14             # W2SS+  -->  W1SS+  NUM    ANUM        
      5.28664543E-11    3      1000024        16       -16             # W2SS+  -->  W1SS+  NUT    ANUT        
      3.01860148E-10    3      1000024        11       -11             # W2SS+  -->  W1SS+  E-     E+          
      3.01860148E-10    3      1000024        13       -13             # W2SS+  -->  W1SS+  MU-    MU+         
      3.20422661E-10    3      1000024        15       -15             # W2SS+  -->  W1SS+  TAU-   TAU+        
      2.27846622E-01    2      1000024        25                       # W2SS+  -->  W1SS+  HL0                
#         PDG         Width
DECAY        25  3.83213209E-03   # HL0   decays
#          BR          NDA       ID1       ID2       ID3       ID4
      5.77346349E-09    2           11       -11                       # HL0    -->  E-     E+                 
      2.43765011E-04    2           13       -13                       # HL0    -->  MU-    MU+                
      6.97327852E-02    2           15       -15                       # HL0    -->  TAU-   TAU+               
      7.23788253E-06    2            1        -1                       # HL0    -->  DN     DB                 
      2.92446767E-03    2            3        -3                       # HL0    -->  ST     SB                 
      6.26555264E-01    2            5        -5                       # HL0    -->  BT     BB                 
      2.21120695E-06    2            2        -2                       # HL0    -->  UP     UB                 
      4.11325768E-02    2            4        -4                       # HL0    -->  CH     CB                 
      2.70801503E-03    2           22        22                       # HL0    -->  GM     GM                 
      5.25824800E-02    2           21        21                       # HL0    -->  GL     GL                 
      1.02230860E-02    3           24        11       -12             # HL0    -->  W+     E-     ANUE        
      1.02230860E-02    3           24        13       -14             # HL0    -->  W+     MU-    ANUM        
      1.02230860E-02    3           24        15       -16             # HL0    -->  W+     TAU-   ANUT        
      3.06692589E-02    3           24        -2         1             # HL0    -->  W+     UB     DN          
      3.06692589E-02    3           24        -4         3             # HL0    -->  W+     CB     ST          
      1.02230860E-02    3          -24       -11        12             # HL0    -->  W-     E+     NUE         
      1.02230860E-02    3          -24       -13        14             # HL0    -->  W-     MU+    NUM         
      1.02230860E-02    3          -24       -15        16             # HL0    -->  W-     TAU+   NUT         
      3.06692589E-02    3          -24         2        -1             # HL0    -->  W-     UP     DB          
      3.06692589E-02    3          -24         4        -3             # HL0    -->  W-     CH     SB          
      1.37433701E-03    3           23        12       -12             # HL0    -->  Z0     NUE    ANUE        
      1.37433701E-03    3           23        14       -14             # HL0    -->  Z0     NUM    ANUM        
      1.37433701E-03    3           23        16       -16             # HL0    -->  Z0     NUT    ANUT        
      6.91690017E-04    3           23        11       -11             # HL0    -->  Z0     E-     E+          
      6.91690017E-04    3           23        13       -13             # HL0    -->  Z0     MU-    MU+         
      6.91690017E-04    3           23        15       -15             # HL0    -->  Z0     TAU-   TAU+        
      2.36967136E-03    3           23         2        -2             # HL0    -->  Z0     UP     UB          
      2.36967136E-03    3           23         4        -4             # HL0    -->  Z0     CH     CB          
      3.05272057E-03    3           23         1        -1             # HL0    -->  Z0     DN     DB          
      3.05272057E-03    3           23         3        -3             # HL0    -->  Z0     ST     SB          
      3.05272057E-03    3           23         5        -5             # HL0    -->  Z0     BT     BB          
#         PDG         Width
DECAY        35  1.28227568E+01   # HH0   decays
#          BR          NDA       ID1       ID2       ID3       ID4
      3.00115710E-09    2           11       -11                       # HH0    -->  E-     E+                 
      1.26714265E-04    2           13       -13                       # HH0    -->  MU-    MU+                
      3.62922326E-02    2           15       -15                       # HH0    -->  TAU-   TAU+               
      3.67643111E-06    2            1        -1                       # HH0    -->  DN     DB                 
      1.48546428E-03    2            3        -3                       # HH0    -->  ST     SB                 
      2.23230496E-01    2            5        -5                       # HH0    -->  BT     BB                 
      2.43363853E-11    2            2        -2                       # HH0    -->  UP     UB                 
      3.42729123E-07    2            4        -4                       # HH0    -->  CH     CB                 
      1.56344846E-02    2            6        -6                       # HH0    -->  TP     TB                 
      3.28915746E-07    2           22        22                       # HH0    -->  GM     GM                 
      7.75580247E-06    2           21        21                       # HH0    -->  GL     GL                 
      6.00679850E-05    2           24       -24                       # HH0    -->  W+     W-                 
      3.04974874E-05    2           23        23                       # HH0    -->  Z0     Z0                 
      2.33830959E-02    2      1000022   1000022                       # HH0    -->  Z1SS   Z1SS               
      4.13403427E-03    2      1000022   1000023                       # HH0    -->  Z1SS   Z2SS               
      2.17645448E-02    2      1000022   1000025                       # HH0    -->  Z1SS   Z3SS               
      7.97934905E-02    2      1000022   1000035                       # HH0    -->  Z1SS   Z4SS               
      5.87984081E-03    2      1000023   1000023                       # HH0    -->  Z2SS   Z2SS               
      3.49180736E-02    2      1000023   1000025                       # HH0    -->  Z2SS   Z3SS               
      1.21329144E-01    2      1000023   1000035                       # HH0    -->  Z2SS   Z4SS               
      7.96680397E-04    2      1000025   1000025                       # HH0    -->  Z3SS   Z3SS               
      1.68137485E-03    2      1000025   1000035                       # HH0    -->  Z3SS   Z4SS               
      1.37279043E-04    2      1000035   1000035                       # HH0    -->  Z4SS   Z4SS               
      3.86922322E-02    2      1000024  -1000024                       # HH0    -->  W1SS+  W1SS-              
      2.82741355E-04    2      1000037  -1000037                       # HH0    -->  W2SS+  W2SS-              
      1.95060313E-01    2      1000024  -1000037                       # HH0    -->  W1SS+  W2SS-              
      1.95060313E-01    2     -1000024   1000037                       # HH0    -->  W1SS-  W2SS+              
      2.14795786E-04    2           25        25                       # HH0    -->  HL0    HL0                
#         PDG         Width
DECAY        36  1.26706057E+01   # HA0   decays
#          BR          NDA       ID1       ID2       ID3       ID4
      3.01771252E-09    2           11       -11                       # HA0    -->  E-     E+                 
      1.27413266E-04    2           13       -13                       # HA0    -->  MU-    MU+                
      3.64928842E-02    2           15       -15                       # HA0    -->  TAU-   TAU+               
      3.69691497E-06    2            1        -1                       # HA0    -->  DN     DB                 
      1.49374094E-03    2            3        -3                       # HA0    -->  ST     SB                 
      2.24484339E-01    2            5        -5                       # HA0    -->  BT     BB                 
      2.33658370E-11    2            2        -2                       # HA0    -->  UP     UB                 
      3.29319874E-07    2            4        -4                       # HA0    -->  CH     CB                 
      1.66863948E-02    2            6        -6                       # HA0    -->  TP     TB                 
      8.52409187E-07    2           22        22                       # HA0    -->  GM     GM                 
      2.44705825E-05    2           21        21                       # HA0    -->  GL     GL                 
      3.08456905E-02    2      1000022   1000022                       # HA0    -->  Z1SS   Z1SS               
      1.69068330E-03    2      1000022   1000023                       # HA0    -->  Z1SS   Z2SS               
      2.95301583E-02    2      1000022   1000025                       # HA0    -->  Z1SS   Z3SS               
      1.24031760E-01    2      1000022   1000035                       # HA0    -->  Z1SS   Z4SS               
      4.69045760E-03    2      1000023   1000023                       # HA0    -->  Z2SS   Z2SS               
      2.41377540E-02    2      1000023   1000025                       # HA0    -->  Z2SS   Z3SS               
      6.92828223E-02    2      1000023   1000035                       # HA0    -->  Z2SS   Z4SS               
      1.69915496E-03    2      1000025   1000025                       # HA0    -->  Z3SS   Z3SS               
      5.32242190E-03    2      1000025   1000035                       # HA0    -->  Z3SS   Z4SS               
      1.65700552E-03    2      1000035   1000035                       # HA0    -->  Z4SS   Z4SS               
      4.46854457E-02    2      1000024  -1000024                       # HA0    -->  W1SS+  W1SS-              
      3.05915414E-03    2      1000037  -1000037                       # HA0    -->  W2SS+  W2SS-              
      1.89997539E-01    2      1000024  -1000037                       # HA0    -->  W1SS+  W2SS-              
      1.89997539E-01    2     -1000024   1000037                       # HA0    -->  W1SS-  W2SS+              
      5.83174369E-05    2           25        23                       # HA0    -->  HL0    Z0                 
#         PDG         Width
DECAY        37  1.22348461E+01   # H+    decays
#          BR          NDA       ID1       ID2       ID3       ID4
      3.13528248E-09    2           12       -11                       # H+     -->  NUE    E+                 
      1.32377289E-04    2           14       -13                       # H+     -->  NUM    MU+                
      3.79146449E-02    2           16       -15                       # H+     -->  NUT    TAU+               
      3.53044379E-06    2            2        -1                       # H+     -->  UP     DB                 
      1.42677792E-03    2            4        -3                       # H+     -->  CH     SB                 
      2.17010975E-01    2            6        -5                       # H+     -->  TP     BB                 
      9.47615015E-04    2      1000024   1000022                       # H+     -->  W1SS+  Z1SS               
      5.44373132E-03    2      1000024   1000023                       # H+     -->  W1SS+  Z2SS               
      1.08947136E-01    2      1000024   1000025                       # H+     -->  W1SS+  Z3SS               
      1.96734458E-01    2      1000024   1000035                       # H+     -->  W1SS+  Z4SS               
      2.28542045E-01    2      1000037   1000022                       # H+     -->  W2SS+  Z1SS               
      1.94433600E-01    2      1000037   1000023                       # H+     -->  W2SS+  Z2SS               
      8.39486625E-03    2      1000037   1000025                       # H+     -->  W2SS+  Z3SS               
      7.70615407E-06    2      1000037   1000035                       # H+     -->  W2SS+  Z4SS               
      6.05662790E-05    2           25        24                       # H+     -->  HL0    W+                 
