#  ISAJET SUSY parameters in SUSY Les Houches Accord 2 format
#  Created by ISALHA 2.0 Last revision: C. Balazs 21 Apr 2009
Block SPINFO   # Program information
     1   ISASUGRA from ISAJET          # Spectrum Calculator
     2   7.80   29-OCT-2009 12:50:36   # Version number
Block MODSEL   # Model selection
     1     3   # Minimal anomaly mediated (AMSB) model             
Block SMINPUTS   # Standard Model inputs
     1     1.27844131E+02   # alpha_em^(-1)
     2     1.16570000E-05   # G_Fermi
     3     1.17200002E-01   # alpha_s(M_Z)
     4     9.11699982E+01   # m_{Z}(pole)
     5     4.19999981E+00   # m_{b}(m_{b})
     6     1.72500000E+02   # m_{top}(pole)
     7     1.77699995E+00   # m_{tau}(pole)
Block MINPAR   # SUSY breaking input parameters
     1     5.00000000E+03   # m_0
     2     3.14000000E+04   # m_{3/2}
     3     5.00000000E+00   # tan(beta)
     4     1.00000000E+00   # sign(mu)
Block EXTPAR   # Non-universal SUSY breaking parameters
     0     8.56623228E+15   # Input scale
Block MASS   # Scalar and gaugino mass spectrum
#  PDG code   mass                 particle
         5     4.80000000E+00   # b-quark pole mass calculated from mb(mb)_Msbar
         6     1.72500000E+02   # t-quark pole mass (not read by ME)
        15     1.77682000E+00   # tau pole mass (not read by ME)
        23     9.11876000E+01   # Z pole mass (not read by ME)
        24     8.04229965E+01   #  W^+
        25     1.15021736E+02   #  h^0            
        35     5.17766602E+03   #  H^0            
        36     5.14368408E+03   #  A^0            
        37     5.17813867E+03   #  H^+            
   1000001     4.99470410E+03   #  dnl            
   1000002     4.99409863E+03   #  upl            
   1000003     4.99470410E+03   #  stl            
   1000004     4.99409863E+03   #  chl            
   1000005     4.10117822E+03   #  b1             
   1000006     2.90687500E+03   #  t1             
   1000011     4.99045605E+03   #  el-            
   1000012     4.99193359E+03   #  nuel           
   1000013     4.99045605E+03   #  mul-           
   1000014     4.99193359E+03   #  numl           
   1000015     4.98064404E+03   #  tau1           
   1000016     4.98611475E+03   #  nutl           
   1000021     8.55318665E+02   #  glss           
   1000022     9.05050735E+01   #  z1ss           
   1000023     2.90657227E+02   #  z2ss           
   1000024     9.06781311E+01   #  w1ss           
   1000025    -9.01719788E+02   #  z3ss           
   1000035     9.06896973E+02   #  z4ss           
   1000037     9.07559143E+02   #  w2ss           
   2000001     5.01781494E+03   #  dnr            
   2000002     5.01421045E+03   #  upr            
   2000003     5.01781494E+03   #  str            
   2000004     5.01421094E+03   #  chr            
   2000005     5.00145898E+03   #  b2             
   2000006     4.11544678E+03   #  t2             
   2000011     4.99362939E+03   #  er-            
   2000013     4.99362939E+03   #  mur-           
   2000015     4.98438623E+03   #  tau2           
Block ALPHA   # Effective Higgs mixing parameter
         -1.97551891E-01   # alpha
Block STOPMIX   # stop mixing matrix
  1  1     4.02719295E-03   # O_{11}
  1  2    -9.99991894E-01   # O_{12}
  2  1     9.99991894E-01   # O_{21}
  2  2     4.02719295E-03   # O_{22}
Block SBOTMIX   # sbottom mixing matrix
  1  1     9.99998093E-01   # O_{11}
  1  2     1.95921771E-03   # O_{12}
  2  1    -1.95921771E-03   # O_{21}
  2  2     9.99998093E-01   # O_{22}
Block STAUMIX   # stau mixing matrix
  1  1     4.48005050E-01   # O_{11}
  1  2     8.94031048E-01   # O_{12}
  2  1    -8.94031048E-01   # O_{21}
  2  2     4.48005050E-01   # O_{22}
Block NMIX   # neutralino mixing matrix
  1  1     6.24890719E-03   #
  1  2    -9.95771825E-01   #
  1  3     8.73890296E-02   #
  1  4    -2.76141521E-02   #
  2  1     9.98150051E-01   #
  2  2     1.16986493E-02   #
  2  3     5.37361428E-02   #
  2  4    -2.59246863E-02   #
  3  1     2.00588536E-02   #
  3  2    -4.21077572E-02   #
  3  3    -7.04890430E-01   #
  3  4    -7.07780898E-01   #
  4  1    -5.70535995E-02   #
  4  2     8.07991698E-02   #
  4  3     7.01857805E-01   #
  4  4    -7.05415964E-01   #
Block UMIX   # chargino U mixing matrix
  1  1    -9.92800474E-01   # U_{11}
  1  2     1.19779952E-01   # U_{12}
  2  1    -1.19779952E-01   # U_{21}
  2  2    -9.92800474E-01   # U_{22}
Block VMIX   # chargino V mixing matrix
  1  1    -9.99283254E-01   # V_{11}
  1  2     3.78542505E-02   # V_{12}
  2  1    -3.78542505E-02   # V_{21}
  2  2    -9.99283254E-01   # V_{22}
Block GAUGE Q=  3.46005908E+03   #
     1     3.57502401E-01   # g`
     2     6.52428925E-01   # g_2
     3     1.22045624E+00   # g_3
Block YU Q=  3.46005908E+03   #
  3  3     8.44489813E-01   # y_t
Block YD Q=  3.46005908E+03   #
  3  3     6.43228367E-02   # y_b
Block YE Q=  3.46005908E+03   #
  3  3     5.15790172E-02   # y_tau
Block HMIX Q=  3.46005908E+03   # Higgs mixing parameters
     1     8.82918579E+02   # mu(Q)
     2     5.00000000E+00   # tan(beta)(M_GUT)
     3     2.52205795E+02   # Higgs vev at Q
     4     2.64574860E+07   # m_A^2(Q)
Block MSOFT Q=  3.46005908E+03   # DRbar SUSY breaking parameters
     1     2.93060791E+02   # M_1(Q)          
     2     8.62955475E+01   # M_2(Q)          
     3    -6.80437622E+02   # M_3(Q)          
    31     4.97374463E+03   # MeL(Q)          
    32     4.97374463E+03   # MmuL(Q)         
    33     4.96810205E+03   # MtauL(Q)        
    34     4.98863330E+03   # MeR(Q)          
    35     4.98863330E+03   # MmuR(Q)         
    36     4.97770654E+03   # MtauR(Q)        
    41     4.92589551E+03   # MqL1(Q)         
    42     4.92589551E+03   # MqL2(Q)         
    43     4.05445459E+03   # MqL3(Q)         
    44     4.94561279E+03   # MuR(Q)          
    45     4.94561279E+03   # McR(Q)          
    46     2.95280347E+03   # MtR(Q)          
    47     4.94899268E+03   # MdR(Q)          
    48     4.94899268E+03   # MsR(Q)          
    49     4.93820947E+03   # MbR(Q)          
Block AU Q=  3.46005908E+03   #
  1  1     5.24940063E+02   # A_u
  2  2     5.24940063E+02   # A_c
  3  3     5.24940063E+02   # A_t
Block AD Q=  3.46005908E+03   #
  1  1     1.22249084E+03   # A_d
  2  2     1.22249084E+03   # A_s
  3  3     1.22249084E+03   # A_b
Block AE Q=  3.46005908E+03   #
  1  1     3.31718964E+02   # A_e
  2  2     3.31718964E+02   # A_mu
  3  3     3.31718964E+02   # A_tau
#
#  ISAJET decay tables in SUSY Les Houches accord format
#  Created by ISALHD. Last revision: C. Balazs, 2005 May 25
Block DCINFO                           # Program information
     1   ISASUGRA from ISAJET          # Spectrum Calculator
     2   7.80   29-OCT-2009 12:50:36   # Version number
#         PDG         Width
DECAY        23     2.49520000E+00   # Z width (SM calculation)
DECAY        24     2.08500000E+00   # W width (SM calculation)
#
#         PDG            Width  
DECAY         6  1.14680779E+00   # TP    decays
#          BR          NDA       ID1       ID2       ID3       ID4
      3.33333343E-01    3            2        -1         5             # TP     -->  UP     DB     BT          
      3.33333343E-01    3            4        -3         5             # TP     -->  CH     SB     BT          
      1.11111112E-01    3          -11        12         5             # TP     -->  E+     NUE    BT          
      1.11111112E-01    3          -13        14         5             # TP     -->  MU+    NUM    BT          
      1.11111112E-01    3          -15        16         5             # TP     -->  TAU+   NUT    BT          
#         PDG         Width
DECAY   1000021  3.44083855E-05   # GLSS  decays
#          BR          NDA       ID1       ID2       ID3       ID4
      8.51784199E-02    3      1000024         1        -2             # GLSS   -->  W1SS+  DN     UB          
      8.51784199E-02    3     -1000024         2        -1             # GLSS   -->  W1SS-  UP     DB          
      8.51784199E-02    3      1000024         3        -4             # GLSS   -->  W1SS+  ST     CB          
      8.51784199E-02    3     -1000024         4        -3             # GLSS   -->  W1SS-  CH     SB          
      1.45530939E-01    3      1000024         5        -6             # GLSS   -->  W1SS+  BT     TB          
      1.45530939E-01    3     -1000024         6        -5             # GLSS   -->  W1SS-  TP     BB          
      2.11212100E-04    2      1000022        21                       # GLSS   -->  Z1SS   GL                 
      4.25072089E-02    3      1000022         2        -2             # GLSS   -->  Z1SS   UP     UB          
      4.26814966E-02    3      1000022         1        -1             # GLSS   -->  Z1SS   DN     DB          
      4.26814966E-02    3      1000022         3        -3             # GLSS   -->  Z1SS   ST     SB          
      4.25072089E-02    3      1000022         4        -4             # GLSS   -->  Z1SS   CH     CB          
      9.51566175E-02    3      1000022         5        -5             # GLSS   -->  Z1SS   BT     BB          
      5.19171581E-02    3      1000022         6        -6             # GLSS   -->  Z1SS   TP     TB          
      1.35336979E-03    2      1000023        21                       # GLSS   -->  Z2SS   GL                 
      8.60480778E-03    3      1000023         2        -2             # GLSS   -->  Z2SS   UP     UB          
      2.44761771E-03    3      1000023         1        -1             # GLSS   -->  Z2SS   DN     DB          
      2.44761771E-03    3      1000023         3        -3             # GLSS   -->  Z2SS   ST     SB          
      8.60480219E-03    3      1000023         4        -4             # GLSS   -->  Z2SS   CH     CB          
      3.03687528E-03    3      1000023         5        -5             # GLSS   -->  Z2SS   BT     BB          
      2.40670629E-02    3      1000023         6        -6             # GLSS   -->  Z2SS   TP     TB          
#         PDG         Width
DECAY   1000002  3.11720947E+02   # UPL   decays
#          BR          NDA       ID1       ID2       ID3       ID4
      6.66712150E-02    2      1000022         2                       # UPL    -->  Z1SS   UP                 
      2.53567286E-03    2      1000023         2                       # UPL    -->  Z2SS   UP                 
      9.32222174E-05    2      1000025         2                       # UPL    -->  Z3SS   UP                 
      3.12078017E-04    2      1000035         2                       # UPL    -->  Z4SS   UP                 
      7.95613587E-01    2      1000021         2                       # UPL    -->  GLSS   UP                 
      1.34593502E-01    2      1000024         1                       # UPL    -->  W1SS+  DN                 
      1.80714720E-04    2      1000037         1                       # UPL    -->  W2SS+  DN                 
#         PDG         Width
DECAY   1000001  3.11720551E+02   # DNL   decays
#          BR          NDA       ID1       ID2       ID3       ID4
      6.69867545E-02    2      1000022         1                       # DNL    -->  Z1SS   DN                 
      1.96273881E-03    2      1000023         1                       # DNL    -->  Z2SS   DN                 
      1.32305329E-04    2      1000025         1                       # DNL    -->  Z3SS   DN                 
      5.25195152E-04    2      1000035         1                       # DNL    -->  Z4SS   DN                 
      7.95714259E-01    2      1000021         1                       # DNL    -->  GLSS   DN                 
      1.32869110E-01    2     -1000024         2                       # DNL    -->  W1SS-  UP                 
      1.80964277E-03    2     -1000037         2                       # DNL    -->  W2SS-  UP                 
#         PDG         Width
DECAY   1000003  3.11720551E+02   # STL   decays
#          BR          NDA       ID1       ID2       ID3       ID4
      6.69867545E-02    2      1000022         3                       # STL    -->  Z1SS   ST                 
      1.96273881E-03    2      1000023         3                       # STL    -->  Z2SS   ST                 
      1.32305329E-04    2      1000025         3                       # STL    -->  Z3SS   ST                 
      5.25195152E-04    2      1000035         3                       # STL    -->  Z4SS   ST                 
      7.95714259E-01    2      1000021         3                       # STL    -->  GLSS   ST                 
      1.32869110E-01    2     -1000024         4                       # STL    -->  W1SS-  CH                 
      1.80964277E-03    2     -1000037         4                       # STL    -->  W2SS-  CH                 
#         PDG         Width
DECAY   1000004  3.11720947E+02   # CHL   decays
#          BR          NDA       ID1       ID2       ID3       ID4
      6.66712075E-02    2      1000022         4                       # CHL    -->  Z1SS   CH                 
      2.53567286E-03    2      1000023         4                       # CHL    -->  Z2SS   CH                 
      9.32222028E-05    2      1000025         4                       # CHL    -->  Z3SS   CH                 
      3.12077958E-04    2      1000035         4                       # CHL    -->  Z4SS   CH                 
      7.95613527E-01    2      1000021         4                       # CHL    -->  GLSS   CH                 
      1.34593502E-01    2      1000024         3                       # CHL    -->  W1SS+  ST                 
      1.80714720E-04    2      1000037         3                       # CHL    -->  W2SS+  ST                 
#         PDG         Width
DECAY   1000005  3.03805328E+02   # BT1   decays
#          BR          NDA       ID1       ID2       ID3       ID4
      5.64295650E-02    2      1000022         5                       # BT1    -->  Z1SS   BT                 
      1.65243645E-03    2      1000023         5                       # BT1    -->  Z2SS   BT                 
      6.34640222E-04    2      1000025         5                       # BT1    -->  Z3SS   BT                 
      9.49251058E-04    2      1000035         5                       # BT1    -->  Z4SS   BT                 
      6.62455022E-01    2      1000021         5                       # BT1    -->  GLSS   BT                 
      1.11754835E-01    2     -1000024         6                       # BT1    -->  W1SS-  TP                 
      1.65831015E-01    2     -1000037         6                       # BT1    -->  W2SS-  TP                 
      2.93239777E-04    2          -24   1000006                       # BT1    -->  W-     TP1                
#         PDG         Width
DECAY   1000006  2.03225937E+02   # TP1   decays
#          BR          NDA       ID1       ID2       ID3       ID4
      6.55135155E-01    2      1000021         6                       # TP1    -->  GLSS   TP                 
      1.24143189E-04    2      1000022         6                       # TP1    -->  Z1SS   TP                 
      3.14126238E-02    2      1000023         6                       # TP1    -->  Z2SS   TP                 
      7.82747790E-02    2      1000025         6                       # TP1    -->  Z3SS   TP                 
      7.79057965E-02    2      1000035         6                       # TP1    -->  Z4SS   TP                 
      2.31441998E-04    2      1000024         5                       # TP1    -->  W1SS+  BT                 
      1.56916082E-01    2      1000037         5                       # TP1    -->  W2SS+  BT                 
#         PDG         Width
DECAY   2000002  2.60296997E+02   # UPR   decays
#          BR          NDA       ID1       ID2       ID3       ID4
      1.69931832E-06    2      1000022         2                       # UPR    -->  Z1SS   UP                 
      4.30940948E-02    2      1000023         2                       # UPR    -->  Z2SS   UP                 
      1.64061821E-05    2      1000025         2                       # UPR    -->  Z3SS   UP                 
      1.32625544E-04    2      1000035         2                       # UPR    -->  Z4SS   UP                 
      9.56755161E-01    2      1000021         2                       # UPR    -->  GLSS   UP                 
#         PDG         Width
DECAY   2000001  2.52041428E+02   # DNR   decays
#          BR          NDA       ID1       ID2       ID3       ID4
      4.39060614E-07    2      1000022         1                       # DNR    -->  Z1SS   DN                 
      1.11345155E-02    2      1000023         1                       # DNR    -->  Z2SS   DN                 
      4.23934262E-06    2      1000025         1                       # DNR    -->  Z3SS   DN                 
      3.42703606E-05    2      1000035         1                       # DNR    -->  Z4SS   DN                 
      9.88826513E-01    2      1000021         1                       # DNR    -->  GLSS   DN                 
#         PDG         Width
DECAY   2000003  2.52041428E+02   # STR   decays
#          BR          NDA       ID1       ID2       ID3       ID4
      4.39060614E-07    2      1000022         3                       # STR    -->  Z1SS   ST                 
      1.11345155E-02    2      1000023         3                       # STR    -->  Z2SS   ST                 
      4.23934262E-06    2      1000025         3                       # STR    -->  Z3SS   ST                 
      3.42703606E-05    2      1000035         3                       # STR    -->  Z4SS   ST                 
      9.88826513E-01    2      1000021         3                       # STR    -->  GLSS   ST                 
#         PDG         Width
DECAY   2000004  2.60297028E+02   # CHR   decays
#          BR          NDA       ID1       ID2       ID3       ID4
      1.69931820E-06    2      1000022         4                       # CHR    -->  Z1SS   CH                 
      4.30940948E-02    2      1000023         4                       # CHR    -->  Z2SS   CH                 
      1.64061785E-05    2      1000025         4                       # CHR    -->  Z3SS   CH                 
      1.32625530E-04    2      1000035         4                       # CHR    -->  Z4SS   CH                 
      9.56755161E-01    2      1000021         4                       # CHR    -->  GLSS   CH                 
#         PDG         Width
DECAY   2000005  2.52028488E+02   # BT2   decays
#          BR          NDA       ID1       ID2       ID3       ID4
      9.81838002E-06    2      1000022         5                       # BT2    -->  Z1SS   BT                 
      1.11017954E-02    2      1000023         5                       # BT2    -->  Z2SS   BT                 
      8.08261568E-04    2      1000025         5                       # BT2    -->  Z3SS   BT                 
      8.32663383E-04    2      1000035         5                       # BT2    -->  Z4SS   BT                 
      9.85549986E-01    2      1000021         5                       # BT2    -->  GLSS   BT                 
      1.74232518E-05    2     -1000024         6                       # BT2    -->  W1SS-  TP                 
      1.59572472E-03    2     -1000037         6                       # BT2    -->  W2SS-  TP                 
      5.82642290E-09    2          -24   1000006                       # BT2    -->  W-     TP1                
      4.12374247E-05    2          -24   2000006                       # BT2    -->  W-     TP2                
      2.17468405E-05    2           23   1000005                       # BT2    -->  Z0     BT1                
      2.13786625E-05    2           25   1000005                       # BT2    -->  HL0    BT1                
#         PDG         Width
DECAY   2000006  3.04309631E+02   # TP2   decays
#          BR          NDA       ID1       ID2       ID3       ID4
      6.61229849E-01    2      1000021         6                       # TP2    -->  GLSS   TP                 
      1.13637611E-01    2      1000024         5                       # TP2    -->  W1SS+  BT                 
      1.15988718E-03    2      1000037         5                       # TP2    -->  W2SS+  BT                 
      1.52749635E-04    2           23   1000006                       # TP2    -->  Z0     TP1                
      4.67690930E-04    2           25   1000006                       # TP2    -->  HL0    TP1                
      5.62138595E-02    2      1000022         6                       # TP2    -->  Z1SS   TP                 
      2.26506195E-03    2      1000023         6                       # TP2    -->  Z2SS   TP                 
      8.26861709E-02    2      1000025         6                       # TP2    -->  Z3SS   TP                 
      8.21871385E-02    2      1000035         6                       # TP2    -->  Z4SS   TP                 
#         PDG         Width
DECAY   1000011  6.92355347E+01   # EL-   decays
#          BR          NDA       ID1       ID2       ID3       ID4
      2.98576802E-01    2      1000022        11                       # EL-    -->  Z1SS   E-                 
      9.46057811E-02    2      1000023        11                       # EL-    -->  Z2SS   E-                 
      2.74307356E-04    2      1000025        11                       # EL-    -->  Z3SS   E-                 
      6.93480484E-04    2      1000035        11                       # EL-    -->  Z4SS   E-                 
      5.97709894E-01    2     -1000024        12                       # EL-    -->  W1SS-  NUE                
      8.13971460E-03    2     -1000037        12                       # EL-    -->  W2SS-  NUE                
#         PDG         Width
DECAY   1000013  6.92355347E+01   # MUL-  decays
#          BR          NDA       ID1       ID2       ID3       ID4
      2.98576802E-01    2      1000022        13                       # MUL-   -->  Z1SS   MU-                
      9.46057811E-02    2      1000023        13                       # MUL-   -->  Z2SS   MU-                
      2.74307356E-04    2      1000025        13                       # MUL-   -->  Z3SS   MU-                
      6.93480484E-04    2      1000035        13                       # MUL-   -->  Z4SS   MU-                
      5.97709894E-01    2     -1000024        14                       # MUL-   -->  W1SS-  NUM                
      8.13971460E-03    2     -1000037        14                       # MUL-   -->  W2SS-  NUM                
#         PDG         Width
DECAY   1000015  3.44794540E+01   # TAU1- decays
#          BR          NDA       ID1       ID2       ID3       ID4
      1.25080407E-01    2      1000022        15                       # TAU1-  -->  Z1SS   TAU-               
      6.20805562E-01    2      1000023        15                       # TAU1-  -->  Z2SS   TAU-               
      2.11844430E-03    2      1000025        15                       # TAU1-  -->  Z3SS   TAU-               
      1.65399304E-03    2      1000035        15                       # TAU1-  -->  Z4SS   TAU-               
      2.49945506E-01    2     -1000024        16                       # TAU1-  -->  W1SS-  NUT                
      3.96080926E-04    2     -1000037        16                       # TAU1-  -->  W2SS-  NUT                
#         PDG         Width
DECAY   1000012  6.92781677E+01   # NUEL  decays
#          BR          NDA       ID1       ID2       ID3       ID4
      3.02628130E-01    2      1000022        12                       # NUEL   -->  Z1SS   NUE                
      8.68421793E-02    2      1000023        12                       # NUEL   -->  Z2SS   NUE                
      8.01293063E-04    2      1000025        12                       # NUEL   -->  Z3SS   NUE                
      3.56768188E-03    2      1000035        12                       # NUEL   -->  Z4SS   NUE                
      6.05347991E-01    2      1000024        11                       # NUEL   -->  W1SS+  E-                 
      8.12735059E-04    2      1000037        11                       # NUEL   -->  W2SS+  E-                 
      1.19502186E-09    3      1000011        12       -11             # NUEL   -->  EL-    NUE    E+          
      1.19502186E-09    3      1000011        14       -13             # NUEL   -->  EL-    NUM    MU+         
      3.58506558E-09    3      1000011         2        -1             # NUEL   -->  EL-    UP     DB          
#         PDG         Width
DECAY   1000014  6.92781677E+01   # NUML  decays
#          BR          NDA       ID1       ID2       ID3       ID4
      3.02628130E-01    2      1000022        14                       # NUML   -->  Z1SS   NUM                
      8.68421793E-02    2      1000023        14                       # NUML   -->  Z2SS   NUM                
      8.01293063E-04    2      1000025        14                       # NUML   -->  Z3SS   NUM                
      3.56768188E-03    2      1000035        14                       # NUML   -->  Z4SS   NUM                
      6.05347991E-01    2      1000024        13                       # NUML   -->  W1SS+  MU-                
      8.12735059E-04    2      1000037        13                       # NUML   -->  W2SS+  MU-                
      1.19502186E-09    3      1000013        12       -11             # NUML   -->  MUL-   NUE    E+          
      1.19502186E-09    3      1000013        14       -13             # NUML   -->  MUL-   NUM    MU+         
      3.58506558E-09    3      1000013         2        -1             # NUML   -->  MUL-   UP     DB          
#         PDG         Width
DECAY   1000016  6.94580154E+01   # NUTL  decays
#          BR          NDA       ID1       ID2       ID3       ID4
      3.01492214E-01    2      1000022        16                       # NUTL   -->  Z1SS   NUT                
      8.65149871E-02    2      1000023        16                       # NUTL   -->  Z2SS   NUT                
      7.98160909E-04    2      1000025        16                       # NUTL   -->  Z3SS   NUT                
      3.55372974E-03    2      1000035        16                       # NUTL   -->  Z4SS   NUT                
      6.03133082E-01    2      1000024        15                       # NUTL   -->  W1SS+  TAU-               
      4.50776611E-03    2      1000037        15                       # NUTL   -->  W2SS+  TAU-               
      4.46791172E-12    3      1000015        16       -15             # NUTL   -->  TAU1-  NUT    TAU+        
      4.46791172E-12    3      1000015        12       -11             # NUTL   -->  TAU1-  NUE    E+          
      4.46791172E-12    3      1000015        14       -13             # NUTL   -->  TAU1-  NUM    MU+         
      1.34037347E-11    3      1000015         2        -1             # NUTL   -->  TAU1-  UP     DB          
      1.34037347E-11    3      1000015         4        -3             # NUTL   -->  TAU1-  CH     SB          
#         PDG         Width
DECAY   2000011  2.52217216E+01   # ER-   decays
#          BR          NDA       ID1       ID2       ID3       ID4
      3.92973379E-05    2      1000022        11                       # ER-    -->  Z1SS   E-                 
      9.96516168E-01    2      1000023        11                       # ER-    -->  Z2SS   E-                 
      3.79191421E-04    2      1000025        11                       # ER-    -->  Z3SS   E-                 
      3.06531554E-03    2      1000035        11                       # ER-    -->  Z4SS   E-                 
#         PDG         Width
DECAY   2000013  2.52217216E+01   # MUR-  decays
#          BR          NDA       ID1       ID2       ID3       ID4
      3.92973379E-05    2      1000022        13                       # MUR-   -->  Z1SS   MU-                
      9.96516168E-01    2      1000023        13                       # MUR-   -->  Z2SS   MU-                
      3.79191421E-04    2      1000025        13                       # MUR-   -->  Z3SS   MU-                
      3.06531554E-03    2      1000035        13                       # MUR-   -->  Z4SS   MU-                
#         PDG         Width
DECAY   2000015  6.06020927E+01   # TAU2- decays
#          BR          NDA       ID1       ID2       ID3       ID4
      2.69565523E-01    2      1000022        15                       # TAU2-  -->  Z1SS   TAU-               
      1.68458730E-01    2      1000023        15                       # TAU2-  -->  Z2SS   TAU-               
      3.53870657E-03    2      1000025        15                       # TAU2-  -->  Z3SS   TAU-               
      5.35813347E-03    2      1000035        15                       # TAU2-  -->  Z4SS   TAU-               
      5.39781570E-01    2     -1000024        16                       # TAU2-  -->  W1SS-  NUT                
      1.32973427E-02    2     -1000037        16                       # TAU2-  -->  W2SS-  NUT                
#         PDG         Width
DECAY   1000023  5.84660750E-03   # Z2SS  decays
#          BR          NDA       ID1       ID2       ID3       ID4
      1.15151249E-08    2      1000022        22                       # Z2SS   -->  Z1SS   GM                 
      2.85433710E-01    2      1000024       -24                       # Z2SS   -->  W1SS+  W-                 
      2.85433710E-01    2     -1000024        24                       # Z2SS   -->  W1SS-  W+                 
      1.86265130E-02    2      1000022        23                       # Z2SS   -->  Z1SS   Z0                 
      2.05627817E-08    3      1000022         2        -2             # Z2SS   -->  Z1SS   UP     UB          
      1.59759139E-08    3      1000022         1        -1             # Z2SS   -->  Z1SS   DN     DB          
      1.59759139E-08    3      1000022         3        -3             # Z2SS   -->  Z1SS   ST     SB          
      2.05627817E-08    3      1000022         4        -4             # Z2SS   -->  Z1SS   CH     CB          
      3.52300091E-08    3      1000022         5        -5             # Z2SS   -->  Z1SS   BT     BB          
      5.67398892E-08    3      1000022        11       -11             # Z2SS   -->  Z1SS   E-     E+          
      5.67398892E-08    3      1000022        13       -13             # Z2SS   -->  Z1SS   MU-    MU+         
      5.70786547E-08    3      1000022        15       -15             # Z2SS   -->  Z1SS   TAU-   TAU+        
      5.27516093E-08    3      1000022        12       -12             # Z2SS   -->  Z1SS   NUE    ANUE        
      5.27516093E-08    3      1000022        14       -14             # Z2SS   -->  Z1SS   NUM    ANUM        
      5.29986828E-08    3      1000022        16       -16             # Z2SS   -->  Z1SS   NUT    ANUT        
      4.10505682E-01    2      1000022        25                       # Z2SS   -->  Z1SS   HL0                
#         PDG         Width
DECAY   1000025  6.32498026E+00   # Z3SS  decays
#          BR          NDA       ID1       ID2       ID3       ID4
      8.61333945E-07    2      1000022        22                       # Z3SS   -->  Z1SS   GM                 
      1.59283317E-07    2      1000023        22                       # Z3SS   -->  Z2SS   GM                 
      2.95093834E-01    2      1000024       -24                       # Z3SS   -->  W1SS+  W-                 
      2.95093834E-01    2     -1000024        24                       # Z3SS   -->  W1SS-  W+                 
      2.42520645E-01    2      1000022        23                       # Z3SS   -->  Z1SS   Z0                 
      8.47895071E-02    2      1000023        23                       # Z3SS   -->  Z2SS   Z0                 
      2.45049481E-10    3      1000022         2        -2             # Z3SS   -->  Z1SS   UP     UB          
      3.49167417E-10    3      1000022         1        -1             # Z3SS   -->  Z1SS   DN     DB          
      3.49167417E-10    3      1000022         3        -3             # Z3SS   -->  Z1SS   ST     SB          
      2.45049481E-10    3      1000022         4        -4             # Z3SS   -->  Z1SS   CH     CB          
      9.42149825E-09    3      1000022         5        -5             # Z3SS   -->  Z1SS   BT     BB          
      5.33416714E-11    3      1000022        11       -11             # Z3SS   -->  Z1SS   E-     E+          
      5.33416714E-11    3      1000022        13       -13             # Z3SS   -->  Z1SS   MU-    MU+         
      1.17871013E-09    3      1000022        15       -15             # Z3SS   -->  Z1SS   TAU-   TAU+        
      1.57834357E-10    3      1000022        12       -12             # Z3SS   -->  Z1SS   NUE    ANUE        
      1.57834357E-10    3      1000022        14       -14             # Z3SS   -->  Z1SS   NUM    ANUM        
      1.58583258E-10    3      1000022        16       -16             # Z3SS   -->  Z1SS   NUT    ANUT        
      1.09394455E-11    3      1000023         2        -2             # Z3SS   -->  Z2SS   UP     UB          
      4.41496969E-12    3      1000023         1        -1             # Z3SS   -->  Z2SS   DN     DB          
      4.41496969E-12    3      1000023         3        -3             # Z3SS   -->  Z2SS   ST     SB          
      1.09394447E-11    3      1000023         4        -4             # Z3SS   -->  Z2SS   CH     CB          
      5.59291169E-10    3      1000023         5        -5             # Z3SS   -->  Z2SS   BT     BB          
      1.91235916E-11    3      1000023        11       -11             # Z3SS   -->  Z2SS   E-     E+          
      1.91235916E-11    3      1000023        13       -13             # Z3SS   -->  Z2SS   MU-    MU+         
      5.98069816E-10    3      1000023        15       -15             # Z3SS   -->  Z2SS   TAU-   TAU+        
      1.75222892E-11    3      1000023        12       -12             # Z3SS   -->  Z2SS   NUE    ANUE        
      1.75222892E-11    3      1000023        14       -14             # Z3SS   -->  Z2SS   NUM    ANUM        
      1.76056929E-11    3      1000023        16       -16             # Z3SS   -->  Z2SS   NUT    ANUT        
      7.20052943E-02    2      1000022        25                       # Z3SS   -->  Z1SS   HL0                
      1.04958611E-02    2      1000023        25                       # Z3SS   -->  Z2SS   HL0                
#         PDG         Width
DECAY   1000035  6.55675888E+00   # Z4SS  decays
#          BR          NDA       ID1       ID2       ID3       ID4
      2.25277461E-07    2      1000022        22                       # Z4SS   -->  Z1SS   GM                 
      2.75203575E-08    2      1000023        22                       # Z4SS   -->  Z2SS   GM                 
      1.51355664E-11    2      1000025        22                       # Z4SS   -->  Z3SS   GM                 
      3.04944128E-01    2      1000024       -24                       # Z4SS   -->  W1SS+  W-                 
      3.04944128E-01    2     -1000024        24                       # Z4SS   -->  W1SS-  W+                 
      6.41310215E-02    2      1000022        23                       # Z4SS   -->  Z1SS   Z0                 
      1.04648918E-02    2      1000023        23                       # Z4SS   -->  Z2SS   Z0                 
      1.15912668E-09    3      1000022         2        -2             # Z4SS   -->  Z1SS   UP     UB          
      1.95843386E-09    3      1000022         1        -1             # Z4SS   -->  Z1SS   DN     DB          
      1.95843386E-09    3      1000022         3        -3             # Z4SS   -->  Z1SS   ST     SB          
      1.15912668E-09    3      1000022         4        -4             # Z4SS   -->  Z1SS   CH     CB          
      1.27764634E-08    3      1000022         5        -5             # Z4SS   -->  Z1SS   BT     BB          
      1.90553365E-10    3      1000022        11       -11             # Z4SS   -->  Z1SS   E-     E+          
      1.90553365E-10    3      1000022        13       -13             # Z4SS   -->  Z1SS   MU-    MU+         
      1.28217115E-09    3      1000022        15       -15             # Z4SS   -->  Z1SS   TAU-   TAU+        
      9.92948945E-10    3      1000022        12       -12             # Z4SS   -->  Z1SS   NUE    ANUE        
      9.92948945E-10    3      1000022        14       -14             # Z4SS   -->  Z1SS   NUM    ANUM        
      9.97653848E-10    3      1000022        16       -16             # Z4SS   -->  Z1SS   NUT    ANUT        
      1.58888069E-10    3      1000023         2        -2             # Z4SS   -->  Z2SS   UP     UB          
      4.32100605E-11    3      1000023         1        -1             # Z4SS   -->  Z2SS   DN     DB          
      4.32100605E-11    3      1000023         3        -3             # Z4SS   -->  Z2SS   ST     SB          
      1.58888014E-10    3      1000023         4        -4             # Z4SS   -->  Z2SS   CH     CB          
      6.11219464E-10    3      1000023         5        -5             # Z4SS   -->  Z2SS   BT     BB          
      2.63331967E-10    3      1000023        11       -11             # Z4SS   -->  Z2SS   E-     E+          
      2.63331967E-10    3      1000023        13       -13             # Z4SS   -->  Z2SS   MU-    MU+         
      8.36364533E-10    3      1000023        15       -15             # Z4SS   -->  Z2SS   TAU-   TAU+        
      1.73713252E-10    3      1000023        12       -12             # Z4SS   -->  Z2SS   NUE    ANUE        
      1.73713252E-10    3      1000023        14       -14             # Z4SS   -->  Z2SS   NUM    ANUM        
      1.74538523E-10    3      1000023        16       -16             # Z4SS   -->  Z2SS   NUT    ANUT        
      7.07753231E-11    3      1000025         2        -2             # Z4SS   -->  Z3SS   UP     UB          
      9.12656478E-11    3      1000025         1        -1             # Z4SS   -->  Z3SS   DN     DB          
      9.12656478E-11    3      1000025         3        -3             # Z4SS   -->  Z3SS   ST     SB          
      7.07753231E-11    3      1000025         4        -4             # Z4SS   -->  Z3SS   CH     CB          
      2.07035483E-11    3      1000025        11       -11             # Z4SS   -->  Z3SS   E-     E+          
      2.07035483E-11    3      1000025        13       -13             # Z4SS   -->  Z3SS   MU-    MU+         
      4.69522164E-12    3      1000025        15       -15             # Z4SS   -->  Z3SS   TAU-   TAU+        
      4.11933543E-11    3      1000025        12       -12             # Z4SS   -->  Z3SS   NUE    ANUE        
      4.11933543E-11    3      1000025        14       -14             # Z4SS   -->  Z3SS   NUM    ANUM        
      4.11933543E-11    3      1000025        16       -16             # Z4SS   -->  Z3SS   NUT    ANUT        
      2.29576990E-01    2      1000022        25                       # Z4SS   -->  Z1SS   HL0                
      8.59385803E-02    2      1000023        25                       # Z4SS   -->  Z2SS   HL0                
#         PDG         Width
#DECAY   1000024  4.60129896E-15   # W1SS+ decays
#          BR          NDA       ID1       ID2       ID3       ID4
#      9.64306176E-01    2      1000022         0                       # W1SS+  -->  Z1SS   PI+                
#      1.78469177E-02    3      1000022       -11        12             # W1SS+  -->  Z1SS   E+     NUE         
#      1.78469177E-02    3      1000022       -13        14             # W1SS+  -->  Z1SS   MU+    NUM         
#         PDG         Width
DECAY   1000037  6.19266224E+00   # W2SS+ decays
#          BR          NDA       ID1       ID2       ID3       ID4
      3.02686609E-09    3      1000022         2        -1             # W2SS+  -->  Z1SS   UP     DB          
      3.02686609E-09    3      1000022         4        -3             # W2SS+  -->  Z1SS   CH     SB          
      1.00393338E-09    3      1000022       -11        12             # W2SS+  -->  Z1SS   E+     NUE         
      1.00393338E-09    3      1000022       -13        14             # W2SS+  -->  Z1SS   MU+    NUM         
      2.19812879E-09    3      1000022       -15        16             # W2SS+  -->  Z1SS   TAU+   NUT         
      2.80191422E-01    2      1000022        24                       # W2SS+  -->  Z1SS   W+                 
      6.51716042E-11    3      1000023         2        -1             # W2SS+  -->  Z2SS   UP     DB          
      6.51716042E-11    3      1000023         4        -3             # W2SS+  -->  Z2SS   CH     SB          
      2.20175003E-10    3      1000023       -11        12             # W2SS+  -->  Z2SS   E+     NUE         
      2.20175003E-10    3      1000023       -13        14             # W2SS+  -->  Z2SS   MU+    NUM         
      8.22094171E-10    3      1000023       -15        16             # W2SS+  -->  Z2SS   TAU+   NUT         
      1.05328433E-01    2      1000023        24                       # W2SS+  -->  Z2SS   W+                 
      4.68986516E-10    3      1000025         2        -1             # W2SS+  -->  Z3SS   UP     DB          
      4.68986516E-10    3      1000025         4        -3             # W2SS+  -->  Z3SS   CH     SB          
      1.56328728E-10    3      1000025       -11        12             # W2SS+  -->  Z3SS   E+     NUE         
      1.56328728E-10    3      1000025       -13        14             # W2SS+  -->  Z3SS   MU+    NUM         
      1.56329005E-10    3      1000025       -15        16             # W2SS+  -->  Z3SS   TAU+   NUT         
      3.26081405E-15    3      1000035       -11        12             # W2SS+  -->  Z4SS   E+     NUE         
      3.26081405E-15    3      1000035       -13        14             # W2SS+  -->  Z4SS   MU+    NUM         
      2.99531162E-01    2      1000024        23                       # W2SS+  -->  W1SS+  Z0                 
      6.13612938E-10    3      1000024         1        -1             # W2SS+  -->  W1SS+  DN     DB          
      6.13612938E-10    3      1000024         3        -3             # W2SS+  -->  W1SS+  ST     SB          
      6.06131279E-09    3      1000024         2        -2             # W2SS+  -->  W1SS+  UP     UB          
      6.06131279E-09    3      1000024         4        -4             # W2SS+  -->  W1SS+  CH     CB          
      2.02742201E-09    3      1000024        12       -12             # W2SS+  -->  W1SS+  NUE    ANUE        
      2.02742201E-09    3      1000024        14       -14             # W2SS+  -->  W1SS+  NUM    ANUM        
      2.04366968E-09    3      1000024        16       -16             # W2SS+  -->  W1SS+  NUT    ANUT        
      2.04897668E-10    3      1000024        11       -11             # W2SS+  -->  W1SS+  E-     E+          
      2.04897668E-10    3      1000024        13       -13             # W2SS+  -->  W1SS+  MU-    MU+         
      2.05869169E-10    3      1000024        15       -15             # W2SS+  -->  W1SS+  TAU-   TAU+        
      3.14948976E-01    2      1000024        25                       # W2SS+  -->  W1SS+  HL0                
#         PDG         Width
DECAY        25  4.05414449E-03   # HL0   decays
#          BR          NDA       ID1       ID2       ID3       ID4
      4.82895191E-09    2           11       -11                       # HL0    -->  E-     E+                 
      2.03886040E-04    2           13       -13                       # HL0    -->  MU-    MU+                
      5.83127700E-02    2           15       -15                       # HL0    -->  TAU-   TAU+               
      6.06082449E-06    2            1        -1                       # HL0    -->  DN     DB                 
      2.44887662E-03    2            3        -3                       # HL0    -->  ST     SB                 
      8.02770376E-01    2            5        -5                       # HL0    -->  BT     BB                 
      1.93611595E-06    2            2        -2                       # HL0    -->  UP     UB                 
      3.64462249E-02    2            4        -4                       # HL0    -->  CH     CB                 
      1.89416320E-03    2           22        22                       # HL0    -->  GM     GM                 
      3.96900661E-02    2           21        21                       # HL0    -->  GL     GL                 
      3.01148789E-03    3           24        11       -12             # HL0    -->  W+     E-     ANUE        
      3.01148789E-03    3           24        13       -14             # HL0    -->  W+     MU-    ANUM        
      3.01148789E-03    3           24        15       -16             # HL0    -->  W+     TAU-   ANUT        
      9.03446414E-03    3           24        -2         1             # HL0    -->  W+     UB     DN          
      9.03446414E-03    3           24        -4         3             # HL0    -->  W+     CB     ST          
      3.01148789E-03    3          -24       -11        12             # HL0    -->  W-     E+     NUE         
      3.01148789E-03    3          -24       -13        14             # HL0    -->  W-     MU+    NUM         
      3.01148789E-03    3          -24       -15        16             # HL0    -->  W-     TAU+   NUT         
      9.03446414E-03    3          -24         2        -1             # HL0    -->  W-     UP     DB          
      9.03446414E-03    3          -24         4        -3             # HL0    -->  W-     CH     SB          
      2.74855731E-04    3           23        12       -12             # HL0    -->  Z0     NUE    ANUE        
      2.74855731E-04    3           23        14       -14             # HL0    -->  Z0     NUM    ANUM        
      2.74855731E-04    3           23        16       -16             # HL0    -->  Z0     NUT    ANUT        
      1.38332121E-04    3           23        11       -11             # HL0    -->  Z0     E-     E+          
      1.38332121E-04    3           23        13       -13             # HL0    -->  Z0     MU-    MU+         
      1.38332121E-04    3           23        15       -15             # HL0    -->  Z0     TAU-   TAU+        
      4.73914086E-04    3           23         2        -2             # HL0    -->  Z0     UP     UB          
      4.73914086E-04    3           23         4        -4             # HL0    -->  Z0     CH     CB          
      6.10518095E-04    3           23         1        -1             # HL0    -->  Z0     DN     DB          
      6.10518095E-04    3           23         3        -3             # HL0    -->  Z0     ST     SB          
      6.10518095E-04    3           23         5        -5             # HL0    -->  Z0     BT     BB          
#         PDG         Width
DECAY        35  7.78246689E+01   # HH0   decays
#          BR          NDA       ID1       ID2       ID3       ID4
      2.82633139E-10    2           11       -11                       # HH0    -->  E-     E+                 
      1.19332817E-05    2           13       -13                       # HH0    -->  MU-    MU+                
      3.41787236E-03    2           15       -15                       # HH0    -->  TAU-   TAU+               
      3.42204487E-07    2            1        -1                       # HH0    -->  DN     DB                 
      1.38267933E-04    2            3        -3                       # HH0    -->  ST     SB                 
      1.70810223E-02    2            5        -5                       # HH0    -->  BT     BB                 
      1.75475662E-10    2            2        -2                       # HH0    -->  UP     UB                 
      2.06716004E-06    2            4        -4                       # HH0    -->  CH     CB                 
      1.08412027E-01    2            6        -6                       # HH0    -->  TP     TB                 
      8.16834387E-08    2           22        22                       # HH0    -->  GM     GM                 
      1.31344987E-05    2           21        21                       # HH0    -->  GL     GL                 
      1.41708060E-05    2           24       -24                       # HH0    -->  W+     W-                 
      7.27069755E-06    2           23        23                       # HH0    -->  Z0     Z0                 
      3.59644671E-03    2      1000022   1000022                       # HH0    -->  Z1SS   Z1SS               
      2.28147535E-03    2      1000022   1000023                       # HH0    -->  Z1SS   Z2SS               
      1.80302948E-01    2      1000022   1000025                       # HH0    -->  Z1SS   Z3SS               
      7.62822777E-02    2      1000022   1000035                       # HH0    -->  Z1SS   Z4SS               
      3.58967431E-04    2      1000023   1000023                       # HH0    -->  Z2SS   Z2SS               
      5.24044149E-02    2      1000023   1000025                       # HH0    -->  Z2SS   Z3SS               
      2.15077028E-02    2      1000023   1000035                       # HH0    -->  Z2SS   Z4SS               
      8.97391583E-04    2      1000025   1000025                       # HH0    -->  Z3SS   Z3SS               
      3.92556190E-03    2      1000025   1000035                       # HH0    -->  Z3SS   Z4SS               
      1.74968259E-03    2      1000035   1000035                       # HH0    -->  Z4SS   Z4SS               
      6.76339632E-03    2      1000024  -1000024                       # HH0    -->  W1SS+  W1SS-              
      8.21007779E-05    2      1000037  -1000037                       # HH0    -->  W2SS+  W2SS-              
      2.60348171E-01    2      1000024  -1000037                       # HH0    -->  W1SS+  W2SS-              
      2.60348171E-01    2     -1000024   1000037                       # HH0    -->  W1SS-  W2SS+              
      5.30830766E-05    2           25        25                       # HH0    -->  HL0    HL0                
#         PDG         Width
DECAY        36  7.72795868E+01   # HA0   decays
#          BR          NDA       ID1       ID2       ID3       ID4
      2.82776330E-10    2           11       -11                       # HA0    -->  E-     E+                 
      1.19393262E-05    2           13       -13                       # HA0    -->  MU-    MU+                
      3.41960532E-03    2           15       -15                       # HA0    -->  TAU-   TAU+               
      3.42391644E-07    2            1        -1                       # HA0    -->  DN     DB                 
      1.38343574E-04    2            3        -3                       # HA0    -->  ST     SB                 
      1.70903914E-02    2            5        -5                       # HA0    -->  BT     BB                 
      1.75286730E-10    2            2        -2                       # HA0    -->  UP     UB                 
      2.06630466E-06    2            4        -4                       # HA0    -->  CH     CB                 
      1.08706608E-01    2            6        -6                       # HA0    -->  TP     TB                 
      2.83375442E-07    2           22        22                       # HA0    -->  GM     GM                 
      1.51015538E-05    2           21        21                       # HA0    -->  GL     GL                 
      4.64089587E-03    2      1000022   1000022                       # HA0    -->  Z1SS   Z1SS               
      3.17057152E-03    2      1000022   1000023                       # HA0    -->  Z1SS   Z2SS               
      7.82360584E-02    2      1000022   1000025                       # HA0    -->  Z1SS   Z3SS               
      1.76009640E-01    2      1000022   1000035                       # HA0    -->  Z1SS   Z4SS               
      5.35752508E-04    2      1000023   1000023                       # HA0    -->  Z2SS   Z2SS               
      2.20602360E-02    2      1000023   1000025                       # HA0    -->  Z2SS   Z3SS               
      5.09897061E-02    2      1000023   1000035                       # HA0    -->  Z2SS   Z4SS               
      4.52052511E-04    2      1000025   1000025                       # HA0    -->  Z3SS   Z3SS               
      2.57642171E-03    2      1000025   1000035                       # HA0    -->  Z3SS   Z4SS               
      4.50642500E-03    2      1000035   1000035                       # HA0    -->  Z4SS   Z4SS               
      8.71352106E-03    2      1000024  -1000024                       # HA0    -->  W1SS+  W1SS-              
      1.90800696E-03    2      1000037  -1000037                       # HA0    -->  W2SS+  W2SS-              
      2.58400947E-01    2      1000024  -1000037                       # HA0    -->  W1SS+  W2SS-              
      2.58400947E-01    2     -1000024   1000037                       # HA0    -->  W1SS-  W2SS+              
      1.41621822E-05    2           25        23                       # HA0    -->  HL0    Z0                 
#         PDG         Width
DECAY        37  7.71254425E+01   # H+    decays
#          BR          NDA       ID1       ID2       ID3       ID4
      2.85239415E-10    2           12       -11                       # H+     -->  NUE    E+                 
      1.20433224E-05    2           14       -13                       # H+     -->  NUM    MU+                
      3.44939157E-03    2           16       -15                       # H+     -->  NUT    TAU+               
      3.21352502E-07    2            2        -1                       # H+     -->  UP     DB                 
      1.31713256E-04    2            4        -3                       # H+     -->  CH     SB                 
      1.17780581E-01    2            6        -5                       # H+     -->  TP     BB                 
      4.01489751E-06    2      1000024   1000022                       # H+     -->  W1SS+  Z1SS               
      5.52245229E-03    2      1000024   1000023                       # H+     -->  W1SS+  Z2SS               
      2.62821972E-01    2      1000024   1000025                       # H+     -->  W1SS+  Z3SS               
      2.61586219E-01    2      1000024   1000035                       # H+     -->  W1SS+  Z4SS               
      2.65840173E-01    2      1000037   1000022                       # H+     -->  W2SS+  Z1SS               
      7.97188357E-02    2      1000037   1000023                       # H+     -->  W2SS+  Z2SS               
      1.95779838E-03    2      1000037   1000025                       # H+     -->  W2SS+  Z3SS               
      1.16026262E-03    2      1000037   1000035                       # H+     -->  W2SS+  Z4SS               
      1.42923609E-05    2           25        24                       # H+     -->  HL0    W+                 
