#  ISAJET SUSY parameters in SUSY Les Houches Accord 2 format
#  Created by ISALHA 2.0 Last revision: C. Balazs 21 Apr 2009
Block SPINFO   # Program information
     1   ISASUGRA from ISAJET          # Spectrum Calculator
     2   7.80   29-OCT-2009 12:50:36   # Version number
Block MODSEL   # Model selection
     1     3   # Minimal anomaly mediated (AMSB) model             
Block SMINPUTS   # Standard Model inputs
     1     1.27836266E+02   # alpha_em^(-1)
     2     1.16570000E-05   # G_Fermi
     3     1.17200002E-01   # alpha_s(M_Z)
     4     9.11699982E+01   # m_{Z}(pole)
     5     4.19999981E+00   # m_{b}(m_{b})
     6     1.72500000E+02   # m_{top}(pole)
     7     1.77699995E+00   # m_{tau}(pole)
Block MINPAR   # SUSY breaking input parameters
     1     5.00000000E+03   # m_0
     2     3.51800000E+05   # m_{3/2}
     3     5.00000000E+00   # tan(beta)
     4     1.00000000E+00   # sign(mu)
Block EXTPAR   # Non-universal SUSY breaking parameters
     0     8.23659515E+15   # Input scale
Block MASS   # Scalar and gaugino mass spectrum
#  PDG code   mass                 particle
         5     4.80000000E+00   # b-quark pole mass calculated from mb(mb)_Msbar
         6     1.72500000E+02   # t-quark pole mass (not read by ME)
        15     1.77682000E+00   # tau pole mass (not read by ME)
        23     9.11876000E+01   # Z pole mass (not read by ME)
        24     8.04229965E+01   #  W^+
        25     1.17686020E+02   #  h^0            
        35     7.35902637E+03   #  H^0            
        36     7.31082617E+03   #  A^0            
        37     7.35935010E+03   #  H^+            
   1000001     7.88654590E+03   #  dnl            
   1000002     7.88616260E+03   #  upl            
   1000003     7.88654590E+03   #  stl            
   1000004     7.88616260E+03   #  chl            
   1000005     6.79194385E+03   #  b1             
   1000006     5.45824902E+03   #  t1             
   1000011     4.79834326E+03   #  el-            
   1000012     4.79506152E+03   #  nuel           
   1000013     4.79834326E+03   #  mul-           
   1000014     4.79506152E+03   #  numl           
   1000015     4.73591895E+03   #  tau1           
   1000016     4.78661816E+03   #  nutl           
   1000021     6.69728516E+03   #  glss           
   1000022     9.99880249E+02   #  z1ss           
   1000023     3.27701514E+03   #  z2ss           
   1000024     1.00005408E+03   #  w1ss           
   1000025    -5.35652539E+03   #  z3ss           
   1000035     5.35748926E+03   #  z4ss           
   1000037     5.36305029E+03   #  w2ss           
   2000001     7.98040625E+03   #  dnr            
   2000002     7.92822314E+03   #  upr            
   2000003     7.98040625E+03   #  str            
   2000004     7.92822314E+03   #  chr            
   2000005     7.92549365E+03   #  b2             
   2000006     6.83926123E+03   #  t2             
   2000011     4.75127881E+03   #  er-            
   2000013     4.75127881E+03   #  mur-           
   2000015     4.79047217E+03   #  tau2           
Block ALPHA   # Effective Higgs mixing parameter
         -1.97479501E-01   # alpha
Block STOPMIX   # stop mixing matrix
  1  1     3.42040844E-02   # O_{11}
  1  2    -9.99414861E-01   # O_{12}
  2  1     9.99414861E-01   # O_{21}
  2  2     3.42040844E-02   # O_{22}
Block SBOTMIX   # sbottom mixing matrix
  1  1     9.99994278E-01   # O_{11}
  1  2     3.38721205E-03   # O_{12}
  2  1    -3.38721205E-03   # O_{21}
  2  2     9.99994278E-01   # O_{22}
Block STAUMIX   # stau mixing matrix
  1  1     9.86027047E-02   # O_{11}
  1  2     9.95126903E-01   # O_{12}
  2  1    -9.95126903E-01   # O_{21}
  2  2     9.86027047E-02   # O_{22}
Block NMIX   # neutralino mixing matrix
  1  1    -4.90002218E-04   #
  1  2     9.99888182E-01   #
  1  3    -1.44769382E-02   #
  1  4     3.73726152E-03   #
  2  1     9.99894261E-01   #
  2  2     6.95515890E-04   #
  2  3     1.21319890E-02   #
  2  4    -7.98836350E-03   #
  3  1    -2.93442607E-03   #
  3  2     7.59246154E-03   #
  3  3     7.07035065E-01   #
  3  4     7.07131863E-01   #
  4  1     1.42348604E-02   #
  4  2    -1.28708528E-02   #
  4  3    -7.06926346E-01   #
  4  4     7.07026899E-01   #
Block UMIX   # chargino U mixing matrix
  1  1    -9.99770880E-01   # U_{11}
  1  2     2.14042254E-02   # U_{12}
  2  1    -2.14042254E-02   # U_{21}
  2  2    -9.99770880E-01   # U_{22}
Block VMIX   # chargino V mixing matrix
  1  1    -9.99965370E-01   # V_{11}
  1  2     8.31932575E-03   # V_{12}
  2  1    -8.31932575E-03   # V_{21}
  2  2    -9.99965370E-01   # V_{22}
Block GAUGE Q=  5.84073633E+03   #
     1     3.57524961E-01   # g`
     2     6.52378559E-01   # g_2
     3     1.21928000E+00   # g_3
Block YU Q=  5.84073633E+03   #
  3  3     8.21412861E-01   # y_t
Block YD Q=  5.84073633E+03   #
  3  3     6.31465018E-02   # y_b
Block YE Q=  5.84073633E+03   #
  3  3     5.14677465E-02   # y_tau
Block HMIX Q=  5.84073633E+03   # Higgs mixing parameters
     1     5.33968213E+03   # mu(Q)
     2     5.00000000E+00   # tan(beta)(M_GUT)
     3     2.52385010E+02   # Higgs vev at Q
     4     5.34481800E+07   # m_A^2(Q)
Block MSOFT Q=  5.84073633E+03   # DRbar SUSY breaking parameters
     1     3.29715454E+03   # M_1(Q)          
     2     9.36599487E+02   # M_2(Q)          
     3    -6.24246729E+03   # M_3(Q)          
    21     3.23374943E+04   # mH1^2(Q)            
    22    -1.28800134E+05   # mH2^2(Q)            
    31     4.77928320E+03   # MeL(Q)          
    32     4.77928320E+03   # MmuL(Q)         
    33     4.77109668E+03   # MtauL(Q)        
    34     4.74136572E+03   # MeR(Q)          
    35     4.74136572E+03   # MmuR(Q)         
    36     4.72419336E+03   # MtauR(Q)        
    41     7.56825244E+03   # MqL1(Q)         
    42     7.56825244E+03   # MqL2(Q)         
    43     6.50852002E+03   # MqL3(Q)         
    44     7.61086963E+03   # MuR(Q)          
    45     7.61086963E+03   # McR(Q)          
    46     5.24146875E+03   # MtR(Q)          
    47     7.66375244E+03   # MdR(Q)          
    48     7.66375244E+03   # MsR(Q)          
    49     7.68632910E+03   # MbR(Q)          
Block AU Q=  5.84073633E+03   #
  1  1     5.38220508E+03   # A_u
  2  2     5.38220508E+03   # A_c
  3  3     5.38220508E+03   # A_t
Block AD Q=  5.84073633E+03   #
  1  1     1.27364346E+04   # A_d
  2  2     1.27364346E+04   # A_s
  3  3     1.27364346E+04   # A_b
Block AE Q=  5.84073633E+03   #
  1  1     3.65101489E+03   # A_e
  2  2     3.65101489E+03   # A_mu
  3  3     3.65101489E+03   # A_tau
#
#  ISAJET decay tables in SUSY Les Houches accord format
#  Created by ISALHD. Last revision: C. Balazs, 2005 May 25
Block DCINFO                           # Program information
     1   ISASUGRA from ISAJET          # Spectrum Calculator
     2   7.80   29-OCT-2009 12:50:36   # Version number
#         PDG         Width
DECAY        23     2.49520000E+00   # Z width (SM calculation)
DECAY        24     2.08500000E+00   # W width (SM calculation)
#
#         PDG            Width  
DECAY         6  1.14680779E+00   # TP    decays
#          BR          NDA       ID1       ID2       ID3       ID4
      3.33333343E-01    3            2        -1         5             # TP     -->  UP     DB     BT          
      3.33333343E-01    3            4        -3         5             # TP     -->  CH     SB     BT          
      1.11111112E-01    3          -11        12         5             # TP     -->  E+     NUE    BT          
      1.11111112E-01    3          -13        14         5             # TP     -->  MU+    NUM    BT          
      1.11111112E-01    3          -15        16         5             # TP     -->  TAU+   NUT    BT          
#         PDG         Width
DECAY   1000021  1.47344971E+01   # GLSS  decays
#          BR          NDA       ID1       ID2       ID3       ID4
      1.69859617E-03    3      1000024         1        -2             # GLSS   -->  W1SS+  DN     UB          
      1.69859617E-03    3     -1000024         2        -1             # GLSS   -->  W1SS-  UP     DB          
      1.69859617E-03    3      1000024         3        -4             # GLSS   -->  W1SS+  ST     CB          
      1.69859617E-03    3     -1000024         4        -3             # GLSS   -->  W1SS-  CH     SB          
      6.52872724E-03    3      1000024         5        -6             # GLSS   -->  W1SS+  BT     TB          
      6.52872724E-03    3     -1000024         6        -5             # GLSS   -->  W1SS-  TP     BB          
      3.28000427E-09    3      1000037         1        -2             # GLSS   -->  W2SS+  DN     UB          
      3.28000427E-09    3     -1000037         2        -1             # GLSS   -->  W2SS-  UP     DB          
      3.28000427E-09    3      1000037         3        -4             # GLSS   -->  W2SS+  ST     CB          
      3.28000427E-09    3     -1000037         4        -3             # GLSS   -->  W2SS-  CH     SB          
      1.44611811E-04    3      1000037         5        -6             # GLSS   -->  W2SS+  BT     TB          
      1.44611811E-04    3     -1000037         6        -5             # GLSS   -->  W2SS-  TP     BB          
      1.24802156E-07    2      1000022        21                       # GLSS   -->  Z1SS   GL                 
      8.49386270E-04    3      1000022         2        -2             # GLSS   -->  Z1SS   UP     UB          
      8.49401345E-04    3      1000022         1        -1             # GLSS   -->  Z1SS   DN     DB          
      8.49401345E-04    3      1000022         3        -3             # GLSS   -->  Z1SS   ST     SB          
      8.49386270E-04    3      1000022         4        -4             # GLSS   -->  Z1SS   CH     CB          
      3.52045777E-03    3      1000022         5        -5             # GLSS   -->  Z1SS   BT     BB          
      3.00773163E-03    3      1000022         6        -6             # GLSS   -->  Z1SS   TP     TB          
      5.61962088E-06    2      1000023        21                       # GLSS   -->  Z2SS   GL                 
      1.00603240E-04    3      1000023         2        -2             # GLSS   -->  Z2SS   UP     UB          
      2.84855960E-05    3      1000023         1        -1             # GLSS   -->  Z2SS   DN     DB          
      2.84855960E-05    3      1000023         3        -3             # GLSS   -->  Z2SS   ST     SB          
      1.00603240E-04    3      1000023         4        -4             # GLSS   -->  Z2SS   CH     CB          
      6.08462033E-05    3      1000023         5        -5             # GLSS   -->  Z2SS   BT     BB          
      3.13287928E-05    3      1000023         6        -6             # GLSS   -->  Z2SS   TP     TB          
      1.39528117E-06    2      1000025        21                       # GLSS   -->  Z3SS   GL                 
      7.41469497E-10    3      1000025         2        -2             # GLSS   -->  Z3SS   UP     UB          
      9.18591314E-10    3      1000025         1        -1             # GLSS   -->  Z3SS   DN     DB          
      9.18591314E-10    3      1000025         3        -3             # GLSS   -->  Z3SS   ST     SB          
      7.41469497E-10    3      1000025         4        -4             # GLSS   -->  Z3SS   CH     CB          
      1.34448271E-06    3      1000025         5        -5             # GLSS   -->  Z3SS   BT     BB          
      9.90376502E-05    3      1000025         6        -6             # GLSS   -->  Z3SS   TP     TB          
      1.76680260E-06    2      1000035        21                       # GLSS   -->  Z4SS   GL                 
      1.02335729E-09    3      1000035         2        -2             # GLSS   -->  Z4SS   UP     UB          
      1.29482658E-09    3      1000035         1        -1             # GLSS   -->  Z4SS   DN     DB          
      1.29482658E-09    3      1000035         3        -3             # GLSS   -->  Z4SS   ST     SB          
      1.02335729E-09    3      1000035         4        -4             # GLSS   -->  Z4SS   CH     CB          
      1.34927905E-06    3      1000035         5        -5             # GLSS   -->  Z4SS   BT     BB          
      8.82188469E-05    3      1000035         6        -6             # GLSS   -->  Z4SS   TP     TB          
      4.84691978E-01    2     -1000006         6                       # GLSS   -->  TB1    TP                 
      4.84691978E-01    2      1000006        -6                       # GLSS   -->  TP1    TB                 
#         PDG         Width
DECAY   1000002  1.28218231E+02   # UPL   decays
#          BR          NDA       ID1       ID2       ID3       ID4
      2.50539660E-01    2      1000022         2                       # UPL    -->  Z1SS   UP                 
      5.99191897E-03    2      1000023         2                       # UPL    -->  Z2SS   UP                 
      3.73860848E-06    2      1000025         2                       # UPL    -->  Z3SS   UP                 
      7.90694412E-06    2      1000035         2                       # UPL    -->  Z4SS   UP                 
      2.42205426E-01    2      1000021         2                       # UPL    -->  GLSS   UP                 
      5.01241028E-01    2      1000024         1                       # UPL    -->  W1SS+  DN                 
      1.03543944E-05    2      1000037         1                       # UPL    -->  W2SS+  DN                 
#         PDG         Width
DECAY   1000001  1.28224152E+02   # DNL   decays
#          BR          NDA       ID1       ID2       ID3       ID4
      2.50631064E-01    2      1000022         1                       # DNL    -->  Z1SS   DN                 
      5.90185961E-03    2      1000023         1                       # DNL    -->  Z2SS   DN                 
      4.96587427E-06    2      1000025         1                       # DNL    -->  Z3SS   DN                 
      1.79892395E-05    2      1000035         1                       # DNL    -->  Z4SS   DN                 
      2.42326811E-01    2      1000021         1                       # DNL    -->  GLSS   DN                 
      5.01048803E-01    2     -1000024         2                       # DNL    -->  W1SS-  UP                 
      6.85521809E-05    2     -1000037         2                       # DNL    -->  W2SS-  UP                 
#         PDG         Width
DECAY   1000003  1.28224152E+02   # STL   decays
#          BR          NDA       ID1       ID2       ID3       ID4
      2.50631064E-01    2      1000022         3                       # STL    -->  Z1SS   ST                 
      5.90185961E-03    2      1000023         3                       # STL    -->  Z2SS   ST                 
      4.96587427E-06    2      1000025         3                       # STL    -->  Z3SS   ST                 
      1.79892395E-05    2      1000035         3                       # STL    -->  Z4SS   ST                 
      2.42326811E-01    2      1000021         3                       # STL    -->  GLSS   ST                 
      5.01048803E-01    2     -1000024         4                       # STL    -->  W1SS-  CH                 
      6.85521736E-05    2     -1000037         4                       # STL    -->  W2SS-  CH                 
#         PDG         Width
DECAY   1000004  1.28218201E+02   # CHL   decays
#          BR          NDA       ID1       ID2       ID3       ID4
      2.50539690E-01    2      1000022         4                       # CHL    -->  Z1SS   CH                 
      5.99192036E-03    2      1000023         4                       # CHL    -->  Z2SS   CH                 
      3.73860894E-06    2      1000025         4                       # CHL    -->  Z3SS   CH                 
      7.90694412E-06    2      1000035         4                       # CHL    -->  Z4SS   CH                 
      2.42205292E-01    2      1000021         4                       # CHL    -->  GLSS   CH                 
      5.01241148E-01    2      1000024         3                       # CHL    -->  W1SS+  ST                 
      1.03543962E-05    2      1000037         3                       # CHL    -->  W2SS+  ST                 
#         PDG         Width
DECAY   1000005  1.05549301E+02   # BT1   decays
#          BR          NDA       ID1       ID2       ID3       ID4
      2.59240150E-01    2      1000022         5                       # BT1    -->  Z1SS   BT                 
      5.31113846E-03    2      1000023         5                       # BT1    -->  Z2SS   BT                 
      3.88569053E-04    2      1000025         5                       # BT1    -->  Z3SS   BT                 
      3.94941133E-04    2      1000035         5                       # BT1    -->  Z4SS   BT                 
      2.52552517E-03    2      1000021         5                       # BT1    -->  GLSS   BT                 
      5.17531455E-01    2     -1000024         6                       # BT1    -->  W1SS-  TP                 
      1.14755049E-01    2     -1000037         6                       # BT1    -->  W2SS-  TP                 
      9.98531878E-02    2          -24   1000006                       # BT1    -->  W-     TP1                
#         PDG         Width
DECAY   1000006  5.11970091E+00   # TP1   decays
#          BR          NDA       ID1       ID2       ID3       ID4
      3.21502239E-03    2      1000022         6                       # TP1    -->  Z1SS   TP                 
      9.75860178E-01    2      1000023         6                       # TP1    -->  Z2SS   TP                 
      4.83341236E-03    2      1000024         5                       # TP1    -->  W1SS+  BT                 
      1.60913579E-02    2      1000037         5                       # TP1    -->  W2SS+  BT                 
#         PDG         Width
DECAY   2000002  4.52587585E+01   # UPR   decays
#          BR          NDA       ID1       ID2       ID3       ID4
      9.20787286E-08    2      1000022         2                       # UPR    -->  Z1SS   UP                 
      2.72187352E-01    2      1000023         2                       # UPR    -->  Z2SS   UP                 
      1.00734667E-06    2      1000025         2                       # UPR    -->  Z3SS   UP                 
      2.36906180E-05    2      1000035         2                       # UPR    -->  Z4SS   UP                 
      7.27787852E-01    2      1000021         2                       # UPR    -->  GLSS   UP                 
#         PDG         Width
DECAY   2000001  3.84413986E+01   # DNR   decays
#          BR          NDA       ID1       ID2       ID3       ID4
      2.72919696E-08    2      1000022         1                       # DNR    -->  Z1SS   DN                 
      8.10756162E-02    2      1000023         1                       # DNR    -->  Z2SS   DN                 
      3.05020194E-07    2      1000025         1                       # DNR    -->  Z3SS   DN                 
      7.17351668E-06    2      1000035         1                       # DNR    -->  Z4SS   DN                 
      9.18916941E-01    2      1000021         1                       # DNR    -->  GLSS   DN                 
#         PDG         Width
DECAY   2000003  3.84413986E+01   # STR   decays
#          BR          NDA       ID1       ID2       ID3       ID4
      2.72919696E-08    2      1000022         3                       # STR    -->  Z1SS   ST                 
      8.10756162E-02    2      1000023         3                       # STR    -->  Z2SS   ST                 
      3.05020194E-07    2      1000025         3                       # STR    -->  Z3SS   ST                 
      7.17351668E-06    2      1000035         3                       # STR    -->  Z4SS   ST                 
      9.18916941E-01    2      1000021         3                       # STR    -->  GLSS   ST                 
#         PDG         Width
DECAY   2000004  4.52587318E+01   # CHR   decays
#          BR          NDA       ID1       ID2       ID3       ID4
      9.20787784E-08    2      1000022         4                       # CHR    -->  Z1SS   CH                 
      2.72187531E-01    2      1000023         4                       # CHR    -->  Z2SS   CH                 
      1.00734724E-06    2      1000025         4                       # CHR    -->  Z3SS   CH                 
      2.36906290E-05    2      1000035         4                       # CHR    -->  Z4SS   CH                 
      7.27787673E-01    2      1000021         4                       # CHR    -->  GLSS   CH                 
#         PDG         Width
DECAY   2000005  3.64370232E+01   # BT2   decays
#          BR          NDA       ID1       ID2       ID3       ID4
      1.62149217E-06    2      1000022         5                       # BT2    -->  Z1SS   BT                 
      8.44651833E-02    2      1000023         5                       # BT2    -->  Z2SS   BT                 
      2.69925594E-03    2      1000025         5                       # BT2    -->  Z3SS   BT                 
      2.70651653E-03    2      1000035         5                       # BT2    -->  Z4SS   BT                 
      9.00621295E-01    2      1000021         5                       # BT2    -->  GLSS   BT                 
      2.75835168E-06    2     -1000024         6                       # BT2    -->  W1SS-  TP                 
      5.39515959E-03    2     -1000037         6                       # BT2    -->  W2SS-  TP                 
      1.73110620E-05    2          -24   1000006                       # BT2    -->  W-     TP1                
      1.68210338E-03    2          -24   2000006                       # BT2    -->  W-     TP2                
      9.58827790E-04    2           23   1000005                       # BT2    -->  Z0     BT1                
      1.45005784E-03    2           25   1000005                       # BT2    -->  HL0    BT1                
#         PDG         Width
DECAY   2000006  1.11486649E+02   # TP2   decays
#          BR          NDA       ID1       ID2       ID3       ID4
      4.94334966E-01    2      1000024         5                       # TP2    -->  W1SS+  BT                 
      8.48558964E-04    2      1000037         5                       # TP2    -->  W2SS+  BT                 
      5.25626466E-02    2           23   1000006                       # TP2    -->  Z0     TP1                
      8.51042941E-02    2           25   1000006                       # TP2    -->  HL0    TP1                
      2.46683419E-01    2      1000022         6                       # TP2    -->  Z1SS   TP                 
      5.43863513E-03    2      1000023         6                       # TP2    -->  Z2SS   TP                 
      5.79889379E-02    2      1000025         6                       # TP2    -->  Z3SS   TP                 
      5.70384413E-02    2      1000035         6                       # TP2    -->  Z4SS   TP                 
#         PDG         Width
DECAY   1000011  5.71543236E+01   # EL-   decays
#          BR          NDA       ID1       ID2       ID3       ID4
      3.23119849E-01    2      1000022        11                       # EL-    -->  Z1SS   E-                 
      3.04643456E-02    2      1000023        11                       # EL-    -->  Z2SS   E-                 
      6.46415770E-01    2     -1000024        12                       # EL-    -->  W1SS-  NUE                
      1.07293029E-18    3      1000015        11       -15             # EL-    -->  TAU1-  E-     TAU+        
      1.00602110E-20    3     -1000015        11        15             # EL-    -->  TAU1+  E-     TAU-        
#         PDG         Width
DECAY   1000013  5.71543236E+01   # MUL-  decays
#          BR          NDA       ID1       ID2       ID3       ID4
      3.23119849E-01    2      1000022        13                       # MUL-   -->  Z1SS   MU-                
      3.04643456E-02    2      1000023        13                       # MUL-   -->  Z2SS   MU-                
      6.46415770E-01    2     -1000024        14                       # MUL-   -->  W1SS-  NUM                
      1.07293029E-18    3      1000015        13       -15             # MUL-   -->  TAU1-  MU-    TAU+        
      1.00602110E-20    3     -1000015        13        15             # MUL-   -->  TAU1+  MU-    TAU-        
#         PDG         Width
DECAY   1000015  7.04511356E+00   # TAU1- decays
#          BR          NDA       ID1       ID2       ID3       ID4
      2.59471759E-02    2      1000022        15                       # TAU1-  -->  Z1SS   TAU-               
      9.22068894E-01    2      1000023        15                       # TAU1-  -->  Z2SS   TAU-               
      5.19839302E-02    2     -1000024        16                       # TAU1-  -->  W1SS-  NUT                
#         PDG         Width
DECAY   1000012  5.71296844E+01   # NUEL  decays
#          BR          NDA       ID1       ID2       ID3       ID4
      3.23346168E-01    2      1000022        12                       # NUEL   -->  Z1SS   NUE                
      3.02303601E-02    2      1000023        12                       # NUEL   -->  Z2SS   NUE                
      6.46423459E-01    2      1000024        11                       # NUEL   -->  W1SS+  E-                 
      5.99174315E-18    3      1000015        12       -15             # NUEL   -->  TAU1-  NUE    TAU+        
      1.11730832E-18    3     -1000015        12        15             # NUEL   -->  TAU1+  NUE    TAU-        
      1.47722811E-17    3     -1000015        11        16             # NUEL   -->  TAU1+  E-     NUT         
#         PDG         Width
DECAY   1000014  5.71296844E+01   # NUML  decays
#          BR          NDA       ID1       ID2       ID3       ID4
      3.23346168E-01    2      1000022        14                       # NUML   -->  Z1SS   NUM                
      3.02303601E-02    2      1000023        14                       # NUML   -->  Z2SS   NUM                
      6.46423459E-01    2      1000024        13                       # NUML   -->  W1SS+  MU-                
      5.99174315E-18    3      1000015        14       -15             # NUML   -->  TAU1-  NUM    TAU+        
      1.11730832E-18    3     -1000015        14        15             # NUML   -->  TAU1+  NUM    TAU-        
      1.53127493E-17    3     -1000015        13        16             # NUML   -->  TAU1+  MU-    NUT         
#         PDG         Width
DECAY   1000016  5.70007629E+01   # NUTL  decays
#          BR          NDA       ID1       ID2       ID3       ID4
      3.23403001E-01    2      1000022        16                       # NUTL   -->  Z1SS   NUT                
      3.00584789E-02    2      1000023        16                       # NUTL   -->  Z2SS   NUT                
      6.46538377E-01    2      1000024        15                       # NUTL   -->  W1SS+  TAU-               
      8.02257264E-17    3     -1000015        16        15             # NUTL   -->  TAU1+  NUT    TAU-        
      2.12342499E-08    3      1000015        16       -15             # NUTL   -->  TAU1-  NUT    TAU+        
      2.12342499E-08    3      1000015        12       -11             # NUTL   -->  TAU1-  NUE    E+          
      2.12342499E-08    3      1000015        14       -13             # NUTL   -->  TAU1-  NUM    MU+         
      6.37027497E-08    3      1000015         2        -1             # NUTL   -->  TAU1-  UP     DB          
      6.37027497E-08    3      1000015         4        -3             # NUTL   -->  TAU1-  CH     SB          
#         PDG         Width
DECAY   2000011  6.64159775E+00   # ER-   decays
#          BR          NDA       ID1       ID2       ID3       ID4
      7.97972575E-07    2      1000022        11                       # ER-    -->  Z1SS   E-                 
      9.99999225E-01    2      1000023        11                       # ER-    -->  Z2SS   E-                 
      1.15162589E-20    3      1000015        11       -15             # ER-    -->  TAU1-  E-     TAU+        
      2.07914933E-20    3     -1000015        11        15             # ER-    -->  TAU1+  E-     TAU-        
      1.16258240E-25    3      1000015        12       -16             # ER-    -->  TAU1-  NUE    ANUT        
#         PDG         Width
DECAY   2000013  6.64159775E+00   # MUR-  decays
#          BR          NDA       ID1       ID2       ID3       ID4
      7.97972575E-07    2      1000022        13                       # MUR-   -->  Z1SS   MU-                
      9.99999225E-01    2      1000023        13                       # MUR-   -->  Z2SS   MU-                
      1.15162589E-20    3      1000015        13       -15             # MUR-   -->  TAU1-  MU-    TAU+        
      2.07914933E-20    3     -1000015        13        15             # MUR-   -->  TAU1+  MU-    TAU-        
      4.94905028E-21    3      1000015        14       -16             # MUR-   -->  TAU1-  NUM    ANUT        
#         PDG         Width
DECAY   2000015  5.65265007E+01   # TAU2- decays
#          BR          NDA       ID1       ID2       ID3       ID4
      3.22798938E-01    2      1000022        15                       # TAU2-  -->  Z1SS   TAU-               
      3.14381085E-02    2      1000023        15                       # TAU2-  -->  Z2SS   TAU-               
      6.45762980E-01    2     -1000024        16                       # TAU2-  -->  W1SS-  NUT                
#         PDG         Width
DECAY   1000023  2.62238197E-02   # Z2SS  decays
#          BR          NDA       ID1       ID2       ID3       ID4
      9.02145257E-06    2      1000022        22                       # Z2SS   -->  Z1SS   GM                 
      4.43930566E-01    2      1000024       -24                       # Z2SS   -->  W1SS+  W-                 
      4.43930566E-01    2     -1000024        24                       # Z2SS   -->  W1SS-  W+                 
      7.02548260E-03    2      1000022        23                       # Z2SS   -->  Z1SS   Z0                 
      1.46713268E-04    3      1000022         2        -2             # Z2SS   -->  Z1SS   UP     UB          
      1.44522972E-04    3      1000022         1        -1             # Z2SS   -->  Z1SS   DN     DB          
      1.44522972E-04    3      1000022         3        -3             # Z2SS   -->  Z1SS   ST     SB          
      1.46713268E-04    3      1000022         4        -4             # Z2SS   -->  Z1SS   CH     CB          
      2.80252745E-04    3      1000022         5        -5             # Z2SS   -->  Z1SS   BT     BB          
      4.52408893E-03    3      1000022        11       -11             # Z2SS   -->  Z1SS   E-     E+          
      4.52408893E-03    3      1000022        13       -13             # Z2SS   -->  Z1SS   MU-    MU+         
      4.56669088E-03    3      1000022        15       -15             # Z2SS   -->  Z1SS   TAU-   TAU+        
      4.52237111E-03    3      1000022        12       -12             # Z2SS   -->  Z1SS   NUE    ANUE        
      4.52237111E-03    3      1000022        14       -14             # Z2SS   -->  Z1SS   NUM    ANUM        
      4.56461729E-03    3      1000022        16       -16             # Z2SS   -->  Z1SS   NUT    ANUT        
      7.70171657E-02    2      1000022        25                       # Z2SS   -->  Z1SS   HL0                
#         PDG         Width
DECAY   1000025  3.89586258E+01   # Z3SS  decays
#          BR          NDA       ID1       ID2       ID3       ID4
      1.00263007E-08    2      1000022        22                       # Z3SS   -->  Z1SS   GM                 
      9.89383366E-08    2      1000023        22                       # Z3SS   -->  Z2SS   GM                 
      3.41068506E-01    2      1000024       -24                       # Z3SS   -->  W1SS+  W-                 
      3.41068506E-01    2     -1000024        24                       # Z3SS   -->  W1SS-  W+                 
      1.93878785E-01    2      1000022        23                       # Z3SS   -->  Z1SS   Z0                 
      6.43181428E-02    2      1000023        23                       # Z3SS   -->  Z2SS   Z0                 
      1.94557814E-09    3      1000022         2        -2             # Z3SS   -->  Z1SS   UP     UB          
      2.58407029E-09    3      1000022         1        -1             # Z3SS   -->  Z1SS   DN     DB          
      2.58407029E-09    3      1000022         3        -3             # Z3SS   -->  Z1SS   ST     SB          
      1.94557814E-09    3      1000022         4        -4             # Z3SS   -->  Z1SS   CH     CB          
      2.40355666E-06    3      1000022         5        -5             # Z3SS   -->  Z1SS   BT     BB          
      1.06776213E-07    3      1000022        15       -15             # Z3SS   -->  Z1SS   TAU-   TAU+        
      1.12409968E-11    3      1000023         2        -2             # Z3SS   -->  Z2SS   UP     UB          
      6.44899542E-12    3      1000023         1        -1             # Z3SS   -->  Z2SS   DN     DB          
      6.44899542E-12    3      1000023         3        -3             # Z3SS   -->  Z2SS   ST     SB          
      1.12409968E-11    3      1000023         4        -4             # Z3SS   -->  Z2SS   CH     CB          
      2.39959803E-08    3      1000023         5        -5             # Z3SS   -->  Z2SS   BT     BB          
      1.43398948E-09    3      1000023        15       -15             # Z3SS   -->  Z2SS   TAU-   TAU+        
      5.67996316E-02    2      1000022        25                       # Z3SS   -->  Z1SS   HL0                
      2.51850183E-03    2      1000023        25                       # Z3SS   -->  Z2SS   HL0                
      4.03812152E-07    2      1000011       -11                       # Z3SS   -->  EL-    E+                 
      4.03812152E-07    2     -1000011        11                       # Z3SS   -->  EL+    E-                 
      4.03812152E-07    2      1000013       -13                       # Z3SS   -->  MUL-   MU+                
      4.03812152E-07    2     -1000013        13                       # Z3SS   -->  MUL+   MU-                
      1.36880132E-07    2      2000011       -11                       # Z3SS   -->  ER-    E+                 
      1.36880132E-07    2     -2000011        11                       # Z3SS   -->  ER+    E-                 
      1.36880132E-07    2      2000013       -13                       # Z3SS   -->  MUR-   MU+                
      1.36880132E-07    2     -2000013        13                       # Z3SS   -->  MUR+   MU-                
      8.95457706E-05    2      1000015       -15                       # Z3SS   -->  TAU1-  TAU+               
      8.95457706E-05    2     -1000015        15                       # Z3SS   -->  TAU1+  TAU-               
      7.91175626E-05    2      2000015       -15                       # Z3SS   -->  TAU2-  TAU+               
      7.91175626E-05    2     -2000015        15                       # Z3SS   -->  TAU2+  TAU-               
      9.67641995E-07    2      1000012       -12                       # Z3SS   -->  NUEL   ANUE               
      9.67641995E-07    2     -1000012        12                       # Z3SS   -->  ANUEL  NUE                
      9.67641995E-07    2      1000014       -14                       # Z3SS   -->  NUML   ANUM               
      9.67641995E-07    2     -1000014        14                       # Z3SS   -->  ANUML  NUM                
      9.95306323E-07    2      1000016       -16                       # Z3SS   -->  NUTL   ANUT               
      9.95306323E-07    2     -1000016        16                       # Z3SS   -->  ANUTL  NUT                
#         PDG         Width
DECAY   1000035  3.16599922E+01   # Z4SS  decays
#          BR          NDA       ID1       ID2       ID3       ID4
      2.70820273E-08    2      1000022        22                       # Z4SS   -->  Z1SS   GM                 
      1.21889130E-07    2      1000023        22                       # Z4SS   -->  Z2SS   GM                 
      3.03164527E-16    2      1000025        22                       # Z4SS   -->  Z3SS   GM                 
      2.28997797E-01    2      1000024       -24                       # Z4SS   -->  W1SS+  W-                 
      2.28997797E-01    2     -1000024        24                       # Z4SS   -->  W1SS-  W+                 
      8.30114633E-02    2      1000022        23                       # Z4SS   -->  Z1SS   Z0                 
      3.37572815E-03    2      1000023        23                       # Z4SS   -->  Z2SS   Z0                 
      8.34014546E-09    3      1000022         2        -2             # Z4SS   -->  Z1SS   UP     UB          
      1.89737115E-08    3      1000022         1        -1             # Z4SS   -->  Z1SS   DN     DB          
      1.89737115E-08    3      1000022         3        -3             # Z4SS   -->  Z1SS   ST     SB          
      8.34014546E-09    3      1000022         4        -4             # Z4SS   -->  Z1SS   CH     CB          
      2.98305872E-06    3      1000022         5        -5             # Z4SS   -->  Z1SS   BT     BB          
      1.30222304E-07    3      1000022        15       -15             # Z4SS   -->  Z1SS   TAU-   TAU+        
      5.45884005E-10    3      1000023         2        -2             # Z4SS   -->  Z2SS   UP     UB          
      1.03228044E-10    3      1000023         1        -1             # Z4SS   -->  Z2SS   DN     DB          
      1.03228044E-10    3      1000023         3        -3             # Z4SS   -->  Z2SS   ST     SB          
      5.45884005E-10    3      1000023         4        -4             # Z4SS   -->  Z2SS   CH     CB          
      2.93591942E-08    3      1000023         5        -5             # Z4SS   -->  Z2SS   BT     BB          
      1.72341497E-09    3      1000023        15       -15             # Z4SS   -->  Z2SS   TAU-   TAU+        
      3.34743083E-01    2      1000022        25                       # Z4SS   -->  Z1SS   HL0                
      1.20394535E-01    2      1000023        25                       # Z4SS   -->  Z2SS   HL0                
      3.55098109E-07    2      1000011       -11                       # Z4SS   -->  EL-    E+                 
      3.55098109E-07    2     -1000011        11                       # Z4SS   -->  EL+    E-                 
      3.55098109E-07    2      1000013       -13                       # Z4SS   -->  MUL-   MU+                
      3.55098109E-07    2     -1000013        13                       # Z4SS   -->  MUL+   MU-                
      3.97487975E-06    2      2000011       -11                       # Z4SS   -->  ER-    E+                 
      3.97487975E-06    2     -2000011        11                       # Z4SS   -->  ER+    E-                 
      3.97487975E-06    2      2000013       -13                       # Z4SS   -->  MUR-   MU+                
      3.97487975E-06    2     -2000013        13                       # Z4SS   -->  MUR+   MU-                
      1.11260655E-04    2      1000015       -15                       # Z4SS   -->  TAU1-  TAU+               
      1.11260655E-04    2     -1000015        15                       # Z4SS   -->  TAU1+  TAU-               
      9.99295808E-05    2      2000015       -15                       # Z4SS   -->  TAU2-  TAU+               
      9.99295808E-05    2     -2000015        15                       # Z4SS   -->  TAU2+  TAU-               
      6.03651915E-06    2      1000012       -12                       # Z4SS   -->  NUEL   ANUE               
      6.03651915E-06    2     -1000012        12                       # Z4SS   -->  ANUEL  NUE                
      6.03651915E-06    2      1000014       -14                       # Z4SS   -->  NUML   ANUM               
      6.03651915E-06    2     -1000014        14                       # Z4SS   -->  ANUML  NUM                
      6.20878518E-06    2      1000016       -16                       # Z4SS   -->  NUTL   ANUT               
      6.20878518E-06    2     -1000016        16                       # Z4SS   -->  ANUTL  NUT                
#         PDG         Width
DECAY   1000024  4.58396274E-15   # W1SS+ decays
#          BR          NDA       ID1       ID2       ID3       ID4
      1.00000000E+00    2      1000022         0                       # W1SS+  -->  Z1SS   PI+                
#         PDG         Width
DECAY   1000037  4.16538315E+01   # W2SS+ decays
#          BR          NDA       ID1       ID2       ID3       ID4
      2.14779110E-08    3      1000022         2        -1             # W2SS+  -->  Z1SS   UP     DB          
      2.14779110E-08    3      1000022         4        -3             # W2SS+  -->  Z1SS   CH     SB          
      9.85814026E-08    3      1000022       -15        16             # W2SS+  -->  Z1SS   TAU+   NUT         
      3.40048969E-01    2      1000022        24                       # W2SS+  -->  Z1SS   W+                 
      1.10536080E-10    3      1000023         2        -1             # W2SS+  -->  Z2SS   UP     DB          
      1.10536080E-10    3      1000023         4        -3             # W2SS+  -->  Z2SS   CH     SB          
      1.33134714E-09    3      1000023       -15        16             # W2SS+  -->  Z2SS   TAU+   NUT         
      6.26125559E-02    2      1000023        24                       # W2SS+  -->  Z2SS   W+                 
      1.19481008E-10    3      1000025         2        -1             # W2SS+  -->  Z3SS   UP     DB          
      1.19481008E-10    3      1000025         4        -3             # W2SS+  -->  Z3SS   CH     SB          
      3.98270028E-11    3      1000025       -11        12             # W2SS+  -->  Z3SS   E+     NUE         
      3.98270028E-11    3      1000025       -13        14             # W2SS+  -->  Z3SS   MU+    NUM         
      3.98270028E-11    3      1000025       -15        16             # W2SS+  -->  Z3SS   TAU+   NUT         
      6.19498203E-11    3      1000035         2        -1             # W2SS+  -->  Z4SS   UP     DB          
      6.19498203E-11    3      1000035         4        -3             # W2SS+  -->  Z4SS   CH     SB          
      2.06499384E-11    3      1000035       -11        12             # W2SS+  -->  Z4SS   E+     NUE         
      2.06499384E-11    3      1000035       -13        14             # W2SS+  -->  Z4SS   MU+    NUM         
      2.06499384E-11    3      1000035       -15        16             # W2SS+  -->  Z4SS   TAU+   NUT         
      1.50939547E-06    2      1000012       -11                       # W2SS+  -->  NUEL   E+                 
      1.50939547E-06    2      1000014       -13                       # W2SS+  -->  NUML   MU+                
      1.50145104E-04    2      1000016       -15                       # W2SS+  -->  NUTL   TAU+               
      9.88265219E-06    2     -1000011        12                       # W2SS+  -->  EL+    NUE                
      9.88265219E-06    2     -1000013        14                       # W2SS+  -->  MUL+   NUM                
      1.63679942E-04    2     -1000015        16                       # W2SS+  -->  TAU1+  NUT                
      1.90468345E-05    2     -2000015        16                       # W2SS+  -->  TAU2+  NUT                
      2.89321005E-01    2      1000024        23                       # W2SS+  -->  W1SS+  Z0                 
      6.74719258E-09    3      1000024         1        -1             # W2SS+  -->  W1SS+  DN     DB          
      6.74719258E-09    3      1000024         3        -3             # W2SS+  -->  W1SS+  ST     SB          
      4.46341168E-08    3      1000024         2        -2             # W2SS+  -->  W1SS+  UP     UB          
      4.46341168E-08    3      1000024         4        -4             # W2SS+  -->  W1SS+  CH     CB          
      3.07661533E-01    2      1000024        25                       # W2SS+  -->  W1SS+  HL0                
#         PDG         Width
DECAY        25  4.24168073E-03   # HL0   decays
#          BR          NDA       ID1       ID2       ID3       ID4
      4.71894479E-09    2           11       -11                       # HL0    -->  E-     E+                 
      1.99241418E-04    2           13       -13                       # HL0    -->  MU-    MU+                
      5.69880232E-02    2           15       -15                       # HL0    -->  TAU-   TAU+               
      5.92071865E-06    2            1        -1                       # HL0    -->  DN     DB                 
      2.39226711E-03    2            3        -3                       # HL0    -->  ST     SB                 
      7.81673312E-01    2            5        -5                       # HL0    -->  BT     BB                 
      1.89278308E-06    2            2        -2                       # HL0    -->  UP     UB                 
      3.55056077E-02    2            4        -4                       # HL0    -->  CH     CB                 
      1.92030461E-03    2           22        22                       # HL0    -->  GM     GM                 
      4.09133025E-02    2           21        21                       # HL0    -->  GL     GL                 
      4.11539339E-03    3           24        11       -12             # HL0    -->  W+     E-     ANUE        
      4.11539339E-03    3           24        13       -14             # HL0    -->  W+     MU-    ANUM        
      4.11539339E-03    3           24        15       -16             # HL0    -->  W+     TAU-   ANUT        
      1.23461802E-02    3           24        -2         1             # HL0    -->  W+     UB     DN          
      1.23461802E-02    3           24        -4         3             # HL0    -->  W+     CB     ST          
      4.11539339E-03    3          -24       -11        12             # HL0    -->  W-     E+     NUE         
      4.11539339E-03    3          -24       -13        14             # HL0    -->  W-     MU+    NUM         
      4.11539339E-03    3          -24       -15        16             # HL0    -->  W-     TAU+   NUT         
      1.23461802E-02    3          -24         2        -1             # HL0    -->  W-     UP     DB          
      1.23461802E-02    3          -24         4        -3             # HL0    -->  W-     CH     SB          
      4.32418077E-04    3           23        12       -12             # HL0    -->  Z0     NUE    ANUE        
      4.32418077E-04    3           23        14       -14             # HL0    -->  Z0     NUM    ANUM        
      4.32418077E-04    3           23        16       -16             # HL0    -->  Z0     NUT    ANUT        
      2.17631678E-04    3           23        11       -11             # HL0    -->  Z0     E-     E+          
      2.17631678E-04    3           23        13       -13             # HL0    -->  Z0     MU-    MU+         
      2.17631678E-04    3           23        15       -15             # HL0    -->  Z0     TAU-   TAU+        
      7.45587633E-04    3           23         2        -2             # HL0    -->  Z0     UP     UB          
      7.45587633E-04    3           23         4        -4             # HL0    -->  Z0     CH     CB          
      9.60500620E-04    3           23         1        -1             # HL0    -->  Z0     DN     DB          
      9.60500620E-04    3           23         3        -3             # HL0    -->  Z0     ST     SB          
      9.60500620E-04    3           23         5        -5             # HL0    -->  Z0     BT     BB          
#         PDG         Width
DECAY        35  3.36871567E+01   # HH0   decays
#          BR          NDA       ID1       ID2       ID3       ID4
      9.28057686E-10    2           11       -11                       # HH0    -->  E-     E+                 
      3.91842696E-05    2           13       -13                       # HH0    -->  MU-    MU+                
      1.12229716E-02    2           15       -15                       # HH0    -->  TAU-   TAU+               
      1.12131283E-06    2            1        -1                       # HH0    -->  DN     DB                 
      4.53066779E-04    2            3        -3                       # HH0    -->  ST     SB                 
      5.47759421E-02    2            5        -5                       # HH0    -->  BT     BB                 
      5.74554848E-10    2            2        -2                       # HH0    -->  UP     UB                 
      6.53599864E-06    2            4        -4                       # HH0    -->  CH     CB                 
      3.43550265E-01    2            6        -6                       # HH0    -->  TP     TB                 
      3.00766800E-07    2           22        22                       # HH0    -->  GM     GM                 
      2.55585855E-05    2           21        21                       # HH0    -->  GL     GL                 
      2.71318240E-05    2           24       -24                       # HH0    -->  W+     W-                 
      1.39235844E-05    2           23        23                       # HH0    -->  Z0     Z0                 
      2.97167309E-04    2      1000022   1000022                       # HH0    -->  Z1SS   Z1SS               
      1.47956627E-04    2      1000022   1000023                       # HH0    -->  Z1SS   Z2SS               
      1.67917579E-01    2      1000022   1000025                       # HH0    -->  Z1SS   Z3SS               
      2.90900711E-02    2      1000022   1000035                       # HH0    -->  Z1SS   Z4SS               
      5.55908991E-06    2      1000023   1000023                       # HH0    -->  Z2SS   Z2SS               
      6.14073942E-04    2      1000024  -1000024                       # HH0    -->  W1SS+  W1SS-              
      1.95846781E-01    2      1000024  -1000037                       # HH0    -->  W1SS+  W2SS-              
      1.95846781E-01    2     -1000024   1000037                       # HH0    -->  W1SS-  W2SS+              
      1.18041004E-04    2           25        25                       # HH0    -->  HL0    HL0                
#         PDG         Width
DECAY        36  3.27964973E+01   # HA0   decays
#          BR          NDA       ID1       ID2       ID3       ID4
      9.47049217E-10    2           11       -11                       # HA0    -->  E-     E+                 
      3.99861274E-05    2           13       -13                       # HA0    -->  MU-    MU+                
      1.14526385E-02    2           15       -15                       # HA0    -->  TAU-   TAU+               
      1.14430213E-06    2            1        -1                       # HA0    -->  DN     DB                 
      4.62355791E-04    2            3        -3                       # HA0    -->  ST     SB                 
      5.58990277E-02    2            5        -5                       # HA0    -->  BT     BB                 
      5.85822890E-10    2            2        -2                       # HA0    -->  UP     UB                 
      6.66847109E-06    2            4        -4                       # HA0    -->  CH     CB                 
      3.51037502E-01    2            6        -6                       # HA0    -->  TP     TB                 
      2.13086153E-07    2           22        22                       # HA0    -->  GM     GM                 
      2.95883365E-05    2           21        21                       # HA0    -->  GL     GL                 
      4.02417849E-04    2      1000022   1000022                       # HA0    -->  Z1SS   Z1SS               
      3.06327245E-04    2      1000022   1000023                       # HA0    -->  Z1SS   Z2SS               
      2.79410742E-02    2      1000022   1000025                       # HA0    -->  Z1SS   Z3SS               
      1.65907323E-01    2      1000022   1000035                       # HA0    -->  Z1SS   Z4SS               
      4.54028304E-05    2      1000023   1000023                       # HA0    -->  Z2SS   Z2SS               
      9.23497137E-04    2      1000024  -1000024                       # HA0    -->  W1SS+  W1SS-              
      1.92758560E-01    2      1000024  -1000037                       # HA0    -->  W1SS+  W2SS-              
      1.92758560E-01    2     -1000024   1000037                       # HA0    -->  W1SS-  W2SS+              
      2.76707142E-05    2           25        23                       # HA0    -->  HL0    Z0                 
#         PDG         Width
DECAY        37  3.27832108E+01   # H+    decays
#          BR          NDA       ID1       ID2       ID3       ID4
      9.53721324E-10    2           12       -11                       # H+     -->  NUE    E+                 
      4.02678379E-05    2           14       -13                       # H+     -->  NUM    MU+                
      1.15333246E-02    2           16       -15                       # H+     -->  NUT    TAU+               
      1.07446851E-06    2            2        -1                       # H+     -->  UP     DB                 
      4.40171716E-04    2            4        -3                       # H+     -->  CH     SB                 
      3.81433457E-01    2            6        -5                       # H+     -->  TP     BB                 
      1.06984226E-06    2      1000024   1000022                       # H+     -->  W1SS+  Z1SS               
      4.82136587E-04    2      1000024   1000023                       # H+     -->  W1SS+  Z2SS               
      2.02504933E-01    2      1000024   1000025                       # H+     -->  W1SS+  Z3SS               
      2.02257365E-01    2      1000024   1000035                       # H+     -->  W1SS+  Z4SS               
      2.01278269E-01    2      1000037   1000022                       # H+     -->  W2SS+  Z1SS               
      2.78722146E-05    2           25        24                       # H+     -->  HL0    W+                 
