#  ISAJET SUSY parameters in SUSY Les Houches Accord 2 format
#  Created by ISALHA 2.0 Last revision: C. Balazs 21 Apr 2009
Block SPINFO   # Program information
     1    ISASUSY from ISAJET          # Spectrum Calculator
     2   7.80   29-OCT-2009 12:50:36   # Version number
Block MODSEL   # Model selection
     1     0   # general MSSM-24 model                             
BLOCK SMINPUTS  # Standard Model inputs
     1     1.27934000E+02   # alpha_em^-1(M_Z)^MSbar
     2     1.16637000E-05   # G_F [GeV^-2]
     3     1.18000000E-01   # alpha_S(M_Z)^MSbar
     4     9.11876000E+01   # M_Z pole mass
     5     4.25000000E+00   # mb(mb)^MSbar
     6     1.72500000E+02   # mt pole mass
     7     1.77682000E+00   # mtau pole mass
#
Block MINPAR   # SUSY breaking input parameters.
     3     1.00000000E+01   # tan(beta)
     4     2.50000000E+03   # mu
Block MSOFT   # Non-universal SUSY breaking parameters 
     1     4.00000000E+01   # M_1(Q)          
     2     2.50000000E+03   # M_2(Q)          
     3     2.50000000E+03   # M_3(Q)          
    11     0.00000000E+00   #     At          
    12     0.00000000E+00   #     Ab          
    13     2.50000000E+04   #   Atau          
    23     2.50000000E+03   #    MUE          
    25     1.00000000E+01   #    TB           
    26     2.50000000E+03   #    MA0          
    31     2.50000000E+03   # MeL(Q)          
    32     2.50000000E+03   # MmuL(Q)         
    33     1.20000000E+02   # MtauL(Q)        
    34     2.50000000E+03   # MeR(Q)          
    35     2.50000000E+03   # MmuR(Q)         
    36     1.20000000E+02   # MtauR(Q)        
    41     2.50000000E+03   # MqL1(Q)         
    42     2.50000000E+03   # MqL2(Q)         
    43     2.50000000E+03   # MqL3(Q)         
    44     2.50000000E+03   # MuR(Q)          
    45     2.50000000E+03   # McR(Q)          
    46     2.50000000E+03   # MtR(Q)          
    47     2.50000000E+03   # MdR(Q)          
    48     2.50000000E+03   # MsR(Q)          
    49     2.50000000E+03   # MbR(Q)          
Block MASS   # Scalar and gaugino mass spectrum
#  PDG code   mass                 particle
         5     4.80000000E+00   # b-quark pole mass calculated from mb(mb)_Msbar
         6     1.72500000E+02   # t-quark pole mass (not read by ME)
        15     1.77682000E+00   # tau pole mass (not read by ME)
        23     9.11876000E+01   # Z pole mass (not read by ME)
        24     8.03990000E+01   # W+
        25     1.13288345E+02   #  h^0            
        35     2.51651904E+03   #  H^0            
        36     2.50000000E+03   #  A^0            
        37     2.51772217E+03   #  H^+            
   1000001     2.50068872E+03   #  dnl            
   1000002     2.49943726E+03   #  upl            
   1000003     2.50068872E+03   #  stl            
   1000004     2.49943726E+03   #  chl            
   1000005     2.48715942E+03   #  b1             
   1000006     2.49648804E+03   #  t1             
   1000011     2.50043677E+03   #  el-            
   1000012     2.50000000E+03   #  nuel
   1000013     2.50043677E+03   #  mul-           
   1000014     2.50000000E+03   #  numl
   1000015     1.27321014E+02   #  tau1           
   1000016     2.50000000E+03   #  nutl
   1000021     2.50000000E+03   #  glss           
   1000022     3.98325195E+01   #  z1ss           
   1000023     2.43825879E+03   #  z2ss           
   1000024     2.43827441E+03   #  w1ss           
   1000025    -2.50082446E+03   #  z3ss           
   1000035     2.56273608E+03   #  z4ss           
   1000037     2.56276270E+03   #  w2ss           
   2000001     2.50012598E+03   #  dnr            
   2000002     2.49974805E+03   #  upr            
   2000003     2.50012598E+03   #  str            
   2000004     2.49974829E+03   #  chr            
   2000005     2.51358838E+03   #  b2             
   2000006     2.51009106E+03   #  t2             
   2000011     2.50037793E+03   #  er-            
   2000013     2.50037793E+03   #  mur-           
   2000015     1.29109039E+02   #  tau2           
Block ALPHA   # Effective Higgs mixing parameter
         -9.99946222E-02   # alpha
Block STOPMIX   # stop mixing matrix
  1  1     7.15108216E-01   # O_{11}
  1  2     6.99013770E-01   # O_{12}
  2  1    -6.99013770E-01   # O_{21}
  2  2     7.15108216E-01   # O_{22}
Block SBOTMIX   # sbottom mixing matrix
  1  1     6.99541688E-01   # O_{11}
  1  2     7.14591742E-01   # O_{12}
  2  1    -7.14591742E-01   # O_{21}
  2  2     6.99541688E-01   # O_{22}
Block STAUMIX   # stau mixing matrix
  1  1     4.53750290E-05   # O_{11}
  1  2    -1.00000000E+00   # O_{12}
  2  1     1.00000000E+00   # O_{21}
  2  2     4.53750290E-05   # O_{22}
Block NMIX   # neutralino mixing matrix
  1  1     9.99842405E-01   #
  1  2    -1.23701408E-04   #
  1  3     1.76268667E-02   #
  1  4    -2.04023719E-03   #
  2  1     1.00030312E-02   #
  2  2     7.06946790E-01   #
  2  3    -5.05152225E-01   #
  2  4     4.94921863E-01   #
  3  1    -1.10178143E-02   #
  3  2     1.01849651E-02   #
  3  3     7.06884205E-01   #
  3  4     7.07170069E-01   #
  4  1     9.66596883E-03   #
  4  2    -7.07193673E-01   #
  4  3    -4.94798452E-01   #
  4  4     5.04934251E-01   #
Block UMIX   # chargino U mixing matrix
  1  1    -6.99869037E-01   # U_{11}
  1  2     7.14271188E-01   # U_{12}
  2  1    -7.14271188E-01   # U_{21}
  2  2    -6.99869037E-01   # U_{22}
Block VMIX   # chargino V mixing matrix
  1  1    -7.14271009E-01   # V_{11}
  1  2     6.99869215E-01   # V_{12}
  2  1    -6.99869215E-01   # V_{21}
  2  2    -7.14271009E-01   # V_{22}
Block HMIX Q=  9.11699982E+01   # Higgs mixing parameters
     1     2.50000000E+03   # mu(Q)
     2     1.00000000E+01   # tan(beta)
Block AU   #
  3  3     0.00000000E+00   # A_t
Block AD   #
  3  3     0.00000000E+00   # A_b
Block AE   #
  3  3     2.50000000E+04   # A_tau
BLOCK YU Q=  4.67034192E+02  # The Yukawa couplings
  3  3     8.92844550E-01   # y_t(Q) DRbar
#
BLOCK YD Q=  4.67034192E+02  # The Yukawa couplings
  3  3     1.38840206E-01   # y_b(Q) DRbar
#
BLOCK YE Q=  4.67034192E+02  # The Yukawa couplings
  3  3     1.00890810E-01   # y_tau(Q) DRbar
#
#  ISAJET decay tables in SUSY Les Houches accord format 
#  Created by ISALHD. Last revision: C. Balazs, 2005 May 25
#  isajet_helpers.f
Block DCINFO                           # Program information
     1   ISASUGRA from ISAJET          # Spectrum Calculator
     2   7.80   29-OCT-2009 12:50:36   # Version number
#         PDG         Width
DECAY         6  1.14680779E+00   # TP    decays
#          BR          NDA       ID1       ID2       ID3       ID4
      3.33333343E-01    3            2        -1         5             # TP     -->  UP     DB     BT          
      3.33333343E-01    3            4        -3         5             # TP     -->  CH     SB     BT          
      1.11111112E-01    3          -11        12         5             # TP     -->  E+     NUE    BT          
      1.11111112E-01    3          -13        14         5             # TP     -->  MU+    NUM    BT          
      1.11111112E-01    3          -15        16         5             # TP     -->  TAU+   NUT    BT          
#         PDG         Width
DECAY   1000021  3.07552330E-02   # GLSS  decays
#          BR          NDA       ID1       ID2       ID3       ID4
      3.61913008E-05    3      1000024         1        -2             # GLSS   -->  W1SS+  DN     UB          
      3.61913008E-05    3     -1000024         2        -1             # GLSS   -->  W1SS-  UP     DB          
      3.61913008E-05    3      1000024         3        -4             # GLSS   -->  W1SS+  ST     CB          
      3.61913008E-05    3     -1000024         4        -3             # GLSS   -->  W1SS-  CH     SB          
      1.43364270E-03    2      1000022        21                       # GLSS   -->  Z1SS   GL                 
      1.93335995E-01    3      1000022         1        -1             # GLSS   -->  Z1SS   DN     DB          
      1.93335995E-01    3      1000022         3        -3             # GLSS   -->  Z1SS   ST     SB          
      9.13840607E-02    3      1000022         5        -5             # GLSS   -->  Z1SS   BT     BB          
      4.18919295E-01    3      1000022         6        -6             # GLSS   -->  Z1SS   TP     TB          
      4.72035717E-05    3      1000023         1        -1             # GLSS   -->  Z2SS   DN     DB          
      4.72035717E-05    3      1000023         3        -3             # GLSS   -->  Z2SS   ST     SB          
      1.73328954E-04    2     -1000002         2                       # GLSS   -->  UBL    UP                 
      1.73328954E-04    2      1000002        -2                       # GLSS   -->  UPL    UB                 
      3.47337518E-05    2     -2000002         2                       # GLSS   -->  UBR    UP                 
      3.47337518E-05    2      2000002        -2                       # GLSS   -->  UPR    UB                 
      5.04678190E-02    2     -1000005         5                       # GLSS   -->  BB1    BT                 
      5.04678190E-02    2      1000005        -5                       # GLSS   -->  BT1    BB                 
#         PDG         Width
DECAY   1000002  3.89812350E-01   # UPL   decays
#          BR          NDA       ID1       ID2       ID3       ID4
      9.03937817E-01    2      1000022         2                       # UPL    -->  Z1SS   UP                 
      3.17027532E-02    2      1000023         2                       # UPL    -->  Z2SS   UP                 
      6.43594638E-02    2      1000024         1                       # UPL    -->  W1SS+  DN                 
#         PDG         Width
DECAY   1000001  3.91319871E-01   # DNL   decays
#          BR          NDA       ID1       ID2       ID3       ID4
      9.03343618E-01    2      1000022         1                       # DNL    -->  Z1SS   DN                 
      3.25143151E-02    2      1000023         1                       # DNL    -->  Z2SS   DN                 
      1.08793000E-04    2      1000021         1                       # DNL    -->  GLSS   DN                 
      6.40331879E-02    2     -1000024         2                       # DNL    -->  W1SS-  UP                 
#         PDG         Width
DECAY   1000003  3.91313851E-01   # STL   decays
#          BR          NDA       ID1       ID2       ID3       ID4
      9.03357506E-01    2      1000022         3                       # STL    -->  Z1SS   ST                 
      3.25148180E-02    2      1000023         3                       # STL    -->  Z2SS   ST                 
      1.08794673E-04    2      1000021         3                       # STL    -->  GLSS   ST                 
      6.40188083E-02    2     -1000024         4                       # STL    -->  W1SS-  CH                 
#         PDG         Width
DECAY   1000004  3.89809817E-01   # CHL   decays
#          BR          NDA       ID1       ID2       ID3       ID4
      9.03943360E-01    2      1000022         4                       # CHL    -->  Z1SS   CH                 
      3.16956043E-02    2      1000023         4                       # CHL    -->  Z2SS   CH                 
      6.43610060E-02    2      1000024         3                       # CHL    -->  W1SS+  ST                 
#         PDG         Width
DECAY   1000005  9.28885758E-01   # BT1   decays
#          BR          NDA       ID1       ID2       ID3       ID4
      9.93644178E-01    2      1000022         5                       # BT1    -->  Z1SS   BT                 
      6.35585980E-03    2      1000023         5                       # BT1    -->  Z2SS   BT                 
#         PDG         Width
DECAY   1000006  2.98367262E+00   # TP1   decays
#          BR          NDA       ID1       ID2       ID3       ID4
      9.82099533E-01    2      1000022         6                       # TP1    -->  Z1SS   TP                 
      1.79004800E-02    2      1000024         5                       # TP1    -->  W1SS+  BT                 
#         PDG         Width
DECAY   2000002  5.64618540E+00   # UPR   decays
#          BR          NDA       ID1       ID2       ID3       ID4
      1.00000000E+00    2      1000022         2                       # UPR    -->  Z1SS   UP                 
#         PDG         Width
DECAY   2000001  1.41176164E+00   # DNR   decays
#          BR          NDA       ID1       ID2       ID3       ID4
      1.00000000E+00    2      1000022         1                       # DNR    -->  Z1SS   DN                 
#         PDG         Width
DECAY   2000003  1.41176164E+00   # STR   decays
#          BR          NDA       ID1       ID2       ID3       ID4
      1.00000000E+00    2      1000022         3                       # STR    -->  Z1SS   ST                 
#         PDG         Width
DECAY   2000004  5.64618301E+00   # CHR   decays
#          BR          NDA       ID1       ID2       ID3       ID4
      1.00000000E+00    2      1000022         4                       # CHR    -->  Z1SS   CH                 
#         PDG         Width
DECAY   2000005  8.58104587E-01   # BT2   decays
#          BR          NDA       ID1       ID2       ID3       ID4
      9.81917918E-01    2      1000022         5                       # BT2    -->  Z1SS   BT                 
      6.79949904E-03    2      1000023         5                       # BT2    -->  Z2SS   BT                 
      4.13770940E-05    2      1000025         5                       # BT2    -->  Z3SS   BT                 
      1.12411864E-02    2      1000021         5                       # BT2    -->  GLSS   BT                 
#         PDG         Width
DECAY   2000006  3.02202773E+00   # TP2   decays
#          BR          NDA       ID1       ID2       ID3       ID4
      5.73135563E-04    2      1000024         5                       # TP2    -->  W1SS+  BT                 
      9.99426842E-01    2      1000022         6                       # TP2    -->  Z1SS   TP                 
#         PDG         Width
DECAY   1000011  3.21321607E+00   # EL-   decays
#          BR          NDA       ID1       ID2       ID3       ID4
      9.88252163E-01    2      1000022        11                       # EL-    -->  Z1SS   E-                 
      4.01079236E-03    2      1000023        11                       # EL-    -->  Z2SS   E-                 
      7.73706101E-03    2     -1000024        12                       # EL-    -->  W1SS-  NUE                
#         PDG         Width
DECAY   1000013  3.21321607E+00   # MUL-  decays
#          BR          NDA       ID1       ID2       ID3       ID4
      9.88252223E-01    2      1000022        13                       # MUL-   -->  Z1SS   MU-                
      4.01078723E-03    2      1000023        13                       # MUL-   -->  Z2SS   MU-                
      7.73706147E-03    2     -1000024        14                       # MUL-   -->  W1SS-  NUM                
#         PDG         Width
DECAY   1000015  5.26577532E-01   # TAU1- decays
#          BR          NDA       ID1       ID2       ID3       ID4
      1.00000000E+00    2      1000022        15                       # TAU1-  -->  Z1SS   TAU-               
#         PDG         Width
DECAY   1000012  3.21375442E+00   # NUEL  decays
#          BR          NDA       ID1       ID2       ID3       ID4
      9.88480926E-01    2      1000022        12                       # NUEL   -->  Z1SS   NUE                
      3.73607245E-03    2      1000023        12                       # NUEL   -->  Z2SS   NUE                
      7.74390623E-03    2      1000024        11                       # NUEL   -->  W1SS+  E-                 
      3.90730893E-05    3     -1000015        11        16             # NUEL   -->  TAU1+  E-     NUT         
#         PDG         Width
DECAY   1000014  3.21375442E+00   # NUML  decays
#          BR          NDA       ID1       ID2       ID3       ID4
      9.88480926E-01    2      1000022        14                       # NUML   -->  Z1SS   NUM                
      3.73607245E-03    2      1000023        14                       # NUML   -->  Z2SS   NUM                
      7.74389459E-03    2      1000024        13                       # NUML   -->  W1SS+  MU-                
      3.90743953E-05    3     -1000015        13        16             # NUML   -->  TAU1+  MU-    NUT         
#         PDG         Width
DECAY   1000016  9.25701112E-02   # NUTL  decays
#          BR          NDA       ID1       ID2       ID3       ID4
      1.00000000E+00    2      1000022        16                       # NUTL   -->  Z1SS   NUT                
#         PDG         Width
DECAY   2000011  1.27071218E+01   # ER-   decays
#          BR          NDA       ID1       ID2       ID3       ID4
      1.00000000E+00    2      1000022        11                       # ER-    -->  Z1SS   E-                 
#         PDG         Width
DECAY   2000013  1.27071218E+01   # MUR-  decays
#          BR          NDA       ID1       ID2       ID3       ID4
      1.00000000E+00    2      1000022        13                       # MUR-   -->  Z1SS   MU-                
#         PDG         Width
DECAY   2000015  1.34264842E-01   # TAU2- decays
#          BR          NDA       ID1       ID2       ID3       ID4
      1.00000000E+00    2      1000022        15                       # TAU2-  -->  Z1SS   TAU-               
#         PDG         Width
DECAY   1000023  1.12443390E+01   # Z2SS  decays
#          BR          NDA       ID1       ID2       ID3       ID4
      2.64716744E-02    2      1000022        23                       # Z2SS   -->  Z1SS   Z0                 
      2.01458024E-05    3      1000022         2        -2             # Z2SS   -->  Z1SS   UP     UB          
      1.98351972E-05    3      1000022         1        -1             # Z2SS   -->  Z1SS   DN     DB          
      1.98351972E-05    3      1000022         3        -3             # Z2SS   -->  Z1SS   ST     SB          
      2.01457533E-05    3      1000022         4        -4             # Z2SS   -->  Z1SS   CH     CB          
      4.41181764E-05    3      1000022         5        -5             # Z2SS   -->  Z1SS   BT     BB          
      6.07677102E-05    3      1000022        11       -11             # Z2SS   -->  Z1SS   E-     E+          
      6.07677102E-05    3      1000022        13       -13             # Z2SS   -->  Z1SS   MU-    MU+         
      5.92743199E-05    3      1000022        12       -12             # Z2SS   -->  Z1SS   NUE    ANUE        
      5.92743199E-05    3      1000022        14       -14             # Z2SS   -->  Z1SS   NUM    ANUM        
      4.25337404E-02    2      1000022        25                       # Z2SS   -->  Z1SS   HL0                
      5.56578068E-03    2      1000015       -15                       # Z2SS   -->  TAU1-  TAU+               
      5.56578068E-03    2     -1000015        15                       # Z2SS   -->  TAU1+  TAU-               
      2.35974625E-01    2      2000015       -15                       # Z2SS   -->  TAU2-  TAU+               
      2.35974625E-01    2     -2000015        15                       # Z2SS   -->  TAU2+  TAU-               
      2.23774821E-01    2      1000016       -16                       # Z2SS   -->  NUTL   ANUT               
      2.23774821E-01    2     -1000016        16                       # Z2SS   -->  ANUTL  NUT                
#         PDG         Width
DECAY   1000025  2.11664677E+00   # Z3SS  decays
#          BR          NDA       ID1       ID2       ID3       ID4
      1.50540203E-04    3     -1000024         2        -1             # Z3SS   -->  W1SS-  UP     DB          
      5.01800678E-05    3     -1000024        12       -11             # Z3SS   -->  W1SS-  NUE    E+          
      5.01800678E-05    3     -1000024        14       -13             # Z3SS   -->  W1SS-  NUM    MU+         
      1.50540203E-04    3      1000024         1        -2             # Z3SS   -->  W1SS+  DN     UB          
      5.01800678E-05    3      1000024        11       -12             # Z3SS   -->  W1SS+  E-     ANUE        
      5.01800678E-05    3      1000024        13       -14             # Z3SS   -->  W1SS+  MU-    ANUM        
      1.50540203E-04    3     -1000024         4        -3             # Z3SS   -->  W1SS-  CH     SB          
      5.01800678E-05    3     -1000024        16       -15             # Z3SS   -->  W1SS-  NUT    TAU+        
      1.50540203E-04    3      1000024         3        -4             # Z3SS   -->  W1SS+  ST     CB          
      5.01800678E-05    3      1000024        15       -16             # Z3SS   -->  W1SS+  TAU-   ANUT        
      4.70486313E-01    2      1000022        23                       # Z3SS   -->  Z1SS   Z0                 
      2.17442226E-04    3      1000022         5        -5             # Z3SS   -->  Z1SS   BT     BB          
      1.99513270E-05    3      1000022        15       -15             # Z3SS   -->  Z1SS   TAU-   TAU+        
      3.86706779E-05    3      1000023         2        -2             # Z3SS   -->  Z2SS   UP     UB          
      4.98660957E-05    3      1000023         1        -1             # Z3SS   -->  Z2SS   DN     DB          
      4.98660957E-05    3      1000023         3        -3             # Z3SS   -->  Z2SS   ST     SB          
      3.86706779E-05    3      1000023         4        -4             # Z3SS   -->  Z2SS   CH     CB          
      4.68147373E-05    3      1000023         5        -5             # Z3SS   -->  Z2SS   BT     BB          
      1.13120977E-05    3      1000023        11       -11             # Z3SS   -->  Z2SS   E-     E+          
      1.13120977E-05    3      1000023        13       -13             # Z3SS   -->  Z2SS   MU-    MU+         
      1.11805066E-05    3      1000023        15       -15             # Z3SS   -->  Z2SS   TAU-   TAU+        
      2.25075182E-05    3      1000023        12       -12             # Z3SS   -->  Z2SS   NUE    ANUE        
      2.25075182E-05    3      1000023        14       -14             # Z3SS   -->  Z2SS   NUM    ANUM        
      2.25075182E-05    3      1000023        16       -16             # Z3SS   -->  Z2SS   NUT    ANUT        
      2.90397435E-01    2      1000022        25                       # Z3SS   -->  Z1SS   HL0                
      2.65305825E-05    2      1000005        -5                       # Z3SS   -->  BT1    BB                 
      2.65305825E-05    2     -1000005         5                       # Z3SS   -->  BB1    BT                 
      5.92420287E-02    2      1000015       -15                       # Z3SS   -->  TAU1-  TAU+               
      5.92420287E-02    2     -1000015        15                       # Z3SS   -->  TAU1+  TAU-               
      5.89028746E-02    2      2000015       -15                       # Z3SS   -->  TAU2-  TAU+               
      5.89028746E-02    2     -2000015        15                       # Z3SS   -->  TAU2+  TAU-               
      6.53714291E-04    2      1000016       -16                       # Z3SS   -->  NUTL   ANUT               
      6.53714291E-04    2     -1000016        16                       # Z3SS   -->  ANUTL  NUT                
#         PDG         Width
DECAY   1000035  1.31010647E+01   # Z4SS  decays
#          BR          NDA       ID1       ID2       ID3       ID4
      3.96625735E-02    2      1000024       -24                       # Z4SS   -->  W1SS+  W-                 
      3.96625735E-02    2     -1000024        24                       # Z4SS   -->  W1SS-  W+                 
      2.50442177E-02    2      1000022        23                       # Z4SS   -->  Z1SS   Z0                 
      3.82130221E-02    2      1000022        25                       # Z4SS   -->  Z1SS   HL0                
      2.66060706E-05    2      1000022        35                       # Z4SS   -->  Z1SS   HH0                
      2.19792582E-05    2      1000022        36                       # Z4SS   -->  Z1SS   HA0                
      1.46309077E-03    2      1000002        -2                       # Z4SS   -->  UPL    UB                 
      1.46309077E-03    2     -1000002         2                       # Z4SS   -->  UBL    UP                 
      1.42066355E-03    2      1000001        -1                       # Z4SS   -->  DNL    DB                 
      1.42066355E-03    2     -1000001         1                       # Z4SS   -->  DBL    DN                 
      1.42065657E-03    2      1000003        -3                       # Z4SS   -->  STL    SB                 
      1.42065657E-03    2     -1000003         3                       # Z4SS   -->  SBL    ST                 
      1.46274327E-03    2      1000004        -4                       # Z4SS   -->  CHL    CB                 
      1.46274327E-03    2     -1000004         4                       # Z4SS   -->  CBL    CH                 
      6.26759080E-04    2      1000005        -5                       # Z4SS   -->  BT1    BB                 
      6.26759080E-04    2     -1000005         5                       # Z4SS   -->  BB1    BT                 
      6.81959849E-04    2      2000005        -5                       # Z4SS   -->  BT2    BB                 
      6.81959849E-04    2     -2000005         5                       # Z4SS   -->  BB2    BT                 
      4.67869366E-04    2      1000011       -11                       # Z4SS   -->  EL-    E+                 
      4.67869366E-04    2     -1000011        11                       # Z4SS   -->  EL+    E-                 
      4.67868726E-04    2      1000013       -13                       # Z4SS   -->  MUL-   MU+                
      4.67868726E-04    2     -1000013        13                       # Z4SS   -->  MUL+   MU-                
      4.82430635E-03    2      1000015       -15                       # Z4SS   -->  TAU1-  TAU+               
      4.82430635E-03    2     -1000015        15                       # Z4SS   -->  TAU1+  TAU-               
      2.06486702E-01    2      2000015       -15                       # Z4SS   -->  TAU2-  TAU+               
      2.06486702E-01    2     -2000015        15                       # Z4SS   -->  TAU2+  TAU-               
      5.01462608E-04    2      1000012       -12                       # Z4SS   -->  NUEL   ANUE               
      5.01462608E-04    2     -1000012        12                       # Z4SS   -->  ANUEL  NUE                
      5.01462608E-04    2      1000014       -14                       # Z4SS   -->  NUML   ANUM               
      5.01462608E-04    2     -1000014        14                       # Z4SS   -->  ANUML  NUM                
      2.08358914E-01    2      1000016       -16                       # Z4SS   -->  NUTL   ANUT               
      2.08358914E-01    2     -1000016        16                       # Z4SS   -->  ANUTL  NUT                
#         PDG         Width
DECAY   1000024  1.12444401E+01   # W1SS+ decays
#          BR          NDA       ID1       ID2       ID3       ID4
      3.99657947E-05    3      1000022         2        -1             # W1SS+  -->  Z1SS   UP     DB          
      3.99657401E-05    3      1000022         4        -3             # W1SS+  -->  Z1SS   CH     SB          
      1.20053977E-04    3      1000022       -11        12             # W1SS+  -->  Z1SS   E+     NUE         
      1.20053977E-04    3      1000022       -13        14             # W1SS+  -->  Z1SS   MU+    NUM         
      6.87520951E-02    2      1000022        24                       # W1SS+  -->  Z1SS   W+                 
      4.75317895E-01    2      1000016       -15                       # W1SS+  -->  NUTL   TAU+               
      1.10212285E-02    2     -1000015        16                       # W1SS+  -->  TAU1+  NUT                
      4.44588721E-01    2     -2000015        16                       # W1SS+  -->  TAU2+  NUT                
#         PDG         Width
DECAY   1000037  1.29809780E+01   # W2SS+ decays
#          BR          NDA       ID1       ID2       ID3       ID4
      6.36246651E-02    2      1000022        24                       # W2SS+  -->  Z1SS   W+                 
      2.59781500E-05    2      1000022        37                       # W2SS+  -->  Z1SS   H+                 
      4.00138758E-02    2      1000023        24                       # W2SS+  -->  Z2SS   W+                 
      2.31241756E-05    3      1000025         2        -1             # W2SS+  -->  Z3SS   UP     DB          
      2.31241756E-05    3      1000025         4        -3             # W2SS+  -->  Z3SS   CH     SB          
      2.90924869E-03    2      1000002        -1                       # W2SS+  -->  UPL    DB                 
      2.91306712E-03    2     -1000001         2                       # W2SS+  -->  DBL    UP                 
      2.90918699E-03    2      1000004        -3                       # W2SS+  -->  CHL    SB                 
      3.02948919E-03    2     -1000003         4                       # W2SS+  -->  SBL    CH                 
      1.65253936E-04    2      1000006        -5                       # W2SS+  -->  TP1    BB                 
      4.95946920E-03    2      2000006        -5                       # W2SS+  -->  TP2    BB                 
      9.77390213E-04    2      1000012       -11                       # W2SS+  -->  NUEL   E+                 
      9.77388932E-04    2      1000014       -13                       # W2SS+  -->  NUML   MU+                
      4.15268451E-01    2      1000016       -15                       # W2SS+  -->  NUTL   TAU+               
      9.78823053E-04    2     -1000011        12                       # W2SS+  -->  EL+    NUE                
      9.78823053E-04    2     -1000013        14                       # W2SS+  -->  MUL+   NUM                
      9.65028629E-03    2     -1000015        16                       # W2SS+  -->  TAU1+  NUT                
      4.21829730E-01    2     -2000015        16                       # W2SS+  -->  TAU2+  NUT                
      2.87425350E-02    2      1000024        23                       # W2SS+  -->  W1SS+  Z0                 
#         PDG         Width
DECAY        25  3.96458246E-03   # HL0   decays
#          BR          NDA       ID1       ID2       ID3       ID4
      2.06369441E-04    2           13       -13                       # HL0    -->  MU-    MU+                
      5.90204373E-02    2           15       -15                       # HL0    -->  TAU-   TAU+               
      2.47927336E-03    2            3        -3                       # HL0    -->  ST     SB                 
      8.14483881E-01    2            5        -5                       # HL0    -->  BT     BB                 
      3.68023440E-02    2            4        -4                       # HL0    -->  CH     CB                 
      1.77652994E-03    2           22        22                       # HL0    -->  GM     GM                 
      3.86258177E-02    2           21        21                       # HL0    -->  GL     GL                 
      2.40830937E-03    3           24        11       -12             # HL0    -->  W+     E-     ANUE        
      2.40830937E-03    3           24        13       -14             # HL0    -->  W+     MU-    ANUM        
      2.40830937E-03    3           24        15       -16             # HL0    -->  W+     TAU-   ANUT        
      7.22492766E-03    3           24        -2         1             # HL0    -->  W+     UB     DN          
      7.22492766E-03    3           24        -4         3             # HL0    -->  W+     CB     ST          
      2.40830937E-03    3          -24       -11        12             # HL0    -->  W-     E+     NUE         
      2.40830937E-03    3          -24       -13        14             # HL0    -->  W-     MU+    NUM         
      2.40830937E-03    3          -24       -15        16             # HL0    -->  W-     TAU+   NUT         
      7.22492766E-03    3          -24         2        -1             # HL0    -->  W-     UP     DB          
      7.22492766E-03    3          -24         4        -3             # HL0    -->  W-     CH     SB          
      1.97015470E-04    3           23        12       -12             # HL0    -->  Z0     NUE    ANUE        
      1.97015470E-04    3           23        14       -14             # HL0    -->  Z0     NUM    ANUM        
      1.97015470E-04    3           23        16       -16             # HL0    -->  Z0     NUT    ANUT        
      9.91559064E-05    3           23        11       -11             # HL0    -->  Z0     E-     E+          
      9.91559064E-05    3           23        13       -13             # HL0    -->  Z0     MU-    MU+         
      9.91559064E-05    3           23        15       -15             # HL0    -->  Z0     TAU-   TAU+        
      3.39699705E-04    3           23         2        -2             # HL0    -->  Z0     UP     UB          
      3.39699705E-04    3           23         4        -4             # HL0    -->  Z0     CH     CB          
      4.37616924E-04    3           23         1        -1             # HL0    -->  Z0     DN     DB          
      4.37616924E-04    3           23         3        -3             # HL0    -->  Z0     ST     SB          
      4.37616924E-04    3           23         5        -5             # HL0    -->  Z0     BT     BB          
      3.75156233E-04    2      1000022   1000022                       # HL0    -->  Z1SS   Z1SS               
#         PDG         Width
DECAY        35  5.81148071E+01   # HH0   decays
#          BR          NDA       ID1       ID2       ID3       ID4
      3.10689757E-05    2           13       -13                       # HH0    -->  MU-    MU+                
      8.89860559E-03    2           15       -15                       # HH0    -->  TAU-   TAU+               
      3.61692451E-04    2            3        -3                       # HH0    -->  ST     SB                 
      8.04436803E-02    2            5        -5                       # HH0    -->  BT     BB                 
      1.89102739E-02    2            6        -6                       # HH0    -->  TP     TB                 
      3.30487164E-05    2      1000022   1000022                       # HH0    -->  Z1SS   Z1SS               
      1.98759935E-05    2      1000022   1000023                       # HH0    -->  Z1SS   Z2SS               
      3.60743725E-05    2           25        25                       # HH0    -->  HL0    HL0                
      4.45632875E-01    2      1000015  -2000015                       # HH0    -->  TAU1-  TAU2+              
      4.45632875E-01    2      2000015  -1000015                       # HH0    -->  TAU2-  TAU1+              
#         PDG         Width
DECAY        36  5.84246826E+01   # HA0   decays
#          BR          NDA       ID1       ID2       ID3       ID4
      3.07030059E-05    2           13       -13                       # HA0    -->  MU-    MU+                
      8.79380200E-03    2           15       -15                       # HA0    -->  TAU-   TAU+               
      3.57448356E-04    2            3        -3                       # HA0    -->  ST     SB                 
      7.95567557E-02    2            5        -5                       # HA0    -->  BT     BB                 
      1.88479461E-02    2            6        -6                       # HA0    -->  TP     TB                 
      3.42438580E-05    2      1000022   1000022                       # HA0    -->  Z1SS   Z1SS               
      5.32986815E-05    2      1000022   1000023                       # HA0    -->  Z1SS   Z2SS               
      4.46162939E-01    2      1000015  -2000015                       # HA0    -->  TAU1-  TAU2+              
      4.46162939E-01    2      2000015  -1000015                       # HA0    -->  TAU2-  TAU1+              
#         PDG         Width
DECAY        37  5.76763115E+01   # H+    decays
#          BR          NDA       ID1       ID2       ID3       ID4
      3.13218552E-05    2           14       -13                       # H+     -->  NUM    MU+                
      8.97104945E-03    2           16       -15                       # H+     -->  NUT    TAU+               
      3.37856764E-04    2            4        -3                       # H+     -->  CH     SB                 
      9.20318216E-02    2            6        -5                       # H+     -->  TP     BB                 
      1.12016605E-04    2      1000024   1000022                       # H+     -->  W1SS+  Z1SS               
      8.98515940E-01    2     -1000015   1000016                       # H+     -->  TAU1+  NUTL               
