#
#                              ======================
#                              | THE SUSYHIT OUTPUT |
#                              ======================
#
#
#              ------------------------------------------------------
#              |     This is the output of the SUSY-HIT package     |
#              |  created by A.Djouadi, M.Muehlleitner and M.Spira. |
#              |  In case of problems with SUSY-HIT email to        |
#              |           margarete.muehlleitner@kit.edu           |
#              |           michael.spira@psi.ch                     |
#              |           abdelhak.djouadi@cern.ch                 |
#              ------------------------------------------------------
#
#              ------------------------------------------------------
#              |  SUSY Les Houches Accord - MSSM Spectrum + Decays  |
#              |              based on the decay programs           |
#              |                                                    |
#              |                     SDECAY 1.5                     |
#              |                                                    |
#              |  Authors: M.Muhlleitner, A.Djouadi and Y.Mambrini  |
#              |  Ref.:    Comput.Phys.Commun.168(2005)46           |
#              |           [hep-ph/0311167]                         |
#              |                                                    |
#              |                     HDECAY 3.4                     |
#              |                                                    |
#              |  By: A.Djouadi,J.Kalinowski,M.Muhlleitner,M.Spira  |
#              |  Ref.:    Comput.Phys.Commun.108(1998)56           |
#              |           [hep-ph/9704448]                         |
#              |                                                    |
#              |                                                    |
#              |  If not stated otherwise all DRbar couplings and   |
#              |  soft SUSY breaking masses are given at the scale  |
#              |  Q=  0.15475375E+04
#              |                                                    |
#              ------------------------------------------------------
#
#
BLOCK DCINFO  # Decay Program information
     1   SDECAY/HDECAY # decay calculator
     2   1.5  /3.4    # version number
#
BLOCK SPINFO  # Spectrum calculator information
     1    SOFTSUSY    # spectrum calculator                
     2    3.7.3       # version number                     
#
BLOCK MODSEL  # Model selection
     1     0   #  nonUniversal                                     
#
BLOCK SMINPUTS  # Standard Model inputs
         1     1.27934000E+02   # alpha_em^-1(M_Z)^MSbar
         2     1.16639000E-05   # G_F [GeV^-2]
         3     1.17200000E-01   # alpha_S(M_Z)^MSbar
         4     9.11870000E+01   # M_Z pole mass
         5     4.19000000E+00   # mb(mb)^MSbar
         6     1.72500000E+02   # mt pole mass
         7     1.77690000E+00   # mtau pole mass
#
BLOCK MINPAR  # Input parameters - minimal models
         3     2.00000000E+01   # tanb                
#
BLOCK EXTPAR  # Input parameters - non-minimal models
         0    -1.00000000E+00   # Set                 
         1     1.99900000E+02   # M_1(MX)             
         2     3.99900000E+02   # M_2(MX)             
         3     2.20000000E+03   # M_3(MX)             
        11     2.94338000E+03   # At(MX)              
        12     0.00000000E+00   # Ab(MX)              
        13     0.00000000E+00   # Atau(MX)            
        23    -3.00000000E+03   # mu(MX)              
        25     2.00000000E+01   # tan                 
        26     3.00000000E+03   # mA(pole)            
        31     3.00000000E+03   # meL(MX)             
        32     3.00000000E+03   # mmuL(MX)            
        33     3.00000000E+03   # mtauL(MX)           
        34     3.00000000E+03   # meR(MX)             
        35     3.00000000E+03   # mmuR(MX)            
        36     3.00000000E+03   # mtauR(MX)           
        41     3.00000000E+03   # mqL1(MX)            
        42     3.00000000E+03   # mqL2(MX)            
        43     7.99900000E+02   # mqL3(MX)            
        44     3.00000000E+03   # muR(MX)             
        45     3.00000000E+03   # mcR(MX)             
        46     3.00000000E+03   # mtR(MX)             
        47     3.00000000E+03   # mdR(MX)             
        48     3.00000000E+03   # msR(MX)             
        49     3.00000000E+03   # mbR(MX)             
#
BLOCK MASS  # Mass Spectrum
# PDG code           mass       particle
        24     8.03987331E+01   # W+
        25     1.25203443E+02   # h
        35     3.00007018E+03   # H
        36     2.99999995E+03   # A
        37     3.00109258E+03   # H+
         5     4.81337004E+00   # b-quark pole mass calculated from mb(mb)_Msbar
   1000001     3.03706216E+03   # ~d_L
   2000001     3.03184400E+03   # ~d_R
   1000002     3.03615122E+03   # ~u_L
   2000002     3.03360604E+03   # ~u_R
   1000003     3.03706216E+03   # ~s_L
   2000003     3.03184400E+03   # ~s_R
   1000004     3.03615122E+03   # ~c_L
   2000004     3.03360604E+03   # ~c_R
   1000005     8.95773376E+02   # ~b_1
   2000005     3.03019367E+03   # ~b_2
   1000006     8.93445109E+02   # ~t_1
   2000006     3.02330865E+03   # ~t_2
   1000011     3.00662634E+03   # ~e_L
   2000011     3.00138488E+03   # ~e_R
   1000012     3.00523535E+03   # ~nu_eL
   1000013     3.00662634E+03   # ~mu_L
   2000013     3.00138488E+03   # ~mu_R
   1000014     3.00523535E+03   # ~nu_muL
   1000015     2.98610508E+03   # ~tau_1
   2000015     3.02183493E+03   # ~tau_2
   1000016     3.00523586E+03   # ~nu_tauL
   1000021     2.34584287E+03   # ~g
   1000022     2.01562929E+02   # ~chi_10
   1000023     4.26889343E+02   # ~chi_20
   1000025    -2.99804099E+03   # ~chi_30
   1000035     2.99813420E+03   # ~chi_40
   1000024     4.27052176E+02   # ~chi_1+
   1000037     2.99902350E+03   # ~chi_2+
#
BLOCK NMIX  # Neutralino Mixing Matrix
  1  1     9.99891556E-01   # N_11
  1  2     1.90674728E-04   # N_12
  1  3    -1.47234249E-02   # N_13
  1  4    -2.45824967E-04   # N_14
  2  1     1.95734648E-04   # N_21
  2  2     9.99654238E-01   # N_22
  2  3     2.62019354E-02   # N_23
  2  4     2.19665707E-03   # N_24
  3  1    -1.02374448E-02   # N_31
  3  2     1.69748497E-02   # N_32
  3  3    -7.06827580E-01   # N_33
  3  4     7.07108070E-01   # N_34
  4  1     1.05845377E-02   # N_41
  4  2    -2.00804172E-02   # N_42
  4  3     7.06747092E-01   # N_43
  4  4     7.07102038E-01   # N_44
#
BLOCK UMIX  # Chargino Mixing Matrix U
  1  1     9.99313545E-01   # U_11
  1  2     3.70464518E-02   # U_12
  2  1    -3.70464518E-02   # U_21
  2  2     9.99313545E-01   # U_22
#
BLOCK VMIX  # Chargino Mixing Matrix V
  1  1     9.99995181E-01   # V_11
  1  2    -3.10455780E-03   # V_12
  2  1    -3.10455780E-03   # V_21
  2  2    -9.99995181E-01   # V_22
#
BLOCK STOPMIX  # Stop Mixing Matrix
  1  1     9.98535906E-01   # cos(theta_t)
  1  2    -5.40929240E-02   # sin(theta_t)
  2  1     5.40929240E-02   # -sin(theta_t)
  2  2     9.98535906E-01   # cos(theta_t)
#
BLOCK SBOTMIX  # Sbottom Mixing Matrix
  1  1     9.99715236E-01   # cos(theta_b)
  1  2    -2.38630868E-02   # sin(theta_b)
  2  1     2.38630868E-02   # -sin(theta_b)
  2  2     9.99715236E-01   # cos(theta_b)
#
BLOCK STAUMIX  # Stau Mixing Matrix
  1  1    -7.06936696E-01   # cos(theta_tau)
  1  2     7.07276825E-01   # sin(theta_tau)
  2  1    -7.07276825E-01   # -sin(theta_tau)
  2  2    -7.06936696E-01   # cos(theta_tau)
#
BLOCK ALPHA  # Higgs mixing
          -5.00146259E-02   # Mixing angle in the neutral Higgs boson sector
#
BLOCK HMIX Q=  1.54753748E+03  # DRbar Higgs Parameters
         1    -3.00000000E+03   # mu(Q)MSSM           
         2     2.00000000E+01   # tan                 
         3     2.44003331E+02   # higgs               
         4     1.04844493E+07   # mA^2(Q)MSSM         
#
BLOCK GAUGE Q=  1.54753748E+03  # The gauge couplings
     1     3.62256404E-01   # gprime(Q) DRbar
     2     6.38189525E-01   # g(Q) DRbar
     3     1.02563834E+00   # g3(Q) DRbar
#
BLOCK AU Q=  1.54753748E+03  # The trilinear couplings
  1  1     2.27974779E-06   # A_u(Q) DRbar
  2  2     2.27978238E-06   # A_c(Q) DRbar
  3  3     2.94338000E+03   # A_t(Q) DRbar
#
BLOCK AD Q=  1.54753748E+03  # The trilinear couplings
  1  1     8.00944643E-07   # A_d(Q) DRbar
  2  2     8.01040899E-07   # A_s(Q) DRbar
  3  3     1.65370165E-06   # A_b(Q) DRbar
#
BLOCK AE Q=  1.54753748E+03  # The trilinear couplings
  1  1     3.59239058E-07   # A_e(Q) DRbar
  2  2     3.59256886E-07   # A_mu(Q) DRbar
  3  3     3.64299931E-07   # A_tau(Q) DRbar
#
BLOCK Yu Q=  1.54753748E+03  # The Yukawa couplings
  1  1     0.00000000E+00   # y_u(Q) DRbar
  2  2     0.00000000E+00   # y_c(Q) DRbar
  3  3     8.52252908E-01   # y_t(Q) DRbar
#
BLOCK Yd Q=  1.54753748E+03  # The Yukawa couplings
  1  1     0.00000000E+00   # y_d(Q) DRbar
  2  2     0.00000000E+00   # y_s(Q) DRbar
  3  3     3.86111432E-01   # y_b(Q) DRbar
#
BLOCK Ye Q=  1.54753748E+03  # The Yukawa couplings
  1  1     0.00000000E+00   # y_e(Q) DRbar
  2  2     0.00000000E+00   # y_mu(Q) DRbar
  3  3     2.02448661E-01   # y_tau(Q) DRbar
#
BLOCK MSOFT Q=  1.54753748E+03  # The soft SUSY breaking masses at the scale Q
         1     1.99900000E+02   # M_1(Q)              
         2     3.99900000E+02   # M_2(Q)              
         3     2.20000000E+03   # M_3(Q)              
        21    -4.02006192E+04   # M^2_Hd              
        22    -9.05693151E+06   # M^2_Hu              
        31     3.00000000E+03   # M_eL                
        32     3.00000000E+03   # M_muL               
        33     3.00000000E+03   # M_tauL              
        34     3.00000000E+03   # M_eR                
        35     3.00000000E+03   # M_muR               
        36     3.00000000E+03   # M_tauR              
        41     3.00000000E+03   # M_q1L               
        42     3.00000000E+03   # M_q2L               
        43     7.99899993E+02   # M_q3L               
        44     3.00000000E+03   # M_uR                
        45     3.00000000E+03   # M_cR                
        46     3.00000000E+03   # M_tR                
        47     3.00000000E+03   # M_dR                
        48     3.00000000E+03   # M_sR                
        49     3.00000000E+03   # M_bR                
#
#
#
#                             =================
#                             |The decay table|
#                             =================
#
# - The QCD corrections to the decays gluino -> squark  + quark
#                                     squark -> gaugino + quark_prime
#                                     squark -> squark_prime + Higgs
#                                     squark -> gluino  + quark
#   are included.
#
# - The multi-body decays for the inos, stops and sbottoms are included.
#
# - The loop induced decays for the gluino, neutralinos and stops
#   are included.
#
# - The SUSY decays of the top quark are included.
#
#
#         PDG            Width
DECAY         6     1.41382309E+00   # top decays
#          BR         NDA      ID1       ID2
     1.00000000E+00    2           5        24   # BR(t ->  b    W+)
#
#         PDG            Width
DECAY   1000021     6.94567623E+01   # gluino decays
#          BR         NDA      ID1       ID2
     2.47969577E-01    2     1000005        -5   # BR(~g -> ~b_1  bb)
     2.47969577E-01    2    -1000005         5   # BR(~g -> ~b_1* b )
     2.52030423E-01    2     1000006        -6   # BR(~g -> ~t_1  tb)
     2.52030423E-01    2    -1000006         6   # BR(~g -> ~t_1* t )
#
#         PDG            Width
DECAY   1000006     6.50917956E+00   # stop1 decays
#          BR         NDA      ID1       ID2
     1.72229905E-02    2     1000022         6   # BR(~t_1 -> ~chi_10 t )
     3.01755211E-01    2     1000023         6   # BR(~t_1 -> ~chi_20 t )
     6.81021798E-01    2     1000024         5   # BR(~t_1 -> ~chi_1+ b )
#
#         PDG            Width
DECAY   2000006     1.15304995E+02   # stop2 decays
#          BR         NDA      ID1       ID2
     5.70186769E-02    2     1000022         6   # BR(~t_2 -> ~chi_10 t )
     2.96803902E-04    2     1000023         6   # BR(~t_2 -> ~chi_20 t )
     0.00000000E+00    2     1000025         6   # BR(~t_2 -> ~chi_30 t )
     5.96934100E-04    2     1000024         5   # BR(~t_2 -> ~chi_1+ b )
     1.04259636E-04    2     1000037         5   # BR(~t_2 -> ~chi_2+ b )
     2.95807664E-01    2     1000021         6   # BR(~t_2 -> ~g      t )
     1.68645996E-01    2     1000006        25   # BR(~t_2 -> ~t_1    h )
     1.61240411E-01    2     1000006        23   # BR(~t_2 -> ~t_1    Z )
     3.16289254E-01    2     1000005        24   # BR(~t_2 -> ~b_1    W+)
#
#         PDG            Width
DECAY   1000005     6.32177329E+00   # sbottom1 decays
#          BR         NDA      ID1       ID2
     1.93148285E-02    2     1000022         5   # BR(~b_1 -> ~chi_10 b )
     3.53696916E-01    2     1000023         5   # BR(~b_1 -> ~chi_20 b )
     6.26988255E-01    2    -1000024         6   # BR(~b_1 -> ~chi_1- t )
#
#         PDG            Width
DECAY   2000005     5.42373159E+01   # sbottom2 decays
#          BR         NDA      ID1       ID2
     3.05399842E-02    2     1000022         5   # BR(~b_2 -> ~chi_10 b )
     1.64602087E-07    2     1000023         5   # BR(~b_2 -> ~chi_20 b )
     3.95733097E-05    2     1000025         5   # BR(~b_2 -> ~chi_30 b )
     3.87223274E-05    2     1000035         5   # BR(~b_2 -> ~chi_40 b )
     1.71861739E-07    2    -1000024         6   # BR(~b_2 -> ~chi_1- t )
     6.42634501E-01    2     1000021         5   # BR(~b_2 -> ~g      b )
     7.25737376E-02    2     1000005        25   # BR(~b_2 -> ~b_1    h )
     1.03565229E-01    2     1000005        23   # BR(~b_2 -> ~b_1    Z )
     1.50607916E-01    2     1000006       -24   # BR(~b_2 -> ~t_1    W-)
#
#         PDG            Width
DECAY   1000002     6.95434992E+01   # sup_L decays
#          BR         NDA      ID1       ID2
     5.98848211E-03    2     1000022         2   # BR(~u_L -> ~chi_10 u)
     1.62027131E-01    2     1000023         2   # BR(~u_L -> ~chi_20 u)
     2.73674839E-08    2     1000025         2   # BR(~u_L -> ~chi_30 u)
     3.93628495E-08    2     1000035         2   # BR(~u_L -> ~chi_40 u)
     3.24241703E-01    2     1000024         1   # BR(~u_L -> ~chi_1+ d)
     2.21748769E-09    2     1000037         1   # BR(~u_L -> ~chi_2+ d)
     5.07742615E-01    2     1000021         2   # BR(~u_L -> ~g      u)
#
#         PDG            Width
DECAY   2000002     4.17494925E+01   # sup_R decays
#          BR         NDA      ID1       ID2
     1.59142618E-01    2     1000022         2   # BR(~u_R -> ~chi_10 u)
     5.92112342E-09    2     1000023         2   # BR(~u_R -> ~chi_20 u)
     1.05899682E-08    2     1000025         2   # BR(~u_R -> ~chi_30 u)
     1.12626540E-08    2     1000035         2   # BR(~u_R -> ~chi_40 u)
     8.40857354E-01    2     1000021         2   # BR(~u_R -> ~g      u)
#
#         PDG            Width
DECAY   1000001     6.95941722E+01   # sdown_L decays
#          BR         NDA      ID1       ID2
     5.96191475E-03    2     1000022         1   # BR(~d_L -> ~chi_10 d)
     1.61938886E-01    2     1000023         1   # BR(~d_L -> ~chi_20 d)
     4.52708144E-08    2     1000025         1   # BR(~d_L -> ~chi_30 d)
     6.14402200E-08    2     1000035         1   # BR(~d_L -> ~chi_40 d)
     3.23671438E-01    2    -1000024         2   # BR(~d_L -> ~chi_1- u)
     3.30645596E-07    2    -1000037         2   # BR(~d_L -> ~chi_2- u)
     5.08427324E-01    2     1000021         1   # BR(~d_L -> ~g      d)
#
#         PDG            Width
DECAY   2000001     3.66237558E+01   # sdown_R decays
#          BR         NDA      ID1       ID2
     4.53263918E-02    2     1000022         1   # BR(~d_R -> ~chi_10 d)
     1.68637180E-09    2     1000023         1   # BR(~d_R -> ~chi_20 d)
     2.73575294E-09    2     1000025         1   # BR(~d_R -> ~chi_30 d)
     2.90875197E-09    2     1000035         1   # BR(~d_R -> ~chi_40 d)
     9.54673601E-01    2     1000021         1   # BR(~d_R -> ~g      d)
#
#         PDG            Width
DECAY   1000004     6.95434992E+01   # scharm_L decays
#          BR         NDA      ID1       ID2
     5.98848211E-03    2     1000022         4   # BR(~c_L -> ~chi_10 c)
     1.62027131E-01    2     1000023         4   # BR(~c_L -> ~chi_20 c)
     2.73674839E-08    2     1000025         4   # BR(~c_L -> ~chi_30 c)
     3.93628495E-08    2     1000035         4   # BR(~c_L -> ~chi_40 c)
     3.24241703E-01    2     1000024         3   # BR(~c_L -> ~chi_1+ s)
     2.21748769E-09    2     1000037         3   # BR(~c_L -> ~chi_2+ s)
     5.07742615E-01    2     1000021         4   # BR(~c_L -> ~g      c)
#
#         PDG            Width
DECAY   2000004     4.17494925E+01   # scharm_R decays
#          BR         NDA      ID1       ID2
     1.59142618E-01    2     1000022         4   # BR(~c_R -> ~chi_10 c)
     5.92112342E-09    2     1000023         4   # BR(~c_R -> ~chi_20 c)
     1.05899682E-08    2     1000025         4   # BR(~c_R -> ~chi_30 c)
     1.12626540E-08    2     1000035         4   # BR(~c_R -> ~chi_40 c)
     8.40857354E-01    2     1000021         4   # BR(~c_R -> ~g      c)
#
#         PDG            Width
DECAY   1000003     6.95941722E+01   # sstrange_L decays
#          BR         NDA      ID1       ID2
     5.96191475E-03    2     1000022         3   # BR(~s_L -> ~chi_10 s)
     1.61938886E-01    2     1000023         3   # BR(~s_L -> ~chi_20 s)
     4.52708144E-08    2     1000025         3   # BR(~s_L -> ~chi_30 s)
     6.14402200E-08    2     1000035         3   # BR(~s_L -> ~chi_40 s)
     3.23671438E-01    2    -1000024         4   # BR(~s_L -> ~chi_1- c)
     3.30645596E-07    2    -1000037         4   # BR(~s_L -> ~chi_2- c)
     5.08427324E-01    2     1000021         3   # BR(~s_L -> ~g      s)
#
#         PDG            Width
DECAY   2000003     3.66237558E+01   # sstrange_R decays
#          BR         NDA      ID1       ID2
     4.53263918E-02    2     1000022         3   # BR(~s_R -> ~chi_10 s)
     1.68637180E-09    2     1000023         3   # BR(~s_R -> ~chi_20 s)
     2.73575294E-09    2     1000025         3   # BR(~s_R -> ~chi_30 s)
     2.90875197E-09    2     1000035         3   # BR(~s_R -> ~chi_40 s)
     9.54673601E-01    2     1000021         3   # BR(~s_R -> ~g      s)
#
#         PDG            Width
DECAY   1000011     3.89371761E+01   # selectron_L decays
#          BR         NDA      ID1       ID2
     9.99383908E-02    2     1000022        11   # BR(~e_L -> ~chi_10 e-)
     3.00207652E-01    2     1000023        11   # BR(~e_L -> ~chi_20 e-)
     1.26797635E-09    2     1000025        11   # BR(~e_L -> ~chi_30 e-)
     1.97129945E-09    2     1000035        11   # BR(~e_L -> ~chi_40 e-)
     5.99853932E-01    2    -1000024        12   # BR(~e_L -> ~chi_1- nu_e)
     2.19074393E-08    2    -1000037        12   # BR(~e_L -> ~chi_2- nu_e)
#
#         PDG            Width
DECAY   2000011     1.55272156E+01   # selectron_R decays
#          BR         NDA      ID1       ID2
     9.99999962E-01    2     1000022        11   # BR(~e_R -> ~chi_10 e-)
     3.71196986E-08    2     1000023        11   # BR(~e_R -> ~chi_20 e-)
     5.24614299E-10    2     1000025        11   # BR(~e_R -> ~chi_30 e-)
     5.29979088E-10    2     1000035        11   # BR(~e_R -> ~chi_40 e-)
#
#         PDG            Width
DECAY   1000013     3.89371761E+01   # smuon_L decays
#          BR         NDA      ID1       ID2
     9.99383908E-02    2     1000022        13   # BR(~mu_L -> ~chi_10 mu-)
     3.00207652E-01    2     1000023        13   # BR(~mu_L -> ~chi_20 mu-)
     1.26797635E-09    2     1000025        13   # BR(~mu_L -> ~chi_30 mu-)
     1.97129945E-09    2     1000035        13   # BR(~mu_L -> ~chi_40 mu-)
     5.99853932E-01    2    -1000024        14   # BR(~mu_L -> ~chi_1- nu_mu)
     2.19074393E-08    2    -1000037        14   # BR(~mu_L -> ~chi_2- nu_mu)
#
#         PDG            Width
DECAY   2000013     1.55272156E+01   # smuon_R decays
#          BR         NDA      ID1       ID2
     9.99999962E-01    2     1000022        13   # BR(~mu_R -> ~chi_10 mu-)
     3.71196986E-08    2     1000023        13   # BR(~mu_R -> ~chi_20 mu-)
     5.24614299E-10    2     1000025        13   # BR(~mu_R -> ~chi_30 mu-)
     5.29979088E-10    2     1000035        13   # BR(~mu_R -> ~chi_40 mu-)
#
#         PDG            Width
DECAY   1000015     2.75004580E+01   # stau_1 decays
#          BR         NDA      ID1       ID2
     3.52834585E-01    2     1000022        15   # BR(~tau_1 -> ~chi_10  tau-)
     2.15874849E-01    2     1000023        15   # BR(~tau_1 -> ~chi_20  tau-)
     4.31290566E-01    2    -1000024        16   # BR(~tau_1 -> ~chi_1-  nu_tau)
#
#         PDG            Width
DECAY   2000015     2.69432355E+01   # stau_2 decays
#          BR         NDA      ID1       ID2
     3.60980703E-01    2     1000022        15   # BR(~tau_2 -> ~chi_10  tau-)
     2.13149000E-01    2     1000023        15   # BR(~tau_2 -> ~chi_20  tau-)
     1.29249475E-05    2     1000025        15   # BR(~tau_2 -> ~chi_30  tau-)
     1.11537494E-05    2     1000035        15   # BR(~tau_2 -> ~chi_40  tau-)
     4.25833338E-01    2    -1000024        16   # BR(~tau_2 -> ~chi_1-  nu_tau)
     1.28803757E-05    2    -1000037        16   # BR(~tau_2 -> ~chi_2-  nu_tau)
#
#         PDG            Width
DECAY   1000012     3.89392358E+01   # snu_eL decays
#          BR         NDA      ID1       ID2
     9.97518999E-02    2     1000022        12   # BR(~nu_eL -> ~chi_10 nu_e)
     2.99908099E-01    2     1000023        12   # BR(~nu_eL -> ~chi_20 nu_e)
     3.71254461E-09    2     1000025        12   # BR(~nu_eL -> ~chi_30 nu_e)
     4.74158400E-09    2     1000035        12   # BR(~nu_eL -> ~chi_40 nu_e)
     6.00339993E-01    2     1000024        11   # BR(~nu_eL -> ~chi_1+ e-)
     1.02793779E-10    2     1000037        11   # BR(~nu_eL -> ~chi_2+ e-)
#
#         PDG            Width
DECAY   1000014     3.89392358E+01   # snu_muL decays
#          BR         NDA      ID1       ID2
     9.97518999E-02    2     1000022        14   # BR(~nu_muL -> ~chi_10 nu_mu)
     2.99908099E-01    2     1000023        14   # BR(~nu_muL -> ~chi_20 nu_mu)
     3.71254461E-09    2     1000025        14   # BR(~nu_muL -> ~chi_30 nu_mu)
     4.74158400E-09    2     1000035        14   # BR(~nu_muL -> ~chi_40 nu_mu)
     6.00339993E-01    2     1000024        13   # BR(~nu_muL -> ~chi_1+ mu-)
     1.02793779E-10    2     1000037        13   # BR(~nu_muL -> ~chi_2+ mu-)
#
#         PDG            Width
DECAY   1000016     3.89425884E+01   # snu_tauL decays
#          BR         NDA      ID1       ID2
     9.97433292E-02    2     1000022        16   # BR(~nu_tauL -> ~chi_10 nu_tau)
     2.99882334E-01    2     1000023        16   # BR(~nu_tauL -> ~chi_20 nu_tau)
     3.71275006E-09    2     1000025        16   # BR(~nu_tauL -> ~chi_30 nu_tau)
     4.74185522E-09    2     1000035        16   # BR(~nu_tauL -> ~chi_40 nu_tau)
     6.00373307E-01    2     1000024        15   # BR(~nu_tauL -> ~chi_1+ tau-)
     1.02133601E-06    2     1000037        15   # BR(~nu_tauL -> ~chi_2+ tau-)
#
#         PDG            Width
DECAY   1000024     1.94486564E-06   # chargino1+ decays
#          BR         NDA      ID1       ID2
     1.00000000E+00    2     1000022        24   # BR(~chi_1+ -> ~chi_10  W+)
#
#         PDG            Width
DECAY   1000037     9.02675853E+01   # chargino2+ decays
#          BR         NDA      ID1       ID2
     1.36564584E-01    2     1000006        -5   # BR(~chi_2+ -> ~t_1     bb)
     6.55059012E-01    2    -1000005         6   # BR(~chi_2+ -> ~b_1*    t )
     3.90047466E-07    2    -1000015        16   # BR(~chi_2+ -> ~tau_1+  nu_tau)
     6.24553830E-02    2     1000024        23   # BR(~chi_2+ -> ~chi_1+  Z )
     2.00312462E-02    2     1000022        24   # BR(~chi_2+ -> ~chi_10  W+)
     6.08205986E-02    2     1000023        24   # BR(~chi_2+ -> ~chi_20  W+)
     6.50687854E-02    2     1000024        25   # BR(~chi_2+ -> ~chi_1+  h )
#
#         PDG            Width
DECAY   1000022     0.00000000E+00   # neutralino1 decays
#
#         PDG            Width
DECAY   1000023     2.05190880E-06   # neutralino2 decays
#          BR         NDA      ID1       ID2
     9.99930195E-01    2     1000022        23   # BR(~chi_20 -> ~chi_10   Z )
     6.98052236E-05    2     1000022        25   # BR(~chi_20 -> ~chi_10   h )
#
#         PDG            Width
DECAY   1000025     9.05109284E+01   # neutralino3 decays
#          BR         NDA      ID1       ID2
     1.05871705E-02    2     1000022        23   # BR(~chi_30 -> ~chi_10   Z )
     3.63091271E-02    2     1000023        23   # BR(~chi_30 -> ~chi_20   Z )
     6.06471447E-02    2     1000024       -24   # BR(~chi_30 -> ~chi_1+   W-)
     6.06471447E-02    2    -1000024        24   # BR(~chi_30 -> ~chi_1-   W+)
     1.02485776E-02    2     1000022        25   # BR(~chi_30 -> ~chi_10   h )
     2.64529369E-02    2     1000023        25   # BR(~chi_30 -> ~chi_20   h )
     3.30396883E-01    2     1000006        -6   # BR(~chi_30 -> ~t_1      tb)
     3.30396883E-01    2    -1000006         6   # BR(~chi_30 -> ~t_1*     t )
     6.71566162E-02    2     1000005        -5   # BR(~chi_30 -> ~b_1      bb)
     6.71566162E-02    2    -1000005         5   # BR(~chi_30 -> ~b_1*     b )
     4.49997615E-07    2     1000015       -15   # BR(~chi_30 -> ~tau_1-   tau+)
     4.49997615E-07    2    -1000015        15   # BR(~chi_30 -> ~tau_1+   tau-)
#
#         PDG            Width
DECAY   1000035     8.95200105E+01   # neutralino4 decays
#          BR         NDA      ID1       ID2
     1.00186575E-02    2     1000022        23   # BR(~chi_40 -> ~chi_10   Z )
     2.62668331E-02    2     1000023        23   # BR(~chi_40 -> ~chi_20   Z )
     6.13310713E-02    2     1000024       -24   # BR(~chi_40 -> ~chi_1+   W-)
     6.13310713E-02    2    -1000024        24   # BR(~chi_40 -> ~chi_1-   W+)
     1.11093009E-02    2     1000022        25   # BR(~chi_40 -> ~chi_10   h )
     3.88788043E-02    2     1000023        25   # BR(~chi_40 -> ~chi_20   h )
     3.27629707E-01    2     1000006        -6   # BR(~chi_40 -> ~t_1      tb)
     3.27629707E-01    2    -1000006         6   # BR(~chi_40 -> ~t_1*     t )
     6.79020846E-02    2     1000005        -5   # BR(~chi_40 -> ~b_1      bb)
     6.79020846E-02    2    -1000005         5   # BR(~chi_40 -> ~b_1*     b )
     3.38883605E-07    2     1000015       -15   # BR(~chi_40 -> ~tau_1-   tau+)
     3.38883605E-07    2    -1000015        15   # BR(~chi_40 -> ~tau_1+   tau-)
#
#         PDG            Width
DECAY        25     3.64705479E-03   # h decays
#          BR         NDA      ID1       ID2
     5.60560441E-01    2           5        -5   # BR(h -> b       bb     )
     7.12147737E-02    2         -15        15   # BR(h -> tau+    tau-   )
     2.52101420E-04    2         -13        13   # BR(h -> mu+     mu-    )
     5.34918767E-04    2           3        -3   # BR(h -> s       sb     )
     2.32433790E-02    2           4        -4   # BR(h -> c       cb     )
     7.57145750E-02    2          21        21   # BR(h -> g       g      )
     2.59748901E-03    2          22        22   # BR(h -> gam     gam    )
     1.74466180E-03    2          22        23   # BR(h -> Z       gam    )
     2.34701004E-01    2          24       -24   # BR(h -> W+      W-     )
     2.94366558E-02    2          23        23   # BR(h -> Z       Z      )
#
#         PDG            Width
DECAY        35     3.64623060E+01   # H decays
#          BR         NDA      ID1       ID2
     8.98954028E-01    2           5        -5   # BR(H -> b       bb     )
     6.82006976E-02    2         -15        15   # BR(H -> tau+    tau-   )
     2.41141369E-04    2         -13        13   # BR(H -> mu+     mu-    )
     2.96122524E-04    2           3        -3   # BR(H -> s       sb     )
     8.30023341E-08    2           4        -4   # BR(H -> c       cb     )
     8.28001363E-03    2           6        -6   # BR(H -> t       tb     )
     9.67412578E-06    2          21        21   # BR(H -> g       g      )
     5.32267788E-08    2          22        22   # BR(H -> gam     gam    )
     3.38976980E-09    2          23        22   # BR(H -> Z       gam    )
     7.65079457E-07    2          24       -24   # BR(H -> W+      W-     )
     3.82067962E-07    2          23        23   # BR(H -> Z       Z      )
     5.62268131E-06    2          25        25   # BR(H -> h       h      )
    -1.87882173E-24    2          36        36   # BR(H -> A       A      )
     1.00376212E-19    2          23        36   # BR(H -> Z       A      )
     8.48999318E-04    2     1000024  -1000024   # BR(H -> ~chi_1+ ~chi_1-)
     4.20970769E-05    2     1000022   1000022   # BR(H -> ~chi_10 ~chi_10)
     4.24366787E-04    2     1000023   1000023   # BR(H -> ~chi_20 ~chi_20)
     2.69299175E-04    2     1000022   1000023   # BR(H -> ~chi_10 ~chi_20)
     2.24213523E-02    2     1000006  -1000006   # BR(H -> ~t_1    ~t_1*  )
     5.29826541E-06    2     1000005  -1000005   # BR(H -> ~b_1    ~b_1*  )
#
#         PDG            Width
DECAY        36     3.56512351E+01   # A decays
#          BR         NDA      ID1       ID2
     9.19430377E-01    2           5        -5   # BR(A -> b       bb     )
     6.97511310E-02    2         -15        15   # BR(A -> tau+    tau-   )
     2.46622986E-04    2         -13        13   # BR(A -> mu+     mu-    )
     3.02904239E-04    2           3        -3   # BR(A -> s       sb     )
     8.54752827E-08    2           4        -4   # BR(A -> c       cb     )
     8.52201520E-03    2           6        -6   # BR(A -> t       tb     )
     2.50965192E-05    2          21        21   # BR(A -> g       g      )
     6.60605808E-08    2          22        22   # BR(A -> gam     gam    )
     2.47121937E-08    2          23        22   # BR(A -> Z       gam    )
     7.79534081E-07    2          23        25   # BR(A -> Z       h      )
     9.29177809E-04    2     1000024  -1000024   # BR(A -> ~chi_1+ ~chi_1-)
     4.36994303E-05    2     1000022   1000022   # BR(A -> ~chi_10 ~chi_10)
     4.64403794E-04    2     1000023   1000023   # BR(A -> ~chi_20 ~chi_20)
     2.83615798E-04    2     1000022   1000023   # BR(A -> ~chi_10 ~chi_20)
#
#         PDG            Width
DECAY        37     3.90217250E+01   # H+ decays
#          BR         NDA      ID1       ID2
     1.46658223E-03    2           4        -5   # BR(H+ -> c       bb     )
     6.37496077E-02    2         -15        16   # BR(H+ -> tau+    nu_tau )
     2.25403064E-04    2         -13        14   # BR(H+ -> mu+     nu_mu  )
     9.38611473E-06    2           2        -5   # BR(H+ -> u       bb     )
     1.32463608E-05    2           2        -3   # BR(H+ -> u       sb     )
     2.72520238E-04    2           4        -3   # BR(H+ -> c       sb     )
     9.22923219E-01    2           6        -5   # BR(H+ -> t       bb     )
     7.13427111E-07    2          24        25   # BR(H+ -> W+      h      )
     5.25084385E-14    2          24        36   # BR(H+ -> W+      A      )
     5.11051595E-04    2     1000024   1000022   # BR(H+ -> ~chi_1+ ~chi_10)
     1.83743329E-11    2     1000024   1000023   # BR(H+ -> ~chi_1+ ~chi_20)
     1.08282699E-02    2     1000006  -1000005   # BR(H+ -> ~t_1    ~b_1*  )
