#
#                              ======================
#                              | THE SUSYHIT OUTPUT |
#                              ======================
#
#
#              ------------------------------------------------------
#              |     This is the output of the SUSY-HIT package     |
#              |  created by A.Djouadi, M.Muehlleitner and M.Spira. |
#              |  In case of problems with SUSY-HIT email to        |
#              |           margarete.muehlleitner@kit.edu           |
#              |           michael.spira@psi.ch                     |
#              |           abdelhak.djouadi@cern.ch                 |
#              ------------------------------------------------------
#
#              ------------------------------------------------------
#              |  SUSY Les Houches Accord - MSSM Spectrum + Decays  |
#              |              based on the decay programs           |
#              |                                                    |
#              |                     SDECAY 1.5                     |
#              |                                                    |
#              |  Authors: M.Muhlleitner, A.Djouadi and Y.Mambrini  |
#              |  Ref.:    Comput.Phys.Commun.168(2005)46           |
#              |           [hep-ph/0311167]                         |
#              |                                                    |
#              |                     HDECAY 3.4                     |
#              |                                                    |
#              |  By: A.Djouadi,J.Kalinowski,M.Muhlleitner,M.Spira  |
#              |  Ref.:    Comput.Phys.Commun.108(1998)56           |
#              |           [hep-ph/9704448]                         |
#              |                                                    |
#              |                                                    |
#              |  If not stated otherwise all DRbar couplings and   |
#              |  soft SUSY breaking masses are given at the scale  |
#              |  Q=  0.17311913E+04
#              |                                                    |
#              ------------------------------------------------------
#
#
BLOCK DCINFO  # Decay Program information
     1   SDECAY/HDECAY # decay calculator
     2   1.5  /3.4    # version number
#
BLOCK SPINFO  # Spectrum calculator information
     1    SOFTSUSY    # spectrum calculator                
     2    3.7.3       # version number                     
#
BLOCK MODSEL  # Model selection
     1     0   #  nonUniversal                                     
#
BLOCK SMINPUTS  # Standard Model inputs
         1     1.27934000E+02   # alpha_em^-1(M_Z)^MSbar
         2     1.16639000E-05   # G_F [GeV^-2]
         3     1.17200000E-01   # alpha_S(M_Z)^MSbar
         4     9.11870000E+01   # M_Z pole mass
         5     4.19000000E+00   # mb(mb)^MSbar
         6     1.72500000E+02   # mt pole mass
         7     1.77690000E+00   # mtau pole mass
#
BLOCK MINPAR  # Input parameters - minimal models
         3     2.00000000E+01   # tanb                
#
BLOCK EXTPAR  # Input parameters - non-minimal models
         0    -1.00000000E+00   # Set                 
         1     9.99000000E+01   # M_1(MX)             
         2     1.99900000E+02   # M_2(MX)             
         3     2.20000000E+03   # M_3(MX)             
        11     3.24338000E+03   # At(MX)              
        12     0.00000000E+00   # Ab(MX)              
        13     0.00000000E+00   # Atau(MX)            
        23     3.00000000E+03   # mu(MX)              
        25     2.00000000E+01   # tan                 
        26     3.00000000E+03   # mA(pole)            
        31     3.00000000E+03   # meL(MX)             
        32     3.00000000E+03   # mmuL(MX)            
        33     3.00000000E+03   # mtauL(MX)           
        34     3.00000000E+03   # meR(MX)             
        35     3.00000000E+03   # mmuR(MX)            
        36     3.00000000E+03   # mtauR(MX)           
        41     3.00000000E+03   # mqL1(MX)            
        42     3.00000000E+03   # mqL2(MX)            
        43     9.99900000E+02   # mqL3(MX)            
        44     3.00000000E+03   # muR(MX)             
        45     3.00000000E+03   # mcR(MX)             
        46     3.00000000E+03   # mtR(MX)             
        47     3.00000000E+03   # mdR(MX)             
        48     3.00000000E+03   # msR(MX)             
        49     3.00000000E+03   # mbR(MX)             
#
BLOCK MASS  # Mass Spectrum
# PDG code           mass       particle
        24     8.03958513E+01   # W+
        25     1.24919928E+02   # h
        35     3.00004852E+03   # H
        36     2.99999997E+03   # A
        37     3.00088370E+03   # H+
         5     4.81337004E+00   # b-quark pole mass calculated from mb(mb)_Msbar
   1000001     3.04345073E+03   # ~d_L
   2000001     3.03831689E+03   # ~d_R
   1000002     3.04253941E+03   # ~u_L
   2000002     3.03917004E+03   # ~u_R
   1000003     3.04345073E+03   # ~s_L
   2000003     3.03831689E+03   # ~s_R
   1000004     3.04253941E+03   # ~c_L
   2000004     3.03917004E+03   # ~c_R
   1000005     1.10044986E+03   # ~b_1
   2000005     3.03719224E+03   # ~b_2
   1000006     1.09680775E+03   # ~t_1
   2000006     3.01971015E+03   # ~t_2
   1000011     3.00625090E+03   # ~e_L
   2000011     3.00231682E+03   # ~e_R
   1000012     3.00485504E+03   # ~nu_eL
   1000013     3.00625090E+03   # ~mu_L
   2000013     3.00231682E+03   # ~mu_R
   1000014     3.00485504E+03   # ~nu_muL
   1000015     2.98570674E+03   # ~tau_1
   2000015     3.02180721E+03   # ~tau_2
   1000016     3.00453192E+03   # ~nu_tauL
   1000021     2.35419378E+03   # ~g
   1000022     1.00056824E+02   # ~chi_10
   1000023     2.15557072E+02   # ~chi_20
   1000025    -2.99407447E+03   # ~chi_30
   1000035     2.99457861E+03   # ~chi_40
   1000024     2.15717065E+02   # ~chi_1+
   1000037     2.99523677E+03   # ~chi_2+
#
BLOCK NMIX  # Neutralino Mixing Matrix
  1  1     9.99888512E-01   # N_11
  1  2    -1.53487166E-03   # N_12
  1  3     1.48018171E-02   # N_13
  1  4    -1.23051486E-03   # N_14
  2  1     1.92535581E-03   # N_21
  2  2     9.99651563E-01   # N_22
  2  3    -2.61499884E-02   # N_23
  2  4     3.03690638E-03   # N_24
  3  1    -9.56821024E-03   # N_31
  3  2     1.63602682E-02   # N_32
  3  3     7.06831209E-01   # N_33
  3  4     7.07128301E-01   # N_34
  4  1    -1.13007144E-02   # N_41
  4  2     2.06576253E-02   # N_42
  4  3     7.06743749E-01   # N_43
  4  4    -7.07077669E-01   # N_44
#
BLOCK UMIX  # Chargino Mixing Matrix U
  1  1     9.99314907E-01   # U_11
  1  2    -3.70096823E-02   # U_12
  2  1     3.70096823E-02   # U_21
  2  2     9.99314907E-01   # U_22
#
BLOCK VMIX  # Chargino Mixing Matrix V
  1  1     9.99990758E-01   # V_11
  1  2    -4.29932133E-03   # V_12
  2  1     4.29932133E-03   # V_21
  2  2     9.99990758E-01   # V_22
#
BLOCK STOPMIX  # Stop Mixing Matrix
  1  1     9.98413231E-01   # cos(theta_t)
  1  2    -5.63118119E-02   # sin(theta_t)
  2  1     5.63118119E-02   # -sin(theta_t)
  2  2     9.98413231E-01   # cos(theta_t)
#
BLOCK SBOTMIX  # Sbottom Mixing Matrix
  1  1     9.99905295E-01   # cos(theta_b)
  1  2     1.37623047E-02   # sin(theta_b)
  2  1    -1.37623047E-02   # -sin(theta_b)
  2  2     9.99905295E-01   # cos(theta_b)
#
BLOCK STAUMIX  # Stau Mixing Matrix
  1  1     7.06920025E-01   # cos(theta_tau)
  1  2     7.07293488E-01   # sin(theta_tau)
  2  1    -7.07293488E-01   # -sin(theta_tau)
  2  2     7.06920025E-01   # cos(theta_tau)
#
BLOCK ALPHA  # Higgs mixing
          -5.01730562E-02   # Mixing angle in the neutral Higgs boson sector
#
BLOCK HMIX Q=  1.73119125E+03  # DRbar Higgs Parameters
         1     3.00000000E+03   # mu(Q)MSSM           
         2     2.00000000E+01   # tan                 
         3     2.43888528E+02   # higgs               
         4     7.86547641E+06   # mA^2(Q)MSSM         
#
BLOCK GAUGE Q=  1.73119125E+03  # The gauge couplings
     1     3.62649915E-01   # gprime(Q) DRbar
     2     6.40075228E-01   # g(Q) DRbar
     3     1.02313674E+00   # g3(Q) DRbar
#
BLOCK AU Q=  1.73119125E+03  # The trilinear couplings
  1  1     2.83822155E-06   # A_u(Q) DRbar
  2  2     2.83826279E-06   # A_c(Q) DRbar
  3  3     3.24338000E+03   # A_t(Q) DRbar
#
BLOCK AD Q=  1.73119125E+03  # The trilinear couplings
  1  1     7.12381089E-07   # A_d(Q) DRbar
  2  2     7.12520397E-07   # A_s(Q) DRbar
  3  3     1.64831499E-06   # A_b(Q) DRbar
#
BLOCK AE Q=  1.73119125E+03  # The trilinear couplings
  1  1     0.00000000E+00   # A_e(Q) DRbar
  2  2     1.57408794E-07   # A_mu(Q) DRbar
  3  3     1.59331786E-07   # A_tau(Q) DRbar
#
BLOCK Yu Q=  1.73119125E+03  # The Yukawa couplings
  1  1     0.00000000E+00   # y_u(Q) DRbar
  2  2     0.00000000E+00   # y_c(Q) DRbar
  3  3     8.49733623E-01   # y_t(Q) DRbar
#
BLOCK Yd Q=  1.73119125E+03  # The Yukawa couplings
  1  1     0.00000000E+00   # y_d(Q) DRbar
  2  2     0.00000000E+00   # y_s(Q) DRbar
  3  3     2.13065422E-01   # y_b(Q) DRbar
#
BLOCK Ye Q=  1.73119125E+03  # The Yukawa couplings
  1  1     0.00000000E+00   # y_e(Q) DRbar
  2  2     0.00000000E+00   # y_mu(Q) DRbar
  3  3     2.05364230E-01   # y_tau(Q) DRbar
#
BLOCK MSOFT Q=  1.73119125E+03  # The soft SUSY breaking masses at the scale Q
         1     9.99000000E+01   # M_1(Q)              
         2     1.99900000E+02   # M_2(Q)              
         3     2.20000000E+03   # M_3(Q)              
        21    -8.18620530E+04   # M^2_Hd              
        22    -9.02213922E+06   # M^2_Hu              
        31     3.00000000E+03   # M_eL                
        32     3.00000000E+03   # M_muL               
        33     3.00000000E+03   # M_tauL              
        34     3.00000000E+03   # M_eR                
        35     3.00000000E+03   # M_muR               
        36     3.00000000E+03   # M_tauR              
        41     3.00000000E+03   # M_q1L               
        42     3.00000000E+03   # M_q2L               
        43     9.99899994E+02   # M_q3L               
        44     3.00000000E+03   # M_uR                
        45     3.00000000E+03   # M_cR                
        46     3.00000000E+03   # M_tR                
        47     3.00000000E+03   # M_dR                
        48     3.00000000E+03   # M_sR                
        49     3.00000000E+03   # M_bR                
#
#
#
#                             =================
#                             |The decay table|
#                             =================
#
# - The QCD corrections to the decays gluino -> squark  + quark
#                                     squark -> gaugino + quark_prime
#                                     squark -> squark_prime + Higgs
#                                     squark -> gluino  + quark
#   are included.
#
# - The multi-body decays for the inos, stops and sbottoms are included.
#
# - The loop induced decays for the gluino, neutralinos and stops
#   are included.
#
# - The SUSY decays of the top quark are included.
#
#
#         PDG            Width
DECAY         6     1.42231814E+00   # top decays
#          BR         NDA      ID1       ID2
     1.00000000E+00    2           5        24   # BR(t ->  b    W+)
#
#         PDG            Width
DECAY   1000021     5.86815733E+01   # gluino decays
#          BR         NDA      ID1       ID2
     2.47614667E-01    2     1000005        -5   # BR(~g -> ~b_1  bb)
     2.47614667E-01    2    -1000005         5   # BR(~g -> ~b_1* b )
     2.52385333E-01    2     1000006        -6   # BR(~g -> ~t_1  tb)
     2.52385333E-01    2    -1000006         6   # BR(~g -> ~t_1* t )
#
#         PDG            Width
DECAY   1000006     1.25393965E+01   # stop1 decays
#          BR         NDA      ID1       ID2
     1.23496182E-02    2     1000022         6   # BR(~t_1 -> ~chi_10 t )
     3.18900984E-01    2     1000023         6   # BR(~t_1 -> ~chi_20 t )
     6.68749398E-01    2     1000024         5   # BR(~t_1 -> ~chi_1+ b )
#
#         PDG            Width
DECAY   2000006     1.09903666E+02   # stop2 decays
#          BR         NDA      ID1       ID2
     6.02326600E-02    2     1000022         6   # BR(~t_2 -> ~chi_10 t )
     3.59383604E-04    2     1000023         6   # BR(~t_2 -> ~chi_20 t )
     0.00000000E+00    2     1000025         6   # BR(~t_2 -> ~chi_30 t )
     7.21509660E-04    2     1000024         5   # BR(~t_2 -> ~chi_1+ b )
     1.09959023E-04    2     1000037         5   # BR(~t_2 -> ~chi_2+ b )
     3.01634180E-01    2     1000021         6   # BR(~t_2 -> ~g      t )
     1.66077022E-01    2     1000006        25   # BR(~t_2 -> ~t_1    h )
     1.59267794E-01    2     1000006        23   # BR(~t_2 -> ~t_1    Z )
     3.11597493E-01    2     1000005        24   # BR(~t_2 -> ~b_1    W+)
#
#         PDG            Width
DECAY   1000005     1.24262757E+01   # sbottom1 decays
#          BR         NDA      ID1       ID2
     1.31458920E-02    2     1000022         5   # BR(~b_1 -> ~chi_10 b )
     3.39391365E-01    2     1000023         5   # BR(~b_1 -> ~chi_20 b )
     6.47462743E-01    2    -1000024         6   # BR(~b_1 -> ~chi_1- t )
#
#         PDG            Width
DECAY   2000005     4.16411406E+01   # sbottom2 decays
#          BR         NDA      ID1       ID2
     4.02427114E-02    2     1000022         5   # BR(~b_2 -> ~chi_10 b )
     6.21848036E-07    2     1000023         5   # BR(~b_2 -> ~chi_20 b )
     2.77095950E-05    2     1000025         5   # BR(~b_2 -> ~chi_30 b )
     2.73625494E-05    2     1000035         5   # BR(~b_2 -> ~chi_40 b )
     7.76327807E-07    2    -1000024         6   # BR(~b_2 -> ~chi_1- t )
     8.32803602E-01    2     1000021         5   # BR(~b_2 -> ~g      b )
     2.77033335E-02    2     1000005        25   # BR(~b_2 -> ~b_1    h )
     4.07081583E-02    2     1000005        23   # BR(~b_2 -> ~b_1    Z )
     5.84857241E-02    2     1000006       -24   # BR(~b_2 -> ~t_1    W-)
#
#         PDG            Width
DECAY   1000002     7.05955276E+01   # sup_L decays
#          BR         NDA      ID1       ID2
     5.85211828E-03    2     1000022         2   # BR(~u_L -> ~chi_10 u)
     1.65658202E-01    2     1000023         2   # BR(~u_L -> ~chi_20 u)
     4.04002373E-08    2     1000025         2   # BR(~u_L -> ~chi_30 u)
     6.41355995E-08    2     1000035         2   # BR(~u_L -> ~chi_40 u)
     3.31295666E-01    2     1000024         1   # BR(~u_L -> ~chi_1+ d)
     6.72742555E-09    2     1000037         1   # BR(~u_L -> ~chi_2+ d)
     4.97193903E-01    2     1000021         2   # BR(~u_L -> ~g      u)
#
#         PDG            Width
DECAY   2000002     4.15403444E+01   # sup_R decays
#          BR         NDA      ID1       ID2
     1.61559371E-01    2     1000022         2   # BR(~u_R -> ~chi_10 u)
     5.94861095E-07    2     1000023         2   # BR(~u_R -> ~chi_20 u)
     1.47427281E-08    2     1000025         2   # BR(~u_R -> ~chi_30 u)
     2.01212327E-08    2     1000035         2   # BR(~u_R -> ~chi_40 u)
     8.38439999E-01    2     1000021         2   # BR(~u_R -> ~g      u)
#
#         PDG            Width
DECAY   1000001     7.06450067E+01   # sdown_L decays
#          BR         NDA      ID1       ID2
     6.04314802E-03    2     1000022         1   # BR(~d_L -> ~chi_10 d)
     1.65353337E-01    2     1000023         1   # BR(~d_L -> ~chi_20 d)
     6.52088208E-08    2     1000025         1   # BR(~d_L -> ~chi_30 d)
     1.00610354E-07    2     1000035         1   # BR(~d_L -> ~chi_40 d)
     3.30719976E-01    2    -1000024         2   # BR(~d_L -> ~chi_1- u)
     5.16803355E-07    2    -1000037         2   # BR(~d_L -> ~chi_2- u)
     4.97882857E-01    2     1000021         1   # BR(~d_L -> ~g      d)
#
#         PDG            Width
DECAY   2000001     3.64379832E+01   # sdown_R decays
#          BR         NDA      ID1       ID2
     4.60322343E-02    2     1000022         1   # BR(~d_R -> ~chi_10 d)
     1.69489838E-07    2     1000023         1   # BR(~d_R -> ~chi_20 d)
     4.04998740E-09    2     1000025         1   # BR(~d_R -> ~chi_30 d)
     5.52516615E-09    2     1000035         1   # BR(~d_R -> ~chi_40 d)
     9.53967587E-01    2     1000021         1   # BR(~d_R -> ~g      d)
#
#         PDG            Width
DECAY   1000004     7.05955276E+01   # scharm_L decays
#          BR         NDA      ID1       ID2
     5.85211828E-03    2     1000022         4   # BR(~c_L -> ~chi_10 c)
     1.65658202E-01    2     1000023         4   # BR(~c_L -> ~chi_20 c)
     4.04002373E-08    2     1000025         4   # BR(~c_L -> ~chi_30 c)
     6.41355995E-08    2     1000035         4   # BR(~c_L -> ~chi_40 c)
     3.31295666E-01    2     1000024         3   # BR(~c_L -> ~chi_1+ s)
     6.72742555E-09    2     1000037         3   # BR(~c_L -> ~chi_2+ s)
     4.97193903E-01    2     1000021         4   # BR(~c_L -> ~g      c)
#
#         PDG            Width
DECAY   2000004     4.15403444E+01   # scharm_R decays
#          BR         NDA      ID1       ID2
     1.61559371E-01    2     1000022         4   # BR(~c_R -> ~chi_10 c)
     5.94861095E-07    2     1000023         4   # BR(~c_R -> ~chi_20 c)
     1.47427281E-08    2     1000025         4   # BR(~c_R -> ~chi_30 c)
     2.01212327E-08    2     1000035         4   # BR(~c_R -> ~chi_40 c)
     8.38439999E-01    2     1000021         4   # BR(~c_R -> ~g      c)
#
#         PDG            Width
DECAY   1000003     7.06450067E+01   # sstrange_L decays
#          BR         NDA      ID1       ID2
     6.04314802E-03    2     1000022         3   # BR(~s_L -> ~chi_10 s)
     1.65353337E-01    2     1000023         3   # BR(~s_L -> ~chi_20 s)
     6.52088208E-08    2     1000025         3   # BR(~s_L -> ~chi_30 s)
     1.00610354E-07    2     1000035         3   # BR(~s_L -> ~chi_40 s)
     3.30719976E-01    2    -1000024         4   # BR(~s_L -> ~chi_1- c)
     5.16803355E-07    2    -1000037         4   # BR(~s_L -> ~chi_2- c)
     4.97882857E-01    2     1000021         3   # BR(~s_L -> ~g      s)
#
#         PDG            Width
DECAY   2000003     3.64379832E+01   # sstrange_R decays
#          BR         NDA      ID1       ID2
     4.60322343E-02    2     1000022         3   # BR(~s_R -> ~chi_10 s)
     1.69489838E-07    2     1000023         3   # BR(~s_R -> ~chi_20 s)
     4.04998740E-09    2     1000025         3   # BR(~s_R -> ~chi_30 s)
     5.52516615E-09    2     1000035         3   # BR(~s_R -> ~chi_40 s)
     9.53967587E-01    2     1000021         3   # BR(~s_R -> ~g      s)
#
#         PDG            Width
DECAY   1000011     4.02637825E+01   # selectron_L decays
#          BR         NDA      ID1       ID2
     9.69102924E-02    2     1000022        11   # BR(~e_L -> ~chi_10 e-)
     3.01606190E-01    2     1000023        11   # BR(~e_L -> ~chi_20 e-)
     2.37974404E-09    2     1000025        11   # BR(~e_L -> ~chi_30 e-)
     3.71395960E-09    2     1000035        11   # BR(~e_L -> ~chi_40 e-)
     6.01483467E-01    2    -1000024        12   # BR(~e_L -> ~chi_1- nu_e)
     4.45913774E-08    2    -1000037        12   # BR(~e_L -> ~chi_2- nu_e)
#
#         PDG            Width
DECAY   2000011     1.56722494E+01   # selectron_R decays
#          BR         NDA      ID1       ID2
     9.99996316E-01    2     1000022        11   # BR(~e_R -> ~chi_10 e-)
     3.67784570E-06    2     1000023        11   # BR(~e_R -> ~chi_20 e-)
     2.75916619E-09    2     1000025        11   # BR(~e_R -> ~chi_30 e-)
     3.39297125E-09    2     1000035        11   # BR(~e_R -> ~chi_40 e-)
#
#         PDG            Width
DECAY   1000013     4.02637825E+01   # smuon_L decays
#          BR         NDA      ID1       ID2
     9.69102924E-02    2     1000022        13   # BR(~mu_L -> ~chi_10 mu-)
     3.01606190E-01    2     1000023        13   # BR(~mu_L -> ~chi_20 mu-)
     2.37974404E-09    2     1000025        13   # BR(~mu_L -> ~chi_30 mu-)
     3.71395960E-09    2     1000035        13   # BR(~mu_L -> ~chi_40 mu-)
     6.01483467E-01    2    -1000024        14   # BR(~mu_L -> ~chi_1- nu_mu)
     4.45913774E-08    2    -1000037        14   # BR(~mu_L -> ~chi_2- nu_mu)
#
#         PDG            Width
DECAY   2000013     1.56722494E+01   # smuon_R decays
#          BR         NDA      ID1       ID2
     9.99996316E-01    2     1000022        13   # BR(~mu_R -> ~chi_10 mu-)
     3.67784570E-06    2     1000023        13   # BR(~mu_R -> ~chi_20 mu-)
     2.75916619E-09    2     1000025        13   # BR(~mu_R -> ~chi_30 mu-)
     3.39297125E-09    2     1000035        13   # BR(~mu_R -> ~chi_40 mu-)
#
#         PDG            Width
DECAY   1000015     2.82567843E+01   # stau_1 decays
#          BR         NDA      ID1       ID2
     3.46125862E-01    2     1000022        15   # BR(~tau_1 -> ~chi_10  tau-)
     2.18380840E-01    2     1000023        15   # BR(~tau_1 -> ~chi_20  tau-)
     4.35493298E-01    2    -1000024        16   # BR(~tau_1 -> ~chi_1-  nu_tau)
#
#         PDG            Width
DECAY   2000015     2.76562287E+01   # stau_2 decays
#          BR         NDA      ID1       ID2
     3.54298093E-01    2     1000022        15   # BR(~tau_2 -> ~chi_10  tau-)
     2.15665452E-01    2     1000023        15   # BR(~tau_2 -> ~chi_20  tau-)
     1.52715955E-05    2     1000025        15   # BR(~tau_2 -> ~chi_30  tau-)
     1.70110053E-05    2     1000035        15   # BR(~tau_2 -> ~chi_40  tau-)
     4.29986721E-01    2    -1000024        16   # BR(~tau_2 -> ~chi_1-  nu_tau)
     1.74513058E-05    2    -1000037        16   # BR(~tau_2 -> ~chi_2-  nu_tau)
#
#         PDG            Width
DECAY   1000012     4.02671129E+01   # snu_eL decays
#          BR         NDA      ID1       ID2
     9.79124712E-02    2     1000022        12   # BR(~nu_eL -> ~chi_10 nu_e)
     3.00125425E-01    2     1000023        12   # BR(~nu_eL -> ~chi_20 nu_e)
     7.40188483E-09    2     1000025        12   # BR(~nu_eL -> ~chi_30 nu_e)
     1.03827372E-08    2     1000035        12   # BR(~nu_eL -> ~chi_40 nu_e)
     6.01962086E-01    2     1000024        11   # BR(~nu_eL -> ~chi_1+ e-)
     4.59283290E-10    2     1000037        11   # BR(~nu_eL -> ~chi_2+ e-)
#
#         PDG            Width
DECAY   1000014     4.02671129E+01   # snu_muL decays
#          BR         NDA      ID1       ID2
     9.79124712E-02    2     1000022        14   # BR(~nu_muL -> ~chi_10 nu_mu)
     3.00125425E-01    2     1000023        14   # BR(~nu_muL -> ~chi_20 nu_mu)
     7.40188483E-09    2     1000025        14   # BR(~nu_muL -> ~chi_30 nu_mu)
     1.03827372E-08    2     1000035        14   # BR(~nu_muL -> ~chi_40 nu_mu)
     6.01962086E-01    2     1000024        13   # BR(~nu_muL -> ~chi_1+ mu-)
     4.59283290E-10    2     1000037        13   # BR(~nu_muL -> ~chi_2+ mu-)
#
#         PDG            Width
DECAY   1000016     4.02661460E+01   # snu_tauL decays
#          BR         NDA      ID1       ID2
     9.79042466E-02    2     1000022        16   # BR(~nu_tauL -> ~chi_10 nu_tau)
     3.00099690E-01    2     1000023        16   # BR(~nu_tauL -> ~chi_20 nu_tau)
     6.96649327E-09    2     1000025        16   # BR(~nu_tauL -> ~chi_30 nu_tau)
     9.74240420E-09    2     1000035        16   # BR(~nu_tauL -> ~chi_40 nu_tau)
     6.01993692E-01    2     1000024        15   # BR(~nu_tauL -> ~chi_1+ tau-)
     2.35441144E-06    2     1000037        15   # BR(~nu_tauL -> ~chi_2+ tau-)
#
#         PDG            Width
DECAY   1000024     7.71991062E-06   # chargino1+ decays
#          BR         NDA      ID1       ID2
     1.00000000E+00    2     1000022        24   # BR(~chi_1+ -> ~chi_10  W+)
#
#         PDG            Width
DECAY   1000037     7.70147434E+01   # chargino2+ decays
#          BR         NDA      ID1       ID2
     4.62825166E-02    2     1000006        -5   # BR(~chi_2+ -> ~t_1     bb)
     6.97491104E-01    2    -1000005         6   # BR(~chi_2+ -> ~b_1*    t )
     2.57477044E-07    2    -1000015        16   # BR(~chi_2+ -> ~tau_1+  nu_tau)
     7.70741315E-02    2     1000024        23   # BR(~chi_2+ -> ~chi_1+  Z )
     2.38894181E-02    2     1000022        24   # BR(~chi_2+ -> ~chi_10  W+)
     7.52751237E-02    2     1000023        24   # BR(~chi_2+ -> ~chi_20  W+)
     7.99874482E-02    2     1000024        25   # BR(~chi_2+ -> ~chi_1+  h )
#
#         PDG            Width
DECAY   1000022     0.00000000E+00   # neutralino1 decays
#
#         PDG            Width
DECAY   1000023     2.78347625E-07   # neutralino2 decays
#          BR         NDA      ID1       ID2
     1.00000000E+00    2     1000022        23   # BR(~chi_20 -> ~chi_10   Z )
#
#         PDG            Width
DECAY   1000025     7.73805278E+01   # neutralino3 decays
#          BR         NDA      ID1       ID2
     1.43695185E-02    2     1000022        23   # BR(~chi_30 -> ~chi_10   Z )
     4.70354062E-02    2     1000023        23   # BR(~chi_30 -> ~chi_20   Z )
     7.47577619E-02    2     1000024       -24   # BR(~chi_30 -> ~chi_1+   W-)
     7.47577619E-02    2    -1000024        24   # BR(~chi_30 -> ~chi_1-   W+)
     1.06468846E-02    2     1000022        25   # BR(~chi_30 -> ~chi_10   h )
     3.01997984E-02    2     1000023        25   # BR(~chi_30 -> ~chi_20   h )
     3.52185237E-01    2     1000006        -6   # BR(~chi_30 -> ~t_1      tb)
     3.52185237E-01    2    -1000006         6   # BR(~chi_30 -> ~t_1*     t )
     2.19310162E-02    2     1000005        -5   # BR(~chi_30 -> ~b_1      bb)
     2.19310162E-02    2    -1000005         5   # BR(~chi_30 -> ~b_1*     b )
     1.81436355E-07    2     1000015       -15   # BR(~chi_30 -> ~tau_1-   tau+)
     1.81436355E-07    2    -1000015        15   # BR(~chi_30 -> ~tau_1+   tau-)
#
#         PDG            Width
DECAY   1000035     7.63579286E+01   # neutralino4 decays
#          BR         NDA      ID1       ID2
     1.04394656E-02    2     1000022        23   # BR(~chi_40 -> ~chi_10   Z )
     2.99168509E-02    2     1000023        23   # BR(~chi_40 -> ~chi_20   Z )
     7.57811924E-02    2     1000024       -24   # BR(~chi_40 -> ~chi_1+   W-)
     7.57811924E-02    2    -1000024        24   # BR(~chi_40 -> ~chi_1-   W+)
     1.50745004E-02    2     1000022        25   # BR(~chi_40 -> ~chi_10   h )
     4.99223570E-02    2     1000023        25   # BR(~chi_40 -> ~chi_20   h )
     3.49296355E-01    2     1000006        -6   # BR(~chi_40 -> ~t_1      tb)
     3.49296355E-01    2    -1000006         6   # BR(~chi_40 -> ~t_1*     t )
     2.22455551E-02    2     1000005        -5   # BR(~chi_40 -> ~b_1      bb)
     2.22455551E-02    2    -1000005         5   # BR(~chi_40 -> ~b_1*     b )
     3.10433210E-07    2     1000015       -15   # BR(~chi_40 -> ~tau_1-   tau+)
     3.10433210E-07    2    -1000015        15   # BR(~chi_40 -> ~tau_1+   tau-)
#
#         PDG            Width
DECAY        25     4.76485906E-03   # h decays
#          BR         NDA      ID1       ID2
     6.69982579E-01    2           5        -5   # BR(h -> b       bb     )
     5.47293333E-02    2         -15        15   # BR(h -> tau+    tau-   )
     1.93743762E-04    2         -13        13   # BR(h -> mu+     mu-    )
     4.11240875E-04    2           3        -3   # BR(h -> s       sb     )
     1.77579253E-02    2           4        -4   # BR(h -> c       cb     )
     5.76512775E-02    2          21        21   # BR(h -> g       g      )
     1.97161051E-03    2          22        22   # BR(h -> gam     gam    )
     1.30185237E-03    2          22        23   # BR(h -> Z       gam    )
     1.74253770E-01    2          24       -24   # BR(h -> W+      W-     )
     2.17466677E-02    2          23        23   # BR(h -> Z       Z      )
#
#         PDG            Width
DECAY        35     1.41307847E+01   # H decays
#          BR         NDA      ID1       ID2
     7.41310398E-01    2           5        -5   # BR(H -> b       bb     )
     1.75977294E-01    2         -15        15   # BR(H -> tau+    tau-   )
     6.22213659E-04    2         -13        13   # BR(H -> mu+     mu-    )
     7.64081331E-04    2           3        -3   # BR(H -> s       sb     )
     2.15531227E-07    2           4        -4   # BR(H -> c       cb     )
     2.15006148E-02    2           6        -6   # BR(H -> t       tb     )
     2.41397235E-05    2          21        21   # BR(H -> g       g      )
     2.00920787E-08    2          22        22   # BR(H -> gam     gam    )
     8.29887463E-09    2          23        22   # BR(H -> Z       gam    )
     2.87700327E-05    2          24       -24   # BR(H -> W+      W-     )
     1.43672713E-05    2          23        23   # BR(H -> Z       Z      )
     7.80685367E-05    2          25        25   # BR(H -> h       h      )
    -2.87066729E-23    2          36        36   # BR(H -> A       A      )
    -2.94463872E-20    2          23        36   # BR(H -> Z       A      )
     2.35730191E-03    2     1000024  -1000024   # BR(H -> ~chi_1+ ~chi_1-)
     1.11696883E-04    2     1000022   1000022   # BR(H -> ~chi_10 ~chi_10)
     1.17369535E-03    2     1000023   1000023   # BR(H -> ~chi_20 ~chi_20)
     7.25798199E-04    2     1000022   1000023   # BR(H -> ~chi_10 ~chi_20)
     5.53061817E-02    2     1000006  -1000006   # BR(H -> ~t_1    ~t_1*  )
     5.13490035E-06    2     1000005  -1000005   # BR(H -> ~b_1    ~b_1*  )
#
#         PDG            Width
DECAY        36     1.33522464E+01   # A decays
#          BR         NDA      ID1       ID2
     7.84623947E-01    2           5        -5   # BR(A -> b       bb     )
     1.86239372E-01    2         -15        15   # BR(A -> tau+    tau-   )
     6.58496994E-04    2         -13        13   # BR(A -> mu+     mu-    )
     8.08771046E-04    2           3        -3   # BR(A -> s       sb     )
     2.28223725E-07    2           4        -4   # BR(A -> c       cb     )
     2.27542512E-02    2           6        -6   # BR(A -> t       tb     )
     6.70090916E-05    2          21        21   # BR(A -> g       g      )
     3.32599173E-08    2          22        22   # BR(A -> gam     gam    )
     6.59501558E-08    2          23        22   # BR(A -> Z       gam    )
     3.03340872E-05    2          23        25   # BR(A -> Z       h      )
     2.60741675E-03    2     1000024  -1000024   # BR(A -> ~chi_1+ ~chi_1-)
     1.20733663E-04    2     1000022   1000022   # BR(A -> ~chi_10 ~chi_10)
     1.29819807E-03    2     1000023   1000023   # BR(A -> ~chi_20 ~chi_20)
     7.91142790E-04    2     1000022   1000023   # BR(A -> ~chi_10 ~chi_20)
#
#         PDG            Width
DECAY        37     1.04580764E+01   # H+ decays
#          BR         NDA      ID1       ID2
     1.10857566E-03    2           4        -5   # BR(H+ -> c       bb     )
     2.37849334E-01    2         -15        16   # BR(H+ -> tau+    nu_tau )
     8.40977232E-04    2         -13        14   # BR(H+ -> mu+     nu_mu  )
     7.09487320E-06    2           2        -5   # BR(H+ -> u       bb     )
     4.94225240E-05    2           2        -3   # BR(H+ -> u       sb     )
     1.01678024E-03    2           4        -3   # BR(H+ -> c       sb     )
     7.20375159E-01    2           6        -5   # BR(H+ -> t       bb     )
     3.87872291E-05    2          24        25   # BR(H+ -> W+      h      )
     6.78184450E-14    2          24        36   # BR(H+ -> W+      A      )
     1.98318199E-03    2     1000024   1000022   # BR(H+ -> ~chi_1+ ~chi_10)
     7.34645901E-09    2     1000024   1000023   # BR(H+ -> ~chi_1+ ~chi_20)
     3.67306796E-02    2     1000006  -1000005   # BR(H+ -> ~t_1    ~b_1*  )
