#
#                              ======================
#                              | THE SUSYHIT OUTPUT |
#                              ======================
#
#
#              ------------------------------------------------------
#              |     This is the output of the SUSY-HIT package     |
#              |  created by A.Djouadi, M.Muehlleitner and M.Spira. |
#              |  In case of problems with SUSY-HIT email to        |
#              |           margarete.muehlleitner@kit.edu           |
#              |           michael.spira@psi.ch                     |
#              |           abdelhak.djouadi@cern.ch                 |
#              ------------------------------------------------------
#
#              ------------------------------------------------------
#              |  SUSY Les Houches Accord - MSSM Spectrum + Decays  |
#              |              based on the decay programs           |
#              |                                                    |
#              |                     SDECAY 1.5                     |
#              |                                                    |
#              |  Authors: M.Muhlleitner, A.Djouadi and Y.Mambrini  |
#              |  Ref.:    Comput.Phys.Commun.168(2005)46           |
#              |           [hep-ph/0311167]                         |
#              |                                                    |
#              |                     HDECAY 3.4                     |
#              |                                                    |
#              |  By: A.Djouadi,J.Kalinowski,M.Muhlleitner,M.Spira  |
#              |  Ref.:    Comput.Phys.Commun.108(1998)56           |
#              |           [hep-ph/9704448]                         |
#              |                                                    |
#              |                                                    |
#              |  If not stated otherwise all DRbar couplings and   |
#              |  soft SUSY breaking masses are given at the scale  |
#              |  Q=  0.16419688E+04
#              |                                                    |
#              ------------------------------------------------------
#
#
BLOCK DCINFO  # Decay Program information
     1   SDECAY/HDECAY # decay calculator
     2   1.5  /3.4    # version number
#
BLOCK SPINFO  # Spectrum calculator information
     1    SOFTSUSY    # spectrum calculator                
     2    3.7.3       # version number                     
#
BLOCK MODSEL  # Model selection
     1     0   #  nonUniversal                                     
#
BLOCK SMINPUTS  # Standard Model inputs
         1     1.27934000E+02   # alpha_em^-1(M_Z)^MSbar
         2     1.16639000E-05   # G_F [GeV^-2]
         3     1.17200000E-01   # alpha_S(M_Z)^MSbar
         4     9.11870000E+01   # M_Z pole mass
         5     4.19000000E+00   # mb(mb)^MSbar
         6     1.72500000E+02   # mt pole mass
         7     1.77690000E+00   # mtau pole mass
#
BLOCK MINPAR  # Input parameters - minimal models
         3     2.00000000E+01   # tanb                
#
BLOCK EXTPAR  # Input parameters - non-minimal models
         0    -1.00000000E+00   # Set                 
         1     2.99900000E+02   # M_1(MX)             
         2     5.99900000E+02   # M_2(MX)             
         3     2.20000000E+03   # M_3(MX)             
        11     2.94338000E+03   # At(MX)              
        12     0.00000000E+00   # Ab(MX)              
        13     0.00000000E+00   # Atau(MX)            
        23    -3.00000000E+03   # mu(MX)              
        25     2.00000000E+01   # tan                 
        26     3.00000000E+03   # mA(pole)            
        31     3.00000000E+03   # meL(MX)             
        32     3.00000000E+03   # mmuL(MX)            
        33     3.00000000E+03   # mtauL(MX)           
        34     3.00000000E+03   # meR(MX)             
        35     3.00000000E+03   # mmuR(MX)            
        36     3.00000000E+03   # mtauR(MX)           
        41     3.00000000E+03   # mqL1(MX)            
        42     3.00000000E+03   # mqL2(MX)            
        43     8.99900000E+02   # mqL3(MX)            
        44     3.00000000E+03   # muR(MX)             
        45     3.00000000E+03   # mcR(MX)             
        46     3.00000000E+03   # mtR(MX)             
        47     3.00000000E+03   # mdR(MX)             
        48     3.00000000E+03   # msR(MX)             
        49     3.00000000E+03   # mbR(MX)             
#
BLOCK MASS  # Mass Spectrum
# PDG code           mass       particle
        24     8.04012103E+01   # W+
        25     1.24910696E+02   # h
        35     3.00003600E+03   # H
        36     2.99999993E+03   # A
        37     3.00108704E+03   # H+
         5     4.81337004E+00   # b-quark pole mass calculated from mb(mb)_Msbar
   1000001     3.04036577E+03   # ~d_L
   2000001     3.03521212E+03   # ~d_R
   1000002     3.03945906E+03   # ~u_L
   2000002     3.03666475E+03   # ~u_R
   1000003     3.04036577E+03   # ~s_L
   2000003     3.03521212E+03   # ~s_R
   1000004     3.03945906E+03   # ~c_L
   2000004     3.03666475E+03   # ~c_R
   1000005     1.00007684E+03   # ~b_1
   2000005     3.03298736E+03   # ~b_2
   1000006     9.97876785E+02   # ~t_1
   2000006     3.02418276E+03   # ~t_2
   1000011     3.00646330E+03   # ~e_L
   2000011     3.00169666E+03   # ~e_R
   1000012     3.00507610E+03   # ~nu_eL
   1000013     3.00646330E+03   # ~mu_L
   2000013     3.00169666E+03   # ~mu_R
   1000014     3.00507610E+03   # ~nu_muL
   1000015     2.98610775E+03   # ~tau_1
   2000015     3.02164920E+03   # ~tau_2
   1000016     3.00496693E+03   # ~nu_tauL
   1000021     2.35014615E+03   # ~g
   1000022     3.01919834E+02   # ~chi_10
   1000023     6.33443933E+02   # ~chi_20
   1000025    -2.99593007E+03   # ~chi_30
   1000035     2.99620635E+03   # ~chi_40
   1000024     6.33607400E+02   # ~chi_1+
   1000037     2.99701560E+03   # ~chi_2+
#
BLOCK NMIX  # Neutralino Mixing Matrix
  1  1     9.99890378E-01   # N_11
  1  2    -8.32724369E-07   # N_12
  1  3    -1.47878232E-02   # N_13
  1  4    -7.42609337E-04   # N_14
  2  1     3.98228793E-04   # N_21
  2  2     9.99636125E-01   # N_22
  2  3     2.66674994E-02   # N_23
  2  4     4.03772560E-03   # N_24
  3  1    -9.92871324E-03   # N_31
  3  2     1.60045208E-02   # N_32
  3  3    -7.06848317E-01   # N_33
  3  4     7.07114371E-01   # N_34
  4  1     1.09769417E-02   # N_41
  4  2    -2.17134210E-02   # N_42
  4  3     7.06707593E-01   # N_43
  4  4     7.07087273E-01   # N_44
#
BLOCK UMIX  # Chargino Mixing Matrix U
  1  1     9.99288774E-01   # U_11
  1  2     3.77087134E-02   # U_12
  2  1    -3.77087134E-02   # U_21
  2  2     9.99288774E-01   # U_22
#
BLOCK VMIX  # Chargino Mixing Matrix V
  1  1     9.99983708E-01   # V_11
  1  2    -5.70819251E-03   # V_12
  2  1    -5.70819251E-03   # V_21
  2  2    -9.99983708E-01   # V_22
#
BLOCK STOPMIX  # Stop Mixing Matrix
  1  1     9.98481921E-01   # cos(theta_t)
  1  2    -5.50804270E-02   # sin(theta_t)
  2  1     5.50804270E-02   # -sin(theta_t)
  2  2     9.98481921E-01   # cos(theta_t)
#
BLOCK SBOTMIX  # Sbottom Mixing Matrix
  1  1     9.99715421E-01   # cos(theta_b)
  1  2    -2.38553351E-02   # sin(theta_b)
  2  1     2.38553351E-02   # -sin(theta_b)
  2  2     9.99715421E-01   # cos(theta_b)
#
BLOCK STAUMIX  # Stau Mixing Matrix
  1  1    -7.06954931E-01   # cos(theta_tau)
  1  2     7.07258599E-01   # sin(theta_tau)
  2  1    -7.07258599E-01   # -sin(theta_tau)
  2  2    -7.06954931E-01   # cos(theta_tau)
#
BLOCK ALPHA  # Higgs mixing
          -5.00146600E-02   # Mixing angle in the neutral Higgs boson sector
#
BLOCK HMIX Q=  1.64196875E+03  # DRbar Higgs Parameters
         1    -3.00000000E+03   # mu(Q)MSSM           
         2     2.00000000E+01   # tan                 
         3     2.43896562E+02   # higgs               
         4     1.02975481E+07   # mA^2(Q)MSSM         
#
BLOCK GAUGE Q=  1.64196875E+03  # The gauge couplings
     1     3.62454335E-01   # gprime(Q) DRbar
     2     6.37351453E-01   # g(Q) DRbar
     3     1.02429141E+00   # g3(Q) DRbar
#
BLOCK AU Q=  1.64196875E+03  # The trilinear couplings
  1  1     2.57169121E-06   # A_u(Q) DRbar
  2  2     2.57172890E-06   # A_c(Q) DRbar
  3  3     2.94338000E+03   # A_t(Q) DRbar
#
BLOCK AD Q=  1.64196875E+03  # The trilinear couplings
  1  1     9.10899458E-07   # A_d(Q) DRbar
  2  2     9.11005623E-07   # A_s(Q) DRbar
  3  3     1.84876520E-06   # A_b(Q) DRbar
#
BLOCK AE Q=  1.64196875E+03  # The trilinear couplings
  1  1     3.87913977E-07   # A_e(Q) DRbar
  2  2     3.87932967E-07   # A_mu(Q) DRbar
  3  3     3.93260961E-07   # A_tau(Q) DRbar
#
BLOCK Yu Q=  1.64196875E+03  # The Yukawa couplings
  1  1     0.00000000E+00   # y_u(Q) DRbar
  2  2     0.00000000E+00   # y_c(Q) DRbar
  3  3     8.50679320E-01   # y_t(Q) DRbar
#
BLOCK Yd Q=  1.64196875E+03  # The Yukawa couplings
  1  1     0.00000000E+00   # y_d(Q) DRbar
  2  2     0.00000000E+00   # y_s(Q) DRbar
  3  3     3.78301211E-01   # y_b(Q) DRbar
#
BLOCK Ye Q=  1.64196875E+03  # The Yukawa couplings
  1  1     0.00000000E+00   # y_e(Q) DRbar
  2  2     0.00000000E+00   # y_mu(Q) DRbar
  3  3     2.01664362E-01   # y_tau(Q) DRbar
#
BLOCK MSOFT Q=  1.64196875E+03  # The soft SUSY breaking masses at the scale Q
         1     2.99900000E+02   # M_1(Q)              
         2     5.99900000E+02   # M_2(Q)              
         3     2.20000000E+03   # M_3(Q)              
        21    -3.93375302E+04   # M^2_Hd              
        22    -9.03487063E+06   # M^2_Hu              
        31     3.00000000E+03   # M_eL                
        32     3.00000000E+03   # M_muL               
        33     3.00000000E+03   # M_tauL              
        34     3.00000000E+03   # M_eR                
        35     3.00000000E+03   # M_muR               
        36     3.00000000E+03   # M_tauR              
        41     3.00000000E+03   # M_q1L               
        42     3.00000000E+03   # M_q2L               
        43     8.99899993E+02   # M_q3L               
        44     3.00000000E+03   # M_uR                
        45     3.00000000E+03   # M_cR                
        46     3.00000000E+03   # M_tR                
        47     3.00000000E+03   # M_dR                
        48     3.00000000E+03   # M_sR                
        49     3.00000000E+03   # M_bR                
#
#
#
#                             =================
#                             |The decay table|
#                             =================
#
# - The QCD corrections to the decays gluino -> squark  + quark
#                                     squark -> gaugino + quark_prime
#                                     squark -> squark_prime + Higgs
#                                     squark -> gluino  + quark
#   are included.
#
# - The multi-body decays for the inos, stops and sbottoms are included.
#
# - The loop induced decays for the gluino, neutralinos and stops
#   are included.
#
# - The SUSY decays of the top quark are included.
#
#
#         PDG            Width
DECAY         6     1.41000345E+00   # top decays
#          BR         NDA      ID1       ID2
     1.00000000E+00    2           5        24   # BR(t ->  b    W+)
#
#         PDG            Width
DECAY   1000021     6.41374688E+01   # gluino decays
#          BR         NDA      ID1       ID2
     2.47911644E-01    2     1000005        -5   # BR(~g -> ~b_1  bb)
     2.47911644E-01    2    -1000005         5   # BR(~g -> ~b_1* b )
     2.52088356E-01    2     1000006        -6   # BR(~g -> ~t_1  tb)
     2.52088356E-01    2    -1000006         6   # BR(~g -> ~t_1* t )
#
#         PDG            Width
DECAY   1000006     4.30470898E+00   # stop1 decays
#          BR         NDA      ID1       ID2
     2.65177850E-02    2     1000022         6   # BR(~t_1 -> ~chi_10 t )
     2.88194114E-01    2     1000023         6   # BR(~t_1 -> ~chi_20 t )
     6.85288101E-01    2     1000024         5   # BR(~t_1 -> ~chi_1+ b )
#
#         PDG            Width
DECAY   2000006     1.12581463E+02   # stop2 decays
#          BR         NDA      ID1       ID2
     5.78834343E-02    2     1000022         6   # BR(~t_2 -> ~chi_10 t )
     3.38430707E-04    2     1000023         6   # BR(~t_2 -> ~chi_20 t )
     0.00000000E+00    2     1000025         6   # BR(~t_2 -> ~chi_30 t )
     6.80684496E-04    2     1000024         5   # BR(~t_2 -> ~chi_1+ b )
     1.33209016E-04    2     1000037         5   # BR(~t_2 -> ~chi_2+ b )
     3.00450564E-01    2     1000021         6   # BR(~t_2 -> ~g      t )
     1.67317127E-01    2     1000006        25   # BR(~t_2 -> ~t_1    h )
     1.60057632E-01    2     1000006        23   # BR(~t_2 -> ~t_1    Z )
     3.13138918E-01    2     1000005        24   # BR(~t_2 -> ~b_1    W+)
#
#         PDG            Width
DECAY   1000005     4.12964485E+00   # sbottom1 decays
#          BR         NDA      ID1       ID2
     3.01978276E-02    2     1000022         5   # BR(~b_1 -> ~chi_10 b )
     3.61438152E-01    2     1000023         5   # BR(~b_1 -> ~chi_20 b )
     6.08364020E-01    2    -1000024         6   # BR(~b_1 -> ~chi_1- t )
#
#         PDG            Width
DECAY   2000005     5.30138852E+01   # sbottom2 decays
#          BR         NDA      ID1       ID2
     3.09905066E-02    2     1000022         5   # BR(~b_2 -> ~chi_10 b )
     2.24453490E-07    2     1000023         5   # BR(~b_2 -> ~chi_20 b )
     5.14719469E-05    2     1000025         5   # BR(~b_2 -> ~chi_30 b )
     5.00278504E-05    2     1000035         5   # BR(~b_2 -> ~chi_40 b )
     2.58916355E-07    2    -1000024         6   # BR(~b_2 -> ~chi_1- t )
     6.54752466E-01    2     1000021         5   # BR(~b_2 -> ~g      b )
     6.97532434E-02    2     1000005        25   # BR(~b_2 -> ~b_1    h )
     9.97223547E-02    2     1000005        23   # BR(~b_2 -> ~b_1    Z )
     1.44679446E-01    2     1000006       -24   # BR(~b_2 -> ~t_1    W-)
#
#         PDG            Width
DECAY   1000002     6.78187319E+01   # sup_L decays
#          BR         NDA      ID1       ID2
     6.07983211E-03    2     1000022         2   # BR(~u_L -> ~chi_10 u)
     1.58216348E-01    2     1000023         2   # BR(~u_L -> ~chi_20 u)
     3.19154345E-08    2     1000025         2   # BR(~u_L -> ~chi_30 u)
     6.09217657E-08    2     1000035         2   # BR(~u_L -> ~chi_40 u)
     3.16590457E-01    2     1000024         1   # BR(~u_L -> ~chi_1+ d)
     9.92941938E-09    2     1000037         1   # BR(~u_L -> ~chi_2+ d)
     5.19113260E-01    2     1000021         2   # BR(~u_L -> ~g      u)
#
#         PDG            Width
DECAY   2000002     4.15717583E+01   # sup_R decays
#          BR         NDA      ID1       ID2
     1.58540702E-01    2     1000022         2   # BR(~u_R -> ~chi_10 u)
     2.35213964E-08    2     1000023         2   # BR(~u_R -> ~chi_20 u)
     1.30194945E-08    2     1000025         2   # BR(~u_R -> ~chi_30 u)
     1.57047981E-08    2     1000035         2   # BR(~u_R -> ~chi_40 u)
     8.41459245E-01    2     1000021         2   # BR(~u_R -> ~g      u)
#
#         PDG            Width
DECAY   1000001     6.78703719E+01   # sdown_L decays
#          BR         NDA      ID1       ID2
     6.07724523E-03    2     1000022         1   # BR(~d_L -> ~chi_10 d)
     1.58105041E-01    2     1000023         1   # BR(~d_L -> ~chi_20 d)
     5.32306327E-08    2     1000025         1   # BR(~d_L -> ~chi_30 d)
     9.30662168E-08    2     1000035         1   # BR(~d_L -> ~chi_40 d)
     3.16023623E-01    2    -1000024         2   # BR(~d_L -> ~chi_1- u)
     4.50997191E-07    2    -1000037         2   # BR(~d_L -> ~chi_2- u)
     5.19793493E-01    2     1000021         1   # BR(~d_L -> ~g      d)
#
#         PDG            Width
DECAY   2000001     3.65111518E+01   # sdown_R decays
#          BR         NDA      ID1       ID2
     4.51057697E-02    2     1000022         1   # BR(~d_R -> ~chi_10 d)
     6.69153038E-09    2     1000023         1   # BR(~d_R -> ~chi_20 d)
     3.45527271E-09    2     1000025         1   # BR(~d_R -> ~chi_30 d)
     4.16587472E-09    2     1000035         1   # BR(~d_R -> ~chi_40 d)
     9.54894216E-01    2     1000021         1   # BR(~d_R -> ~g      d)
#
#         PDG            Width
DECAY   1000004     6.78187319E+01   # scharm_L decays
#          BR         NDA      ID1       ID2
     6.07983211E-03    2     1000022         4   # BR(~c_L -> ~chi_10 c)
     1.58216348E-01    2     1000023         4   # BR(~c_L -> ~chi_20 c)
     3.19154345E-08    2     1000025         4   # BR(~c_L -> ~chi_30 c)
     6.09217657E-08    2     1000035         4   # BR(~c_L -> ~chi_40 c)
     3.16590457E-01    2     1000024         3   # BR(~c_L -> ~chi_1+ s)
     9.92941938E-09    2     1000037         3   # BR(~c_L -> ~chi_2+ s)
     5.19113260E-01    2     1000021         4   # BR(~c_L -> ~g      c)
#
#         PDG            Width
DECAY   2000004     4.15717583E+01   # scharm_R decays
#          BR         NDA      ID1       ID2
     1.58540702E-01    2     1000022         4   # BR(~c_R -> ~chi_10 c)
     2.35213964E-08    2     1000023         4   # BR(~c_R -> ~chi_20 c)
     1.30194945E-08    2     1000025         4   # BR(~c_R -> ~chi_30 c)
     1.57047981E-08    2     1000035         4   # BR(~c_R -> ~chi_40 c)
     8.41459245E-01    2     1000021         4   # BR(~c_R -> ~g      c)
#
#         PDG            Width
DECAY   1000003     6.78703719E+01   # sstrange_L decays
#          BR         NDA      ID1       ID2
     6.07724523E-03    2     1000022         3   # BR(~s_L -> ~chi_10 s)
     1.58105041E-01    2     1000023         3   # BR(~s_L -> ~chi_20 s)
     5.32306327E-08    2     1000025         3   # BR(~s_L -> ~chi_30 s)
     9.30662168E-08    2     1000035         3   # BR(~s_L -> ~chi_40 s)
     3.16023623E-01    2    -1000024         4   # BR(~s_L -> ~chi_1- c)
     4.50997191E-07    2    -1000037         4   # BR(~s_L -> ~chi_2- c)
     5.19793493E-01    2     1000021         3   # BR(~s_L -> ~g      s)
#
#         PDG            Width
DECAY   2000003     3.65111518E+01   # sstrange_R decays
#          BR         NDA      ID1       ID2
     4.51057697E-02    2     1000022         3   # BR(~s_R -> ~chi_10 s)
     6.69153038E-09    2     1000023         3   # BR(~s_R -> ~chi_20 s)
     3.45527271E-09    2     1000025         3   # BR(~s_R -> ~chi_30 s)
     4.16587472E-09    2     1000035         3   # BR(~s_R -> ~chi_40 s)
     9.54894216E-01    2     1000021         3   # BR(~s_R -> ~g      s)
#
#         PDG            Width
DECAY   1000011     3.70943498E+01   # selectron_L decays
#          BR         NDA      ID1       ID2
     1.03765814E-01    2     1000022        11   # BR(~e_L -> ~chi_10 e-)
     2.98982978E-01    2     1000023        11   # BR(~e_L -> ~chi_20 e-)
     1.71918004E-09    2     1000025        11   # BR(~e_L -> ~chi_30 e-)
     3.63699452E-09    2     1000035        11   # BR(~e_L -> ~chi_40 e-)
     5.97251166E-01    2    -1000024        12   # BR(~e_L -> ~chi_1- nu_e)
     3.66736568E-08    2    -1000037        12   # BR(~e_L -> ~chi_2- nu_e)
#
#         PDG            Width
DECAY   2000011     1.53711428E+01   # selectron_R decays
#          BR         NDA      ID1       ID2
     9.99999849E-01    2     1000022        11   # BR(~e_R -> ~chi_10 e-)
     1.47782839E-07    2     1000023        11   # BR(~e_R -> ~chi_20 e-)
     1.48266531E-09    2     1000025        11   # BR(~e_R -> ~chi_30 e-)
     1.64291653E-09    2     1000035        11   # BR(~e_R -> ~chi_40 e-)
#
#         PDG            Width
DECAY   1000013     3.70943498E+01   # smuon_L decays
#          BR         NDA      ID1       ID2
     1.03765814E-01    2     1000022        13   # BR(~mu_L -> ~chi_10 mu-)
     2.98982978E-01    2     1000023        13   # BR(~mu_L -> ~chi_20 mu-)
     1.71918004E-09    2     1000025        13   # BR(~mu_L -> ~chi_30 mu-)
     3.63699452E-09    2     1000035        13   # BR(~mu_L -> ~chi_40 mu-)
     5.97251166E-01    2    -1000024        14   # BR(~mu_L -> ~chi_1- nu_mu)
     3.66736568E-08    2    -1000037        14   # BR(~mu_L -> ~chi_2- nu_mu)
#
#         PDG            Width
DECAY   2000013     1.53711428E+01   # smuon_R decays
#          BR         NDA      ID1       ID2
     9.99999849E-01    2     1000022        13   # BR(~mu_R -> ~chi_10 mu-)
     1.47782839E-07    2     1000023        13   # BR(~mu_R -> ~chi_20 mu-)
     1.48266531E-09    2     1000025        13   # BR(~mu_R -> ~chi_30 mu-)
     1.64291653E-09    2     1000035        13   # BR(~mu_R -> ~chi_40 mu-)
#
#         PDG            Width
DECAY   1000015     2.64803487E+01   # stau_1 decays
#          BR         NDA      ID1       ID2
     3.62591360E-01    2     1000022        15   # BR(~tau_1 -> ~chi_10  tau-)
     2.12656587E-01    2     1000023        15   # BR(~tau_1 -> ~chi_20  tau-)
     4.24752053E-01    2    -1000024        16   # BR(~tau_1 -> ~chi_1-  nu_tau)
#
#         PDG            Width
DECAY   2000015     2.59618229E+01   # stau_2 decays
#          BR         NDA      ID1       ID2
     3.70826735E-01    2     1000022        15   # BR(~tau_2 -> ~chi_10  tau-)
     2.09901116E-01    2     1000023        15   # BR(~tau_2 -> ~chi_20  tau-)
     1.54172786E-05    2     1000025        15   # BR(~tau_2 -> ~chi_30  tau-)
     1.33850268E-05    2     1000035        15   # BR(~tau_2 -> ~chi_40  tau-)
     4.19227821E-01    2    -1000024        16   # BR(~tau_2 -> ~chi_1-  nu_tau)
     1.55255017E-05    2    -1000037        16   # BR(~tau_2 -> ~chi_2-  nu_tau)
#
#         PDG            Width
DECAY   1000012     3.70950990E+01   # snu_eL decays
#          BR         NDA      ID1       ID2
     1.03714497E-01    2     1000022        12   # BR(~nu_eL -> ~chi_10 nu_e)
     2.98542689E-01    2     1000023        12   # BR(~nu_eL -> ~chi_20 nu_e)
     5.66811969E-09    2     1000025        12   # BR(~nu_eL -> ~chi_30 nu_e)
     8.88857967E-09    2     1000035        12   # BR(~nu_eL -> ~chi_40 nu_e)
     5.97742799E-01    2     1000024        11   # BR(~nu_eL -> ~chi_1+ e-)
     6.12253938E-10    2     1000037        11   # BR(~nu_eL -> ~chi_2+ e-)
#
#         PDG            Width
DECAY   1000014     3.70950990E+01   # snu_muL decays
#          BR         NDA      ID1       ID2
     1.03714497E-01    2     1000022        14   # BR(~nu_muL -> ~chi_10 nu_mu)
     2.98542689E-01    2     1000023        14   # BR(~nu_muL -> ~chi_20 nu_mu)
     5.66811969E-09    2     1000025        14   # BR(~nu_muL -> ~chi_30 nu_mu)
     8.88857967E-09    2     1000035        14   # BR(~nu_muL -> ~chi_40 nu_mu)
     5.97742799E-01    2     1000024        13   # BR(~nu_muL -> ~chi_1+ mu-)
     6.12253938E-10    2     1000037        13   # BR(~nu_muL -> ~chi_2+ mu-)
#
#         PDG            Width
DECAY   1000016     3.70968641E+01   # snu_tauL decays
#          BR         NDA      ID1       ID2
     1.03705641E-01    2     1000022        16   # BR(~nu_tauL -> ~chi_10 nu_tau)
     2.98515621E-01    2     1000023        16   # BR(~nu_tauL -> ~chi_20 nu_tau)
     5.53375266E-09    2     1000025        16   # BR(~nu_tauL -> ~chi_30 nu_tau)
     8.67133966E-09    2     1000035        16   # BR(~nu_tauL -> ~chi_40 nu_tau)
     5.97776956E-01    2     1000024        15   # BR(~nu_tauL -> ~chi_1+ tau-)
     1.76790397E-06    2     1000037        15   # BR(~nu_tauL -> ~chi_2+ tau-)
#
#         PDG            Width
DECAY   1000024     1.14219542E-05   # chargino1+ decays
#          BR         NDA      ID1       ID2
     1.00000000E+00    2     1000022        24   # BR(~chi_1+ -> ~chi_10  W+)
#
#         PDG            Width
DECAY   1000037     8.62118307E+01   # chargino2+ decays
#          BR         NDA      ID1       ID2
     1.31910443E-01    2     1000006        -5   # BR(~chi_2+ -> ~t_1     bb)
     6.55075813E-01    2    -1000005         6   # BR(~chi_2+ -> ~b_1*    t )
     2.87701212E-07    2    -1000015        16   # BR(~chi_2+ -> ~tau_1+  nu_tau)
     6.35481615E-02    2     1000024        23   # BR(~chi_2+ -> ~chi_1+  Z )
     2.07193601E-02    2     1000022        24   # BR(~chi_2+ -> ~chi_10  W+)
     6.18415755E-02    2     1000023        24   # BR(~chi_2+ -> ~chi_20  W+)
     6.69043595E-02    2     1000024        25   # BR(~chi_2+ -> ~chi_1+  h )
#
#         PDG            Width
DECAY   1000022     0.00000000E+00   # neutralino1 decays
#
#         PDG            Width
DECAY   1000023     1.09001433E-05   # neutralino2 decays
#          BR         NDA      ID1       ID2
     5.78385663E-01    2     1000022        23   # BR(~chi_20 -> ~chi_10   Z )
     4.21614337E-01    2     1000022        25   # BR(~chi_20 -> ~chi_10   h )
#
#         PDG            Width
DECAY   1000025     8.64036401E+01   # neutralino3 decays
#          BR         NDA      ID1       ID2
     1.16897365E-02    2     1000022        23   # BR(~chi_30 -> ~chi_10   Z )
     4.10479080E-02    2     1000023        23   # BR(~chi_30 -> ~chi_20   Z )
     6.16728274E-02    2     1000024       -24   # BR(~chi_30 -> ~chi_1+   W-)
     6.16728274E-02    2    -1000024        24   # BR(~chi_30 -> ~chi_1-   W+)
     9.93054095E-03    2     1000022        25   # BR(~chi_30 -> ~chi_10   h )
     2.27518817E-02    2     1000023        25   # BR(~chi_30 -> ~chi_20   h )
     3.30860191E-01    2     1000006        -6   # BR(~chi_30 -> ~t_1      tb)
     3.30860191E-01    2    -1000006         6   # BR(~chi_30 -> ~t_1*     t )
     6.47566229E-02    2     1000005        -5   # BR(~chi_30 -> ~b_1      bb)
     6.47566229E-02    2    -1000005         5   # BR(~chi_30 -> ~b_1*     b )
     3.25447159E-07    2     1000015       -15   # BR(~chi_30 -> ~tau_1-   tau+)
     3.25447159E-07    2    -1000015        15   # BR(~chi_30 -> ~tau_1+   tau-)
#
#         PDG            Width
DECAY   1000035     8.54719369E+01   # neutralino4 decays
#          BR         NDA      ID1       ID2
     9.67404784E-03    2     1000022        23   # BR(~chi_40 -> ~chi_10   Z )
     2.25883656E-02    2     1000023        23   # BR(~chi_40 -> ~chi_20   Z )
     6.23682004E-02    2     1000024       -24   # BR(~chi_40 -> ~chi_1+   W-)
     6.23682004E-02    2    -1000024        24   # BR(~chi_40 -> ~chi_1-   W+)
     1.23215865E-02    2     1000022        25   # BR(~chi_40 -> ~chi_10   h )
     4.44828734E-02    2     1000023        25   # BR(~chi_40 -> ~chi_20   h )
     3.27631172E-01    2     1000006        -6   # BR(~chi_40 -> ~t_1      tb)
     3.27631172E-01    2    -1000006         6   # BR(~chi_40 -> ~t_1*     t )
     6.54669528E-02    2     1000005        -5   # BR(~chi_40 -> ~b_1      bb)
     6.54669528E-02    2    -1000005         5   # BR(~chi_40 -> ~b_1*     b )
     2.37629251E-07    2     1000015       -15   # BR(~chi_40 -> ~tau_1-   tau+)
     2.37629251E-07    2    -1000015        15   # BR(~chi_40 -> ~tau_1+   tau-)
#
#         PDG            Width
DECAY        25     3.60204674E-03   # h decays
#          BR         NDA      ID1       ID2
     5.64458693E-01    2           5        -5   # BR(h -> b       bb     )
     7.19357086E-02    2         -15        15   # BR(h -> tau+    tau-   )
     2.54654981E-04    2         -13        13   # BR(h -> mu+     mu-    )
     5.40583389E-04    2           3        -3   # BR(h -> s       sb     )
     2.34895127E-02    2           4        -4   # BR(h -> c       cb     )
     7.61676297E-02    2          21        21   # BR(h -> g       g      )
     2.60441996E-03    2          22        22   # BR(h -> gam     gam    )
     1.72100431E-03    2          22        23   # BR(h -> Z       gam    )
     2.30094138E-01    2          24       -24   # BR(h -> W+      W-     )
     2.87336551E-02    2          23        23   # BR(h -> Z       Z      )
#
#         PDG            Width
DECAY        35     3.50128514E+01   # H decays
#          BR         NDA      ID1       ID2
     8.95828665E-01    2           5        -5   # BR(H -> b       bb     )
     7.10232461E-02    2         -15        15   # BR(H -> tau+    tau-   )
     2.51121226E-04    2         -13        13   # BR(H -> mu+     mu-    )
     3.08378293E-04    2           3        -3   # BR(H -> s       sb     )
     8.64377099E-08    2           4        -4   # BR(H -> c       cb     )
     8.62271218E-03    2           6        -6   # BR(H -> t       tb     )
     1.22439251E-05    2          21        21   # BR(H -> g       g      )
     6.27532463E-08    2          22        22   # BR(H -> gam     gam    )
     3.53145629E-09    2          23        22   # BR(H -> Z       gam    )
     7.97691150E-07    2          24       -24   # BR(H -> W+      W-     )
     3.98353793E-07    2          23        23   # BR(H -> Z       Z      )
     5.97653694E-06    2          25        25   # BR(H -> h       h      )
    -1.06015795E-24    2          36        36   # BR(H -> A       A      )
     7.05221801E-20    2          23        36   # BR(H -> Z       A      )
     7.79616919E-04    2     1000024  -1000024   # BR(H -> ~chi_1+ ~chi_1-)
     4.28799871E-05    2     1000022   1000022   # BR(H -> ~chi_10 ~chi_10)
     3.89541989E-04    2     1000023   1000023   # BR(H -> ~chi_20 ~chi_20)
     2.63447078E-04    2     1000022   1000023   # BR(H -> ~chi_10 ~chi_20)
     2.24656976E-02    2     1000006  -1000006   # BR(H -> ~t_1    ~t_1*  )
     5.12396887E-06    2     1000005  -1000005   # BR(H -> ~b_1    ~b_1*  )
#
#         PDG            Width
DECAY        36     3.42375308E+01   # A decays
#          BR         NDA      ID1       ID2
     9.16149522E-01    2           5        -5   # BR(A -> b       bb     )
     7.26312295E-02    2         -15        15   # BR(A -> tau+    tau-   )
     2.56806312E-04    2         -13        13   # BR(A -> mu+     mu-    )
     3.15411477E-04    2           3        -3   # BR(A -> s       sb     )
     8.90046482E-08    2           4        -4   # BR(A -> c       cb     )
     8.87389829E-03    2           6        -6   # BR(A -> t       tb     )
     2.61327814E-05    2          21        21   # BR(A -> g       g      )
     6.96457465E-08    2          22        22   # BR(A -> gam     gam    )
     2.57435739E-08    2          23        22   # BR(A -> Z       gam    )
     8.12726601E-07    2          23        25   # BR(A -> Z       h      )
     9.41470213E-04    2     1000024  -1000024   # BR(A -> ~chi_1+ ~chi_1-)
     4.52452630E-05    2     1000022   1000022   # BR(A -> ~chi_10 ~chi_10)
     4.70347511E-04    2     1000023   1000023   # BR(A -> ~chi_20 ~chi_20)
     2.88939997E-04    2     1000022   1000023   # BR(A -> ~chi_10 ~chi_20)
#
#         PDG            Width
DECAY        37     3.76109844E+01   # H+ decays
#          BR         NDA      ID1       ID2
     1.46231124E-03    2           4        -5   # BR(H+ -> c       bb     )
     6.61406530E-02    2         -15        16   # BR(H+ -> tau+    nu_tau )
     2.33857217E-04    2         -13        14   # BR(H+ -> mu+     nu_mu  )
     9.35878041E-06    2           2        -5   # BR(H+ -> u       bb     )
     1.37431930E-05    2           2        -3   # BR(H+ -> u       sb     )
     2.82741674E-04    2           4        -3   # BR(H+ -> c       sb     )
     9.20544497E-01    2           6        -5   # BR(H+ -> t       bb     )
     7.41098809E-07    2          24        25   # BR(H+ -> W+      h      )
     5.31155571E-14    2          24        36   # BR(H+ -> W+      A      )
     5.08334797E-04    2     1000024   1000022   # BR(H+ -> ~chi_1+ ~chi_10)
     7.43098732E-11    2     1000024   1000023   # BR(H+ -> ~chi_1+ ~chi_20)
     1.08037616E-02    2     1000006  -1000005   # BR(H+ -> ~t_1    ~b_1*  )
