#
#                              ======================
#                              | THE SUSYHIT OUTPUT |
#                              ======================
#
#
#              ------------------------------------------------------
#              |     This is the output of the SUSY-HIT package     |
#              |  created by A.Djouadi, M.Muehlleitner and M.Spira. |
#              |  In case of problems with SUSY-HIT email to        |
#              |           margarete.muehlleitner@kit.edu           |
#              |           michael.spira@psi.ch                     |
#              |           abdelhak.djouadi@cern.ch                 |
#              ------------------------------------------------------
#
#              ------------------------------------------------------
#              |  SUSY Les Houches Accord - MSSM Spectrum + Decays  |
#              |              based on the decay programs           |
#              |                                                    |
#              |                     SDECAY 1.5                     |
#              |                                                    |
#              |  Authors: M.Muhlleitner, A.Djouadi and Y.Mambrini  |
#              |  Ref.:    Comput.Phys.Commun.168(2005)46           |
#              |           [hep-ph/0311167]                         |
#              |                                                    |
#              |                     HDECAY 3.4                     |
#              |                                                    |
#              |  By: A.Djouadi,J.Kalinowski,M.Muhlleitner,M.Spira  |
#              |  Ref.:    Comput.Phys.Commun.108(1998)56           |
#              |           [hep-ph/9704448]                         |
#              |                                                    |
#              |                                                    |
#              |  If not stated otherwise all DRbar couplings and   |
#              |  soft SUSY breaking masses are given at the scale  |
#              |  Q=  0.15954609E+04
#              |                                                    |
#              ------------------------------------------------------
#
#
BLOCK DCINFO  # Decay Program information
     1   SDECAY/HDECAY # decay calculator
     2   1.5  /3.4    # version number
#
BLOCK SPINFO  # Spectrum calculator information
     1    SOFTSUSY    # spectrum calculator                
     2    3.7.3       # version number                     
#
BLOCK MODSEL  # Model selection
     1     0   #  nonUniversal                                     
#
BLOCK SMINPUTS  # Standard Model inputs
         1     1.27934000E+02   # alpha_em^-1(M_Z)^MSbar
         2     1.16639000E-05   # G_F [GeV^-2]
         3     1.17200000E-01   # alpha_S(M_Z)^MSbar
         4     9.11870000E+01   # M_Z pole mass
         5     4.19000000E+00   # mb(mb)^MSbar
         6     1.72500000E+02   # mt pole mass
         7     1.77690000E+00   # mtau pole mass
#
BLOCK MINPAR  # Input parameters - minimal models
         3     2.00000000E+01   # tanb                
#
BLOCK EXTPAR  # Input parameters - non-minimal models
         0    -1.00000000E+00   # Set                 
         1     2.99900000E+02   # M_1(MX)             
         2     5.99900000E+02   # M_2(MX)             
         3     2.20000000E+03   # M_3(MX)             
        11     3.24338000E+03   # At(MX)              
        12     0.00000000E+00   # Ab(MX)              
        13     0.00000000E+00   # Atau(MX)            
        23     3.00000000E+03   # mu(MX)              
        25     2.00000000E+01   # tan                 
        26     3.00000000E+03   # mA(pole)            
        31     3.00000000E+03   # meL(MX)             
        32     3.00000000E+03   # mmuL(MX)            
        33     3.00000000E+03   # mtauL(MX)           
        34     3.00000000E+03   # meR(MX)             
        35     3.00000000E+03   # mmuR(MX)            
        36     3.00000000E+03   # mtauR(MX)           
        41     3.00000000E+03   # mqL1(MX)            
        42     3.00000000E+03   # mqL2(MX)            
        43     8.49900000E+02   # mqL3(MX)            
        44     3.00000000E+03   # muR(MX)             
        45     3.00000000E+03   # mcR(MX)             
        46     3.00000000E+03   # mtR(MX)             
        47     3.00000000E+03   # mdR(MX)             
        48     3.00000000E+03   # msR(MX)             
        49     3.00000000E+03   # mbR(MX)             
#
BLOCK MASS  # Mass Spectrum
# PDG code           mass       particle
        24     8.04032855E+01   # W+
        25     1.25028326E+02   # h
        35     3.00012734E+03   # H
        36     2.99999987E+03   # A
        37     3.00092400E+03   # H+
         5     4.81337004E+00   # b-quark pole mass calculated from mb(mb)_Msbar
   1000001     3.03882066E+03   # ~d_L
   2000001     3.03374828E+03   # ~d_R
   1000002     3.03791607E+03   # ~u_L
   2000002     3.03485323E+03   # ~u_R
   1000003     3.03882066E+03   # ~s_L
   2000003     3.03374828E+03   # ~s_R
   1000004     3.03791607E+03   # ~c_L
   2000004     3.03485323E+03   # ~c_R
   1000005     9.51312322E+02   # ~b_1
   2000005     3.03278211E+03   # ~b_2
   1000006     9.47229864E+02   # ~t_1
   2000006     3.01642282E+03   # ~t_2
   1000011     3.00626062E+03   # ~e_L
   2000011     3.00204380E+03   # ~e_R
   1000012     3.00487582E+03   # ~nu_eL
   1000013     3.00626062E+03   # ~mu_L
   2000013     3.00204380E+03   # ~mu_R
   1000014     3.00487582E+03   # ~nu_muL
   1000015     2.98556819E+03   # ~tau_1
   2000015     3.02198022E+03   # ~tau_2
   1000016     3.00465229E+03   # ~nu_tauL
   1000021     2.34804231E+03   # ~g
   1000022     3.01423373E+02   # ~chi_10
   1000023     6.31089323E+02   # ~chi_20
   1000025    -2.99602207E+03   # ~chi_30
   1000035     2.99686961E+03   # ~chi_40
   1000024     6.31252308E+02   # ~chi_1+
   1000037     2.99739446E+03   # ~chi_2+
#
BLOCK NMIX  # Neutralino Mixing Matrix
  1  1     9.99885268E-01   # N_11
  1  2    -7.71410806E-04   # N_12
  1  3     1.49624288E-02   # N_13
  1  4    -2.23205740E-03   # N_14
  2  1     1.19342989E-03   # N_21
  2  2     9.99606307E-01   # N_22
  2  3    -2.72125367E-02   # N_23
  2  4     6.72931249E-03   # N_24
  3  1    -8.98798240E-03   # N_31
  3  2     1.44936304E-02   # N_32
  3  3     7.06870697E-01   # N_33
  3  4     7.07137164E-01   # N_34
  4  1    -1.21343862E-02   # N_41
  4  2     2.40118654E-02   # N_42
  4  3     7.06660754E-01   # N_43
  4  4    -7.07040852E-01   # N_44
#
BLOCK UMIX  # Chargino Mixing Matrix U
  1  1     9.99258702E-01   # U_11
  1  2    -3.84973471E-02   # U_12
  2  1     3.84973471E-02   # U_21
  2  2     9.99258702E-01   # U_22
#
BLOCK VMIX  # Chargino Mixing Matrix V
  1  1     9.99954673E-01   # V_11
  1  2    -9.52116013E-03   # V_12
  2  1     9.52116013E-03   # V_21
  2  2     9.99954673E-01   # V_22
#
BLOCK STOPMIX  # Stop Mixing Matrix
  1  1     9.98507526E-01   # cos(theta_t)
  1  2    -5.46142886E-02   # sin(theta_t)
  2  1     5.46142886E-02   # -sin(theta_t)
  2  2     9.98507526E-01   # cos(theta_t)
#
BLOCK SBOTMIX  # Sbottom Mixing Matrix
  1  1     9.99909989E-01   # cos(theta_b)
  1  2     1.34169258E-02   # sin(theta_b)
  2  1    -1.34169258E-02   # -sin(theta_b)
  2  2     9.99909989E-01   # cos(theta_b)
#
BLOCK STAUMIX  # Stau Mixing Matrix
  1  1     7.06955074E-01   # cos(theta_tau)
  1  2     7.07258456E-01   # sin(theta_tau)
  2  1    -7.07258456E-01   # -sin(theta_tau)
  2  2     7.06955074E-01   # cos(theta_tau)
#
BLOCK ALPHA  # Higgs mixing
          -5.01780995E-02   # Mixing angle in the neutral Higgs boson sector
#
BLOCK HMIX Q=  1.59546093E+03  # DRbar Higgs Parameters
         1     3.00000000E+03   # mu(Q)MSSM           
         2     2.00000000E+01   # tan                 
         3     2.44043978E+02   # higgs               
         4     7.48455752E+06   # mA^2(Q)MSSM         
#
BLOCK GAUGE Q=  1.59546093E+03  # The gauge couplings
     1     3.62381352E-01   # gprime(Q) DRbar
     2     6.37469262E-01   # g(Q) DRbar
     3     1.02497909E+00   # g3(Q) DRbar
#
BLOCK AU Q=  1.59546093E+03  # The trilinear couplings
  1  1     2.43135440E-06   # A_u(Q) DRbar
  2  2     2.43138793E-06   # A_c(Q) DRbar
  3  3     3.24338000E+03   # A_t(Q) DRbar
#
BLOCK AD Q=  1.59546093E+03  # The trilinear couplings
  1  1     6.50873028E-07   # A_d(Q) DRbar
  2  2     6.50987195E-07   # A_s(Q) DRbar
  3  3     1.43251652E-06   # A_b(Q) DRbar
#
BLOCK AE Q=  1.59546093E+03  # The trilinear couplings
  1  1     0.00000000E+00   # A_e(Q) DRbar
  2  2     1.33561283E-07   # A_mu(Q) DRbar
  3  3     1.35136160E-07   # A_tau(Q) DRbar
#
BLOCK Yu Q=  1.59546093E+03  # The Yukawa couplings
  1  1     0.00000000E+00   # y_u(Q) DRbar
  2  2     0.00000000E+00   # y_c(Q) DRbar
  3  3     8.51908508E-01   # y_t(Q) DRbar
#
BLOCK Yd Q=  1.59546093E+03  # The Yukawa couplings
  1  1     0.00000000E+00   # y_d(Q) DRbar
  2  2     0.00000000E+00   # y_s(Q) DRbar
  3  3     2.14785580E-01   # y_b(Q) DRbar
#
BLOCK Ye Q=  1.59546093E+03  # The Yukawa couplings
  1  1     0.00000000E+00   # y_e(Q) DRbar
  2  2     0.00000000E+00   # y_mu(Q) DRbar
  3  3     2.07132924E-01   # y_tau(Q) DRbar
#
BLOCK MSOFT Q=  1.59546093E+03  # The soft SUSY breaking masses at the scale Q
         1     2.99900000E+02   # M_1(Q)              
         2     5.99900000E+02   # M_2(Q)              
         3     2.20000000E+03   # M_3(Q)              
        21    -8.47031502E+04   # M^2_Hd              
        22    -9.05170973E+06   # M^2_Hu              
        31     3.00000000E+03   # M_eL                
        32     3.00000000E+03   # M_muL               
        33     3.00000000E+03   # M_tauL              
        34     3.00000000E+03   # M_eR                
        35     3.00000000E+03   # M_muR               
        36     3.00000000E+03   # M_tauR              
        41     3.00000000E+03   # M_q1L               
        42     3.00000000E+03   # M_q2L               
        43     8.49899994E+02   # M_q3L               
        44     3.00000000E+03   # M_uR                
        45     3.00000000E+03   # M_cR                
        46     3.00000000E+03   # M_tR                
        47     3.00000000E+03   # M_dR                
        48     3.00000000E+03   # M_sR                
        49     3.00000000E+03   # M_bR                
#
#
#
#                             =================
#                             |The decay table|
#                             =================
#
# - The QCD corrections to the decays gluino -> squark  + quark
#                                     squark -> gaugino + quark_prime
#                                     squark -> squark_prime + Higgs
#                                     squark -> gluino  + quark
#   are included.
#
# - The multi-body decays for the inos, stops and sbottoms are included.
#
# - The loop induced decays for the gluino, neutralinos and stops
#   are included.
#
# - The SUSY decays of the top quark are included.
#
#
#         PDG            Width
DECAY         6     1.41043358E+00   # top decays
#          BR         NDA      ID1       ID2
     1.00000000E+00    2           5        24   # BR(t ->  b    W+)
#
#         PDG            Width
DECAY   1000021     6.67127170E+01   # gluino decays
#          BR         NDA      ID1       ID2
     2.47717962E-01    2     1000005        -5   # BR(~g -> ~b_1  bb)
     2.47717962E-01    2    -1000005         5   # BR(~g -> ~b_1* b )
     2.52282038E-01    2     1000006        -6   # BR(~g -> ~t_1  tb)
     2.52282038E-01    2    -1000006         6   # BR(~g -> ~t_1* t )
#
#         PDG            Width
DECAY   1000006     3.50207457E+00   # stop1 decays
#          BR         NDA      ID1       ID2
     2.96187656E-02    2     1000022         6   # BR(~t_1 -> ~chi_10 t )
     2.74948429E-01    2     1000023         6   # BR(~t_1 -> ~chi_20 t )
     6.95432805E-01    2     1000024         5   # BR(~t_1 -> ~chi_1+ b )
#
#         PDG            Width
DECAY   2000006     1.12747560E+02   # stop2 decays
#          BR         NDA      ID1       ID2
     5.76312917E-02    2     1000022         6   # BR(~t_2 -> ~chi_10 t )
     3.93420664E-04    2     1000023         6   # BR(~t_2 -> ~chi_20 t )
     0.00000000E+00    2     1000025         6   # BR(~t_2 -> ~chi_30 t )
     7.90738458E-04    2     1000024         5   # BR(~t_2 -> ~chi_1+ b )
     6.47711558E-05    2     1000037         5   # BR(~t_2 -> ~chi_2+ b )
     2.96242034E-01    2     1000021         6   # BR(~t_2 -> ~g      t )
     1.70168828E-01    2     1000006        25   # BR(~t_2 -> ~t_1    h )
     1.60409018E-01    2     1000006        23   # BR(~t_2 -> ~t_1    Z )
     3.14299898E-01    2     1000005        24   # BR(~t_2 -> ~b_1    W+)
#
#         PDG            Width
DECAY   1000005     3.33683397E+00   # sbottom1 decays
#          BR         NDA      ID1       ID2
     3.48003703E-02    2     1000022         5   # BR(~b_1 -> ~chi_10 b )
     3.72873587E-01    2     1000023         5   # BR(~b_1 -> ~chi_20 b )
     5.92326043E-01    2    -1000024         6   # BR(~b_1 -> ~chi_1- t )
#
#         PDG            Width
DECAY   2000005     4.19916687E+01   # sbottom2 decays
#          BR         NDA      ID1       ID2
     3.91494105E-02    2     1000022         5   # BR(~b_2 -> ~chi_10 b )
     1.05566269E-07    2     1000023         5   # BR(~b_2 -> ~chi_20 b )
     2.03248981E-05    2     1000025         5   # BR(~b_2 -> ~chi_30 b )
     1.96580826E-05    2     1000035         5   # BR(~b_2 -> ~chi_40 b )
     2.11070819E-08    2    -1000024         6   # BR(~b_2 -> ~chi_1- t )
     8.30182914E-01    2     1000021         5   # BR(~b_2 -> ~g      b )
     2.88793078E-02    2     1000005        25   # BR(~b_2 -> ~b_1    h )
     4.17622687E-02    2     1000005        23   # BR(~b_2 -> ~b_1    Z )
     5.99859897E-02    2     1000006       -24   # BR(~b_2 -> ~t_1    W-)
#
#         PDG            Width
DECAY   1000002     6.78882345E+01   # sup_L decays
#          BR         NDA      ID1       ID2
     6.01868746E-03    2     1000022         2   # BR(~u_L -> ~chi_10 u)
     1.58152519E-01    2     1000023         2   # BR(~u_L -> ~chi_20 u)
     2.43029812E-08    2     1000025         2   # BR(~u_L -> ~chi_30 u)
     6.73091778E-08    2     1000035         2   # BR(~u_L -> ~chi_40 u)
     3.16367961E-01    2     1000024         1   # BR(~u_L -> ~chi_1+ d)
     2.52471527E-08    2     1000037         1   # BR(~u_L -> ~chi_2+ d)
     5.19460716E-01    2     1000021         2   # BR(~u_L -> ~g      u)
#
#         PDG            Width
DECAY   2000002     4.16029569E+01   # sup_R decays
#          BR         NDA      ID1       ID2
     1.58259096E-01    2     1000022         2   # BR(~u_R -> ~chi_10 u)
     2.10983704E-07    2     1000023         2   # BR(~u_R -> ~chi_20 u)
     9.71780272E-09    2     1000025         2   # BR(~u_R -> ~chi_30 u)
     1.69693432E-08    2     1000035         2   # BR(~u_R -> ~chi_40 u)
     8.41740666E-01    2     1000021         2   # BR(~u_R -> ~g      u)
#
#         PDG            Width
DECAY   1000001     6.79398884E+01   # sdown_L decays
#          BR         NDA      ID1       ID2
     6.11479946E-03    2     1000022         1   # BR(~d_L -> ~chi_10 d)
     1.57945942E-01    2     1000023         1   # BR(~d_L -> ~chi_20 d)
     4.05784454E-08    2     1000025         1   # BR(~d_L -> ~chi_30 d)
     1.03005430E-07    2     1000035         1   # BR(~d_L -> ~chi_40 d)
     3.15800724E-01    2    -1000024         2   # BR(~d_L -> ~chi_1- u)
     4.30384202E-07    2    -1000037         2   # BR(~d_L -> ~chi_2- u)
     5.20137960E-01    2     1000021         1   # BR(~d_L -> ~g      d)
#
#         PDG            Width
DECAY   2000001     3.65754986E+01   # sdown_R decays
#          BR         NDA      ID1       ID2
     4.49856525E-02    2     1000022         1   # BR(~d_R -> ~chi_10 d)
     5.99697701E-08    2     1000023         1   # BR(~d_R -> ~chi_20 d)
     2.61361636E-09    2     1000025         1   # BR(~d_R -> ~chi_30 d)
     4.55810073E-09    2     1000035         1   # BR(~d_R -> ~chi_40 d)
     9.55014280E-01    2     1000021         1   # BR(~d_R -> ~g      d)
#
#         PDG            Width
DECAY   1000004     6.78882345E+01   # scharm_L decays
#          BR         NDA      ID1       ID2
     6.01868746E-03    2     1000022         4   # BR(~c_L -> ~chi_10 c)
     1.58152519E-01    2     1000023         4   # BR(~c_L -> ~chi_20 c)
     2.43029812E-08    2     1000025         4   # BR(~c_L -> ~chi_30 c)
     6.73091778E-08    2     1000035         4   # BR(~c_L -> ~chi_40 c)
     3.16367961E-01    2     1000024         3   # BR(~c_L -> ~chi_1+ s)
     2.52471527E-08    2     1000037         3   # BR(~c_L -> ~chi_2+ s)
     5.19460716E-01    2     1000021         4   # BR(~c_L -> ~g      c)
#
#         PDG            Width
DECAY   2000004     4.16029569E+01   # scharm_R decays
#          BR         NDA      ID1       ID2
     1.58259096E-01    2     1000022         4   # BR(~c_R -> ~chi_10 c)
     2.10983704E-07    2     1000023         4   # BR(~c_R -> ~chi_20 c)
     9.71780272E-09    2     1000025         4   # BR(~c_R -> ~chi_30 c)
     1.69693432E-08    2     1000035         4   # BR(~c_R -> ~chi_40 c)
     8.41740666E-01    2     1000021         4   # BR(~c_R -> ~g      c)
#
#         PDG            Width
DECAY   1000003     6.79398884E+01   # sstrange_L decays
#          BR         NDA      ID1       ID2
     6.11479946E-03    2     1000022         3   # BR(~s_L -> ~chi_10 s)
     1.57945942E-01    2     1000023         3   # BR(~s_L -> ~chi_20 s)
     4.05784454E-08    2     1000025         3   # BR(~s_L -> ~chi_30 s)
     1.03005430E-07    2     1000035         3   # BR(~s_L -> ~chi_40 s)
     3.15800724E-01    2    -1000024         4   # BR(~s_L -> ~chi_1- c)
     4.30384202E-07    2    -1000037         4   # BR(~s_L -> ~chi_2- c)
     5.20137960E-01    2     1000021         3   # BR(~s_L -> ~g      s)
#
#         PDG            Width
DECAY   2000003     3.65754986E+01   # sstrange_R decays
#          BR         NDA      ID1       ID2
     4.49856525E-02    2     1000022         3   # BR(~s_R -> ~chi_10 s)
     5.99697701E-08    2     1000023         3   # BR(~s_R -> ~chi_20 s)
     2.61361636E-09    2     1000025         3   # BR(~s_R -> ~chi_30 s)
     4.55810073E-09    2     1000035         3   # BR(~s_R -> ~chi_40 s)
     9.55014280E-01    2     1000021         3   # BR(~s_R -> ~g      s)
#
#         PDG            Width
DECAY   1000011     3.71229383E+01   # selectron_L decays
#          BR         NDA      ID1       ID2
     1.03361936E-01    2     1000022        11   # BR(~e_L -> ~chi_10 e-)
     2.99297952E-01    2     1000023        11   # BR(~e_L -> ~chi_20 e-)
     1.33292201E-09    2     1000025        11   # BR(~e_L -> ~chi_30 e-)
     3.73054084E-09    2     1000035        11   # BR(~e_L -> ~chi_40 e-)
     5.97340074E-01    2    -1000024        12   # BR(~e_L -> ~chi_1- nu_e)
     3.36581790E-08    2    -1000037        12   # BR(~e_L -> ~chi_2- nu_e)
#
#         PDG            Width
DECAY   2000011     1.53676958E+01   # selectron_R decays
#          BR         NDA      ID1       ID2
     9.99998669E-01    2     1000022        11   # BR(~e_R -> ~chi_10 e-)
     1.32811252E-06    2     1000023        11   # BR(~e_R -> ~chi_20 e-)
     1.32440692E-09    2     1000025        11   # BR(~e_R -> ~chi_30 e-)
     1.78277917E-09    2     1000035        11   # BR(~e_R -> ~chi_40 e-)
#
#         PDG            Width
DECAY   1000013     3.71229383E+01   # smuon_L decays
#          BR         NDA      ID1       ID2
     1.03361936E-01    2     1000022        13   # BR(~mu_L -> ~chi_10 mu-)
     2.99297952E-01    2     1000023        13   # BR(~mu_L -> ~chi_20 mu-)
     1.33292201E-09    2     1000025        13   # BR(~mu_L -> ~chi_30 mu-)
     3.73054084E-09    2     1000035        13   # BR(~mu_L -> ~chi_40 mu-)
     5.97340074E-01    2    -1000024        14   # BR(~mu_L -> ~chi_1- nu_mu)
     3.36581790E-08    2    -1000037        14   # BR(~mu_L -> ~chi_2- nu_mu)
#
#         PDG            Width
DECAY   2000013     1.53676958E+01   # smuon_R decays
#          BR         NDA      ID1       ID2
     9.99998669E-01    2     1000022        13   # BR(~mu_R -> ~chi_10 mu-)
     1.32811252E-06    2     1000023        13   # BR(~mu_R -> ~chi_20 mu-)
     1.32440692E-09    2     1000025        13   # BR(~mu_R -> ~chi_30 mu-)
     1.78277917E-09    2     1000035        13   # BR(~mu_R -> ~chi_40 mu-)
#
#         PDG            Width
DECAY   1000015     2.65113628E+01   # stau_1 decays
#          BR         NDA      ID1       ID2
     3.61918553E-01    2     1000022        15   # BR(~tau_1 -> ~chi_10  tau-)
     2.13003283E-01    2     1000023        15   # BR(~tau_1 -> ~chi_20  tau-)
     4.25078163E-01    2    -1000024        16   # BR(~tau_1 -> ~chi_1-  nu_tau)
#
#         PDG            Width
DECAY   2000015     2.59551497E+01   # stau_2 decays
#          BR         NDA      ID1       ID2
     3.70493510E-01    2     1000022        15   # BR(~tau_2 -> ~chi_10  tau-)
     2.10145061E-01    2     1000023        15   # BR(~tau_2 -> ~chi_20  tau-)
     1.43350206E-05    2     1000025        15   # BR(~tau_2 -> ~chi_30  tau-)
     1.59280866E-05    2     1000035        15   # BR(~tau_2 -> ~chi_40  tau-)
     4.19314869E-01    2    -1000024        16   # BR(~tau_2 -> ~chi_1-  nu_tau)
     1.62968211E-05    2    -1000037        16   # BR(~tau_2 -> ~chi_2-  nu_tau)
#
#         PDG            Width
DECAY   1000012     3.71245902E+01   # snu_eL decays
#          BR         NDA      ID1       ID2
     1.03870135E-01    2     1000022        12   # BR(~nu_eL -> ~chi_10 nu_e)
     2.98310398E-01    2     1000023        12   # BR(~nu_eL -> ~chi_20 nu_e)
     4.35321612E-09    2     1000025        12   # BR(~nu_eL -> ~chi_30 nu_e)
     8.85281231E-09    2     1000035        12   # BR(~nu_eL -> ~chi_40 nu_e)
     5.97819452E-01    2     1000024        11   # BR(~nu_eL -> ~chi_1+ e-)
     1.46716625E-09    2     1000037        11   # BR(~nu_eL -> ~chi_2+ e-)
#
#         PDG            Width
DECAY   1000014     3.71245902E+01   # snu_muL decays
#          BR         NDA      ID1       ID2
     1.03870135E-01    2     1000022        14   # BR(~nu_muL -> ~chi_10 nu_mu)
     2.98310398E-01    2     1000023        14   # BR(~nu_muL -> ~chi_20 nu_mu)
     4.35321612E-09    2     1000025        14   # BR(~nu_muL -> ~chi_30 nu_mu)
     8.85281231E-09    2     1000035        14   # BR(~nu_muL -> ~chi_40 nu_mu)
     5.97819452E-01    2     1000024        13   # BR(~nu_muL -> ~chi_1+ mu-)
     1.46716625E-09    2     1000037        13   # BR(~nu_muL -> ~chi_2+ mu-)
#
#         PDG            Width
DECAY   1000016     3.71247299E+01   # snu_tauL decays
#          BR         NDA      ID1       ID2
     1.03861703E-01    2     1000022        16   # BR(~nu_tauL -> ~chi_10 nu_tau)
     2.98282988E-01    2     1000023        16   # BR(~nu_tauL -> ~chi_20 nu_tau)
     4.13677964E-09    2     1000025        16   # BR(~nu_tauL -> ~chi_30 nu_tau)
     8.36659196E-09    2     1000035        16   # BR(~nu_tauL -> ~chi_40 nu_tau)
     5.97853715E-01    2     1000024        15   # BR(~nu_tauL -> ~chi_1+ tau-)
     1.58070042E-06    2     1000037        15   # BR(~nu_tauL -> ~chi_2+ tau-)
#
#         PDG            Width
DECAY   1000024     1.34750912E-04   # chargino1+ decays
#          BR         NDA      ID1       ID2
     1.00000000E+00    2     1000022        24   # BR(~chi_1+ -> ~chi_10  W+)
#
#         PDG            Width
DECAY   1000037     8.14505219E+01   # chargino2+ decays
#          BR         NDA      ID1       ID2
     4.77303976E-02    2     1000006        -5   # BR(~chi_2+ -> ~t_1     bb)
     7.08907288E-01    2    -1000005         6   # BR(~chi_2+ -> ~b_1*    t )
     3.78043823E-07    2    -1000015        16   # BR(~chi_2+ -> ~tau_1+  nu_tau)
     7.28300678E-02    2     1000024        23   # BR(~chi_2+ -> ~chi_1+  Z )
     2.27789211E-02    2     1000022        24   # BR(~chi_2+ -> ~chi_10  W+)
     7.09482406E-02    2     1000023        24   # BR(~chi_2+ -> ~chi_20  W+)
     7.68047067E-02    2     1000024        25   # BR(~chi_2+ -> ~chi_1+  h )
#
#         PDG            Width
DECAY   1000022     0.00000000E+00   # neutralino1 decays
#
#         PDG            Width
DECAY   1000023     1.17418880E-04   # neutralino2 decays
#          BR         NDA      ID1       ID2
     5.31738648E-02    2     1000022        23   # BR(~chi_20 -> ~chi_10   Z )
     9.46826135E-01    2     1000022        25   # BR(~chi_20 -> ~chi_10   h )
#
#         PDG            Width
DECAY   1000025     8.16856438E+01   # neutralino3 decays
#          BR         NDA      ID1       ID2
     1.51642342E-02    2     1000022        23   # BR(~chi_30 -> ~chi_10   Z )
     5.31312912E-02    2     1000023        23   # BR(~chi_30 -> ~chi_20   Z )
     7.06292261E-02    2     1000024       -24   # BR(~chi_30 -> ~chi_1+   W-)
     7.06292261E-02    2    -1000024        24   # BR(~chi_30 -> ~chi_1-   W+)
     8.62089328E-03    2     1000022        25   # BR(~chi_30 -> ~chi_10   h )
     1.97330347E-02    2     1000023        25   # BR(~chi_30 -> ~chi_20   h )
     3.58479607E-01    2     1000006        -6   # BR(~chi_30 -> ~t_1      tb)
     3.58479607E-01    2    -1000006         6   # BR(~chi_30 -> ~t_1*     t )
     2.25661486E-02    2     1000005        -5   # BR(~chi_30 -> ~b_1      bb)
     2.25661486E-02    2    -1000005         5   # BR(~chi_30 -> ~b_1*     b )
     2.91923979E-07    2     1000015       -15   # BR(~chi_30 -> ~tau_1-   tau+)
     2.91923979E-07    2    -1000015        15   # BR(~chi_30 -> ~tau_1+   tau-)
#
#         PDG            Width
DECAY   1000035     8.08064949E+01   # neutralino4 decays
#          BR         NDA      ID1       ID2
     8.41225286E-03    2     1000022        23   # BR(~chi_40 -> ~chi_10   Z )
     1.96071129E-02    2     1000023        23   # BR(~chi_40 -> ~chi_20   Z )
     7.14389630E-02    2     1000024       -24   # BR(~chi_40 -> ~chi_1+   W-)
     7.14389630E-02    2    -1000024        24   # BR(~chi_40 -> ~chi_1-   W+)
     1.59539507E-02    2     1000022        25   # BR(~chi_40 -> ~chi_10   h )
     5.73888530E-02    2     1000023        25   # BR(~chi_40 -> ~chi_20   h )
     3.55013765E-01    2     1000006        -6   # BR(~chi_40 -> ~t_1      tb)
     3.55013765E-01    2    -1000006         6   # BR(~chi_40 -> ~t_1*     t )
     2.28657225E-02    2     1000005        -5   # BR(~chi_40 -> ~b_1      bb)
     2.28657225E-02    2    -1000005         5   # BR(~chi_40 -> ~b_1*     b )
     4.64471408E-07    2     1000015       -15   # BR(~chi_40 -> ~tau_1-   tau+)
     4.64471408E-07    2    -1000015        15   # BR(~chi_40 -> ~tau_1+   tau-)
#
#         PDG            Width
DECAY        25     4.81053372E-03   # h decays
#          BR         NDA      ID1       ID2
     6.70720206E-01    2           5        -5   # BR(h -> b       bb     )
     5.42677469E-02    2         -15        15   # BR(h -> tau+    tau-   )
     1.92109327E-04    2         -13        13   # BR(h -> mu+     mu-    )
     4.07701675E-04    2           3        -3   # BR(h -> s       sb     )
     1.76015922E-02    2           4        -4   # BR(h -> c       cb     )
     5.72499838E-02    2          21        21   # BR(h -> g       g      )
     1.95873213E-03    2          22        22   # BR(h -> gam     gam    )
     1.30241582E-03    2          22        23   # BR(h -> Z       gam    )
     1.74464990E-01    2          24       -24   # BR(h -> W+      W-     )
     2.18345221E-02    2          23        23   # BR(h -> Z       Z      )
#
#         PDG            Width
DECAY        35     1.40808127E+01   # H decays
#          BR         NDA      ID1       ID2
     7.37377636E-01    2           5        -5   # BR(H -> b       bb     )
     1.76606378E-01    2         -15        15   # BR(H -> tau+    tau-   )
     6.24437948E-04    2         -13        13   # BR(H -> mu+     mu-    )
     7.66810097E-04    2           3        -3   # BR(H -> s       sb     )
     2.16344518E-07    2           4        -4   # BR(H -> c       cb     )
     2.15817583E-02    2           6        -6   # BR(H -> t       tb     )
     2.98157009E-05    2          21        21   # BR(H -> g       g      )
     2.79320541E-08    2          22        22   # BR(H -> gam     gam    )
     8.32681661E-09    2          23        22   # BR(H -> Z       gam    )
     3.02471013E-05    2          24       -24   # BR(H -> W+      W-     )
     1.51049076E-05    2          23        23   # BR(H -> Z       Z      )
     7.97397232E-05    2          25        25   # BR(H -> h       h      )
    -7.48566071E-23    2          36        36   # BR(H -> A       A      )
     2.81521741E-18    2          23        36   # BR(H -> Z       A      )
     1.94589523E-03    2     1000024  -1000024   # BR(H -> ~chi_1+ ~chi_1-)
     1.07300912E-04    2     1000022   1000022   # BR(H -> ~chi_10 ~chi_10)
     9.70519995E-04    2     1000023   1000023   # BR(H -> ~chi_20 ~chi_20)
     6.57624567E-04    2     1000022   1000023   # BR(H -> ~chi_10 ~chi_20)
     5.92008180E-02    2     1000006  -1000006   # BR(H -> ~t_1    ~t_1*  )
     5.66101115E-06    2     1000005  -1000005   # BR(H -> ~b_1    ~b_1*  )
#
#         PDG            Width
DECAY        36     1.32598869E+01   # A decays
#          BR         NDA      ID1       ID2
     7.83102163E-01    2           5        -5   # BR(A -> b       bb     )
     1.87536585E-01    2         -15        15   # BR(A -> tau+    tau-   )
     6.63083622E-04    2         -13        13   # BR(A -> mu+     mu-    )
     8.14404384E-04    2           3        -3   # BR(A -> s       sb     )
     2.29813373E-07    2           4        -4   # BR(A -> c       cb     )
     2.29127415E-02    2           6        -6   # BR(A -> t       tb     )
     6.74758330E-05    2          21        21   # BR(A -> g       g      )
     4.48621151E-08    2          22        22   # BR(A -> gam     gam    )
     6.64946550E-08    2          23        22   # BR(A -> Z       gam    )
     3.19972262E-05    2          23        25   # BR(A -> Z       h      )
     2.63849635E-03    2     1000024  -1000024   # BR(A -> ~chi_1+ ~chi_1-)
     1.22339697E-04    2     1000022   1000022   # BR(A -> ~chi_10 ~chi_10)
     1.31584709E-03    2     1000023   1000023   # BR(A -> ~chi_20 ~chi_20)
     7.94525659E-04    2     1000022   1000023   # BR(A -> ~chi_10 ~chi_20)
#
#         PDG            Width
DECAY        37     1.03036624E+01   # H+ decays
#          BR         NDA      ID1       ID2
     1.09739266E-03    2           4        -5   # BR(H+ -> c       bb     )
     2.41417064E-01    2         -15        16   # BR(H+ -> tau+    nu_tau )
     8.53591855E-04    2         -13        14   # BR(H+ -> mu+     nu_mu  )
     7.02330202E-06    2           2        -5   # BR(H+ -> u       bb     )
     5.01637725E-05    2           2        -3   # BR(H+ -> u       sb     )
     1.03203011E-03    2           4        -3   # BR(H+ -> c       sb     )
     7.13823841E-01    2           6        -5   # BR(H+ -> t       bb     )
     4.12413893E-05    2          24        25   # BR(H+ -> W+      h      )
     8.60726048E-14    2          24        36   # BR(H+ -> W+      A      )
     1.91760843E-03    2     1000024   1000022   # BR(H+ -> ~chi_1+ ~chi_10)
     2.65109110E-09    2     1000024   1000023   # BR(H+ -> ~chi_1+ ~chi_20)
     3.97600404E-02    2     1000006  -1000005   # BR(H+ -> ~t_1    ~b_1*  )
