#
#                              ======================
#                              | THE SUSYHIT OUTPUT |
#                              ======================
#
#
#              ------------------------------------------------------
#              |     This is the output of the SUSY-HIT package     |
#              |  created by A.Djouadi, M.Muehlleitner and M.Spira. |
#              |  In case of problems with SUSY-HIT email to        |
#              |           margarete.muehlleitner@kit.edu           |
#              |           michael.spira@psi.ch                     |
#              |           abdelhak.djouadi@cern.ch                 |
#              ------------------------------------------------------
#
#              ------------------------------------------------------
#              |  SUSY Les Houches Accord - MSSM Spectrum + Decays  |
#              |              based on the decay programs           |
#              |                                                    |
#              |                     SDECAY 1.5                     |
#              |                                                    |
#              |  Authors: M.Muhlleitner, A.Djouadi and Y.Mambrini  |
#              |  Ref.:    Comput.Phys.Commun.168(2005)46           |
#              |           [hep-ph/0311167]                         |
#              |                                                    |
#              |                     HDECAY 3.4                     |
#              |                                                    |
#              |  By: A.Djouadi,J.Kalinowski,M.Muhlleitner,M.Spira  |
#              |  Ref.:    Comput.Phys.Commun.108(1998)56           |
#              |           [hep-ph/9704448]                         |
#              |                                                    |
#              |                                                    |
#              |  If not stated otherwise all DRbar couplings and   |
#              |  soft SUSY breaking masses are given at the scale  |
#              |  Q=  0.11565789E+04
#              |                                                    |
#              ------------------------------------------------------
#
#
BLOCK DCINFO  # Decay Program information
     1   SDECAY/HDECAY # decay calculator
     2   1.5  /3.4    # version number
#
BLOCK SPINFO  # Spectrum calculator information
     1    SOFTSUSY    # spectrum calculator                
     2    3.7.3       # version number                     
#
BLOCK MODSEL  # Model selection
     1     0   #  nonUniversal                                     
#
BLOCK SMINPUTS  # Standard Model inputs
         1     1.27934000E+02   # alpha_em^-1(M_Z)^MSbar
         2     1.16639000E-05   # G_F [GeV^-2]
         3     1.17200000E-01   # alpha_S(M_Z)^MSbar
         4     9.11870000E+01   # M_Z pole mass
         5     4.19000000E+00   # mb(mb)^MSbar
         6     1.72500000E+02   # mt pole mass
         7     1.77690000E+00   # mtau pole mass
#
BLOCK MINPAR  # Input parameters - minimal models
         3     2.00000000E+01   # tanb                
#
BLOCK EXTPAR  # Input parameters - non-minimal models
         0    -1.00000000E+00   # Set                 
         1     1.49900000E+02   # M_1(MX)             
         2     2.99900000E+02   # M_2(MX)             
         3     2.20000000E+03   # M_3(MX)             
        11     2.94338000E+03   # At(MX)              
        12     0.00000000E+00   # Ab(MX)              
        13     0.00000000E+00   # Atau(MX)            
        23    -3.00000000E+03   # mu(MX)              
        25     2.00000000E+01   # tan                 
        26     3.00000000E+03   # mA(pole)            
        31     3.00000000E+03   # meL(MX)             
        32     3.00000000E+03   # mmuL(MX)            
        33     3.00000000E+03   # mtauL(MX)           
        34     3.00000000E+03   # meR(MX)             
        35     3.00000000E+03   # mmuR(MX)            
        36     3.00000000E+03   # mtauR(MX)           
        41     3.00000000E+03   # mqL1(MX)            
        42     3.00000000E+03   # mqL2(MX)            
        43     4.49900000E+02   # mqL3(MX)            
        44     3.00000000E+03   # muR(MX)             
        45     3.00000000E+03   # mcR(MX)             
        46     3.00000000E+03   # mtR(MX)             
        47     3.00000000E+03   # mdR(MX)             
        48     3.00000000E+03   # msR(MX)             
        49     3.00000000E+03   # mbR(MX)             
#
BLOCK MASS  # Mass Spectrum
# PDG code           mass       particle
        24     8.03988557E+01   # W+
        25     1.26371193E+02   # h
        35     3.00019804E+03   # H
        36     3.00000006E+03   # A
        37     3.00110481E+03   # H+
         5     4.81337004E+00   # b-quark pole mass calculated from mb(mb)_Msbar
   1000001     3.02038544E+03   # ~d_L
   2000001     3.01488220E+03   # ~d_R
   1000002     3.01946673E+03   # ~u_L
   2000002     3.01842992E+03   # ~u_R
   1000003     3.02038544E+03   # ~s_L
   2000003     3.01488220E+03   # ~s_R
   1000004     3.01946673E+03   # ~c_L
   2000004     3.01842992E+03   # ~c_R
   1000005     5.16435066E+02   # ~b_1
   2000005     3.01677561E+03   # ~b_2
   1000006     5.12078128E+02   # ~t_1
   2000006     3.01908876E+03   # ~t_2
   1000011     3.00747312E+03   # ~e_L
   2000011     2.99957668E+03   # ~e_R
   1000012     3.00608051E+03   # ~nu_eL
   1000013     3.00747312E+03   # ~mu_L
   2000013     2.99957668E+03   # ~mu_R
   1000014     3.00608051E+03   # ~nu_muL
   1000015     2.98633412E+03   # ~tau_1
   2000015     3.02247756E+03   # ~tau_2
   1000016     3.00668581E+03   # ~nu_tauL
   1000021     2.32504838E+03   # ~g
   1000022     1.51999121E+02   # ~chi_10
   1000023     3.21709364E+02   # ~chi_20
   1000025    -3.00845253E+03   # ~chi_30
   1000035     3.00846946E+03   # ~chi_40
   1000024     3.21870055E+02   # ~chi_1+
   1000037     3.00939322E+03   # ~chi_2+
#
BLOCK NMIX  # Neutralino Mixing Matrix
  1  1     9.99891900E-01   # N_11
  1  2     3.82334329E-04   # N_12
  1  3    -1.46983633E-02   # N_13
  1  4     3.31787807E-07   # N_14
  2  1     1.67134641E-06   # N_21
  2  2     9.99658036E-01   # N_22
  2  3     2.61168660E-02   # N_23
  2  4     1.31152431E-03   # N_24
  3  1     1.03965649E-02   # N_31
  3  2    -1.93924762E-02   # N_32
  3  3     7.06763131E-01   # N_33
  3  4     7.07107997E-01   # N_34
  4  1    -1.03970909E-02   # N_41
  4  2     1.75384285E-02   # N_42
  4  3    -7.06815212E-01   # N_43
  4  4     7.07104349E-01   # N_44
#
BLOCK UMIX  # Chargino Mixing Matrix U
  1  1     9.99318144E-01   # U_11
  1  2     3.69221768E-02   # U_12
  2  1    -3.69221768E-02   # U_21
  2  2     9.99318144E-01   # U_22
#
BLOCK VMIX  # Chargino Mixing Matrix V
  1  1     9.99998283E-01   # V_11
  1  2    -1.85288466E-03   # V_12
  2  1    -1.85288466E-03   # V_21
  2  2    -9.99998283E-01   # V_22
#
BLOCK STOPMIX  # Stop Mixing Matrix
  1  1     9.98649714E-01   # cos(theta_t)
  1  2    -5.19494825E-02   # sin(theta_t)
  2  1     5.19494825E-02   # -sin(theta_t)
  2  2     9.98649714E-01   # cos(theta_t)
#
BLOCK SBOTMIX  # Sbottom Mixing Matrix
  1  1     9.99717375E-01   # cos(theta_b)
  1  2    -2.37733069E-02   # sin(theta_b)
  2  1     2.37733069E-02   # -sin(theta_b)
  2  2     9.99717375E-01   # cos(theta_b)
#
BLOCK STAUMIX  # Stau Mixing Matrix
  1  1    -7.06905982E-01   # cos(theta_tau)
  1  2     7.07307523E-01   # sin(theta_tau)
  2  1    -7.07307523E-01   # -sin(theta_tau)
  2  2    -7.06905982E-01   # cos(theta_tau)
#
BLOCK ALPHA  # Higgs mixing
          -5.00170771E-02   # Mixing angle in the neutral Higgs boson sector
#
BLOCK HMIX Q=  1.15657885E+03  # DRbar Higgs Parameters
         1    -3.00000000E+03   # mu(Q)MSSM           
         2     2.00000000E+01   # tan                 
         3     2.44600103E+02   # higgs               
         4     1.17328798E+07   # mA^2(Q)MSSM         
#
BLOCK GAUGE Q=  1.15657885E+03  # The gauge couplings
     1     3.61282380E-01   # gprime(Q) DRbar
     2     6.38441538E-01   # g(Q) DRbar
     3     1.03215461E+00   # g3(Q) DRbar
#
BLOCK AU Q=  1.15657885E+03  # The trilinear couplings
  1  1     0.00000000E+00   # A_u(Q) DRbar
  2  2     1.22142919E-06   # A_c(Q) DRbar
  3  3     2.94338000E+03   # A_t(Q) DRbar
#
BLOCK AD Q=  1.15657885E+03  # The trilinear couplings
  1  1     4.34545381E-07   # A_d(Q) DRbar
  2  2     4.34597703E-07   # A_s(Q) DRbar
  3  3     9.05156707E-07   # A_b(Q) DRbar
#
BLOCK AE Q=  1.15657885E+03  # The trilinear couplings
  1  1     2.07223315E-07   # A_e(Q) DRbar
  2  2     2.07233610E-07   # A_mu(Q) DRbar
  3  3     2.10159460E-07   # A_tau(Q) DRbar
#
BLOCK Yu Q=  1.15657885E+03  # The Yukawa couplings
  1  1     0.00000000E+00   # y_u(Q) DRbar
  2  2     0.00000000E+00   # y_c(Q) DRbar
  3  3     8.58906094E-01   # y_t(Q) DRbar
#
BLOCK Yd Q=  1.15657885E+03  # The Yukawa couplings
  1  1     0.00000000E+00   # y_d(Q) DRbar
  2  2     0.00000000E+00   # y_s(Q) DRbar
  3  3     4.03801235E-01   # y_b(Q) DRbar
#
BLOCK Ye Q=  1.15657885E+03  # The Yukawa couplings
  1  1     0.00000000E+00   # y_e(Q) DRbar
  2  2     0.00000000E+00   # y_mu(Q) DRbar
  3  3     2.02704653E-01   # y_tau(Q) DRbar
#
BLOCK MSOFT Q=  1.15657885E+03  # The soft SUSY breaking masses at the scale Q
         1     1.49900000E+02   # M_1(Q)              
         2     2.99900000E+02   # M_2(Q)              
         3     2.20000000E+03   # M_3(Q)              
        21    -6.82200920E+04   # M^2_Hd              
        22    -9.16564321E+06   # M^2_Hu              
        31     3.00000000E+03   # M_eL                
        32     3.00000000E+03   # M_muL               
        33     3.00000000E+03   # M_tauL              
        34     3.00000000E+03   # M_eR                
        35     3.00000000E+03   # M_muR               
        36     3.00000000E+03   # M_tauR              
        41     3.00000000E+03   # M_q1L               
        42     3.00000000E+03   # M_q2L               
        43     4.49899993E+02   # M_q3L               
        44     3.00000000E+03   # M_uR                
        45     3.00000000E+03   # M_cR                
        46     3.00000000E+03   # M_tR                
        47     3.00000000E+03   # M_dR                
        48     3.00000000E+03   # M_sR                
        49     3.00000000E+03   # M_bR                
#
#
#
#                             =================
#                             |The decay table|
#                             =================
#
# - The QCD corrections to the decays gluino -> squark  + quark
#                                     squark -> gaugino + quark_prime
#                                     squark -> squark_prime + Higgs
#                                     squark -> gluino  + quark
#   are included.
#
# - The multi-body decays for the inos, stops and sbottoms are included.
#
# - The loop induced decays for the gluino, neutralinos and stops
#   are included.
#
# - The SUSY decays of the top quark are included.
#
#
#         PDG            Width
DECAY         6     1.41493450E+00   # top decays
#          BR         NDA      ID1       ID2
     1.00000000E+00    2           5        24   # BR(t ->  b    W+)
#
#         PDG            Width
DECAY   1000021     8.37736752E+01   # gluino decays
#          BR         NDA      ID1       ID2
     2.48061661E-01    2     1000005        -5   # BR(~g -> ~b_1  bb)
     2.48061661E-01    2    -1000005         5   # BR(~g -> ~b_1* b )
     2.51938339E-01    2     1000006        -6   # BR(~g -> ~t_1  tb)
     2.51938339E-01    2    -1000006         6   # BR(~g -> ~t_1* t )
#
#         PDG            Width
DECAY   1000006     1.93532448E+00   # stop1 decays
#          BR         NDA      ID1       ID2
     2.39602577E-02    2     1000022         6   # BR(~t_1 -> ~chi_10 t )
     1.44337073E-01    2     1000023         6   # BR(~t_1 -> ~chi_20 t )
     8.31702669E-01    2     1000024         5   # BR(~t_1 -> ~chi_1+ b )
#
#         PDG            Width
DECAY   2000006     1.23735040E+02   # stop2 decays
#          BR         NDA      ID1       ID2
     5.29411576E-02    2     1000022         6   # BR(~t_2 -> ~chi_10 t )
     2.49260567E-04    2     1000023         6   # BR(~t_2 -> ~chi_20 t )
     0.00000000E+00    2     1000025         6   # BR(~t_2 -> ~chi_30 t )
     5.01402326E-04    2     1000024         5   # BR(~t_2 -> ~chi_1+ b )
     1.46636831E-05    2     1000037         5   # BR(~t_2 -> ~chi_2+ b )
     2.86099983E-01    2     1000021         6   # BR(~t_2 -> ~g      t )
     1.72490624E-01    2     1000006        25   # BR(~t_2 -> ~t_1    h )
     1.64218227E-01    2     1000006        23   # BR(~t_2 -> ~t_1    Z )
     3.23484682E-01    2     1000005        24   # BR(~t_2 -> ~b_1    W+)
#
#         PDG            Width
DECAY   1000005     1.53277939E+00   # sbottom1 decays
#          BR         NDA      ID1       ID2
     4.33927760E-02    2     1000022         5   # BR(~b_1 -> ~chi_10 b )
     5.43092589E-01    2     1000023         5   # BR(~b_1 -> ~chi_20 b )
     4.13514635E-01    2    -1000024         6   # BR(~b_1 -> ~chi_1- t )
#
#         PDG            Width
DECAY   2000005     5.74776296E+01   # sbottom2 decays
#          BR         NDA      ID1       ID2
     2.86203134E-02    2     1000022         5   # BR(~b_2 -> ~chi_10 b )
    -4.95661268E-09    2     1000023         5   # BR(~b_2 -> ~chi_20 b )
     2.47494878E-06    2     1000025         5   # BR(~b_2 -> ~chi_30 b )
     2.30404991E-06    2     1000035         5   # BR(~b_2 -> ~chi_40 b )
    -1.30249597E-07    2    -1000024         6   # BR(~b_2 -> ~chi_1- t )
     6.16614107E-01    2     1000021         5   # BR(~b_2 -> ~g      b )
     7.86012148E-02    2     1000005        25   # BR(~b_2 -> ~b_1    h )
     1.12187749E-01    2     1000005        23   # BR(~b_2 -> ~b_1    Z )
     1.63971972E-01    2     1000006       -24   # BR(~b_2 -> ~t_1    W-)
#
#         PDG            Width
DECAY   1000002     7.02541815E+01   # sup_L decays
#          BR         NDA      ID1       ID2
     5.89226493E-03    2     1000022         2   # BR(~u_L -> ~chi_10 u)
     1.62171347E-01    2     1000023         2   # BR(~u_L -> ~chi_20 u)
     3.26948583E-09    2     1000025         2   # BR(~u_L -> ~chi_30 u)
     2.60311362E-09    2     1000035         2   # BR(~u_L -> ~chi_40 u)
     3.24556254E-01    2     1000024         1   # BR(~u_L -> ~chi_1+ d)
     6.20698510E-11    2     1000037         1   # BR(~u_L -> ~chi_2+ d)
     5.07380128E-01    2     1000021         2   # BR(~u_L -> ~g      u)
#
#         PDG            Width
DECAY   2000002     4.21562223E+01   # sup_R decays
#          BR         NDA      ID1       ID2
     1.56422367E-01    2     1000022         2   # BR(~u_R -> ~chi_10 u)
     4.29915520E-13    2     1000023         2   # BR(~u_R -> ~chi_20 u)
     9.10101276E-10    2     1000025         2   # BR(~u_R -> ~chi_30 u)
     9.07181543E-10    2     1000035         2   # BR(~u_R -> ~chi_40 u)
     8.43577631E-01    2     1000021         2   # BR(~u_R -> ~g      u)
#
#         PDG            Width
DECAY   1000001     7.03051561E+01   # sdown_L decays
#          BR         NDA      ID1       ID2
     5.84228804E-03    2     1000022         1   # BR(~d_L -> ~chi_10 d)
     1.62106457E-01    2     1000023         1   # BR(~d_L -> ~chi_20 d)
     5.73054955E-09    2     1000025         1   # BR(~d_L -> ~chi_30 d)
     4.76545850E-09    2     1000035         1   # BR(~d_L -> ~chi_40 d)
     3.23985640E-01    2    -1000024         2   # BR(~d_L -> ~chi_1- u)
     2.91934144E-08    2    -1000037         2   # BR(~d_L -> ~chi_2- u)
     5.08065576E-01    2     1000021         1   # BR(~d_L -> ~g      d)
#
#         PDG            Width
DECAY   2000001     3.69231160E+01   # sdown_R decays
#          BR         NDA      ID1       ID2
     4.45935207E-02    2     1000022         1   # BR(~d_R -> ~chi_10 d)
     1.22557119E-13    2     1000023         1   # BR(~d_R -> ~chi_20 d)
     1.10275747E-10    2     1000025         1   # BR(~d_R -> ~chi_30 d)
     1.09720359E-10    2     1000035         1   # BR(~d_R -> ~chi_40 d)
     9.55406479E-01    2     1000021         1   # BR(~d_R -> ~g      d)
#
#         PDG            Width
DECAY   1000004     7.02541815E+01   # scharm_L decays
#          BR         NDA      ID1       ID2
     5.89226493E-03    2     1000022         4   # BR(~c_L -> ~chi_10 c)
     1.62171347E-01    2     1000023         4   # BR(~c_L -> ~chi_20 c)
     3.26948583E-09    2     1000025         4   # BR(~c_L -> ~chi_30 c)
     2.60311362E-09    2     1000035         4   # BR(~c_L -> ~chi_40 c)
     3.24556254E-01    2     1000024         3   # BR(~c_L -> ~chi_1+ s)
     6.20698510E-11    2     1000037         3   # BR(~c_L -> ~chi_2+ s)
     5.07380128E-01    2     1000021         4   # BR(~c_L -> ~g      c)
#
#         PDG            Width
DECAY   2000004     4.21562223E+01   # scharm_R decays
#          BR         NDA      ID1       ID2
     1.56422367E-01    2     1000022         4   # BR(~c_R -> ~chi_10 c)
     4.29915520E-13    2     1000023         4   # BR(~c_R -> ~chi_20 c)
     9.10101276E-10    2     1000025         4   # BR(~c_R -> ~chi_30 c)
     9.07181543E-10    2     1000035         4   # BR(~c_R -> ~chi_40 c)
     8.43577631E-01    2     1000021         4   # BR(~c_R -> ~g      c)
#
#         PDG            Width
DECAY   1000003     7.03051561E+01   # sstrange_L decays
#          BR         NDA      ID1       ID2
     5.84228804E-03    2     1000022         3   # BR(~s_L -> ~chi_10 s)
     1.62106457E-01    2     1000023         3   # BR(~s_L -> ~chi_20 s)
     5.73054955E-09    2     1000025         3   # BR(~s_L -> ~chi_30 s)
     4.76545850E-09    2     1000035         3   # BR(~s_L -> ~chi_40 s)
     3.23985640E-01    2    -1000024         4   # BR(~s_L -> ~chi_1- c)
     2.91934144E-08    2    -1000037         4   # BR(~s_L -> ~chi_2- c)
     5.08065576E-01    2     1000021         3   # BR(~s_L -> ~g      s)
#
#         PDG            Width
DECAY   2000003     3.69231160E+01   # sstrange_R decays
#          BR         NDA      ID1       ID2
     4.45935207E-02    2     1000022         3   # BR(~s_R -> ~chi_10 s)
     1.22557119E-13    2     1000023         3   # BR(~s_R -> ~chi_20 s)
     1.10275747E-10    2     1000025         3   # BR(~s_R -> ~chi_30 s)
     1.09720359E-10    2     1000035         3   # BR(~s_R -> ~chi_40 s)
     9.55406479E-01    2     1000021         3   # BR(~s_R -> ~g      s)
#
#         PDG            Width
DECAY   1000011     3.95975303E+01   # selectron_L decays
#          BR         NDA      ID1       ID2
     9.82197170E-02    2     1000022        11   # BR(~e_L -> ~chi_10 e-)
     3.00734755E-01    2     1000023        11   # BR(~e_L -> ~chi_20 e-)
     6.01045528E-01    2    -1000024        12   # BR(~e_L -> ~chi_1- nu_e)
#
#         PDG            Width
DECAY   2000011     1.54948200E+01   # selectron_R decays
#          BR         NDA      ID1       ID2
     1.00000000E+00    2     1000022        11   # BR(~e_R -> ~chi_10 e-)
     2.74416915E-12    2     1000023        11   # BR(~e_R -> ~chi_20 e-)
#
#         PDG            Width
DECAY   1000013     3.95975303E+01   # smuon_L decays
#          BR         NDA      ID1       ID2
     9.82197170E-02    2     1000022        13   # BR(~mu_L -> ~chi_10 mu-)
     3.00734755E-01    2     1000023        13   # BR(~mu_L -> ~chi_20 mu-)
     6.01045528E-01    2    -1000024        14   # BR(~mu_L -> ~chi_1- nu_mu)
#
#         PDG            Width
DECAY   2000013     1.54948200E+01   # smuon_R decays
#          BR         NDA      ID1       ID2
     1.00000000E+00    2     1000022        13   # BR(~mu_R -> ~chi_10 mu-)
     2.74416915E-12    2     1000023        13   # BR(~mu_R -> ~chi_20 mu-)
#
#         PDG            Width
DECAY   1000015     2.78237747E+01   # stau_1 decays
#          BR         NDA      ID1       ID2
     3.48333760E-01    2     1000022        15   # BR(~tau_1 -> ~chi_10  tau-)
     2.17344059E-01    2     1000023        15   # BR(~tau_1 -> ~chi_20  tau-)
     4.34322182E-01    2    -1000024        16   # BR(~tau_1 -> ~chi_1-  nu_tau)
#
#         PDG            Width
DECAY   2000015     2.72538572E+01   # stau_2 decays
#          BR         NDA      ID1       ID2
     3.56417879E-01    2     1000022        15   # BR(~tau_2 -> ~chi_10  tau-)
     2.14644516E-01    2     1000023        15   # BR(~tau_2 -> ~chi_20  tau-)
     4.68976161E-06    2     1000025        15   # BR(~tau_2 -> ~chi_30  tau-)
     3.60787078E-06    2     1000035        15   # BR(~tau_2 -> ~chi_40  tau-)
     4.28925098E-01    2    -1000024        16   # BR(~tau_2 -> ~chi_1-  nu_tau)
     4.20868703E-06    2    -1000037        16   # BR(~tau_2 -> ~chi_2-  nu_tau)
#
#         PDG            Width
DECAY   1000012     3.96002638E+01   # snu_eL decays
#          BR         NDA      ID1       ID2
     9.79020197E-02    2     1000022        12   # BR(~nu_eL -> ~chi_10 nu_e)
     3.00567164E-01    2     1000023        12   # BR(~nu_eL -> ~chi_20 nu_e)
     6.01530816E-01    2     1000024        11   # BR(~nu_eL -> ~chi_1+ e-)
#
#         PDG            Width
DECAY   1000014     3.96002638E+01   # snu_muL decays
#          BR         NDA      ID1       ID2
     9.79020197E-02    2     1000022        14   # BR(~nu_muL -> ~chi_10 nu_mu)
     3.00567164E-01    2     1000023        14   # BR(~nu_muL -> ~chi_20 nu_mu)
     6.01530816E-01    2     1000024        13   # BR(~nu_muL -> ~chi_1+ mu-)
#
#         PDG            Width
DECAY   1000016     3.96119079E+01   # snu_tauL decays
#          BR         NDA      ID1       ID2
     9.78931506E-02    2     1000022        16   # BR(~nu_tauL -> ~chi_10 nu_tau)
     3.00542119E-01    2     1000023        16   # BR(~nu_tauL -> ~chi_20 nu_tau)
     6.01564731E-01    2     1000024        15   # BR(~nu_tauL -> ~chi_1+ tau-)
#
#         PDG            Width
DECAY   1000024     1.38963619E-06   # chargino1+ decays
#          BR         NDA      ID1       ID2
     1.00000000E+00    2     1000022        24   # BR(~chi_1+ -> ~chi_10  W+)
#
#         PDG            Width
DECAY   1000037     1.00382296E+02   # chargino2+ decays
#          BR         NDA      ID1       ID2
     1.47957969E-01    2     1000006        -5   # BR(~chi_2+ -> ~t_1     bb)
     6.60787783E-01    2    -1000005         6   # BR(~chi_2+ -> ~b_1*    t )
     2.02046699E-12    2     1000012       -11   # BR(~chi_2+ -> ~nu_eL   e+  )
     2.02046699E-12    2     1000014       -13   # BR(~chi_2+ -> ~nu_muL  mu+ )
     3.00986294E-08    2     1000016       -15   # BR(~chi_2+ -> ~nu_tau1 tau+)
     2.69656876E-10    2    -1000011        12   # BR(~chi_2+ -> ~e_L+    nu_e)
     2.69656876E-10    2    -1000013        14   # BR(~chi_2+ -> ~mu_L+   nu_mu)
     1.11412025E-06    2    -1000015        16   # BR(~chi_2+ -> ~tau_1+  nu_tau)
     5.76105159E-02    2     1000024        23   # BR(~chi_2+ -> ~chi_1+  Z )
     1.82805370E-02    2     1000022        24   # BR(~chi_2+ -> ~chi_10  W+)
     5.61734452E-02    2     1000023        24   # BR(~chi_2+ -> ~chi_20  W+)
     5.91886053E-02    2     1000024        25   # BR(~chi_2+ -> ~chi_1+  h )
#
#         PDG            Width
DECAY   1000022     0.00000000E+00   # neutralino1 decays
#
#         PDG            Width
DECAY   1000023     1.28273443E-06   # neutralino2 decays
#          BR         NDA      ID1       ID2
     7.25396675E-01    2     1000022        23   # BR(~chi_20 -> ~chi_10   Z )
     2.74603325E-01    2     1000022        25   # BR(~chi_20 -> ~chi_10   h )
#
#         PDG            Width
DECAY   1000025     1.00037009E+02   # neutralino3 decays
#          BR         NDA      ID1       ID2
     9.38026307E-03    2     1000022        23   # BR(~chi_30 -> ~chi_10   Z )
     2.59974487E-02    2     1000023        23   # BR(~chi_30 -> ~chi_20   Z )
     5.63859170E-02    2     1000024       -24   # BR(~chi_30 -> ~chi_1+   W-)
     5.63859170E-02    2    -1000024        24   # BR(~chi_30 -> ~chi_1-   W+)
     7.86035619E-03    2     1000022        25   # BR(~chi_30 -> ~chi_10   h )
     2.15334005E-02    2     1000023        25   # BR(~chi_30 -> ~chi_20   h )
     3.37855574E-01    2     1000006        -6   # BR(~chi_30 -> ~t_1      tb)
     3.37855574E-01    2    -1000006         6   # BR(~chi_30 -> ~t_1*     t )
     7.33714654E-02    2     1000005        -5   # BR(~chi_30 -> ~b_1      bb)
     7.33714654E-02    2    -1000005         5   # BR(~chi_30 -> ~b_1*     b )
     4.71540205E-12    2     1000011       -11   # BR(~chi_30 -> ~e_L-     e+)
     4.71540205E-12    2    -1000011        11   # BR(~chi_30 -> ~e_L+     e-)
     2.93019981E-10    2     2000011       -11   # BR(~chi_30 -> ~e_R-     e+)
     2.93019981E-10    2    -2000011        11   # BR(~chi_30 -> ~e_R+     e-)
     4.71540205E-12    2     1000013       -13   # BR(~chi_30 -> ~mu_L-    mu+)
     4.71540205E-12    2    -1000013        13   # BR(~chi_30 -> ~mu_L+    mu-)
     2.93019981E-10    2     2000013       -13   # BR(~chi_30 -> ~mu_R-    mu+)
     2.93019981E-10    2    -2000013        13   # BR(~chi_30 -> ~mu_R+    mu-)
     1.30866036E-06    2     1000015       -15   # BR(~chi_30 -> ~tau_1-   tau+)
     1.30866036E-06    2    -1000015        15   # BR(~chi_30 -> ~tau_1+   tau-)
     9.67763436E-11    2     1000012       -12   # BR(~chi_30 -> ~nu_eL    nu_eb)
     9.67763436E-11    2    -1000012        12   # BR(~chi_30 -> ~nu_eL*   nu_e )
     9.67763436E-11    2     1000014       -14   # BR(~chi_30 -> ~nu_muL   nu_mub)
     9.67763436E-11    2    -1000014        14   # BR(~chi_30 -> ~nu_muL*  nu_mu )
     5.36976621E-11    2     1000016       -16   # BR(~chi_30 -> ~nu_tau1  nu_taub)
     5.36976621E-11    2    -1000016        16   # BR(~chi_30 -> ~nu_tau1* nu_tau )
#
#         PDG            Width
DECAY   1000035     1.01257967E+02   # neutralino4 decays
#          BR         NDA      ID1       ID2
     9.27302804E-03    2     1000022        23   # BR(~chi_40 -> ~chi_10   Z )
     3.14489935E-02    2     1000023        23   # BR(~chi_40 -> ~chi_20   Z )
     5.56999544E-02    2     1000024       -24   # BR(~chi_40 -> ~chi_1+   W-)
     5.56999544E-02    2    -1000024        24   # BR(~chi_40 -> ~chi_1-   W+)
     1.16168342E-02    2     1000022        25   # BR(~chi_40 -> ~chi_10   h )
     3.99623402E-02    2     1000023        25   # BR(~chi_40 -> ~chi_20   h )
     3.25647215E-01    2     1000006        -6   # BR(~chi_40 -> ~t_1      tb)
     3.25647215E-01    2    -1000006         6   # BR(~chi_40 -> ~t_1*     t )
     7.25011231E-02    2     1000005        -5   # BR(~chi_40 -> ~b_1      bb)
     7.25011231E-02    2    -1000005         5   # BR(~chi_40 -> ~b_1*     b )
     3.58828043E-12    2     1000011       -11   # BR(~chi_40 -> ~e_L-     e+)
     3.58828043E-12    2    -1000011        11   # BR(~chi_40 -> ~e_L+     e-)
     2.90618314E-10    2     2000011       -11   # BR(~chi_40 -> ~e_R-     e+)
     2.90618314E-10    2    -2000011        11   # BR(~chi_40 -> ~e_R+     e-)
     3.58828043E-12    2     1000013       -13   # BR(~chi_40 -> ~mu_L-    mu+)
     3.58828043E-12    2    -1000013        13   # BR(~chi_40 -> ~mu_L+    mu-)
     2.90618314E-10    2     2000013       -13   # BR(~chi_40 -> ~mu_R-    mu+)
     2.90618314E-10    2    -2000013        13   # BR(~chi_40 -> ~mu_R+    mu-)
     1.10857203E-06    2     1000015       -15   # BR(~chi_40 -> ~tau_1-   tau+)
     1.10857203E-06    2    -1000015        15   # BR(~chi_40 -> ~tau_1+   tau-)
     8.32746784E-11    2     1000012       -12   # BR(~chi_40 -> ~nu_eL    nu_eb)
     8.32746784E-11    2    -1000012        12   # BR(~chi_40 -> ~nu_eL*   nu_e )
     8.32746784E-11    2     1000014       -14   # BR(~chi_40 -> ~nu_muL   nu_mub)
     8.32746784E-11    2    -1000014        14   # BR(~chi_40 -> ~nu_muL*  nu_mu )
     4.64307319E-11    2     1000016       -16   # BR(~chi_40 -> ~nu_tau1  nu_taub)
     4.64307319E-11    2    -1000016        16   # BR(~chi_40 -> ~nu_tau1* nu_tau )
#
#         PDG            Width
DECAY        25     3.80925988E-03   # h decays
#          BR         NDA      ID1       ID2
     5.41985328E-01    2           5        -5   # BR(h -> b       bb     )
     6.88265169E-02    2         -15        15   # BR(h -> tau+    tau-   )
     2.43641551E-04    2         -13        13   # BR(h -> mu+     mu-    )
     5.16034843E-04    2           3        -3   # BR(h -> s       sb     )
     2.24205660E-02    2           4        -4   # BR(h -> c       cb     )
     7.41473590E-02    2          21        21   # BR(h -> g       g      )
     2.58706977E-03    2          22        22   # BR(h -> gam     gam    )
     1.85070234E-03    2          22        23   # BR(h -> Z       gam    )
     2.54883202E-01    2          24       -24   # BR(h -> W+      W-     )
     3.25395787E-02    2          23        23   # BR(h -> Z       Z      )
#
#         PDG            Width
DECAY        35     4.26104282E+01   # H decays
#          BR         NDA      ID1       ID2
     9.11879719E-01    2           5        -5   # BR(H -> b       bb     )
     5.83627104E-02    2         -15        15   # BR(H -> tau+    tau-   )
     2.06356597E-04    2         -13        13   # BR(H -> mu+     mu-    )
     2.53405260E-04    2           3        -3   # BR(H -> s       sb     )
     7.10357776E-08    2           4        -4   # BR(H -> c       cb     )
     7.08627976E-03    2           6        -6   # BR(H -> t       tb     )
     3.43849734E-06    2          21        21   # BR(H -> g       g      )
     3.44928647E-08    2          22        22   # BR(H -> gam     gam    )
     2.90078324E-09    2          23        22   # BR(H -> Z       gam    )
     7.13102806E-07    2          24       -24   # BR(H -> W+      W-     )
     3.56111728E-07    2          23        23   # BR(H -> Z       Z      )
     4.80570930E-06    2          25        25   # BR(H -> h       h      )
    -3.34530891E-26    2          36        36   # BR(H -> A       A      )
     7.71694266E-18    2          23        36   # BR(H -> Z       A      )
     7.60751656E-04    2     1000024  -1000024   # BR(H -> ~chi_1+ ~chi_1-)
     3.62429512E-05    2     1000022   1000022   # BR(H -> ~chi_10 ~chi_10)
     3.80406919E-04    2     1000023   1000023   # BR(H -> ~chi_20 ~chi_20)
     2.35817062E-04    2     1000022   1000023   # BR(H -> ~chi_10 ~chi_20)
     2.07836131E-02    2     1000006  -1000006   # BR(H -> ~t_1    ~t_1*  )
     5.27523918E-06    2     1000005  -1000005   # BR(H -> ~b_1    ~b_1*  )
#
#         PDG            Width
DECAY        36     4.17284068E+01   # A decays
#          BR         NDA      ID1       ID2
     9.31142894E-01    2           5        -5   # BR(A -> b       bb     )
     5.95928350E-02    2         -15        15   # BR(A -> tau+    tau-   )
     2.10705729E-04    2         -13        13   # BR(A -> mu+     mu-    )
     2.58790389E-04    2           3        -3   # BR(A -> s       sb     )
     7.30269792E-08    2           4        -4   # BR(A -> c       cb     )
     7.28090049E-03    2           6        -6   # BR(A -> t       tb     )
     2.14415541E-05    2          21        21   # BR(A -> g       g      )
     5.44762365E-08    2          22        22   # BR(A -> gam     gam    )
     2.11136468E-08    2          23        22   # BR(A -> Z       gam    )
     7.25265302E-07    2          23        25   # BR(A -> Z       h      )
     8.06139462E-04    2     1000024  -1000024   # BR(A -> ~chi_1+ ~chi_1-)
     3.73908329E-05    2     1000022   1000022   # BR(A -> ~chi_10 ~chi_10)
     4.03077764E-04    2     1000023   1000023   # BR(A -> ~chi_20 ~chi_20)
     2.44950790E-04    2     1000022   1000023   # BR(A -> ~chi_10 ~chi_20)
#
#         PDG            Width
DECAY        37     4.52836819E+01   # H+ decays
#          BR         NDA      ID1       ID2
     1.48372740E-03    2           4        -5   # BR(H+ -> c       bb     )
     5.49343536E-02    2         -15        16   # BR(H+ -> tau+    nu_tau )
     1.94234475E-04    2         -13        14   # BR(H+ -> mu+     nu_mu  )
     9.49584376E-06    2           2        -5   # BR(H+ -> u       bb     )
     1.14146567E-05    2           2        -3   # BR(H+ -> u       sb     )
     2.34836193E-04    2           4        -3   # BR(H+ -> c       sb     )
     9.32566122E-01    2           6        -5   # BR(H+ -> t       bb     )
     6.69481686E-07    2          24        25   # BR(H+ -> W+      h      )
     4.78124721E-14    2          24        36   # BR(H+ -> W+      A      )
     4.48082799E-04    2     1000024   1000022   # BR(H+ -> ~chi_1+ ~chi_10)
     5.05895202E-15    2     1000024   1000023   # BR(H+ -> ~chi_1+ ~chi_20)
     1.01170640E-02    2     1000006  -1000005   # BR(H+ -> ~t_1    ~b_1*  )
