#
#                              ======================
#                              | THE SUSYHIT OUTPUT |
#                              ======================
#
#
#              ------------------------------------------------------
#              |     This is the output of the SUSY-HIT package     |
#              |  created by A.Djouadi, M.Muehlleitner and M.Spira. |
#              |  In case of problems with SUSY-HIT email to        |
#              |           margarete.muehlleitner@kit.edu           |
#              |           michael.spira@psi.ch                     |
#              |           abdelhak.djouadi@cern.ch                 |
#              ------------------------------------------------------
#
#              ------------------------------------------------------
#              |  SUSY Les Houches Accord - MSSM Spectrum + Decays  |
#              |              based on the decay programs           |
#              |                                                    |
#              |                     SDECAY 1.5                     |
#              |                                                    |
#              |  Authors: M.Muhlleitner, A.Djouadi and Y.Mambrini  |
#              |  Ref.:    Comput.Phys.Commun.168(2005)46           |
#              |           [hep-ph/0311167]                         |
#              |                                                    |
#              |                     HDECAY 3.4                     |
#              |                                                    |
#              |  By: A.Djouadi,J.Kalinowski,M.Muhlleitner,M.Spira  |
#              |  Ref.:    Comput.Phys.Commun.108(1998)56           |
#              |           [hep-ph/9704448]                         |
#              |                                                    |
#              |                                                    |
#              |  If not stated otherwise all DRbar couplings and   |
#              |  soft SUSY breaking masses are given at the scale  |
#              |  Q=  0.17312016E+04
#              |                                                    |
#              ------------------------------------------------------
#
#
BLOCK DCINFO  # Decay Program information
     1   SDECAY/HDECAY # decay calculator
     2   1.5  /3.4    # version number
#
BLOCK SPINFO  # Spectrum calculator information
     1    SOFTSUSY    # spectrum calculator                
     2    3.7.3       # version number                     
#
BLOCK MODSEL  # Model selection
     1     0   #  nonUniversal                                     
#
BLOCK SMINPUTS  # Standard Model inputs
         1     1.27934000E+02   # alpha_em^-1(M_Z)^MSbar
         2     1.16639000E-05   # G_F [GeV^-2]
         3     1.17200000E-01   # alpha_S(M_Z)^MSbar
         4     9.11870000E+01   # M_Z pole mass
         5     4.19000000E+00   # mb(mb)^MSbar
         6     1.72500000E+02   # mt pole mass
         7     1.77690000E+00   # mtau pole mass
#
BLOCK MINPAR  # Input parameters - minimal models
         3     2.00000000E+01   # tanb                
#
BLOCK EXTPAR  # Input parameters - non-minimal models
         0    -1.00000000E+00   # Set                 
         1     2.99900000E+02   # M_1(MX)             
         2     5.99900000E+02   # M_2(MX)             
         3     2.20000000E+03   # M_3(MX)             
        11     3.24338000E+03   # At(MX)              
        12     0.00000000E+00   # Ab(MX)              
        13     0.00000000E+00   # Atau(MX)            
        23     3.00000000E+03   # mu(MX)              
        25     2.00000000E+01   # tan                 
        26     3.00000000E+03   # mA(pole)            
        31     3.00000000E+03   # meL(MX)             
        32     3.00000000E+03   # mmuL(MX)            
        33     3.00000000E+03   # mtauL(MX)           
        34     3.00000000E+03   # meR(MX)             
        35     3.00000000E+03   # mmuR(MX)            
        36     3.00000000E+03   # mtauR(MX)           
        41     3.00000000E+03   # mqL1(MX)            
        42     3.00000000E+03   # mqL2(MX)            
        43     9.99900000E+02   # mqL3(MX)            
        44     3.00000000E+03   # muR(MX)             
        45     3.00000000E+03   # mcR(MX)             
        46     3.00000000E+03   # mtR(MX)             
        47     3.00000000E+03   # mdR(MX)             
        48     3.00000000E+03   # msR(MX)             
        49     3.00000000E+03   # mbR(MX)             
#
BLOCK MASS  # Mass Spectrum
# PDG code           mass       particle
        24     8.04025190E+01   # W+
        25     1.24727497E+02   # h
        35     3.00006123E+03   # H
        36     3.00000000E+03   # A
        37     3.00088181E+03   # H+
         5     4.81337004E+00   # b-quark pole mass calculated from mb(mb)_Msbar
   1000001     3.04341519E+03   # ~d_L
   2000001     3.03831865E+03   # ~d_R
   1000002     3.04251180E+03   # ~u_L
   2000002     3.03916297E+03   # ~u_R
   1000003     3.04341519E+03   # ~s_L
   2000003     3.03831865E+03   # ~s_R
   1000004     3.04251180E+03   # ~c_L
   2000004     3.03916297E+03   # ~c_R
   1000005     1.10324337E+03   # ~b_1
   2000005     3.03715977E+03   # ~b_2
   1000006     1.09964072E+03   # ~t_1
   2000006     3.01953556E+03   # ~t_2
   1000011     3.00620831E+03   # ~e_L
   2000011     3.00232154E+03   # ~e_R
   1000012     3.00482293E+03   # ~nu_eL
   1000013     3.00620831E+03   # ~mu_L
   2000013     3.00232154E+03   # ~mu_R
   1000014     3.00482293E+03   # ~nu_muL
   1000015     2.98552065E+03   # ~tau_1
   2000015     3.02192663E+03   # ~tau_2
   1000016     3.00449124E+03   # ~nu_tauL
   1000021     2.35419100E+03   # ~g
   1000022     3.00991709E+02   # ~chi_10
   1000023     6.31731523E+02   # ~chi_20
   1000025    -2.99404704E+03   # ~chi_30
   1000035     2.99490895E+03   # ~chi_40
   1000024     6.31894900E+02   # ~chi_1+
   1000037     2.99543128E+03   # ~chi_2+
#
BLOCK NMIX  # Neutralino Mixing Matrix
  1  1     9.99885246E-01   # N_11
  1  2    -7.71088759E-04   # N_12
  1  3     1.49638936E-02   # N_13
  1  4    -2.23227578E-03   # N_14
  2  1     1.19293222E-03   # N_21
  2  2     9.99606713E-01   # N_22
  2  3    -2.71985271E-02   # N_23
  2  4     6.72585382E-03   # N_24
  3  1    -8.98887663E-03   # N_31
  3  2     1.44861656E-02   # N_32
  3  3     7.06870863E-01   # N_33
  3  4     7.07137140E-01   # N_34
  4  1    -1.21355986E-02   # N_41
  4  2     2.39995104E-02   # N_42
  4  3     7.06661097E-01   # N_43
  4  4    -7.07040908E-01   # N_44
#
BLOCK UMIX  # Chargino Mixing Matrix U
  1  1     9.99259465E-01   # U_11
  1  2    -3.84775464E-02   # U_12
  2  1     3.84775464E-02   # U_21
  2  2     9.99259465E-01   # U_22
#
BLOCK VMIX  # Chargino Mixing Matrix V
  1  1     9.99954719E-01   # V_11
  1  2    -9.51626985E-03   # V_12
  2  1     9.51626985E-03   # V_21
  2  2     9.99954719E-01   # V_22
#
BLOCK STOPMIX  # Stop Mixing Matrix
  1  1     9.98413343E-01   # cos(theta_t)
  1  2    -5.63098261E-02   # sin(theta_t)
  2  1     5.63098261E-02   # -sin(theta_t)
  2  2     9.98413343E-01   # cos(theta_t)
#
BLOCK SBOTMIX  # Sbottom Mixing Matrix
  1  1     9.99902881E-01   # cos(theta_b)
  1  2     1.39365910E-02   # sin(theta_b)
  2  1    -1.39365910E-02   # -sin(theta_b)
  2  2     9.99902881E-01   # cos(theta_b)
#
BLOCK STAUMIX  # Stau Mixing Matrix
  1  1     7.06961089E-01   # cos(theta_tau)
  1  2     7.07252443E-01   # sin(theta_tau)
  2  1    -7.07252443E-01   # -sin(theta_tau)
  2  2     7.06961089E-01   # cos(theta_tau)
#
BLOCK ALPHA  # Higgs mixing
          -5.01750411E-02   # Mixing angle in the neutral Higgs boson sector
#
BLOCK HMIX Q=  1.73120160E+03  # DRbar Higgs Parameters
         1     3.00000000E+03   # mu(Q)MSSM           
         2     2.00000000E+01   # tan                 
         3     2.43883571E+02   # higgs               
         4     7.80647651E+06   # mA^2(Q)MSSM         
#
BLOCK GAUGE Q=  1.73120160E+03  # The gauge couplings
     1     3.62655713E-01   # gprime(Q) DRbar
     2     6.37559902E-01   # g(Q) DRbar
     3     1.02312553E+00   # g3(Q) DRbar
#
BLOCK AU Q=  1.73120160E+03  # The trilinear couplings
  1  1     2.85324895E-06   # A_u(Q) DRbar
  2  2     2.85328800E-06   # A_c(Q) DRbar
  3  3     3.24338000E+03   # A_t(Q) DRbar
#
BLOCK AD Q=  1.73120160E+03  # The trilinear couplings
  1  1     7.68474562E-07   # A_d(Q) DRbar
  2  2     7.68607985E-07   # A_s(Q) DRbar
  3  3     1.68451787E-06   # A_b(Q) DRbar
#
BLOCK AE Q=  1.73120160E+03  # The trilinear couplings
  1  1     0.00000000E+00   # A_e(Q) DRbar
  2  2     1.58617062E-07   # A_mu(Q) DRbar
  3  3     1.60501496E-07   # A_tau(Q) DRbar
#
BLOCK Yu Q=  1.73120160E+03  # The Yukawa couplings
  1  1     0.00000000E+00   # y_u(Q) DRbar
  2  2     0.00000000E+00   # y_c(Q) DRbar
  3  3     8.49718100E-01   # y_t(Q) DRbar
#
BLOCK Yd Q=  1.73120160E+03  # The Yukawa couplings
  1  1     0.00000000E+00   # y_d(Q) DRbar
  2  2     0.00000000E+00   # y_s(Q) DRbar
  3  3     2.15770077E-01   # y_b(Q) DRbar
#
BLOCK Ye Q=  1.73120160E+03  # The Yukawa couplings
  1  1     0.00000000E+00   # y_e(Q) DRbar
  2  2     0.00000000E+00   # y_mu(Q) DRbar
  3  3     2.07182599E-01   # y_tau(Q) DRbar
#
BLOCK MSOFT Q=  1.73120160E+03  # The soft SUSY breaking masses at the scale Q
         1     2.99900000E+02   # M_1(Q)              
         2     5.99900000E+02   # M_2(Q)              
         3     2.20000000E+03   # M_3(Q)              
        21    -8.47290158E+04   # M^2_Hd              
        22    -9.02171116E+06   # M^2_Hu              
        31     3.00000000E+03   # M_eL                
        32     3.00000000E+03   # M_muL               
        33     3.00000000E+03   # M_tauL              
        34     3.00000000E+03   # M_eR                
        35     3.00000000E+03   # M_muR               
        36     3.00000000E+03   # M_tauR              
        41     3.00000000E+03   # M_q1L               
        42     3.00000000E+03   # M_q2L               
        43     9.99899994E+02   # M_q3L               
        44     3.00000000E+03   # M_uR                
        45     3.00000000E+03   # M_cR                
        46     3.00000000E+03   # M_tR                
        47     3.00000000E+03   # M_dR                
        48     3.00000000E+03   # M_sR                
        49     3.00000000E+03   # M_bR                
#
#
#
#                             =================
#                             |The decay table|
#                             =================
#
# - The QCD corrections to the decays gluino -> squark  + quark
#                                     squark -> gaugino + quark_prime
#                                     squark -> squark_prime + Higgs
#                                     squark -> gluino  + quark
#   are included.
#
# - The multi-body decays for the inos, stops and sbottoms are included.
#
# - The loop induced decays for the gluino, neutralinos and stops
#   are included.
#
# - The SUSY decays of the top quark are included.
#
#
#         PDG            Width
DECAY         6     1.41086838E+00   # top decays
#          BR         NDA      ID1       ID2
     1.00000000E+00    2           5        24   # BR(t ->  b    W+)
#
#         PDG            Width
DECAY   1000021     5.85105785E+01   # gluino decays
#          BR         NDA      ID1       ID2
     2.47617941E-01    2     1000005        -5   # BR(~g -> ~b_1  bb)
     2.47617941E-01    2    -1000005         5   # BR(~g -> ~b_1* b )
     2.52382059E-01    2     1000006        -6   # BR(~g -> ~t_1  tb)
     2.52382059E-01    2    -1000006         6   # BR(~g -> ~t_1* t )
#
#         PDG            Width
DECAY   1000006     6.01858233E+00   # stop1 decays
#          BR         NDA      ID1       ID2
     2.19140483E-02    2     1000022         6   # BR(~t_1 -> ~chi_10 t )
     3.02806876E-01    2     1000023         6   # BR(~t_1 -> ~chi_20 t )
     6.75279076E-01    2     1000024         5   # BR(~t_1 -> ~chi_1+ b )
#
#         PDG            Width
DECAY   2000006     1.09272823E+02   # stop2 decays
#          BR         NDA      ID1       ID2
     5.96213936E-02    2     1000022         6   # BR(~t_2 -> ~chi_10 t )
     4.23261444E-04    2     1000023         6   # BR(~t_2 -> ~chi_20 t )
     0.00000000E+00    2     1000025         6   # BR(~t_2 -> ~chi_30 t )
     8.50756432E-04    2     1000024         5   # BR(~t_2 -> ~chi_1+ b )
     1.07249652E-04    2     1000037         5   # BR(~t_2 -> ~chi_2+ b )
     3.03234489E-01    2     1000021         6   # BR(~t_2 -> ~g      t )
     1.66899846E-01    2     1000006        25   # BR(~t_2 -> ~t_1    h )
     1.58799813E-01    2     1000006        23   # BR(~t_2 -> ~t_1    Z )
     3.10063191E-01    2     1000005        24   # BR(~t_2 -> ~b_1    W+)
#
#         PDG            Width
DECAY   1000005     5.89609615E+00   # sbottom1 decays
#          BR         NDA      ID1       ID2
     2.40391840E-02    2     1000022         5   # BR(~b_1 -> ~chi_10 b )
     3.49229367E-01    2     1000023         5   # BR(~b_1 -> ~chi_20 b )
     6.26731449E-01    2    -1000024         6   # BR(~b_1 -> ~chi_1- t )
#
#         PDG            Width
DECAY   2000005     4.17044978E+01   # sbottom2 decays
#          BR         NDA      ID1       ID2
     3.95439156E-02    2     1000022         5   # BR(~b_2 -> ~chi_10 b )
     2.29055198E-07    2     1000023         5   # BR(~b_2 -> ~chi_20 b )
     2.83697976E-05    2     1000025         5   # BR(~b_2 -> ~chi_30 b )
     2.75654532E-05    2     1000035         5   # BR(~b_2 -> ~chi_40 b )
     2.55781888E-07    2    -1000024         6   # BR(~b_2 -> ~chi_1- t )
     8.31428509E-01    2     1000021         5   # BR(~b_2 -> ~g      b )
     2.83444448E-02    2     1000005        25   # BR(~b_2 -> ~b_1    h )
     4.13452488E-02    2     1000005        23   # BR(~b_2 -> ~b_1    Z )
     5.92814617E-02    2     1000006       -24   # BR(~b_2 -> ~t_1    W-)
#
#         PDG            Width
DECAY   1000002     6.77849680E+01   # sup_L decays
#          BR         NDA      ID1       ID2
     6.04772155E-03    2     1000022         2   # BR(~u_L -> ~chi_10 u)
     1.58714175E-01    2     1000023         2   # BR(~u_L -> ~chi_20 u)
     3.22013270E-08    2     1000025         2   # BR(~u_L -> ~chi_30 u)
     8.96262680E-08    2     1000035         2   # BR(~u_L -> ~chi_40 u)
     3.17491233E-01    2     1000024         1   # BR(~u_L -> ~chi_1+ d)
     3.37477220E-08    2     1000037         1   # BR(~u_L -> ~chi_2+ d)
     5.17746715E-01    2     1000021         2   # BR(~u_L -> ~g      u)
#
#         PDG            Width
DECAY   2000002     4.14315837E+01   # sup_R decays
#          BR         NDA      ID1       ID2
     1.59420400E-01    2     1000022         2   # BR(~u_R -> ~chi_10 u)
     2.12345470E-07    2     1000023         2   # BR(~u_R -> ~chi_20 u)
     1.30575062E-08    2     1000025         2   # BR(~u_R -> ~chi_30 u)
     2.29253947E-08    2     1000035         2   # BR(~u_R -> ~chi_40 u)
     8.40579352E-01    2     1000021         2   # BR(~u_R -> ~g      u)
#
#         PDG            Width
DECAY   1000001     6.78363675E+01   # sdown_L decays
#          BR         NDA      ID1       ID2
     6.14420360E-03    2     1000022         1   # BR(~d_L -> ~chi_10 d)
     1.58507069E-01    2     1000023         1   # BR(~d_L -> ~chi_20 d)
     5.34947561E-08    2     1000025         1   # BR(~d_L -> ~chi_30 d)
     1.36422327E-07    2     1000035         1   # BR(~d_L -> ~chi_40 d)
     3.16922904E-01    2    -1000024         2   # BR(~d_L -> ~chi_1- u)
     5.71852327E-07    2    -1000037         2   # BR(~d_L -> ~chi_2- u)
     5.18425061E-01    2     1000021         1   # BR(~d_L -> ~g      d)
#
#         PDG            Width
DECAY   2000001     3.64095885E+01   # sdown_R decays
#          BR         NDA      ID1       ID2
     4.53389092E-02    2     1000022         1   # BR(~d_R -> ~chi_10 d)
     6.03883933E-08    2     1000023         1   # BR(~d_R -> ~chi_20 d)
     3.58187434E-09    2     1000025         1   # BR(~d_R -> ~chi_30 d)
     6.28422335E-09    2     1000035         1   # BR(~d_R -> ~chi_40 d)
     9.54661021E-01    2     1000021         1   # BR(~d_R -> ~g      d)
#
#         PDG            Width
DECAY   1000004     6.77849680E+01   # scharm_L decays
#          BR         NDA      ID1       ID2
     6.04772155E-03    2     1000022         4   # BR(~c_L -> ~chi_10 c)
     1.58714175E-01    2     1000023         4   # BR(~c_L -> ~chi_20 c)
     3.22013270E-08    2     1000025         4   # BR(~c_L -> ~chi_30 c)
     8.96262680E-08    2     1000035         4   # BR(~c_L -> ~chi_40 c)
     3.17491233E-01    2     1000024         3   # BR(~c_L -> ~chi_1+ s)
     3.37477220E-08    2     1000037         3   # BR(~c_L -> ~chi_2+ s)
     5.17746715E-01    2     1000021         4   # BR(~c_L -> ~g      c)
#
#         PDG            Width
DECAY   2000004     4.14315837E+01   # scharm_R decays
#          BR         NDA      ID1       ID2
     1.59420400E-01    2     1000022         4   # BR(~c_R -> ~chi_10 c)
     2.12345470E-07    2     1000023         4   # BR(~c_R -> ~chi_20 c)
     1.30575062E-08    2     1000025         4   # BR(~c_R -> ~chi_30 c)
     2.29253947E-08    2     1000035         4   # BR(~c_R -> ~chi_40 c)
     8.40579352E-01    2     1000021         4   # BR(~c_R -> ~g      c)
#
#         PDG            Width
DECAY   1000003     6.78363675E+01   # sstrange_L decays
#          BR         NDA      ID1       ID2
     6.14420360E-03    2     1000022         3   # BR(~s_L -> ~chi_10 s)
     1.58507069E-01    2     1000023         3   # BR(~s_L -> ~chi_20 s)
     5.34947561E-08    2     1000025         3   # BR(~s_L -> ~chi_30 s)
     1.36422327E-07    2     1000035         3   # BR(~s_L -> ~chi_40 s)
     3.16922904E-01    2    -1000024         4   # BR(~s_L -> ~chi_1- c)
     5.71852327E-07    2    -1000037         4   # BR(~s_L -> ~chi_2- c)
     5.18425061E-01    2     1000021         3   # BR(~s_L -> ~g      s)
#
#         PDG            Width
DECAY   2000003     3.64095885E+01   # sstrange_R decays
#          BR         NDA      ID1       ID2
     4.53389092E-02    2     1000022         3   # BR(~s_R -> ~chi_10 s)
     6.03883933E-08    2     1000023         3   # BR(~s_R -> ~chi_20 s)
     3.58187434E-09    2     1000025         3   # BR(~s_R -> ~chi_30 s)
     6.28422335E-09    2     1000035         3   # BR(~s_R -> ~chi_40 s)
     9.54661021E-01    2     1000021         3   # BR(~s_R -> ~g      s)
#
#         PDG            Width
DECAY   1000011     3.71314873E+01   # selectron_L decays
#          BR         NDA      ID1       ID2
     1.03499101E-01    2     1000022        11   # BR(~e_L -> ~chi_10 e-)
     2.99252105E-01    2     1000023        11   # BR(~e_L -> ~chi_20 e-)
     1.87503356E-09    2     1000025        11   # BR(~e_L -> ~chi_30 e-)
     5.38681406E-09    2     1000035        11   # BR(~e_L -> ~chi_40 e-)
     5.97248737E-01    2    -1000024        12   # BR(~e_L -> ~chi_1- nu_e)
     4.96506942E-08    2    -1000037        12   # BR(~e_L -> ~chi_2- nu_e)
#
#         PDG            Width
DECAY   2000011     1.53933530E+01   # selectron_R decays
#          BR         NDA      ID1       ID2
     9.99998667E-01    2     1000022        11   # BR(~e_R -> ~chi_10 e-)
     1.32669570E-06    2     1000023        11   # BR(~e_R -> ~chi_20 e-)
     2.49870711E-09    2     1000025        11   # BR(~e_R -> ~chi_30 e-)
     3.65601694E-09    2     1000035        11   # BR(~e_R -> ~chi_40 e-)
#
#         PDG            Width
DECAY   1000013     3.71314873E+01   # smuon_L decays
#          BR         NDA      ID1       ID2
     1.03499101E-01    2     1000022        13   # BR(~mu_L -> ~chi_10 mu-)
     2.99252105E-01    2     1000023        13   # BR(~mu_L -> ~chi_20 mu-)
     1.87503356E-09    2     1000025        13   # BR(~mu_L -> ~chi_30 mu-)
     5.38681406E-09    2     1000035        13   # BR(~mu_L -> ~chi_40 mu-)
     5.97248737E-01    2    -1000024        14   # BR(~mu_L -> ~chi_1- nu_mu)
     4.96506942E-08    2    -1000037        14   # BR(~mu_L -> ~chi_2- nu_mu)
#
#         PDG            Width
DECAY   2000013     1.53933530E+01   # smuon_R decays
#          BR         NDA      ID1       ID2
     9.99998667E-01    2     1000022        13   # BR(~mu_R -> ~chi_10 mu-)
     1.32669570E-06    2     1000023        13   # BR(~mu_R -> ~chi_20 mu-)
     2.49870711E-09    2     1000025        13   # BR(~mu_R -> ~chi_30 mu-)
     3.65601694E-09    2     1000035        13   # BR(~mu_R -> ~chi_40 mu-)
#
#         PDG            Width
DECAY   1000015     2.65275851E+01   # stau_1 decays
#          BR         NDA      ID1       ID2
     3.62256174E-01    2     1000022        15   # BR(~tau_1 -> ~chi_10  tau-)
     2.12890524E-01    2     1000023        15   # BR(~tau_1 -> ~chi_20  tau-)
     4.24853302E-01    2    -1000024        16   # BR(~tau_1 -> ~chi_1-  nu_tau)
#
#         PDG            Width
DECAY   2000015     2.59715844E+01   # stau_2 decays
#          BR         NDA      ID1       ID2
     3.70839211E-01    2     1000022        15   # BR(~tau_2 -> ~chi_10  tau-)
     2.10027149E-01    2     1000023        15   # BR(~tau_2 -> ~chi_20  tau-)
     1.66115427E-05    2     1000025        15   # BR(~tau_2 -> ~chi_30  tau-)
     1.83449296E-05    2     1000035        15   # BR(~tau_2 -> ~chi_40  tau-)
     4.19079774E-01    2    -1000024        16   # BR(~tau_2 -> ~chi_1-  nu_tau)
     1.89099515E-05    2    -1000037        16   # BR(~tau_2 -> ~chi_2-  nu_tau)
#
#         PDG            Width
DECAY   1000012     3.71330930E+01   # snu_eL decays
#          BR         NDA      ID1       ID2
     1.04007507E-01    2     1000022        12   # BR(~nu_eL -> ~chi_10 nu_e)
     2.98264790E-01    2     1000023        12   # BR(~nu_eL -> ~chi_20 nu_e)
     6.44238043E-09    2     1000025        12   # BR(~nu_eL -> ~chi_30 nu_e)
     1.35603295E-08    2     1000035        12   # BR(~nu_eL -> ~chi_40 nu_e)
     5.97727681E-01    2     1000024        11   # BR(~nu_eL -> ~chi_1+ e-)
     2.30839940E-09    2     1000037        11   # BR(~nu_eL -> ~chi_2+ e-)
#
#         PDG            Width
DECAY   1000014     3.71330930E+01   # snu_muL decays
#          BR         NDA      ID1       ID2
     1.04007507E-01    2     1000022        14   # BR(~nu_muL -> ~chi_10 nu_mu)
     2.98264790E-01    2     1000023        14   # BR(~nu_muL -> ~chi_20 nu_mu)
     6.44238043E-09    2     1000025        14   # BR(~nu_muL -> ~chi_30 nu_mu)
     1.35603295E-08    2     1000035        14   # BR(~nu_muL -> ~chi_40 nu_mu)
     5.97727681E-01    2     1000024        13   # BR(~nu_muL -> ~chi_1+ mu-)
     2.30839940E-09    2     1000037        13   # BR(~nu_muL -> ~chi_2+ mu-)
#
#         PDG            Width
DECAY   1000016     3.71316977E+01   # snu_tauL decays
#          BR         NDA      ID1       ID2
     1.03999468E-01    2     1000022        16   # BR(~nu_tauL -> ~chi_10 nu_tau)
     2.98236982E-01    2     1000023        16   # BR(~nu_tauL -> ~chi_20 nu_tau)
     6.05344425E-09    2     1000025        16   # BR(~nu_tauL -> ~chi_30 nu_tau)
     1.26714091E-08    2     1000035        16   # BR(~nu_tauL -> ~chi_40 nu_tau)
     5.97761048E-01    2     1000024        15   # BR(~nu_tauL -> ~chi_1+ tau-)
     2.48348724E-06    2     1000037        15   # BR(~nu_tauL -> ~chi_2+ tau-)
#
#         PDG            Width
DECAY   1000024     1.35753582E-04   # chargino1+ decays
#          BR         NDA      ID1       ID2
     1.00000000E+00    2     1000022        24   # BR(~chi_1+ -> ~chi_10  W+)
#
#         PDG            Width
DECAY   1000037     7.70817136E+01   # chargino2+ decays
#          BR         NDA      ID1       ID2
     4.76203724E-02    2     1000006        -5   # BR(~chi_2+ -> ~t_1     bb)
     6.95741032E-01    2    -1000005         6   # BR(~chi_2+ -> ~b_1*    t )
     2.81076400E-07    2    -1000015        16   # BR(~chi_2+ -> ~tau_1+  nu_tau)
     7.67368297E-02    2     1000024        23   # BR(~chi_2+ -> ~chi_1+  Z )
     2.40360287E-02    2     1000022        24   # BR(~chi_2+ -> ~chi_10  W+)
     7.47330682E-02    2     1000023        24   # BR(~chi_2+ -> ~chi_20  W+)
     8.11323882E-02    2     1000024        25   # BR(~chi_2+ -> ~chi_1+  h )
#
#         PDG            Width
DECAY   1000022     0.00000000E+00   # neutralino1 decays
#
#         PDG            Width
DECAY   1000023     1.17729773E-04   # neutralino2 decays
#          BR         NDA      ID1       ID2
     5.33818061E-02    2     1000022        23   # BR(~chi_20 -> ~chi_10   Z )
     9.46618194E-01    2     1000022        25   # BR(~chi_20 -> ~chi_10   h )
#
#         PDG            Width
DECAY   1000025     7.73047476E+01   # neutralino3 decays
#          BR         NDA      ID1       ID2
     1.60051775E-02    2     1000022        23   # BR(~chi_30 -> ~chi_10   Z )
     5.59799744E-02    2     1000023        23   # BR(~chi_30 -> ~chi_20   Z )
     7.43953035E-02    2     1000024       -24   # BR(~chi_30 -> ~chi_1+   W-)
     7.43953035E-02    2    -1000024        24   # BR(~chi_30 -> ~chi_1-   W+)
     9.11911274E-03    2     1000022        25   # BR(~chi_30 -> ~chi_10   h )
     2.08220075E-02    2     1000023        25   # BR(~chi_30 -> ~chi_20   h )
     3.52170339E-01    2     1000006        -6   # BR(~chi_30 -> ~t_1      tb)
     3.52170339E-01    2    -1000006         6   # BR(~chi_30 -> ~t_1*     t )
     2.24710269E-02    2     1000005        -5   # BR(~chi_30 -> ~b_1      bb)
     2.24710269E-02    2    -1000005         5   # BR(~chi_30 -> ~b_1*     b )
     1.94583361E-07    2     1000015       -15   # BR(~chi_30 -> ~tau_1-   tau+)
     1.94583361E-07    2    -1000015        15   # BR(~chi_30 -> ~tau_1+   tau-)
#
#         PDG            Width
DECAY   1000035     7.64350947E+01   # neutralino4 decays
#          BR         NDA      ID1       ID2
     8.88328124E-03    2     1000022        23   # BR(~chi_40 -> ~chi_10   Z )
     2.06690611E-02    2     1000023        23   # BR(~chi_40 -> ~chi_20   Z )
     7.52865307E-02    2     1000024       -24   # BR(~chi_40 -> ~chi_1+   W-)
     7.52865307E-02    2    -1000024        24   # BR(~chi_40 -> ~chi_1-   W+)
     1.68787949E-02    2     1000022        25   # BR(~chi_40 -> ~chi_10   h )
     6.06748084E-02    2     1000023        25   # BR(~chi_40 -> ~chi_20   h )
     3.48380500E-01    2     1000006        -6   # BR(~chi_40 -> ~t_1      tb)
     3.48380500E-01    2    -1000006         6   # BR(~chi_40 -> ~t_1*     t )
     2.27796500E-02    2     1000005        -5   # BR(~chi_40 -> ~b_1      bb)
     2.27796500E-02    2    -1000005         5   # BR(~chi_40 -> ~b_1*     b )
     3.46879624E-07    2     1000015       -15   # BR(~chi_40 -> ~tau_1-   tau+)
     3.46879624E-07    2    -1000015        15   # BR(~chi_40 -> ~tau_1+   tau-)
#
#         PDG            Width
DECAY        25     4.73221135E-03   # h decays
#          BR         NDA      ID1       ID2
     6.72459698E-01    2           5        -5   # BR(h -> b       bb     )
     5.50261680E-02    2         -15        15   # BR(h -> tau+    tau-   )
     1.94795296E-04    2         -13        13   # BR(h -> mu+     mu-    )
     4.13596631E-04    2           3        -3   # BR(h -> s       sb     )
     1.78582658E-02    2           4        -4   # BR(h -> c       cb     )
     5.77856019E-02    2          21        21   # BR(h -> g       g      )
     1.97120240E-03    2          22        22   # BR(h -> gam     gam    )
     1.28866590E-03    2          22        23   # BR(h -> Z       gam    )
     1.71628074E-01    2          24       -24   # BR(h -> W+      W-     )
     2.13739320E-02    2          23        23   # BR(h -> Z       Z      )
#
#         PDG            Width
DECAY        35     1.40962316E+01   # H decays
#          BR         NDA      ID1       ID2
     7.41550663E-01    2           5        -5   # BR(H -> b       bb     )
     1.76409366E-01    2         -15        15   # BR(H -> tau+    tau-   )
     6.23741363E-04    2         -13        13   # BR(H -> mu+     mu-    )
     7.65956926E-04    2           3        -3   # BR(H -> s       sb     )
     2.16077418E-07    2           4        -4   # BR(H -> c       cb     )
     2.15551029E-02    2           6        -6   # BR(H -> t       tb     )
     2.40543163E-05    2          21        21   # BR(H -> g       g      )
     1.49060788E-08    2          22        22   # BR(H -> gam     gam    )
     8.32632324E-09    2          23        22   # BR(H -> Z       gam    )
     2.93767335E-05    2          24       -24   # BR(H -> W+      W-     )
     1.46702582E-05    2          23        23   # BR(H -> Z       Z      )
     7.82629077E-05    2          25        25   # BR(H -> h       h      )
     9.93823181E-24    2          36        36   # BR(H -> A       A      )
     3.29487543E-19    2          23        36   # BR(H -> Z       A      )
     1.94038739E-03    2     1000024  -1000024   # BR(H -> ~chi_1+ ~chi_1-)
     1.07228363E-04    2     1000022   1000022   # BR(H -> ~chi_10 ~chi_10)
     9.67773821E-04    2     1000023   1000023   # BR(H -> ~chi_20 ~chi_20)
     6.56560534E-04    2     1000022   1000023   # BR(H -> ~chi_10 ~chi_20)
     5.52713961E-02    2     1000006  -1000006   # BR(H -> ~t_1    ~t_1*  )
     5.22044627E-06    2     1000005  -1000005   # BR(H -> ~b_1    ~b_1*  )
#
#         PDG            Width
DECAY        36     1.33301844E+01   # A decays
#          BR         NDA      ID1       ID2
     7.84252217E-01    2           5        -5   # BR(A -> b       bb     )
     1.86547608E-01    2         -15        15   # BR(A -> tau+    tau-   )
     6.59586842E-04    2         -13        13   # BR(A -> mu+     mu-    )
     8.10109606E-04    2           3        -3   # BR(A -> s       sb     )
     2.28601448E-07    2           4        -4   # BR(A -> c       cb     )
     2.27919107E-02    2           6        -6   # BR(A -> t       tb     )
     6.71199944E-05    2          21        21   # BR(A -> g       g      )
     4.46799939E-08    2          22        22   # BR(A -> gam     gam    )
     6.61352574E-08    2          23        22   # BR(A -> Z       gam    )
     3.09492967E-05    2          23        25   # BR(A -> Z       h      )
     2.62125866E-03    2     1000024  -1000024   # BR(A -> ~chi_1+ ~chi_1-)
     1.21733637E-04    2     1000022   1000022   # BR(A -> ~chi_10 ~chi_10)
     1.30725103E-03    2     1000023   1000023   # BR(A -> ~chi_20 ~chi_20)
     7.89915941E-04    2     1000022   1000023   # BR(A -> ~chi_10 ~chi_20)
#
#         PDG            Width
DECAY        37     1.04591014E+01   # H+ decays
#          BR         NDA      ID1       ID2
     1.10896423E-03    2           4        -5   # BR(H+ -> c       bb     )
     2.37825876E-01    2         -15        16   # BR(H+ -> tau+    nu_tau )
     8.40894289E-04    2         -13        14   # BR(H+ -> mu+     nu_mu  )
     7.09736006E-06    2           2        -5   # BR(H+ -> u       bb     )
     4.94176536E-05    2           2        -3   # BR(H+ -> u       sb     )
     1.01668004E-03    2           4        -3   # BR(H+ -> c       sb     )
     7.20614850E-01    2           6        -5   # BR(H+ -> t       bb     )
     3.95045267E-05    2          24        25   # BR(H+ -> W+      h      )
     6.70767652E-14    2          24        36   # BR(H+ -> W+      A      )
     1.88810880E-03    2     1000024   1000022   # BR(H+ -> ~chi_1+ ~chi_10)
     2.60738023E-09    2     1000024   1000023   # BR(H+ -> ~chi_1+ ~chi_20)
     3.66086047E-02    2     1000006  -1000005   # BR(H+ -> ~t_1    ~b_1*  )
