#
#                              ======================
#                              | THE SUSYHIT OUTPUT |
#                              ======================
#
#
#              ------------------------------------------------------
#              |     This is the output of the SUSY-HIT package     |
#              |  created by A.Djouadi, M.Muehlleitner and M.Spira. |
#              |  In case of problems with SUSY-HIT email to        |
#              |           margarete.muehlleitner@kit.edu           |
#              |           michael.spira@psi.ch                     |
#              |           abdelhak.djouadi@cern.ch                 |
#              ------------------------------------------------------
#
#              ------------------------------------------------------
#              |  SUSY Les Houches Accord - MSSM Spectrum + Decays  |
#              |              based on the decay programs           |
#              |                                                    |
#              |                     SDECAY 1.5a                    |
#              |                                                    |
#              |  Authors: M.Muhlleitner, A.Djouadi and Y.Mambrini  |
#              |  Ref.:    Comput.Phys.Commun.168(2005)46           |
#              |           [hep-ph/0311167]                         |
#              |                                                    |
#              |                     HDECAY 3.4                     |
#              |                                                    |
#              |  By: A.Djouadi,J.Kalinowski,M.Muhlleitner,M.Spira  |
#              |  Ref.:    Comput.Phys.Commun.108(1998)56           |
#              |           [hep-ph/9704448]                         |
#              |                                                    |
#              |                                                    |
#              |  If not stated otherwise all DRbar couplings and   |
#              |  soft SUSY breaking masses are given at the scale  |
#              |  Q=  0.91187600E+02
#              |                                                    |
#              ------------------------------------------------------
#
#
BLOCK DCINFO  # Decay Program information
     1   SDECAY/HDECAY # decay calculator
     2   1.5a /3.4    # version number
#
BLOCK SPINFO  # Spectrum calculator information
     1   SuSpect     # RGE +Spectrum calculator            
     2   2.43         # version number                     
#
BLOCK MODSEL  # Model selection
     1     2   # GMSB                                              
#
BLOCK SMINPUTS  # Standard Model inputs
         1     1.27932904E+02   # alpha_em^-1(M_Z)^MSbar
         2     1.16639000E-05   # G_F [GeV^-2]
         3     1.17200000E-01   # alpha_S(M_Z)^MSbar
         4     9.11870000E+01   # M_Z pole mass
         5     4.25000000E+00   # mb(mb)^MSbar
         6     1.72900000E+02   # mt pole mass
         7     1.77700000E+00   # mtau pole mass
#
BLOCK MINPAR  # Input parameters - minimal models
#
BLOCK EXTPAR  # Input parameters - non-minimal models
         0     9.11876000E+01   # EWSB                
         1     2.63889039E+02   # M_1                 
         2     3.00000000E+03   # M_2                 
         3     1.80000000E+03   # M_3                 
        11     0.00000000E+00   # A_t                 
        12     0.00000000E+00   # A_b                 
        13     0.00000000E+00   # A_tau               
        14     0.00000000E+00   # A_u                 
        15     0.00000000E+00   # A_d                 
        16     0.00000000E+00   # A_e                 
        23    -2.50000000E+02   # mu(EWSB)            
        25     1.50000000E+00   # tanbeta(in)         
        26     2.00000000E+03   # MA_pole             
        31     5.00000000E+03   # M_eL                
        32     5.00000000E+03   # M_muL               
        33     5.00000000E+03   # M_tauL              
        34     5.00000000E+03   # M_eR                
        35     5.00000000E+03   # M_muR               
        36     5.00000000E+03   # M_tauR              
        41     5.00000000E+03   # M_q1L               
        42     5.00000000E+03   # M_q2L               
        43     5.00000000E+03   # M_q3L               
        44     5.00000000E+03   # M_uR                
        45     5.00000000E+03   # M_cR                
        46     5.00000000E+03   # M_tR                
        47     5.00000000E+03   # M_dR                
        48     5.00000000E+03   # M_sR                
        49     5.00000000E+03   # M_bR                
#
BLOCK MASS  # Mass Spectrum
# PDG code           mass       particle
        24     8.05375439E+01   # W+
        25     1.25000000E+02   # h
        35     2.00415126E+03   # H
        36     2.00000000E+03   # A
        37     2.00194485E+03   # H+
         5     4.87877839E+00   # b-quark pole mass calculated from mb(mb)_Msbar
   1000001     5.00013313E+03   # ~d_L
   2000001     5.00002531E+03   # ~d_R
   1000002     4.99989218E+03   # ~u_L
   2000002     4.99994938E+03   # ~u_R
   1000003     5.00013313E+03   # ~s_L
   2000003     5.00002531E+03   # ~s_R
   1000004     4.99989218E+03   # ~c_L
   2000004     4.99994938E+03   # ~c_R
   1000005     4.99996554E+03   # ~b_1
   2000005     5.00019434E+03   # ~b_2
   1000006     4.99969974E+03   # ~t_1
   2000006     5.00476948E+03   # ~t_2
   1000011     5.00008251E+03   # ~e_L
   2000011     5.00007593E+03   # ~e_R
   1000012     4.99984156E+03   # ~nu_eL
   1000013     5.00008251E+03   # ~mu_L
   2000013     5.00007593E+03   # ~mu_R
   1000014     4.99984156E+03   # ~nu_muL
   1000015     5.00001283E+03   # ~tau_1
   2000015     5.00014624E+03   # ~tau_2
   1000016     4.99984156E+03   # ~nu_tauL
   1000021     1.80000000E+03   # ~g
   1000022     2.46381853E+02   # ~chi_10
   1000023    -2.55507259E+02   # ~chi_20
   1000025     2.71074131E+02   # ~chi_30
   1000035     3.00194031E+03   # ~chi_40
   1000024     2.51764762E+02   # ~chi_1+
   1000037     3.00193999E+03   # ~chi_2+
   1000039     1.00000000E-09   # ~gravitino
#
BLOCK NMIX  # Neutralino Mixing Matrix
  1  1     3.76769756E-01   # N_11
  1  2    -4.26728255E-03   # N_12
  1  3    -6.78411850E-01   # N_13
  1  4    -6.30700962E-01   # N_14
  2  1     8.36007273E-02   # N_21
  2  2    -2.37603580E-02   # N_22
  2  3     7.02894549E-01   # N_23
  2  4    -7.05964316E-01   # N_24
  3  1     9.22526591E-01   # N_31
  3  2     4.32695337E-03   # N_32
  3  3     2.13378886E-01   # N_33
  3  4     3.21551578E-01   # N_34
  4  1     3.97682948E-04   # N_41
  4  2    -9.99699211E-01   # N_42
  4  3    -1.28866467E-02   # N_43
  4  4     2.08629581E-02   # N_44
#
BLOCK UMIX  # Chargino Mixing Matrix U
  1  1    -1.82172513E-02   # U_11
  1  2     9.99834052E-01   # U_12
  2  1     9.99834052E-01   # U_21
  2  2     1.82172513E-02   # U_22
#
BLOCK VMIX  # Chargino Mixing Matrix V
  1  1     2.95025401E-02   # V_11
  1  2    -9.99564705E-01   # V_12
  2  1     9.99564705E-01   # V_21
  2  2     2.95025401E-02   # V_22
#
BLOCK STOPMIX  # Stop Mixing Matrix
  1  1     7.11082891E-01   # cos(theta_t)
  1  2    -7.03108187E-01   # sin(theta_t)
  2  1     7.03108187E-01   # -sin(theta_t)
  2  2     7.11082891E-01   # cos(theta_t)
#
BLOCK SBOTMIX  # Sbottom Mixing Matrix
  1  1    -5.14192123E-01   # cos(theta_b)
  1  2     8.57675032E-01   # sin(theta_b)
  2  1    -8.57675032E-01   # -sin(theta_b)
  2  2    -5.14192123E-01   # cos(theta_b)
#
BLOCK STAUMIX  # Stau Mixing Matrix
  1  1    -6.89440612E-01   # cos(theta_tau)
  1  2     7.24342214E-01   # sin(theta_tau)
  2  1    -7.24342214E-01   # -sin(theta_tau)
  2  2    -6.89440612E-01   # cos(theta_tau)
#
BLOCK ALPHA  # Higgs mixing
          -5.90207347E-01   # Mixing angle in the neutral Higgs boson sector
#
BLOCK HMIX Q=  9.11876000E+01  # DRbar Higgs Parameters
         1    -2.50000000E+02   # mu(Q)               
         2     1.49999979E+00   # tanbeta(Q)          
         3     2.51690581E+02   # vev(Q)              
         4     4.03413002E+06   # MA^2(Q)             
#
BLOCK GAUGE Q=  9.11876000E+01  # The gauge couplings
     1     3.53058681E-01   # gprime(Q) DRbar
     2     6.28940608E-01   # g(Q) DRbar
     3     1.08213350E+00   # g3(Q) DRbar
#
BLOCK AU Q=  9.11876000E+01  # The trilinear couplings
  1  1     0.00000000E+00   # A_u(Q) DRbar
  2  2     0.00000000E+00   # A_c(Q) DRbar
  3  3     0.00000000E+00   # A_t(Q) DRbar
#
BLOCK AD Q=  9.11876000E+01  # The trilinear couplings
  1  1     0.00000000E+00   # A_d(Q) DRbar
  2  2     0.00000000E+00   # A_s(Q) DRbar
  3  3     0.00000000E+00   # A_b(Q) DRbar
#
BLOCK AE Q=  9.11876000E+01  # The trilinear couplings
  1  1     0.00000000E+00   # A_e(Q) DRbar
  2  2     0.00000000E+00   # A_mu(Q) DRbar
  3  3     0.00000000E+00   # A_tau(Q) DRbar
#
BLOCK Yu Q=  9.11876000E+01  # The Yukawa couplings
  1  1     0.00000000E+00   # y_u(Q) DRbar
  2  2     0.00000000E+00   # y_c(Q) DRbar
  3  3     1.02747534E+00   # y_t(Q) DRbar
#
BLOCK Yd Q=  9.11876000E+01  # The Yukawa couplings
  1  1     0.00000000E+00   # y_d(Q) DRbar
  2  2     0.00000000E+00   # y_s(Q) DRbar
  3  3     2.72573098E-02   # y_b(Q) DRbar
#
BLOCK Ye Q=  9.11876000E+01  # The Yukawa couplings
  1  1     0.00000000E+00   # y_e(Q) DRbar
  2  2     0.00000000E+00   # y_mu(Q) DRbar
  3  3     1.79968546E-02   # y_tau(Q) DRbar
#
BLOCK MSOFT Q=  9.11876000E+01  # The soft SUSY breaking masses at the scale Q
         1     2.63889039E+02   # M_1                 
         2     3.00000000E+03   # M_2                 
         3     1.80000000E+03   # M_3                 
        14     0.00000000E+00   # A_u                 
        15     0.00000000E+00   # A_d                 
        16     0.00000000E+00   # A_e                 
        21     2.99510162E+06   # M^2_Hd              
        22    -5.50615428E+06   # M^2_Hu              
        31     5.00000000E+03   # M_eL                
        32     5.00000000E+03   # M_muL               
        33     5.00000000E+03   # M_tauL              
        34     5.00000000E+03   # M_eR                
        35     5.00000000E+03   # M_muR               
        36     5.00000000E+03   # M_tauR              
        41     5.00000000E+03   # M_q1L               
        42     5.00000000E+03   # M_q2L               
        43     5.00000000E+03   # M_q3L               
        44     5.00000000E+03   # M_uR                
        45     5.00000000E+03   # M_cR                
        46     5.00000000E+03   # M_tR                
        47     5.00000000E+03   # M_dR                
        48     5.00000000E+03   # M_sR                
        49     5.00000000E+03   # M_bR                
#
#
#
#                             =================
#                             |The decay table|
#                             =================
#
# - The QCD corrections to the decays gluino -> squark  + quark
#                                     squark -> gaugino + quark_prime
#                                     squark -> squark_prime + Higgs
#                                     squark -> gluino  + quark
#   are included.
#
# - The multi-body decays for the inos, stops and sbottoms are included.
#
# - The loop induced decays for the gluino, neutralinos and stops
#   are included.
#
# - The SUSY decays of the top quark are included.
#
# - Possible decays of the NLSP in GMSB models are included.
#
#
#         PDG            Width
DECAY         6     1.37836312E+00   # top decays
#          BR         NDA      ID1       ID2
     1.00000000E+00    2           5        24   # BR(t ->  b    W+)
#
#         PDG            Width
DECAY   1000021     2.25806064E-03   # gluino decays
#          BR         NDA      ID1       ID2
     7.87224746E-03    2     1000022        21   # BR(~g -> ~chi_10 g)
     9.75143170E-03    2     1000023        21   # BR(~g -> ~chi_20 g)
     2.01133950E-03    2     1000025        21   # BR(~g -> ~chi_30 g)
#          BR         NDA      ID1       ID2
     0.00000000E+00    2     1000039        21   # BR(~g -> ~G      g)
#           BR         NDA      ID1       ID2       ID3
     9.80554021E-04    3     1000022         1        -1   # BR(~g -> ~chi_10 d  db)
     6.15794305E-05    3     1000023         1        -1   # BR(~g -> ~chi_20 d  db)
     5.59441606E-03    3     1000025         1        -1   # BR(~g -> ~chi_30 d  db)
     3.23056516E-03    3     1000022         2        -2   # BR(~g -> ~chi_10 u  ub)
     9.68575014E-05    3     1000023         2        -2   # BR(~g -> ~chi_20 u  ub)
     1.92702161E-02    3     1000025         2        -2   # BR(~g -> ~chi_30 u  ub)
     9.80554021E-04    3     1000022         3        -3   # BR(~g -> ~chi_10 s  sb)
     6.15794305E-05    3     1000023         3        -3   # BR(~g -> ~chi_20 s  sb)
     5.59441606E-03    3     1000025         3        -3   # BR(~g -> ~chi_30 s  sb)
     3.23056516E-03    3     1000022         4        -4   # BR(~g -> ~chi_10 c  cb)
     9.68575014E-05    3     1000023         4        -4   # BR(~g -> ~chi_20 c  cb)
     1.92702161E-02    3     1000025         4        -4   # BR(~g -> ~chi_30 c  cb)
     1.15532120E-03    3     1000022         5        -5   # BR(~g -> ~chi_10 b  bb)
     2.32923656E-04    3     1000023         5        -5   # BR(~g -> ~chi_20 b  bb)
     5.60150986E-03    3     1000025         5        -5   # BR(~g -> ~chi_30 b  bb)
     1.66446842E-01    3     1000022         6        -6   # BR(~g -> ~chi_10 t  tb)
     2.04842304E-01    3     1000023         6        -6   # BR(~g -> ~chi_20 t  tb)
     7.20640850E-02    3     1000025         6        -6   # BR(~g -> ~chi_30 t  tb)
     3.03489812E-05    3     1000024         1        -2   # BR(~g -> ~chi_1+ d  ub)
     3.03489812E-05    3    -1000024         2        -1   # BR(~g -> ~chi_1- u  db)
     3.03489812E-05    3     1000024         3        -4   # BR(~g -> ~chi_1+ s  cb)
     3.03489812E-05    3    -1000024         4        -3   # BR(~g -> ~chi_1- c  sb)
     2.30899037E-01    3     1000024         5        -6   # BR(~g -> ~chi_1+ b  tb)
     2.30899037E-01    3    -1000024         6        -5   # BR(~g -> ~chi_1- t  bb)
#
#         PDG            Width
DECAY   1000006     3.19367661E+02   # stop1 decays
#          BR         NDA      ID1       ID2
     7.66346876E-02    2     1000022         6   # BR(~t_1 -> ~chi_10 t )
     1.06528235E-01    2     1000023         6   # BR(~t_1 -> ~chi_20 t )
     5.79694535E-02    2     1000025         6   # BR(~t_1 -> ~chi_30 t )
     1.30128628E-02    2     1000035         6   # BR(~t_1 -> ~chi_40 t )
     1.11664115E-01    2     1000024         5   # BR(~t_1 -> ~chi_1+ b )
     2.59751622E-02    2     1000037         5   # BR(~t_1 -> ~chi_2+ b )
     6.08215483E-01    2     1000021         6   # BR(~t_1 -> ~g      t )
#
#         PDG            Width
DECAY   2000006     3.29058103E+02   # stop2 decays
#          BR         NDA      ID1       ID2
     1.05213790E-01    2     1000022         6   # BR(~t_2 -> ~chi_10 t )
     1.15843746E-01    2     1000023         6   # BR(~t_2 -> ~chi_20 t )
     1.82842342E-02    2     1000025         6   # BR(~t_2 -> ~chi_30 t )
     1.11670649E-02    2     1000035         6   # BR(~t_2 -> ~chi_40 t )
     1.11676731E-01    2     1000024         5   # BR(~t_2 -> ~chi_1+ b )
     2.22781814E-02    2     1000037         5   # BR(~t_2 -> ~chi_2+ b )
     6.15536252E-01    2     1000021         6   # BR(~t_2 -> ~g      t )
#
#         PDG            Width
DECAY   1000005     2.66952731E+02   # sbottom1 decays
#          BR         NDA      ID1       ID2
     1.59526122E-03    2     1000022         5   # BR(~b_1 -> ~chi_10 b )
    -5.29665235E-05    2     1000023         5   # BR(~b_1 -> ~chi_20 b )
     4.03440217E-03    2     1000025         5   # BR(~b_1 -> ~chi_30 b )
     1.75581372E-02    2     1000035         5   # BR(~b_1 -> ~chi_40 b )
     1.98509810E-01    2    -1000024         6   # BR(~b_1 -> ~chi_1- t )
     3.52057096E-02    2    -1000037         6   # BR(~b_1 -> ~chi_2- t )
     7.43149647E-01    2     1000021         5   # BR(~b_1 -> ~g      b )
#
#         PDG            Width
DECAY   2000005     2.29196574E+02   # sbottom2 decays
#          BR         NDA      ID1       ID2
     4.44961447E-04    2     1000022         5   # BR(~b_2 -> ~chi_10 b )
     4.89444104E-04    2     1000023         5   # BR(~b_2 -> ~chi_20 b )
     7.46240518E-03    2     1000025         5   # BR(~b_2 -> ~chi_30 b )
     1.35569590E-02    2     1000035         5   # BR(~b_2 -> ~chi_40 b )
     8.41243976E-02    2    -1000024         6   # BR(~b_2 -> ~chi_1- t )
     2.71604701E-02    2    -1000037         6   # BR(~b_2 -> ~chi_2- t )
     8.66761363E-01    2     1000021         5   # BR(~b_2 -> ~g      b )
#
#         PDG            Width
DECAY   1000002     2.22590849E+02   # sup_L decays
#          BR         NDA      ID1       ID2
     3.72117518E-04    2     1000022         2   # BR(~u_L -> ~chi_10 u)
     5.58706714E-06    2     1000023         2   # BR(~u_L -> ~chi_20 u)
     2.65338247E-03    2     1000025         2   # BR(~u_L -> ~chi_30 u)
     3.50025586E-02    2     1000035         2   # BR(~u_L -> ~chi_40 u)
     1.47634943E-04    2     1000024         1   # BR(~u_L -> ~chi_1+ d)
     6.99967175E-02    2     1000037         1   # BR(~u_L -> ~chi_2+ d)
     8.91822002E-01    2     1000021         2   # BR(~u_L -> ~g      u)
#
#         PDG            Width
DECAY   2000002     2.09084006E+02   # sup_R decays
#          BR         NDA      ID1       ID2
     7.18165216E-03    2     1000022         2   # BR(~u_R -> ~chi_10 u)
     3.53460863E-04    2     1000023         2   # BR(~u_R -> ~chi_20 u)
     4.30137827E-02    2     1000025         2   # BR(~u_R -> ~chi_30 u)
     3.30410816E-09    2     1000035         2   # BR(~u_R -> ~chi_40 u)
     9.49451101E-01    2     1000021         2   # BR(~u_R -> ~g      u)
#
#         PDG            Width
DECAY   1000001     2.22594607E+02   # sdown_L decays
#          BR         NDA      ID1       ID2
     4.74210820E-04    2     1000022         1   # BR(~d_L -> ~chi_10 d)
     1.31662755E-04    2     1000023         1   # BR(~d_L -> ~chi_20 d)
     2.40027195E-03    2     1000025         1   # BR(~d_L -> ~chi_30 d)
     3.50178534E-02    2     1000035         1   # BR(~d_L -> ~chi_40 d)
     5.62924379E-05    2    -1000024         2   # BR(~d_L -> ~chi_1- u)
     7.00441899E-02    2    -1000037         2   # BR(~d_L -> ~chi_2- u)
     8.91875519E-01    2     1000021         1   # BR(~d_L -> ~g      d)
#
#         PDG            Width
DECAY   2000001     2.01162133E+02   # sdown_R decays
#          BR         NDA      ID1       ID2
     1.86614627E-03    2     1000022         1   # BR(~d_R -> ~chi_10 d)
     9.18465089E-05    2     1000023         1   # BR(~d_R -> ~chi_20 d)
     1.11770956E-02    2     1000025         1   # BR(~d_R -> ~chi_30 d)
     8.58598642E-10    2     1000035         1   # BR(~d_R -> ~chi_40 d)
     9.86864911E-01    2     1000021         1   # BR(~d_R -> ~g      d)
#
#         PDG            Width
DECAY   1000004     2.22590849E+02   # scharm_L decays
#          BR         NDA      ID1       ID2
     3.72117518E-04    2     1000022         4   # BR(~c_L -> ~chi_10 c)
     5.58706714E-06    2     1000023         4   # BR(~c_L -> ~chi_20 c)
     2.65338247E-03    2     1000025         4   # BR(~c_L -> ~chi_30 c)
     3.50025586E-02    2     1000035         4   # BR(~c_L -> ~chi_40 c)
     1.47634943E-04    2     1000024         3   # BR(~c_L -> ~chi_1+ s)
     6.99967175E-02    2     1000037         3   # BR(~c_L -> ~chi_2+ s)
     8.91822002E-01    2     1000021         4   # BR(~c_L -> ~g      c)
#
#         PDG            Width
DECAY   2000004     2.09084006E+02   # scharm_R decays
#          BR         NDA      ID1       ID2
     7.18165216E-03    2     1000022         4   # BR(~c_R -> ~chi_10 c)
     3.53460863E-04    2     1000023         4   # BR(~c_R -> ~chi_20 c)
     4.30137827E-02    2     1000025         4   # BR(~c_R -> ~chi_30 c)
     3.30410816E-09    2     1000035         4   # BR(~c_R -> ~chi_40 c)
     9.49451101E-01    2     1000021         4   # BR(~c_R -> ~g      c)
#
#         PDG            Width
DECAY   1000003     2.22594607E+02   # sstrange_L decays
#          BR         NDA      ID1       ID2
     4.74210820E-04    2     1000022         3   # BR(~s_L -> ~chi_10 s)
     1.31662755E-04    2     1000023         3   # BR(~s_L -> ~chi_20 s)
     2.40027195E-03    2     1000025         3   # BR(~s_L -> ~chi_30 s)
     3.50178534E-02    2     1000035         3   # BR(~s_L -> ~chi_40 s)
     5.62924379E-05    2    -1000024         4   # BR(~s_L -> ~chi_1- c)
     7.00441899E-02    2    -1000037         4   # BR(~s_L -> ~chi_2- c)
     8.91875519E-01    2     1000021         3   # BR(~s_L -> ~g      s)
#
#         PDG            Width
DECAY   2000003     2.01162133E+02   # sstrange_R decays
#          BR         NDA      ID1       ID2
     1.86614627E-03    2     1000022         3   # BR(~s_R -> ~chi_10 s)
     9.18465089E-05    2     1000023         3   # BR(~s_R -> ~chi_20 s)
     1.11770956E-02    2     1000025         3   # BR(~s_R -> ~chi_30 s)
     8.58598642E-10    2     1000035         3   # BR(~s_R -> ~chi_40 s)
     9.86864911E-01    2     1000021         3   # BR(~s_R -> ~g      s)
#
#         PDG            Width
DECAY   1000011     3.03252490E+01   # selectron_L decays
#          BR         NDA      ID1       ID2
     2.77270237E-02    2     1000022        11   # BR(~e_L -> ~chi_10 e-)
     3.46454852E-04    2     1000023        11   # BR(~e_L -> ~chi_20 e-)
     1.75871345E-01    2     1000025        11   # BR(~e_L -> ~chi_30 e-)
     2.65082221E-01    2     1000035        11   # BR(~e_L -> ~chi_40 e-)
     4.28433034E-04    2    -1000024        12   # BR(~e_L -> ~chi_1- nu_e)
     5.30544522E-01    2    -1000037        12   # BR(~e_L -> ~chi_2- nu_e)
#
#         PDG            Width
DECAY   2000011     2.46569309E+01   # selectron_R decays
#          BR         NDA      ID1       ID2
     1.42079691E-01    2     1000022        11   # BR(~e_R -> ~chi_10 e-)
     6.99262965E-03    2     1000023        11   # BR(~e_R -> ~chi_20 e-)
     8.50927614E-01    2     1000025        11   # BR(~e_R -> ~chi_30 e-)
     6.50590672E-08    2     1000035        11   # BR(~e_R -> ~chi_40 e-)
#
#         PDG            Width
DECAY   1000013     3.03252490E+01   # smuon_L decays
#          BR         NDA      ID1       ID2
     2.77270237E-02    2     1000022        13   # BR(~mu_L -> ~chi_10 mu-)
     3.46454852E-04    2     1000023        13   # BR(~mu_L -> ~chi_20 mu-)
     1.75871345E-01    2     1000025        13   # BR(~mu_L -> ~chi_30 mu-)
     2.65082221E-01    2     1000035        13   # BR(~mu_L -> ~chi_40 mu-)
     4.28433034E-04    2    -1000024        14   # BR(~mu_L -> ~chi_1- nu_mu)
     5.30544522E-01    2    -1000037        14   # BR(~mu_L -> ~chi_2- nu_mu)
#
#         PDG            Width
DECAY   2000013     2.46569309E+01   # smuon_R decays
#          BR         NDA      ID1       ID2
     1.42079691E-01    2     1000022        13   # BR(~mu_R -> ~chi_10 mu-)
     6.99262965E-03    2     1000023        13   # BR(~mu_R -> ~chi_20 mu-)
     8.50927614E-01    2     1000025        13   # BR(~mu_R -> ~chi_30 mu-)
     6.50590672E-08    2     1000035        13   # BR(~mu_R -> ~chi_40 mu-)
#
#         PDG            Width
DECAY   1000015     2.73846101E+01   # stau_1 decays
#          BR         NDA      ID1       ID2
     8.64803245E-02    2     1000022        15   # BR(~tau_1 -> ~chi_10  tau-)
     2.62876106E-03    2     1000023        15   # BR(~tau_1 -> ~chi_20  tau-)
     4.91429557E-01    2     1000025        15   # BR(~tau_1 -> ~chi_30  tau-)
     1.39678377E-01    2     1000035        15   # BR(~tau_1 -> ~chi_40  tau-)
     9.52730095E-05    2    -1000024        16   # BR(~tau_1 -> ~chi_1-  nu_tau)
     2.79556325E-01    2    -1000037        16   # BR(~tau_1 -> ~chi_2-  nu_tau)
     1.31381870E-04    2     1000039        15   # BR(~tau_1 -> ~G       tau-)
#
#         PDG            Width
DECAY   2000015     2.76973229E+01   # stau_2 decays
#          BR         NDA      ID1       ID2
     7.24028354E-02    2     1000022        15   # BR(~tau_2 -> ~chi_10  tau-)
     5.14882901E-03    2     1000023        15   # BR(~tau_2 -> ~chi_20  tau-)
     4.64301411E-01    2     1000025        15   # BR(~tau_2 -> ~chi_30  tau-)
     1.52132190E-01    2     1000035        15   # BR(~tau_2 -> ~chi_40  tau-)
     1.53185130E-03    2    -1000024        16   # BR(~tau_2 -> ~chi_1-  nu_tau)
     3.04482884E-01    2    -1000037        16   # BR(~tau_2 -> ~chi_2-  nu_tau)
#
#         PDG            Width
DECAY   1000012     3.03234323E+01   # snu_eL decays
#          BR         NDA      ID1       ID2
     3.00581635E-02    2     1000022        12   # BR(~nu_eL -> ~chi_10 nu_e)
     3.22509163E-03    2     1000023        12   # BR(~nu_eL -> ~chi_20 nu_e)
     1.70092362E-01    2     1000025        12   # BR(~nu_eL -> ~chi_30 nu_e)
     2.65293391E-01    2     1000035        12   # BR(~nu_eL -> ~chi_40 nu_e)
     1.12367559E-03    2     1000024        11   # BR(~nu_eL -> ~chi_1+ e-)
     5.30207316E-01    2     1000037        11   # BR(~nu_eL -> ~chi_2+ e-)
#
#         PDG            Width
DECAY   1000014     3.03234323E+01   # snu_muL decays
#          BR         NDA      ID1       ID2
     3.00581635E-02    2     1000022        14   # BR(~nu_muL -> ~chi_10 nu_mu)
     3.22509163E-03    2     1000023        14   # BR(~nu_muL -> ~chi_20 nu_mu)
     1.70092362E-01    2     1000025        14   # BR(~nu_muL -> ~chi_30 nu_mu)
     2.65293391E-01    2     1000035        14   # BR(~nu_muL -> ~chi_40 nu_mu)
     1.12367559E-03    2     1000024        13   # BR(~nu_muL -> ~chi_1+ mu-)
     5.30207316E-01    2     1000037        13   # BR(~nu_muL -> ~chi_2+ mu-)
#
#         PDG            Width
DECAY   1000016     3.03554831E+01   # snu_tauL decays
#          BR         NDA      ID1       ID2
     3.00264267E-02    2     1000022        16   # BR(~nu_tauL -> ~chi_10 nu_tau)
     3.22168642E-03    2     1000023        16   # BR(~nu_tauL -> ~chi_20 nu_tau)
     1.69912770E-01    2     1000025        16   # BR(~nu_tauL -> ~chi_30 nu_tau)
     2.65013282E-01    2     1000035        16   # BR(~nu_tauL -> ~chi_40 nu_tau)
     2.17815153E-03    2     1000024        15   # BR(~nu_tauL -> ~chi_1+ tau-)
     5.29647684E-01    2     1000037        15   # BR(~nu_tauL -> ~chi_2+ tau-)
#
#         PDG            Width
DECAY   1000024     4.03522744E-09   # chargino1+ decays
#          BR         NDA      ID1       ID2
     9.52137531E-02    2     1000039        24   # BR(~chi_1+ -> ~G       W+)
#           BR         NDA      ID1       ID2       ID3
     3.50449326E-01    3     1000022         2        -1   # BR(~chi_1+ -> ~chi_10 u    db)
     2.51537507E-01    3     1000022         4        -3   # BR(~chi_1+ -> ~chi_10 c    sb)
     1.16816870E-01    3     1000022       -11        12   # BR(~chi_1+ -> ~chi_10 e+   nu_e)
     1.16592402E-01    3     1000022       -13        14   # BR(~chi_1+ -> ~chi_10 mu+  nu_mu)
     6.93901419E-02    3     1000022       -15        16   # BR(~chi_1+ -> ~chi_10 tau+ nu_tau)
#
#         PDG            Width
DECAY   1000037     2.86633602E+01   # chargino2+ decays
#          BR         NDA      ID1       ID2
     1.72785008E-01    2     1000024        23   # BR(~chi_2+ -> ~chi_1+  Z )
     1.39301690E-01    2     1000022        24   # BR(~chi_2+ -> ~chi_10  W+)
     1.66739464E-01    2     1000023        24   # BR(~chi_2+ -> ~chi_20  W+)
     3.11416684E-02    2     1000025        24   # BR(~chi_2+ -> ~chi_30  W+)
     1.73259535E-01    2     1000024        25   # BR(~chi_2+ -> ~chi_1+  h )
     7.90606363E-02    2     1000024        35   # BR(~chi_2+ -> ~chi_1+  H )
     7.93550820E-02    2     1000024        36   # BR(~chi_2+ -> ~chi_1+  A )
     6.92865501E-02    2     1000022        37   # BR(~chi_2+ -> ~chi_10  H+)
     7.86708759E-02    2     1000023        37   # BR(~chi_2+ -> ~chi_20  H+)
     1.03897279E-02    2     1000025        37   # BR(~chi_2+ -> ~chi_30  H+)
     9.76222895E-06    2     1000039        24   # BR(~chi_2+ -> ~G       W+)
     2.31576399E-10    2     1000039        37   # BR(~chi_2+ -> ~G       H+)
#
#         PDG            Width
DECAY   1000022     1.0E-05   # neutralino1 decays
#          BR         NDA      ID1       ID2
     4.16437487E-01    2     1000039        22   # BR(~chi_10 -> ~G        gam)
     1.00624743E-01    2     1000039        23   # BR(~chi_10 -> ~G        Z)
     4.82937769E-01    2     1000039        25   # BR(~chi_10 -> ~G        h)
#
#         PDG            Width
DECAY   1000023     1.0E-05   # neutralino2 decays
#          BR         NDA      ID1       ID2
     2.13382137E-02    2     1000022        22   # BR(~chi_20 -> ~chi_10 gam)
#          BR         NDA      ID1       ID2
     1.10311202E-04    2     1000039        22   # BR(~chi_20 -> ~G        gam)
     8.20203305E-03    2     1000039        23   # BR(~chi_20 -> ~G        Z)
     1.87711308E-04    2     1000039        25   # BR(~chi_20 -> ~G        h)
#           BR         NDA      ID1       ID2       ID3
     1.33974994E-01    3     1000022        -2         2   # BR(~chi_20 -> ~chi_10 ub      u)
     1.73414069E-01    3     1000022        -1         1   # BR(~chi_20 -> ~chi_10 db      d)
     1.14053309E-01    3     1000022        -4         4   # BR(~chi_20 -> ~chi_10 cb      c)
     1.72798363E-01    3     1000022        -3         3   # BR(~chi_20 -> ~chi_10 sb      s)
     3.95756553E-02    3     1000022       -11        11   # BR(~chi_20 -> ~chi_10 e+      e-)
     3.95484874E-02    3     1000022       -13        13   # BR(~chi_20 -> ~chi_10 mu+     mu-)
     3.11351664E-02    3     1000022       -15        15   # BR(~chi_20 -> ~chi_10 tau+    tau-)
     7.90174224E-02    3     1000022       -12        12   # BR(~chi_20 -> ~chi_10 nu_eb   nu_e)
     7.90174224E-02    3     1000022       -14        14   # BR(~chi_20 -> ~chi_10 nu_mub  nu_mu)
     7.90174224E-02    3     1000022       -16        16   # BR(~chi_20 -> ~chi_10 nu_taub nu_tau)
     6.28048248E-03    3     1000024        -2         1   # BR(~chi_20 -> ~chi_1+ ub      d)
     6.28048248E-03    3    -1000024        -1         2   # BR(~chi_20 -> ~chi_1- db      u)
     3.14881059E-03    3     1000024        -4         3   # BR(~chi_20 -> ~chi_1+ cb      s)
     3.14881059E-03    3    -1000024        -3         4   # BR(~chi_20 -> ~chi_1- sb      c)
     2.09349456E-03    3     1000024       -12        11   # BR(~chi_20 -> ~chi_1+ nu_eb   e-)
     2.09349456E-03    3    -1000024        12       -11   # BR(~chi_20 -> ~chi_1- nu_e    e+)
     2.08519170E-03    3     1000024       -14        13   # BR(~chi_20 -> ~chi_1+ nu_mub  mu-)
     2.08519170E-03    3    -1000024        14       -13   # BR(~chi_20 -> ~chi_1- nu_mu   mu+)
     6.96730471E-04    3     1000024       -16        15   # BR(~chi_20 -> ~chi_1+ nu_taub tau-)
     6.96730471E-04    3    -1000024        16       -15   # BR(~chi_20 -> ~chi_1- nu_tau  tau+)
#
#         PDG            Width
DECAY   1000025     1.0E-05   # neutralino3 decays
#          BR         NDA      ID1       ID2
     6.98379727E-01    2     1000022        22   # BR(~chi_30 -> ~chi_10 gam)
     2.22189739E-02    2     1000023        22   # BR(~chi_30 -> ~chi_20 gam)
#          BR         NDA      ID1       ID2
     2.85745543E-04    2     1000039        22   # BR(~chi_30 -> ~G        gam)
     5.75069908E-05    2     1000039        23   # BR(~chi_30 -> ~G        Z)
     1.25698358E-05    2     1000039        25   # BR(~chi_30 -> ~G        h)
#           BR         NDA      ID1       ID2       ID3
     2.51299619E-03    3     1000022        -2         2   # BR(~chi_30 -> ~chi_10 ub      u)
     3.25687902E-03    3     1000022        -1         1   # BR(~chi_30 -> ~chi_10 db      d)
     2.40602499E-03    3     1000022        -4         4   # BR(~chi_30 -> ~chi_10 cb      c)
     3.25464333E-03    3     1000022        -3         3   # BR(~chi_30 -> ~chi_10 sb      s)
     2.05638811E-03    3     1000022        -5         5   # BR(~chi_30 -> ~chi_10 bb      b)
     7.46461199E-04    3     1000022       -11        11   # BR(~chi_30 -> ~chi_10 e+      e-)
     7.46258878E-04    3     1000022       -13        13   # BR(~chi_30 -> ~chi_10 mu+     mu-)
     6.91916690E-04    3     1000022       -15        15   # BR(~chi_30 -> ~chi_10 tau+    tau-)
     1.48230678E-03    3     1000022       -12        12   # BR(~chi_30 -> ~chi_10 nu_eb   nu_e)
     1.48230678E-03    3     1000022       -14        14   # BR(~chi_30 -> ~chi_10 nu_mub  nu_mu)
     1.48230678E-03    3     1000022       -16        16   # BR(~chi_30 -> ~chi_10 nu_taub nu_tau)
     3.51909275E-03    3     1000023        -2         2   # BR(~chi_30 -> ~chi_20 ub      u)
     4.55526326E-03    3     1000023        -1         1   # BR(~chi_30 -> ~chi_20 db      d)
     3.33623565E-03    3     1000023        -4         4   # BR(~chi_30 -> ~chi_20 cb      c)
     4.54965656E-03    3     1000023        -3         3   # BR(~chi_30 -> ~chi_20 sb      s)
     1.66177918E-03    3     1000023        -5         5   # BR(~chi_30 -> ~chi_20 bb      b)
     1.03973309E-03    3     1000023       -11        11   # BR(~chi_30 -> ~chi_20 e+      e-)
     1.03947929E-03    3     1000023       -13        13   # BR(~chi_30 -> ~chi_20 mu+     mu-)
     9.64754001E-04    3     1000023       -15        15   # BR(~chi_30 -> ~chi_20 tau+    tau-)
     2.07548944E-03    3     1000023       -12        12   # BR(~chi_30 -> ~chi_20 nu_eb   nu_e)
     2.07548944E-03    3     1000023       -14        14   # BR(~chi_30 -> ~chi_20 nu_mub  nu_mu)
     2.07548944E-03    3     1000023       -16        16   # BR(~chi_30 -> ~chi_20 nu_taub nu_tau)
     3.91925110E-02    3     1000024        -2         1   # BR(~chi_30 -> ~chi_1+ ub      d)
     3.91925110E-02    3    -1000024        -1         2   # BR(~chi_30 -> ~chi_1- db      u)
     3.81681591E-02    3     1000024        -4         3   # BR(~chi_30 -> ~chi_1+ cb      s)
     3.81681591E-02    3    -1000024        -3         4   # BR(~chi_30 -> ~chi_1- sb      c)
     1.30638741E-02    3     1000024       -12        11   # BR(~chi_30 -> ~chi_1+ nu_eb   e-)
     1.30638741E-02    3    -1000024        12       -11   # BR(~chi_30 -> ~chi_1- nu_e    e+)
     1.30619213E-02    3     1000024       -14        13   # BR(~chi_30 -> ~chi_1+ nu_mub  mu-)
     1.30619213E-02    3    -1000024        14       -13   # BR(~chi_30 -> ~chi_1- nu_mu   mu+)
     1.25307974E-02    3     1000024       -16        15   # BR(~chi_30 -> ~chi_1+ nu_taub tau-)
     1.25307974E-02    3    -1000024        16       -15   # BR(~chi_30 -> ~chi_1- nu_tau  tau+)
#
#         PDG            Width
DECAY   1000035     2.86637172E+01   # neutralino4 decays
#          BR         NDA      ID1       ID2
     1.38091885E-01    2     1000022        23   # BR(~chi_40 -> ~chi_10   Z )
     9.23478558E-03    2     1000023        23   # BR(~chi_40 -> ~chi_20   Z )
     2.56467348E-02    2     1000025        23   # BR(~chi_40 -> ~chi_30   Z )
     1.68394950E-01    2     1000024       -24   # BR(~chi_40 -> ~chi_1+   W-)
     1.68394950E-01    2    -1000024        24   # BR(~chi_40 -> ~chi_1-   W+)
     4.75827831E-03    2     1000022        25   # BR(~chi_40 -> ~chi_10   h )
     6.70186054E-02    2     1000022        35   # BR(~chi_40 -> ~chi_10   H )
     2.12943236E-03    2     1000022        36   # BR(~chi_40 -> ~chi_10   A )
     1.62434745E-01    2     1000023        25   # BR(~chi_40 -> ~chi_20   h )
     1.57617631E-03    2     1000023        35   # BR(~chi_40 -> ~chi_20   H )
     7.71339168E-02    2     1000023        36   # BR(~chi_40 -> ~chi_20   A )
     6.27471281E-03    2     1000025        25   # BR(~chi_40 -> ~chi_30   h )
     1.03740794E-02    2     1000025        35   # BR(~chi_40 -> ~chi_30   H )
     6.36494837E-06    2     1000025        36   # BR(~chi_40 -> ~chi_30   A )
     7.92603103E-02    2     1000024       -37   # BR(~chi_40 -> ~chi_1+   H-)
     7.92603103E-02    2    -1000024        37   # BR(~chi_40 -> ~chi_1-   H+)
     2.34149028E-06    2     1000039        22   # BR(~chi_40 -> ~G        gam)
     7.41985464E-06    2     1000039        23   # BR(~chi_40 -> ~G        Z)
     5.02043830E-10    2     1000039        25   # BR(~chi_40 -> ~G        h)
     2.30172813E-10    2     1000039        35   # BR(~chi_40 -> ~G        H)
     3.38634121E-13    2     1000039        36   # BR(~chi_40 -> ~G        A)
#
#         PDG            Width
DECAY        25     4.08140363E-03   # h decays
#          BR         NDA      ID1       ID2
     6.17273319E-01    2           5        -5   # BR(h -> b       bb     )
     6.38165051E-02    2         -15        15   # BR(h -> tau+    tau-   )
     2.25886925E-04    2         -13        13   # BR(h -> mu+     mu-    )
     4.78674636E-04    2           3        -3   # BR(h -> s       sb     )
     2.06505869E-02    2           4        -4   # BR(h -> c       cb     )
     6.70538212E-02    2          21        21   # BR(h -> g       g      )
     2.28894710E-03    2          22        22   # BR(h -> gam     gam    )
     1.53892069E-03    2          22        23   # BR(h -> Z       gam    )
     2.01029306E-01    2          24       -24   # BR(h -> W+      W-     )
     2.56440327E-02    2          23        23   # BR(h -> Z       Z      )
#
#         PDG            Width
DECAY        35     3.99953707E+01   # H decays
#          BR         NDA      ID1       ID2
     1.39633868E-03    2           5        -5   # BR(H -> b       bb     )
     2.32978158E-04    2         -15        15   # BR(H -> tau+    tau-   )
     8.23664526E-07    2         -13        13   # BR(H -> mu+     mu-    )
     1.05458107E-06    2           3        -3   # BR(H -> s       sb     )
     9.51751867E-06    2           4        -4   # BR(H -> c       cb     )
     9.41718131E-01    2           6        -6   # BR(H -> t       tb     )
     7.54125448E-04    2          21        21   # BR(H -> g       g      )
     2.50587074E-06    2          22        22   # BR(H -> gam     gam    )
     1.09569442E-06    2          23        22   # BR(H -> Z       gam    )
     3.17945533E-04    2          24       -24   # BR(H -> W+      W-     )
     1.58539088E-04    2          23        23   # BR(H -> Z       Z      )
     8.55932048E-04    2          25        25   # BR(H -> h       h      )
     8.37071692E-24    2          36        36   # BR(H -> A       A      )
     3.32570960E-11    2          23        36   # BR(H -> Z       A      )
     3.43777397E-12    2          24       -37   # BR(H -> W+      H-     )
     3.43777397E-12    2         -24        37   # BR(H -> W-      H+     )
     7.99287260E-05    2     1000024  -1000024   # BR(H -> ~chi_1+ ~chi_1-)
     1.35706163E-02    2     1000022   1000022   # BR(H -> ~chi_10 ~chi_10)
     6.54175821E-05    2     1000023   1000023   # BR(H -> ~chi_20 ~chi_20)
     1.13880242E-02    2     1000025   1000025   # BR(H -> ~chi_30 ~chi_30)
     1.12016206E-04    2     1000022   1000023   # BR(H -> ~chi_10 ~chi_20)
     2.65150090E-02    2     1000022   1000025   # BR(H -> ~chi_10 ~chi_30)
     2.82000074E-03    2     1000023   1000025   # BR(H -> ~chi_20 ~chi_30)
#
#         PDG            Width
DECAY        36     4.04341565E+01   # A decays
#          BR         NDA      ID1       ID2
     1.39944339E-03    2           5        -5   # BR(A -> b       bb     )
     2.30651934E-04    2         -15        15   # BR(A -> tau+    tau-   )
     8.15437907E-07    2         -13        13   # BR(A -> mu+     mu-    )
     1.07503716E-06    2           3        -3   # BR(A -> s       sb     )
     9.42075357E-06    2           4        -4   # BR(A -> c       cb     )
     9.42850360E-01    2           6        -6   # BR(A -> t       tb     )
     8.92425778E-04    2          21        21   # BR(A -> g       g      )
     3.10400470E-06    2          22        22   # BR(A -> gam     gam    )
     1.27801106E-06    2          23        22   # BR(A -> Z       gam    )
     3.09940171E-04    2          23        25   # BR(A -> Z       h      )
     4.89181189E-04    2     1000024  -1000024   # BR(A -> ~chi_1+ ~chi_1-)
     7.84923873E-04    2     1000022   1000022   # BR(A -> ~chi_10 ~chi_10)
     1.80303790E-03    2     1000023   1000023   # BR(A -> ~chi_20 ~chi_20)
     6.46903877E-08    2     1000025   1000025   # BR(A -> ~chi_30 ~chi_30)
     6.52871799E-03    2     1000022   1000023   # BR(A -> ~chi_10 ~chi_20)
     2.21522985E-03    2     1000022   1000025   # BR(A -> ~chi_10 ~chi_30)
     4.24803303E-02    2     1000023   1000025   # BR(A -> ~chi_20 ~chi_30)
#
#         PDG            Width
DECAY        37     3.96331177E+01   # H+ decays
#          BR         NDA      ID1       ID2
     2.24652445E-06    2           4        -5   # BR(H+ -> c       bb     )
     2.35542547E-04    2         -15        16   # BR(H+ -> tau+    nu_tau )
     8.32727988E-07    2         -13        14   # BR(H+ -> mu+     nu_mu  )
     1.42833613E-08    2           2        -5   # BR(H+ -> u       bb     )
     5.15694447E-08    2           2        -3   # BR(H+ -> u       sb     )
     1.02754065E-05    2           4        -3   # BR(H+ -> c       sb     )
     9.44472339E-01    2           6        -5   # BR(H+ -> t       bb     )
     3.17579407E-04    2          24        25   # BR(H+ -> W+      h      )
     9.23088522E-13    2          24        36   # BR(H+ -> W+      A      )
     7.26649532E-03    2     1000024   1000022   # BR(H+ -> ~chi_1+ ~chi_10)
     3.76449509E-04    2     1000024   1000023   # BR(H+ -> ~chi_1+ ~chi_20)
     4.73181734E-02    2     1000024   1000025   # BR(H+ -> ~chi_1+ ~chi_30)
