#
#                              ======================
#                              | THE SUSYHIT OUTPUT |
#                              ======================
#
#
#              ------------------------------------------------------
#              |     This is the output of the SUSY-HIT package     |
#              |  created by A.Djouadi, M.Muehlleitner and M.Spira. |
#              |  In case of problems with SUSY-HIT email to        |
#              |           margarete.muehlleitner@kit.edu           |
#              |           michael.spira@psi.ch                     |
#              |           abdelhak.djouadi@cern.ch                 |
#              ------------------------------------------------------
#
#              ------------------------------------------------------
#              |  SUSY Les Houches Accord - MSSM Spectrum + Decays  |
#              |              based on the decay programs           |
#              |                                                    |
#              |                     SDECAY 1.5a                    |
#              |                                                    |
#              |  Authors: M.Muhlleitner, A.Djouadi and Y.Mambrini  |
#              |  Ref.:    Comput.Phys.Commun.168(2005)46           |
#              |           [hep-ph/0311167]                         |
#              |                                                    |
#              |                     HDECAY 3.4                     |
#              |                                                    |
#              |  By: A.Djouadi,J.Kalinowski,M.Muhlleitner,M.Spira  |
#              |  Ref.:    Comput.Phys.Commun.108(1998)56           |
#              |           [hep-ph/9704448]                         |
#              |                                                    |
#              |                                                    |
#              |  If not stated otherwise all DRbar couplings and   |
#              |  soft SUSY breaking masses are given at the scale  |
#              |  Q=  0.91187600E+02
#              |                                                    |
#              ------------------------------------------------------
#
#
BLOCK DCINFO  # Decay Program information
     1   SDECAY/HDECAY # decay calculator
     2   1.5a /3.4    # version number
#
BLOCK SPINFO  # Spectrum calculator information
     1   SuSpect     # RGE +Spectrum calculator            
     2   2.43         # version number                     
#
BLOCK MODSEL  # Model selection
     1     2   # GMSB                                              
#
BLOCK SMINPUTS  # Standard Model inputs
         1     1.27932904E+02   # alpha_em^-1(M_Z)^MSbar
         2     1.16639000E-05   # G_F [GeV^-2]
         3     1.17200000E-01   # alpha_S(M_Z)^MSbar
         4     9.11870000E+01   # M_Z pole mass
         5     4.25000000E+00   # mb(mb)^MSbar
         6     1.72900000E+02   # mt pole mass
         7     1.77700000E+00   # mtau pole mass
#
BLOCK MINPAR  # Input parameters - minimal models
#
BLOCK EXTPAR  # Input parameters - non-minimal models
         0     9.11876000E+01   # EWSB                
         1     4.55832221E+02   # M_1                 
         2     3.00000000E+03   # M_2                 
         3     1.80000000E+03   # M_3                 
        11     0.00000000E+00   # A_t                 
        12     0.00000000E+00   # A_b                 
        13     0.00000000E+00   # A_tau               
        14     0.00000000E+00   # A_u                 
        15     0.00000000E+00   # A_d                 
        16     0.00000000E+00   # A_e                 
        23    -4.50000000E+02   # mu(EWSB)            
        25     1.50000000E+00   # tanbeta(in)         
        26     2.00000000E+03   # MA_pole             
        31     5.00000000E+03   # M_eL                
        32     5.00000000E+03   # M_muL               
        33     5.00000000E+03   # M_tauL              
        34     5.00000000E+03   # M_eR                
        35     5.00000000E+03   # M_muR               
        36     5.00000000E+03   # M_tauR              
        41     5.00000000E+03   # M_q1L               
        42     5.00000000E+03   # M_q2L               
        43     5.00000000E+03   # M_q3L               
        44     5.00000000E+03   # M_uR                
        45     5.00000000E+03   # M_cR                
        46     5.00000000E+03   # M_tR                
        47     5.00000000E+03   # M_dR                
        48     5.00000000E+03   # M_sR                
        49     5.00000000E+03   # M_bR                
#
BLOCK MASS  # Mass Spectrum
# PDG code           mass       particle
        24     8.05387978E+01   # W+
        25     1.25000000E+02   # h
        35     2.00414658E+03   # H
        36     2.00000000E+03   # A
        37     2.00187811E+03   # H+
         5     4.87877839E+00   # b-quark pole mass calculated from mb(mb)_Msbar
   1000001     5.00013292E+03   # ~d_L
   2000001     5.00002530E+03   # ~d_R
   1000002     4.99989238E+03   # ~u_L
   2000002     4.99994939E+03   # ~u_R
   1000003     5.00013292E+03   # ~s_L
   2000003     5.00002530E+03   # ~s_R
   1000004     4.99989238E+03   # ~c_L
   2000004     4.99994939E+03   # ~c_R
   1000005     4.99989036E+03   # ~b_1
   2000005     5.00026931E+03   # ~b_2
   1000006     4.99767072E+03   # ~t_1
   2000006     5.00679622E+03   # ~t_2
   1000011     5.00008231E+03   # ~e_L
   2000011     5.00007591E+03   # ~e_R
   1000012     4.99984177E+03   # ~nu_eL
   1000013     5.00008231E+03   # ~mu_L
   2000013     5.00007591E+03   # ~mu_R
   1000014     4.99984177E+03   # ~nu_muL
   1000015     4.99995947E+03   # ~tau_1
   2000015     5.00019938E+03   # ~tau_2
   1000016     4.99984177E+03   # ~nu_tauL
   1000021     1.80000000E+03   # ~g
   1000022     4.44352105E+02   # ~chi_10
   1000023    -4.53828083E+02   # ~chi_20
   1000025     4.63471396E+02   # ~chi_30
   1000035     3.00183680E+03   # ~chi_40
   1000024     4.51647843E+02   # ~chi_1+
   1000037     3.00183650E+03   # ~chi_2+
   1000039     4.25622875E-09   # ~gravitino
#
BLOCK NMIX  # Neutralino Mixing Matrix
  1  1     5.38337860E-01   # N_11
  1  2    -4.30461978E-03   # N_12
  1  3    -6.14400979E-01   # N_13
  1  4    -5.76788745E-01   # N_14
  2  1     4.78318379E-02   # N_21
  2  2    -2.24248858E-02   # N_22
  2  3     7.05521015E-01   # N_23
  2  4    -7.06717296E-01   # N_24
  3  1     8.41370489E-01   # N_31
  3  2     4.51054107E-03   # N_32
  3  3     3.53011712E-01   # N_33
  3  4     4.09216431E-01   # N_34
  4  1     4.05182605E-04   # N_41
  4  2    -9.99729088E-01   # N_42
  4  3    -1.15873309E-02   # N_43
  4  4     2.01821660E-02   # N_44
#
BLOCK UMIX  # Chargino Mixing Matrix U
  1  1    -1.63796969E-02   # U_11
  1  2     9.99865844E-01   # U_12
  2  1     9.99865844E-01   # U_21
  2  2     1.63796969E-02   # U_22
#
BLOCK VMIX  # Chargino Mixing Matrix V
  1  1     2.85401679E-02   # V_11
  1  2    -9.99592646E-01   # V_12
  2  1     9.99592646E-01   # V_21
  2  2     2.85401679E-02   # V_22
#
BLOCK STOPMIX  # Stop Mixing Matrix
  1  1     7.09311088E-01   # cos(theta_t)
  1  2    -7.04895581E-01   # sin(theta_t)
  2  1     7.04895581E-01   # -sin(theta_t)
  2  2     7.09311088E-01   # cos(theta_t)
#
BLOCK SBOTMIX  # Sbottom Mixing Matrix
  1  1    -5.98338488E-01   # cos(theta_b)
  1  2     8.01243442E-01   # sin(theta_b)
  2  1    -8.01243442E-01   # -sin(theta_b)
  2  2    -5.98338488E-01   # cos(theta_b)
#
BLOCK STAUMIX  # Stau Mixing Matrix
  1  1    -6.97611334E-01   # cos(theta_tau)
  1  2     7.16476396E-01   # sin(theta_tau)
  2  1    -7.16476396E-01   # -sin(theta_tau)
  2  2    -6.97611334E-01   # cos(theta_tau)
#
BLOCK ALPHA  # Higgs mixing
          -5.90204387E-01   # Mixing angle in the neutral Higgs boson sector
#
BLOCK HMIX Q=  9.11876000E+01  # DRbar Higgs Parameters
         1    -4.50000000E+02   # mu(Q)               
         2     1.49999979E+00   # tanbeta(Q)          
         3     2.51741436E+02   # vev(Q)              
         4     4.11307207E+06   # MA^2(Q)             
#
BLOCK GAUGE Q=  9.11876000E+01  # The gauge couplings
     1     3.52956923E-01   # gprime(Q) DRbar
     2     6.28284508E-01   # g(Q) DRbar
     3     1.08213340E+00   # g3(Q) DRbar
#
BLOCK AU Q=  9.11876000E+01  # The trilinear couplings
  1  1     0.00000000E+00   # A_u(Q) DRbar
  2  2     0.00000000E+00   # A_c(Q) DRbar
  3  3     0.00000000E+00   # A_t(Q) DRbar
#
BLOCK AD Q=  9.11876000E+01  # The trilinear couplings
  1  1     0.00000000E+00   # A_d(Q) DRbar
  2  2     0.00000000E+00   # A_s(Q) DRbar
  3  3     0.00000000E+00   # A_b(Q) DRbar
#
BLOCK AE Q=  9.11876000E+01  # The trilinear couplings
  1  1     0.00000000E+00   # A_e(Q) DRbar
  2  2     0.00000000E+00   # A_mu(Q) DRbar
  3  3     0.00000000E+00   # A_tau(Q) DRbar
#
BLOCK Yu Q=  9.11876000E+01  # The Yukawa couplings
  1  1     0.00000000E+00   # y_u(Q) DRbar
  2  2     0.00000000E+00   # y_c(Q) DRbar
  3  3     1.02730979E+00   # y_t(Q) DRbar
#
BLOCK Yd Q=  9.11876000E+01  # The Yukawa couplings
  1  1     0.00000000E+00   # y_d(Q) DRbar
  2  2     0.00000000E+00   # y_s(Q) DRbar
  3  3     2.72586301E-02   # y_b(Q) DRbar
#
BLOCK Ye Q=  9.11876000E+01  # The Yukawa couplings
  1  1     0.00000000E+00   # y_e(Q) DRbar
  2  2     0.00000000E+00   # y_mu(Q) DRbar
  3  3     1.79912428E-02   # y_tau(Q) DRbar
#
BLOCK MSOFT Q=  9.11876000E+01  # The soft SUSY breaking masses at the scale Q
         1     4.55832221E+02   # M_1                 
         2     3.00000000E+03   # M_2                 
         3     1.80000000E+03   # M_3                 
        14     0.00000000E+00   # A_u                 
        15     0.00000000E+00   # A_d                 
        16     0.00000000E+00   # A_e                 
        21     2.83633968E+06   # M^2_Hd              
        22    -5.63571466E+06   # M^2_Hu              
        31     5.00000000E+03   # M_eL                
        32     5.00000000E+03   # M_muL               
        33     5.00000000E+03   # M_tauL              
        34     5.00000000E+03   # M_eR                
        35     5.00000000E+03   # M_muR               
        36     5.00000000E+03   # M_tauR              
        41     5.00000000E+03   # M_q1L               
        42     5.00000000E+03   # M_q2L               
        43     5.00000000E+03   # M_q3L               
        44     5.00000000E+03   # M_uR                
        45     5.00000000E+03   # M_cR                
        46     5.00000000E+03   # M_tR                
        47     5.00000000E+03   # M_dR                
        48     5.00000000E+03   # M_sR                
        49     5.00000000E+03   # M_bR                
#
#
#
#                             =================
#                             |The decay table|
#                             =================
#
# - The QCD corrections to the decays gluino -> squark  + quark
#                                     squark -> gaugino + quark_prime
#                                     squark -> squark_prime + Higgs
#                                     squark -> gluino  + quark
#   are included.
#
# - The multi-body decays for the inos, stops and sbottoms are included.
#
# - The loop induced decays for the gluino, neutralinos and stops
#   are included.
#
# - The SUSY decays of the top quark are included.
#
# - Possible decays of the NLSP in GMSB models are included.
#
#
#         PDG            Width
DECAY         6     1.37543524E+00   # top decays
#          BR         NDA      ID1       ID2
     1.00000000E+00    2           5        24   # BR(t ->  b    W+)
#
#         PDG            Width
DECAY   1000021     1.63676279E-03   # gluino decays
#          BR         NDA      ID1       ID2
     7.99582854E-03    2     1000022        21   # BR(~g -> ~chi_10 g)
     1.18258604E-02    2     1000023        21   # BR(~g -> ~chi_20 g)
     3.94551816E-03    2     1000025        21   # BR(~g -> ~chi_30 g)
#          BR         NDA      ID1       ID2
     0.00000000E+00    2     1000039        21   # BR(~g -> ~G      g)
#           BR         NDA      ID1       ID2       ID3
     2.21877426E-03    3     1000022         1        -1   # BR(~g -> ~chi_10 d  db)
     2.79422937E-05    3     1000023         1        -1   # BR(~g -> ~chi_20 d  db)
     5.10630288E-03    3     1000025         1        -1   # BR(~g -> ~chi_30 d  db)
     7.37867381E-03    3     1000022         2        -2   # BR(~g -> ~chi_10 u  ub)
     3.13555093E-05    3     1000023         2        -2   # BR(~g -> ~chi_20 u  ub)
     1.76211188E-02    3     1000025         2        -2   # BR(~g -> ~chi_30 u  ub)
     2.21877426E-03    3     1000022         3        -3   # BR(~g -> ~chi_10 s  sb)
     2.79422937E-05    3     1000023         3        -3   # BR(~g -> ~chi_20 s  sb)
     5.10630288E-03    3     1000025         3        -3   # BR(~g -> ~chi_30 s  sb)
     7.37867381E-03    3     1000022         4        -4   # BR(~g -> ~chi_10 c  cb)
     3.13555093E-05    3     1000023         4        -4   # BR(~g -> ~chi_20 c  cb)
     1.76211188E-02    3     1000025         4        -4   # BR(~g -> ~chi_30 c  cb)
     2.37313614E-03    3     1000022         5        -5   # BR(~g -> ~chi_10 b  bb)
     2.04779994E-04    3     1000023         5        -5   # BR(~g -> ~chi_20 b  bb)
     5.13543543E-03    3     1000025         5        -5   # BR(~g -> ~chi_30 b  bb)
     1.38019139E-01    3     1000022         6        -6   # BR(~g -> ~chi_10 t  tb)
     2.00104594E-01    3     1000023         6        -6   # BR(~g -> ~chi_20 t  tb)
     1.01083057E-01    3     1000025         6        -6   # BR(~g -> ~chi_30 t  tb)
     2.48508359E-05    3     1000024         1        -2   # BR(~g -> ~chi_1+ d  ub)
     2.48508359E-05    3    -1000024         2        -1   # BR(~g -> ~chi_1- u  db)
     2.48508359E-05    3     1000024         3        -4   # BR(~g -> ~chi_1+ s  cb)
     2.48508359E-05    3    -1000024         4        -3   # BR(~g -> ~chi_1- c  sb)
     2.31855611E-01    3     1000024         5        -6   # BR(~g -> ~chi_1+ b  tb)
     2.31855611E-01    3    -1000024         6        -5   # BR(~g -> ~chi_1- t  bb)
#
#         PDG            Width
DECAY   1000006     3.17137370E+02   # stop1 decays
#          BR         NDA      ID1       ID2
     5.94937636E-02    2     1000022         6   # BR(~t_1 -> ~chi_10 t )
     1.07657154E-01    2     1000023         6   # BR(~t_1 -> ~chi_20 t )
     7.25627732E-02    2     1000025         6   # BR(~t_1 -> ~chi_30 t )
     1.32219978E-02    2     1000035         6   # BR(~t_1 -> ~chi_40 t )
     1.08500145E-01    2     1000024         5   # BR(~t_1 -> ~chi_1+ b )
     2.63980841E-02    2     1000037         5   # BR(~t_1 -> ~chi_2+ b )
     6.12166082E-01    2     1000021         6   # BR(~t_1 -> ~g      t )
#
#         PDG            Width
DECAY   2000006     3.28585388E+02   # stop2 decays
#          BR         NDA      ID1       ID2
     9.69548761E-02    2     1000022         6   # BR(~t_2 -> ~chi_10 t )
     1.13406594E-01    2     1000023         6   # BR(~t_2 -> ~chi_20 t )
     2.68383735E-02    2     1000025         6   # BR(~t_2 -> ~chi_30 t )
     1.10119511E-02    2     1000035         6   # BR(~t_2 -> ~chi_40 t )
     1.13092187E-01    2     1000024         5   # BR(~t_2 -> ~chi_1+ b )
     2.19748343E-02    2     1000037         5   # BR(~t_2 -> ~chi_2+ b )
     6.16721184E-01    2     1000021         6   # BR(~t_2 -> ~g      t )
#
#         PDG            Width
DECAY   1000005     2.49268022E+02   # sbottom1 decays
#          BR         NDA      ID1       ID2
     2.82533778E-03    2     1000022         5   # BR(~b_1 -> ~chi_10 b )
     5.45209549E-06    2     1000023         5   # BR(~b_1 -> ~chi_20 b )
     4.03085675E-03    2     1000025         5   # BR(~b_1 -> ~chi_30 b )
     1.50441513E-02    2     1000035         5   # BR(~b_1 -> ~chi_40 b )
     1.51895204E-01    2    -1000024         6   # BR(~b_1 -> ~chi_1- t )
     3.01513418E-02    2    -1000037         6   # BR(~b_1 -> ~chi_2- t )
     7.96047656E-01    2     1000021         5   # BR(~b_1 -> ~g      b )
#
#         PDG            Width
DECAY   2000005     2.45954467E+02   # sbottom2 decays
#          BR         NDA      ID1       ID2
     1.21014836E-03    2     1000022         5   # BR(~b_2 -> ~chi_10 b )
     2.96955472E-04    2     1000023         5   # BR(~b_2 -> ~chi_20 b )
     5.25521502E-03    2     1000025         5   # BR(~b_2 -> ~chi_30 b )
     1.63825546E-02    2     1000035         5   # BR(~b_2 -> ~chi_40 b )
     1.36499290E-01    2    -1000024         6   # BR(~b_2 -> ~chi_1- t )
     3.28259303E-02    2    -1000037         6   # BR(~b_2 -> ~chi_2- t )
     8.07529906E-01    2     1000021         5   # BR(~b_2 -> ~g      b )
#
#         PDG            Width
DECAY   1000002     2.22533966E+02   # sup_L decays
#          BR         NDA      ID1       ID2
     7.80218636E-04    2     1000022         2   # BR(~u_L -> ~chi_10 u)
     1.51856184E-05    2     1000023         2   # BR(~u_L -> ~chi_20 u)
     2.19739765E-03    2     1000025         2   # BR(~u_L -> ~chi_30 u)
     3.49431837E-02    2     1000035         2   # BR(~u_L -> ~chi_40 u)
     1.36408789E-04    2     1000024         1   # BR(~u_L -> ~chi_1+ d)
     6.98779146E-02    2     1000037         1   # BR(~u_L -> ~chi_2+ d)
     8.92049691E-01    2     1000021         2   # BR(~u_L -> ~g      u)
#
#         PDG            Width
DECAY   2000002     2.08964850E+02   # sup_R decays
#          BR         NDA      ID1       ID2
     1.45067161E-02    2     1000022         2   # BR(~u_R -> ~chi_10 u)
     1.14446446E-04    2     1000023         2   # BR(~u_R -> ~chi_20 u)
     3.53866820E-02    2     1000025         2   # BR(~u_R -> ~chi_30 u)
     3.43014597E-09    2     1000035         2   # BR(~u_R -> ~chi_40 u)
     9.49992152E-01    2     1000021         2   # BR(~u_R -> ~g      u)
#
#         PDG            Width
DECAY   1000001     2.22537784E+02   # sdown_L decays
#          BR         NDA      ID1       ID2
     9.25666608E-04    2     1000022         1   # BR(~d_L -> ~chi_10 d)
     8.24524110E-05    2     1000023         1   # BR(~d_L -> ~chi_20 d)
     1.95964214E-03    2     1000025         1   # BR(~d_L -> ~chi_30 d)
     3.49586374E-02    2     1000035         1   # BR(~d_L -> ~chi_40 d)
     4.49319584E-05    2    -1000024         2   # BR(~d_L -> ~chi_1- u)
     6.99258057E-02    2    -1000037         2   # BR(~d_L -> ~chi_2- u)
     8.92102864E-01    2     1000021         1   # BR(~d_L -> ~g      d)
#
#         PDG            Width
DECAY   2000001     2.01132289E+02   # sdown_R decays
#          BR         NDA      ID1       ID2
     3.76796993E-03    2     1000022         1   # BR(~d_R -> ~chi_10 d)
     2.97262848E-05    2     1000023         1   # BR(~d_R -> ~chi_20 d)
     9.19132616E-03    2     1000025         1   # BR(~d_R -> ~chi_30 d)
     8.90974757E-10    2     1000035         1   # BR(~d_R -> ~chi_40 d)
     9.87010977E-01    2     1000021         1   # BR(~d_R -> ~g      d)
#
#         PDG            Width
DECAY   1000004     2.22533966E+02   # scharm_L decays
#          BR         NDA      ID1       ID2
     7.80218636E-04    2     1000022         4   # BR(~c_L -> ~chi_10 c)
     1.51856184E-05    2     1000023         4   # BR(~c_L -> ~chi_20 c)
     2.19739765E-03    2     1000025         4   # BR(~c_L -> ~chi_30 c)
     3.49431837E-02    2     1000035         4   # BR(~c_L -> ~chi_40 c)
     1.36408789E-04    2     1000024         3   # BR(~c_L -> ~chi_1+ s)
     6.98779146E-02    2     1000037         3   # BR(~c_L -> ~chi_2+ s)
     8.92049691E-01    2     1000021         4   # BR(~c_L -> ~g      c)
#
#         PDG            Width
DECAY   2000004     2.08964850E+02   # scharm_R decays
#          BR         NDA      ID1       ID2
     1.45067161E-02    2     1000022         4   # BR(~c_R -> ~chi_10 c)
     1.14446446E-04    2     1000023         4   # BR(~c_R -> ~chi_20 c)
     3.53866820E-02    2     1000025         4   # BR(~c_R -> ~chi_30 c)
     3.43014597E-09    2     1000035         4   # BR(~c_R -> ~chi_40 c)
     9.49992152E-01    2     1000021         4   # BR(~c_R -> ~g      c)
#
#         PDG            Width
DECAY   1000003     2.22537784E+02   # sstrange_L decays
#          BR         NDA      ID1       ID2
     9.25666608E-04    2     1000022         3   # BR(~s_L -> ~chi_10 s)
     8.24524110E-05    2     1000023         3   # BR(~s_L -> ~chi_20 s)
     1.95964214E-03    2     1000025         3   # BR(~s_L -> ~chi_30 s)
     3.49586374E-02    2     1000035         3   # BR(~s_L -> ~chi_40 s)
     4.49319584E-05    2    -1000024         4   # BR(~s_L -> ~chi_1- c)
     6.99258057E-02    2    -1000037         4   # BR(~s_L -> ~chi_2- c)
     8.92102864E-01    2     1000021         3   # BR(~s_L -> ~g      s)
#
#         PDG            Width
DECAY   2000003     2.01132289E+02   # sstrange_R decays
#          BR         NDA      ID1       ID2
     3.76796993E-03    2     1000022         3   # BR(~s_R -> ~chi_10 s)
     2.97262848E-05    2     1000023         3   # BR(~s_R -> ~chi_20 s)
     9.19132616E-03    2     1000025         3   # BR(~s_R -> ~chi_30 s)
     8.90974757E-10    2     1000035         3   # BR(~s_R -> ~chi_40 s)
     9.87010977E-01    2     1000021         3   # BR(~s_R -> ~g      s)
#
#         PDG            Width
DECAY   1000011     3.02026844E+01   # selectron_L decays
#          BR         NDA      ID1       ID2
     5.68651206E-02    2     1000022        11   # BR(~e_L -> ~chi_10 e-)
     1.26387319E-05    2     1000023        11   # BR(~e_L -> ~chi_20 e-)
     1.45480263E-01    2     1000025        11   # BR(~e_L -> ~chi_30 e-)
     2.65637095E-01    2     1000035        11   # BR(~e_L -> ~chi_40 e-)
     3.43139055E-04    2    -1000024        12   # BR(~e_L -> ~chi_1- nu_e)
     5.31661743E-01    2    -1000037        12   # BR(~e_L -> ~chi_2- nu_e)
#
#         PDG            Width
DECAY   2000011     2.43703621E+01   # selectron_R decays
#          BR         NDA      ID1       ID2
     2.90095449E-01    2     1000022        11   # BR(~e_R -> ~chi_10 e-)
     2.28858529E-03    2     1000023        11   # BR(~e_R -> ~chi_20 e-)
     7.07615898E-01    2     1000025        11   # BR(~e_R -> ~chi_30 e-)
     6.82960974E-08    2     1000035        11   # BR(~e_R -> ~chi_40 e-)
#
#         PDG            Width
DECAY   1000013     3.02026844E+01   # smuon_L decays
#          BR         NDA      ID1       ID2
     5.68651206E-02    2     1000022        13   # BR(~mu_L -> ~chi_10 mu-)
     1.26387319E-05    2     1000023        13   # BR(~mu_L -> ~chi_20 mu-)
     1.45480263E-01    2     1000025        13   # BR(~mu_L -> ~chi_30 mu-)
     2.65637095E-01    2     1000035        13   # BR(~mu_L -> ~chi_40 mu-)
     3.43139055E-04    2    -1000024        14   # BR(~mu_L -> ~chi_1- nu_mu)
     5.31661743E-01    2    -1000037        14   # BR(~mu_L -> ~chi_2- nu_mu)
#
#         PDG            Width
DECAY   2000013     2.43703621E+01   # smuon_R decays
#          BR         NDA      ID1       ID2
     2.90095449E-01    2     1000022        13   # BR(~mu_R -> ~chi_10 mu-)
     2.28858529E-03    2     1000023        13   # BR(~mu_R -> ~chi_20 mu-)
     7.07615898E-01    2     1000025        13   # BR(~mu_R -> ~chi_30 mu-)
     6.82960974E-08    2     1000035        13   # BR(~mu_R -> ~chi_40 mu-)
#
#         PDG            Width
DECAY   1000015     2.72390670E+01   # stau_1 decays
#          BR         NDA      ID1       ID2
     1.69758455E-01    2     1000022        15   # BR(~tau_1 -> ~chi_10  tau-)
     6.38507702E-04    2     1000023        15   # BR(~tau_1 -> ~chi_20  tau-)
     3.98867278E-01    2     1000025        15   # BR(~tau_1 -> ~chi_30  tau-)
     1.43467570E-01    2     1000035        15   # BR(~tau_1 -> ~chi_40  tau-)
     1.17102296E-04    2    -1000024        16   # BR(~tau_1 -> ~chi_1-  nu_tau)
     2.87143796E-01    2    -1000037        16   # BR(~tau_1 -> ~chi_2-  nu_tau)
     7.29082505E-06    2     1000039        15   # BR(~tau_1 -> ~G       tau-)
#
#         PDG            Width
DECAY   2000015     2.74291970E+01   # stau_2 decays
#          BR         NDA      ID1       ID2
     1.52650645E-01    2     1000022        15   # BR(~tau_2 -> ~chi_10  tau-)
     2.56280635E-03    2     1000023        15   # BR(~tau_2 -> ~chi_20  tau-)
     3.93079325E-01    2     1000025        15   # BR(~tau_2 -> ~chi_30  tau-)
     1.50023966E-01    2     1000035        15   # BR(~tau_2 -> ~chi_40  tau-)
     1.41604958E-03    2    -1000024        16   # BR(~tau_2 -> ~chi_1-  nu_tau)
     3.00267208E-01    2    -1000037        16   # BR(~tau_2 -> ~chi_2-  nu_tau)
#
#         PDG            Width
DECAY   1000012     3.02008558E+01   # snu_eL decays
#          BR         NDA      ID1       ID2
     6.01975275E-02    2     1000022        12   # BR(~nu_eL -> ~chi_10 nu_e)
     1.55375952E-03    2     1000023        12   # BR(~nu_eL -> ~chi_20 nu_e)
     1.40033100E-01    2     1000025        12   # BR(~nu_eL -> ~chi_30 nu_e)
     2.65853604E-01    2     1000035        12   # BR(~nu_eL -> ~chi_40 nu_e)
     1.04178042E-03    2     1000024        11   # BR(~nu_eL -> ~chi_1+ e-)
     5.31320229E-01    2     1000037        11   # BR(~nu_eL -> ~chi_2+ e-)
#
#         PDG            Width
DECAY   1000014     3.02008558E+01   # snu_muL decays
#          BR         NDA      ID1       ID2
     6.01975275E-02    2     1000022        14   # BR(~nu_muL -> ~chi_10 nu_mu)
     1.55375952E-03    2     1000023        14   # BR(~nu_muL -> ~chi_20 nu_mu)
     1.40033100E-01    2     1000025        14   # BR(~nu_muL -> ~chi_30 nu_mu)
     2.65853604E-01    2     1000035        14   # BR(~nu_muL -> ~chi_40 nu_mu)
     1.04178042E-03    2     1000024        13   # BR(~nu_muL -> ~chi_1+ mu-)
     5.31320229E-01    2     1000037        13   # BR(~nu_muL -> ~chi_2+ mu-)
#
#         PDG            Width
DECAY   1000016     3.02325282E+01   # snu_tauL decays
#          BR         NDA      ID1       ID2
     6.01344628E-02    2     1000022        16   # BR(~nu_tauL -> ~chi_10 nu_tau)
     1.55213176E-03    2     1000023        16   # BR(~nu_tauL -> ~chi_20 nu_tau)
     1.39886398E-01    2     1000025        16   # BR(~nu_tauL -> ~chi_30 nu_tau)
     2.65575088E-01    2     1000035        16   # BR(~nu_tauL -> ~chi_40 nu_tau)
     2.08819580E-03    2     1000024        15   # BR(~nu_tauL -> ~chi_1+ tau-)
     5.30763724E-01    2     1000037        15   # BR(~nu_tauL -> ~chi_2+ tau-)
#
#         PDG            Width
DECAY   1000024     1.53318153E-08   # chargino1+ decays
#          BR         NDA      ID1       ID2
     3.44039157E-02    2     1000039        24   # BR(~chi_1+ -> ~G       W+)
#           BR         NDA      ID1       ID2       ID3
     3.50989562E-01    3     1000022         2        -1   # BR(~chi_1+ -> ~chi_10 u    db)
     2.92707178E-01    3     1000022         4        -3   # BR(~chi_1+ -> ~chi_10 c    sb)
     1.16997159E-01    3     1000022       -11        12   # BR(~chi_1+ -> ~chi_10 e+   nu_e)
     1.16874648E-01    3     1000022       -13        14   # BR(~chi_1+ -> ~chi_10 mu+  nu_mu)
     8.80275376E-02    3     1000022       -15        16   # BR(~chi_1+ -> ~chi_10 tau+ nu_tau)
#
#         PDG            Width
DECAY   1000037     2.67354043E+01   # chargino2+ decays
#          BR         NDA      ID1       ID2
     1.58870595E-01    2     1000024        23   # BR(~chi_2+ -> ~chi_1+  Z )
     1.05655981E-01    2     1000022        24   # BR(~chi_2+ -> ~chi_10  W+)
     1.54117599E-01    2     1000023        24   # BR(~chi_2+ -> ~chi_20  W+)
     5.01563016E-02    2     1000025        24   # BR(~chi_2+ -> ~chi_30  W+)
     1.59397447E-01    2     1000024        25   # BR(~chi_2+ -> ~chi_1+  h )
     9.27680873E-02    2     1000024        35   # BR(~chi_2+ -> ~chi_1+  H )
     9.31502732E-02    2     1000024        36   # BR(~chi_2+ -> ~chi_1+  A )
     6.69787511E-02    2     1000022        37   # BR(~chi_2+ -> ~chi_10  H+)
     9.27498257E-02    2     1000023        37   # BR(~chi_2+ -> ~chi_20  H+)
     2.61545604E-02    2     1000025        37   # BR(~chi_2+ -> ~chi_30  H+)
     5.77675278E-07    2     1000039        24   # BR(~chi_2+ -> ~G       W+)
     1.20174277E-11    2     1000039        37   # BR(~chi_2+ -> ~G       H+)
#
#         PDG            Width
DECAY   1000022     1.0E-05   # neutralino1 decays
#          BR         NDA      ID1       ID2
     4.12609694E-01    2     1000039        22   # BR(~chi_10 -> ~G        gam)
     1.29188475E-01    2     1000039        23   # BR(~chi_10 -> ~G        Z)
     4.58201831E-01    2     1000039        25   # BR(~chi_10 -> ~G        h)
#
#         PDG            Width
DECAY   1000023     1.0E-05   # neutralino2 decays
#          BR         NDA      ID1       ID2
     1.56400478E-02    2     1000022        22   # BR(~chi_20 -> ~chi_10 gam)
#          BR         NDA      ID1       ID2
     2.71786393E-05    2     1000039        22   # BR(~chi_20 -> ~G        gam)
     1.17591598E-02    2     1000039        23   # BR(~chi_20 -> ~G        Z)
     3.97418102E-04    2     1000039        25   # BR(~chi_20 -> ~G        h)
#           BR         NDA      ID1       ID2       ID3
     1.37776000E-01    3     1000022        -2         2   # BR(~chi_20 -> ~chi_10 ub      u)
     1.78356822E-01    3     1000022        -1         1   # BR(~chi_20 -> ~chi_10 db      d)
     1.18779966E-01    3     1000022        -4         4   # BR(~chi_20 -> ~chi_10 cb      c)
     1.77769708E-01    3     1000022        -3         3   # BR(~chi_20 -> ~chi_10 sb      s)
     4.07140730E-02    3     1000022       -11        11   # BR(~chi_20 -> ~chi_10 e+      e-)
     4.06881487E-02    3     1000022       -13        13   # BR(~chi_20 -> ~chi_10 mu+     mu-)
     3.26833843E-02    3     1000022       -15        15   # BR(~chi_20 -> ~chi_10 tau+    tau-)
     8.12974811E-02    3     1000022       -12        12   # BR(~chi_20 -> ~chi_10 nu_eb   nu_e)
     8.12974811E-02    3     1000022       -14        14   # BR(~chi_20 -> ~chi_10 nu_mub  nu_mu)
     8.12974811E-02    3     1000022       -16        16   # BR(~chi_20 -> ~chi_10 nu_taub nu_tau)
     4.29375178E-04    3     1000024        -2         1   # BR(~chi_20 -> ~chi_1+ ub      d)
     4.29375178E-04    3    -1000024        -1         2   # BR(~chi_20 -> ~chi_1- db      u)
     4.18294158E-05    3     1000024        -4         3   # BR(~chi_20 -> ~chi_1+ cb      s)
     4.18294158E-05    3    -1000024        -3         4   # BR(~chi_20 -> ~chi_1- sb      c)
     1.43125076E-04    3     1000024       -12        11   # BR(~chi_20 -> ~chi_1+ nu_eb   e-)
     1.43125076E-04    3    -1000024        12       -11   # BR(~chi_20 -> ~chi_1- nu_e    e+)
     1.41465057E-04    3     1000024       -14        13   # BR(~chi_20 -> ~chi_1+ nu_mub  mu-)
     1.41465057E-04    3    -1000024        14       -13   # BR(~chi_20 -> ~chi_1- nu_mu   mu+)
     2.03030315E-06    3     1000024       -16        15   # BR(~chi_20 -> ~chi_1+ nu_taub tau-)
     2.03030315E-06    3    -1000024        16       -15   # BR(~chi_20 -> ~chi_1- nu_tau  tau+)
#
#         PDG            Width
DECAY   1000025     1.0E-05   # neutralino3 decays
#          BR         NDA      ID1       ID2
     8.72036810E-01    2     1000022        22   # BR(~chi_30 -> ~chi_10 gam)
     2.61265323E-02    2     1000023        22   # BR(~chi_30 -> ~chi_20 gam)
#          BR         NDA      ID1       ID2
     4.52291271E-04    2     1000039        22   # BR(~chi_30 -> ~G        gam)
     1.26323995E-04    2     1000039        23   # BR(~chi_30 -> ~G        Z)
     8.88767762E-05    2     1000039        25   # BR(~chi_30 -> ~G        h)
#           BR         NDA      ID1       ID2       ID3
     1.87073320E-04    3     1000022        -2         2   # BR(~chi_30 -> ~chi_10 ub      u)
     2.43408416E-04    3     1000022        -1         1   # BR(~chi_30 -> ~chi_10 db      d)
     1.73947641E-04    3     1000022        -4         4   # BR(~chi_30 -> ~chi_10 cb      c)
     2.43127407E-04    3     1000022        -3         3   # BR(~chi_30 -> ~chi_10 sb      s)
     1.09129715E-04    3     1000022        -5         5   # BR(~chi_30 -> ~chi_10 bb      b)
     5.65308588E-05    3     1000022       -11        11   # BR(~chi_30 -> ~chi_10 e+      e-)
     5.65051716E-05    3     1000022       -13        13   # BR(~chi_30 -> ~chi_10 mu+     mu-)
     4.97885417E-05    3     1000022       -15        15   # BR(~chi_30 -> ~chi_10 tau+    tau-)
     1.10439250E-04    3     1000022       -12        12   # BR(~chi_30 -> ~chi_10 nu_eb   nu_e)
     1.10439250E-04    3     1000022       -14        14   # BR(~chi_30 -> ~chi_10 nu_mub  nu_mu)
     1.10439250E-04    3     1000022       -16        16   # BR(~chi_30 -> ~chi_10 nu_taub nu_tau)
     1.60871510E-03    3     1000023        -2         2   # BR(~chi_30 -> ~chi_20 ub      u)
     2.08259663E-03    3     1000023        -1         1   # BR(~chi_30 -> ~chi_20 db      d)
     1.39443897E-03    3     1000023        -4         4   # BR(~chi_30 -> ~chi_20 cb      c)
     2.07597743E-03    3     1000023        -3         3   # BR(~chi_30 -> ~chi_20 sb      s)
     4.75428717E-04    3     1000023       -11        11   # BR(~chi_30 -> ~chi_20 e+      e-)
     4.75136238E-04    3     1000023       -13        13   # BR(~chi_30 -> ~chi_20 mu+     mu-)
     3.84998046E-04    3     1000023       -15        15   # BR(~chi_30 -> ~chi_20 tau+    tau-)
     9.49238013E-04    3     1000023       -12        12   # BR(~chi_30 -> ~chi_20 nu_eb   nu_e)
     9.49238013E-04    3     1000023       -14        14   # BR(~chi_30 -> ~chi_20 nu_mub  nu_mu)
     9.49238013E-04    3     1000023       -16        16   # BR(~chi_30 -> ~chi_20 nu_taub nu_tau)
     1.52496799E-02    3     1000024        -2         1   # BR(~chi_30 -> ~chi_1+ ub      d)
     1.52496799E-02    3    -1000024        -1         2   # BR(~chi_30 -> ~chi_1- db      u)
     1.42184392E-02    3     1000024        -4         3   # BR(~chi_30 -> ~chi_1+ cb      s)
     1.42184392E-02    3    -1000024        -3         4   # BR(~chi_30 -> ~chi_1- sb      c)
     5.08315420E-03    3     1000024       -12        11   # BR(~chi_30 -> ~chi_1+ nu_eb   e-)
     5.08315420E-03    3    -1000024        12       -11   # BR(~chi_30 -> ~chi_1- nu_e    e+)
     5.08112583E-03    3     1000024       -14        13   # BR(~chi_30 -> ~chi_1+ nu_mub  mu-)
     5.08112583E-03    3    -1000024        14       -13   # BR(~chi_30 -> ~chi_1- nu_mu   mu+)
     4.55426652E-03    3     1000024       -16        15   # BR(~chi_30 -> ~chi_1+ nu_taub tau-)
     4.55426652E-03    3    -1000024        16       -15   # BR(~chi_30 -> ~chi_1- nu_tau  tau+)
#
#         PDG            Width
DECAY   1000035     2.67357590E+01   # neutralino4 decays
#          BR         NDA      ID1       ID2
     1.03581687E-01    2     1000022        23   # BR(~chi_40 -> ~chi_10   Z )
     1.08579463E-02    2     1000023        23   # BR(~chi_40 -> ~chi_20   Z )
     4.46219463E-02    2     1000025        23   # BR(~chi_40 -> ~chi_30   Z )
     1.54769108E-01    2     1000024       -24   # BR(~chi_40 -> ~chi_1+   W-)
     1.54769108E-01    2    -1000024        24   # BR(~chi_40 -> ~chi_1-   W+)
     4.79821165E-03    2     1000022        25   # BR(~chi_40 -> ~chi_10   h )
     6.56173177E-02    2     1000022        35   # BR(~chi_40 -> ~chi_10   H )
     1.20537117E-03    2     1000022        36   # BR(~chi_40 -> ~chi_10   A )
     1.47990821E-01    2     1000023        25   # BR(~chi_40 -> ~chi_20   h )
     1.10808302E-03    2     1000023        35   # BR(~chi_40 -> ~chi_20   H )
     9.17387840E-02    2     1000023        36   # BR(~chi_40 -> ~chi_20   A )
     6.81341823E-03    2     1000025        25   # BR(~chi_40 -> ~chi_30   h )
     2.60102684E-02    2     1000025        35   # BR(~chi_40 -> ~chi_30   H )
     9.52384291E-05    2     1000025        36   # BR(~chi_40 -> ~chi_30   A )
     9.30110570E-02    2     1000024       -37   # BR(~chi_40 -> ~chi_1+   H-)
     9.30110570E-02    2    -1000024        37   # BR(~chi_40 -> ~chi_1-   H+)
     1.38715581E-07    2     1000039        22   # BR(~chi_40 -> ~G        gam)
     4.38903872E-07    2     1000039        23   # BR(~chi_40 -> ~G        Z)
     3.06354775E-11    2     1000039        25   # BR(~chi_40 -> ~G        h)
     1.18954979E-11    2     1000039        35   # BR(~chi_40 -> ~G        H)
     6.68890122E-14    2     1000039        36   # BR(~chi_40 -> ~G        A)
#
#         PDG            Width
DECAY        25     4.08063977E-03   # h decays
#          BR         NDA      ID1       ID2
     6.17232084E-01    2           5        -5   # BR(h -> b       bb     )
     6.38278870E-02    2         -15        15   # BR(h -> tau+    tau-   )
     2.25927212E-04    2         -13        13   # BR(h -> mu+     mu-    )
     4.78760089E-04    2           3        -3   # BR(h -> s       sb     )
     2.06545345E-02    2           4        -4   # BR(h -> c       cb     )
     6.70665923E-02    2          21        21   # BR(h -> g       g      )
     2.29590949E-03    2          22        22   # BR(h -> gam     gam    )
     1.53927764E-03    2          22        23   # BR(h -> Z       gam    )
     2.01030195E-01    2          24       -24   # BR(h -> W+      W-     )
     2.56488334E-02    2          23        23   # BR(h -> Z       Z      )
#
#         PDG            Width
DECAY        35     3.95407101E+01   # H decays
#          BR         NDA      ID1       ID2
     1.41324603E-03    2           5        -5   # BR(H -> b       bb     )
     2.35657452E-04    2         -15        15   # BR(H -> tau+    tau-   )
     8.33136827E-07    2         -13        13   # BR(H -> mu+     mu-    )
     1.06670938E-06    2           3        -3   # BR(H -> s       sb     )
     9.62685183E-06    2           4        -4   # BR(H -> c       cb     )
     9.52536060E-01    2           6        -6   # BR(H -> t       tb     )
     7.62787887E-04    2          21        21   # BR(H -> g       g      )
     2.54641207E-06    2          22        22   # BR(H -> gam     gam    )
     1.10864291E-06    2          23        22   # BR(H -> Z       gam    )
     3.20736102E-04    2          24       -24   # BR(H -> W+      W-     )
     1.59930613E-04    2          23        23   # BR(H -> Z       Z      )
     8.65628770E-04    2          25        25   # BR(H -> h       h      )
     8.51012161E-24    2          36        36   # BR(H -> A       A      )
     3.34512478E-11    2          23        36   # BR(H -> Z       A      )
     3.99454326E-12    2          24       -37   # BR(H -> W+      H-     )
     3.99454326E-12    2         -24        37   # BR(H -> W-      H+     )
     6.54067451E-05    2     1000024  -1000024   # BR(H -> ~chi_1+ ~chi_1-)
     1.80840164E-02    2     1000022   1000022   # BR(H -> ~chi_10 ~chi_10)
     2.60141554E-05    2     1000023   1000023   # BR(H -> ~chi_20 ~chi_20)
     1.59675543E-02    2     1000025   1000025   # BR(H -> ~chi_30 ~chi_30)
     5.05760424E-05    2     1000022   1000023   # BR(H -> ~chi_10 ~chi_20)
     7.16743606E-03    2     1000022   1000025   # BR(H -> ~chi_10 ~chi_30)
     2.32976795E-03    2     1000023   1000025   # BR(H -> ~chi_20 ~chi_30)
#
#         PDG            Width
DECAY        36     3.99759499E+01   # A decays
#          BR         NDA      ID1       ID2
     1.41632556E-03    2           5        -5   # BR(A -> b       bb     )
     2.33295680E-04    2         -15        15   # BR(A -> tau+    tau-   )
     8.24784504E-07    2         -13        13   # BR(A -> mu+     mu-    )
     1.08735929E-06    2           3        -3   # BR(A -> s       sb     )
     9.52873480E-06    2           4        -4   # BR(A -> c       cb     )
     9.53657366E-01    2           6        -6   # BR(A -> t       tb     )
     9.02654814E-04    2          21        21   # BR(A -> g       g      )
     3.13173359E-06    2          22        22   # BR(A -> gam     gam    )
     1.29306368E-06    2          23        22   # BR(A -> Z       gam    )
     3.12651500E-04    2          23        25   # BR(A -> Z       h      )
     4.09525713E-04    2     1000024  -1000024   # BR(A -> ~chi_1+ ~chi_1-)
     1.17518082E-03    2     1000022   1000022   # BR(A -> ~chi_10 ~chi_10)
     8.32060723E-04    2     1000023   1000023   # BR(A -> ~chi_20 ~chi_20)
     3.28697224E-04    2     1000025   1000025   # BR(A -> ~chi_30 ~chi_30)
     1.14812949E-02    2     1000022   1000023   # BR(A -> ~chi_10 ~chi_20)
     8.07165810E-04    2     1000022   1000025   # BR(A -> ~chi_10 ~chi_30)
     2.84279157E-02    2     1000023   1000025   # BR(A -> ~chi_20 ~chi_30)
#
#         PDG            Width
DECAY        37     3.91756347E+01   # H+ decays
#          BR         NDA      ID1       ID2
     2.27459413E-06    2           4        -5   # BR(H+ -> c       bb     )
     2.38285207E-04    2         -15        16   # BR(H+ -> tau+    nu_tau )
     8.42424285E-07    2         -13        14   # BR(H+ -> mu+     nu_mu  )
     1.44619077E-08    2           2        -5   # BR(H+ -> u       bb     )
     5.21701555E-08    2           2        -3   # BR(H+ -> u       sb     )
     1.03951005E-05    2           4        -3   # BR(H+ -> c       sb     )
     9.55474728E-01    2           6        -5   # BR(H+ -> t       bb     )
     3.20393424E-04    2          24        25   # BR(H+ -> W+      h      )
     7.84281372E-13    2          24        36   # BR(H+ -> W+      A      )
     1.21916381E-02    2     1000024   1000022   # BR(H+ -> ~chi_1+ ~chi_10)
     1.09281317E-04    2     1000024   1000023   # BR(H+ -> ~chi_1+ ~chi_20)
     3.16520951E-02    2     1000024   1000025   # BR(H+ -> ~chi_1+ ~chi_30)
