#
#                              ======================
#                              | THE SUSYHIT OUTPUT |
#                              ======================
#
#
#              ------------------------------------------------------
#              |     This is the output of the SUSY-HIT package     |
#              |  created by A.Djouadi, M.Muehlleitner and M.Spira. |
#              |  In case of problems with SUSY-HIT email to        |
#              |           margarete.muehlleitner@kit.edu           |
#              |           michael.spira@psi.ch                     |
#              |           abdelhak.djouadi@cern.ch                 |
#              ------------------------------------------------------
#
#              ------------------------------------------------------
#              |  SUSY Les Houches Accord - MSSM Spectrum + Decays  |
#              |              based on the decay programs           |
#              |                                                    |
#              |                     SDECAY 1.5a                    |
#              |                                                    |
#              |  Authors: M.Muhlleitner, A.Djouadi and Y.Mambrini  |
#              |  Ref.:    Comput.Phys.Commun.168(2005)46           |
#              |           [hep-ph/0311167]                         |
#              |                                                    |
#              |                     HDECAY 3.4                     |
#              |                                                    |
#              |  By: A.Djouadi,J.Kalinowski,M.Muhlleitner,M.Spira  |
#              |  Ref.:    Comput.Phys.Commun.108(1998)56           |
#              |           [hep-ph/9704448]                         |
#              |                                                    |
#              |                                                    |
#              |  If not stated otherwise all DRbar couplings and   |
#              |  soft SUSY breaking masses are given at the scale  |
#              |  Q=  0.91187600E+02
#              |                                                    |
#              ------------------------------------------------------
#
#
BLOCK DCINFO  # Decay Program information
     1   SDECAY/HDECAY # decay calculator
     2   1.5a /3.4    # version number
#
BLOCK SPINFO  # Spectrum calculator information
     1   SuSpect     # RGE +Spectrum calculator            
     2   2.43         # version number                     
#
BLOCK MODSEL  # Model selection
     1     2   # GMSB                                              
#
BLOCK SMINPUTS  # Standard Model inputs
         1     1.27932904E+02   # alpha_em^-1(M_Z)^MSbar
         2     1.16639000E-05   # G_F [GeV^-2]
         3     1.17200000E-01   # alpha_S(M_Z)^MSbar
         4     9.11870000E+01   # M_Z pole mass
         5     4.25000000E+00   # mb(mb)^MSbar
         6     1.72900000E+02   # mt pole mass
         7     1.77700000E+00   # mtau pole mass
#
BLOCK MINPAR  # Input parameters - minimal models
#
BLOCK EXTPAR  # Input parameters - non-minimal models
         0     9.11876000E+01   # EWSB                
         1     6.54299572E+02   # M_1                 
         2     3.00000000E+03   # M_2                 
         3     1.40000000E+03   # M_3                 
        11     0.00000000E+00   # A_t                 
        12     0.00000000E+00   # A_b                 
        13     0.00000000E+00   # A_tau               
        14     0.00000000E+00   # A_u                 
        15     0.00000000E+00   # A_d                 
        16     0.00000000E+00   # A_e                 
        23    -6.50000000E+02   # mu(EWSB)            
        25     1.50000000E+00   # tanbeta(in)         
        26     2.00000000E+03   # MA_pole             
        31     5.00000000E+03   # M_eL                
        32     5.00000000E+03   # M_muL               
        33     5.00000000E+03   # M_tauL              
        34     5.00000000E+03   # M_eR                
        35     5.00000000E+03   # M_muR               
        36     5.00000000E+03   # M_tauR              
        41     5.00000000E+03   # M_q1L               
        42     5.00000000E+03   # M_q2L               
        43     5.00000000E+03   # M_q3L               
        44     5.00000000E+03   # M_uR                
        45     5.00000000E+03   # M_cR                
        46     5.00000000E+03   # M_tR                
        47     5.00000000E+03   # M_dR                
        48     5.00000000E+03   # M_sR                
        49     5.00000000E+03   # M_bR                
#
BLOCK MASS  # Mass Spectrum
# PDG code           mass       particle
        24     8.05396358E+01   # W+
        25     1.25000000E+02   # h
        35     2.00414106E+03   # H
        36     2.00000000E+03   # A
        37     2.00184414E+03   # H+
         5     4.87877839E+00   # b-quark pole mass calculated from mb(mb)_Msbar
   1000001     5.00013280E+03   # ~d_L
   2000001     5.00002530E+03   # ~d_R
   1000002     4.99989250E+03   # ~u_L
   2000002     4.99994940E+03   # ~u_R
   1000003     5.00013280E+03   # ~s_L
   2000003     5.00002530E+03   # ~s_R
   1000004     4.99989250E+03   # ~c_L
   2000004     4.99994940E+03   # ~c_R
   1000005     4.99981192E+03   # ~b_1
   2000005     5.00034761E+03   # ~b_2
   1000006     4.99564161E+03   # ~t_1
   2000006     5.00881663E+03   # ~t_2
   1000011     5.00008219E+03   # ~e_L
   2000011     5.00007591E+03   # ~e_R
   1000012     4.99984190E+03   # ~nu_eL
   1000013     5.00008219E+03   # ~mu_L
   2000013     5.00007591E+03   # ~mu_R
   1000014     4.99984190E+03   # ~nu_muL
   1000015     4.99990615E+03   # ~tau_1
   2000015     5.00025258E+03   # ~tau_2
   1000016     4.99984190E+03   # ~nu_tauL
   1000021     1.40000000E+03   # ~g
   1000022     6.43654343E+02   # ~chi_10
   1000023    -6.53096243E+02   # ~chi_20
   1000025     6.61993822E+02   # ~chi_30
   1000035     3.00174765E+03   # ~chi_40
   1000024     6.51542860E+02   # ~chi_1+
   1000037     3.00174736E+03   # ~chi_2+
   1000039     1.19148737E-08   # ~gravitino
#
BLOCK NMIX  # Neutralino Mixing Matrix
  1  1     5.83151232E-01   # N_11
  1  2    -4.68735225E-03   # N_12
  1  3    -5.88329574E-01   # N_13
  1  4    -5.60161568E-01   # N_14
  2  1     3.32971205E-02   # N_21
  2  2    -2.12023036E-02   # N_22
  2  3     7.06219803E-01   # N_23
  2  4    -7.06891332E-01   # N_24
  3  1     8.11680829E-01   # N_31
  3  2     4.75265535E-03   # N_32
  3  3     3.93719239E-01   # N_33
  3  4     4.31435748E-01   # N_34
  4  1     4.18331698E-04   # N_41
  4  2    -9.99752921E-01   # N_42
  4  3    -1.03471234E-02   # N_43
  4  4     1.96687244E-02   # N_44
#
BLOCK UMIX  # Chargino Mixing Matrix U
  1  1    -1.46255860E-02   # U_11
  1  2     9.99893040E-01   # U_12
  2  1     9.99893040E-01   # U_21
  2  2     1.46255860E-02   # U_22
#
BLOCK VMIX  # Chargino Mixing Matrix V
  1  1     2.78144505E-02   # V_11
  1  2    -9.99613103E-01   # V_12
  2  1     9.99613103E-01   # V_21
  2  2     2.78144505E-02   # V_22
#
BLOCK STOPMIX  # Stop Mixing Matrix
  1  1     7.08631139E-01   # cos(theta_t)
  1  2    -7.05579130E-01   # sin(theta_t)
  2  1     7.05579130E-01   # -sin(theta_t)
  2  2     7.08631139E-01   # cos(theta_t)
#
BLOCK SBOTMIX  # Sbottom Mixing Matrix
  1  1    -6.32193242E-01   # cos(theta_b)
  1  2     7.74810754E-01   # sin(theta_b)
  2  1    -7.74810754E-01   # -sin(theta_b)
  2  2    -6.32193242E-01   # cos(theta_b)
#
BLOCK STAUMIX  # Stau Mixing Matrix
  1  1    -7.00661771E-01   # cos(theta_tau)
  1  2     7.13493576E-01   # sin(theta_tau)
  2  1    -7.13493576E-01   # -sin(theta_tau)
  2  2    -7.00661771E-01   # cos(theta_tau)
#
BLOCK ALPHA  # Higgs mixing
          -5.90197759E-01   # Mixing angle in the neutral Higgs boson sector
#
BLOCK HMIX Q=  9.11876000E+01  # DRbar Higgs Parameters
         1    -6.50000000E+02   # mu(Q)               
         2     1.49999979E+00   # tanbeta(Q)          
         3     2.51776406E+02   # vev(Q)              
         4     4.18230073E+06   # MA^2(Q)             
#
BLOCK GAUGE Q=  9.11876000E+01  # The gauge couplings
     1     3.52892805E-01   # gprime(Q) DRbar
     2     6.27875012E-01   # g(Q) DRbar
     3     1.08619208E+00   # g3(Q) DRbar
#
BLOCK AU Q=  9.11876000E+01  # The trilinear couplings
  1  1     0.00000000E+00   # A_u(Q) DRbar
  2  2     0.00000000E+00   # A_c(Q) DRbar
  3  3     0.00000000E+00   # A_t(Q) DRbar
#
BLOCK AD Q=  9.11876000E+01  # The trilinear couplings
  1  1     0.00000000E+00   # A_d(Q) DRbar
  2  2     0.00000000E+00   # A_s(Q) DRbar
  3  3     0.00000000E+00   # A_b(Q) DRbar
#
BLOCK AE Q=  9.11876000E+01  # The trilinear couplings
  1  1     0.00000000E+00   # A_e(Q) DRbar
  2  2     0.00000000E+00   # A_mu(Q) DRbar
  3  3     0.00000000E+00   # A_tau(Q) DRbar
#
BLOCK Yu Q=  9.11876000E+01  # The Yukawa couplings
  1  1     0.00000000E+00   # y_u(Q) DRbar
  2  2     0.00000000E+00   # y_c(Q) DRbar
  3  3     1.02668916E+00   # y_t(Q) DRbar
#
BLOCK Yd Q=  9.11876000E+01  # The Yukawa couplings
  1  1     0.00000000E+00   # y_d(Q) DRbar
  2  2     0.00000000E+00   # y_s(Q) DRbar
  3  3     2.72524784E-02   # y_b(Q) DRbar
#
BLOCK Ye Q=  9.11876000E+01  # The Yukawa couplings
  1  1     0.00000000E+00   # y_e(Q) DRbar
  2  2     0.00000000E+00   # y_mu(Q) DRbar
  3  3     1.79868084E-02   # y_tau(Q) DRbar
#
BLOCK MSOFT Q=  9.11876000E+01  # The soft SUSY breaking masses at the scale Q
         1     6.54299572E+02   # M_1                 
         2     3.00000000E+03   # M_2                 
         3     1.40000000E+03   # M_3                 
        14     0.00000000E+00   # A_u                 
        15     0.00000000E+00   # A_d                 
        16     0.00000000E+00   # A_e                 
        21     2.58755588E+06   # M^2_Hd              
        22    -5.87848113E+06   # M^2_Hu              
        31     5.00000000E+03   # M_eL                
        32     5.00000000E+03   # M_muL               
        33     5.00000000E+03   # M_tauL              
        34     5.00000000E+03   # M_eR                
        35     5.00000000E+03   # M_muR               
        36     5.00000000E+03   # M_tauR              
        41     5.00000000E+03   # M_q1L               
        42     5.00000000E+03   # M_q2L               
        43     5.00000000E+03   # M_q3L               
        44     5.00000000E+03   # M_uR                
        45     5.00000000E+03   # M_cR                
        46     5.00000000E+03   # M_tR                
        47     5.00000000E+03   # M_dR                
        48     5.00000000E+03   # M_sR                
        49     5.00000000E+03   # M_bR                
#
#
#
#                             =================
#                             |The decay table|
#                             =================
#
# - The QCD corrections to the decays gluino -> squark  + quark
#                                     squark -> gaugino + quark_prime
#                                     squark -> squark_prime + Higgs
#                                     squark -> gluino  + quark
#   are included.
#
# - The multi-body decays for the inos, stops and sbottoms are included.
#
# - The loop induced decays for the gluino, neutralinos and stops
#   are included.
#
# - The SUSY decays of the top quark are included.
#
# - Possible decays of the NLSP in GMSB models are included.
#
#
#         PDG            Width
DECAY         6     1.37360712E+00   # top decays
#          BR         NDA      ID1       ID2
     1.00000000E+00    2           5        24   # BR(t ->  b    W+)
#
#         PDG            Width
DECAY   1000021     1.24120787E-04   # gluino decays
#          BR         NDA      ID1       ID2
     2.71164580E-02    2     1000022        21   # BR(~g -> ~chi_10 g)
     4.19602450E-02    2     1000023        21   # BR(~g -> ~chi_20 g)
     1.53481432E-02    2     1000025        21   # BR(~g -> ~chi_30 g)
#          BR         NDA      ID1       ID2
     0.00000000E+00    2     1000039        21   # BR(~g -> ~G      g)
#           BR         NDA      ID1       ID2       ID3
     3.49035991E-03    3     1000022         1        -1   # BR(~g -> ~chi_10 d  db)
     1.94865367E-05    3     1000023         1        -1   # BR(~g -> ~chi_20 d  db)
     6.01170685E-03    3     1000025         1        -1   # BR(~g -> ~chi_30 d  db)
     1.16061625E-02    3     1000022         2        -2   # BR(~g -> ~chi_10 u  ub)
     1.81579376E-05    3     1000023         2        -2   # BR(~g -> ~chi_20 u  ub)
     2.07734903E-02    3     1000025         2        -2   # BR(~g -> ~chi_30 u  ub)
     3.49035991E-03    3     1000022         3        -3   # BR(~g -> ~chi_10 s  sb)
     1.94865367E-05    3     1000023         3        -3   # BR(~g -> ~chi_20 s  sb)
     6.01170685E-03    3     1000025         3        -3   # BR(~g -> ~chi_30 s  sb)
     1.16061625E-02    3     1000022         4        -4   # BR(~g -> ~chi_10 c  cb)
     1.81579376E-05    3     1000023         4        -4   # BR(~g -> ~chi_20 c  cb)
     2.07734903E-02    3     1000025         4        -4   # BR(~g -> ~chi_30 c  cb)
     3.68262529E-03    3     1000022         5        -5   # BR(~g -> ~chi_10 b  bb)
     2.31960355E-04    3     1000023         5        -5   # BR(~g -> ~chi_20 b  bb)
     6.04175167E-03    3     1000025         5        -5   # BR(~g -> ~chi_30 b  bb)
     1.11468079E-01    3     1000022         6        -6   # BR(~g -> ~chi_10 t  tb)
     1.43339487E-01    3     1000023         6        -6   # BR(~g -> ~chi_20 t  tb)
     9.81311061E-02    3     1000025         6        -6   # BR(~g -> ~chi_30 t  tb)
     2.42943964E-05    3     1000024         1        -2   # BR(~g -> ~chi_1+ d  ub)
     2.42943964E-05    3    -1000024         2        -1   # BR(~g -> ~chi_1- u  db)
     2.42943964E-05    3     1000024         3        -4   # BR(~g -> ~chi_1+ s  cb)
     2.42943964E-05    3    -1000024         4        -3   # BR(~g -> ~chi_1- c  sb)
     2.34196419E-01    3     1000024         5        -6   # BR(~g -> ~chi_1+ b  tb)
     2.34196419E-01    3    -1000024         6        -5   # BR(~g -> ~chi_1- t  bb)
#
#         PDG            Width
DECAY   1000006     3.37379083E+02   # stop1 decays
#          BR         NDA      ID1       ID2
     5.08522906E-02    2     1000022         6   # BR(~t_1 -> ~chi_10 t )
     9.98509521E-02    2     1000023         6   # BR(~t_1 -> ~chi_20 t )
     7.04970722E-02    2     1000025         6   # BR(~t_1 -> ~chi_30 t )
     1.24122171E-02    2     1000035         6   # BR(~t_1 -> ~chi_40 t )
     9.96003069E-02    2     1000024         5   # BR(~t_1 -> ~chi_1+ b )
     2.47853702E-02    2     1000037         5   # BR(~t_1 -> ~chi_2+ b )
     6.42001791E-01    2     1000021         6   # BR(~t_1 -> ~g      t )
#
#         PDG            Width
DECAY   2000006     3.47317784E+02   # stop2 decays
#          BR         NDA      ID1       ID2
     8.78691275E-02    2     1000022         6   # BR(~t_2 -> ~chi_10 t )
     1.04884706E-01    2     1000023         6   # BR(~t_2 -> ~chi_20 t )
     2.75912848E-02    2     1000025         6   # BR(~t_2 -> ~chi_30 t )
     1.03895930E-02    2     1000035         6   # BR(~t_2 -> ~chi_40 t )
     1.05531749E-01    2     1000024         5   # BR(~t_2 -> ~chi_1+ b )
     2.07371293E-02    2     1000037         5   # BR(~t_2 -> ~chi_2+ b )
     6.42996410E-01    2     1000021         6   # BR(~t_2 -> ~g      t )
#
#         PDG            Width
DECAY   1000005     2.64365551E+02   # sbottom1 decays
#          BR         NDA      ID1       ID2
     3.02196672E-03    2     1000022         5   # BR(~b_1 -> ~chi_10 b )
     1.95725241E-05    2     1000023         5   # BR(~b_1 -> ~chi_20 b )
     3.61075280E-03    2     1000025         5   # BR(~b_1 -> ~chi_30 b )
     1.30262102E-02    2     1000035         5   # BR(~b_1 -> ~chi_40 b )
     1.21911587E-01    2    -1000024         6   # BR(~b_1 -> ~chi_1- t )
     2.60999499E-02    2    -1000037         6   # BR(~b_1 -> ~chi_2- t )
     8.32309961E-01    2     1000021         5   # BR(~b_1 -> ~g      b )
#
#         PDG            Width
DECAY   2000005     2.72605107E+02   # sbottom2 decays
#          BR         NDA      ID1       ID2
     1.27778736E-03    2     1000022         5   # BR(~b_2 -> ~chi_10 b )
     2.22891315E-04    2     1000023         5   # BR(~b_2 -> ~chi_20 b )
     4.21713337E-03    2     1000025         5   # BR(~b_2 -> ~chi_30 b )
     1.58589180E-02    2     1000035         5   # BR(~b_2 -> ~chi_40 b )
     1.39007940E-01    2    -1000024         6   # BR(~b_2 -> ~chi_1- t )
     3.17736480E-02    2    -1000037         6   # BR(~b_2 -> ~chi_2- t )
     8.07641682E-01    2     1000021         5   # BR(~b_2 -> ~g      b )
#
#         PDG            Width
DECAY   1000002     2.44061187E+02   # sup_L decays
#          BR         NDA      ID1       ID2
     8.21014633E-04    2     1000022         2   # BR(~u_L -> ~chi_10 u)
     1.67979181E-05    2     1000023         2   # BR(~u_L -> ~chi_20 u)
     1.84305088E-03    2     1000025         2   # BR(~u_L -> ~chi_30 u)
     3.18091111E-02    2     1000035         2   # BR(~u_L -> ~chi_40 u)
     1.16089437E-04    2     1000024         1   # BR(~u_L -> ~chi_1+ d)
     6.36104157E-02    2     1000037         1   # BR(~u_L -> ~chi_2+ d)
     9.01783520E-01    2     1000021         2   # BR(~u_L -> ~g      u)
#
#         PDG            Width
DECAY   2000002     2.30372611E+02   # sup_R decays
#          BR         NDA      ID1       ID2
     1.51926339E-02    2     1000022         2   # BR(~u_R -> ~chi_10 u)
     4.94827364E-05    2     1000023         2   # BR(~u_R -> ~chi_20 u)
     2.93764549E-02    2     1000025         2   # BR(~u_R -> ~chi_30 u)
     3.31418212E-09    2     1000035         2   # BR(~u_R -> ~chi_40 u)
     9.55381425E-01    2     1000021         2   # BR(~u_R -> ~g      u)
#
#         PDG            Width
DECAY   1000001     2.44064005E+02   # sdown_L decays
#          BR         NDA      ID1       ID2
     9.74868333E-04    2     1000022         1   # BR(~d_L -> ~chi_10 d)
     5.64872071E-05    2     1000023         1   # BR(~d_L -> ~chi_20 d)
     1.62646110E-03    2     1000025         1   # BR(~d_L -> ~chi_30 d)
     3.18236712E-02    2     1000035         1   # BR(~d_L -> ~chi_40 d)
     3.20993087E-05    2    -1000024         2   # BR(~d_L -> ~chi_1- u)
     6.36552176E-02    2    -1000037         2   # BR(~d_L -> ~chi_2- u)
     9.01831195E-01    2     1000021         1   # BR(~d_L -> ~g      d)
#
#         PDG            Width
DECAY   2000001     2.22667957E+02   # sdown_R decays
#          BR         NDA      ID1       ID2
     3.92964454E-03    2     1000022         1   # BR(~d_R -> ~chi_10 d)
     1.27989374E-05    2     1000023         1   # BR(~d_R -> ~chi_20 d)
     7.59835541E-03    2     1000025         1   # BR(~d_R -> ~chi_30 d)
     8.57256609E-10    2     1000035         1   # BR(~d_R -> ~chi_40 d)
     9.88459200E-01    2     1000021         1   # BR(~d_R -> ~g      d)
#
#         PDG            Width
DECAY   1000004     2.44061187E+02   # scharm_L decays
#          BR         NDA      ID1       ID2
     8.21014633E-04    2     1000022         4   # BR(~c_L -> ~chi_10 c)
     1.67979181E-05    2     1000023         4   # BR(~c_L -> ~chi_20 c)
     1.84305088E-03    2     1000025         4   # BR(~c_L -> ~chi_30 c)
     3.18091111E-02    2     1000035         4   # BR(~c_L -> ~chi_40 c)
     1.16089437E-04    2     1000024         3   # BR(~c_L -> ~chi_1+ s)
     6.36104157E-02    2     1000037         3   # BR(~c_L -> ~chi_2+ s)
     9.01783520E-01    2     1000021         4   # BR(~c_L -> ~g      c)
#
#         PDG            Width
DECAY   2000004     2.30372611E+02   # scharm_R decays
#          BR         NDA      ID1       ID2
     1.51926339E-02    2     1000022         4   # BR(~c_R -> ~chi_10 c)
     4.94827364E-05    2     1000023         4   # BR(~c_R -> ~chi_20 c)
     2.93764549E-02    2     1000025         4   # BR(~c_R -> ~chi_30 c)
     3.31418212E-09    2     1000035         4   # BR(~c_R -> ~chi_40 c)
     9.55381425E-01    2     1000021         4   # BR(~c_R -> ~g      c)
#
#         PDG            Width
DECAY   1000003     2.44064005E+02   # sstrange_L decays
#          BR         NDA      ID1       ID2
     9.74868333E-04    2     1000022         3   # BR(~s_L -> ~chi_10 s)
     5.64872071E-05    2     1000023         3   # BR(~s_L -> ~chi_20 s)
     1.62646110E-03    2     1000025         3   # BR(~s_L -> ~chi_30 s)
     3.18236712E-02    2     1000035         3   # BR(~s_L -> ~chi_40 s)
     3.20993087E-05    2    -1000024         4   # BR(~s_L -> ~chi_1- c)
     6.36552176E-02    2    -1000037         4   # BR(~s_L -> ~chi_2- c)
     9.01831195E-01    2     1000021         3   # BR(~s_L -> ~g      s)
#
#         PDG            Width
DECAY   2000003     2.22667957E+02   # sstrange_R decays
#          BR         NDA      ID1       ID2
     3.92964454E-03    2     1000022         3   # BR(~s_R -> ~chi_10 s)
     1.27989374E-05    2     1000023         3   # BR(~s_R -> ~chi_20 s)
     7.59835541E-03    2     1000025         3   # BR(~s_R -> ~chi_30 s)
     8.57256609E-10    2     1000035         3   # BR(~s_R -> ~chi_40 s)
     9.88459200E-01    2     1000021         3   # BR(~s_R -> ~g      s)
#
#         PDG            Width
DECAY   1000011     3.00607767E+01   # selectron_L decays
#          BR         NDA      ID1       ID2
     6.58414473E-02    2     1000022        11   # BR(~e_L -> ~chi_10 e-)
     3.90066134E-06    2     1000023        11   # BR(~e_L -> ~chi_20 e-)
     1.33775005E-01    2     1000025        11   # BR(~e_L -> ~chi_30 e-)
     2.66569833E-01    2     1000035        11   # BR(~e_L -> ~chi_40 e-)
     2.69652814E-04    2    -1000024        12   # BR(~e_L -> ~chi_1- nu_e)
     5.33540161E-01    2    -1000037        12   # BR(~e_L -> ~chi_2- nu_e)
#
#         PDG            Width
DECAY   2000011     2.39304201E+01   # selectron_R decays
#          BR         NDA      ID1       ID2
     3.40502513E-01    2     1000022        11   # BR(~e_R -> ~chi_10 e-)
     1.10901808E-03    2     1000023        11   # BR(~e_R -> ~chi_20 e-)
     6.58388395E-01    2     1000025        11   # BR(~e_R -> ~chi_30 e-)
     7.41171618E-08    2     1000035        11   # BR(~e_R -> ~chi_40 e-)
#
#         PDG            Width
DECAY   1000013     3.00607767E+01   # smuon_L decays
#          BR         NDA      ID1       ID2
     6.58414473E-02    2     1000022        13   # BR(~mu_L -> ~chi_10 mu-)
     3.90066134E-06    2     1000023        13   # BR(~mu_L -> ~chi_20 mu-)
     1.33775005E-01    2     1000025        13   # BR(~mu_L -> ~chi_30 mu-)
     2.66569833E-01    2     1000035        13   # BR(~mu_L -> ~chi_40 mu-)
     2.69652814E-04    2    -1000024        14   # BR(~mu_L -> ~chi_1- nu_mu)
     5.33540161E-01    2    -1000037        14   # BR(~mu_L -> ~chi_2- nu_mu)
#
#         PDG            Width
DECAY   2000013     2.39304201E+01   # smuon_R decays
#          BR         NDA      ID1       ID2
     3.40502513E-01    2     1000022        13   # BR(~mu_R -> ~chi_10 mu-)
     1.10901808E-03    2     1000023        13   # BR(~mu_R -> ~chi_20 mu-)
     6.58388395E-01    2     1000025        13   # BR(~mu_R -> ~chi_30 mu-)
     7.41171618E-08    2     1000035        13   # BR(~mu_R -> ~chi_40 mu-)
#
#         PDG            Width
DECAY   1000015     2.69704344E+01   # stau_1 decays
#          BR         NDA      ID1       ID2
     1.95778681E-01    2     1000022        15   # BR(~tau_1 -> ~chi_10  tau-)
     2.76003832E-04    2     1000023        15   # BR(~tau_1 -> ~chi_20  tau-)
     3.65671617E-01    2     1000025        15   # BR(~tau_1 -> ~chi_30  tau-)
     1.45969400E-01    2     1000035        15   # BR(~tau_1 -> ~chi_40  tau-)
     1.45882119E-04    2    -1000024        16   # BR(~tau_1 -> ~chi_1-  nu_tau)
     2.92157477E-01    2    -1000037        16   # BR(~tau_1 -> ~chi_2-  nu_tau)
     9.39569350E-07    2     1000039        15   # BR(~tau_1 -> ~G       tau-)
#
#         PDG            Width
DECAY   2000015     2.71140818E+01   # stau_2 decays
#          BR         NDA      ID1       ID2
     1.79572310E-01    2     1000022        15   # BR(~tau_2 -> ~chi_10  tau-)
     1.85268028E-03    2     1000023        15   # BR(~tau_2 -> ~chi_20  tau-)
     3.66015710E-01    2     1000025        15   # BR(~tau_2 -> ~chi_30  tau-)
     1.50344134E-01    2     1000035        15   # BR(~tau_2 -> ~chi_40  tau-)
     1.30059810E-03    2    -1000024        16   # BR(~tau_2 -> ~chi_1-  nu_tau)
     3.00914567E-01    2    -1000037        16   # BR(~tau_2 -> ~chi_2-  nu_tau)
#
#         PDG            Width
DECAY   1000012     3.00589402E+01   # snu_eL decays
#          BR         NDA      ID1       ID2
     6.97187020E-02    2     1000022        12   # BR(~nu_eL -> ~chi_10 nu_e)
     1.00413171E-03    2     1000023        12   # BR(~nu_eL -> ~chi_20 nu_e)
     1.28315965E-01    2     1000025        12   # BR(~nu_eL -> ~chi_30 nu_e)
     2.66795292E-01    2     1000035        12   # BR(~nu_eL -> ~chi_40 nu_e)
     9.75267142E-04    2     1000024        11   # BR(~nu_eL -> ~chi_1+ e-)
     5.33190643E-01    2     1000037        11   # BR(~nu_eL -> ~chi_2+ e-)
#
#         PDG            Width
DECAY   1000014     3.00589402E+01   # snu_muL decays
#          BR         NDA      ID1       ID2
     6.97187020E-02    2     1000022        14   # BR(~nu_muL -> ~chi_10 nu_mu)
     1.00413171E-03    2     1000023        14   # BR(~nu_muL -> ~chi_20 nu_mu)
     1.28315965E-01    2     1000025        14   # BR(~nu_muL -> ~chi_30 nu_mu)
     2.66795292E-01    2     1000035        14   # BR(~nu_muL -> ~chi_40 nu_mu)
     9.75267142E-04    2     1000024        13   # BR(~nu_muL -> ~chi_1+ mu-)
     5.33190643E-01    2     1000037        13   # BR(~nu_muL -> ~chi_2+ mu-)
#
#         PDG            Width
DECAY   1000016     3.00900381E+01   # snu_tauL decays
#          BR         NDA      ID1       ID2
     6.96466481E-02    2     1000022        16   # BR(~nu_tauL -> ~chi_10 nu_tau)
     1.00309395E-03    2     1000023        16   # BR(~nu_tauL -> ~chi_20 nu_tau)
     1.28183351E-01    2     1000025        16   # BR(~nu_tauL -> ~chi_30 nu_tau)
     2.66519560E-01    2     1000035        16   # BR(~nu_tauL -> ~chi_40 nu_tau)
     2.00769074E-03    2     1000024        15   # BR(~nu_tauL -> ~chi_1+ tau-)
     5.32639656E-01    2     1000037        15   # BR(~nu_tauL -> ~chi_2+ tau-)
#
#         PDG            Width
DECAY   1000024     2.10911902E-08   # chargino1+ decays
#          BR         NDA      ID1       ID2
     2.12815051E-02    2     1000039        24   # BR(~chi_1+ -> ~G       W+)
#           BR         NDA      ID1       ID2       ID3
     3.51620181E-01    3     1000022         2        -1   # BR(~chi_1+ -> ~chi_10 u    db)
     3.00942847E-01    3     1000022         4        -3   # BR(~chi_1+ -> ~chi_10 c    sb)
     1.17207414E-01    3     1000022       -11        12   # BR(~chi_1+ -> ~chi_10 e+   nu_e)
     1.17102416E-01    3     1000022       -13        14   # BR(~chi_1+ -> ~chi_10 mu+  nu_mu)
     9.18456367E-02    3     1000022       -15        16   # BR(~chi_1+ -> ~chi_10 tau+ nu_tau)
#
#         PDG            Width
DECAY   1000037     2.40334283E+01   # chargino2+ decays
#          BR         NDA      ID1       ID2
     1.49252025E-01    2     1000024        23   # BR(~chi_2+ -> ~chi_1+  Z )
     9.23042725E-02    2     1000022        24   # BR(~chi_2+ -> ~chi_10  W+)
     1.44988133E-01    2     1000023        24   # BR(~chi_2+ -> ~chi_20  W+)
     5.38251140E-02    2     1000025        24   # BR(~chi_2+ -> ~chi_30  W+)
     1.49715386E-01    2     1000024        25   # BR(~chi_2+ -> ~chi_1+  h )
     1.02172911E-01    2     1000024        35   # BR(~chi_2+ -> ~chi_1+  H )
     1.02773381E-01    2     1000024        36   # BR(~chi_2+ -> ~chi_1+  A )
     6.85261936E-02    2     1000022        37   # BR(~chi_2+ -> ~chi_10  H+)
     1.02302975E-01    2     1000023        37   # BR(~chi_2+ -> ~chi_20  H+)
     3.41395267E-02    2     1000025        37   # BR(~chi_2+ -> ~chi_30  H+)
     8.19924105E-08    2     1000039        24   # BR(~chi_2+ -> ~G       W+)
     1.50916561E-12    2     1000039        37   # BR(~chi_2+ -> ~G       H+)
#
#         PDG            Width
DECAY   1000022     1.0E-05   # neutralino1 decays
#          BR         NDA      ID1       ID2
     4.18441805E-01    2     1000039        22   # BR(~chi_10 -> ~G        gam)
     1.41247106E-01    2     1000039        23   # BR(~chi_10 -> ~G        Z)
     4.40311090E-01    2     1000039        25   # BR(~chi_10 -> ~G        h)
#
#         PDG            Width
DECAY   1000023     1.0E-05   # neutralino2 decays
#          BR         NDA      ID1       ID2
     1.19230799E-02    2     1000022        22   # BR(~chi_20 -> ~chi_10 gam)
#          BR         NDA      ID1       ID2
     8.60919461E-06    2     1000039        22   # BR(~chi_20 -> ~G        gam)
     1.10251031E-02    2     1000039        23   # BR(~chi_20 -> ~G        Z)
     4.02838505E-04    2     1000039        25   # BR(~chi_20 -> ~G        h)
#           BR         NDA      ID1       ID2       ID3
     1.38593118E-01    3     1000022        -2         2   # BR(~chi_20 -> ~chi_10 ub      u)
     1.79429025E-01    3     1000022        -1         1   # BR(~chi_20 -> ~chi_10 db      d)
     1.19355247E-01    3     1000022        -4         4   # BR(~chi_20 -> ~chi_10 cb      c)
     1.78834305E-01    3     1000022        -3         3   # BR(~chi_20 -> ~chi_10 sb      s)
     4.09655036E-02    3     1000022       -11        11   # BR(~chi_20 -> ~chi_10 e+      e-)
     4.09392433E-02    3     1000022       -13        13   # BR(~chi_20 -> ~chi_10 mu+     mu-)
     3.28270111E-02    3     1000022       -15        15   # BR(~chi_20 -> ~chi_10 tau+    tau-)
     8.18035343E-02    3     1000022       -12        12   # BR(~chi_20 -> ~chi_10 nu_eb   nu_e)
     8.18035343E-02    3     1000022       -14        14   # BR(~chi_20 -> ~chi_10 nu_mub  nu_mu)
     8.18035343E-02    3     1000022       -16        16   # BR(~chi_20 -> ~chi_10 nu_taub nu_tau)
     8.62846329E-05    3     1000024        -2         1   # BR(~chi_20 -> ~chi_1+ ub      d)
     8.62846329E-05    3    -1000024        -1         2   # BR(~chi_20 -> ~chi_1- db      u)
     2.87615468E-05    3     1000024       -12        11   # BR(~chi_20 -> ~chi_1+ nu_eb   e-)
     2.87615468E-05    3    -1000024        12       -11   # BR(~chi_20 -> ~chi_1- nu_e    e+)
     2.81107228E-05    3     1000024       -14        13   # BR(~chi_20 -> ~chi_1+ nu_mub  mu-)
     2.81107228E-05    3    -1000024        14       -13   # BR(~chi_20 -> ~chi_1- nu_mu   mu+)
#
#         PDG            Width
DECAY   1000025     1.0E-05   # neutralino3 decays
#          BR         NDA      ID1       ID2
     8.89660497E-01    2     1000022        22   # BR(~chi_30 -> ~chi_10 gam)
     2.01927605E-02    2     1000023        22   # BR(~chi_30 -> ~chi_20 gam)
#          BR         NDA      ID1       ID2
     4.42413994E-04    2     1000039        22   # BR(~chi_30 -> ~G        gam)
     1.33967752E-04    2     1000039        23   # BR(~chi_30 -> ~G        Z)
     1.26627266E-04    2     1000039        25   # BR(~chi_30 -> ~G        h)
#           BR         NDA      ID1       ID2       ID3
     5.84726213E-05    3     1000022        -2         2   # BR(~chi_30 -> ~chi_10 ub      u)
     7.64793924E-05    3     1000022        -1         1   # BR(~chi_30 -> ~chi_10 db      d)
     5.40358711E-05    3     1000022        -4         4   # BR(~chi_30 -> ~chi_10 cb      c)
     7.63833098E-05    3     1000022        -3         3   # BR(~chi_30 -> ~chi_10 sb      s)
     3.16722498E-05    3     1000022        -5         5   # BR(~chi_30 -> ~chi_10 bb      b)
     1.80774183E-05    3     1000022       -11        11   # BR(~chi_30 -> ~chi_10 e+      e-)
     1.80684814E-05    3     1000022       -13        13   # BR(~chi_30 -> ~chi_10 mu+     mu-)
     1.57465554E-05    3     1000022       -15        15   # BR(~chi_30 -> ~chi_10 tau+    tau-)
     3.45460827E-05    3     1000022       -12        12   # BR(~chi_30 -> ~chi_10 nu_eb   nu_e)
     3.45460827E-05    3     1000022       -14        14   # BR(~chi_30 -> ~chi_10 nu_mub  nu_mu)
     3.45460827E-05    3     1000022       -16        16   # BR(~chi_30 -> ~chi_10 nu_taub nu_tau)
     1.76159072E-03    3     1000023        -2         2   # BR(~chi_30 -> ~chi_20 ub      u)
     2.28067117E-03    3     1000023        -1         1   # BR(~chi_30 -> ~chi_20 db      d)
     1.48652400E-03    3     1000023        -4         4   # BR(~chi_30 -> ~chi_20 cb      c)
     2.27216587E-03    3     1000023        -3         3   # BR(~chi_30 -> ~chi_20 sb      s)
     5.20718867E-04    3     1000023       -11        11   # BR(~chi_30 -> ~chi_20 e+      e-)
     5.20343738E-04    3     1000023       -13        13   # BR(~chi_30 -> ~chi_20 mu+     mu-)
     4.03873436E-04    3     1000023       -15        15   # BR(~chi_30 -> ~chi_20 tau+    tau-)
     1.03974844E-03    3     1000023       -12        12   # BR(~chi_30 -> ~chi_20 nu_eb   nu_e)
     1.03974844E-03    3     1000023       -14        14   # BR(~chi_30 -> ~chi_20 nu_mub  nu_mu)
     1.03974844E-03    3     1000023       -16        16   # BR(~chi_30 -> ~chi_20 nu_taub nu_tau)
     1.33458609E-02    3     1000024        -2         1   # BR(~chi_30 -> ~chi_1+ ub      d)
     1.33458609E-02    3    -1000024        -1         2   # BR(~chi_30 -> ~chi_1- db      u)
     1.22052551E-02    3     1000024        -4         3   # BR(~chi_30 -> ~chi_1+ cb      s)
     1.22052551E-02    3    -1000024        -3         4   # BR(~chi_30 -> ~chi_1- sb      c)
     4.44856669E-03    3     1000024       -12        11   # BR(~chi_30 -> ~chi_1+ nu_eb   e-)
     4.44856669E-03    3    -1000024        12       -11   # BR(~chi_30 -> ~chi_1- nu_e    e+)
     4.44629504E-03    3     1000024       -14        13   # BR(~chi_30 -> ~chi_1+ nu_mub  mu-)
     4.44629504E-03    3    -1000024        14       -13   # BR(~chi_30 -> ~chi_1- nu_mu   mu+)
     3.86703525E-03    3     1000024       -16        15   # BR(~chi_30 -> ~chi_1+ nu_taub tau-)
     3.86703525E-03    3    -1000024        16       -15   # BR(~chi_30 -> ~chi_1- nu_tau  tau+)
#
#         PDG            Width
DECAY   1000035     2.40337830E+01   # neutralino4 decays
#          BR         NDA      ID1       ID2
     8.88311390E-02    2     1000022        23   # BR(~chi_40 -> ~chi_10   Z )
     1.31193624E-02    2     1000023        23   # BR(~chi_40 -> ~chi_20   Z )
     4.74952435E-02    2     1000025        23   # BR(~chi_40 -> ~chi_30   Z )
     1.45360303E-01    2     1000024       -24   # BR(~chi_40 -> ~chi_1+   W-)
     1.45360303E-01    2    -1000024        24   # BR(~chi_40 -> ~chi_1-   W+)
     5.86112212E-03    2     1000022        25   # BR(~chi_40 -> ~chi_10   h )
     6.76861499E-02    2     1000022        35   # BR(~chi_40 -> ~chi_10   H )
     6.15283174E-04    2     1000022        36   # BR(~chi_40 -> ~chi_10   A )
     1.36349031E-01    2     1000023        25   # BR(~chi_40 -> ~chi_20   h )
     6.33450399E-04    2     1000023        35   # BR(~chi_40 -> ~chi_20   H )
     1.01886500E-01    2     1000023        36   # BR(~chi_40 -> ~chi_20   A )
     7.71290441E-03    2     1000025        25   # BR(~chi_40 -> ~chi_30   h )
     3.39297787E-02    2     1000025        35   # BR(~chi_40 -> ~chi_30   H )
     1.04675924E-04    2     1000025        36   # BR(~chi_40 -> ~chi_30   A )
     1.02527336E-01    2     1000024       -37   # BR(~chi_40 -> ~chi_1+   H-)
     1.02527336E-01    2    -1000024        37   # BR(~chi_40 -> ~chi_1-   H+)
     1.97021461E-08    2     1000039        22   # BR(~chi_40 -> ~G        gam)
     6.22818107E-08    2     1000039        23   # BR(~chi_40 -> ~G        Z)
     4.57324095E-12    2     1000039        25   # BR(~chi_40 -> ~G        h)
     1.48173534E-12    2     1000039        35   # BR(~chi_40 -> ~G        H)
     2.08140290E-14    2     1000039        36   # BR(~chi_40 -> ~G        A)
#
#         PDG            Width
DECAY        25     4.08024544E-03   # h decays
#          BR         NDA      ID1       ID2
     6.17217668E-01    2           5        -5   # BR(h -> b       bb     )
     6.38327923E-02    2         -15        15   # BR(h -> tau+    tau-   )
     2.25944575E-04    2         -13        13   # BR(h -> mu+     mu-    )
     4.78797060E-04    2           3        -3   # BR(h -> s       sb     )
     2.06567140E-02    2           4        -4   # BR(h -> c       cb     )
     6.70736278E-02    2          21        21   # BR(h -> g       g      )
     2.29859881E-03    2          22        22   # BR(h -> gam     gam    )
     1.53947186E-03    2          22        23   # BR(h -> Z       gam    )
     2.01025073E-01    2          24       -24   # BR(h -> W+      W-     )
     2.56513129E-02    2          23        23   # BR(h -> Z       Z      )
#
#         PDG            Width
DECAY        35     3.88974158E+01   # H decays
#          BR         NDA      ID1       ID2
     1.43698712E-03    2           5        -5   # BR(H -> b       bb     )
     2.39556275E-04    2         -15        15   # BR(H -> tau+    tau-   )
     8.46920620E-07    2         -13        13   # BR(H -> mu+     mu-    )
     1.08435810E-06    2           3        -3   # BR(H -> s       sb     )
     9.78584601E-06    2           4        -4   # BR(H -> c       cb     )
     9.68267710E-01    2           6        -6   # BR(H -> t       tb     )
     7.75384222E-04    2          21        21   # BR(H -> g       g      )
     2.62201053E-06    2          22        22   # BR(H -> gam     gam    )
     1.12721700E-06    2          23        22   # BR(H -> Z       gam    )
     3.24077698E-04    2          24       -24   # BR(H -> W+      W-     )
     1.61596883E-04    2          23        23   # BR(H -> Z       Z      )
     8.79714671E-04    2          25        25   # BR(H -> h       h      )
     8.53325157E-24    2          36        36   # BR(H -> A       A      )
     3.37793846E-11    2          23        36   # BR(H -> Z       A      )
     4.32166100E-12    2          24       -37   # BR(H -> W+      H-     )
     4.32166100E-12    2         -24        37   # BR(H -> W-      H+     )
     4.31195645E-05    2     1000024  -1000024   # BR(H -> ~chi_1+ ~chi_1-)
     1.25039023E-02    2     1000022   1000022   # BR(H -> ~chi_10 ~chi_10)
     1.08160155E-05    2     1000023   1000023   # BR(H -> ~chi_20 ~chi_20)
     1.08467926E-02    2     1000025   1000025   # BR(H -> ~chi_30 ~chi_30)
     1.46948589E-04    2     1000022   1000023   # BR(H -> ~chi_10 ~chi_20)
     2.54196506E-03    2     1000022   1000025   # BR(H -> ~chi_10 ~chi_30)
     1.80596277E-03    2     1000023   1000025   # BR(H -> ~chi_20 ~chi_30)
#
#         PDG            Width
DECAY        36     3.93298238E+01   # A decays
#          BR         NDA      ID1       ID2
     1.43994968E-03    2           5        -5   # BR(A -> b       bb     )
     2.37128354E-04    2         -15        15   # BR(A -> tau+    tau-   )
     8.38334393E-07    2         -13        13   # BR(A -> mu+     mu-    )
     1.10522287E-06    2           3        -3   # BR(A -> s       sb     )
     9.68527666E-06    2           4        -4   # BR(A -> c       cb     )
     9.69324429E-01    2           6        -6   # BR(A -> t       tb     )
     9.17483988E-04    2          21        21   # BR(A -> g       g      )
     3.12651829E-06    2          22        22   # BR(A -> gam     gam    )
     1.31458112E-06    2          23        22   # BR(A -> Z       gam    )
     3.15877425E-04    2          23        25   # BR(A -> Z       h      )
     3.20776158E-04    2     1000024  -1000024   # BR(A -> ~chi_1+ ~chi_1-)
     1.04644650E-03    2     1000022   1000022   # BR(A -> ~chi_10 ~chi_10)
     4.75772452E-04    2     1000023   1000023   # BR(A -> ~chi_20 ~chi_20)
     4.59349976E-04    2     1000025   1000025   # BR(A -> ~chi_30 ~chi_30)
     8.65349435E-03    2     1000022   1000023   # BR(A -> ~chi_10 ~chi_20)
     3.85017443E-04    2     1000022   1000025   # BR(A -> ~chi_10 ~chi_30)
     1.64082044E-02    2     1000023   1000025   # BR(A -> ~chi_20 ~chi_30)
#
#         PDG            Width
DECAY        37     3.85311509E+01   # H+ decays
#          BR         NDA      ID1       ID2
     2.31340628E-06    2           4        -5   # BR(H+ -> c       bb     )
     2.42266728E-04    2         -15        16   # BR(H+ -> tau+    nu_tau )
     8.56500397E-07    2         -13        14   # BR(H+ -> mu+     nu_mu  )
     1.47087096E-08    2           2        -5   # BR(H+ -> u       bb     )
     5.30419912E-08    2           2        -3   # BR(H+ -> u       sb     )
     1.05688172E-05    2           4        -3   # BR(H+ -> c       sb     )
     9.71442248E-01    2           6        -5   # BR(H+ -> t       bb     )
     3.23777404E-04    2          24        25   # BR(H+ -> W+      h      )
     7.27857292E-13    2          24        36   # BR(H+ -> W+      A      )
     9.17598342E-03    2     1000024   1000022   # BR(H+ -> ~chi_1+ ~chi_10)
     4.40624514E-05    2     1000024   1000023   # BR(H+ -> ~chi_1+ ~chi_20)
     1.87578554E-02    2     1000024   1000025   # BR(H+ -> ~chi_1+ ~chi_30)
