#
#                              ======================
#                              | THE SUSYHIT OUTPUT |
#                              ======================
#
#
#              ------------------------------------------------------
#              |     This is the output of the SUSY-HIT package     |
#              |  created by A.Djouadi, M.Muehlleitner and M.Spira. |
#              |  In case of problems with SUSY-HIT email to        |
#              |           margarete.muehlleitner@kit.edu           |
#              |           michael.spira@psi.ch                     |
#              |           abdelhak.djouadi@cern.ch                 |
#              ------------------------------------------------------
#
#              ------------------------------------------------------
#              |  SUSY Les Houches Accord - MSSM Spectrum + Decays  |
#              |              based on the decay programs           |
#              |                                                    |
#              |                     SDECAY 1.5a                    |
#              |                                                    |
#              |  Authors: M.Muhlleitner, A.Djouadi and Y.Mambrini  |
#              |  Ref.:    Comput.Phys.Commun.168(2005)46           |
#              |           [hep-ph/0311167]                         |
#              |                                                    |
#              |                     HDECAY 3.4                     |
#              |                                                    |
#              |  By: A.Djouadi,J.Kalinowski,M.Muhlleitner,M.Spira  |
#              |  Ref.:    Comput.Phys.Commun.108(1998)56           |
#              |           [hep-ph/9704448]                         |
#              |                                                    |
#              |                                                    |
#              |  If not stated otherwise all DRbar couplings and   |
#              |  soft SUSY breaking masses are given at the scale  |
#              |  Q=  0.91187600E+02
#              |                                                    |
#              ------------------------------------------------------
#
#
BLOCK DCINFO  # Decay Program information
     1   SDECAY/HDECAY # decay calculator
     2   1.5a /3.4    # version number
#
BLOCK SPINFO  # Spectrum calculator information
     1   SuSpect     # RGE +Spectrum calculator            
     2   2.43         # version number                     
#
BLOCK MODSEL  # Model selection
     1     2   # GMSB                                              
#
BLOCK SMINPUTS  # Standard Model inputs
         1     1.27932904E+02   # alpha_em^-1(M_Z)^MSbar
         2     1.16639000E-05   # G_F [GeV^-2]
         3     1.17200000E-01   # alpha_S(M_Z)^MSbar
         4     9.11870000E+01   # M_Z pole mass
         5     4.25000000E+00   # mb(mb)^MSbar
         6     1.72900000E+02   # mt pole mass
         7     1.77700000E+00   # mtau pole mass
#
BLOCK MINPAR  # Input parameters - minimal models
#
BLOCK EXTPAR  # Input parameters - non-minimal models
         0     9.11876000E+01   # EWSB                
         1     6.54299572E+02   # M_1                 
         2     3.00000000E+03   # M_2                 
         3     2.40000000E+03   # M_3                 
        11     0.00000000E+00   # A_t                 
        12     0.00000000E+00   # A_b                 
        13     0.00000000E+00   # A_tau               
        14     0.00000000E+00   # A_u                 
        15     0.00000000E+00   # A_d                 
        16     0.00000000E+00   # A_e                 
        23    -6.50000000E+02   # mu(EWSB)            
        25     1.50000000E+00   # tanbeta(in)         
        26     2.00000000E+03   # MA_pole             
        31     5.00000000E+03   # M_eL                
        32     5.00000000E+03   # M_muL               
        33     5.00000000E+03   # M_tauL              
        34     5.00000000E+03   # M_eR                
        35     5.00000000E+03   # M_muR               
        36     5.00000000E+03   # M_tauR              
        41     5.00000000E+03   # M_q1L               
        42     5.00000000E+03   # M_q2L               
        43     5.00000000E+03   # M_q3L               
        44     5.00000000E+03   # M_uR                
        45     5.00000000E+03   # M_cR                
        46     5.00000000E+03   # M_tR                
        47     5.00000000E+03   # M_dR                
        48     5.00000000E+03   # M_sR                
        49     5.00000000E+03   # M_bR                
#
BLOCK MASS  # Mass Spectrum
# PDG code           mass       particle
        24     8.05396370E+01   # W+
        25     1.25000000E+02   # h
        35     2.00414756E+03   # H
        36     2.00000000E+03   # A
        37     2.00183353E+03   # H+
         5     4.87877839E+00   # b-quark pole mass calculated from mb(mb)_Msbar
   1000001     5.00013280E+03   # ~d_L
   2000001     5.00002530E+03   # ~d_R
   1000002     4.99989250E+03   # ~u_L
   2000002     4.99994939E+03   # ~u_R
   1000003     5.00013280E+03   # ~s_L
   2000003     5.00002530E+03   # ~s_R
   1000004     4.99989250E+03   # ~c_L
   2000004     4.99994939E+03   # ~c_R
   1000005     4.99981178E+03   # ~b_1
   2000005     5.00034777E+03   # ~b_2
   1000006     4.99563991E+03   # ~t_1
   2000006     5.00882633E+03   # ~t_2
   1000011     5.00008220E+03   # ~e_L
   2000011     5.00007591E+03   # ~e_R
   1000012     4.99984189E+03   # ~nu_eL
   1000013     5.00008220E+03   # ~mu_L
   2000013     5.00007591E+03   # ~mu_R
   1000014     4.99984189E+03   # ~nu_muL
   1000015     4.99990615E+03   # ~tau_1
   2000015     5.00025258E+03   # ~tau_2
   1000016     4.99984189E+03   # ~nu_tauL
   1000021     2.40000000E+03   # ~g
   1000022     6.43654168E+02   # ~chi_10
   1000023    -6.53096388E+02   # ~chi_20
   1000025     6.61994062E+02   # ~chi_30
   1000035     3.00174773E+03   # ~chi_40
   1000024     6.51542931E+02   # ~chi_1+
   1000037     3.00174744E+03   # ~chi_2+
   1000039     1.19148737E-08   # ~gravitino
#
BLOCK NMIX  # Neutralino Mixing Matrix
  1  1     5.83152588E-01   # N_11
  1  2    -4.68743491E-03   # N_12
  1  3    -5.88329250E-01   # N_13
  1  4    -5.60160495E-01   # N_14
  2  1     3.32979117E-02   # N_21
  2  2    -2.12027857E-02   # N_22
  2  3     7.06219761E-01   # N_23
  2  4    -7.06891321E-01   # N_24
  3  1     8.11679822E-01   # N_31
  3  2     4.75279294E-03   # N_32
  3  3     3.93719792E-01   # N_33
  3  4     4.31437137E-01   # N_34
  4  1     4.18351216E-04   # N_41
  4  2    -9.99752910E-01   # N_42
  4  3    -1.03473593E-02   # N_43
  4  4     1.96691725E-02   # N_44
#
BLOCK UMIX  # Chargino Mixing Matrix U
  1  1    -1.46259190E-02   # U_11
  1  2     9.99893036E-01   # U_12
  2  1     9.99893036E-01   # U_21
  2  2     1.46259190E-02   # U_22
#
BLOCK VMIX  # Chargino Mixing Matrix V
  1  1     2.78150841E-02   # V_11
  1  2    -9.99613086E-01   # V_12
  2  1     9.99613086E-01   # V_21
  2  2     2.78150841E-02   # V_22
#
BLOCK STOPMIX  # Stop Mixing Matrix
  1  1     7.08629887E-01   # cos(theta_t)
  1  2    -7.05580388E-01   # sin(theta_t)
  2  1     7.05580388E-01   # -sin(theta_t)
  2  2     7.08629887E-01   # cos(theta_t)
#
BLOCK SBOTMIX  # Sbottom Mixing Matrix
  1  1    -6.32233475E-01   # cos(theta_b)
  1  2     7.74777925E-01   # sin(theta_b)
  2  1    -7.74777925E-01   # -sin(theta_b)
  2  2    -6.32233475E-01   # cos(theta_b)
#
BLOCK STAUMIX  # Stau Mixing Matrix
  1  1    -7.00661729E-01   # cos(theta_tau)
  1  2     7.13493617E-01   # sin(theta_tau)
  2  1    -7.13493617E-01   # -sin(theta_tau)
  2  2    -7.00661729E-01   # cos(theta_tau)
#
BLOCK ALPHA  # Higgs mixing
          -5.90204623E-01   # Mixing angle in the neutral Higgs boson sector
#
BLOCK HMIX Q=  9.11876000E+01  # DRbar Higgs Parameters
         1    -6.50000000E+02   # mu(Q)               
         2     1.49999979E+00   # tanbeta(Q)          
         3     2.51782527E+02   # vev(Q)              
         4     4.21050408E+06   # MA^2(Q)             
#
BLOCK GAUGE Q=  9.11876000E+01  # The gauge couplings
     1     3.52892661E-01   # gprime(Q) DRbar
     2     6.27874068E-01   # g(Q) DRbar
     3     1.07754364E+00   # g3(Q) DRbar
#
BLOCK AU Q=  9.11876000E+01  # The trilinear couplings
  1  1     0.00000000E+00   # A_u(Q) DRbar
  2  2     0.00000000E+00   # A_c(Q) DRbar
  3  3     0.00000000E+00   # A_t(Q) DRbar
#
BLOCK AD Q=  9.11876000E+01  # The trilinear couplings
  1  1     0.00000000E+00   # A_d(Q) DRbar
  2  2     0.00000000E+00   # A_s(Q) DRbar
  3  3     0.00000000E+00   # A_b(Q) DRbar
#
BLOCK AE Q=  9.11876000E+01  # The trilinear couplings
  1  1     0.00000000E+00   # A_e(Q) DRbar
  2  2     0.00000000E+00   # A_mu(Q) DRbar
  3  3     0.00000000E+00   # A_tau(Q) DRbar
#
BLOCK Yu Q=  9.11876000E+01  # The Yukawa couplings
  1  1     0.00000000E+00   # y_u(Q) DRbar
  2  2     0.00000000E+00   # y_c(Q) DRbar
  3  3     1.02755347E+00   # y_t(Q) DRbar
#
BLOCK Yd Q=  9.11876000E+01  # The Yukawa couplings
  1  1     0.00000000E+00   # y_d(Q) DRbar
  2  2     0.00000000E+00   # y_s(Q) DRbar
  3  3     2.72674572E-02   # y_b(Q) DRbar
#
BLOCK Ye Q=  9.11876000E+01  # The Yukawa couplings
  1  1     0.00000000E+00   # y_e(Q) DRbar
  2  2     0.00000000E+00   # y_mu(Q) DRbar
  3  3     1.79863592E-02   # y_tau(Q) DRbar
#
BLOCK MSOFT Q=  9.11876000E+01  # The soft SUSY breaking masses at the scale Q
         1     6.54299572E+02   # M_1                 
         2     3.00000000E+03   # M_2                 
         3     2.40000000E+03   # M_3                 
        14     0.00000000E+00   # A_u                 
        15     0.00000000E+00   # A_d                 
        16     0.00000000E+00   # A_e                 
        21     2.58791877E+06   # M^2_Hd              
        22    -5.75303774E+06   # M^2_Hu              
        31     5.00000000E+03   # M_eL                
        32     5.00000000E+03   # M_muL               
        33     5.00000000E+03   # M_tauL              
        34     5.00000000E+03   # M_eR                
        35     5.00000000E+03   # M_muR               
        36     5.00000000E+03   # M_tauR              
        41     5.00000000E+03   # M_q1L               
        42     5.00000000E+03   # M_q2L               
        43     5.00000000E+03   # M_q3L               
        44     5.00000000E+03   # M_uR                
        45     5.00000000E+03   # M_cR                
        46     5.00000000E+03   # M_tR                
        47     5.00000000E+03   # M_dR                
        48     5.00000000E+03   # M_sR                
        49     5.00000000E+03   # M_bR                
#
#
#
#                             =================
#                             |The decay table|
#                             =================
#
# - The QCD corrections to the decays gluino -> squark  + quark
#                                     squark -> gaugino + quark_prime
#                                     squark -> squark_prime + Higgs
#                                     squark -> gluino  + quark
#   are included.
#
# - The multi-body decays for the inos, stops and sbottoms are included.
#
# - The loop induced decays for the gluino, neutralinos and stops
#   are included.
#
# - The SUSY decays of the top quark are included.
#
# - Possible decays of the NLSP in GMSB models are included.
#
#
#         PDG            Width
DECAY         6     1.37360294E+00   # top decays
#          BR         NDA      ID1       ID2
     1.00000000E+00    2           5        24   # BR(t ->  b    W+)
#
#         PDG            Width
DECAY   1000021     7.39359330E-03   # gluino decays
#          BR         NDA      ID1       ID2
     4.13097765E-03    2     1000022        21   # BR(~g -> ~chi_10 g)
     6.49463704E-03    2     1000023        21   # BR(~g -> ~chi_20 g)
     2.40986019E-03    2     1000025        21   # BR(~g -> ~chi_30 g)
#          BR         NDA      ID1       ID2
     0.00000000E+00    2     1000039        21   # BR(~g -> ~G      g)
#           BR         NDA      ID1       ID2       ID3
     2.50062205E-03    3     1000022         1        -1   # BR(~g -> ~chi_10 d  db)
     1.84155447E-05    3     1000023         1        -1   # BR(~g -> ~chi_20 d  db)
     4.59155146E-03    3     1000025         1        -1   # BR(~g -> ~chi_30 d  db)
     8.31512965E-03    3     1000022         2        -2   # BR(~g -> ~chi_10 u  ub)
     1.71602123E-05    3     1000023         2        -2   # BR(~g -> ~chi_20 u  ub)
     1.58662379E-02    3     1000025         2        -2   # BR(~g -> ~chi_30 u  ub)
     2.50062205E-03    3     1000022         3        -3   # BR(~g -> ~chi_10 s  sb)
     1.84155447E-05    3     1000023         3        -3   # BR(~g -> ~chi_20 s  sb)
     4.59155146E-03    3     1000025         3        -3   # BR(~g -> ~chi_30 s  sb)
     8.31512965E-03    3     1000022         4        -4   # BR(~g -> ~chi_10 c  cb)
     1.71602123E-05    3     1000023         4        -4   # BR(~g -> ~chi_20 c  cb)
     1.58662379E-02    3     1000025         4        -4   # BR(~g -> ~chi_30 c  cb)
     2.63416606E-03    3     1000022         5        -5   # BR(~g -> ~chi_10 b  bb)
     1.88923343E-04    3     1000023         5        -5   # BR(~g -> ~chi_20 b  bb)
     4.63239090E-03    3     1000025         5        -5   # BR(~g -> ~chi_30 b  bb)
     1.35612599E-01    3     1000022         6        -6   # BR(~g -> ~chi_10 t  tb)
     2.11234967E-01    3     1000023         6        -6   # BR(~g -> ~chi_20 t  tb)
     1.08940518E-01    3     1000025         6        -6   # BR(~g -> ~chi_30 t  tb)
     2.18567877E-05    3     1000024         1        -2   # BR(~g -> ~chi_1+ d  ub)
     2.18567877E-05    3    -1000024         2        -1   # BR(~g -> ~chi_1- u  db)
     2.18567877E-05    3     1000024         3        -4   # BR(~g -> ~chi_1+ s  cb)
     2.18567877E-05    3    -1000024         4        -3   # BR(~g -> ~chi_1- c  sb)
     2.30463981E-01    3     1000024         5        -6   # BR(~g -> ~chi_1+ b  tb)
     2.30463981E-01    3    -1000024         6        -5   # BR(~g -> ~chi_1- t  bb)
#
#         PDG            Width
DECAY   1000006     2.73030288E+02   # stop1 decays
#          BR         NDA      ID1       ID2
     6.24947365E-02    2     1000022         6   # BR(~t_1 -> ~chi_10 t )
     1.22704338E-01    2     1000023         6   # BR(~t_1 -> ~chi_20 t )
     8.66717193E-02    2     1000025         6   # BR(~t_1 -> ~chi_30 t )
     1.52953738E-02    2     1000035         6   # BR(~t_1 -> ~chi_40 t )
     1.22811723E-01    2     1000024         5   # BR(~t_1 -> ~chi_1+ b )
     3.05428940E-02    2     1000037         5   # BR(~t_1 -> ~chi_2+ b )
     5.59479215E-01    2     1000021         6   # BR(~t_1 -> ~g      t )
#
#         PDG            Width
DECAY   2000006     2.87494866E+02   # stop2 decays
#          BR         NDA      ID1       ID2
     1.05805743E-01    2     1000022         6   # BR(~t_2 -> ~chi_10 t )
     1.26343528E-01    2     1000023         6   # BR(~t_2 -> ~chi_20 t )
     3.32149152E-02    2     1000025         6   # BR(~t_2 -> ~chi_30 t )
     1.25910670E-02    2     1000035         6   # BR(~t_2 -> ~chi_40 t )
     1.26728817E-01    2     1000024         5   # BR(~t_2 -> ~chi_1+ b )
     2.51311485E-02    2     1000037         5   # BR(~t_2 -> ~chi_2+ b )
     5.70184781E-01    2     1000021         6   # BR(~t_2 -> ~g      t )
#
#         PDG            Width
DECAY   1000005     2.06872028E+02   # sbottom1 decays
#          BR         NDA      ID1       ID2
     3.74652391E-03    2     1000022         5   # BR(~b_1 -> ~chi_10 b )
     2.46255494E-05    2     1000023         5   # BR(~b_1 -> ~chi_20 b )
     4.34874281E-03    2     1000025         5   # BR(~b_1 -> ~chi_30 b )
     1.80067550E-02    2     1000035         5   # BR(~b_1 -> ~chi_40 b )
     1.72394341E-01    2    -1000024         6   # BR(~b_1 -> ~chi_1- t )
     3.60802017E-02    2    -1000037         6   # BR(~b_1 -> ~chi_2- t )
     7.65398810E-01    2     1000021         5   # BR(~b_1 -> ~g      b )
#
#         PDG            Width
DECAY   2000005     2.06508547E+02   # sbottom2 decays
#          BR         NDA      ID1       ID2
     1.77512527E-03    2     1000022         5   # BR(~b_2 -> ~chi_10 b )
     2.92897853E-04    2     1000023         5   # BR(~b_2 -> ~chi_20 b )
     5.78343798E-03    2     1000025         5   # BR(~b_2 -> ~chi_30 b )
     1.95731290E-02    2     1000035         5   # BR(~b_2 -> ~chi_40 b )
     1.65447825E-01    2    -1000024         6   # BR(~b_2 -> ~chi_1- t )
     3.92136517E-02    2    -1000037         6   # BR(~b_2 -> ~chi_2- t )
     7.67913933E-01    2     1000021         5   # BR(~b_2 -> ~g      b )
#
#         PDG            Width
DECAY   1000002     1.82416239E+02   # sup_L decays
#          BR         NDA      ID1       ID2
     1.09309514E-03    2     1000022         2   # BR(~u_L -> ~chi_10 u)
     2.23659419E-05    2     1000023         2   # BR(~u_L -> ~chi_20 u)
     2.45390849E-03    2     1000025         2   # BR(~u_L -> ~chi_30 u)
     4.25602085E-02    2     1000035         2   # BR(~u_L -> ~chi_40 u)
     1.54569538E-04    2     1000024         1   # BR(~u_L -> ~chi_1+ d)
     8.51099716E-02    2     1000037         1   # BR(~u_L -> ~chi_2+ d)
     8.68605881E-01    2     1000021         2   # BR(~u_L -> ~g      u)
#
#         PDG            Width
DECAY   2000002     1.68680642E+02   # sup_R decays
#          BR         NDA      ID1       ID2
     2.06476737E-02    2     1000022         2   # BR(~u_R -> ~chi_10 u)
     6.72540565E-05    2     1000023         2   # BR(~u_R -> ~chi_20 u)
     3.99254749E-02    2     1000025         2   # BR(~u_R -> ~chi_30 u)
     4.52689526E-09    2     1000035         2   # BR(~u_R -> ~chi_40 u)
     9.39359593E-01    2     1000021         2   # BR(~u_R -> ~g      u)
#
#         PDG            Width
DECAY   1000001     1.82421741E+02   # sdown_L decays
#          BR         NDA      ID1       ID2
     1.29791502E-03    2     1000022         1   # BR(~d_L -> ~chi_10 d)
     7.52099307E-05    2     1000023         1   # BR(~d_L -> ~chi_20 d)
     2.16548562E-03    2     1000025         1   # BR(~d_L -> ~chi_30 d)
     4.25788981E-02    2     1000035         1   # BR(~d_L -> ~chi_40 d)
     4.27384769E-05    2    -1000024         2   # BR(~d_L -> ~chi_1- u)
     8.51683334E-02    2    -1000037         2   # BR(~d_L -> ~chi_2- u)
     8.68671420E-01    2     1000021         1   # BR(~d_L -> ~g      d)
#
#         PDG            Width
DECAY   2000001     1.61014324E+02   # sdown_R decays
#          BR         NDA      ID1       ID2
     5.40778002E-03    2     1000022         1   # BR(~d_R -> ~chi_10 d)
     1.76143404E-05    2     1000023         1   # BR(~d_R -> ~chi_20 d)
     1.04567808E-02    2     1000025         1   # BR(~d_R -> ~chi_30 d)
     1.18566647E-09    2     1000035         1   # BR(~d_R -> ~chi_40 d)
     9.84117824E-01    2     1000021         1   # BR(~d_R -> ~g      d)
#
#         PDG            Width
DECAY   1000004     1.82416239E+02   # scharm_L decays
#          BR         NDA      ID1       ID2
     1.09309514E-03    2     1000022         4   # BR(~c_L -> ~chi_10 c)
     2.23659419E-05    2     1000023         4   # BR(~c_L -> ~chi_20 c)
     2.45390849E-03    2     1000025         4   # BR(~c_L -> ~chi_30 c)
     4.25602085E-02    2     1000035         4   # BR(~c_L -> ~chi_40 c)
     1.54569538E-04    2     1000024         3   # BR(~c_L -> ~chi_1+ s)
     8.51099716E-02    2     1000037         3   # BR(~c_L -> ~chi_2+ s)
     8.68605881E-01    2     1000021         4   # BR(~c_L -> ~g      c)
#
#         PDG            Width
DECAY   2000004     1.68680642E+02   # scharm_R decays
#          BR         NDA      ID1       ID2
     2.06476737E-02    2     1000022         4   # BR(~c_R -> ~chi_10 c)
     6.72540565E-05    2     1000023         4   # BR(~c_R -> ~chi_20 c)
     3.99254749E-02    2     1000025         4   # BR(~c_R -> ~chi_30 c)
     4.52689526E-09    2     1000035         4   # BR(~c_R -> ~chi_40 c)
     9.39359593E-01    2     1000021         4   # BR(~c_R -> ~g      c)
#
#         PDG            Width
DECAY   1000003     1.82421741E+02   # sstrange_L decays
#          BR         NDA      ID1       ID2
     1.29791502E-03    2     1000022         3   # BR(~s_L -> ~chi_10 s)
     7.52099307E-05    2     1000023         3   # BR(~s_L -> ~chi_20 s)
     2.16548562E-03    2     1000025         3   # BR(~s_L -> ~chi_30 s)
     4.25788981E-02    2     1000035         3   # BR(~s_L -> ~chi_40 s)
     4.27384769E-05    2    -1000024         4   # BR(~s_L -> ~chi_1- c)
     8.51683334E-02    2    -1000037         4   # BR(~s_L -> ~chi_2- c)
     8.68671420E-01    2     1000021         3   # BR(~s_L -> ~g      s)
#
#         PDG            Width
DECAY   2000003     1.61014324E+02   # sstrange_R decays
#          BR         NDA      ID1       ID2
     5.40778002E-03    2     1000022         3   # BR(~s_R -> ~chi_10 s)
     1.76143404E-05    2     1000023         3   # BR(~s_R -> ~chi_20 s)
     1.04567808E-02    2     1000025         3   # BR(~s_R -> ~chi_30 s)
     1.18566647E-09    2     1000035         3   # BR(~s_R -> ~chi_40 s)
     9.84117824E-01    2     1000021         3   # BR(~s_R -> ~g      s)
#
#         PDG            Width
DECAY   1000011     3.00606988E+01   # selectron_L decays
#          BR         NDA      ID1       ID2
     6.58418446E-02    2     1000022        11   # BR(~e_L -> ~chi_10 e-)
     3.90071270E-06    2     1000023        11   # BR(~e_L -> ~chi_20 e-)
     1.33774987E-01    2     1000025        11   # BR(~e_L -> ~chi_30 e-)
     2.66569696E-01    2     1000035        11   # BR(~e_L -> ~chi_40 e-)
     2.69664979E-04    2    -1000024        12   # BR(~e_L -> ~chi_1- nu_e)
     5.33539906E-01    2    -1000037        12   # BR(~e_L -> ~chi_2- nu_e)
#
#         PDG            Width
DECAY   2000011     2.39304004E+01   # selectron_R decays
#          BR         NDA      ID1       ID2
     3.40504105E-01    2     1000022        11   # BR(~e_R -> ~chi_10 e-)
     1.10907078E-03    2     1000023        11   # BR(~e_R -> ~chi_20 e-)
     6.58386750E-01    2     1000025        11   # BR(~e_R -> ~chi_30 e-)
     7.41240742E-08    2     1000035        11   # BR(~e_R -> ~chi_40 e-)
#
#         PDG            Width
DECAY   1000013     3.00606988E+01   # smuon_L decays
#          BR         NDA      ID1       ID2
     6.58418446E-02    2     1000022        13   # BR(~mu_L -> ~chi_10 mu-)
     3.90071270E-06    2     1000023        13   # BR(~mu_L -> ~chi_20 mu-)
     1.33774987E-01    2     1000025        13   # BR(~mu_L -> ~chi_30 mu-)
     2.66569696E-01    2     1000035        13   # BR(~mu_L -> ~chi_40 mu-)
     2.69664979E-04    2    -1000024        14   # BR(~mu_L -> ~chi_1- nu_mu)
     5.33539906E-01    2    -1000037        14   # BR(~mu_L -> ~chi_2- nu_mu)
#
#         PDG            Width
DECAY   2000013     2.39304004E+01   # smuon_R decays
#          BR         NDA      ID1       ID2
     3.40504105E-01    2     1000022        13   # BR(~mu_R -> ~chi_10 mu-)
     1.10907078E-03    2     1000023        13   # BR(~mu_R -> ~chi_20 mu-)
     6.58386750E-01    2     1000025        13   # BR(~mu_R -> ~chi_30 mu-)
     7.41240742E-08    2     1000035        13   # BR(~mu_R -> ~chi_40 mu-)
#
#         PDG            Width
DECAY   1000015     2.69703834E+01   # stau_1 decays
#          BR         NDA      ID1       ID2
     1.95779630E-01    2     1000022        15   # BR(~tau_1 -> ~chi_10  tau-)
     2.76001295E-04    2     1000023        15   # BR(~tau_1 -> ~chi_20  tau-)
     3.65671267E-01    2     1000025        15   # BR(~tau_1 -> ~chi_30  tau-)
     1.45969204E-01    2     1000035        15   # BR(~tau_1 -> ~chi_40  tau-)
     1.45861590E-04    2    -1000024        16   # BR(~tau_1 -> ~chi_1-  nu_tau)
     2.92157096E-01    2    -1000037        16   # BR(~tau_1 -> ~chi_2-  nu_tau)
     9.39571127E-07    2     1000039        15   # BR(~tau_1 -> ~G       tau-)
#
#         PDG            Width
DECAY   2000015     2.71140303E+01   # stau_2 decays
#          BR         NDA      ID1       ID2
     1.79573443E-01    2     1000022        15   # BR(~tau_2 -> ~chi_10  tau-)
     1.85267529E-03    2     1000023        15   # BR(~tau_2 -> ~chi_20  tau-)
     3.66015089E-01    2     1000025        15   # BR(~tau_2 -> ~chi_30  tau-)
     1.50343969E-01    2     1000035        15   # BR(~tau_2 -> ~chi_40  tau-)
     1.30057668E-03    2    -1000024        16   # BR(~tau_2 -> ~chi_1-  nu_tau)
     3.00914247E-01    2    -1000037        16   # BR(~tau_2 -> ~chi_2-  nu_tau)
#
#         PDG            Width
DECAY   1000012     3.00588621E+01   # snu_eL decays
#          BR         NDA      ID1       ID2
     6.97191796E-02    2     1000022        12   # BR(~nu_eL -> ~chi_10 nu_e)
     1.00417894E-03    2     1000023        12   # BR(~nu_eL -> ~chi_20 nu_e)
     1.28315793E-01    2     1000025        12   # BR(~nu_eL -> ~chi_30 nu_e)
     2.66795165E-01    2     1000035        12   # BR(~nu_eL -> ~chi_40 nu_e)
     9.75311168E-04    2     1000024        11   # BR(~nu_eL -> ~chi_1+ e-)
     5.33190372E-01    2     1000037        11   # BR(~nu_eL -> ~chi_2+ e-)
#
#         PDG            Width
DECAY   1000014     3.00588621E+01   # snu_muL decays
#          BR         NDA      ID1       ID2
     6.97191796E-02    2     1000022        14   # BR(~nu_muL -> ~chi_10 nu_mu)
     1.00417894E-03    2     1000023        14   # BR(~nu_muL -> ~chi_20 nu_mu)
     1.28315793E-01    2     1000025        14   # BR(~nu_muL -> ~chi_30 nu_mu)
     2.66795165E-01    2     1000035        14   # BR(~nu_muL -> ~chi_40 nu_mu)
     9.75311168E-04    2     1000024        13   # BR(~nu_muL -> ~chi_1+ mu-)
     5.33190372E-01    2     1000037        13   # BR(~nu_muL -> ~chi_2+ mu-)
#
#         PDG            Width
DECAY   1000016     3.00899584E+01   # snu_tauL decays
#          BR         NDA      ID1       ID2
     6.96471287E-02    2     1000022        16   # BR(~nu_tauL -> ~chi_10 nu_tau)
     1.00314118E-03    2     1000023        16   # BR(~nu_tauL -> ~chi_20 nu_tau)
     1.28183186E-01    2     1000025        16   # BR(~nu_tauL -> ~chi_30 nu_tau)
     2.66519447E-01    2     1000035        16   # BR(~nu_tauL -> ~chi_40 nu_tau)
     2.00768588E-03    2     1000024        15   # BR(~nu_tauL -> ~chi_1+ tau-)
     5.32639411E-01    2     1000037        15   # BR(~nu_tauL -> ~chi_2+ tau-)
#
#         PDG            Width
DECAY   1000024     2.10943196E-08   # chargino1+ decays
#          BR         NDA      ID1       ID2
     2.12783022E-02    2     1000039        24   # BR(~chi_1+ -> ~G       W+)
#           BR         NDA      ID1       ID2       ID3
     3.51619799E-01    3     1000022         2        -1   # BR(~chi_1+ -> ~chi_10 u    db)
     3.00945402E-01    3     1000022         4        -3   # BR(~chi_1+ -> ~chi_10 c    sb)
     1.17207287E-01    3     1000022       -11        12   # BR(~chi_1+ -> ~chi_10 e+   nu_e)
     1.17102295E-01    3     1000022       -13        14   # BR(~chi_1+ -> ~chi_10 mu+  nu_mu)
     9.18469144E-02    3     1000022       -15        16   # BR(~chi_1+ -> ~chi_10 tau+ nu_tau)
#
#         PDG            Width
DECAY   1000037     2.40339055E+01   # chargino2+ decays
#          BR         NDA      ID1       ID2
     1.49255495E-01    2     1000024        23   # BR(~chi_2+ -> ~chi_1+  Z )
     9.23060525E-02    2     1000022        24   # BR(~chi_2+ -> ~chi_10  W+)
     1.44991407E-01    2     1000023        24   # BR(~chi_2+ -> ~chi_20  W+)
     5.38266863E-02    2     1000025        24   # BR(~chi_2+ -> ~chi_30  W+)
     1.49711421E-01    2     1000024        25   # BR(~chi_2+ -> ~chi_1+  h )
     1.02169496E-01    2     1000024        35   # BR(~chi_2+ -> ~chi_1+  H )
     1.02771035E-01    2     1000024        36   # BR(~chi_2+ -> ~chi_1+  A )
     6.85259141E-02    2     1000022        37   # BR(~chi_2+ -> ~chi_10  H+)
     1.02302787E-01    2     1000023        37   # BR(~chi_2+ -> ~chi_20  H+)
     3.41396237E-02    2     1000025        37   # BR(~chi_2+ -> ~chi_30  H+)
     8.19907827E-08    2     1000039        24   # BR(~chi_2+ -> ~G       W+)
     1.50925611E-12    2     1000039        37   # BR(~chi_2+ -> ~G       H+)
#
#         PDG            Width
DECAY   1000022     1.0E-05   # neutralino1 decays
#          BR         NDA      ID1       ID2
     4.18442431E-01    2     1000039        22   # BR(~chi_10 -> ~G        gam)
     1.41247449E-01    2     1000039        23   # BR(~chi_10 -> ~G        Z)
     4.40310120E-01    2     1000039        25   # BR(~chi_10 -> ~G        h)
#
#         PDG            Width
DECAY   1000023     1.0E-05   # neutralino2 decays
#          BR         NDA      ID1       ID2
     1.19218715E-02    2     1000022        22   # BR(~chi_20 -> ~chi_10 gam)
#          BR         NDA      ID1       ID2
     8.60822941E-06    2     1000039        22   # BR(~chi_20 -> ~G        gam)
     1.10233508E-02    2     1000039        23   # BR(~chi_20 -> ~G        Z)
     4.02746635E-04    2     1000039        25   # BR(~chi_20 -> ~G        h)
#           BR         NDA      ID1       ID2       ID3
     1.38593235E-01    3     1000022        -2         2   # BR(~chi_20 -> ~chi_10 ub      u)
     1.79429209E-01    3     1000022        -1         1   # BR(~chi_20 -> ~chi_10 db      d)
     1.19356652E-01    3     1000022        -4         4   # BR(~chi_20 -> ~chi_10 cb      c)
     1.78834529E-01    3     1000022        -3         3   # BR(~chi_20 -> ~chi_10 sb      s)
     4.09655607E-02    3     1000022       -11        11   # BR(~chi_20 -> ~chi_10 e+      e-)
     4.09393021E-02    3     1000022       -13        13   # BR(~chi_20 -> ~chi_10 mu+     mu-)
     3.28276248E-02    3     1000022       -15        15   # BR(~chi_20 -> ~chi_10 tau+    tau-)
     8.18036587E-02    3     1000022       -12        12   # BR(~chi_20 -> ~chi_10 nu_eb   nu_e)
     8.18036587E-02    3     1000022       -14        14   # BR(~chi_20 -> ~chi_10 nu_mub  nu_mu)
     8.18036587E-02    3     1000022       -16        16   # BR(~chi_20 -> ~chi_10 nu_taub nu_tau)
     8.62908284E-05    3     1000024        -2         1   # BR(~chi_20 -> ~chi_1+ ub      d)
     8.62908284E-05    3    -1000024        -1         2   # BR(~chi_20 -> ~chi_1- db      u)
     2.87636120E-05    3     1000024       -12        11   # BR(~chi_20 -> ~chi_1+ nu_eb   e-)
     2.87636120E-05    3    -1000024        12       -11   # BR(~chi_20 -> ~chi_1- nu_e    e+)
     2.81128021E-05    3     1000024       -14        13   # BR(~chi_20 -> ~chi_1+ nu_mub  mu-)
     2.81128021E-05    3    -1000024        14       -13   # BR(~chi_20 -> ~chi_1- nu_mu   mu+)
#
#         PDG            Width
DECAY   1000025     1.0E-05   # neutralino3 decays
#          BR         NDA      ID1       ID2
     8.89652146E-01    2     1000022        22   # BR(~chi_30 -> ~chi_10 gam)
     2.01932579E-02    2     1000023        22   # BR(~chi_30 -> ~chi_20 gam)
#          BR         NDA      ID1       ID2
     4.42418086E-04    2     1000039        22   # BR(~chi_30 -> ~G        gam)
     1.33969290E-04    2     1000039        23   # BR(~chi_30 -> ~G        Z)
     1.26629709E-04    2     1000039        25   # BR(~chi_30 -> ~G        h)
#           BR         NDA      ID1       ID2       ID3
     5.84809281E-05    3     1000022        -2         2   # BR(~chi_30 -> ~chi_10 ub      u)
     7.64902652E-05    3     1000022        -1         1   # BR(~chi_30 -> ~chi_10 db      d)
     5.40437371E-05    3     1000022        -4         4   # BR(~chi_30 -> ~chi_10 cb      c)
     7.63941733E-05    3     1000022        -3         3   # BR(~chi_30 -> ~chi_10 sb      s)
     3.16781786E-05    3     1000022        -5         5   # BR(~chi_30 -> ~chi_10 bb      b)
     1.80799895E-05    3     1000022       -11        11   # BR(~chi_30 -> ~chi_10 e+      e-)
     1.80710518E-05    3     1000022       -13        13   # BR(~chi_30 -> ~chi_10 mu+     mu-)
     1.57488929E-05    3     1000022       -15        15   # BR(~chi_30 -> ~chi_10 tau+    tau-)
     3.45510143E-05    3     1000022       -12        12   # BR(~chi_30 -> ~chi_10 nu_eb   nu_e)
     3.45510143E-05    3     1000022       -14        14   # BR(~chi_30 -> ~chi_10 nu_mub  nu_mu)
     3.45510143E-05    3     1000022       -16        16   # BR(~chi_30 -> ~chi_10 nu_taub nu_tau)
     1.76170087E-03    3     1000023        -2         2   # BR(~chi_30 -> ~chi_20 ub      u)
     2.28081419E-03    3     1000023        -1         1   # BR(~chi_30 -> ~chi_20 db      d)
     1.48662294E-03    3     1000023        -4         4   # BR(~chi_30 -> ~chi_20 cb      c)
     2.27230854E-03    3     1000023        -3         3   # BR(~chi_30 -> ~chi_20 sb      s)
     5.20751713E-04    3     1000023       -11        11   # BR(~chi_30 -> ~chi_20 e+      e-)
     5.20376569E-04    3     1000023       -13        13   # BR(~chi_30 -> ~chi_20 mu+     mu-)
     4.03901488E-04    3     1000023       -15        15   # BR(~chi_30 -> ~chi_20 tau+    tau-)
     1.03981415E-03    3     1000023       -12        12   # BR(~chi_30 -> ~chi_20 nu_eb   nu_e)
     1.03981415E-03    3     1000023       -14        14   # BR(~chi_30 -> ~chi_20 nu_mub  nu_mu)
     1.03981415E-03    3     1000023       -16        16   # BR(~chi_30 -> ~chi_20 nu_taub nu_tau)
     1.33470608E-02    3     1000024        -2         1   # BR(~chi_30 -> ~chi_1+ ub      d)
     1.33470608E-02    3    -1000024        -1         2   # BR(~chi_30 -> ~chi_1- db      u)
     1.22063873E-02    3     1000024        -4         3   # BR(~chi_30 -> ~chi_1+ cb      s)
     1.22063873E-02    3    -1000024        -3         4   # BR(~chi_30 -> ~chi_1- sb      c)
     4.44896665E-03    3     1000024       -12        11   # BR(~chi_30 -> ~chi_1+ nu_eb   e-)
     4.44896665E-03    3    -1000024        12       -11   # BR(~chi_30 -> ~chi_1- nu_e    e+)
     4.44669488E-03    3     1000024       -14        13   # BR(~chi_30 -> ~chi_1+ nu_mub  mu-)
     4.44669488E-03    3    -1000024        14       -13   # BR(~chi_30 -> ~chi_1- nu_mu   mu+)
     3.86740018E-03    3     1000024       -16        15   # BR(~chi_30 -> ~chi_1+ nu_taub tau-)
     3.86740018E-03    3    -1000024        16       -15   # BR(~chi_30 -> ~chi_1- nu_tau  tau+)
#
#         PDG            Width
DECAY   1000035     2.40342600E+01   # neutralino4 decays
#          BR         NDA      ID1       ID2
     8.88329649E-02    2     1000022        23   # BR(~chi_40 -> ~chi_10   Z )
     1.31196680E-02    2     1000023        23   # BR(~chi_40 -> ~chi_20   Z )
     4.74965965E-02    2     1000025        23   # BR(~chi_40 -> ~chi_30   Z )
     1.45363602E-01    2     1000024       -24   # BR(~chi_40 -> ~chi_1+   W-)
     1.45363602E-01    2    -1000024        24   # BR(~chi_40 -> ~chi_1-   W+)
     5.86041408E-03    2     1000022        25   # BR(~chi_40 -> ~chi_10   h )
     6.76837618E-02    2     1000022        35   # BR(~chi_40 -> ~chi_10   H )
     6.15273053E-04    2     1000022        36   # BR(~chi_40 -> ~chi_10   A )
     1.36346250E-01    2     1000023        25   # BR(~chi_40 -> ~chi_20   h )
     6.33374156E-04    2     1000023        35   # BR(~chi_40 -> ~chi_20   H )
     1.01884164E-01    2     1000023        36   # BR(~chi_40 -> ~chi_20   A )
     7.71243650E-03    2     1000025        25   # BR(~chi_40 -> ~chi_30   h )
     3.39288328E-02    2     1000025        35   # BR(~chi_40 -> ~chi_30   H )
     1.04672120E-04    2     1000025        36   # BR(~chi_40 -> ~chi_30   A )
     1.02527153E-01    2     1000024       -37   # BR(~chi_40 -> ~chi_1+   H-)
     1.02527153E-01    2    -1000024        37   # BR(~chi_40 -> ~chi_1-   H+)
     1.97017887E-08    2     1000039        22   # BR(~chi_40 -> ~G        gam)
     6.22805512E-08    2     1000039        23   # BR(~chi_40 -> ~G        Z)
     4.57324316E-12    2     1000039        25   # BR(~chi_40 -> ~G        h)
     1.48175401E-12    2     1000039        35   # BR(~chi_40 -> ~G        H)
     2.08145681E-14    2     1000039        36   # BR(~chi_40 -> ~G        A)
#
#         PDG            Width
DECAY        25     4.07953967E-03   # h decays
#          BR         NDA      ID1       ID2
     6.17151075E-01    2           5        -5   # BR(h -> b       bb     )
     6.38451440E-02    2         -15        15   # BR(h -> tau+    tau-   )
     2.25988296E-04    2         -13        13   # BR(h -> mu+     mu-    )
     4.78889524E-04    2           3        -3   # BR(h -> s       sb     )
     2.06600977E-02    2           4        -4   # BR(h -> c       cb     )
     6.70845046E-02    2          21        21   # BR(h -> g       g      )
     2.29900219E-03    2          22        22   # BR(h -> gam     gam    )
     1.53973911E-03    2          22        23   # BR(h -> Z       gam    )
     2.01059810E-01    2          24       -24   # BR(h -> W+      W-     )
     2.56557499E-02    2          23        23   # BR(h -> Z       Z      )
#
#         PDG            Width
DECAY        35     3.88984724E+01   # H decays
#          BR         NDA      ID1       ID2
     1.43811029E-03    2           5        -5   # BR(H -> b       bb     )
     2.39548343E-04    2         -15        15   # BR(H -> tau+    tau-   )
     8.46892575E-07    2         -13        13   # BR(H -> mu+     mu-    )
     1.08432151E-06    2           3        -3   # BR(H -> s       sb     )
     9.78580809E-06    2           4        -4   # BR(H -> c       cb     )
     9.68264132E-01    2           6        -6   # BR(H -> t       tb     )
     7.75379239E-04    2          21        21   # BR(H -> g       g      )
     2.62204097E-06    2          22        22   # BR(H -> gam     gam    )
     1.12718485E-06    2          23        22   # BR(H -> Z       gam    )
     3.26101966E-04    2          24       -24   # BR(H -> W+      W-     )
     1.62606259E-04    2          23        23   # BR(H -> Z       Z      )
     8.79675785E-04    2          25        25   # BR(H -> h       h      )
     8.48095086E-24    2          36        36   # BR(H -> A       A      )
     3.40443622E-11    2          23        36   # BR(H -> Z       A      )
     4.48489137E-12    2          24       -37   # BR(H -> W+      H-     )
     4.48489137E-12    2         -24        37   # BR(H -> W-      H+     )
     4.31197042E-05    2     1000024  -1000024   # BR(H -> ~chi_1+ ~chi_1-)
     1.25037609E-02    2     1000022   1000022   # BR(H -> ~chi_10 ~chi_10)
     1.08155747E-05    2     1000023   1000023   # BR(H -> ~chi_20 ~chi_20)
     1.08466540E-02    2     1000025   1000025   # BR(H -> ~chi_30 ~chi_30)
     1.46918683E-04    2     1000022   1000023   # BR(H -> ~chi_10 ~chi_20)
     2.54187054E-03    2     1000022   1000025   # BR(H -> ~chi_10 ~chi_30)
     1.80584000E-03    2     1000023   1000025   # BR(H -> ~chi_20 ~chi_30)
#
#         PDG            Width
DECAY        36     3.93299479E+01   # A decays
#          BR         NDA      ID1       ID2
     1.44110695E-03    2           5        -5   # BR(A -> b       bb     )
     2.37127606E-04    2         -15        15   # BR(A -> tau+    tau-   )
     8.38331747E-07    2         -13        13   # BR(A -> mu+     mu-    )
     1.10521938E-06    2           3        -3   # BR(A -> s       sb     )
     9.68524609E-06    2           4        -4   # BR(A -> c       cb     )
     9.69321370E-01    2           6        -6   # BR(A -> t       tb     )
     9.17481092E-04    2          21        21   # BR(A -> g       g      )
     3.12651140E-06    2          22        22   # BR(A -> gam     gam    )
     1.31457736E-06    2          23        22   # BR(A -> Z       gam    )
     3.17854990E-04    2          23        25   # BR(A -> Z       h      )
     3.20789737E-04    2     1000024  -1000024   # BR(A -> ~chi_1+ ~chi_1-)
     1.04645244E-03    2     1000022   1000022   # BR(A -> ~chi_10 ~chi_10)
     4.75792896E-04    2     1000023   1000023   # BR(A -> ~chi_20 ~chi_20)
     4.59343669E-04    2     1000025   1000025   # BR(A -> ~chi_30 ~chi_30)
     8.65350103E-03    2     1000022   1000023   # BR(A -> ~chi_10 ~chi_20)
     3.85016889E-04    2     1000022   1000025   # BR(A -> ~chi_10 ~chi_30)
     1.64080924E-02    2     1000023   1000025   # BR(A -> ~chi_20 ~chi_30)
#
#         PDG            Width
DECAY        37     3.85310971E+01   # H+ decays
#          BR         NDA      ID1       ID2
     2.31595166E-06    2           4        -5   # BR(H+ -> c       bb     )
     2.42265782E-04    2         -15        16   # BR(H+ -> tau+    nu_tau )
     8.56497054E-07    2         -13        14   # BR(H+ -> mu+     nu_mu  )
     1.47250003E-08    2           2        -5   # BR(H+ -> u       bb     )
     5.30418222E-08    2           2        -3   # BR(H+ -> u       sb     )
     1.05687835E-05    2           4        -3   # BR(H+ -> c       sb     )
     9.71440652E-01    2           6        -5   # BR(H+ -> t       bb     )
     3.25800672E-04    2          24        25   # BR(H+ -> W+      h      )
     7.07163725E-13    2          24        36   # BR(H+ -> W+      A      )
     9.17588032E-03    2     1000024   1000022   # BR(H+ -> ~chi_1+ ~chi_10)
     4.40641876E-05    2     1000024   1000023   # BR(H+ -> ~chi_1+ ~chi_20)
     1.87575282E-02    2     1000024   1000025   # BR(H+ -> ~chi_1+ ~chi_30)
