#  ISAJET SUSY parameters in SUSY Les Houches Accord 2 format
#  Created by ISALHA 2.0 Last revision: C. Balazs 21 Apr 2009
Block SPINFO   # Program information
     1   ISASUGRA from ISAJET          # Spectrum Calculator
     2   7.80   29-OCT-2009 12:50:36   # Version number
Block MODSEL   # Model selection
     1     3   # Minimal anomaly mediated (AMSB) model             
Block SMINPUTS   # Standard Model inputs
     1     1.27836266E+02   # alpha_em^(-1)
     2     1.16570000E-05   # G_Fermi
     3     1.17200002E-01   # alpha_s(M_Z)
     4     9.11699982E+01   # m_{Z}(pole)
     5     4.19999981E+00   # m_{b}(m_{b})
     6     1.72500000E+02   # m_{top}(pole)
     7     1.77699995E+00   # m_{tau}(pole)
Block MINPAR   # SUSY breaking input parameters
     1     5.00000000E+03   # m_0
     2     2.79600000E+05   # m_{3/2}
     3     5.00000000E+00   # tan(beta)
     4     1.00000000E+00   # sign(mu)
Block EXTPAR   # Non-universal SUSY breaking parameters
     0     8.23659515E+15   # Input scale
Block MASS   # Scalar and gaugino mass spectrum
#  PDG code   mass                 particle
         5     4.80000000E+00   # b-quark pole mass calculated from mb(mb)_Msbar
         6     1.72500000E+02   # t-quark pole mass (not read by ME)
        15     1.77682000E+00   # tau pole mass (not read by ME)
        23     9.11876000E+01   # Z pole mass (not read by ME)
        24     8.04229965E+01   #  W^+
        25     1.17064087E+02   #  h^0            
        35     6.65732568E+03   #  H^0            
        36     6.61370068E+03   #  A^0            
        37     6.65768408E+03   #  H^+            
   1000001     7.00037109E+03   #  dnl            
   1000002     6.99994092E+03   #  upl            
   1000003     7.00037109E+03   #  stl            
   1000004     6.99994092E+03   #  chl            
   1000005     5.99355371E+03   #  b1             
   1000006     4.75538281E+03   #  t1             
   1000011     4.87003369E+03   #  el-            
   1000012     4.86868506E+03   #  nuel           
   1000013     4.87003369E+03   #  mul-           
   1000014     4.86868506E+03   #  numl           
   1000015     4.82786670E+03   #  tau1           
   1000016     4.86156348E+03   #  nutl           
   1000021     5.47320605E+03   #  glss           
   1000022     7.99721497E+02   #  z1ss           
   1000023     2.60355078E+03   #  z2ss           
   1000024     7.99895081E+02   #  w1ss           
   1000025    -4.32047070E+03   #  z3ss           
   1000035     4.32173145E+03   #  z4ss           
   1000037     4.32616846E+03   #  w2ss           
   2000001     7.07308301E+03   #  dnr            
   2000002     7.03536816E+03   #  upr            
   2000003     7.07308301E+03   #  str            
   2000004     7.03536816E+03   #  chr            
   2000005     7.02810254E+03   #  b2             
   2000006     6.03234766E+03   #  t2             
   2000011     4.84220801E+03   #  er-            
   2000013     4.84220801E+03   #  mur-           
   2000015     4.86361182E+03   #  tau2           
Block ALPHA   # Effective Higgs mixing parameter
         -1.97496757E-01   # alpha
Block STOPMIX   # stop mixing matrix
  1  1     3.27418484E-02   # O_{11}
  1  2    -9.99463856E-01   # O_{12}
  2  1     9.99463856E-01   # O_{21}
  2  2     3.27418484E-02   # O_{22}
Block SBOTMIX   # sbottom mixing matrix
  1  1     9.99994397E-01   # O_{11}
  1  2     3.34009295E-03   # O_{12}
  2  1    -3.34009295E-03   # O_{21}
  2  2     9.99994397E-01   # O_{22}
Block STAUMIX   # stau mixing matrix
  1  1     1.23353757E-01   # O_{11}
  1  2     9.92362738E-01   # O_{12}
  2  1    -9.92362738E-01   # O_{21}
  2  2     1.23353757E-01   # O_{22}
Block NMIX   # neutralino mixing matrix
  1  1    -4.22829238E-04   #
  1  2     9.99821424E-01   #
  1  3    -1.81631241E-02   #
  1  4     5.17443381E-03   #
  2  1     9.99830663E-01   #
  2  2     7.53456261E-04   #
  2  3     1.52963698E-02   #
  2  4    -1.01909637E-02   #
  3  1    -3.61546874E-03   #
  3  2     9.18234885E-03   #
  3  3     7.07001567E-01   #
  3  4     7.07143068E-01   #
  4  1     1.80319678E-02   #
  4  2    -1.64915510E-02   #
  4  3    -7.06813216E-01   #
  4  4     7.06978142E-01   #
Block UMIX   # chargino U mixing matrix
  1  1    -9.99648213E-01   # U_{11}
  1  2     2.65223123E-02   # U_{12}
  2  1    -2.65223123E-02   # U_{21}
  2  2    -9.99648213E-01   # U_{22}
Block VMIX   # chargino V mixing matrix
  1  1    -9.99947131E-01   # V_{11}
  1  2     1.02810673E-02   # V_{12}
  2  1    -1.02810673E-02   # V_{21}
  2  2    -9.99947131E-01   # V_{22}
Block GAUGE Q=  5.13437207E+03   #
     1     3.57524961E-01   # g`
     2     6.52378559E-01   # g_2
     3     1.21928000E+00   # g_3
Block YU Q=  5.13437207E+03   #
  3  3     8.25388610E-01   # y_t
Block YD Q=  5.13437207E+03   #
  3  3     6.37066066E-02   # y_b
Block YE Q=  5.13437207E+03   #
  3  3     5.14597632E-02   # y_tau
Block HMIX Q=  5.13437207E+03   # Higgs mixing parameters
     1     4.30015625E+03   # mu(Q)
     2     5.00000000E+00   # tan(beta)(M_GUT)
     3     2.52326462E+02   # Higgs vev at Q
     4     4.37410360E+07   # m_A^2(Q)
Block MSOFT Q=  5.13437207E+03   # DRbar SUSY breaking parameters
     1     2.61603345E+03   # M_1(Q)          
     2     7.47148438E+02   # M_2(Q)          
     3    -5.05373730E+03   # M_3(Q)          
    21     3.23374943E+04   # mH1^2(Q)            
    22    -1.28800134E+05   # mH2^2(Q)            
    31     4.85200098E+03   # MeL(Q)          
    32     4.85200098E+03   # MmuL(Q)         
    33     4.84509668E+03   # MtauL(Q)        
    34     4.83430029E+03   # MeR(Q)          
    35     4.83430029E+03   # MmuR(Q)         
    36     4.82025684E+03   # MtauR(Q)        
    41     6.74882910E+03   # MqL1(Q)         
    42     6.74882910E+03   # MqL2(Q)         
    43     5.76373438E+03   # MqL3(Q)         
    44     6.78467627E+03   # MuR(Q)          
    45     6.78467627E+03   # McR(Q)          
    46     4.57373145E+03   # MtR(Q)          
    47     6.82281836E+03   # MdR(Q)          
    48     6.82281836E+03   # MsR(Q)          
    49     6.83874121E+03   # MbR(Q)          
Block AU Q=  5.13437207E+03   #
  1  1     4.31640234E+03   # A_u
  2  2     4.31640234E+03   # A_c
  3  3     4.31640234E+03   # A_t
Block AD Q=  5.13437207E+03   #
  1  1     1.02299170E+04   # A_d
  2  2     1.02299170E+04   # A_s
  3  3     1.02299170E+04   # A_b
Block AE Q=  5.13437207E+03   #
  1  1     2.90641455E+03   # A_e
  2  2     2.90641455E+03   # A_mu
  3  3     2.90641455E+03   # A_tau
#
#  ISAJET decay tables in SUSY Les Houches accord format
#  Created by ISALHD. Last revision: C. Balazs, 2005 May 25
Block DCINFO                           # Program information
     1   ISASUGRA from ISAJET          # Spectrum Calculator
     2   7.80   29-OCT-2009 12:50:36   # Version number
#         PDG         Width
DECAY        23     2.49520000E+00   # Z width (SM calculation)
DECAY        24     2.08500000E+00   # W width (SM calculation)
#
#         PDG            Width  
DECAY         6  1.14680779E+00   # TP    decays
#          BR          NDA       ID1       ID2       ID3       ID4
      3.33333343E-01    3            2        -1         5             # TP     -->  UP     DB     BT          
      3.33333343E-01    3            4        -3         5             # TP     -->  CH     SB     BT          
      1.11111112E-01    3          -11        12         5             # TP     -->  E+     NUE    BT          
      1.11111112E-01    3          -13        14         5             # TP     -->  MU+    NUM    BT          
      1.11111112E-01    3          -15        16         5             # TP     -->  TAU+   NUT    BT          
#         PDG         Width
DECAY   1000021  6.36100674E+00   # GLSS  decays
#          BR          NDA       ID1       ID2       ID3       ID4
      1.92772876E-03    3      1000024         1        -2             # GLSS   -->  W1SS+  DN     UB          
      1.92772876E-03    3     -1000024         2        -1             # GLSS   -->  W1SS-  UP     DB          
      1.92772876E-03    3      1000024         3        -4             # GLSS   -->  W1SS+  ST     CB          
      1.92772876E-03    3     -1000024         4        -3             # GLSS   -->  W1SS-  CH     SB          
      5.56510361E-03    3      1000024         5        -6             # GLSS   -->  W1SS+  BT     TB          
      5.56510361E-03    3     -1000024         6        -5             # GLSS   -->  W1SS-  TP     BB          
      5.65576919E-09    3      1000037         1        -2             # GLSS   -->  W2SS+  DN     UB          
      5.65576919E-09    3     -1000037         2        -1             # GLSS   -->  W2SS-  UP     DB          
      5.65576919E-09    3      1000037         3        -4             # GLSS   -->  W2SS+  ST     CB          
      5.65576919E-09    3     -1000037         4        -3             # GLSS   -->  W2SS-  CH     SB          
      7.28765081E-05    3      1000037         5        -6             # GLSS   -->  W2SS+  BT     TB          
      7.28765081E-05    3     -1000037         6        -5             # GLSS   -->  W2SS-  TP     BB          
      1.54469308E-08    2      1000022        21                       # GLSS   -->  Z1SS   GL                 
      9.64032428E-04    3      1000022         2        -2             # GLSS   -->  Z1SS   UP     UB          
      9.63970495E-04    3      1000022         1        -1             # GLSS   -->  Z1SS   DN     DB          
      9.63970495E-04    3      1000022         3        -3             # GLSS   -->  Z1SS   ST     SB          
      9.64032428E-04    3      1000022         4        -4             # GLSS   -->  Z1SS   CH     CB          
      2.89445370E-03    3      1000022         5        -5             # GLSS   -->  Z1SS   BT     BB          
      2.67011020E-03    3      1000022         6        -6             # GLSS   -->  Z1SS   TP     TB          
      5.79982770E-06    2      1000023        21                       # GLSS   -->  Z2SS   GL                 
      1.14834853E-04    3      1000023         2        -2             # GLSS   -->  Z2SS   UP     UB          
      3.28997412E-05    3      1000023         1        -1             # GLSS   -->  Z2SS   DN     DB          
      3.28997412E-05    3      1000023         3        -3             # GLSS   -->  Z2SS   ST     SB          
      1.14834853E-04    3      1000023         4        -4             # GLSS   -->  Z2SS   CH     CB          
      5.25152973E-05    3      1000023         5        -5             # GLSS   -->  Z2SS   BT     BB          
      2.43877621E-05    3      1000023         6        -6             # GLSS   -->  Z2SS   TP     TB          
      1.54541920E-06    2      1000025        21                       # GLSS   -->  Z3SS   GL                 
      1.23825916E-09    3      1000025         2        -2             # GLSS   -->  Z3SS   UP     UB          
      1.53722157E-09    3      1000025         1        -1             # GLSS   -->  Z3SS   DN     DB          
      1.53722157E-09    3      1000025         3        -3             # GLSS   -->  Z3SS   ST     SB          
      1.23825916E-09    3      1000025         4        -4             # GLSS   -->  Z3SS   CH     CB          
      8.50017273E-07    3      1000025         5        -5             # GLSS   -->  Z3SS   BT     BB          
      6.14070523E-05    3      1000025         6        -6             # GLSS   -->  Z3SS   TP     TB          
      1.93935057E-06    2      1000035        21                       # GLSS   -->  Z4SS   GL                 
      1.86744953E-09    3      1000035         2        -2             # GLSS   -->  Z4SS   UP     UB          
      2.36122766E-09    3      1000035         1        -1             # GLSS   -->  Z4SS   DN     DB          
      2.36122766E-09    3      1000035         3        -3             # GLSS   -->  Z4SS   ST     SB          
      1.86744953E-09    3      1000035         4        -4             # GLSS   -->  Z4SS   CH     CB          
      8.51610821E-07    3      1000035         5        -5             # GLSS   -->  Z4SS   BT     BB          
      5.23218878E-05    3      1000035         6        -6             # GLSS   -->  Z4SS   TP     TB          
      4.85547721E-01    2     -1000006         6                       # GLSS   -->  TB1    TP                 
      4.85547721E-01    2      1000006        -6                       # GLSS   -->  TP1    TB                 
#         PDG         Width
DECAY   1000002  1.40943954E+02   # UPL   decays
#          BR          NDA       ID1       ID2       ID3       ID4
      2.03528792E-01    2      1000022         2                       # UPL    -->  Z1SS   UP                 
      5.25092566E-03    2      1000023         2                       # UPL    -->  Z2SS   UP                 
      5.81541781E-06    2      1000025         2                       # UPL    -->  Z3SS   UP                 
      1.39235062E-05    2      1000035         2                       # UPL    -->  Z4SS   UP                 
      3.83965254E-01    2      1000021         2                       # UPL    -->  GLSS   UP                 
      4.07218397E-01    2      1000024         1                       # UPL    -->  W1SS+  DN                 
      1.68810438E-05    2      1000037         1                       # UPL    -->  W2SS+  DN                 
#         PDG         Width
DECAY   1000001  1.40952255E+02   # DNL   decays
#          BR          NDA       ID1       ID2       ID3       ID4
      2.03593075E-01    2      1000022         1                       # DNL    -->  Z1SS   DN                 
      5.16545400E-03    2      1000023         1                       # DNL    -->  Z2SS   DN                 
      7.76567322E-06    2      1000025         1                       # DNL    -->  Z3SS   DN                 
      3.13744858E-05    2      1000035         1                       # DNL    -->  Z4SS   DN                 
      3.84112626E-01    2      1000021         1                       # DNL    -->  GLSS   DN                 
      4.06977296E-01    2     -1000024         2                       # DNL    -->  W1SS-  UP                 
      1.12360263E-04    2     -1000037         2                       # DNL    -->  W2SS-  UP                 
#         PDG         Width
DECAY   1000003  1.40952240E+02   # STL   decays
#          BR          NDA       ID1       ID2       ID3       ID4
      2.03593105E-01    2      1000022         3                       # STL    -->  Z1SS   ST                 
      5.16545493E-03    2      1000023         3                       # STL    -->  Z2SS   ST                 
      7.76567413E-06    2      1000025         3                       # STL    -->  Z3SS   ST                 
      3.13744895E-05    2      1000035         3                       # STL    -->  Z4SS   ST                 
      3.84112656E-01    2      1000021         3                       # STL    -->  GLSS   ST                 
      4.06977296E-01    2     -1000024         4                       # STL    -->  W1SS-  CH                 
      1.12360249E-04    2     -1000037         4                       # STL    -->  W2SS-  CH                 
#         PDG         Width
DECAY   1000004  1.40943924E+02   # CHL   decays
#          BR          NDA       ID1       ID2       ID3       ID4
      2.03528807E-01    2      1000022         4                       # CHL    -->  Z1SS   CH                 
      5.25092613E-03    2      1000023         4                       # CHL    -->  Z2SS   CH                 
      5.81541644E-06    2      1000025         4                       # CHL    -->  Z3SS   CH                 
      1.39235062E-05    2      1000035         4                       # CHL    -->  Z4SS   CH                 
      3.83965135E-01    2      1000021         4                       # CHL    -->  GLSS   CH                 
      4.07218486E-01    2      1000024         3                       # CHL    -->  W1SS+  ST                 
      1.68810475E-05    2      1000037         3                       # CHL    -->  W2SS+  ST                 
#         PDG         Width
DECAY   1000005  1.07270988E+02   # BT1   decays
#          BR          NDA       ID1       ID2       ID3       ID4
      2.26844087E-01    2      1000022         5                       # BT1    -->  Z1SS   BT                 
      5.15351677E-03    2      1000023         5                       # BT1    -->  Z2SS   BT                 
      5.55494509E-04    2      1000025         5                       # BT1    -->  Z3SS   BT                 
      5.70722681E-04    2      1000035         5                       # BT1    -->  Z4SS   BT                 
      7.99524188E-02    2      1000021         5                       # BT1    -->  GLSS   BT                 
      4.52656537E-01    2     -1000024         6                       # BT1    -->  W1SS-  TP                 
      1.63510844E-01    2     -1000037         6                       # BT1    -->  W2SS-  TP                 
      7.07563460E-02    2          -24   1000006                       # BT1    -->  W-     TP1                
#         PDG         Width
DECAY   1000006  8.73839283E+00   # TP1   decays
#          BR          NDA       ID1       ID2       ID3       ID4
      1.21322484E-03    2      1000022         6                       # TP1    -->  Z1SS   TP                 
      5.96607029E-01    2      1000023         6                       # TP1    -->  Z2SS   TP                 
      9.43335518E-02    2      1000025         6                       # TP1    -->  Z3SS   TP                 
      9.93365273E-02    2      1000035         6                       # TP1    -->  Z4SS   TP                 
      1.74276344E-03    2      1000024         5                       # TP1    -->  W1SS+  BT                 
      2.06766978E-01    2      1000037         5                       # TP1    -->  W2SS+  BT                 
#         PDG         Width
DECAY   2000002  6.79440765E+01   # UPR   decays
#          BR          NDA       ID1       ID2       ID3       ID4
      4.07741751E-08    2      1000022         2                       # UPR    -->  Z1SS   UP                 
      1.74291998E-01    2      1000023         2                       # UPR    -->  Z2SS   UP                 
      1.18707635E-06    2      1000025         2                       # UPR    -->  Z3SS   UP                 
      2.95072587E-05    2      1000035         2                       # UPR    -->  Z4SS   UP                 
      8.25677276E-01    2      1000021         2                       # UPR    -->  GLSS   UP                 
#         PDG         Width
DECAY   2000001  6.12152328E+01   # DNR   decays
#          BR          NDA       ID1       ID2       ID3       ID4
      1.13778480E-08    2      1000022         1                       # DNR    -->  Z1SS   DN                 
      4.87861000E-02    2      1000023         1                       # DNR    -->  Z2SS   DN                 
      3.35434891E-07    2      1000025         1                       # DNR    -->  Z3SS   DN                 
      8.33803188E-06    2      1000035         1                       # DNR    -->  Z4SS   DN                 
      9.51205194E-01    2      1000021         1                       # DNR    -->  GLSS   DN                 
#         PDG         Width
DECAY   2000003  6.12152328E+01   # STR   decays
#          BR          NDA       ID1       ID2       ID3       ID4
      1.13778480E-08    2      1000022         3                       # STR    -->  Z1SS   ST                 
      4.87861000E-02    2      1000023         3                       # STR    -->  Z2SS   ST                 
      3.35434891E-07    2      1000025         3                       # STR    -->  Z3SS   ST                 
      8.33803188E-06    2      1000035         3                       # STR    -->  Z4SS   ST                 
      9.51205194E-01    2      1000021         3                       # STR    -->  GLSS   ST                 
#         PDG         Width
DECAY   2000004  6.79440460E+01   # CHR   decays
#          BR          NDA       ID1       ID2       ID3       ID4
      4.07741894E-08    2      1000022         4                       # CHR    -->  Z1SS   CH                 
      1.74292043E-01    2      1000023         4                       # CHR    -->  Z2SS   CH                 
      1.18707646E-06    2      1000025         4                       # CHR    -->  Z3SS   CH                 
      2.95072641E-05    2      1000035         4                       # CHR    -->  Z4SS   CH                 
      8.25677276E-01    2      1000021         4                       # CHR    -->  GLSS   CH                 
#         PDG         Width
DECAY   2000005  5.92251701E+01   # BT2   decays
#          BR          NDA       ID1       ID2       ID3       ID4
      2.85205005E-07    2      1000022         5                       # BT2    -->  Z1SS   BT                 
      4.99012955E-02    2      1000023         5                       # BT2    -->  Z2SS   BT                 
      1.96398608E-03    2      1000025         5                       # BT2    -->  Z3SS   BT                 
      1.97209395E-03    2      1000035         5                       # BT2    -->  Z4SS   BT                 
      9.40354466E-01    2      1000021         5                       # BT2    -->  GLSS   BT                 
      4.33068863E-07    2     -1000024         6                       # BT2    -->  W1SS-  TP                 
      3.92706692E-03    2     -1000037         6                       # BT2    -->  W2SS-  TP                 
      7.25716291E-06    2          -24   1000006                       # BT2    -->  W-     TP1                
      7.68290949E-04    2          -24   2000006                       # BT2    -->  W-     TP2                
      4.32264147E-04    2           23   1000005                       # BT2    -->  Z0     BT1                
      6.72483467E-04    2           25   1000005                       # BT2    -->  HL0    BT1                
#         PDG         Width
DECAY   2000006  1.12805336E+02   # TP2   decays
#          BR          NDA       ID1       ID2       ID3       ID4
      8.04507062E-02    2      1000021         6                       # TP2    -->  GLSS   TP                 
      4.34351504E-01    2      1000024         5                       # TP2    -->  W1SS+  BT                 
      1.17093872E-03    2      1000037         5                       # TP2    -->  W2SS+  BT                 
      3.69845554E-02    2           23   1000006                       # TP2    -->  Z0     TP1                
      6.38041049E-02    2           25   1000006                       # TP2    -->  HL0    TP1                
      2.16657832E-01    2      1000022         6                       # TP2    -->  Z1SS   TP                 
      5.32088010E-03    2      1000023         6                       # TP2    -->  Z2SS   TP                 
      8.11945945E-02    2      1000025         6                       # TP2    -->  Z3SS   TP                 
      8.00648928E-02    2      1000035         6                       # TP2    -->  Z4SS   TP                 
#         PDG         Width
DECAY   1000011  6.13500633E+01   # EL-   decays
#          BR          NDA       ID1       ID2       ID3       ID4
      3.16102713E-01    2      1000022        11                       # EL-    -->  Z1SS   E-                 
      5.16099818E-02    2      1000023        11                       # EL-    -->  Z2SS   E-                 
      7.84515748E-07    2      1000025        11                       # EL-    -->  Z3SS   E-                 
      6.53426696E-07    2      1000035        11                       # EL-    -->  Z4SS   E-                 
      6.32264972E-01    2     -1000024        12                       # EL-    -->  W1SS-  NUE                
      2.09051595E-05    2     -1000037        12                       # EL-    -->  W2SS-  NUE                
#         PDG         Width
DECAY   1000013  6.13500633E+01   # MUL-  decays
#          BR          NDA       ID1       ID2       ID3       ID4
      3.16102713E-01    2      1000022        13                       # MUL-   -->  Z1SS   MU-                
      5.16099818E-02    2      1000023        13                       # MUL-   -->  Z2SS   MU-                
      7.84515748E-07    2      1000025        13                       # MUL-   -->  Z3SS   MU-                
      6.53426696E-07    2      1000035        13                       # MUL-   -->  Z4SS   MU-                
      6.32264972E-01    2     -1000024        14                       # MUL-   -->  W1SS-  NUM                
      2.09051595E-05    2     -1000037        14                       # MUL-   -->  W2SS-  NUM                
#         PDG         Width
DECAY   1000015  1.31354475E+01   # TAU1- decays
#          BR          NDA       ID1       ID2       ID3       ID4
      2.30044350E-02    2      1000022        15                       # TAU1-  -->  Z1SS   TAU-               
      9.29423273E-01    2      1000023        15                       # TAU1-  -->  Z2SS   TAU-               
      3.93944531E-04    2      1000025        15                       # TAU1-  -->  Z3SS   TAU-               
      3.96141462E-04    2      1000035        15                       # TAU1-  -->  Z4SS   TAU-               
      4.60612215E-02    2     -1000024        16                       # TAU1-  -->  W1SS-  NUT                
      7.21035176E-04    2     -1000037        16                       # TAU1-  -->  W2SS-  NUT                
#         PDG         Width
DECAY   1000012  6.13533897E+01   # NUEL  decays
#          BR          NDA       ID1       ID2       ID3       ID4
      3.16282243E-01    2      1000022        12                       # NUEL   -->  Z1SS   NUE                
      5.12879677E-02    2      1000023        12                       # NUEL   -->  Z2SS   NUE                
      1.88216120E-06    2      1000025        12                       # NUEL   -->  Z3SS   NUE                
      1.04711289E-05    2      1000035        12                       # NUEL   -->  Z4SS   NUE                
      6.32414341E-01    2      1000024        11                       # NUEL   -->  W1SS+  E-                 
      3.12723478E-06    2      1000037        11                       # NUEL   -->  W2SS+  E-                 
#         PDG         Width
DECAY   1000014  6.13533897E+01   # NUML  decays
#          BR          NDA       ID1       ID2       ID3       ID4
      3.16282243E-01    2      1000022        14                       # NUML   -->  Z1SS   NUM                
      5.12879677E-02    2      1000023        14                       # NUML   -->  Z2SS   NUM                
      1.88216120E-06    2      1000025        14                       # NUML   -->  Z3SS   NUM                
      1.04711289E-05    2      1000035        14                       # NUML   -->  Z4SS   NUM                
      6.32414341E-01    2      1000024        13                       # NUML   -->  W1SS+  MU-                
      3.12723478E-06    2      1000037        13                       # NUML   -->  W2SS+  MU-                
#         PDG         Width
DECAY   1000016  6.12586975E+01   # NUTL  decays
#          BR          NDA       ID1       ID2       ID3       ID4
      3.16256404E-01    2      1000022        16                       # NUTL   -->  Z1SS   NUT                
      5.11717275E-02    2      1000023        16                       # NUTL   -->  Z2SS   NUT                
      1.84163764E-06    2      1000025        16                       # NUTL   -->  Z3SS   NUT                
      1.02450649E-05    2      1000035        16                       # NUTL   -->  Z4SS   NUT                
      6.32364988E-01    2      1000024        15                       # NUTL   -->  W1SS+  TAU-               
      1.94816399E-04    2      1000037        15                       # NUTL   -->  W2SS+  TAU-               
      3.39995720E-09    3      1000015        16       -15             # NUTL   -->  TAU1-  NUT    TAU+        
      3.39995720E-09    3      1000015        12       -11             # NUTL   -->  TAU1-  NUE    E+          
      3.39995720E-09    3      1000015        14       -13             # NUTL   -->  TAU1-  NUM    MU+         
      1.01998712E-08    3      1000015         2        -1             # NUTL   -->  TAU1-  UP     DB          
      1.01998712E-08    3      1000015         4        -3             # NUTL   -->  TAU1-  CH     SB          
#         PDG         Width
DECAY   2000011  1.24430456E+01   # ER-   decays
#          BR          NDA       ID1       ID2       ID3       ID4
      3.34829878E-07    2      1000022        11                       # ER-    -->  Z1SS   E-                 
      9.99972045E-01    2      1000023        11                       # ER-    -->  Z2SS   E-                 
      1.07552239E-06    2      1000025        11                       # ER-    -->  Z3SS   E-                 
      2.66314528E-05    2      1000035        11                       # ER-    -->  Z4SS   E-                 
#         PDG         Width
DECAY   2000013  1.24430456E+01   # MUR-  decays
#          BR          NDA       ID1       ID2       ID3       ID4
      3.34829878E-07    2      1000022        13                       # MUR-   -->  Z1SS   MU-                
      9.99972045E-01    2      1000023        13                       # MUR-   -->  Z2SS   MU-                
      1.07552239E-06    2      1000025        13                       # MUR-   -->  Z3SS   MU-                
      2.66314528E-05    2      1000035        13                       # MUR-   -->  Z4SS   MU-                
#         PDG         Width
DECAY   2000015  6.04936676E+01   # TAU2- decays
#          BR          NDA       ID1       ID2       ID3       ID4
      3.15074384E-01    2      1000022        15                       # TAU2-  -->  Z1SS   TAU-               
      5.44794202E-02    2      1000023        15                       # TAU2-  -->  Z2SS   TAU-               
      1.03668048E-04    2      1000025        15                       # TAU2-  -->  Z3SS   TAU-               
      1.07925684E-04    2      1000035        15                       # TAU2-  -->  Z4SS   TAU-               
      6.30195558E-01    2     -1000024        16                       # TAU2-  -->  W1SS-  NUT                
      3.90032146E-05    2     -1000037        16                       # TAU2-  -->  W2SS-  NUT                
#         PDG         Width
DECAY   1000023  1.46161076E-02   # Z2SS  decays
#          BR          NDA       ID1       ID2       ID3       ID4
      5.24591030E-07    2      1000022        22                       # Z2SS   -->  Z1SS   GM                 
      3.95460427E-01    2      1000024       -24                       # Z2SS   -->  W1SS+  W-                 
      3.95460427E-01    2     -1000024        24                       # Z2SS   -->  W1SS-  W+                 
      1.50243072E-02    2      1000022        23                       # Z2SS   -->  Z1SS   Z0                 
      1.28622894E-04    3      1000022         2        -2             # Z2SS   -->  Z1SS   UP     UB          
      1.26529660E-04    3      1000022         1        -1             # Z2SS   -->  Z1SS   DN     DB          
      1.26529660E-04    3      1000022         3        -3             # Z2SS   -->  Z1SS   ST     SB          
      1.28622894E-04    3      1000022         4        -4             # Z2SS   -->  Z1SS   CH     CB          
      2.48249475E-04    3      1000022         5        -5             # Z2SS   -->  Z1SS   BT     BB          
      1.92003674E-03    3      1000022        11       -11             # Z2SS   -->  Z1SS   E-     E+          
      1.92003674E-03    3      1000022        13       -13             # Z2SS   -->  Z1SS   MU-    MU+         
      1.93310552E-03    3      1000022        15       -15             # Z2SS   -->  Z1SS   TAU-   TAU+        
      1.91377546E-03    3      1000022        12       -12             # Z2SS   -->  Z1SS   NUE    ANUE        
      1.91377546E-03    3      1000022        14       -14             # Z2SS   -->  Z1SS   NUM    ANUM        
      1.92686345E-03    3      1000022        16       -16             # Z2SS   -->  Z1SS   NUT    ANUT        
      1.81768119E-01    2      1000022        25                       # Z2SS   -->  Z1SS   HL0                
#         PDG         Width
DECAY   1000025  3.15783215E+01   # Z3SS  decays
#          BR          NDA       ID1       ID2       ID3       ID4
      3.41872166E-08    2      1000022        22                       # Z3SS   -->  Z1SS   GM                 
      3.71739652E-08    2      1000023        22                       # Z3SS   -->  Z2SS   GM                 
      3.31934243E-01    2      1000024       -24                       # Z3SS   -->  W1SS+  W-                 
      3.31934243E-01    2     -1000024        24                       # Z3SS   -->  W1SS-  W+                 
      2.06375659E-01    2      1000022        23                       # Z3SS   -->  Z1SS   Z0                 
      7.03546405E-02    2      1000023        23                       # Z3SS   -->  Z2SS   Z0                 
      1.73248604E-09    3      1000022         2        -2             # Z3SS   -->  Z1SS   UP     UB          
      2.31314168E-09    3      1000022         1        -1             # Z3SS   -->  Z1SS   DN     DB          
      2.31314168E-09    3      1000022         3        -3             # Z3SS   -->  Z1SS   ST     SB          
      1.73248604E-09    3      1000022         4        -4             # Z3SS   -->  Z1SS   CH     CB          
      1.44581338E-06    3      1000022         5        -5             # Z3SS   -->  Z1SS   BT     BB          
      3.61444918E-09    3      1000022        11       -11             # Z3SS   -->  Z1SS   E-     E+          
      3.61444918E-09    3      1000022        13       -13             # Z3SS   -->  Z1SS   MU-    MU+         
      8.22915240E-07    3      1000022        15       -15             # Z3SS   -->  Z1SS   TAU-   TAU+        
      8.73751560E-09    3      1000022        12       -12             # Z3SS   -->  Z1SS   NUE    ANUE        
      8.73751560E-09    3      1000022        14       -14             # Z3SS   -->  Z1SS   NUM    ANUM        
      8.84077700E-09    3      1000022        16       -16             # Z3SS   -->  Z1SS   NUT    ANUT        
      1.06320308E-11    3      1000023         2        -2             # Z3SS   -->  Z2SS   UP     UB          
      5.98627788E-12    3      1000023         1        -1             # Z3SS   -->  Z2SS   DN     DB          
      5.98627788E-12    3      1000023         3        -3             # Z3SS   -->  Z2SS   ST     SB          
      1.06320308E-11    3      1000023         4        -4             # Z3SS   -->  Z2SS   CH     CB          
      1.59290074E-08    3      1000023         5        -5             # Z3SS   -->  Z2SS   BT     BB          
      2.69699124E-10    3      1000023        11       -11             # Z3SS   -->  Z2SS   E-     E+          
      2.69699124E-10    3      1000023        13       -13             # Z3SS   -->  Z2SS   MU-    MU+         
      1.88698905E-07    3      1000023        15       -15             # Z3SS   -->  Z2SS   TAU-   TAU+        
      2.82730839E-10    3      1000023        12       -12             # Z3SS   -->  Z2SS   NUE    ANUE        
      2.82730839E-10    3      1000023        14       -14             # Z3SS   -->  Z2SS   NUM    ANUM        
      2.87090407E-10    3      1000023        16       -16             # Z3SS   -->  Z2SS   NUT    ANUT        
      5.67319840E-02    2      1000022        25                       # Z3SS   -->  Z1SS   HL0                
      2.66676978E-03    2      1000023        25                       # Z3SS   -->  Z2SS   HL0                
#         PDG         Width
DECAY   1000035  2.68993645E+01   # Z4SS  decays
#          BR          NDA       ID1       ID2       ID3       ID4
      1.00609290E-08    2      1000022        22                       # Z4SS   -->  Z1SS   GM                 
      5.94735603E-08    2      1000023        22                       # Z4SS   -->  Z2SS   GM                 
      3.90775304E-15    2      1000025        22                       # Z4SS   -->  Z3SS   GM                 
      2.44942203E-01    2      1000024       -24                       # Z4SS   -->  W1SS+  W-                 
      2.44942203E-01    2     -1000024        24                       # Z4SS   -->  W1SS-  W+                 
      7.51349255E-02    2      1000022        23                       # Z4SS   -->  Z1SS   Z0                 
      3.34117515E-03    2      1000023        23                       # Z4SS   -->  Z2SS   Z0                 
      8.13917378E-09    3      1000022         2        -2             # Z4SS   -->  Z1SS   UP     UB          
      1.83377633E-08    3      1000022         1        -1             # Z4SS   -->  Z1SS   DN     DB          
      1.83377633E-08    3      1000022         3        -3             # Z4SS   -->  Z1SS   ST     SB          
      8.13917378E-09    3      1000022         4        -4             # Z4SS   -->  Z1SS   CH     CB          
      1.72655780E-06    3      1000022         5        -5             # Z4SS   -->  Z1SS   BT     BB          
      5.26992006E-09    3      1000022        11       -11             # Z4SS   -->  Z1SS   E-     E+          
      5.26992006E-09    3      1000022        13       -13             # Z4SS   -->  Z1SS   MU-    MU+         
      9.65188747E-07    3      1000022        15       -15             # Z4SS   -->  Z1SS   TAU-   TAU+        
      8.50770405E-08    3      1000022        12       -12             # Z4SS   -->  Z1SS   NUE    ANUE        
      8.50770405E-08    3      1000022        14       -14             # Z4SS   -->  Z1SS   NUM    ANUM        
      8.59949409E-08    3      1000022        16       -16             # Z4SS   -->  Z1SS   NUT    ANUT        
      5.35978539E-10    3      1000023         2        -2             # Z4SS   -->  Z2SS   UP     UB          
      1.02519424E-10    3      1000023         1        -1             # Z4SS   -->  Z2SS   DN     DB          
      1.02519424E-10    3      1000023         3        -3             # Z4SS   -->  Z2SS   ST     SB          
      5.35978539E-10    3      1000023         4        -4             # Z4SS   -->  Z2SS   CH     CB          
      1.86559266E-08    3      1000023         5        -5             # Z4SS   -->  Z2SS   BT     BB          
      1.06376392E-08    3      1000023        11       -11             # Z4SS   -->  Z2SS   E-     E+          
      1.06376392E-08    3      1000023        13       -13             # Z4SS   -->  Z2SS   MU-    MU+         
      2.32447050E-07    3      1000023        15       -15             # Z4SS   -->  Z2SS   TAU-   TAU+        
      4.35707292E-09    3      1000023        12       -12             # Z4SS   -->  Z2SS   NUE    ANUE        
      4.35707292E-09    3      1000023        14       -14             # Z4SS   -->  Z2SS   NUM    ANUM        
      4.41680914E-09    3      1000023        16       -16             # Z4SS   -->  Z2SS   NUT    ANUT        
      3.16833436E-01    2      1000022        25                       # Z4SS   -->  Z1SS   HL0                
      1.14802711E-01    2      1000023        25                       # Z4SS   -->  Z2SS   HL0                
#         PDG         Width
DECAY   1000024  4.54828148E-15   # W1SS+ decays
#          BR          NDA       ID1       ID2       ID3       ID4
      1.00000000E+00    2      1000022         0                       # W1SS+  -->  Z1SS   PI+                
#         PDG         Width
DECAY   1000037  3.33086777E+01   # W2SS+ decays
#          BR          NDA       ID1       ID2       ID3       ID4
      2.04757331E-08    3      1000022         2        -1             # W2SS+  -->  Z1SS   UP     DB          
      2.04757331E-08    3      1000022         4        -3             # W2SS+  -->  Z1SS   CH     SB          
      5.84855471E-08    3      1000022       -11        12             # W2SS+  -->  Z1SS   E+     NUE         
      5.84855471E-08    3      1000022       -13        14             # W2SS+  -->  Z1SS   MU+    NUM         
      8.42468410E-07    3      1000022       -15        16             # W2SS+  -->  Z1SS   TAU+   NUT         
      3.29053491E-01    2      1000022        24                       # W2SS+  -->  Z1SS   W+                 
      1.09419154E-10    3      1000023         2        -1             # W2SS+  -->  Z2SS   UP     DB          
      1.09419154E-10    3      1000023         4        -3             # W2SS+  -->  Z2SS   CH     SB          
      3.77065268E-09    3      1000023       -11        12             # W2SS+  -->  Z2SS   E+     NUE         
      3.77065268E-09    3      1000023       -13        14             # W2SS+  -->  Z2SS   MU+    NUM         
      1.85550633E-07    3      1000023       -15        16             # W2SS+  -->  Z2SS   TAU+   NUT         
      6.93287253E-02    2      1000023        24                       # W2SS+  -->  Z2SS   W+                 
      8.71874170E-11    3      1000025         2        -1             # W2SS+  -->  Z3SS   UP     DB          
      8.71874170E-11    3      1000025         4        -3             # W2SS+  -->  Z3SS   CH     SB          
      2.90624764E-11    3      1000025       -11        12             # W2SS+  -->  Z3SS   E+     NUE         
      2.90624764E-11    3      1000025       -13        14             # W2SS+  -->  Z3SS   MU+    NUM         
      2.90627123E-11    3      1000025       -15        16             # W2SS+  -->  Z3SS   TAU+   NUT         
      1.62335909E-11    3      1000035         2        -1             # W2SS+  -->  Z4SS   UP     DB          
      1.62335909E-11    3      1000035         4        -3             # W2SS+  -->  Z4SS   CH     SB          
      5.41120013E-12    3      1000035       -11        12             # W2SS+  -->  Z4SS   E+     NUE         
      5.41120013E-12    3      1000035       -13        14             # W2SS+  -->  Z4SS   MU+    NUM         
      5.41126952E-12    3      1000035       -15        16             # W2SS+  -->  Z4SS   TAU+   NUT         
      2.91818559E-01    2      1000024        23                       # W2SS+  -->  W1SS+  Z0                 
      6.43486464E-09    3      1000024         1        -1             # W2SS+  -->  W1SS+  DN     DB          
      6.43486464E-09    3      1000024         3        -3             # W2SS+  -->  W1SS+  ST     SB          
      4.27853415E-08    3      1000024         2        -2             # W2SS+  -->  W1SS+  UP     UB          
      4.27853415E-08    3      1000024         4        -4             # W2SS+  -->  W1SS+  CH     CB          
      1.16892359E-07    3      1000024        12       -12             # W2SS+  -->  W1SS+  NUE    ANUE        
      1.16892359E-07    3      1000024        14       -14             # W2SS+  -->  W1SS+  NUM    ANUM        
      1.25004135E-07    3      1000024        16       -16             # W2SS+  -->  W1SS+  NUT    ANUT        
      1.76122867E-08    3      1000024        11       -11             # W2SS+  -->  W1SS+  E-     E+          
      1.76122867E-08    3      1000024        13       -13             # W2SS+  -->  W1SS+  MU-    MU+         
      1.78102812E-08    3      1000024        15       -15             # W2SS+  -->  W1SS+  TAU-   TAU+        
      3.09797674E-01    2      1000024        25                       # W2SS+  -->  W1SS+  HL0                
#         PDG         Width
DECAY        25  4.19489993E-03   # HL0   decays
#          BR          NDA       ID1       ID2       ID3       ID4
      4.74717199E-09    2           11       -11                       # HL0    -->  E-     E+                 
      2.00433205E-04    2           13       -13                       # HL0    -->  MU-    MU+                
      5.73280677E-02    2           15       -15                       # HL0    -->  TAU-   TAU+               
      5.95660686E-06    2            1        -1                       # HL0    -->  DN     DB                 
      2.40676780E-03    2            3        -3                       # HL0    -->  ST     SB                 
      7.87002027E-01    2            5        -5                       # HL0    -->  BT     BB                 
      1.90391461E-06    2            2        -2                       # HL0    -->  UP     UB                 
      3.57434116E-02    2            4        -4                       # HL0    -->  CH     CB                 
      1.90284231E-03    2           22        22                       # HL0    -->  GM     GM                 
      4.06458899E-02    2           21        21                       # HL0    -->  GL     GL                 
      3.83582944E-03    3           24        11       -12             # HL0    -->  W+     E-     ANUE        
      3.83582944E-03    3           24        13       -14             # HL0    -->  W+     MU-    ANUM        
      3.83582944E-03    3           24        15       -16             # HL0    -->  W+     TAU-   ANUT        
      1.15074888E-02    3           24        -2         1             # HL0    -->  W+     UB     DN          
      1.15074888E-02    3           24        -4         3             # HL0    -->  W+     CB     ST          
      3.83582944E-03    3          -24       -11        12             # HL0    -->  W-     E+     NUE         
      3.83582944E-03    3          -24       -13        14             # HL0    -->  W-     MU+    NUM         
      3.83582944E-03    3          -24       -15        16             # HL0    -->  W-     TAU+   NUT         
      1.15074888E-02    3          -24         2        -1             # HL0    -->  W-     UP     DB          
      1.15074888E-02    3          -24         4        -3             # HL0    -->  W-     CH     SB          
      3.91030160E-04    3           23        12       -12             # HL0    -->  Z0     NUE    ANUE        
      3.91030160E-04    3           23        14       -14             # HL0    -->  Z0     NUM    ANUM        
      3.91030160E-04    3           23        16       -16             # HL0    -->  Z0     NUT    ANUT        
      1.96801542E-04    3           23        11       -11             # HL0    -->  Z0     E-     E+          
      1.96801542E-04    3           23        13       -13             # HL0    -->  Z0     MU-    MU+         
      1.96801542E-04    3           23        15       -15             # HL0    -->  Z0     TAU-   TAU+        
      6.74225390E-04    3           23         2        -2             # HL0    -->  Z0     UP     UB          
      6.74225390E-04    3           23         4        -4             # HL0    -->  Z0     CH     CB          
      8.68568430E-04    3           23         1        -1             # HL0    -->  Z0     DN     DB          
      8.68568430E-04    3           23         3        -3             # HL0    -->  Z0     ST     SB          
      8.68568430E-04    3           23         5        -5             # HL0    -->  Z0     BT     BB          
#         PDG         Width
DECAY        35  4.10663452E+01   # HH0   decays
#          BR          NDA       ID1       ID2       ID3       ID4
      6.88699431E-10    2           11       -11                       # HH0    -->  E-     E+                 
      2.90781318E-05    2           13       -13                       # HH0    -->  MU-    MU+                
      8.32841918E-03    2           15       -15                       # HH0    -->  TAU-   TAU+               
      8.32598744E-07    2            1        -1                       # HH0    -->  DN     DB                 
      3.36411817E-04    2            3        -3                       # HH0    -->  ST     SB                 
      4.12662290E-02    2            5        -5                       # HH0    -->  BT     BB                 
      4.26695790E-10    2            2        -2                       # HH0    -->  UP     UB                 
      4.90204684E-06    2            4        -4                       # HH0    -->  CH     CB                 
      2.57541358E-01    2            6        -6                       # HH0    -->  TP     TB                 
      2.65396778E-07    2           22        22                       # HH0    -->  GM     GM                 
      2.18899240E-05    2           21        21                       # HH0    -->  GL     GL                 
      2.39407345E-05    2           24       -24                       # HH0    -->  W+     W-                 
      1.22854144E-05    2           23        23                       # HH0    -->  Z0     Z0                 
      3.52142350E-04    2      1000022   1000022                       # HH0    -->  Z1SS   Z1SS               
      2.05824777E-04    2      1000022   1000023                       # HH0    -->  Z1SS   Z2SS               
      1.84501529E-01    2      1000022   1000025                       # HH0    -->  Z1SS   Z3SS               
      4.63377908E-02    2      1000022   1000035                       # HH0    -->  Z1SS   Z4SS               
      1.68001679E-05    2      1000023   1000023                       # HH0    -->  Z2SS   Z2SS               
      7.18328985E-04    2      1000024  -1000024                       # HH0    -->  W1SS+  W1SS-              
      2.30099693E-01    2      1000024  -1000037                       # HH0    -->  W1SS+  W2SS-              
      2.30099693E-01    2     -1000024   1000037                       # HH0    -->  W1SS-  W2SS+              
      1.02642720E-04    2           25        25                       # HH0    -->  HL0    HL0                
#         PDG         Width
DECAY        36  4.02457924E+01   # HA0   decays
#          BR          NDA       ID1       ID2       ID3       ID4
      6.98164249E-10    2           11       -11                       # HA0    -->  E-     E+                 
      2.94777547E-05    2           13       -13                       # HA0    -->  MU-    MU+                
      8.44287965E-03    2           15       -15                       # HA0    -->  TAU-   TAU+               
      8.44073668E-07    2            1        -1                       # HA0    -->  DN     DB                 
      3.41048319E-04    2            3        -3                       # HA0    -->  ST     SB                 
      4.18350063E-02    2            5        -5                       # HA0    -->  BT     BB                 
      4.32122005E-10    2            2        -2                       # HA0    -->  UP     UB                 
      4.96760549E-06    2            4        -4                       # HA0    -->  CH     CB                 
      2.61467338E-01    2            6        -6                       # HA0    -->  TP     TB                 
      1.67807443E-07    2           22        22                       # HA0    -->  GM     GM                 
      2.52385653E-05    2           21        21                       # HA0    -->  GL     GL                 
      4.75779263E-04    2      1000022   1000022                       # HA0    -->  Z1SS   Z1SS               
      3.94505245E-04    2      1000022   1000023                       # HA0    -->  Z1SS   Z2SS               
      4.56436835E-02    2      1000022   1000025                       # HA0    -->  Z1SS   Z3SS               
      1.83399439E-01    2      1000022   1000035                       # HA0    -->  Z1SS   Z4SS               
      7.42182237E-05    2      1000023   1000023                       # HA0    -->  Z2SS   Z2SS               
      1.05403597E-03    2      1000024  -1000024                       # HA0    -->  W1SS+  W1SS-              
      2.28393570E-01    2      1000024  -1000037                       # HA0    -->  W1SS+  W2SS-              
      2.28393570E-01    2     -1000024   1000037                       # HA0    -->  W1SS-  W2SS+              
      2.42525148E-05    2           25        23                       # HA0    -->  HL0    Z0                 
#         PDG         Width
DECAY        37  4.02257385E+01   # H+    decays
#          BR          NDA       ID1       ID2       ID3       ID4
      7.03157643E-10    2           12       -11                       # H+     -->  NUE    E+                 
      2.96885828E-05    2           14       -13                       # H+     -->  NUM    MU+                
      8.50326475E-03    2           16       -15                       # H+     -->  NUT    TAU+               
      7.92181766E-07    2            2        -1                       # H+     -->  UP     DB                 
      3.24574474E-04    2            4        -3                       # H+     -->  CH     SB                 
      2.84114987E-01    2            6        -5                       # H+     -->  TP     BB                 
      6.78906133E-07    2      1000024   1000022                       # H+     -->  W1SS+  Z1SS               
      6.27931033E-04    2      1000024   1000023                       # H+     -->  W1SS+  Z2SS               
      2.35843137E-01    2      1000024   1000025                       # H+     -->  W1SS+  Z3SS               
      2.35514328E-01    2      1000024   1000035                       # H+     -->  W1SS+  Z4SS               
      2.35016227E-01    2      1000037   1000022                       # H+     -->  W2SS+  Z1SS               
      2.44329967E-05    2           25        24                       # H+     -->  HL0    W+                 
